{
  "total": 927,
  "offset": 0,
  "next": 10,
  "data": [
    {
      "paperId": "c4fcfa7181a5d8a235ac051191597c7b87c40ca1",
      "externalIds": {
        "MAG": "1849700913",
        "DBLP": "conf/icml/RichmanM15",
        "CorpusId": 14718342
      },
      "url": "https://www.semanticscholar.org/paper/c4fcfa7181a5d8a235ac051191597c7b87c40ca1",
      "title": "Dynamic Sensing: Better Classification under Acquisition Constraints",
      "venue": "International Conference on Machine Learning",
      "year": 2015,
      "referenceCount": 24,
      "citationCount": 2,
      "authors": [
        {
          "authorId": "2830570",
          "name": "Oran Richman"
        },
        {
          "authorId": "1712535",
          "name": "Shie Mannor"
        }
      ]
    },
    {
      "paperId": "95625a19520c03e90bebeea86065562e4ba7e076",
      "externalIds": {
        "DOI": "10.1016/j.jenvman.2023.118315",
        "CorpusId": 259119038,
        "PubMed": "37290304"
      },
      "url": "https://www.semanticscholar.org/paper/95625a19520c03e90bebeea86065562e4ba7e076",
      "title": "Forest fuel type classification: Review of remote sensing techniques, constraints and future trends.",
      "venue": "Journal of Environmental Management",
      "year": 2023,
      "referenceCount": 75,
      "citationCount": 37,
      "authors": [
        {
          "authorId": "71240930",
          "name": "A. Abdollahi"
        },
        {
          "authorId": "46523347",
          "name": "M. Yebra"
        }
      ]
    },
    {
      "paperId": "fb9791d5b3177c78716b96ec558a5198b4bea9a3",
      "externalIds": {
        "ArXiv": "2505.10015",
        "DBLP": "conf/globecom/ZakeriNAJ25",
        "DOI": "10.1109/GLOBECOM59602.2025.11431812",
        "CorpusId": 278636294
      },
      "url": "https://www.semanticscholar.org/paper/fb9791d5b3177c78716b96ec558a5198b4bea9a3",
      "title": "Constrained Multimodal Sensing-Aided Communications: A Dynamic Beamforming Design",
      "venue": "Global Communications Conference",
      "year": 2025,
      "referenceCount": 13,
      "citationCount": 2,
      "authors": [
        {
          "authorId": "2350754330",
          "name": "Abolfazl Zakeri"
        },
        {
          "authorId": "2316890338",
          "name": "N. Nguyen"
        },
        {
          "authorId": "2257286726",
          "name": "A. Alkhateeb"
        },
        {
          "authorId": "2288481274",
          "name": "Markku J. Juntti"
        }
      ]
    },
    {
      "paperId": "115f5aaba16ee67983a179381e3c630c350885b5",
      "externalIds": {
        "DOI": "10.1109/IEMENTech65115.2025.10959512",
        "CorpusId": 277821046
      },
      "url": "https://www.semanticscholar.org/paper/115f5aaba16ee67983a179381e3c630c350885b5",
      "title": "Under Water Localization and Mapping Integrated with Object Detection Classification and LIDAR Sensing Technology",
      "venue": "2025 8th International Conference on Electronics, Materials Engineering & Nano-Technology (IEMENTech)",
      "year": 2025,
      "referenceCount": 22,
      "citationCount": 0,
      "authors": [
        {
          "authorId": "46326594",
          "name": "S. Saha"
        },
        {
          "authorId": "2355611730",
          "name": "Nirlov Saha"
        },
        {
          "authorId": "2355611477",
          "name": "Susamoy Aich"
        },
        {
          "authorId": "2283500677",
          "name": "Saptarshee Basak"
        },
        {
          "authorId": "2355611923",
          "name": "Ratna Chakraborty"
        },
        {
          "authorId": "2355611579",
          "name": "T. K. Rana"
        }
      ]
    },
    {
      "paperId": "fd69240b69ec5fd4561a179a6d89859790467820",
      "externalIds": {
        "PubMedCentral": "11929642",
        "DOI": "10.1186/s13244-025-01936-4",
        "CorpusId": 277256138,
        "PubMed": "40120009"
      },
      "url": "https://www.semanticscholar.org/paper/fd69240b69ec5fd4561a179a6d89859790467820",
      "title": "Preliminary study on the feasibility of united compressed sensing with radial acquisition as a routine method for liver dynamic contrast-enhanced examination in elderly patients with malignancy",
      "venue": "Insights into Imaging",
      "year": 2025,
      "referenceCount": 21,
      "citationCount": 1,
      "authors": [
        {
          "authorId": "2153489983",
          "name": "Heping Deng"
        },
        {
          "authorId": "2351814360",
          "name": "Xiaolei Dong"
        },
        {
          "authorId": "2175320978",
          "name": "Yu Zhang"
        },
        {
          "authorId": "2322799394",
          "name": "Peng Zhou"
        },
        {
          "authorId": "2322110729",
          "name": "Yakun He"
        },
        {
          "authorId": "2351636138",
          "name": "Liu Yang"
        }
      ]
    },
    {
      "paperId": "8bbb3d0b4673cf4c4c73e6db6b07aa9dfa5ef4bd",
      "externalIds": {
        "PubMedCentral": "12321143",
        "DOI": "10.1371/journal.pone.0328160",
        "CorpusId": 280523050,
        "PubMed": "40758709"
      },
      "url": "https://www.semanticscholar.org/paper/8bbb3d0b4673cf4c4c73e6db6b07aa9dfa5ef4bd",
      "title": "Leveraging potential of limpid attention transformer with dynamic tokenization for hyperspectral image classification",
      "venue": "PLoS ONE",
      "year": 2025,
      "referenceCount": 46,
      "citationCount": 0,
      "authors": [
        {
          "authorId": "2237850721",
          "name": "D. P. Yadav"
        },
        {
          "authorId": "2238222531",
          "name": "Deepak Kumar"
        },
        {
          "authorId": "2382872534",
          "name": "Anand Singh Jalal"
        },
        {
          "authorId": "2239984043",
          "name": "Bhisham Sharma"
        },
        {
          "authorId": "144015890",
          "name": "P. Liatsis"
        }
      ]
    },
    {
      "paperId": "02db600094e8c45cea5e4a7f2a8d31890c2a8804",
      "externalIds": {
        "DBLP": "journals/remotesensing/ZhuZHCGCJ24",
        "DOI": "10.3390/rs16122134",
        "CorpusId": 270509213
      },
      "url": "https://www.semanticscholar.org/paper/02db600094e8c45cea5e4a7f2a8d31890c2a8804",
      "title": "Cross-Domain Classification Based on Frequency Component Adaptation for Remote Sensing Images",
      "venue": "Remote Sensing",
      "year": 2024,
      "referenceCount": 43,
      "citationCount": 8,
      "authors": [
        {
          "authorId": "2055690884",
          "name": "Peng Zhu"
        },
        {
          "authorId": "2260828599",
          "name": "Xiangrong Zhang"
        },
        {
          "authorId": "2118234819",
          "name": "Xiao Han"
        },
        {
          "authorId": "2232805958",
          "name": "Xina Cheng"
        },
        {
          "authorId": "2087081829",
          "name": "Jing Gu"
        },
        {
          "authorId": "3394474",
          "name": "Puhua Chen"
        },
        {
          "authorId": "2143819911",
          "name": "Licheng Jiao"
        }
      ]
    },
    {
      "paperId": "65d008d01226ab35dab38b967ac74bc9105735b6",
      "externalIds": {
        "DOI": "10.3390/rs18060896",
        "CorpusId": 286602861
      },
      "url": "https://www.semanticscholar.org/paper/65d008d01226ab35dab38b967ac74bc9105735b6",
      "title": "A Memory-Efficient Class-Incremental Learning Framework for Remote Sensing Scene Classification via Feature Replay",
      "venue": "Remote Sensing",
      "year": 2026,
      "referenceCount": 39,
      "citationCount": 0,
      "authors": [
        {
          "authorId": "2424423821",
          "name": "Yunze Wei"
        },
        {
          "authorId": "2237393415",
          "name": "Yuhan Liu"
        },
        {
          "authorId": "2237849244",
          "name": "Ben Niu"
        },
        {
          "authorId": "2391812834",
          "name": "Xiantai Xiang"
        },
        {
          "authorId": "2424421992",
          "name": "Jingdun Lin"
        },
        {
          "authorId": "46972705",
          "name": "Yuxin Hu"
        },
        {
          "authorId": "2115853360",
          "name": "Yirong Wu"
        }
      ]
    },
    {
      "paperId": "6f0fafdfc7b92d4be97ff93bce17cc99704762f5",
      "externalIds": {
        "DBLP": "journals/remotesensing/SongMYWW23",
        "DOI": "10.3390/rs15194788",
        "CorpusId": 263640751
      },
      "url": "https://www.semanticscholar.org/paper/6f0fafdfc7b92d4be97ff93bce17cc99704762f5",
      "title": "A Fourier Frequency Domain Convolutional Neural Network for Remote Sensing Crop Classification Considering Global Consistency and Edge Specificity",
      "venue": "Remote Sensing",
      "year": 2023,
      "referenceCount": 0,
      "citationCount": 20,
      "authors": [
        {
          "authorId": "2253510117",
          "name": "Binbin Song"
        },
        {
          "authorId": "2253469930",
          "name": "Songhan Min"
        },
        {
          "authorId": "2155585554",
          "name": "Hui Yang"
        },
        {
          "authorId": "2255306905",
          "name": "Yongchuang Wu"
        },
        {
          "authorId": "2112555467",
          "name": "Biao Wang"
        }
      ]
    },
    {
      "paperId": "3d2507863e05b4a9d778c70369746525e8ff9350",
      "externalIds": {
        "PubMedCentral": "10030969",
        "DOI": "10.1038/s41598-023-31779-2",
        "CorpusId": 257641400,
        "PubMed": "36944784"
      },
      "url": "https://www.semanticscholar.org/paper/3d2507863e05b4a9d778c70369746525e8ff9350",
      "title": "Distributed dynamic strain sensing of very long period and long period events on telecom fiber-optic cables at Vulcano, Italy",
      "venue": "Scientific Reports",
      "year": 2023,
      "referenceCount": 71,
      "citationCount": 21,
      "authors": [
        {
          "authorId": "2573970",
          "name": "G. Currenti"
        },
        {
          "authorId": "2212109573",
          "name": "M. Allegra"
        },
        {
          "authorId": "48917124",
          "name": "F. Cannavò"
        },
        {
          "authorId": "14261594",
          "name": "P. Jousset"
        },
        {
          "authorId": "1905676",
          "name": "M. Prestifilippo"
        },
        {
          "authorId": "52096183",
          "name": "R. Napoli"
        },
        {
          "authorId": "8676080",
          "name": "M. Sciotto"
        },
        {
          "authorId": "47970813",
          "name": "G. Di Grazia"
        },
        {
          "authorId": "41017820",
          "name": "E. Privitera"
        },
        {
          "authorId": "2212096943",
          "name": "Simone Palazzo"
        },
        {
          "authorId": "2076374510",
          "name": "C. Krawczyk"
        }
      ]
    }
  ]
}