{
  "total": 128,
  "offset": 0,
  "next": 10,
  "data": [
    {
      "paperId": "de96cd450baca1a76d89a72081239935e0aa43a3",
      "externalIds": {
        "MAG": "2963031612",
        "ArXiv": "1807.01442",
        "DBLP": "conf/icml/DharGE18",
        "CorpusId": 49570496
      },
      "url": "https://www.semanticscholar.org/paper/de96cd450baca1a76d89a72081239935e0aa43a3",
      "title": "Modeling Sparse Deviations for Compressed Sensing using Generative Models",
      "venue": "International Conference on Machine Learning",
      "year": 2018,
      "referenceCount": 49,
      "citationCount": 86,
      "authors": [
        {
          "authorId": "10385023",
          "name": "Manik Dhar"
        },
        {
          "authorId": "1954250",
          "name": "Aditya Grover"
        },
        {
          "authorId": "2490652",
          "name": "Stefano Ermon"
        }
      ]
    },
    {
      "paperId": "f5a53107a936534f9fe18d7b647eeb1a5dcba083",
      "externalIds": {
        "CorpusId": 260495345
      },
      "url": "https://www.semanticscholar.org/paper/f5a53107a936534f9fe18d7b647eeb1a5dcba083",
      "title": "Modeling Sparse Deviations for Compressed Sensing using Generative Models",
      "venue": "",
      "year": null,
      "referenceCount": 0,
      "citationCount": 4,
      "authors": []
    },
    {
      "paperId": "dbc7c07181243ba7693a1e97962d390ca98ce426",
      "externalIds": {
        "DBLP": "conf/vcip/CaiFXZLZ20",
        "DOI": "10.1109/VCIP49819.2020.9301808",
        "CorpusId": 230513770
      },
      "url": "https://www.semanticscholar.org/paper/dbc7c07181243ba7693a1e97962d390ca98ce426",
      "title": "Fast compressed sensing recovery using generative models and sparse deviations modeling",
      "venue": "Visual Communications and Image Processing",
      "year": 2020,
      "referenceCount": 17,
      "citationCount": 0,
      "authors": [
        {
          "authorId": "2112830996",
          "name": "Lei Cai"
        },
        {
          "authorId": "2226066",
          "name": "Yuli Fu"
        },
        {
          "authorId": "2890280",
          "name": "Youjun Xiang"
        },
        {
          "authorId": "2142229270",
          "name": "Tao Zhu"
        },
        {
          "authorId": "2108137492",
          "name": "Xianfeng Li"
        },
        {
          "authorId": "72910910",
          "name": "Huanqiang Zeng"
        }
      ]
    },
    {
      "paperId": "f580b0e1020ad67bdbb11e8d99a59c21a8df1e7d",
      "externalIds": {
        "MAG": "2595294663",
        "DBLP": "conf/icml/BoraJPD17",
        "ArXiv": "1703.03208",
        "CorpusId": 9272289
      },
      "url": "https://www.semanticscholar.org/paper/f580b0e1020ad67bdbb11e8d99a59c21a8df1e7d",
      "title": "Compressed Sensing using Generative Models",
      "venue": "International Conference on Machine Learning",
      "year": 2017,
      "referenceCount": 45,
      "citationCount": 906,
      "authors": [
        {
          "authorId": "2346355",
          "name": "Ashish Bora"
        },
        {
          "authorId": "2021902",
          "name": "Ajil Jalal"
        },
        {
          "authorId": "4989538",
          "name": "Eric Price"
        },
        {
          "authorId": "1718469",
          "name": "A. Dimakis"
        }
      ]
    },
    {
      "paperId": "661a19c55f45a3e1855458ff01e70a2aed6355f9",
      "externalIds": {
        "DBLP": "journals/mlc/WangYNX21",
        "MAG": "3189696178",
        "DOI": "10.1007/s13042-021-01337-1",
        "CorpusId": 238664692
      },
      "url": "https://www.semanticscholar.org/paper/661a19c55f45a3e1855458ff01e70a2aed6355f9",
      "title": "Compressed sensing using generative models based on fisher information",
      "venue": "International Journal of Machine Learning and Cybernetics",
      "year": 2021,
      "referenceCount": 46,
      "citationCount": 3,
      "authors": [
        {
          "authorId": "2146058967",
          "name": "Meng Wang"
        },
        {
          "authorId": "2151009858",
          "name": "Jing Yu"
        },
        {
          "authorId": "2053976614",
          "name": "Zhen-Hu Ning"
        },
        {
          "authorId": "2863393",
          "name": "Chuangbai Xiao"
        }
      ]
    },
    {
      "paperId": "bea7e448c0621e34dcc3349d3f419125e9aceec0",
      "externalIds": {
        "MAG": "3016215810",
        "ArXiv": "2502.12762",
        "DBLP": "conf/icassp/JosephKV20",
        "DOI": "10.1109/ICASSP40776.2020.9054212",
        "CorpusId": 216523004
      },
      "url": "https://www.semanticscholar.org/paper/bea7e448c0621e34dcc3349d3f419125e9aceec0",
      "title": "One-Bit Compressed Sensing Using Generative Models",
      "venue": "IEEE International Conference on Acoustics, Speech, and Signal Processing",
      "year": 2020,
      "referenceCount": 53,
      "citationCount": 10,
      "authors": [
        {
          "authorId": "39828957",
          "name": "Geethu Joseph"
        },
        {
          "authorId": "10442546",
          "name": "Swatantra Kafle"
        },
        {
          "authorId": "1925309",
          "name": "P. Varshney"
        }
      ]
    },
    {
      "paperId": "447d23ba8fbb16b6dcfb0c5641eaa6eb4fba3404",
      "externalIds": {
        "DOI": "10.3390/rs17071215",
        "CorpusId": 277489005
      },
      "url": "https://www.semanticscholar.org/paper/447d23ba8fbb16b6dcfb0c5641eaa6eb4fba3404",
      "title": "Generative Diffusion Models for Compressed Sensing of Satellite LiDAR Data: Evaluating Image Quality Metrics in Forest Landscape Reconstruction",
      "venue": "Remote Sensing",
      "year": 2025,
      "referenceCount": 0,
      "citationCount": 4,
      "authors": [
        {
          "authorId": "2209652711",
          "name": "A. Ramirez-Jaime"
        },
        {
          "authorId": "2248528020",
          "name": "Gonzalo R. Arce"
        },
        {
          "authorId": "2302684202",
          "name": "Nestor Porras-Diaz"
        },
        {
          "authorId": "2219458",
          "name": "O. Ieremeiev"
        },
        {
          "authorId": "48364321",
          "name": "Andrii Rubel"
        },
        {
          "authorId": "2295569192",
          "name": "Vladimir Lukin"
        },
        {
          "authorId": "2124259525",
          "name": "Mateusz Kopytek"
        },
        {
          "authorId": "2760084",
          "name": "P. Lech"
        },
        {
          "authorId": "2057576",
          "name": "Jarosław Fastowicz"
        },
        {
          "authorId": "2239775425",
          "name": "Krzysztof Okarma"
        }
      ]
    },
    {
      "paperId": "e0ece12dd02b3aa4ebd13cec62409405fd99acd0",
      "externalIds": {
        "DBLP": "journals/corr/abs-2411-09483",
        "ArXiv": "2411.09483",
        "DOI": "10.48550/arXiv.2411.09483",
        "CorpusId": 274023013
      },
      "url": "https://www.semanticscholar.org/paper/e0ece12dd02b3aa4ebd13cec62409405fd99acd0",
      "title": "Sparse Bayesian Generative Modeling for Compressive Sensing",
      "venue": "Neural Information Processing Systems",
      "year": 2024,
      "referenceCount": 50,
      "citationCount": 3,
      "authors": [
        {
          "authorId": "2189136753",
          "name": "Benedikt Böck"
        },
        {
          "authorId": "2238754928",
          "name": "Sadaf Syed"
        },
        {
          "authorId": "2248433697",
          "name": "Wolfgang Utschick"
        }
      ]
    },
    {
      "paperId": "d03a205a31ba5cc248adc1f2c40073b743ed2fd7",
      "externalIds": {
        "DOI": "10.12913/22998624/208545",
        "CorpusId": 281733794
      },
      "url": "https://www.semanticscholar.org/paper/d03a205a31ba5cc248adc1f2c40073b743ed2fd7",
      "title": "Computed tomography-positron emission and tomography image reconstruction under compressed sensing constraints",
      "venue": "Advances in Science and Technology Research Journal",
      "year": 2025,
      "referenceCount": 23,
      "citationCount": 0,
      "authors": [
        {
          "authorId": "2283230491",
          "name": "Krzysztof Malczewski"
        }
      ]
    },
    {
      "paperId": "5c353bc2a98f528bc7851627c27f258f8a9a24e0",
      "externalIds": {
        "DBLP": "conf/cvpr/LiuL22a",
        "ArXiv": "2205.15749",
        "DOI": "10.1109/CVPR52688.2022.00033",
        "CorpusId": 249209982
      },
      "url": "https://www.semanticscholar.org/paper/5c353bc2a98f528bc7851627c27f258f8a9a24e0",
      "title": "Non-Iterative Recovery from Nonlinear Observations using Generative Models",
      "venue": "Computer Vision and Pattern Recognition",
      "year": 2022,
      "referenceCount": 71,
      "citationCount": 13,
      "authors": [
        {
          "authorId": "3438518",
          "name": "Jiulong Liu"
        },
        {
          "authorId": "3782375",
          "name": "Zhaoqiang Liu"
        }
      ]
    }
  ]
}