{
  "total": 15,
  "offset": 0,
  "next": 10,
  "data": [
    {
      "paperId": "e8f37459639902dd43bf77e91a104990beea3e91",
      "externalIds": {
        "MAG": "2789359805",
        "DBLP": "journals/corr/abs-1803-03234",
        "CorpusId": 263871669
      },
      "url": "https://www.semanticscholar.org/paper/e8f37459639902dd43bf77e91a104990beea3e91",
      "title": "Improving Optimization in Models With Continuous Symmetry Breaking",
      "venue": "International Conference on Machine Learning",
      "year": 2018,
      "referenceCount": 27,
      "citationCount": 0,
      "authors": [
        {
          "authorId": "36347405",
          "name": "Robert Bamler"
        },
        {
          "authorId": "2266238615",
          "name": "Stephan Mandt"
        }
      ]
    },
    {
      "paperId": "82ee424bbac7d408668d8d43f28a4c9baeb11d92",
      "externalIds": {
        "MAG": "2964002373",
        "ArXiv": "1803.03234",
        "CorpusId": 3808474
      },
      "url": "https://www.semanticscholar.org/paper/82ee424bbac7d408668d8d43f28a4c9baeb11d92",
      "title": "Improving Optimization for Models With Continuous Symmetry Breaking.",
      "venue": "International Conference on Machine Learning",
      "year": 2018,
      "referenceCount": 37,
      "citationCount": 17,
      "authors": [
        {
          "authorId": "36347405",
          "name": "Robert Bamler"
        },
        {
          "authorId": "2266238615",
          "name": "Stephan Mandt"
        }
      ]
    },
    {
      "paperId": "247bff08fa55cb26926e621f355852900dad8e44",
      "externalIds": {
        "DBLP": "journals/symmetry/ZhaoLZ25",
        "DOI": "10.3390/sym17111847",
        "CorpusId": 282780124
      },
      "url": "https://www.semanticscholar.org/paper/247bff08fa55cb26926e621f355852900dad8e44",
      "title": "Symmetry-Preserving 4D Gaussian Splatting and Mapping for Motion-Aware Dynamic Scene Reconstruction",
      "venue": "Symmetry",
      "year": 2025,
      "referenceCount": 47,
      "citationCount": 0,
      "authors": [
        {
          "authorId": "2319817758",
          "name": "Rui Zhao"
        },
        {
          "authorId": "2390663174",
          "name": "Mingrui Li"
        },
        {
          "authorId": "2351714027",
          "name": "Zunjie Zhu"
        }
      ]
    },
    {
      "paperId": "82aadb3169ae5de7f993f0068b8e6dbdbfbd5bc6",
      "externalIds": {
        "MAG": "2887397672",
        "DBLP": "journals/cce/EwaschukSZ18",
        "DOI": "10.1016/J.COMPCHEMENG.2018.08.024",
        "CorpusId": 53741974
      },
      "url": "https://www.semanticscholar.org/paper/82aadb3169ae5de7f993f0068b8e6dbdbfbd5bc6",
      "title": "An optimization framework for scheduling of converter aisle operation in a nickel smelting plant",
      "venue": "Computers and Chemical Engineering",
      "year": 2018,
      "referenceCount": 41,
      "citationCount": 5,
      "authors": [
        {
          "authorId": "52033434",
          "name": "Christopher M. Ewaschuk"
        },
        {
          "authorId": "144208428",
          "name": "C. Swartz"
        },
        {
          "authorId": "2393553",
          "name": "Yale Zhang"
        }
      ]
    },
    {
      "paperId": "fd6fe816e2b3b6851a5fb0725844c9dc4bdb95f0",
      "externalIds": {
        "MAG": "2019626484",
        "DOI": "10.1080/00207543.2012.694489",
        "CorpusId": 108833775
      },
      "url": "https://www.semanticscholar.org/paper/fd6fe816e2b3b6851a5fb0725844c9dc4bdb95f0",
      "title": "A continuous-time MILP model for short-term scheduling of make-and-pack production processes",
      "venue": "",
      "year": 2013,
      "referenceCount": 45,
      "citationCount": 41,
      "authors": [
        {
          "authorId": "144537739",
          "name": "P. Baumann"
        },
        {
          "authorId": "2270116",
          "name": "N. Trautmann"
        }
      ]
    },
    {
      "paperId": "1ebd2c2d2da91c00d04ae41335b1e7a85bf44b60",
      "externalIds": {
        "ArXiv": "2206.00032",
        "CorpusId": 249240288
      },
      "url": "https://www.semanticscholar.org/paper/1ebd2c2d2da91c00d04ae41335b1e7a85bf44b60",
      "title": "A new mixed-integer programming model for irregular strip packing based on vertical slices with a reproducible survey",
      "venue": "",
      "year": 2022,
      "referenceCount": 97,
      "citationCount": 0,
      "authors": [
        {
          "authorId": "2165567022",
          "name": "Juan J. Lastra-D'iaz"
        },
        {
          "authorId": "4251532",
          "name": "M. Teresa Ortuño"
        }
      ]
    },
    {
      "paperId": "4ebe436e13179d1fb1137a8b01001d1e4dd0ae55",
      "externalIds": {
        "MAG": "2974466578",
        "DOI": "10.1016/j.trb.2019.09.009",
        "CorpusId": 204439927
      },
      "url": "https://www.semanticscholar.org/paper/4ebe436e13179d1fb1137a8b01001d1e4dd0ae55",
      "title": "ADMM-based problem decomposition scheme for vehicle routing problem with time windows",
      "venue": "Transportation Research Part B: Methodological",
      "year": 2019,
      "referenceCount": 70,
      "citationCount": 110,
      "authors": [
        {
          "authorId": "153462509",
          "name": "Yu Yao"
        },
        {
          "authorId": "2377432",
          "name": "Xiaoning Zhu"
        },
        {
          "authorId": "49377660",
          "name": "Hongyu Dong"
        },
        {
          "authorId": "47403655",
          "name": "Shengnan Wu"
        },
        {
          "authorId": "2119019914",
          "name": "Hailong Wu"
        },
        {
          "authorId": "48699827",
          "name": "L. Tong"
        },
        {
          "authorId": "51383605",
          "name": "Xuesong Zhou"
        }
      ]
    },
    {
      "paperId": "82d1a374839049e9e3e944858e2248c460b15454",
      "externalIds": {
        "MAG": "1562734251",
        "CorpusId": 262283703
      },
      "url": "https://www.semanticscholar.org/paper/82d1a374839049e9e3e944858e2248c460b15454",
      "title": "Integration of AI and OR techniques in constraint programming for combinatorial optimization problems : Second International Conference, CPAIOR 2005 Prague, Czech Republic, May 30-June 1, 2005 : proceedings",
      "venue": "",
      "year": 2005,
      "referenceCount": 0,
      "citationCount": 0,
      "authors": [
        {
          "authorId": "2245003687",
          "name": "Roman Barták"
        },
        {
          "authorId": "2245003947",
          "name": "M. Milano"
        }
      ]
    },
    {
      "paperId": "eb45e8f49d527cad2c708bb55ae741da9fd534dd",
      "externalIds": {
        "MAG": "786889257",
        "CorpusId": 106719659
      },
      "url": "https://www.semanticscholar.org/paper/eb45e8f49d527cad2c708bb55ae741da9fd534dd",
      "title": "OPTIMAL SCHEDULING OF CONVERTER AISLE OPERATION IN A NICKEL SMELTING PLANT",
      "venue": "",
      "year": 2014,
      "referenceCount": 60,
      "citationCount": 0,
      "authors": [
        {
          "authorId": "52033434",
          "name": "Christopher M. Ewaschuk"
        }
      ]
    },
    {
      "paperId": "3b275452fa5beaa02de0955cfdc28f46de20a5d9",
      "externalIds": {
        "MAG": "2765703971",
        "CorpusId": 126346967
      },
      "url": "https://www.semanticscholar.org/paper/3b275452fa5beaa02de0955cfdc28f46de20a5d9",
      "title": "Electron studies and search for vector boson scattering in events with four leptons and two jets with the CMS detector at the LHC",
      "venue": "",
      "year": 2017,
      "referenceCount": 63,
      "citationCount": 0,
      "authors": [
        {
          "authorId": "152591643",
          "name": "P. Pigard"
        }
      ]
    }
  ]
}