{
  "total": 29,
  "offset": 0,
  "next": 10,
  "data": [
    {
      "paperId": "2e23a0e8e4f8d9a241f3d654842ca6439115194a",
      "externalIds": {
        "MAG": "2741959974",
        "DBLP": "conf/icml/0004K17",
        "CorpusId": 35704211
      },
      "url": "https://www.semanticscholar.org/paper/2e23a0e8e4f8d9a241f3d654842ca6439115194a",
      "title": "Follow the Moving Leader in Deep Learning",
      "venue": "International Conference on Machine Learning",
      "year": 2017,
      "referenceCount": 38,
      "citationCount": 15,
      "authors": [
        {
          "authorId": "37748242",
          "name": "Shuai Zheng"
        },
        {
          "authorId": "145193332",
          "name": "J. Kwok"
        }
      ]
    },
    {
      "paperId": "4c8e3b95282dedd41d0913a163936cad6e5082e2",
      "externalIds": {
        "MAG": "2808218168",
        "DOI": "10.1109/ICCAR.2018.8384651",
        "CorpusId": 49184523
      },
      "url": "https://www.semanticscholar.org/paper/4c8e3b95282dedd41d0913a163936cad6e5082e2",
      "title": "Spatio-temporal deep learning for robotic visuomotor control",
      "venue": "2018 4th International Conference on Control, Automation and Robotics (ICCAR)",
      "year": 2018,
      "referenceCount": 29,
      "citationCount": 5,
      "authors": [
        {
          "authorId": "2060903755",
          "name": "John M. Pierre"
        }
      ]
    },
    {
      "paperId": "13152c72eee5fc92859088976d27a41cffa25c71",
      "externalIds": {
        "ArXiv": "2409.11910",
        "DBLP": "journals/corr/abs-2409-11910",
        "DOI": "10.1002/mp.17536",
        "CorpusId": 272704020,
        "PubMed": "39589333"
      },
      "url": "https://www.semanticscholar.org/paper/13152c72eee5fc92859088976d27a41cffa25c71",
      "title": "Tumor aware recurrent inter-patient deformable image registration of computed tomography scans with lung cancer",
      "venue": "Medical Physics (Lancaster)",
      "year": 2024,
      "referenceCount": 34,
      "citationCount": 5,
      "authors": [
        {
          "authorId": "2178725723",
          "name": "Jue Jiang"
        },
        {
          "authorId": "2249546141",
          "name": "C. Choi"
        },
        {
          "authorId": "1787832",
          "name": "M. Thor"
        },
        {
          "authorId": "2242804103",
          "name": "J. Deasy"
        },
        {
          "authorId": "2249293326",
          "name": "H. Veeraraghavan"
        }
      ]
    },
    {
      "paperId": "caa3e2d0566d6debeff1f2a8aeefcd3c38c6bf66",
      "externalIds": {
        "DOI": "10.1093/milmed/usab449",
        "CorpusId": 244908035,
        "PubMed": "34865091"
      },
      "url": "https://www.semanticscholar.org/paper/caa3e2d0566d6debeff1f2a8aeefcd3c38c6bf66",
      "title": "Nurse Leader Breaks Through Glass Ceiling: Making History as First Air Force Nurse Major General (1999-2005).",
      "venue": "Military Medicine",
      "year": 2021,
      "referenceCount": 16,
      "citationCount": 0,
      "authors": [
        {
          "authorId": "13291781",
          "name": "Vickie Hughes"
        },
        {
          "authorId": "1396828757",
          "name": "K. Sistrunk"
        },
        {
          "authorId": "2143187417",
          "name": "H. Hughes"
        }
      ]
    },
    {
      "paperId": "413c6129fa71bdad8f830d1a43565b39a3247afe",
      "externalIds": {
        "DOI": "10.1108/978-1-80592-469-2",
        "CorpusId": 283059477
      },
      "url": "https://www.semanticscholar.org/paper/413c6129fa71bdad8f830d1a43565b39a3247afe",
      "title": "Considerations for Culturally Informed Leadership",
      "venue": "",
      "year": 2025,
      "referenceCount": 0,
      "citationCount": 1,
      "authors": [
        {
          "authorId": "2490637",
          "name": "Kathy L. Guthrie"
        },
        {
          "authorId": "2271931582",
          "name": "Darren Pierre"
        }
      ]
    },
    {
      "paperId": "05d78bb1d84f05a6cdf8a89fd1dd7a889e224f99",
      "externalIds": {
        "DBLP": "journals/corr/abs-2602-01131",
        "ArXiv": "2602.01131",
        "DOI": "10.48550/arXiv.2602.01131",
        "CorpusId": 285271391
      },
      "url": "https://www.semanticscholar.org/paper/05d78bb1d84f05a6cdf8a89fd1dd7a889e224f99",
      "title": "Lyapunov Stability-Aware Stackelberg Game for Low-Altitude Economy: A Control-Oriented Pruning-Based DRL Approach",
      "venue": "arXiv.org",
      "year": 2026,
      "referenceCount": 0,
      "citationCount": 0,
      "authors": [
        {
          "authorId": "2238181586",
          "name": "Yue Zhong"
        },
        {
          "authorId": "2358568012",
          "name": "Jiawen Kang"
        },
        {
          "authorId": "2215605603",
          "name": "Yongju Tong"
        },
        {
          "authorId": "2354614608",
          "name": "Honghua Dai"
        },
        {
          "authorId": "2307596850",
          "name": "Dong In Kim"
        },
        {
          "authorId": "2237828911",
          "name": "Abbas Jamalipour"
        },
        {
          "authorId": "2174170336",
          "name": "Shengli Xie"
        }
      ]
    },
    {
      "paperId": "d111617beb351df8741ab2cd8591d0362c997643",
      "externalIds": {
        "MAG": "2794813152",
        "CorpusId": 169744447
      },
      "url": "https://www.semanticscholar.org/paper/d111617beb351df8741ab2cd8591d0362c997643",
      "title": "Η ετοιμότητα των εργαζομένων και η αντίσταση στην αλλαγή. Η περίπτωση των υπαλλήλων στο ΙΚΑ-ΕΤΑΜ",
      "venue": "",
      "year": 2017,
      "referenceCount": 0,
      "citationCount": 0,
      "authors": [
        {
          "authorId": "134917628",
          "name": "Επιστήμη Λιβανίου"
        }
      ]
    },
    {
      "paperId": "d46274b120736abaac00c9edb57ca27cb3892d4a",
      "externalIds": {
        "MAG": "2117357219",
        "DOI": "10.1080/00220671.2014.896707",
        "CorpusId": 145508976
      },
      "url": "https://www.semanticscholar.org/paper/d46274b120736abaac00c9edb57ca27cb3892d4a",
      "title": "A Review of “Teacher and Student Evaluation: Moving Beyond the Failure of School Reform”",
      "venue": "",
      "year": 2014,
      "referenceCount": 0,
      "citationCount": 0,
      "authors": [
        {
          "authorId": "118513917",
          "name": "Sandra A. Deemer"
        }
      ]
    },
    {
      "paperId": "275787c34e4258c801ce8314043bbc9b36850cf7",
      "externalIds": {
        "MAG": "86883341",
        "CorpusId": 150717082
      },
      "url": "https://www.semanticscholar.org/paper/275787c34e4258c801ce8314043bbc9b36850cf7",
      "title": "LTER Information Management and Collaborative Learning Environments",
      "venue": "",
      "year": 2011,
      "referenceCount": 30,
      "citationCount": 1,
      "authors": [
        {
          "authorId": "145905839",
          "name": "K. Baker"
        },
        {
          "authorId": "3012858",
          "name": "H. Karasti"
        },
        {
          "authorId": "3339583",
          "name": "K. Vanderbilt"
        },
        {
          "authorId": "34999322",
          "name": "D. Pennington"
        }
      ]
    },
    {
      "paperId": "a7d03a9e03adc46c0193f54e3ab6b14ba9cfd5f1",
      "externalIds": {
        "MAG": "2259288737",
        "DOI": "10.1080/02668734.2015.1081439",
        "CorpusId": 147510910
      },
      "url": "https://www.semanticscholar.org/paper/a7d03a9e03adc46c0193f54e3ab6b14ba9cfd5f1",
      "title": "Learning about emotions in illness. Integrating psychotherapeutic teaching in medical education",
      "venue": "",
      "year": 2015,
      "referenceCount": 0,
      "citationCount": 3,
      "authors": [
        {
          "authorId": "144281775",
          "name": "T. Dornan"
        }
      ]
    }
  ]
}