{
  "total": 1636,
  "offset": 0,
  "next": 10,
  "data": [
    {
      "paperId": "a6a16d202b0c904ce0cd5b7d208e3d2bc6a42eda",
      "externalIds": {
        "MAG": "2787966607",
        "DBLP": "journals/corr/abs-1802-08311",
        "ArXiv": "1802.08311",
        "CorpusId": 3522594
      },
      "url": "https://www.semanticscholar.org/paper/a6a16d202b0c904ce0cd5b7d208e3d2bc6a42eda",
      "title": "Structured Control Nets for Deep Reinforcement Learning",
      "venue": "International Conference on Machine Learning",
      "year": 2018,
      "referenceCount": 32,
      "citationCount": 45,
      "authors": [
        {
          "authorId": "46598247",
          "name": "Mario Srouji"
        },
        {
          "authorId": null,
          "name": "Jian Zhang"
        },
        {
          "authorId": "145124475",
          "name": "R. Salakhutdinov"
        }
      ]
    },
    {
      "paperId": "47105fa6795c58bf45c6428cdd8d2cc15278b20f",
      "externalIds": {
        "MAG": "2969421758",
        "ArXiv": "1901.01994",
        "DBLP": "journals/corr/abs-1901-01994",
        "CorpusId": 57721291
      },
      "url": "https://www.semanticscholar.org/paper/47105fa6795c58bf45c6428cdd8d2cc15278b20f",
      "title": "Recurrent Control Nets for Deep Reinforcement Learning",
      "venue": "arXiv.org",
      "year": 2019,
      "referenceCount": 17,
      "citationCount": 3,
      "authors": [
        {
          "authorId": "2059936479",
          "name": "Vincent Liu"
        },
        {
          "authorId": "67338486",
          "name": "Ademi Adeniji"
        },
        {
          "authorId": "2233266979",
          "name": "Nathaniel Lee"
        },
        {
          "authorId": "1972123165",
          "name": "Jason Zhao"
        },
        {
          "authorId": "46598247",
          "name": "Mario Srouji"
        }
      ]
    },
    {
      "paperId": "e6a127db3260ae375c36f36965ef5170ac48be4c",
      "externalIds": {
        "DBLP": "journals/tits/AlSharmanDDNRM23",
        "DOI": "10.1109/TITS.2023.3285440",
        "CorpusId": 259615110
      },
      "url": "https://www.semanticscholar.org/paper/e6a127db3260ae375c36f36965ef5170ac48be4c",
      "title": "Self-Learned Autonomous Driving at Unsignalized Intersections: A Hierarchical Reinforced Learning Approach for Feasible Decision-Making",
      "venue": "IEEE transactions on intelligent transportation systems (Print)",
      "year": 2023,
      "referenceCount": 49,
      "citationCount": 82,
      "authors": [
        {
          "authorId": "2376826338",
          "name": "Mohammad K. Al-Sharman"
        },
        {
          "authorId": "2176105253",
          "name": "Rowan Dempster"
        },
        {
          "authorId": "49406976",
          "name": "M. Daoud"
        },
        {
          "authorId": "2291584655",
          "name": "M. Nasr"
        },
        {
          "authorId": "2044704",
          "name": "Derek Rayside"
        },
        {
          "authorId": "2796478",
          "name": "W. Melek"
        }
      ]
    },
    {
      "paperId": "2966068b28a5a216890441741c250e7ca3e9a42d",
      "externalIds": {
        "DBLP": "conf/itsc/KongCMNLA25",
        "DOI": "10.1109/ITSC60802.2025.11423192",
        "CorpusId": 286612725
      },
      "url": "https://www.semanticscholar.org/paper/2966068b28a5a216890441741c250e7ca3e9a42d",
      "title": "Intersection Trajectory Planning: Modeling and Solution Algorithm Design Based on Petri Nets and Deep Reinforcement Learning",
      "venue": "2025 IEEE 28th International Conference on Intelligent Transportation Systems (ITSC)",
      "year": 2025,
      "referenceCount": 17,
      "citationCount": 0,
      "authors": [
        {
          "authorId": "134889978",
          "name": "Yuk-yin Kong"
        },
        {
          "authorId": "2350222983",
          "name": "Xinyu Chen"
        },
        {
          "authorId": "2320576221",
          "name": "Chen Mu"
        },
        {
          "authorId": "2301326204",
          "name": "Haijing Ning"
        },
        {
          "authorId": "2320556630",
          "name": "Shumei Liu"
        },
        {
          "authorId": "2241637286",
          "name": "Yisheng An"
        }
      ]
    },
    {
      "paperId": "71547434414cdf84da8e2c92a243f78247904a88",
      "externalIds": {
        "PubMedCentral": "12335578",
        "DOI": "10.1038/s41598-025-12772-3",
        "CorpusId": 280560011,
        "PubMed": "40783576"
      },
      "url": "https://www.semanticscholar.org/paper/71547434414cdf84da8e2c92a243f78247904a88",
      "title": "Vehicle-to-everything decision optimization and cloud control based on deep reinforcement learning",
      "venue": "Scientific Reports",
      "year": 2025,
      "referenceCount": 26,
      "citationCount": 4,
      "authors": [
        {
          "authorId": "2316730578",
          "name": "Zhenhai Gao"
        },
        {
          "authorId": "2289677904",
          "name": "Dayu Liu"
        },
        {
          "authorId": "2375766458",
          "name": "Chengyuan Zheng"
        }
      ]
    },
    {
      "paperId": "93e86b8d8256cbb22fb260f3fa9b14b0d3fb2787",
      "externalIds": {
        "DOI": "10.1109/OJVT.2025.3606120",
        "CorpusId": 281191242
      },
      "url": "https://www.semanticscholar.org/paper/93e86b8d8256cbb22fb260f3fa9b14b0d3fb2787",
      "title": "Integrated Energy Optimization and Stability Control Using Deep Reinforcement Learning for an All-Wheel-Drive Electric Vehicle",
      "venue": "IEEE Open Journal of Vehicular Technology",
      "year": 2025,
      "referenceCount": 56,
      "citationCount": 4,
      "authors": [
        {
          "authorId": "2260376958",
          "name": "Reza Jafari"
        },
        {
          "authorId": "2102459",
          "name": "P. Sarhadi"
        },
        {
          "authorId": "2256426895",
          "name": "Amin Paykani"
        },
        {
          "authorId": "8930231",
          "name": "S. Refaat"
        },
        {
          "authorId": "49224133",
          "name": "Pedram Asef"
        }
      ]
    },
    {
      "paperId": "21c0a7efdc3e41e2f8bcdbf9bb5041bb17e93f16",
      "externalIds": {
        "DBLP": "journals/corr/abs-2505-01850",
        "ArXiv": "2505.01850",
        "DOI": "10.1109/JESTPE.2025.3638683",
        "CorpusId": 278328116
      },
      "url": "https://www.semanticscholar.org/paper/21c0a7efdc3e41e2f8bcdbf9bb5041bb17e93f16",
      "title": "Deep Reinforcement Learning-Aided Frequency Control of LCC-S Resonant Converters for Wireless Power Transfer Systems",
      "venue": "IEEE Journal of Emerging and Selected Topics in Power Electronics",
      "year": 2025,
      "referenceCount": 35,
      "citationCount": 1,
      "authors": [
        {
          "authorId": "2239546244",
          "name": "Reza Safari"
        },
        {
          "authorId": "2258192891",
          "name": "Mohsen Hamzeh"
        },
        {
          "authorId": "2123923517",
          "name": "Nima Mahdian Dehkordi"
        }
      ]
    },
    {
      "paperId": "00d65b2f87277cda2dc8c4cb685f0b22e26f07fd",
      "externalIds": {
        "DBLP": "journals/mlc/NorouziST25",
        "DOI": "10.1007/s13042-025-02739-1",
        "CorpusId": 280110061
      },
      "url": "https://www.semanticscholar.org/paper/00d65b2f87277cda2dc8c4cb685f0b22e26f07fd",
      "title": "Comparative analysis of a multi-layer deep reinforcement learning controller and an optimized neural network controller utilizing growing particle swarm optimization for quadrotor control",
      "venue": "International Journal of Machine Learning and Cybernetics",
      "year": 2025,
      "referenceCount": 50,
      "citationCount": 1,
      "authors": [
        {
          "authorId": "2149893324",
          "name": "Peyman Norouzi"
        },
        {
          "authorId": "2363072827",
          "name": "H. Shahbazi"
        },
        {
          "authorId": "2372904381",
          "name": "Keivan Torabi"
        }
      ]
    },
    {
      "paperId": "ca5779eadfd183cb44b67dcf77c3fa881f99ce95",
      "externalIds": {
        "DOI": "10.3390/en18174698",
        "CorpusId": 281153336
      },
      "url": "https://www.semanticscholar.org/paper/ca5779eadfd183cb44b67dcf77c3fa881f99ce95",
      "title": "Energy Regulation-Aware Layered Control Architecture for Building Energy Systems Using Constraint-Aware Deep Reinforcement Learning and Virtual Energy Storage Modeling",
      "venue": "Energies",
      "year": 2025,
      "referenceCount": 38,
      "citationCount": 1,
      "authors": [
        {
          "authorId": "2339479486",
          "name": "Siwei Li"
        },
        {
          "authorId": "2149508389",
          "name": "Congxiang Tian"
        },
        {
          "authorId": "2276465894",
          "name": "Ahmed N. Abdalla"
        }
      ]
    },
    {
      "paperId": "0908aa4a89847e30f98b6a1ad864966cf6953d06",
      "externalIds": {
        "DBLP": "journals/corr/abs-2507-00268",
        "ArXiv": "2507.00268",
        "DOI": "10.48550/arXiv.2507.00268",
        "CorpusId": 280048293
      },
      "url": "https://www.semanticscholar.org/paper/0908aa4a89847e30f98b6a1ad864966cf6953d06",
      "title": "Control-Optimized Deep Reinforcement Learning for Artificially Intelligent Autonomous Systems",
      "venue": "arXiv.org",
      "year": 2025,
      "referenceCount": 47,
      "citationCount": 1,
      "authors": [
        {
          "authorId": "102501437",
          "name": "Oren Fivel"
        },
        {
          "authorId": "2372261644",
          "name": "Matan Rudman"
        },
        {
          "authorId": "10748834",
          "name": "Kobi Cohen"
        }
      ]
    }
  ]
}