{
  "total": 130,
  "offset": 0,
  "next": 10,
  "data": [
    {
      "paperId": "acf2554c85be3fdd4693a14639e91271c01c3063",
      "externalIds": {
        "DBLP": "conf/icml/NatarajanKRD16",
        "MAG": "2466609008",
        "CorpusId": 2680545
      },
      "url": "https://www.semanticscholar.org/paper/acf2554c85be3fdd4693a14639e91271c01c3063",
      "title": "Optimal Classification with Multivariate Losses",
      "venue": "International Conference on Machine Learning",
      "year": 2016,
      "referenceCount": 28,
      "citationCount": 11,
      "authors": [
        {
          "authorId": "145328735",
          "name": "Nagarajan Natarajan"
        },
        {
          "authorId": "143812875",
          "name": "Oluwasanmi Koyejo"
        },
        {
          "authorId": "145969795",
          "name": "Pradeep Ravikumar"
        },
        {
          "authorId": "1783667",
          "name": "I. Dhillon"
        }
      ]
    },
    {
      "paperId": "17431b9896d9d3e86d45f5ef2c651961ef2adb0f",
      "externalIds": {
        "DBLP": "conf/tencon/HernandezCL24",
        "DOI": "10.1109/TENCON61640.2024.10902992",
        "CorpusId": 276785340
      },
      "url": "https://www.semanticscholar.org/paper/17431b9896d9d3e86d45f5ef2c651961ef2adb0f",
      "title": "Identification of DDoS Attacks Through SHAP-Based Feature Analysis and Transformer Models: A Multivariate Time Series Data Approach",
      "venue": "IEEE Region 10 Conference",
      "year": 2024,
      "referenceCount": 12,
      "citationCount": 0,
      "authors": [
        {
          "authorId": "2338257723",
          "name": "D. V. Hernandez"
        },
        {
          "authorId": "2349089763",
          "name": "Meng-Ting Chen"
        },
        {
          "authorId": "2338878051",
          "name": "Yu-Kuen Lai"
        }
      ]
    },
    {
      "paperId": "2f0a4a05e5529086391374e8302de8a3053e771a",
      "externalIds": {
        "DOI": "10.3390/electronics14071449",
        "CorpusId": 277559738
      },
      "url": "https://www.semanticscholar.org/paper/2f0a4a05e5529086391374e8302de8a3053e771a",
      "title": "Computational Intelligence Approach for Fall Armyworm Control in Maize Crop",
      "venue": "Electronics",
      "year": 2025,
      "referenceCount": 49,
      "citationCount": 1,
      "authors": [
        {
          "authorId": "2052112789",
          "name": "A. Bertolla"
        },
        {
          "authorId": "2353721727",
          "name": "Paulo E. Cruvinel"
        }
      ]
    },
    {
      "paperId": "c391cf90e8f55f771dc9ee2565aff1b1f932685e",
      "externalIds": {
        "PubMedCentral": "10385623",
        "DBLP": "journals/sensors/TianFFCL23",
        "DOI": "10.3390/s23146508",
        "CorpusId": 260010807,
        "PubMed": "37514802"
      },
      "url": "https://www.semanticscholar.org/paper/c391cf90e8f55f771dc9ee2565aff1b1f932685e",
      "title": "Fault Diagnosis of Rolling Bearing Based on HPSO Algorithm Optimized CNN-LSTM Neural Network",
      "venue": "Italian National Conference on Sensors",
      "year": 2023,
      "referenceCount": 41,
      "citationCount": 33,
      "authors": [
        {
          "authorId": "2224386112",
          "name": "He Tian"
        },
        {
          "authorId": "2118734581",
          "name": "Hua Fan"
        },
        {
          "authorId": "2223200090",
          "name": "Mingwen Feng"
        },
        {
          "authorId": "93115645",
          "name": "Ranran Cao"
        },
        {
          "authorId": "2224356504",
          "name": "Dong Li"
        }
      ]
    },
    {
      "paperId": "876c7f4f8e71e232568c6b662a4c7415456b2a88",
      "externalIds": {
        "MAG": "2606669148",
        "DOI": "10.1016/J.RSE.2017.03.042",
        "CorpusId": 56114783
      },
      "url": "https://www.semanticscholar.org/paper/876c7f4f8e71e232568c6b662a4c7415456b2a88",
      "title": "Hyperspectral characterization of freezing injury and its biochemical impacts in oilseed rape leaves",
      "venue": "",
      "year": 2017,
      "referenceCount": 81,
      "citationCount": 47,
      "authors": [
        {
          "authorId": "3580938",
          "name": "Chuanwen Wei"
        },
        {
          "authorId": "1767656",
          "name": "Jingfeng Huang"
        },
        {
          "authorId": "48632163",
          "name": "Xiuzhen Wang"
        },
        {
          "authorId": "47582055",
          "name": "G. A. Blackburn"
        },
        {
          "authorId": "2144530338",
          "name": "Yao Zhang"
        },
        {
          "authorId": "88486578",
          "name": "Shusen Wang"
        },
        {
          "authorId": "5339599",
          "name": "Lamin R. Mansaray"
        }
      ]
    },
    {
      "paperId": "240390a76956e27ea637eb31f70504ba4b351ca8",
      "externalIds": {
        "DBLP": "journals/tsp/CheZS20",
        "MAG": "3090214651",
        "DOI": "10.1109/TSP.2020.3027277",
        "CorpusId": 222420391
      },
      "url": "https://www.semanticscholar.org/paper/240390a76956e27ea637eb31f70504ba4b351ca8",
      "title": "Multilabel Classification With Multivariate Time Series Predictors",
      "venue": "IEEE Transactions on Signal Processing",
      "year": 2020,
      "referenceCount": 51,
      "citationCount": 0,
      "authors": [
        {
          "authorId": "1478205567",
          "name": "Yuezhang Che"
        },
        {
          "authorId": "71888597",
          "name": "Yunzhang Zhu"
        },
        {
          "authorId": "2266946",
          "name": "Xiaotong Shen"
        }
      ]
    },
    {
      "paperId": "1eb0803bb559179bec0857ef84a08b1ec32f33c5",
      "externalIds": {
        "DBLP": "journals/apin/WangWGLL23",
        "DOI": "10.1007/s10489-023-05098-y",
        "CorpusId": 265014954
      },
      "url": "https://www.semanticscholar.org/paper/1eb0803bb559179bec0857ef84a08b1ec32f33c5",
      "title": "Exploring complex multivariate probability distributions with simple and robust bayesian network topology for classification",
      "venue": "Applied intelligence (Boston)",
      "year": 2023,
      "referenceCount": 52,
      "citationCount": 4,
      "authors": [
        {
          "authorId": "2331458022",
          "name": "Lan Wang"
        },
        {
          "authorId": "2265107001",
          "name": "Limin Wang"
        },
        {
          "authorId": "2265361619",
          "name": "Lu Guo"
        },
        {
          "authorId": "2258435856",
          "name": "Qilong Li"
        },
        {
          "authorId": "2265351405",
          "name": "Xiongfei Li"
        }
      ]
    },
    {
      "paperId": "d510d65614dd80b7902ea94e5fb6708f27d89894",
      "externalIds": {
        "DOI": "10.3390/en15145312",
        "CorpusId": 250981306
      },
      "url": "https://www.semanticscholar.org/paper/d510d65614dd80b7902ea94e5fb6708f27d89894",
      "title": "Real-Time Locational Detection of Stealthy False Data Injection Attack in Smart Grid: Using Multivariate-Based Multi-Label Classification Approach",
      "venue": "Energies",
      "year": 2022,
      "referenceCount": 47,
      "citationCount": 31,
      "authors": [
        {
          "authorId": "2178679996",
          "name": "Hanem I. Hegazy"
        },
        {
          "authorId": "120953061",
          "name": "Adly S. Tag Eldien"
        },
        {
          "authorId": "1926998",
          "name": "M. M. Tantawy"
        },
        {
          "authorId": "32453643",
          "name": "Mostafa M. Fouda"
        },
        {
          "authorId": "2178681760",
          "name": "Heba A. Tageldien"
        }
      ]
    },
    {
      "paperId": "9f1275aad1f260cf6f290c00d3deb27a5317b40c",
      "externalIds": {
        "ArXiv": "2506.14899",
        "DBLP": "journals/corr/abs-2506-14899",
        "DOI": "10.48550/arXiv.2506.14899",
        "CorpusId": 279447550
      },
      "url": "https://www.semanticscholar.org/paper/9f1275aad1f260cf6f290c00d3deb27a5317b40c",
      "title": "Optimal Convergence Rates of Deep Neural Network Classifiers",
      "venue": "arXiv.org",
      "year": 2025,
      "referenceCount": 0,
      "citationCount": 0,
      "authors": [
        {
          "authorId": "2293399926",
          "name": "Zihan Zhang"
        },
        {
          "authorId": "2321669922",
          "name": "Lei Shi"
        },
        {
          "authorId": "2284296180",
          "name": "Ding-Xuan Zhou"
        }
      ]
    },
    {
      "paperId": "1ff4f0fe889a17b33087b6dccfadb590e7dad005",
      "externalIds": {
        "DOI": "10.1080/00032719.2024.2333960",
        "CorpusId": 268903304
      },
      "url": "https://www.semanticscholar.org/paper/1ff4f0fe889a17b33087b6dccfadb590e7dad005",
      "title": "Attenuated Total Reflectance–Fourier Transform Infrared (ATR-FTIR) Spectroscopy Combined With Deep Learning for Classification of Idiopathic Recurrent Spontaneous Miscarriage (IRSM)",
      "venue": "Analytical Letters",
      "year": 2024,
      "referenceCount": 49,
      "citationCount": 2,
      "authors": [
        {
          "authorId": "2213517645",
          "name": "Dadoma Sherpa"
        },
        {
          "authorId": "2293310702",
          "name": "Dhruva Rajwade"
        },
        {
          "authorId": "2175334326",
          "name": "I. Mitra"
        },
        {
          "authorId": "2150472808",
          "name": "Souvik Biswas"
        },
        {
          "authorId": "2289364220",
          "name": "Sunita Sharma"
        },
        {
          "authorId": "2295094975",
          "name": "Pratip Chakraborty"
        },
        {
          "authorId": "1490975784",
          "name": "S. Kalapahar"
        },
        {
          "authorId": "2294983906",
          "name": "Ratna Chattopadhyay"
        },
        {
          "authorId": "145738921",
          "name": "K. Chaudhury"
        }
      ]
    }
  ]
}