{
  "total": 120,
  "offset": 0,
  "next": 10,
  "data": [
    {
      "paperId": "714864bd10680c25275514ff7b6a589f398057aa",
      "externalIds": {
        "MAG": "2964092149",
        "DBLP": "conf/icml/JinKL18a",
        "ArXiv": "1710.11424",
        "CorpusId": 7772900
      },
      "url": "https://www.semanticscholar.org/paper/714864bd10680c25275514ff7b6a589f398057aa",
      "title": "Regret Minimization for Partially Observable Deep Reinforcement Learning",
      "venue": "International Conference on Machine Learning",
      "year": 2017,
      "referenceCount": 54,
      "citationCount": 54,
      "authors": [
        {
          "authorId": "32294544",
          "name": "Peter H. Jin"
        },
        {
          "authorId": "1736651",
          "name": "S. Levine"
        },
        {
          "authorId": "1732330",
          "name": "K. Keutzer"
        }
      ]
    },
    {
      "paperId": "409f9b459d5906282d524a8c3d1cc947ed2a8b9d",
      "externalIds": {
        "DBLP": "journals/corr/abs-1911-07712",
        "ArXiv": "1911.07712",
        "MAG": "2985925376",
        "CorpusId": 208138559
      },
      "url": "https://www.semanticscholar.org/paper/409f9b459d5906282d524a8c3d1cc947ed2a8b9d",
      "title": "Inducing Cooperation via Team Regret Minimization based Multi-Agent Deep Reinforcement Learning",
      "venue": "arXiv.org",
      "year": 2019,
      "referenceCount": 31,
      "citationCount": 4,
      "authors": [
        {
          "authorId": "9384558",
          "name": "Runsheng Yu"
        },
        {
          "authorId": "2110396569",
          "name": "Zhenyu Shi"
        },
        {
          "authorId": "10737491",
          "name": "Xinrun Wang"
        },
        {
          "authorId": "103856029",
          "name": "R. Wang"
        },
        {
          "authorId": "2108666123",
          "name": "Buhong Liu"
        },
        {
          "authorId": "1761961",
          "name": "Xinwen Hou"
        },
        {
          "authorId": "2356867",
          "name": "Hanjiang Lai"
        },
        {
          "authorId": "143706343",
          "name": "Bo An"
        }
      ]
    },
    {
      "paperId": "a091297fa1d5bf131a25fa3f3f53388555f3c6e6",
      "externalIds": {
        "DBLP": "journals/ijis/HeWWL22",
        "DOI": "10.1002/int.22837",
        "CorpusId": 246519416
      },
      "url": "https://www.semanticscholar.org/paper/a091297fa1d5bf131a25fa3f3f53388555f3c6e6",
      "title": "Finding nash equilibrium for imperfect information games via fictitious play based on local regret minimization",
      "venue": "International Journal of Intelligent Systems",
      "year": 2022,
      "referenceCount": 35,
      "citationCount": 7,
      "authors": [
        {
          "authorId": "2111840773",
          "name": "Kangxin He"
        },
        {
          "authorId": "2119798870",
          "name": "Haolin Wu"
        },
        {
          "authorId": "2128126626",
          "name": "Zhuang Wang"
        },
        {
          "authorId": "153175460",
          "name": "Hui Li"
        }
      ]
    },
    {
      "paperId": "bdf95066acd29a30af89082b73b1f5769b57b934",
      "externalIds": {
        "DBLP": "journals/corr/abs-1906-02330",
        "ArXiv": "1906.02330",
        "MAG": "2970725926",
        "CorpusId": 174802590
      },
      "url": "https://www.semanticscholar.org/paper/bdf95066acd29a30af89082b73b1f5769b57b934",
      "title": "Finding Friend and Foe in Multi-Agent Games",
      "venue": "Neural Information Processing Systems",
      "year": 2019,
      "referenceCount": 45,
      "citationCount": 72,
      "authors": [
        {
          "authorId": "134217851",
          "name": "Jack Serrino"
        },
        {
          "authorId": "1390033240",
          "name": "Max Kleiman-Weiner"
        },
        {
          "authorId": "30907562",
          "name": "D. Parkes"
        },
        {
          "authorId": "1763295",
          "name": "J. Tenenbaum"
        }
      ]
    },
    {
      "paperId": "922e7192cb965db83ef9a2d762812f64d5175b17",
      "externalIds": {
        "DBLP": "journals/tnse/HuangYZ22",
        "MAG": "3203858545",
        "DOI": "10.1109/TNSE.2021.3115054",
        "CorpusId": 244228019
      },
      "url": "https://www.semanticscholar.org/paper/922e7192cb965db83ef9a2d762812f64d5175b17",
      "title": "Deadline-Aware Task Offloading With Partially-Observable Deep Reinforcement Learning for Multi-Access Edge Computing",
      "venue": "IEEE Transactions on Network Science and Engineering",
      "year": 2021,
      "referenceCount": 50,
      "citationCount": 44,
      "authors": [
        {
          "authorId": "2146086492",
          "name": "Hui Huang"
        },
        {
          "authorId": "50540076",
          "name": "Qiang Ye"
        },
        {
          "authorId": "2261543276",
          "name": "Yitong Zhou"
        }
      ]
    },
    {
      "paperId": "b100e75593b2f3e5844d75ab3f2a5c2a9df25010",
      "externalIds": {
        "DBLP": "conf/ithings/DuQ24",
        "DOI": "10.1109/iThings-GreenCom-CPSCom-SmartData-Cybermatics62450.2024.00035",
        "CorpusId": 273754439
      },
      "url": "https://www.semanticscholar.org/paper/b100e75593b2f3e5844d75ab3f2a5c2a9df25010",
      "title": "Deep Reinforcement Learning-Based AoI Minimization in UAV-Assisted Multi-Platoon Vehicular Networks",
      "venue": "2024 IEEE International Conferences on Internet of Things (iThings) and IEEE Green Computing & Communications (GreenCom) and IEEE Cyber, Physical & Social Computing (CPSCom) and IEEE Smart Data (SmartData) and IEEE Congress on Cybermatics",
      "year": 2024,
      "referenceCount": 14,
      "citationCount": 1,
      "authors": [
        {
          "authorId": "2328680758",
          "name": "Bochun Du"
        },
        {
          "authorId": "2284073270",
          "name": "Long Qu"
        }
      ]
    },
    {
      "paperId": "06de00e03f53b601c1777b3b1a9937e5075d8dcb",
      "externalIds": {
        "DBLP": "journals/tase/WangLZL25",
        "DOI": "10.1109/TASE.2024.3371250",
        "CorpusId": 268243446
      },
      "url": "https://www.semanticscholar.org/paper/06de00e03f53b601c1777b3b1a9937e5075d8dcb",
      "title": "Hybrid Task Scheduling in Cloud Manufacturing With Sparse-Reward Deep Reinforcement Learning",
      "venue": "IEEE Transactions on Automation Science and Engineering",
      "year": 2025,
      "referenceCount": 0,
      "citationCount": 17,
      "authors": [
        {
          "authorId": "2133169767",
          "name": "Xiaohan Wang"
        },
        {
          "authorId": "144400083",
          "name": "Y. Laili"
        },
        {
          "authorId": "2143836104",
          "name": "Lin Zhang"
        },
        {
          "authorId": "47908702",
          "name": "Yongkui Liu"
        }
      ]
    },
    {
      "paperId": "e0e2b6118151ea1826fdf7925113bcce1cea6f86",
      "externalIds": {
        "DBLP": "conf/hpcc/XuHHL22",
        "DOI": "10.1109/HPCC-DSS-SmartCity-DependSys57074.2022.00261",
        "CorpusId": 257810144
      },
      "url": "https://www.semanticscholar.org/paper/e0e2b6118151ea1826fdf7925113bcce1cea6f86",
      "title": "A reinforcement learning framework based on regret minimization for approximating best response in fictitious self-play",
      "venue": "2022 IEEE 24th Int Conf on High Performance Computing & Communications; 8th Int Conf on Data Science & Systems; 20th Int Conf on Smart City; 8th Int Conf on Dependability in Sensor, Cloud & Big Data Systems & Application (HPCC/DSS/SmartCity/DependSys)",
      "year": 2022,
      "referenceCount": 21,
      "citationCount": 0,
      "authors": [
        {
          "authorId": "2278998357",
          "name": "Yanran Xu"
        },
        {
          "authorId": "2111840773",
          "name": "Kangxin He"
        },
        {
          "authorId": "2122826325",
          "name": "Shuhua Hu"
        },
        {
          "authorId": "153175460",
          "name": "Hui Li"
        }
      ]
    },
    {
      "paperId": "90f17b8e8a91b68efd8c260807e069dc3aa9d743",
      "externalIds": {
        "ArXiv": "2508.00938",
        "DBLP": "journals/tcom/JiaHZWWH25",
        "DOI": "10.1109/TCOMM.2025.3597655",
        "CorpusId": 280422008
      },
      "url": "https://www.semanticscholar.org/paper/90f17b8e8a91b68efd8c260807e069dc3aa9d743",
      "title": "Trusted Routing for Blockchain-Empowered UAV Networks via Multi-Agent Deep Reinforcement Learning",
      "venue": "IEEE Transactions on Communications",
      "year": 2025,
      "referenceCount": 54,
      "citationCount": 8,
      "authors": [
        {
          "authorId": "103015415",
          "name": "Ziye Jia"
        },
        {
          "authorId": "2352218810",
          "name": "Sijie He"
        },
        {
          "authorId": "2367043898",
          "name": "Qiuming Zhu"
        },
        {
          "authorId": "2292445931",
          "name": "Wei Wang"
        },
        {
          "authorId": "2243423033",
          "name": "Qihui Wu"
        },
        {
          "authorId": "2277561408",
          "name": "Zhu Han"
        }
      ]
    },
    {
      "paperId": "9771fc4c581b17c0ce92e7a3587e91ea13845751",
      "externalIds": {
        "DBLP": "journals/tase/RanM25",
        "DOI": "10.1109/TASE.2025.3596563",
        "CorpusId": 280705712
      },
      "url": "https://www.semanticscholar.org/paper/9771fc4c581b17c0ce92e7a3587e91ea13845751",
      "title": "An Extended False Data Injection Attack via Deep Reinforcement Learning: Attack Model and Countermeasures in Cyber-Physical Power Systems",
      "venue": "IEEE Transactions on Automation Science and Engineering",
      "year": 2025,
      "referenceCount": 36,
      "citationCount": 7,
      "authors": [
        {
          "authorId": "144241921",
          "name": "Xiaohong Ran"
        },
        {
          "authorId": "2237384319",
          "name": "Lei Ma"
        }
      ]
    }
  ]
}