{
  "total": 94,
  "offset": 0,
  "next": 10,
  "data": [
    {
      "paperId": "7ba3bfd93cc9fc624620d34ca14d2c4068768d0b",
      "externalIds": {
        "MAG": "2739607959",
        "DBLP": "conf/icml/BachemLH017",
        "CorpusId": 29372316
      },
      "url": "https://www.semanticscholar.org/paper/7ba3bfd93cc9fc624620d34ca14d2c4068768d0b",
      "title": "Uniform Deviation Bounds for k-Means Clustering",
      "venue": "International Conference on Machine Learning",
      "year": 2017,
      "referenceCount": 32,
      "citationCount": 20,
      "authors": [
        {
          "authorId": "1936951",
          "name": "Olivier Bachem"
        },
        {
          "authorId": "34302129",
          "name": "M. Lučić"
        },
        {
          "authorId": "144488580",
          "name": "S. Hassani"
        },
        {
          "authorId": "145343838",
          "name": "Andreas Krause"
        }
      ]
    },
    {
      "paperId": "03b7e757cbac12fa840035cb8b4f4318528b6096",
      "externalIds": {
        "MAG": "2951018312",
        "ArXiv": "1311.1903",
        "DBLP": "conf/nips/TelgarskyD13",
        "CorpusId": 2048519
      },
      "url": "https://www.semanticscholar.org/paper/03b7e757cbac12fa840035cb8b4f4318528b6096",
      "title": "Moment-based Uniform Deviation Bounds for k-means and Friends",
      "venue": "Neural Information Processing Systems",
      "year": 2013,
      "referenceCount": 20,
      "citationCount": 25,
      "authors": [
        {
          "authorId": "1750943",
          "name": "Matus Telgarsky"
        },
        {
          "authorId": "1880237",
          "name": "S. Dasgupta"
        }
      ]
    },
    {
      "paperId": "854236b1f35485851e10a894fea1a9b54dfaef40",
      "externalIds": {
        "ArXiv": "1702.08249",
        "MAG": "2594072359",
        "DBLP": "journals/corr/BachemLH017",
        "CorpusId": 12678844
      },
      "url": "https://www.semanticscholar.org/paper/854236b1f35485851e10a894fea1a9b54dfaef40",
      "title": "Uniform Deviation Bounds for Unbounded Loss Functions like k-Means",
      "venue": "International Conference on Machine Learning",
      "year": 2017,
      "referenceCount": 20,
      "citationCount": 3,
      "authors": [
        {
          "authorId": "1936951",
          "name": "Olivier Bachem"
        },
        {
          "authorId": "34302129",
          "name": "M. Lučić"
        },
        {
          "authorId": "144488580",
          "name": "S. Hassani"
        },
        {
          "authorId": "145343838",
          "name": "Andreas Krause"
        }
      ]
    },
    {
      "paperId": "9eb5a88688146791bebb63f1b1da2d3a7e6fb9e8",
      "externalIds": {
        "ArXiv": "2504.20982",
        "DBLP": "journals/corr/abs-2504-20982",
        "DOI": "10.48550/arXiv.2504.20982",
        "CorpusId": 278171366
      },
      "url": "https://www.semanticscholar.org/paper/9eb5a88688146791bebb63f1b1da2d3a7e6fb9e8",
      "title": "Provably faster randomized and quantum algorithms for k-means clustering via uniform sampling",
      "venue": "arXiv.org",
      "year": 2025,
      "referenceCount": 35,
      "citationCount": 4,
      "authors": [
        {
          "authorId": "2358121224",
          "name": "Tyler Chen"
        },
        {
          "authorId": "2358043897",
          "name": "Archan Ray"
        },
        {
          "authorId": "2238108093",
          "name": "Akshay Seshadri"
        },
        {
          "authorId": "2126066742",
          "name": "Dylan Herman"
        },
        {
          "authorId": "2173873730",
          "name": "Bao Gia Bach"
        },
        {
          "authorId": "2219797895",
          "name": "Pranav Deshpande"
        },
        {
          "authorId": "49521879",
          "name": "A. Som"
        },
        {
          "authorId": "2241320323",
          "name": "Niraj Kumar"
        },
        {
          "authorId": "134455051",
          "name": "Marco Pistoia"
        }
      ]
    },
    {
      "paperId": "3efe6863d3aca798f45077c6ed9989148a986906",
      "externalIds": {
        "DOI": "10.1049/ell2.70042",
        "CorpusId": 272847735
      },
      "url": "https://www.semanticscholar.org/paper/3efe6863d3aca798f45077c6ed9989148a986906",
      "title": "Subarray partition based on sparse array weighted K‐means clustering",
      "venue": "Electronics Letters",
      "year": 2024,
      "referenceCount": 0,
      "citationCount": 3,
      "authors": [
        {
          "authorId": "2310204110",
          "name": "Jiayu Zhao"
        },
        {
          "authorId": "47513164",
          "name": "Jianming Huang"
        },
        {
          "authorId": "2278980756",
          "name": "Yansong Cui"
        },
        {
          "authorId": "2279017125",
          "name": "Naibo Zhang"
        },
        {
          "authorId": "2322799192",
          "name": "Yuxuan Wang"
        },
        {
          "authorId": "2278838806",
          "name": "Zilai Wang"
        }
      ]
    },
    {
      "paperId": "b427f1c04d32f86cf83443f4994877e8c0fb18b2",
      "externalIds": {
        "DOI": "10.1109/ICPECA60615.2024.10471132",
        "CorpusId": 268698426
      },
      "url": "https://www.semanticscholar.org/paper/b427f1c04d32f86cf83443f4994877e8c0fb18b2",
      "title": "A Two-Stage Power System Partitioning Method Based on Improved K-Means Clustering",
      "venue": "2024 IEEE 4th International Conference on Power, Electronics and Computer Applications (ICPECA)",
      "year": 2024,
      "referenceCount": 11,
      "citationCount": 0,
      "authors": [
        {
          "authorId": "2169334477",
          "name": "Jian Zhang"
        },
        {
          "authorId": "2184294191",
          "name": "Ruicong Ma"
        },
        {
          "authorId": "22768743",
          "name": "Yongji Cao"
        },
        {
          "authorId": "2271866721",
          "name": "Hengxu Zhang"
        },
        {
          "authorId": "2293687569",
          "name": "Baoliang Li"
        },
        {
          "authorId": "2271240993",
          "name": "Zhiwen Liu"
        }
      ]
    },
    {
      "paperId": "d0e4a8bf36602e4b5399f181c34e0ed1b794cb5c",
      "externalIds": {
        "DBLP": "journals/nca/OlukanmiNMT22",
        "DOI": "10.1007/s00521-021-06689-x",
        "CorpusId": 247619455
      },
      "url": "https://www.semanticscholar.org/paper/d0e4a8bf36602e4b5399f181c34e0ed1b794cb5c",
      "title": "Automatic detection of outliers and the number of clusters in k-means clustering via Chebyshev-type inequalities",
      "venue": "Neural computing & applications (Print)",
      "year": 2022,
      "referenceCount": 62,
      "citationCount": 18,
      "authors": [
        {
          "authorId": "31627181",
          "name": "Peter O. Olukanmi"
        },
        {
          "authorId": "2198366",
          "name": "F. Nelwamondo"
        },
        {
          "authorId": "1740675",
          "name": "T. Marwala"
        },
        {
          "authorId": "2662511",
          "name": "Bhekisipho Twala"
        }
      ]
    },
    {
      "paperId": "748da3f8c5ce850c21c9366cce8c498626664e3f",
      "externalIds": {
        "DBLP": "journals/tcyb/ChakrabortyPD23",
        "DOI": "10.1109/TCYB.2022.3166975",
        "CorpusId": 249015167,
        "PubMed": "35609103"
      },
      "url": "https://www.semanticscholar.org/paper/748da3f8c5ce850c21c9366cce8c498626664e3f",
      "title": "On Consistent Entropy-Regularized k-Means Clustering With Feature Weight Learning: Algorithm and Statistical Analyses",
      "venue": "IEEE Transactions on Cybernetics",
      "year": 2022,
      "referenceCount": 63,
      "citationCount": 7,
      "authors": [
        {
          "authorId": "2550163",
          "name": "Saptarshi Chakraborty"
        },
        {
          "authorId": "1491643136",
          "name": "Debolina Paul"
        },
        {
          "authorId": "71658519",
          "name": "Swagatam Das"
        }
      ]
    },
    {
      "paperId": "6fdf39a0816cfb69b93883f17e492fe312ed010e",
      "externalIds": {
        "MAG": "3004824544",
        "ArXiv": "2002.02339",
        "DBLP": "journals/corr/abs-2002-02339",
        "DOI": "10.1214/20-aos2033",
        "CorpusId": 211044116
      },
      "url": "https://www.semanticscholar.org/paper/6fdf39a0816cfb69b93883f17e492fe312ed010e",
      "title": "Robust k-means Clustering for Distributions with Two Moments",
      "venue": "Annals of Statistics",
      "year": 2020,
      "referenceCount": 45,
      "citationCount": 26,
      "authors": [
        {
          "authorId": "89710641",
          "name": "Yegor Klochkov"
        },
        {
          "authorId": "36039558",
          "name": "Alexey Kroshnin"
        },
        {
          "authorId": "2819641",
          "name": "Nikita Zhivotovskiy"
        }
      ]
    },
    {
      "paperId": "3162f76a549f422b6a8000525c66f8fed1085df7",
      "externalIds": {
        "DBLP": "conf/nips/PaulCDX21",
        "ArXiv": "2110.14148",
        "CorpusId": 239998617
      },
      "url": "https://www.semanticscholar.org/paper/3162f76a549f422b6a8000525c66f8fed1085df7",
      "title": "Uniform Concentration Bounds toward a Unified Framework for Robust Clustering",
      "venue": "Neural Information Processing Systems",
      "year": 2021,
      "referenceCount": 65,
      "citationCount": 18,
      "authors": [
        {
          "authorId": "1491643136",
          "name": "Debolina Paul"
        },
        {
          "authorId": "2550163",
          "name": "Saptarshi Chakraborty"
        },
        {
          "authorId": "71658519",
          "name": "Swagatam Das"
        },
        {
          "authorId": "8613065",
          "name": "Jason Xu"
        }
      ]
    }
  ]
}