{
  "total": 27,
  "offset": 0,
  "next": 10,
  "data": [
    {
      "paperId": "db4d0e45560ceda35b6212036513bd4ab59ce99d",
      "externalIds": {
        "DBLP": "conf/icml/NguyenLST17",
        "MAG": "2594182398",
        "ArXiv": "1703.00102",
        "CorpusId": 2950390
      },
      "url": "https://www.semanticscholar.org/paper/db4d0e45560ceda35b6212036513bd4ab59ce99d",
      "title": "SARAH: A Novel Method for Machine Learning Problems Using Stochastic Recursive Gradient",
      "venue": "International Conference on Machine Learning",
      "year": 2017,
      "referenceCount": 23,
      "citationCount": 700,
      "authors": [
        {
          "authorId": "144274166",
          "name": "Lam M. Nguyen"
        },
        {
          "authorId": "2146651544",
          "name": "Jie Liu"
        },
        {
          "authorId": "2005127",
          "name": "K. Scheinberg"
        },
        {
          "authorId": "144696183",
          "name": "Martin Takác"
        }
      ]
    },
    {
      "paperId": "9eaecd9116e9701d638976faec40a00f543cfddb",
      "externalIds": {
        "DBLP": "journals/kbs/YangCW20",
        "MAG": "3018951082",
        "DOI": "10.1016/j.knosys.2020.105941",
        "CorpusId": 218966131
      },
      "url": "https://www.semanticscholar.org/paper/9eaecd9116e9701d638976faec40a00f543cfddb",
      "title": "An accelerated stochastic variance-reduced method for machine learning problems",
      "venue": "Knowledge-Based Systems",
      "year": 2020,
      "referenceCount": 43,
      "citationCount": 7,
      "authors": [
        {
          "authorId": "50109329",
          "name": "Zhuang Yang"
        },
        {
          "authorId": "8157393",
          "name": "Zengping Chen"
        },
        {
          "authorId": "115877724",
          "name": "Cheng Wang"
        }
      ]
    },
    {
      "paperId": "b4f17b17e6ea36905c71535642033aa8fa6f138e",
      "externalIds": {
        "DOI": "10.1109/PIERS-Spring66516.2025.11276425",
        "CorpusId": 283924419
      },
      "url": "https://www.semanticscholar.org/paper/b4f17b17e6ea36905c71535642033aa8fa6f138e",
      "title": "Constrained Stochastic Non-Convex Optimization Algorithm for Machine Learning Problems in Electromagnetic Signal Processing",
      "venue": "2025 Photonics & Electromagnetics Research Symposium - Spring (PIERS-Spring)",
      "year": 2025,
      "referenceCount": 17,
      "citationCount": 0,
      "authors": [
        {
          "authorId": "9279710",
          "name": "Basil M. Idrees"
        },
        {
          "authorId": "2576161",
          "name": "K. Rajawat"
        }
      ]
    },
    {
      "paperId": "38ed8b629da7871c0fe1aec81170b355585e1888",
      "externalIds": {
        "ArXiv": "2001.03724",
        "MAG": "2999929232",
        "DBLP": "journals/corr/abs-2001-03724",
        "CorpusId": 210164852
      },
      "url": "https://www.semanticscholar.org/paper/38ed8b629da7871c0fe1aec81170b355585e1888",
      "title": "Stochastic Recursive Gradient Descent Ascent for Stochastic Nonconvex-Strongly-Concave Minimax Problems",
      "venue": "Neural Information Processing Systems",
      "year": 2020,
      "referenceCount": 56,
      "citationCount": 140,
      "authors": [
        {
          "authorId": "2020695",
          "name": "Luo Luo"
        },
        {
          "authorId": "2729522",
          "name": "Haishan Ye"
        },
        {
          "authorId": "50728655",
          "name": "Tong Zhang"
        }
      ]
    },
    {
      "paperId": "b9401d8a93fcf3d3343cca106b2e1bcd635ab437",
      "externalIds": {
        "DBLP": "conf/globecom/LiY0QZW24",
        "DOI": "10.1109/GLOBECOM52923.2024.10901359",
        "CorpusId": 276936967
      },
      "url": "https://www.semanticscholar.org/paper/b9401d8a93fcf3d3343cca106b2e1bcd635ab437",
      "title": "DM-SARAH: A Variance Reduction Optimization Algorithm for Machine Learning Systems",
      "venue": "Global Communications Conference",
      "year": 2024,
      "referenceCount": 12,
      "citationCount": 0,
      "authors": [
        {
          "authorId": "151482578",
          "name": "Rengang Li"
        },
        {
          "authorId": "2349109462",
          "name": "Ruidong Yan"
        },
        {
          "authorId": "2149505731",
          "name": "Zhenhua Guo"
        },
        {
          "authorId": "2343836129",
          "name": "Zhiyong Qiu"
        },
        {
          "authorId": "47827612",
          "name": "Yaqian Zhao"
        },
        {
          "authorId": "2282903222",
          "name": "Yanwei Wang"
        }
      ]
    },
    {
      "paperId": "a44c1165de755962f635900a5cbf105a23056a58",
      "externalIds": {
        "MAG": "3044692912",
        "DBLP": "journals/corr/abs-2007-12817",
        "ArXiv": "2007.12817",
        "DOI": "10.1007/978-981-99-1639-9_53",
        "CorpusId": 220794031
      },
      "url": "https://www.semanticscholar.org/paper/a44c1165de755962f635900a5cbf105a23056a58",
      "title": "Variance Reduction for Deep Q-Learning using Stochastic Recursive Gradient",
      "venue": "International Conference on Neural Information Processing",
      "year": 2020,
      "referenceCount": 23,
      "citationCount": 3,
      "authors": [
        {
          "authorId": "2093258188",
          "name": "Hao Jia"
        },
        {
          "authorId": "2128029592",
          "name": "Xiao Zhang"
        },
        {
          "authorId": "2150636233",
          "name": "Jun Xu"
        },
        {
          "authorId": "2069640091",
          "name": "Wei Zeng"
        },
        {
          "authorId": "47067803",
          "name": "Hao Jiang"
        },
        {
          "authorId": "2117851342",
          "name": "Xiao Yan"
        },
        {
          "authorId": "153693432",
          "name": "Ji-rong Wen"
        }
      ]
    },
    {
      "paperId": "06b57cab0aebeedb20e241f59b0ba0d4fc268d5d",
      "externalIds": {
        "CorpusId": 273649495
      },
      "url": "https://www.semanticscholar.org/paper/06b57cab0aebeedb20e241f59b0ba0d4fc268d5d",
      "title": "Using Stochastic Recursive Gradient",
      "venue": "",
      "year": null,
      "referenceCount": 18,
      "citationCount": 0,
      "authors": [
        {
          "authorId": "2093258188",
          "name": "Hao Jia"
        },
        {
          "authorId": "2288785538",
          "name": "Xiao Zhang"
        },
        {
          "authorId": "2284760706",
          "name": "Jun Xu"
        },
        {
          "authorId": "2069640091",
          "name": "Wei Zeng"
        },
        {
          "authorId": "2312164513",
          "name": "Hao Jiang"
        },
        {
          "authorId": "2117851342",
          "name": "Xiao Yan"
        }
      ]
    },
    {
      "paperId": "d9befbb9d1143882d74214f9aee052868080ebd7",
      "externalIds": {
        "ArXiv": "2510.11312",
        "CorpusId": 282058175
      },
      "url": "https://www.semanticscholar.org/paper/d9befbb9d1143882d74214f9aee052868080ebd7",
      "title": "Nonlinearly Preconditioned Gradient Methods: Momentum and Stochastic Analysis",
      "venue": "",
      "year": 2025,
      "referenceCount": 45,
      "citationCount": 3,
      "authors": [
        {
          "authorId": "2114514777",
          "name": "Konstantinos A. Oikonomidis"
        },
        {
          "authorId": "2332351442",
          "name": "Jan Quan"
        },
        {
          "authorId": "2258626711",
          "name": "Panagiotis Patrinos"
        }
      ]
    },
    {
      "paperId": "2febc4b7ad382b07b1c0ea2657f0dce5e3417d0c",
      "externalIds": {
        "MAG": "3103149959",
        "ArXiv": "1812.10426",
        "DBLP": "journals/corr/abs-1812-10426",
        "DOI": "10.1007/s13042-019-01055-9",
        "CorpusId": 56895352
      },
      "url": "https://www.semanticscholar.org/paper/2febc4b7ad382b07b1c0ea2657f0dce5e3417d0c",
      "title": "Stochastic trust region inexact Newton method for large-scale machine learning",
      "venue": "International Journal of Machine Learning and Cybernetics",
      "year": 2018,
      "referenceCount": 48,
      "citationCount": 7,
      "authors": [
        {
          "authorId": "35076802",
          "name": "Vinod Kumar Chauhan"
        },
        {
          "authorId": "2109669508",
          "name": "A. Sharma"
        },
        {
          "authorId": "40469693",
          "name": "Kalpana Dahiya"
        }
      ]
    },
    {
      "paperId": "8aff2e5fea662b5fdf9614af338e2ecd81d91a2b",
      "externalIds": {
        "DBLP": "journals/siamjo/BotB23",
        "ArXiv": "2007.13605",
        "MAG": "3044458766",
        "DOI": "10.1137/21m1465470",
        "CorpusId": 220794007
      },
      "url": "https://www.semanticscholar.org/paper/8aff2e5fea662b5fdf9614af338e2ecd81d91a2b",
      "title": "Alternating Proximal-Gradient Steps for (Stochastic) Nonconvex-Concave Minimax Problems",
      "venue": "SIAM Journal on Optimization",
      "year": 2020,
      "referenceCount": 64,
      "citationCount": 64,
      "authors": [
        {
          "authorId": "1753157",
          "name": "R. Boț"
        },
        {
          "authorId": "30928523",
          "name": "A. Böhm"
        }
      ]
    }
  ]
}