{
  "total": 855,
  "offset": 0,
  "next": 10,
  "data": [
    {
      "paperId": "4bed96c83ef5821481ad3201df885c15b2f0376a",
      "externalIds": {
        "DBLP": "conf/icml/Soltanmohammadi15",
        "MAG": "2170319814",
        "CorpusId": 8304558
      },
      "url": "https://www.semanticscholar.org/paper/4bed96c83ef5821481ad3201df885c15b2f0376a",
      "title": "Context-based Unsupervised Data Fusion for Decision Making",
      "venue": "International Conference on Machine Learning",
      "year": 2015,
      "referenceCount": 25,
      "citationCount": 3,
      "authors": [
        {
          "authorId": "2803419",
          "name": "Erfan Soltanmohammadi"
        },
        {
          "authorId": "1399257383",
          "name": "M. Naraghi-Pour"
        },
        {
          "authorId": "1729969",
          "name": "M. Schaar"
        }
      ]
    },
    {
      "paperId": "394bfcfcce7d31b08946b3dff36149130c6e5d42",
      "externalIds": {
        "MAG": "2301421566",
        "DOI": "10.1080/19479832.2015.1086825",
        "CorpusId": 61607901
      },
      "url": "https://www.semanticscholar.org/paper/394bfcfcce7d31b08946b3dff36149130c6e5d42",
      "title": "Computational frameworks for context-aware hybrid sensor fusion",
      "venue": "",
      "year": 2016,
      "referenceCount": 57,
      "citationCount": 3,
      "authors": [
        {
          "authorId": "2960730",
          "name": "P. Biswas"
        },
        {
          "authorId": "144804091",
          "name": "Sangwoo Moon"
        },
        {
          "authorId": "1698645",
          "name": "H. Qi"
        },
        {
          "authorId": "144021446",
          "name": "A. Dey"
        }
      ]
    },
    {
      "paperId": "0d381adefc7a7a6aa7836a5fc92cbaf2f1659da6",
      "externalIds": {
        "PubMedCentral": "11619951",
        "DOI": "10.1016/j.heliyon.2024.e38642",
        "CorpusId": 273257823,
        "PubMed": "39640748"
      },
      "url": "https://www.semanticscholar.org/paper/0d381adefc7a7a6aa7836a5fc92cbaf2f1659da6",
      "title": "Efficient clinical decision-making process via AI-based multimodal data fusion: A COVID-19 case study",
      "venue": "Heliyon",
      "year": 2024,
      "referenceCount": 63,
      "citationCount": 2,
      "authors": [
        {
          "authorId": "2118309060",
          "name": "D. I. Morís"
        },
        {
          "authorId": "113494326",
          "name": "J. de Moura"
        },
        {
          "authorId": "2265550055",
          "name": "Pedro J. Marcos"
        },
        {
          "authorId": "1435502341",
          "name": "Enrique Míguez Rey"
        },
        {
          "authorId": "1776118",
          "name": "J. Novo"
        },
        {
          "authorId": "35888985",
          "name": "M. Ortega"
        }
      ]
    },
    {
      "paperId": "7e6f40585d28c433ac3ae55e5926e1538feea8cd",
      "externalIds": {
        "DOI": "10.1155/2022/6488848",
        "CorpusId": 249801674
      },
      "url": "https://www.semanticscholar.org/paper/7e6f40585d28c433ac3ae55e5926e1538feea8cd",
      "title": "Context-Based Emotion Predictor: A Decision- Making Framework for Mobile Data",
      "venue": "Mobile Information Systems",
      "year": 2022,
      "referenceCount": 50,
      "citationCount": 2,
      "authors": [
        {
          "authorId": "2074657",
          "name": "Z. Anwar"
        },
        {
          "authorId": "51258429",
          "name": "Rashid Jahangir"
        },
        {
          "authorId": "2170920752",
          "name": "M. Nauman"
        },
        {
          "authorId": "49004436",
          "name": "Roobaea Alroobaea"
        },
        {
          "authorId": "81669745",
          "name": "Sabah Alzahrani"
        },
        {
          "authorId": "2096342291",
          "name": "Ihsan Ali"
        }
      ]
    },
    {
      "paperId": "2889ef376467d49f326c539b3545a5db388f2dfe",
      "externalIds": {
        "DBLP": "conf/iwcmc/IgnatiousE24",
        "DOI": "10.1109/IWCMC61514.2024.10592422",
        "CorpusId": 271247056
      },
      "url": "https://www.semanticscholar.org/paper/2889ef376467d49f326c539b3545a5db388f2dfe",
      "title": "Usecase-based generic framework for data fusion and decision making in Autonomous Driving",
      "venue": "International Conference on Wireless Communications and Mobile Computing",
      "year": 2024,
      "referenceCount": 13,
      "citationCount": 1,
      "authors": [
        {
          "authorId": "1500651268",
          "name": "H. Ignatious"
        },
        {
          "authorId": "2057595191",
          "name": "Hesham El-Sayed"
        }
      ]
    },
    {
      "paperId": "5e6d005ce89b091b9575869239c19f182dd27578",
      "externalIds": {
        "DOI": "10.23977/jaip.2026.090109",
        "CorpusId": 287512191
      },
      "url": "https://www.semanticscholar.org/paper/5e6d005ce89b091b9575869239c19f182dd27578",
      "title": "A Study on Human–Machine Collaborative Logistics Risk Decision-Making Methods Based on Multi-Source Behavioral Data Fusion",
      "venue": "Journal of Artificial Intelligence Practice",
      "year": 2026,
      "referenceCount": 7,
      "citationCount": 0,
      "authors": [
        {
          "authorId": "40525882",
          "name": "Xuan Che"
        }
      ]
    },
    {
      "paperId": "f989c8b8389190e06af7bb52219af540c231d65a",
      "externalIds": {
        "DOI": "10.1109/ISCS69371.2025.11386000",
        "CorpusId": 285730377
      },
      "url": "https://www.semanticscholar.org/paper/f989c8b8389190e06af7bb52219af540c231d65a",
      "title": "HealthFusion-Transformer: A Novel Multimodal Data Fusion Framework for Enhanced Clinical Decision-Making Using Cross-Attentive Transformer Architectures",
      "venue": "IEEE International Symposium on Compound Semiconductors",
      "year": 2025,
      "referenceCount": 15,
      "citationCount": 0,
      "authors": [
        {
          "authorId": "2412157053",
          "name": "K. Sona"
        },
        {
          "authorId": "2265411401",
          "name": "A. Hariharan"
        },
        {
          "authorId": "2353258064",
          "name": "D. Surya"
        },
        {
          "authorId": "2284165854",
          "name": "M. Shreya"
        },
        {
          "authorId": "2412159215",
          "name": "X. Kishor"
        },
        {
          "authorId": "2412160697",
          "name": "R. Sudharshan"
        }
      ]
    },
    {
      "paperId": "12d3846288cf830bbfb80a2bab339ab1f71f0165",
      "externalIds": {
        "DBLP": "journals/cbm/AlbahriHAAAAHDS25",
        "DOI": "10.1016/j.compbiomed.2025.110922",
        "CorpusId": 280639754,
        "PubMed": "40795479"
      },
      "url": "https://www.semanticscholar.org/paper/12d3846288cf830bbfb80a2bab339ab1f71f0165",
      "title": "Trust and explainability in robotic hand control via adversarial multiple machine learning models with EEG sensor data fusion: A fuzzy decision-making solution",
      "venue": "Comput. Biol. Medicine",
      "year": 2025,
      "referenceCount": 0,
      "citationCount": 1,
      "authors": [
        {
          "authorId": "145400504",
          "name": "A. Albahri"
        },
        {
          "authorId": "1573027294",
          "name": "Rula A. Hamid"
        },
        {
          "authorId": "2174636433",
          "name": "M. E. Alqaysi"
        },
        {
          "authorId": "2037565899",
          "name": "Z. Al-qaysi"
        },
        {
          "authorId": "40690979",
          "name": "O. Albahri"
        },
        {
          "authorId": "66360298",
          "name": "A. Alamoodi"
        },
        {
          "authorId": "46929140",
          "name": "R. Homod"
        },
        {
          "authorId": "2319049001",
          "name": "Muhammet Deveci"
        },
        {
          "authorId": "2267608547",
          "name": "I. Sharaf"
        }
      ]
    },
    {
      "paperId": "c10d9a073cc4626ab94af8a8269b926ad07446d8",
      "externalIds": {
        "DOI": "10.1109/AIITA65135.2025.11048110",
        "CorpusId": 279802404
      },
      "url": "https://www.semanticscholar.org/paper/c10d9a073cc4626ab94af8a8269b926ad07446d8",
      "title": "Research on the Architecture Design and Key Technologies of an Intelligent Fault Diagnosis Platform for Heavy-Duty Gas Turbines Based on Multi-Source Data Fusion",
      "venue": "2025 5th International Conference on Artificial Intelligence and Industrial Technology Applications (AIITA)",
      "year": 2025,
      "referenceCount": 0,
      "citationCount": 0,
      "authors": [
        {
          "authorId": "2370144728",
          "name": "Haowei Li"
        },
        {
          "authorId": "2370883231",
          "name": "Nan Wu"
        },
        {
          "authorId": "2369634850",
          "name": "Bin Wen"
        },
        {
          "authorId": "2369624767",
          "name": "Anqi Zhao"
        }
      ]
    },
    {
      "paperId": "5b0299f958bc6ffb4651fe6ffdcd237d636b93c4",
      "externalIds": {
        "DOI": "10.1145/3784013.3784064",
        "CorpusId": 284585247
      },
      "url": "https://www.semanticscholar.org/paper/5b0299f958bc6ffb4651fe6ffdcd237d636b93c4",
      "title": "Design of Input-output Correlation Analysis Tool Based on Multi-source Heterogeneous Data Fusion",
      "venue": "Proceedings of the 2025 2nd Symposium on Big Data, Neural Networks, and Deep Learning",
      "year": 2025,
      "referenceCount": 10,
      "citationCount": 0,
      "authors": [
        {
          "authorId": "2306202548",
          "name": "Wei Jiang"
        },
        {
          "authorId": "2331840660",
          "name": "Chenhong Zheng"
        },
        {
          "authorId": "2315789950",
          "name": "Shiyuan Lin"
        },
        {
          "authorId": "2244609335",
          "name": "Mengzhe Liu"
        },
        {
          "authorId": "2314523388",
          "name": "Qifan Wu"
        }
      ]
    }
  ]
}