{
  "total": 47,
  "offset": 0,
  "next": 10,
  "data": [
    {
      "paperId": "2904a9932f4cd0f0886121dc1f2d4aaac0455176",
      "externalIds": {
        "ArXiv": "1502.02761",
        "DBLP": "journals/corr/LiSZ15",
        "MAG": "1487641199",
        "CorpusId": 536962
      },
      "url": "https://www.semanticscholar.org/paper/2904a9932f4cd0f0886121dc1f2d4aaac0455176",
      "title": "Generative Moment Matching Networks",
      "venue": "International Conference on Machine Learning",
      "year": 2015,
      "referenceCount": 50,
      "citationCount": 909,
      "authors": [
        {
          "authorId": "47002813",
          "name": "Yujia Li"
        },
        {
          "authorId": "1754860",
          "name": "Kevin Swersky"
        },
        {
          "authorId": "1804104",
          "name": "R. Zemel"
        }
      ]
    },
    {
      "paperId": "0c50d2a2f83146dd0a3961ffb2536bfeb89e1ee8",
      "externalIds": {
        "CorpusId": 260555629
      },
      "url": "https://www.semanticscholar.org/paper/0c50d2a2f83146dd0a3961ffb2536bfeb89e1ee8",
      "title": "Deep Generative Image Models using a Laplacian Pyramid of Adversarial Networks Supplementary Material",
      "venue": "",
      "year": 2015,
      "referenceCount": 0,
      "citationCount": 7,
      "authors": [
        {
          "authorId": "40081727",
          "name": "Emily L. Denton"
        }
      ]
    },
    {
      "paperId": "63abb38b126d24e45eb5fa03b0274ffc759e58ba",
      "externalIds": {
        "MAG": "2283233801",
        "CorpusId": 130052227
      },
      "url": "https://www.semanticscholar.org/paper/63abb38b126d24e45eb5fa03b0274ffc759e58ba",
      "title": "Generative network models for approximating urban networks: the case of inter-city transportation networks in Southeast Asia",
      "venue": "",
      "year": 2015,
      "referenceCount": 0,
      "citationCount": 0,
      "authors": [
        {
          "authorId": "48980730",
          "name": "Liang Dai"
        },
        {
          "authorId": "2133692",
          "name": "B. Derudder"
        },
        {
          "authorId": "1707251",
          "name": "Xingjian Liu"
        }
      ]
    },
    {
      "paperId": "2af058e2377f3641403435f0c9930d955fedfc8f",
      "externalIds": {
        "MAG": "2952086028",
        "DBLP": "journals/corr/BounliphoneBBAG15",
        "ArXiv": "1511.04581",
        "CorpusId": 3173270
      },
      "url": "https://www.semanticscholar.org/paper/2af058e2377f3641403435f0c9930d955fedfc8f",
      "title": "A Test of Relative Similarity For Model Selection in Generative Models",
      "venue": "International Conference on Learning Representations",
      "year": 2015,
      "referenceCount": 34,
      "citationCount": 88,
      "authors": [
        {
          "authorId": "1992412",
          "name": "Wacha Bounliphone"
        },
        {
          "authorId": "1829344",
          "name": "Eugene Belilovsky"
        },
        {
          "authorId": "1758219",
          "name": "Matthew B. Blaschko"
        },
        {
          "authorId": "2460849",
          "name": "Ioannis Antonoglou"
        },
        {
          "authorId": "1708497",
          "name": "A. Gretton"
        }
      ]
    },
    {
      "paperId": "c8c04ed972d38e2326a53d322a6f2d7e0f8218c1",
      "externalIds": {
        "DBLP": "journals/corr/MakhzaniSJG15",
        "ArXiv": "1511.05644",
        "CorpusId": 5092785
      },
      "url": "https://www.semanticscholar.org/paper/c8c04ed972d38e2326a53d322a6f2d7e0f8218c1",
      "title": "Adversarial Autoencoders",
      "venue": "arXiv.org",
      "year": 2015,
      "referenceCount": 26,
      "citationCount": 2357,
      "authors": [
        {
          "authorId": "2333358478",
          "name": "Alireza Makhzani"
        },
        {
          "authorId": "1789737",
          "name": "Jonathon Shlens"
        },
        {
          "authorId": "3111912",
          "name": "N. Jaitly"
        },
        {
          "authorId": "153440022",
          "name": "I. Goodfellow"
        }
      ]
    },
    {
      "paperId": "c853f546b3289ed0ca909d5e2e22f3d5429d7027",
      "externalIds": {
        "ArXiv": "1507.00219",
        "MAG": "1952921853",
        "DBLP": "journals/tcad/OyaroT16",
        "DOI": "10.1109/TCAD.2016.2531046",
        "CorpusId": 14747351
      },
      "url": "https://www.semanticscholar.org/paper/c853f546b3289ed0ca909d5e2e22f3d5429d7027",
      "title": "TurboMOR-RC: An Efficient Model Order Reduction Technique for RC Networks With Many Ports",
      "venue": "IEEE Transactions on Computer-Aided Design of Integrated Circuits and Systems",
      "year": 2015,
      "referenceCount": 36,
      "citationCount": 19,
      "authors": [
        {
          "authorId": "2886547",
          "name": "Denis Oyaro"
        },
        {
          "authorId": "1853876",
          "name": "P. Triverio"
        }
      ]
    },
    {
      "paperId": "13ae2a537c9fa5b50ba54e5f1e763186a0f18d31",
      "externalIds": {
        "MAG": "2076179654",
        "DOI": "10.1016/J.AEUE.2015.04.003",
        "CorpusId": 62207602
      },
      "url": "https://www.semanticscholar.org/paper/13ae2a537c9fa5b50ba54e5f1e763186a0f18d31",
      "title": "Impact of interference on the coverage and connectivity of Ad hoc networks in a fading environment",
      "venue": "",
      "year": 2015,
      "referenceCount": 29,
      "citationCount": 8,
      "authors": [
        {
          "authorId": "1707049",
          "name": "V. Aalo"
        },
        {
          "authorId": "3376742",
          "name": "C. Mukasa"
        }
      ]
    },
    {
      "paperId": "f4c74ffea1c910fe35bfccbf7e9276c82212759a",
      "externalIds": {
        "MAG": "2036216401",
        "DOI": "10.1016/j.neuropsychologia.2014.10.020",
        "CorpusId": 22932245,
        "PubMed": "25447372"
      },
      "url": "https://www.semanticscholar.org/paper/f4c74ffea1c910fe35bfccbf7e9276c82212759a",
      "title": "Predictive coding accounts of shared representations in parieto-insular networks.",
      "venue": "Neuropsychologia",
      "year": 2015,
      "referenceCount": 187,
      "citationCount": 39,
      "authors": [
        {
          "authorId": "2056572290",
          "name": "Hiroaki Ishida"
        },
        {
          "authorId": "2118856103",
          "name": "Keisuke Suzuki"
        },
        {
          "authorId": "38347220",
          "name": "Laura Clara Grandi"
        }
      ]
    },
    {
      "paperId": "c97846817ecc9d4531e5ddd26f667760b22724e1",
      "externalIds": {
        "MAG": "2264682149",
        "CorpusId": 12355600
      },
      "url": "https://www.semanticscholar.org/paper/c97846817ecc9d4531e5ddd26f667760b22724e1",
      "title": "On the moment event distance of Poisson processes",
      "venue": "",
      "year": 2015,
      "referenceCount": 15,
      "citationCount": 0,
      "authors": [
        {
          "authorId": "2198671",
          "name": "Rafał Kapelko"
        }
      ]
    },
    {
      "paperId": "c5c1e523f241f60f867e4d44aa73d23d6a175de3",
      "externalIds": {
        "CorpusId": 223650558
      },
      "url": "https://www.semanticscholar.org/paper/c5c1e523f241f60f867e4d44aa73d23d6a175de3",
      "title": "Moment Invariant based on Master Eye Block for Face Identification",
      "venue": "",
      "year": 2015,
      "referenceCount": 20,
      "citationCount": 0,
      "authors": [
        {
          "authorId": "9295481",
          "name": "D. Alzubaydi"
        }
      ]
    }
  ]
}