{
  "total": 218,
  "offset": 0,
  "next": 10,
  "data": [
    {
      "paperId": "19647aeb9fd3807d59068731084c8f383f43ed80",
      "externalIds": {
        "DBLP": "conf/icml/AcharyaDLS16",
        "MAG": "2474722726",
        "ArXiv": "1607.03990",
        "CorpusId": 14612803
      },
      "url": "https://www.semanticscholar.org/paper/19647aeb9fd3807d59068731084c8f383f43ed80",
      "title": "Fast Algorithms for Segmented Regression",
      "venue": "International Conference on Machine Learning",
      "year": 2016,
      "referenceCount": 23,
      "citationCount": 33,
      "authors": [
        {
          "authorId": "2595479",
          "name": "Jayadev Acharya"
        },
        {
          "authorId": "1808354",
          "name": "Ilias Diakonikolas"
        },
        {
          "authorId": "2800851",
          "name": "Jerry Li"
        },
        {
          "authorId": "152772922",
          "name": "Ludwig Schmidt"
        }
      ]
    },
    {
      "paperId": "eb8812a034e7bddf721d979806dde4fa12fea886",
      "externalIds": {
        "MAG": "3095116911",
        "DBLP": "journals/tds/OrnekECKSS20",
        "DOI": "10.18280/ts.370409",
        "CorpusId": 226842178
      },
      "url": "https://www.semanticscholar.org/paper/eb8812a034e7bddf721d979806dde4fa12fea886",
      "title": "Classification of Medical Thermograms Belonging Neonates by Using Segmentation, Feature Engineering and Machine Learning Algorithms",
      "venue": "Traitement du signal",
      "year": 2020,
      "referenceCount": 30,
      "citationCount": 4,
      "authors": [
        {
          "authorId": "150915645",
          "name": "A. Ornek"
        },
        {
          "authorId": "19166709",
          "name": "Saim Ervural"
        },
        {
          "authorId": "3434948",
          "name": "M. Ceylan"
        },
        {
          "authorId": "6431966",
          "name": "M. Konak"
        },
        {
          "authorId": "5884954",
          "name": "H. Soylu"
        },
        {
          "authorId": "2082229839",
          "name": "Duygu Savasci"
        }
      ]
    },
    {
      "paperId": "ccf1b686677b3eb8f39b2c7109f4d8933823c96f",
      "externalIds": {
        "MAG": "3172810794",
        "DOI": "10.1007/978-981-33-6915-3_39",
        "CorpusId": 236692696
      },
      "url": "https://www.semanticscholar.org/paper/ccf1b686677b3eb8f39b2c7109f4d8933823c96f",
      "title": "Comparative Study on Predictive Mathematical Models for Risk Assessment of nCOVID-19 Pandemic in India",
      "venue": "",
      "year": 2021,
      "referenceCount": 14,
      "citationCount": 0,
      "authors": [
        {
          "authorId": "122699289",
          "name": "Swarnava Biswas"
        },
        {
          "authorId": "144340585",
          "name": "A. Prasad"
        },
        {
          "authorId": "2080071213",
          "name": "Debajit Sen"
        },
        {
          "authorId": "48436687",
          "name": "D. Bhatia"
        },
        {
          "authorId": "51404916",
          "name": "M. Mukherjee"
        }
      ]
    },
    {
      "paperId": "b0746fa3b22ba3047016c8e37b9b1a0d853be5d1",
      "externalIds": {
        "MAG": "2384862495",
        "CorpusId": 123365767
      },
      "url": "https://www.semanticscholar.org/paper/b0746fa3b22ba3047016c8e37b9b1a0d853be5d1",
      "title": "Temperature drift prediction for MEMS gyroscopes based on PSVR",
      "venue": "",
      "year": 2009,
      "referenceCount": 0,
      "citationCount": 3,
      "authors": [
        {
          "authorId": "9334785",
          "name": "Zeng Qing-shuang"
        }
      ]
    },
    {
      "paperId": "0620cd6b1dfffa7d84d8f57b1c4373259e47de74",
      "externalIds": {
        "DOI": "10.1088/1361-6560/ad14c7",
        "CorpusId": 266233463,
        "PubMed": "38086079"
      },
      "url": "https://www.semanticscholar.org/paper/0620cd6b1dfffa7d84d8f57b1c4373259e47de74",
      "title": "Fast prediction of patient-specific organ doses in brain CT scans using support vector regression algorithm",
      "venue": "Physics in Medicine and Biology",
      "year": 2023,
      "referenceCount": 0,
      "citationCount": 7,
      "authors": [
        {
          "authorId": "2274255404",
          "name": "Wencheng Shao"
        },
        {
          "authorId": "14908482",
          "name": "Xinag-tong Lin"
        },
        {
          "authorId": "15580282",
          "name": "Y. Yi"
        },
        {
          "authorId": "2274505846",
          "name": "Ying Huang"
        },
        {
          "authorId": "2274304563",
          "name": "Liangyong Qu"
        },
        {
          "authorId": "2177739806",
          "name": "Weihai Zhuo"
        },
        {
          "authorId": "2109500820",
          "name": "Haikuan Liu"
        }
      ]
    },
    {
      "paperId": "9affc8c58ab97fedb6c99182df0fbca2e87b194c",
      "externalIds": {
        "DOI": "10.3390/math11244959",
        "CorpusId": 266328904
      },
      "url": "https://www.semanticscholar.org/paper/9affc8c58ab97fedb6c99182df0fbca2e87b194c",
      "title": "An Advanced Segmentation Approach to Piecewise Regression Models",
      "venue": "Mathematics",
      "year": 2023,
      "referenceCount": 61,
      "citationCount": 17,
      "authors": [
        {
          "authorId": "2542579",
          "name": "K. Lu"
        },
        {
          "authorId": "1983843",
          "name": "Shao-Tung Chang"
        }
      ]
    },
    {
      "paperId": "ff51b3f0f6897093ce7a8463e21c799da2485f7d",
      "externalIds": {
        "DOI": "10.1088/1361-6501/adeace",
        "CorpusId": 280078352
      },
      "url": "https://www.semanticscholar.org/paper/ff51b3f0f6897093ce7a8463e21c799da2485f7d",
      "title": "A fast and stable road edge detection method based on LiDAR and camera",
      "venue": "Measurement science and technology",
      "year": 2025,
      "referenceCount": 47,
      "citationCount": 1,
      "authors": [
        {
          "authorId": "2243219573",
          "name": "Shuang Liu"
        },
        {
          "authorId": "2372247473",
          "name": "Rui Zou"
        },
        {
          "authorId": "2324228927",
          "name": "Peng Xu"
        }
      ]
    },
    {
      "paperId": "0f848de0a159a14971ad5702ff2260022f12d85a",
      "externalIds": {
        "PubMedCentral": "6929122",
        "MAG": "2989651584",
        "DBLP": "journals/sensors/AdamowiczGFUFM19",
        "DOI": "10.3390/s19235143",
        "CorpusId": 208322306,
        "PubMed": "31771263"
      },
      "url": "https://www.semanticscholar.org/paper/0f848de0a159a14971ad5702ff2260022f12d85a",
      "title": "Validation of Novel Relative Orientation and Inertial Sensor-to-Segment Alignment Algorithms for Estimating 3D Hip Joint Angles",
      "venue": "Italian National Conference on Sensors",
      "year": 2019,
      "referenceCount": 50,
      "citationCount": 25,
      "authors": [
        {
          "authorId": "152550922",
          "name": "L. Adamowicz"
        },
        {
          "authorId": "151185022",
          "name": "Reed D. Gurchiek"
        },
        {
          "authorId": "1432806737",
          "name": "Jonathan Ferri"
        },
        {
          "authorId": "1432809483",
          "name": "Anna T. Ursiny"
        },
        {
          "authorId": "4179825",
          "name": "N. Fiorentino"
        },
        {
          "authorId": "2670026",
          "name": "R. Mcginnis"
        }
      ]
    },
    {
      "paperId": "79b9d9db93e5edec7d16039cd44d60a436b69ce1",
      "externalIds": {
        "DOI": "10.1016/j.bios.2024.116604",
        "CorpusId": 271496892,
        "PubMed": "39094293"
      },
      "url": "https://www.semanticscholar.org/paper/79b9d9db93e5edec7d16039cd44d60a436b69ce1",
      "title": "Nanozyme-based colorimetric sensor arrays coupling with smartphone for discrimination and \"segmentation-extraction-regression\" deep learning assisted quantification of flavonoids.",
      "venue": "Biosensors & bioelectronics",
      "year": 2024,
      "referenceCount": 42,
      "citationCount": 21,
      "authors": [
        {
          "authorId": "2240266025",
          "name": "Yuelian Qin"
        },
        {
          "authorId": "2200994433",
          "name": "Xinyu Zhong"
        },
        {
          "authorId": "2267197883",
          "name": "Caihong Liang"
        },
        {
          "authorId": "2278586559",
          "name": "Zhenwu Liang"
        },
        {
          "authorId": "2188088298",
          "name": "Yunyuan Nong"
        },
        {
          "authorId": "2239056982",
          "name": "Lijun Deng"
        },
        {
          "authorId": "2238946754",
          "name": "Yue Guo"
        },
        {
          "authorId": "2309429795",
          "name": "Jinfeng Li"
        },
        {
          "authorId": "2296968973",
          "name": "Meiling Zhang"
        },
        {
          "authorId": "2297354812",
          "name": "Siqi Tang"
        },
        {
          "authorId": "2198157370",
          "name": "Liuyan Wei"
        },
        {
          "authorId": "2313631041",
          "name": "Ying Yang"
        },
        {
          "authorId": "2313461779",
          "name": "Yonghong Liang"
        },
        {
          "authorId": "2309724722",
          "name": "Jinxia Wu"
        },
        {
          "authorId": "2300166087",
          "name": "Yeng Ming Lam"
        },
        {
          "authorId": "2272860659",
          "name": "Zhiheng Su"
        }
      ]
    },
    {
      "paperId": "175ca7df87aca2886f6ef10af44d17f820e0c74c",
      "externalIds": {
        "DOI": "10.1186/s10033-024-01013-9",
        "CorpusId": 269034161
      },
      "url": "https://www.semanticscholar.org/paper/175ca7df87aca2886f6ef10af44d17f820e0c74c",
      "title": "Regression Method for Rail Fastener Tightness Based on Center-Line Projection Distance Feature and Neural Network",
      "venue": "Chinese Journal of Mechanical Engineering",
      "year": 2024,
      "referenceCount": 24,
      "citationCount": 7,
      "authors": [
        {
          "authorId": "2243668576",
          "name": "Yuanhang Wang"
        },
        {
          "authorId": "2295952183",
          "name": "Duxin Liu"
        },
        {
          "authorId": "2260820369",
          "name": "Sheng Guo"
        },
        {
          "authorId": "2260597075",
          "name": "Yifan Wu"
        },
        {
          "authorId": "2271834872",
          "name": "Jing Liu"
        },
        {
          "authorId": "2270658226",
          "name": "Wei Li"
        },
        {
          "authorId": "2271255467",
          "name": "Hongjie Wang"
        }
      ]
    }
  ]
}