{
  "total": 20,
  "offset": 0,
  "next": 10,
  "data": [
    {
      "paperId": "5ed59ee883e314b72e96c04b79c2d826d72ffa28",
      "externalIds": {
        "ArXiv": "1806.00650",
        "DBLP": "journals/corr/abs-1806-00650",
        "MAG": "2963035209",
        "CorpusId": 46934094
      },
      "url": "https://www.semanticscholar.org/paper/5ed59ee883e314b72e96c04b79c2d826d72ffa28",
      "title": "Signal and Noise Statistics Oblivious Orthogonal Matching Pursuit",
      "venue": "International Conference on Machine Learning",
      "year": 2018,
      "referenceCount": 36,
      "citationCount": 16,
      "authors": [
        {
          "authorId": "3378252",
          "name": "Sreejith Kallummil"
        },
        {
          "authorId": "143968719",
          "name": "S. Kalyani"
        }
      ]
    },
    {
      "paperId": "541c10ecce6a0c9e72d5ae1993d7176031799ff2",
      "externalIds": {
        "CorpusId": 53337938
      },
      "url": "https://www.semanticscholar.org/paper/541c10ecce6a0c9e72d5ae1993d7176031799ff2",
      "title": "Supplementary Materials : Signal and Noise Statistics Oblivious Orthogonal Matching Pursuit",
      "venue": "",
      "year": 2018,
      "referenceCount": 6,
      "citationCount": 1,
      "authors": [
        {
          "authorId": "3378252",
          "name": "Sreejith Kallummil"
        },
        {
          "authorId": "143968719",
          "name": "S. Kalyani"
        }
      ]
    },
    {
      "paperId": "94d0f5d5a6eaf81ce2743edb545ff2e73844f42c",
      "externalIds": {
        "MAG": "2740000853",
        "ArXiv": "1707.08712",
        "CorpusId": 88524661
      },
      "url": "https://www.semanticscholar.org/paper/94d0f5d5a6eaf81ce2743edb545ff2e73844f42c",
      "title": "Signal and Noise Statistics Oblivious Sparse Reconstruction using OMP/OLS",
      "venue": "",
      "year": 2017,
      "referenceCount": 29,
      "citationCount": 1,
      "authors": [
        {
          "authorId": "3378252",
          "name": "Sreejith Kallummil"
        },
        {
          "authorId": "143968719",
          "name": "S. Kalyani"
        }
      ]
    },
    {
      "paperId": "3c3e24d8f5d64cafbda8d97d74484f63c944a852",
      "externalIds": {
        "MAG": "2979807115",
        "DBLP": "journals/sigpro/KallummilK20",
        "ArXiv": "1811.07131",
        "DOI": "10.1016/j.sigpro.2019.107335",
        "CorpusId": 53762717
      },
      "url": "https://www.semanticscholar.org/paper/3c3e24d8f5d64cafbda8d97d74484f63c944a852",
      "title": "High SNR Consistent Compressive Sensing Without Signal and Noise Statistics",
      "venue": "Signal Processing",
      "year": 2018,
      "referenceCount": 37,
      "citationCount": 2,
      "authors": [
        {
          "authorId": "3378252",
          "name": "Sreejith Kallummil"
        },
        {
          "authorId": "143968719",
          "name": "S. Kalyani"
        }
      ]
    },
    {
      "paperId": "c42483370ef5ef0d799adbfdb040ea506c16411a",
      "externalIds": {
        "CorpusId": 208006914
      },
      "url": "https://www.semanticscholar.org/paper/c42483370ef5ef0d799adbfdb040ea506c16411a",
      "title": "STATISTICAL TIME-FREQUENCY DIFFERENTIATIONS OF ERP IN DYSLEXIA USING MATCHING PURSUIT ALGORITHM",
      "venue": "",
      "year": 2008,
      "referenceCount": 16,
      "citationCount": 2,
      "authors": [
        {
          "authorId": "2139539312",
          "name": "G. Giannakakis"
        },
        {
          "authorId": "2812879",
          "name": "M. Vavatsioula"
        },
        {
          "authorId": "31535552",
          "name": "C. Papageorgiou"
        },
        {
          "authorId": "1787544",
          "name": "K. Nikita"
        }
      ]
    },
    {
      "paperId": "cdf71bd757d1b35be3e4a50fdc77054f7babcd2d",
      "externalIds": {
        "MAG": "100695655",
        "DBLP": "conf/icml/ChenC13a",
        "CorpusId": 10349478
      },
      "url": "https://www.semanticscholar.org/paper/cdf71bd757d1b35be3e4a50fdc77054f7babcd2d",
      "title": "Noisy and Missing Data Regression: Distribution-Oblivious Support Recovery",
      "venue": "International Conference on Machine Learning",
      "year": 2013,
      "referenceCount": 18,
      "citationCount": 56,
      "authors": [
        {
          "authorId": "51310474",
          "name": "Yudong Chen"
        },
        {
          "authorId": "1764494",
          "name": "C. Caramanis"
        }
      ]
    },
    {
      "paperId": "b43ad8820990e9f129a90452e3a9ea137b7bd84e",
      "externalIds": {
        "DBLP": "journals/corr/CohenE16",
        "ArXiv": "1604.02659",
        "MAG": "2335894546",
        "DOI": "10.1109/TSP.2017.2684743",
        "CorpusId": 12517095
      },
      "url": "https://www.semanticscholar.org/paper/b43ad8820990e9f129a90452e3a9ea137b7bd84e",
      "title": "Sub-Nyquist Cyclostationary Detection for Cognitive Radio",
      "venue": "IEEE Transactions on Signal Processing",
      "year": 2016,
      "referenceCount": 45,
      "citationCount": 78,
      "authors": [
        {
          "authorId": "144011617",
          "name": "Deborah Cohen"
        },
        {
          "authorId": "143783379",
          "name": "Yonina C. Eldar"
        }
      ]
    },
    {
      "paperId": "c4915318325f384119cc4b753608963fb99cdaa1",
      "externalIds": {
        "MAG": "2645174864",
        "DOI": "10.1016/J.AEUE.2017.06.021",
        "CorpusId": 113968281
      },
      "url": "https://www.semanticscholar.org/paper/c4915318325f384119cc4b753608963fb99cdaa1",
      "title": "Clipping noise estimation in OFDM systems: A greedy-based approach",
      "venue": "",
      "year": 2017,
      "referenceCount": 25,
      "citationCount": 4,
      "authors": [
        {
          "authorId": "22245455",
          "name": "M. Azizipour"
        },
        {
          "authorId": "2583828",
          "name": "K. Mohamed-Pour"
        }
      ]
    },
    {
      "paperId": "81b820aa7699bc11b0c0f40ff1025dec28e0f881",
      "externalIds": {
        "MAG": "2922693182",
        "DBLP": "journals/access/Yu19",
        "DOI": "10.1109/ACCESS.2019.2905903",
        "CorpusId": 96431871
      },
      "url": "https://www.semanticscholar.org/paper/81b820aa7699bc11b0c0f40ff1025dec28e0f881",
      "title": "A Fast and Noise-Robust Algorithm for Joint Sparse Recovery Through Information Transfer",
      "venue": "IEEE Access",
      "year": 2019,
      "referenceCount": 46,
      "citationCount": 7,
      "authors": [
        {
          "authorId": "1756168",
          "name": "N. Yu"
        }
      ]
    },
    {
      "paperId": "b31db7da22e8098fc1eb394c6d97e28c9812d123",
      "externalIds": {
        "MAG": "2807124151",
        "DBLP": "journals/access/ElgenedyMHBIA18",
        "DOI": "10.1109/ACCESS.2018.2842194",
        "CorpusId": 49185389
      },
      "url": "https://www.semanticscholar.org/paper/b31db7da22e8098fc1eb394c6d97e28c9812d123",
      "title": "Sparsity-Based Joint NBI and Impulse Noise Mitigation in Hybrid PLC-Wireless Transmissions",
      "venue": "IEEE Access",
      "year": 2018,
      "referenceCount": 28,
      "citationCount": 13,
      "authors": [
        {
          "authorId": "37330588",
          "name": "M. Elgenedy"
        },
        {
          "authorId": "50875219",
          "name": "Mohamed Mokhtar Awadin"
        },
        {
          "authorId": "1819495",
          "name": "R. Hamila"
        },
        {
          "authorId": "2138101",
          "name": "W. Bajwa"
        },
        {
          "authorId": "2004686512",
          "name": "A. Ibrahim"
        },
        {
          "authorId": "1390094118",
          "name": "N. Al-Dhahir"
        }
      ]
    }
  ]
}