{
  "total": 127,
  "offset": 0,
  "next": 10,
  "data": [
    {
      "paperId": "d14c7e5f5cace4c925abc74c88baa474e9f31a28",
      "externalIds": {
        "MAG": "2953061907",
        "DBLP": "journals/corr/ChungGCB15",
        "ArXiv": "1502.02367",
        "CorpusId": 8577750
      },
      "url": "https://www.semanticscholar.org/paper/d14c7e5f5cace4c925abc74c88baa474e9f31a28",
      "title": "Gated Feedback Recurrent Neural Networks",
      "venue": "International Conference on Machine Learning",
      "year": 2015,
      "referenceCount": 34,
      "citationCount": 886,
      "authors": [
        {
          "authorId": "8270717",
          "name": "Junyoung Chung"
        },
        {
          "authorId": "1854385",
          "name": "Çaglar Gülçehre"
        },
        {
          "authorId": "1979489",
          "name": "Kyunghyun Cho"
        },
        {
          "authorId": "1751762",
          "name": "Yoshua Bengio"
        }
      ]
    },
    {
      "paperId": "492f57ee9ceb61fb5a47ad7aebfec1121887a175",
      "externalIds": {
        "MAG": "2244807774",
        "ArXiv": "1511.05493",
        "DBLP": "journals/corr/LiTBZ15",
        "CorpusId": 8393918
      },
      "url": "https://www.semanticscholar.org/paper/492f57ee9ceb61fb5a47ad7aebfec1121887a175",
      "title": "Gated Graph Sequence Neural Networks",
      "venue": "International Conference on Learning Representations",
      "year": 2015,
      "referenceCount": 39,
      "citationCount": 3569,
      "authors": [
        {
          "authorId": "47002813",
          "name": "Yujia Li"
        },
        {
          "authorId": "1725299",
          "name": "Daniel Tarlow"
        },
        {
          "authorId": "2107692",
          "name": "Marc Brockschmidt"
        },
        {
          "authorId": "1804104",
          "name": "R. Zemel"
        }
      ]
    },
    {
      "paperId": "b777a55505ee2ffb4f8f9ada916e4e4a5f13a4ed",
      "externalIds": {
        "MAG": "2748780488",
        "CorpusId": 15641534
      },
      "url": "https://www.semanticscholar.org/paper/b777a55505ee2ffb4f8f9ada916e4e4a5f13a4ed",
      "title": "Depth-Gated Recurrent Neural Networks",
      "venue": "",
      "year": 2015,
      "referenceCount": 13,
      "citationCount": 79,
      "authors": [
        {
          "authorId": "39922478",
          "name": "K. Yao"
        },
        {
          "authorId": "143620680",
          "name": "Trevor Cohn"
        },
        {
          "authorId": "117215652",
          "name": "Katerina Vylomova"
        },
        {
          "authorId": "1800354",
          "name": "Kevin Duh"
        },
        {
          "authorId": "1745899",
          "name": "Chris Dyer"
        }
      ]
    },
    {
      "paperId": "07c3dc399583caba107616122dd1347b004fa418",
      "externalIds": {
        "ArXiv": "1501.00299",
        "MAG": "156805311",
        "DBLP": "journals/corr/Pezeshki15",
        "CorpusId": 9312895
      },
      "url": "https://www.semanticscholar.org/paper/07c3dc399583caba107616122dd1347b004fa418",
      "title": "Sequence Modeling using Gated Recurrent Neural Networks",
      "venue": "arXiv.org",
      "year": 2015,
      "referenceCount": 14,
      "citationCount": 15,
      "authors": [
        {
          "authorId": "145507036",
          "name": "M. Pezeshki"
        }
      ]
    },
    {
      "paperId": "465eed29f5af60cada83143461674b5893ce4e4a",
      "externalIds": {
        "MAG": "2287022337",
        "DOI": "10.1007/978-81-322-2550-8_20",
        "CorpusId": 124840709
      },
      "url": "https://www.semanticscholar.org/paper/465eed29f5af60cada83143461674b5893ce4e4a",
      "title": "Linear Congruential Sequences: Feedback and Recurrent Neural Networks",
      "venue": "",
      "year": 2015,
      "referenceCount": 2,
      "citationCount": 2,
      "authors": [
        {
          "authorId": "143674379",
          "name": "G. R. Murthy"
        },
        {
          "authorId": "9219875",
          "name": "M. Gabbouj"
        }
      ]
    },
    {
      "paperId": "96431bf542e9303d07afc49d1bbab95bab45673e",
      "externalIds": {
        "DBLP": "journals/corr/ZhangJWD15",
        "MAG": "1920942766",
        "ArXiv": "1510.02693",
        "CorpusId": 16867372
      },
      "url": "https://www.semanticscholar.org/paper/96431bf542e9303d07afc49d1bbab95bab45673e",
      "title": "Feedforward Sequential Memory Neural Networks without Recurrent Feedback",
      "venue": "arXiv.org",
      "year": 2015,
      "referenceCount": 16,
      "citationCount": 21,
      "authors": [
        {
          "authorId": "1776581",
          "name": "Shiliang Zhang"
        },
        {
          "authorId": "36357862",
          "name": "Hui Jiang"
        },
        {
          "authorId": "144572674",
          "name": "Si Wei"
        },
        {
          "authorId": "1860774",
          "name": "Lirong Dai"
        }
      ]
    },
    {
      "paperId": "ecb5336bf7b54a62109f325e7152bb74c4c7f527",
      "externalIds": {
        "MAG": "2250966211",
        "DBLP": "conf/emnlp/TangQL15",
        "ACL": "D15-1167",
        "DOI": "10.18653/v1/D15-1167",
        "CorpusId": 784094
      },
      "url": "https://www.semanticscholar.org/paper/ecb5336bf7b54a62109f325e7152bb74c4c7f527",
      "title": "Document Modeling with Gated Recurrent Neural Network for Sentiment Classification",
      "venue": "Conference on Empirical Methods in Natural Language Processing",
      "year": 2015,
      "referenceCount": 60,
      "citationCount": 1480,
      "authors": [
        {
          "authorId": "39483833",
          "name": "Duyu Tang"
        },
        {
          "authorId": "152277111",
          "name": "Bing Qin"
        },
        {
          "authorId": "40282288",
          "name": "Ting Liu"
        }
      ]
    },
    {
      "paperId": "ad3b3d00d3601190dd04155d69c343fb03bfe704",
      "externalIds": {
        "MAG": "1922658220",
        "DBLP": "conf/cvpr/ZuoSWLWWC15",
        "DOI": "10.1109/CVPRW.2015.7301268",
        "CorpusId": 16889475
      },
      "url": "https://www.semanticscholar.org/paper/ad3b3d00d3601190dd04155d69c343fb03bfe704",
      "title": "Convolutional recurrent neural networks: Learning spatial dependencies for image representation",
      "venue": "2015 IEEE Conference on Computer Vision and Pattern Recognition Workshops (CVPRW)",
      "year": 2015,
      "referenceCount": 56,
      "citationCount": 165,
      "authors": [
        {
          "authorId": "145084658",
          "name": "Zhen Zuo"
        },
        {
          "authorId": "2521776",
          "name": "Bing Shuai"
        },
        {
          "authorId": "2096527",
          "name": "G. Wang"
        },
        {
          "authorId": "2111312232",
          "name": "Xiao Liu"
        },
        {
          "authorId": "2144802333",
          "name": "Xingxing Wang"
        },
        {
          "authorId": "145952970",
          "name": "B. Wang"
        },
        {
          "authorId": "2597809",
          "name": "Yushi Chen"
        }
      ]
    },
    {
      "paperId": "1043513a8b1a78b289c287c2ced70a9a6411b282",
      "externalIds": {
        "ArXiv": "1512.05135",
        "MAG": "2197886894",
        "DBLP": "journals/corr/LeeLNY15",
        "CorpusId": 519581
      },
      "url": "https://www.semanticscholar.org/paper/1043513a8b1a78b289c287c2ced70a9a6411b282",
      "title": "DNA-Level Splice Junction Prediction using Deep Recurrent Neural Networks",
      "venue": "arXiv.org",
      "year": 2015,
      "referenceCount": 35,
      "citationCount": 43,
      "authors": [
        {
          "authorId": "2821668",
          "name": "Byunghan Lee"
        },
        {
          "authorId": "2152473369",
          "name": "Taehoon Lee"
        },
        {
          "authorId": "2972978",
          "name": "Byunggook Na"
        },
        {
          "authorId": "2999019",
          "name": "Sungroh Yoon"
        }
      ]
    },
    {
      "paperId": "392914e7a1eba8f64daeaa39da8563f6ec409a4c",
      "externalIds": {
        "CorpusId": 12305926
      },
      "url": "https://www.semanticscholar.org/paper/392914e7a1eba8f64daeaa39da8563f6ec409a4c",
      "title": "GRUV: Algorithmic Music Generation using Recurrent Neural Networks",
      "venue": "",
      "year": 2015,
      "referenceCount": 5,
      "citationCount": 40,
      "authors": [
        {
          "authorId": "40637388",
          "name": "Aran Nayebi"
        }
      ]
    }
  ]
}