{
  "total": 1444,
  "offset": 0,
  "next": 10,
  "data": [
    {
      "paperId": "0478ea6bae603a089be1488d6e0d34b234427ac3",
      "externalIds": {
        "MAG": "2741741107",
        "DBLP": "conf/icml/VaswaniKWGLS17",
        "CorpusId": 32455974
      },
      "url": "https://www.semanticscholar.org/paper/0478ea6bae603a089be1488d6e0d34b234427ac3",
      "title": "Model-Independent Online Learning for Influence Maximization",
      "venue": "International Conference on Machine Learning",
      "year": 2017,
      "referenceCount": 40,
      "citationCount": 58,
      "authors": [
        {
          "authorId": "1711940",
          "name": "Sharan Vaswani"
        },
        {
          "authorId": "1681967",
          "name": "B. Kveton"
        },
        {
          "authorId": "39761651",
          "name": "Zheng Wen"
        },
        {
          "authorId": "1678622",
          "name": "M. Ghavamzadeh"
        },
        {
          "authorId": "1708593",
          "name": "L. Lakshmanan"
        },
        {
          "authorId": "145610994",
          "name": "Mark W. Schmidt"
        }
      ]
    },
    {
      "paperId": "faee0b8bdf8db97e68980baa8732ec2d4f8cbef5",
      "externalIds": {
        "CorpusId": 36244760
      },
      "url": "https://www.semanticscholar.org/paper/faee0b8bdf8db97e68980baa8732ec2d4f8cbef5",
      "title": "Model-Independent Online Learning for Influence Maximization",
      "venue": "",
      "year": 2017,
      "referenceCount": 0,
      "citationCount": 1,
      "authors": [
        {
          "authorId": "6082833",
          "name": "F. U"
        }
      ]
    },
    {
      "paperId": "ccd62ddee82427d2baf97d2e3513975e0b569397",
      "externalIds": {
        "DBLP": "journals/corr/abs-2011-06378",
        "ArXiv": "2011.06378",
        "MAG": "3100903374",
        "CorpusId": 226306998
      },
      "url": "https://www.semanticscholar.org/paper/ccd62ddee82427d2baf97d2e3513975e0b569397",
      "title": "Online Influence Maximization under Linear Threshold Model",
      "venue": "Neural Information Processing Systems",
      "year": 2020,
      "referenceCount": 53,
      "citationCount": 44,
      "authors": [
        {
          "authorId": "1491648207",
          "name": "Shuai Li"
        },
        {
          "authorId": "2112394890",
          "name": "Fang-yuan Kong"
        },
        {
          "authorId": "2218638655",
          "name": "Kejie Tang"
        },
        {
          "authorId": "2132432381",
          "name": "Qizhi Li"
        },
        {
          "authorId": "47483090",
          "name": "Wei Chen"
        }
      ]
    },
    {
      "paperId": "80d87a0f02c95e7bf44bf01332ee7c689177b976",
      "externalIds": {
        "MAG": "3035185594",
        "ArXiv": "2604.19672",
        "DBLP": "conf/icml/PerraultHWV20",
        "CorpusId": 220660583
      },
      "url": "https://www.semanticscholar.org/paper/80d87a0f02c95e7bf44bf01332ee7c689177b976",
      "title": "Budgeted Online Influence Maximization",
      "venue": "International Conference on Machine Learning",
      "year": 2020,
      "referenceCount": 47,
      "citationCount": 20,
      "authors": [
        {
          "authorId": "103511645",
          "name": "Pierre Perrault"
        },
        {
          "authorId": "144139962",
          "name": "Jennifer Healey"
        },
        {
          "authorId": "39761651",
          "name": "Zheng Wen"
        },
        {
          "authorId": "1806291",
          "name": "Michal Valko"
        }
      ]
    },
    {
      "paperId": "8ba77cc9a9347032c2e5d74760e9793be175b40b",
      "externalIds": {
        "DBLP": "journals/corr/abs-1911-02986",
        "ArXiv": "1911.02986",
        "MAG": "2985918423",
        "CorpusId": 207847472
      },
      "url": "https://www.semanticscholar.org/paper/8ba77cc9a9347032c2e5d74760e9793be175b40b",
      "title": "Beyond Adaptive Submodularity: Adaptive Influence Maximization with Intermediary Constraints",
      "venue": "arXiv.org",
      "year": 2019,
      "referenceCount": 22,
      "citationCount": 2,
      "authors": [
        {
          "authorId": "1421269937",
          "name": "Shatian Wang"
        },
        {
          "authorId": "2149237218",
          "name": "Zhen Xu"
        },
        {
          "authorId": "1936656",
          "name": "Van-Anh Truong"
        }
      ]
    },
    {
      "paperId": "c26edfc9273b6a0b5a932eb8bdb5cb836cb59d56",
      "externalIds": {
        "MAG": "2187760926",
        "DOI": "10.5120/IJCA2015906898",
        "CorpusId": 623829
      },
      "url": "https://www.semanticscholar.org/paper/c26edfc9273b6a0b5a932eb8bdb5cb836cb59d56",
      "title": "Influence Maximization in Social Networks using Learning Automata",
      "venue": "",
      "year": 2015,
      "referenceCount": 19,
      "citationCount": 3,
      "authors": [
        {
          "authorId": "2054444943",
          "name": "A. Mohammadi"
        },
        {
          "authorId": "9128261",
          "name": "K. Khamforoosh"
        }
      ]
    },
    {
      "paperId": "bc64ecf8abb492b66796451adc6cfccb4203fd5a",
      "externalIds": {
        "DBLP": "conf/cacml/XuZZ25",
        "DOI": "10.1109/CACML64929.2025.11010959",
        "CorpusId": 278937076
      },
      "url": "https://www.semanticscholar.org/paper/bc64ecf8abb492b66796451adc6cfccb4203fd5a",
      "title": "Rumor Suppression Maximization Algorithm Based on Local Dominance Tree",
      "venue": "2025 4th Asia Conference on Algorithms, Computing and Machine Learning (CACML)",
      "year": 2025,
      "referenceCount": 21,
      "citationCount": 0,
      "authors": [
        {
          "authorId": "2297923503",
          "name": "Jingke Xu"
        },
        {
          "authorId": "2110601565",
          "name": "Di Zhao"
        },
        {
          "authorId": "2352536222",
          "name": "Lei Zhou"
        }
      ]
    },
    {
      "paperId": "464fc754881f6ca2cdfd679a52f472566198cb30",
      "externalIds": {
        "DBLP": "conf/ijcai/LiuZSCL17",
        "MAG": "2740080578",
        "DOI": "10.24963/ijcai.2017/327",
        "CorpusId": 11512652
      },
      "url": "https://www.semanticscholar.org/paper/464fc754881f6ca2cdfd679a52f472566198cb30",
      "title": "Learning Concise Representations of Users' Influences through Online Behaviors",
      "venue": "International Joint Conference on Artificial Intelligence",
      "year": 2017,
      "referenceCount": 32,
      "citationCount": 10,
      "authors": [
        {
          "authorId": "8602563",
          "name": "Shenghua Liu"
        },
        {
          "authorId": "3451634",
          "name": "Houdong Zheng"
        },
        {
          "authorId": "2476503",
          "name": "Huawei Shen"
        },
        {
          "authorId": "1717004",
          "name": "Xueqi Cheng"
        },
        {
          "authorId": "2965793",
          "name": "Xiangwen Liao"
        }
      ]
    },
    {
      "paperId": "acbf02fa454cb109e950feae869c2377e6c2f0a3",
      "externalIds": {
        "CorpusId": 212540054
      },
      "url": "https://www.semanticscholar.org/paper/acbf02fa454cb109e950feae869c2377e6c2f0a3",
      "title": "in stochastic graphs using learning automata. in CASoN. 2012.",
      "venue": "",
      "year": 2018,
      "referenceCount": 18,
      "citationCount": 0,
      "authors": [
        {
          "authorId": "2054444943",
          "name": "A. Mohammadi"
        },
        {
          "authorId": "9128261",
          "name": "K. Khamforoosh"
        }
      ]
    },
    {
      "paperId": "8fb96aff9fde1d30d4ff54fad8c6aa155570836e",
      "externalIds": {
        "DBLP": "journals/kais/LiuXL24",
        "DOI": "10.1007/s10115-023-01982-8",
        "CorpusId": 262999704
      },
      "url": "https://www.semanticscholar.org/paper/8fb96aff9fde1d30d4ff54fad8c6aa155570836e",
      "title": "Online influence maximization under continuous independent cascade model with node-edge-level feedback",
      "venue": "Knowledge and Information Systems",
      "year": 2023,
      "referenceCount": 36,
      "citationCount": 4,
      "authors": [
        {
          "authorId": "145910176",
          "name": "Chao Liu"
        },
        {
          "authorId": "2241520544",
          "name": "Haichao Xu"
        },
        {
          "authorId": "4029028",
          "name": "Xiao-Yang Liu"
        }
      ]
    }
  ]
}