{
  "total": 75,
  "offset": 0,
  "next": 10,
  "data": [
    {
      "paperId": "03c86f411eaa96757fce6bcf3fc3d12cec2b9a8b",
      "externalIds": {
        "DBLP": "conf/icml/TangS15",
        "MAG": "1652247329",
        "CorpusId": 14174247
      },
      "url": "https://www.semanticscholar.org/paper/03c86f411eaa96757fce6bcf3fc3d12cec2b9a8b",
      "title": "Guaranteed Tensor Decomposition: A Moment Approach",
      "venue": "International Conference on Machine Learning",
      "year": 2015,
      "referenceCount": 54,
      "citationCount": 33,
      "authors": [
        {
          "authorId": "3062007",
          "name": "Gongguo Tang"
        },
        {
          "authorId": "1786206",
          "name": "Parikshit M. Shah"
        }
      ]
    },
    {
      "paperId": "bd927528bf461e752d206b545add98de301eee89",
      "externalIds": {
        "MAG": "2048697400",
        "DBLP": "conf/kdd/WangLSH15",
        "DOI": "10.1145/2783258.2783288",
        "CorpusId": 16726629,
        "PubMed": "26705505"
      },
      "url": "https://www.semanticscholar.org/paper/bd927528bf461e752d206b545add98de301eee89",
      "title": "Towards Interactive Construction of Topical Hierarchy: A Recursive Tensor Decomposition Approach",
      "venue": "Knowledge Discovery and Data Mining",
      "year": 2015,
      "referenceCount": 33,
      "citationCount": 9,
      "authors": [
        {
          "authorId": null,
          "name": "Chi Wang"
        },
        {
          "authorId": "1908282",
          "name": "Xueqing Liu"
        },
        {
          "authorId": "1947447",
          "name": "Yanglei Song"
        },
        {
          "authorId": "145325584",
          "name": "Jiawei Han"
        }
      ]
    },
    {
      "paperId": "97f73c6a709028d71036e305eddafa1a432b83ea",
      "externalIds": {
        "MAG": "578073438",
        "DOI": "10.1016/J.COMPOSITESA.2015.06.014",
        "CorpusId": 136622004
      },
      "url": "https://www.semanticscholar.org/paper/97f73c6a709028d71036e305eddafa1a432b83ea",
      "title": "Deformation gradient tensor decomposition for representing matrix cracks in fiber-reinforced materials",
      "venue": "",
      "year": 2015,
      "referenceCount": 19,
      "citationCount": 58,
      "authors": [
        {
          "authorId": "47879447",
          "name": "F. Leone"
        }
      ]
    },
    {
      "paperId": "04a251f2e15af1f5c4090d5f72ba4d35bfa2c073",
      "externalIds": {
        "DOI": "10.1007/s11042-015-3090-7",
        "CorpusId": 254838878
      },
      "url": "https://www.semanticscholar.org/paper/04a251f2e15af1f5c4090d5f72ba4d35bfa2c073",
      "title": "A spatial-temporal iterative tensor decomposition technique for action and gesture recognition",
      "venue": "Multimedia tools and applications",
      "year": 2015,
      "referenceCount": 0,
      "citationCount": 0,
      "authors": [
        {
          "authorId": "2788104",
          "name": "Yuting Su"
        },
        {
          "authorId": "2116382315",
          "name": "Haiying Wang"
        },
        {
          "authorId": "2989256",
          "name": "Peiguang Jing"
        },
        {
          "authorId": "4917577",
          "name": "Chuan-Zhong Xu"
        }
      ]
    },
    {
      "paperId": "6cdd15b129e0b59030313a967249ef68c9b18e63",
      "externalIds": {
        "MAG": "1964823100",
        "DBLP": "journals/tvt/HuangFLSL15",
        "DOI": "10.1109/TVT.2014.2359217",
        "CorpusId": 3919659
      },
      "url": "https://www.semanticscholar.org/paper/6cdd15b129e0b59030313a967249ef68c9b18e63",
      "title": "An Eigenvalue-Moment-Ratio Approach to Blind Spectrum Sensing for Cognitive Radio Under Sample-Starving Environment",
      "venue": "IEEE Transactions on Vehicular Technology",
      "year": 2015,
      "referenceCount": 48,
      "citationCount": 60,
      "authors": [
        {
          "authorId": "2109137302",
          "name": "Lei Huang"
        },
        {
          "authorId": "145978212",
          "name": "Jun Fang"
        },
        {
          "authorId": "144685166",
          "name": "Kefei Liu"
        },
        {
          "authorId": "145358514",
          "name": "H. So"
        },
        {
          "authorId": "2108541027",
          "name": "Hongbin Li"
        }
      ]
    },
    {
      "paperId": "8c044e3b0b58cef54422e11194ac948acfa08be5",
      "externalIds": {
        "DBLP": "journals/corr/ZhangA15a",
        "MAG": "2963328634",
        "ArXiv": "1502.04689",
        "DOI": "10.1109/TSP.2016.2639466",
        "CorpusId": 14143439
      },
      "url": "https://www.semanticscholar.org/paper/8c044e3b0b58cef54422e11194ac948acfa08be5",
      "title": "Exact Tensor Completion Using t-SVD",
      "venue": "IEEE Transactions on Signal Processing",
      "year": 2015,
      "referenceCount": 43,
      "citationCount": 632,
      "authors": [
        {
          "authorId": "2118690046",
          "name": "Zemin Zhang"
        },
        {
          "authorId": "1980683",
          "name": "S. Aeron"
        }
      ]
    },
    {
      "paperId": "aeb387053d3ca4c768db280559c06f4881ec47c6",
      "externalIds": {
        "MAG": "2292274090",
        "DBLP": "conf/rss/GorodetskyKM15",
        "DOI": "10.15607/RSS.2015.XI.015",
        "CorpusId": 2023116
      },
      "url": "https://www.semanticscholar.org/paper/aeb387053d3ca4c768db280559c06f4881ec47c6",
      "title": "Efficient High-Dimensional Stochastic Optimal Motion Control using Tensor-Train Decomposition",
      "venue": "Robotics: Science and Systems",
      "year": 2015,
      "referenceCount": 27,
      "citationCount": 45,
      "authors": [
        {
          "authorId": "2439226",
          "name": "A. Gorodetsky"
        },
        {
          "authorId": "143612763",
          "name": "S. Karaman"
        },
        {
          "authorId": "144656638",
          "name": "Y. Marzouk"
        }
      ]
    },
    {
      "paperId": "025d531c816ec21eeab512ccaf5eaeffdb0c5f5c",
      "externalIds": {
        "MAG": "2471428732",
        "CorpusId": 138576724
      },
      "url": "https://www.semanticscholar.org/paper/025d531c816ec21eeab512ccaf5eaeffdb0c5f5c",
      "title": "Representing Matrix Cracks Through Decomposition of the Deformation Gradient Tensor in Continuum Damage Mechanics Methods",
      "venue": "",
      "year": 2015,
      "referenceCount": 20,
      "citationCount": 1,
      "authors": [
        {
          "authorId": "47879447",
          "name": "F. Leone"
        }
      ]
    },
    {
      "paperId": "718e867f511d9456157350d8846078f32ea569c1",
      "externalIds": {
        "DBLP": "journals/corr/AnandkumarS15",
        "MAG": "2160832298",
        "ArXiv": "1503.04567",
        "CorpusId": 15326944
      },
      "url": "https://www.semanticscholar.org/paper/718e867f511d9456157350d8846078f32ea569c1",
      "title": "Learning Mixed Membership Community Models in Social Tagging Networks through Tensor Methods",
      "venue": "arXiv.org",
      "year": 2015,
      "referenceCount": 26,
      "citationCount": 11,
      "authors": [
        {
          "authorId": "2047844",
          "name": "Anima Anandkumar"
        },
        {
          "authorId": "2812848",
          "name": "Hanie Sedghi"
        }
      ]
    },
    {
      "paperId": "14e5809fef0346054e05ef0a879209c1e86aaa79",
      "externalIds": {
        "MAG": "1438381303",
        "DBLP": "journals/nca/ZhangHJM18",
        "DOI": "10.1007/s00521-015-2050-5",
        "CorpusId": 30348854
      },
      "url": "https://www.semanticscholar.org/paper/14e5809fef0346054e05ef0a879209c1e86aaa79",
      "title": "Nonlocal image denoising via adaptive tensor nuclear norm minimization",
      "venue": "Neural computing & applications (Print)",
      "year": 2015,
      "referenceCount": 48,
      "citationCount": 35,
      "authors": [
        {
          "authorId": "2111338610",
          "name": "Chenyang Zhang"
        },
        {
          "authorId": "2011571",
          "name": "Wenrui Hu"
        },
        {
          "authorId": "2052139098",
          "name": "T. Jin"
        },
        {
          "authorId": "152649413",
          "name": "Zhonglei Mei"
        }
      ]
    }
  ]
}