{
  "total": 17198,
  "offset": 0,
  "next": 10,
  "data": [
    {
      "paperId": "f108b65fe0003e387e1cd7e50f537af0531818e4",
      "externalIds": {
        "DBLP": "journals/corr/RealMSSSLK17",
        "MAG": "2949264490",
        "ArXiv": "1703.01041",
        "CorpusId": 743641
      },
      "url": "https://www.semanticscholar.org/paper/f108b65fe0003e387e1cd7e50f537af0531818e4",
      "title": "Large-Scale Evolution of Image Classifiers",
      "venue": "International Conference on Machine Learning",
      "year": 2017,
      "referenceCount": 49,
      "citationCount": 1743,
      "authors": [
        {
          "authorId": "2892780",
          "name": "Esteban Real"
        },
        {
          "authorId": "144375552",
          "name": "Sherry Moore"
        },
        {
          "authorId": "1714992",
          "name": "Andrew Selle"
        },
        {
          "authorId": "2054003577",
          "name": "Saurabh Saxena"
        },
        {
          "authorId": "46901409",
          "name": "Y. Suematsu"
        },
        {
          "authorId": "1739176520",
          "name": "Jie Tan"
        },
        {
          "authorId": "2827616",
          "name": "Quoc V. Le"
        },
        {
          "authorId": "145714153",
          "name": "Alexey Kurakin"
        }
      ]
    },
    {
      "paperId": "e973de9ce08f30d43f6930597b3efcb77044d619",
      "externalIds": {
        "DOI": "10.1117/12.3005915",
        "CorpusId": 263832336
      },
      "url": "https://www.semanticscholar.org/paper/e973de9ce08f30d43f6930597b3efcb77044d619",
      "title": "Adaptive biogeography based optimizer evolution depth convolutional neural network for image classification",
      "venue": "Conference on Advanced Algorithms and Signal Image Processing",
      "year": 2023,
      "referenceCount": 20,
      "citationCount": 0,
      "authors": [
        {
          "authorId": "2257009994",
          "name": "Xiang Nan"
        },
        {
          "authorId": "2257009921",
          "name": "Rajamohan Parthasarathy"
        }
      ]
    },
    {
      "paperId": "54a415d2abddffba7de04714d4591611d3ef6574",
      "externalIds": {
        "DOI": "10.1111/2041-210X.70132",
        "CorpusId": 281636175
      },
      "url": "https://www.semanticscholar.org/paper/54a415d2abddffba7de04714d4591611d3ef6574",
      "title": "Essential tools but overlooked bias: Artificial intelligence and citizen science classification affect camera trap data",
      "venue": "Methods in Ecology and Evolution",
      "year": 2025,
      "referenceCount": 66,
      "citationCount": 1,
      "authors": [
        {
          "authorId": "2312804362",
          "name": "Simone Santoro"
        },
        {
          "authorId": "2312797758",
          "name": "Santiago Gutiérrez-Zapata"
        },
        {
          "authorId": "2312804570",
          "name": "Javier Calzada"
        },
        {
          "authorId": "2268464550",
          "name": "Nuria Selva"
        },
        {
          "authorId": "2382636826",
          "name": "Diego Marín‐Santos"
        },
        {
          "authorId": "2314706914",
          "name": "Sara Beery"
        },
        {
          "authorId": "47134390",
          "name": "K. Brandis"
        },
        {
          "authorId": "2382638413",
          "name": "Iñaki Fernández de Viana"
        },
        {
          "authorId": "2370364512",
          "name": "P. Meek"
        },
        {
          "authorId": "2248904680",
          "name": "A. Mortelliti"
        },
        {
          "authorId": "5680461",
          "name": "E. Revilla"
        },
        {
          "authorId": "2357487267",
          "name": "Jon Paul Rodríguez"
        },
        {
          "authorId": "2382638185",
          "name": "Lenka Straková"
        },
        {
          "authorId": "2239037646",
          "name": "S. Tenan"
        },
        {
          "authorId": "2382637240",
          "name": "Manuel Emilio Gegúndez"
        }
      ]
    },
    {
      "paperId": "06a970c9163685b74326eec7aca7955d4c8eabf6",
      "externalIds": {
        "DOI": "10.1111/2041-210X.14239",
        "CorpusId": 265224628
      },
      "url": "https://www.semanticscholar.org/paper/06a970c9163685b74326eec7aca7955d4c8eabf6",
      "title": "ECOGEN: Bird sounds generation using deep learning",
      "venue": "Methods in Ecology and Evolution",
      "year": 2023,
      "referenceCount": 56,
      "citationCount": 15,
      "authors": [
        {
          "authorId": "51188126",
          "name": "Axel-Christian Guei"
        },
        {
          "authorId": "2003479571",
          "name": "Sylvain Christin"
        },
        {
          "authorId": "2163140894",
          "name": "Nicolas Lecomte"
        },
        {
          "authorId": "38912942",
          "name": "É. Hervet"
        }
      ]
    },
    {
      "paperId": "ed2ed262f2d9520ae9df5ae0ff74077f108998fa",
      "externalIds": {
        "ArXiv": "astro-ph/0308272",
        "MAG": "2949253882",
        "DOI": "10.1086/381388",
        "CorpusId": 119384818
      },
      "url": "https://www.semanticscholar.org/paper/ed2ed262f2d9520ae9df5ae0ff74077f108998fa",
      "title": "GEMS Imaging of Red-Sequence Galaxies at ∼ 0.7: Dusty or Old?",
      "venue": "",
      "year": 2003,
      "referenceCount": 25,
      "citationCount": 62,
      "authors": [
        {
          "authorId": "2064733010",
          "name": "E. Bell"
        },
        {
          "authorId": "102407598",
          "name": "D. H. Mcintosh"
        },
        {
          "authorId": "50826413",
          "name": "M. Barden"
        },
        {
          "authorId": "144899679",
          "name": "C. Wolf"
        },
        {
          "authorId": "2248066150",
          "name": "J. Caldwell"
        },
        {
          "authorId": "2229752118",
          "name": "H. Rix"
        },
        {
          "authorId": "144615444",
          "name": "S. Beckwith"
        },
        {
          "authorId": "3981714",
          "name": "A. Borch"
        },
        {
          "authorId": "145055514",
          "name": "B. Haeussler"
        },
        {
          "authorId": "33445215",
          "name": "K. Jahnke"
        },
        {
          "authorId": "40801269",
          "name": "S. Jogee"
        },
        {
          "authorId": "7547563",
          "name": "K. Meisenheimer"
        },
        {
          "authorId": "32855543",
          "name": "C. Peng"
        },
        {
          "authorId": "2178420896",
          "name": "S. Sánchez"
        },
        {
          "authorId": "12068397",
          "name": "R. Somerville"
        },
        {
          "authorId": "4883942",
          "name": "L. Wisotzki"
        }
      ]
    },
    {
      "paperId": "38b9cc0bd8a00461d0f439419fa968f765d643cf",
      "externalIds": {
        "ArXiv": "2403.08793",
        "DBLP": "journals/corr/abs-2403-08793",
        "DOI": "10.1145/3638530.3654380",
        "CorpusId": 268384857
      },
      "url": "https://www.semanticscholar.org/paper/38b9cc0bd8a00461d0f439419fa968f765d643cf",
      "title": "Neural Loss Function Evolution for Large-Scale Image Classifier Convolutional Neural Networks",
      "venue": "GECCO Companion",
      "year": 2024,
      "referenceCount": 34,
      "citationCount": 5,
      "authors": [
        {
          "authorId": "2291134993",
          "name": "Brandon Morgan"
        },
        {
          "authorId": "1694750",
          "name": "Dean Frederick Hougen"
        }
      ]
    },
    {
      "paperId": "c007adc283239f09fba262b2b1c083bd36d71854",
      "externalIds": {
        "DOI": "10.5121/ijaia.2024.15205",
        "CorpusId": 269044142
      },
      "url": "https://www.semanticscholar.org/paper/c007adc283239f09fba262b2b1c083bd36d71854",
      "title": "Immunizing Image Classifiers Against Localized Adversary Attack",
      "venue": "International Journal of Artificial Intelligence &amp; Applications",
      "year": 2024,
      "referenceCount": 34,
      "citationCount": 0,
      "authors": [
        {
          "authorId": "51219177",
          "name": "Henok Ghebrechristos"
        },
        {
          "authorId": "1800538",
          "name": "G. Alaghband"
        }
      ]
    },
    {
      "paperId": "39f3b1804b8df5be645a1dcb4a876e128385d9be",
      "externalIds": {
        "DBLP": "conf/eccv/PerronninSM10",
        "MAG": "1606858007",
        "DOI": "10.1007/978-3-642-15561-1_11",
        "CorpusId": 10402702
      },
      "url": "https://www.semanticscholar.org/paper/39f3b1804b8df5be645a1dcb4a876e128385d9be",
      "title": "Improving the Fisher Kernel for Large-Scale Image Classification",
      "venue": "European Conference on Computer Vision",
      "year": 2010,
      "referenceCount": 37,
      "citationCount": 2874,
      "authors": [
        {
          "authorId": "1723883",
          "name": "Florent Perronnin"
        },
        {
          "authorId": "143995438",
          "name": "Jorge Sánchez"
        },
        {
          "authorId": "1722052",
          "name": "Thomas Mensink"
        }
      ]
    },
    {
      "paperId": "8fedb6c4dc0988e92ebfd82a1785b18a4cb91346",
      "externalIds": {
        "DOI": "10.31649/mccs2024.5-15",
        "CorpusId": 275137932
      },
      "url": "https://www.semanticscholar.org/paper/8fedb6c4dc0988e92ebfd82a1785b18a4cb91346",
      "title": "DESIGNING AN IMAGE CLASSIFIER FOR FAST SEARCH IN LARGE-SCALE DATABASES",
      "venue": "Proceedings of XVII International Conference Measurement and Control in Complex System (MCCS-2024)",
      "year": 2024,
      "referenceCount": 0,
      "citationCount": 0,
      "authors": [
        {
          "authorId": "9515595",
          "name": "A. Povoroznyuk"
        },
        {
          "authorId": "2305072607",
          "name": "Valerii Filatov"
        },
        {
          "authorId": "2337817609",
          "name": "Аnna Filatova"
        }
      ]
    },
    {
      "paperId": "79874874145a3a242639ff0a02d9f2eabbd23d6f",
      "externalIds": {
        "DOI": "10.12720/jait.14.2.328-341",
        "CorpusId": 258372881
      },
      "url": "https://www.semanticscholar.org/paper/79874874145a3a242639ff0a02d9f2eabbd23d6f",
      "title": "Large-Scale Insect Pest Image Classification",
      "venue": "Journal of Advances in Information Technology",
      "year": 2023,
      "referenceCount": 56,
      "citationCount": 29,
      "authors": [
        {
          "authorId": "1859637",
          "name": "Thanh-Nghi Doan"
        }
      ]
    }
  ]
}