{
  "total": 106,
  "offset": 0,
  "next": 10,
  "data": [
    {
      "paperId": "0f8de305ad9ca2227774423cc464c14fb848105a",
      "externalIds": {
        "DBLP": "conf/icml/KaleKLP17",
        "ArXiv": "1706.04690",
        "MAG": "2625774898",
        "CorpusId": 31849014
      },
      "url": "https://www.semanticscholar.org/paper/0f8de305ad9ca2227774423cc464c14fb848105a",
      "title": "Adaptive Feature Selection: Computationally Efficient Online Sparse Linear Regression under RIP",
      "venue": "International Conference on Machine Learning",
      "year": 2017,
      "referenceCount": 22,
      "citationCount": 24,
      "authors": [
        {
          "authorId": "144055676",
          "name": "Satyen Kale"
        },
        {
          "authorId": "3386660",
          "name": "Zohar S. Karnin"
        },
        {
          "authorId": "9448283",
          "name": "Tengyuan Liang"
        },
        {
          "authorId": "2153912",
          "name": "Dávid Pál"
        }
      ]
    },
    {
      "paperId": "342ef79734b68140bfbbc69b0869760ab2fbea78",
      "externalIds": {
        "CorpusId": 260550130
      },
      "url": "https://www.semanticscholar.org/paper/342ef79734b68140bfbbc69b0869760ab2fbea78",
      "title": "Adaptive Feature Selection: Computationally Efficient Online Sparse Linear Regression under RIP A. Proofs for Realizable Setting",
      "venue": "",
      "year": 2017,
      "referenceCount": 0,
      "citationCount": 0,
      "authors": []
    },
    {
      "paperId": "910d1a91303d09642c78f04651fc4d793a4ae145",
      "externalIds": {
        "DBLP": "journals/amc/JiangNCZXP26",
        "DOI": "10.1016/j.amc.2025.129839",
        "CorpusId": 286655130
      },
      "url": "https://www.semanticscholar.org/paper/910d1a91303d09642c78f04651fc4d793a4ae145",
      "title": "Ensemble adaptive libraries and inner-product sparse regression for robust nonlinear dynamics discovery",
      "venue": "Applied Mathematics and Computation",
      "year": 2026,
      "referenceCount": 53,
      "citationCount": 0,
      "authors": [
        {
          "authorId": "2026401119",
          "name": "Yuemei Jiang"
        },
        {
          "authorId": "2284957113",
          "name": "Xinzheng Niu"
        },
        {
          "authorId": "2149053198",
          "name": "Hao Chen"
        },
        {
          "authorId": "2143436031",
          "name": "Jiahui Zhu"
        },
        {
          "authorId": "2303531371",
          "name": "Kai Xie"
        },
        {
          "authorId": "2397027269",
          "name": "Matjaž Perc"
        }
      ]
    },
    {
      "paperId": "c81761b6dcae612114e4e45760df9419f375db58",
      "externalIds": {
        "DBLP": "journals/jcgs/BoschiTCR25",
        "ArXiv": "2303.14801",
        "DOI": "10.1080/10618600.2024.2407464",
        "CorpusId": 257766939
      },
      "url": "https://www.semanticscholar.org/paper/c81761b6dcae612114e4e45760df9419f375db58",
      "title": "FAStEN: An Efficient Adaptive Method for Feature Selection and Estimation in High-Dimensional Functional Regressions",
      "venue": "Journal of Computational And Graphical Statistics",
      "year": 2023,
      "referenceCount": 92,
      "citationCount": 8,
      "authors": [
        {
          "authorId": "1739729378",
          "name": "Tobia Boschi"
        },
        {
          "authorId": "4822550",
          "name": "Lorenzo Testa"
        },
        {
          "authorId": "3098280",
          "name": "Francesca Chiaromonte"
        },
        {
          "authorId": "3477486",
          "name": "M. Reimherr"
        }
      ]
    },
    {
      "paperId": "72e1074ef9536f4e38ef3178e6d37fc8143627d8",
      "externalIds": {
        "DOI": "10.1109/ICCMA67641.2025.11369702",
        "CorpusId": 285316445
      },
      "url": "https://www.semanticscholar.org/paper/72e1074ef9536f4e38ef3178e6d37fc8143627d8",
      "title": "SOH Prediction for Lithium-Ion Batteries Based on Partial CC Profiles and Feature Selection Optimization",
      "venue": "International Conference on Control, Mechatronics and Automation",
      "year": 2025,
      "referenceCount": 18,
      "citationCount": 0,
      "authors": [
        {
          "authorId": "2273992104",
          "name": "Galina Demidova"
        },
        {
          "authorId": "2264182464",
          "name": "Nikolai Poliakov"
        },
        {
          "authorId": "2236561488",
          "name": "Arina Arbuzina"
        },
        {
          "authorId": "2264185286",
          "name": "Dmitry Lukichev"
        },
        {
          "authorId": "30708771",
          "name": "A. Mamatov"
        },
        {
          "authorId": "2301825794",
          "name": "Alecksey Anuchin"
        }
      ]
    },
    {
      "paperId": "534363ddcdddb15decdaf9f8e6c277545518f775",
      "externalIds": {
        "ArXiv": "2401.13034",
        "DBLP": "conf/iclr/LiuDLL24",
        "DOI": "10.48550/arXiv.2401.13034",
        "CorpusId": 267200133
      },
      "url": "https://www.semanticscholar.org/paper/534363ddcdddb15decdaf9f8e6c277545518f775",
      "title": "Locality Sensitive Sparse Encoding for Learning World Models Online",
      "venue": "International Conference on Learning Representations",
      "year": 2024,
      "referenceCount": 58,
      "citationCount": 18,
      "authors": [
        {
          "authorId": "2117943295",
          "name": "Zi-Yan Liu"
        },
        {
          "authorId": "144369497",
          "name": "Chao Du"
        },
        {
          "authorId": "2280902347",
          "name": "Wee Sun Lee"
        },
        {
          "authorId": "2253977831",
          "name": "Min Lin"
        }
      ]
    },
    {
      "paperId": "dc3745f09d29aeea2c1ae622caeef745dcff8a19",
      "externalIds": {
        "DBLP": "journals/jcgs/KenneyCF21",
        "MAG": "3102593406",
        "DOI": "10.1080/10618600.2020.1845184",
        "CorpusId": 203594094,
        "PubMed": "36406776"
      },
      "url": "https://www.semanticscholar.org/paper/dc3745f09d29aeea2c1ae622caeef745dcff8a19",
      "title": "MIP-BOOST: Efficient and Effective L 0 Feature Selection for Linear Regression",
      "venue": "Journal of Computational And Graphical Statistics",
      "year": 2018,
      "referenceCount": 31,
      "citationCount": 18,
      "authors": [
        {
          "authorId": "66829513",
          "name": "Ana M. Kenney"
        },
        {
          "authorId": "3098280",
          "name": "Francesca Chiaromonte"
        },
        {
          "authorId": "152837742",
          "name": "G. Felici"
        }
      ]
    },
    {
      "paperId": "7290b15ee731c1e58a4dc5d7b94694faf942347f",
      "externalIds": {
        "DBLP": "journals/eor/BarbatoC24",
        "DOI": "10.1016/j.ejor.2024.03.035",
        "CorpusId": 259371599
      },
      "url": "https://www.semanticscholar.org/paper/7290b15ee731c1e58a4dc5d7b94694faf942347f",
      "title": "Mathematical programming for simultaneous feature selection and outlier detection under l1 norm",
      "venue": "European Journal of Operational Research",
      "year": 2024,
      "referenceCount": 63,
      "citationCount": 3,
      "authors": [
        {
          "authorId": "36117794",
          "name": "M. Barbato"
        },
        {
          "authorId": "2779034",
          "name": "A. Ceselli"
        }
      ]
    },
    {
      "paperId": "44ed573a46f6b6a859871ca27f38e8ac5f262005",
      "externalIds": {
        "DOI": "10.1080/00949655.2025.2542977",
        "CorpusId": 280760718
      },
      "url": "https://www.semanticscholar.org/paper/44ed573a46f6b6a859871ca27f38e8ac5f262005",
      "title": "Composite quantile regression for high-dimensional linear mixed effects models",
      "venue": "Journal of Statistical Computation and Simulation",
      "year": 2025,
      "referenceCount": 38,
      "citationCount": 2,
      "authors": [
        {
          "authorId": "2356126147",
          "name": "Yiping Yang"
        },
        {
          "authorId": "2152914532",
          "name": "Jing Li"
        },
        {
          "authorId": "48320235",
          "name": "Xiaogang Duan"
        },
        {
          "authorId": "2258682806",
          "name": "Gaorong Li"
        }
      ]
    },
    {
      "paperId": "7b403479f97c306c0764a09b41410d99d76f8f85",
      "externalIds": {
        "MAG": "2299567191",
        "DOI": "10.1016/J.YMSSP.2016.02.056",
        "CorpusId": 61405977
      },
      "url": "https://www.semanticscholar.org/paper/7b403479f97c306c0764a09b41410d99d76f8f85",
      "title": "An adaptive online learning approach for Support Vector Regression: Online-SVR-FID",
      "venue": "",
      "year": 2016,
      "referenceCount": 33,
      "citationCount": 54,
      "authors": [
        {
          "authorId": "1618186344",
          "name": "Jie Liu"
        },
        {
          "authorId": "144027144",
          "name": "E. Zio"
        },
        {
          "authorId": "144027144",
          "name": "E. Zio"
        }
      ]
    }
  ]
}