{
  "total": 568,
  "offset": 0,
  "next": 10,
  "data": [
    {
      "paperId": "575a0e97702edcb0621a47b574949bac50e34200",
      "externalIds": {
        "MAG": "2952776917",
        "DBLP": "journals/corr/BojanowskiJ17",
        "ArXiv": "1704.05310",
        "CorpusId": 2168245
      },
      "url": "https://www.semanticscholar.org/paper/575a0e97702edcb0621a47b574949bac50e34200",
      "title": "Unsupervised Learning by Predicting Noise",
      "venue": "International Conference on Machine Learning",
      "year": 2017,
      "referenceCount": 57,
      "citationCount": 300,
      "authors": [
        {
          "authorId": "2329288",
          "name": "Piotr Bojanowski"
        },
        {
          "authorId": "2319608",
          "name": "Armand Joulin"
        }
      ]
    },
    {
      "paperId": "aca2dedc41f57fb442e42b5a5124fd7b0ab2b66d",
      "externalIds": {
        "DOI": "10.1109/BITCON63716.2024.10985602",
        "CorpusId": 278368578
      },
      "url": "https://www.semanticscholar.org/paper/aca2dedc41f57fb442e42b5a5124fd7b0ab2b66d",
      "title": "Predicting Cancellations of Hotel Reservations with Unsupervised Machine Learning Methods",
      "venue": "2024 International BIT Conference (BITCON)",
      "year": 2024,
      "referenceCount": 21,
      "citationCount": 2,
      "authors": [
        {
          "authorId": "2324223775",
          "name": "Abhishek Kumar"
        },
        {
          "authorId": "2359457816",
          "name": "Barkha Mahato"
        },
        {
          "authorId": "2347861551",
          "name": "A. Kujur"
        },
        {
          "authorId": "2344261398",
          "name": "Muskan Pandey"
        },
        {
          "authorId": "2035911013",
          "name": "B. Kumar"
        },
        {
          "authorId": "2350009887",
          "name": "Shoaib Alam"
        }
      ]
    },
    {
      "paperId": "a641e738af37064dc2e3930106be9dac325e2007",
      "externalIds": {
        "DBLP": "journals/information/BlachowiczWSB25",
        "DOI": "10.3390/info16020079",
        "CorpusId": 275825283
      },
      "url": "https://www.semanticscholar.org/paper/a641e738af37064dc2e3930106be9dac325e2007",
      "title": "Real-Time Analysis of Industrial Data Using the Unsupervised Hierarchical Density-Based Spatial Clustering of Applications with Noise Method in Monitoring the Welding Process in a Robotic Cell",
      "venue": "Inf.",
      "year": 2025,
      "referenceCount": 72,
      "citationCount": 5,
      "authors": [
        {
          "authorId": "49746834",
          "name": "T. Błachowicz"
        },
        {
          "authorId": "2341755468",
          "name": "Jacek Wylezek"
        },
        {
          "authorId": "2341752079",
          "name": "Zbigniew Sokol"
        },
        {
          "authorId": "2341754942",
          "name": "Marcin Bondel"
        }
      ]
    },
    {
      "paperId": "699e4d5111e957ed6a77c2e8ca7a400ff426ee68",
      "externalIds": {
        "DOI": "10.1088/1755-1315/1370/1/012005",
        "CorpusId": 271167951
      },
      "url": "https://www.semanticscholar.org/paper/699e4d5111e957ed6a77c2e8ca7a400ff426ee68",
      "title": "Anomaly-based fault detection in wind turbines using unsupervised learning: a comparative study.",
      "venue": "IOP Conference Series: Earth and Environment",
      "year": 2024,
      "referenceCount": 27,
      "citationCount": 8,
      "authors": [
        {
          "authorId": "2311157008",
          "name": "Génesis Vásquez-Rodríguez"
        },
        {
          "authorId": "1423415651",
          "name": "J. Maldonado-Correa"
        }
      ]
    },
    {
      "paperId": "75b29e215413b6387c2556888d7efdb2e72d0e45",
      "externalIds": {
        "DBLP": "journals/tog/CaoRB23",
        "ArXiv": "2304.14419",
        "DOI": "10.1145/3592107",
        "CorpusId": 258417828
      },
      "url": "https://www.semanticscholar.org/paper/75b29e215413b6387c2556888d7efdb2e72d0e45",
      "title": "Unsupervised Learning of Robust Spectral Shape Matching",
      "venue": "ACM Transactions on Graphics",
      "year": 2023,
      "referenceCount": 83,
      "citationCount": 81,
      "authors": [
        {
          "authorId": "71762027",
          "name": "Dongliang Cao"
        },
        {
          "authorId": "2153716903",
          "name": "Paul Roetzer"
        },
        {
          "authorId": "39600032",
          "name": "Florian Bernard"
        }
      ]
    },
    {
      "paperId": "3fbd972977a11a1c5ff7f4edf45ef596fb9a1ed1",
      "externalIds": {
        "MAG": "2938369073",
        "CorpusId": 14036415
      },
      "url": "https://www.semanticscholar.org/paper/3fbd972977a11a1c5ff7f4edf45ef596fb9a1ed1",
      "title": "Unsupervised Representation Learning of Dynamic Retinal Image Changes by Predicting the Follow-up Image",
      "venue": "",
      "year": 2018,
      "referenceCount": 4,
      "citationCount": 0,
      "authors": [
        {
          "authorId": "1417825495",
          "name": "Antoine Rivail"
        },
        {
          "authorId": "47676335",
          "name": "Hrvoje Bogunović"
        },
        {
          "authorId": "2710165",
          "name": "Bianca S. Gerendas"
        },
        {
          "authorId": "144191362",
          "name": "S. Waldstein"
        },
        {
          "authorId": "1678414",
          "name": "Wolf-Dieter Vogl"
        },
        {
          "authorId": "1400859266",
          "name": "U. Schmidt-Erfurth"
        }
      ]
    },
    {
      "paperId": "1b4c9ffe9a3c486ec0a73de09caf3fbf6a2b3924",
      "externalIds": {
        "DOI": "10.1109/JOE.2024.3415753",
        "CorpusId": 272120791
      },
      "url": "https://www.semanticscholar.org/paper/1b4c9ffe9a3c486ec0a73de09caf3fbf6a2b3924",
      "title": "Predicting Underwater Noise Spectra Dominated by Wind Turbine Contributions",
      "venue": "IEEE Journal of Oceanic Engineering",
      "year": 2024,
      "referenceCount": 24,
      "citationCount": 4,
      "authors": [
        {
          "authorId": "2164525007",
          "name": "Andrea Trucco"
        }
      ]
    },
    {
      "paperId": "97241210baf68d2db46a23bd341ff80ee90e999a",
      "externalIds": {
        "PubMedCentral": "12249394",
        "DOI": "10.3390/diagnostics15131628",
        "CorpusId": 279656584,
        "PubMed": "40647627"
      },
      "url": "https://www.semanticscholar.org/paper/97241210baf68d2db46a23bd341ff80ee90e999a",
      "title": "A Hybrid Ensemble Learning Framework for Predicting Lumbar Disc Herniation Recurrence: Integrating Supervised Models, Anomaly Detection, and Threshold Optimization",
      "venue": "Diagnostics",
      "year": 2025,
      "referenceCount": 36,
      "citationCount": 3,
      "authors": [
        {
          "authorId": "2295637818",
          "name": "Mădălina Duceac (Covrig)"
        },
        {
          "authorId": "82294206",
          "name": "C. Buzea"
        },
        {
          "authorId": "2349863121",
          "name": "Alina Pleșea-Condratovici"
        },
        {
          "authorId": "145861667",
          "name": "Lucian Eva"
        },
        {
          "authorId": "15315780",
          "name": "L. Duceac"
        },
        {
          "authorId": "2265013639",
          "name": "M. Dabija"
        },
        {
          "authorId": "2237755458",
          "name": "B. Costachescu"
        },
        {
          "authorId": "2298204448",
          "name": "E. Elkan"
        },
        {
          "authorId": "2007598706",
          "name": "Cristian Guțu"
        },
        {
          "authorId": "16224484",
          "name": "D. Voinescu"
        }
      ]
    },
    {
      "paperId": "b1971b0463df4a38146d06bcea257f069c3f1667",
      "externalIds": {
        "DBLP": "journals/corr/abs-2504-08740",
        "ArXiv": "2504.08740",
        "DOI": "10.54254/2755-2721/2025.21949",
        "CorpusId": 277721450
      },
      "url": "https://www.semanticscholar.org/paper/b1971b0463df4a38146d06bcea257f069c3f1667",
      "title": "Recommendation System in Advertising and Streaming Media: Unsupervised Data Enhancement Sequence Suggestions",
      "venue": "Applied and Computational Engineering",
      "year": 2025,
      "referenceCount": 11,
      "citationCount": 9,
      "authors": [
        {
          "authorId": "2338830745",
          "name": "Kowei Shih"
        },
        {
          "authorId": "1475721571",
          "name": "Yi Han"
        },
        {
          "authorId": "2352991937",
          "name": "Li Tan"
        }
      ]
    },
    {
      "paperId": "2edebc0834727285a7574a63eee4c358225b8d36",
      "externalIds": {
        "PubMedCentral": "10131820",
        "DOI": "10.2196/42832",
        "CorpusId": 256683930,
        "PubMed": "37014694"
      },
      "url": "https://www.semanticscholar.org/paper/2edebc0834727285a7574a63eee4c358225b8d36",
      "title": "Predicting Measles Outbreaks in the United States: Evaluation of Machine Learning Approaches",
      "venue": "JMIR Formative Research",
      "year": 2022,
      "referenceCount": 61,
      "citationCount": 2,
      "authors": [
        {
          "authorId": "38301507",
          "name": "B. Ru"
        },
        {
          "authorId": "3982368",
          "name": "S. Kujawski"
        },
        {
          "authorId": "2205116936",
          "name": "Nelson Lee Afanador"
        },
        {
          "authorId": "2059495807",
          "name": "Richard Baumgartner"
        },
        {
          "authorId": "6786762",
          "name": "M. Pawaskar"
        },
        {
          "authorId": "47295364",
          "name": "Amar K. Das"
        }
      ]
    }
  ]
}