{
  "total": 143,
  "offset": 0,
  "next": 10,
  "data": [
    {
      "paperId": "615b99ac37395124e60ffb4e6b138ed79ded9510",
      "externalIds": {
        "MAG": "2953375868",
        "DBLP": "conf/icml/XueEBGS16",
        "ArXiv": "1508.04032",
        "CorpusId": 5621699
      },
      "url": "https://www.semanticscholar.org/paper/615b99ac37395124e60ffb4e6b138ed79ded9510",
      "title": "Variable Elimination in the Fourier Domain",
      "venue": "International Conference on Machine Learning",
      "year": 2015,
      "referenceCount": 32,
      "citationCount": 11,
      "authors": [
        {
          "authorId": "2937530",
          "name": "Yexiang Xue"
        },
        {
          "authorId": "2490652",
          "name": "Stefano Ermon"
        },
        {
          "authorId": "39227408",
          "name": "Ronan Le Bras"
        },
        {
          "authorId": "144659218",
          "name": "C. Gomes"
        },
        {
          "authorId": "1744679",
          "name": "B. Selman"
        }
      ]
    },
    {
      "paperId": "4526ea1bf2e70b19cc798248d44c21deb92205b1",
      "externalIds": {
        "MAG": "2409102170",
        "DOI": "10.11113/JT.V78.8721",
        "CorpusId": 55751862
      },
      "url": "https://www.semanticscholar.org/paper/4526ea1bf2e70b19cc798248d44c21deb92205b1",
      "title": "HYBRID ACTIVE POWER FILTER METHOD IN FREQUENCY DOMAIN FOR QUALITY IMPROVEMENT IN VARIABLE FREQUENCY DRIVE APPLICATIONS",
      "venue": "",
      "year": 2016,
      "referenceCount": 16,
      "citationCount": 1,
      "authors": [
        {
          "authorId": "50650310",
          "name": "M. Le"
        },
        {
          "authorId": "2055540899",
          "name": "Kim-Anh Nguyen"
        },
        {
          "authorId": "2143605438",
          "name": "V. Ngo"
        }
      ]
    },
    {
      "paperId": "a44b7c6e50c1f8deabb27b35be9dfce741ee8413",
      "externalIds": {
        "DBLP": "journals/corr/abs-2308-13152",
        "ArXiv": "2308.13152",
        "DOI": "10.48550/arXiv.2308.13152",
        "CorpusId": 261214671
      },
      "url": "https://www.semanticscholar.org/paper/a44b7c6e50c1f8deabb27b35be9dfce741ee8413",
      "title": "The time dimensional reduction method to determine the initial conditions without the knowledge of damping coefficients",
      "venue": "Computers and Mathematics with Applications",
      "year": 2023,
      "referenceCount": 82,
      "citationCount": 7,
      "authors": [
        {
          "authorId": "47267084",
          "name": "T. Le"
        },
        {
          "authorId": "145478280",
          "name": "Linh V. Nguyen"
        },
        {
          "authorId": "2150604002",
          "name": "L. Nguyen"
        },
        {
          "authorId": "2160048776",
          "name": "Hyun Woo Park"
        }
      ]
    },
    {
      "paperId": "1abf06cde0efd4b5fb9731edde8a8d33d103971a",
      "externalIds": {
        "MAG": "2930665236",
        "DBLP": "journals/tgrs/HuangXGLLJ19",
        "DOI": "10.1109/TGRS.2019.2899728",
        "CorpusId": 133085748
      },
      "url": "https://www.semanticscholar.org/paper/1abf06cde0efd4b5fb9731edde8a8d33d103971a",
      "title": "Ground Moving Target Refocusing in SAR Imagery Based on RFRT-FrFT",
      "venue": "IEEE Transactions on Geoscience and Remote Sensing",
      "year": 2019,
      "referenceCount": 45,
      "citationCount": 52,
      "authors": [
        {
          "authorId": "2606799",
          "name": "Penghui Huang"
        },
        {
          "authorId": "144229533",
          "name": "X. Xia"
        },
        {
          "authorId": "1909555",
          "name": "Yesheng Gao"
        },
        {
          "authorId": "1690695",
          "name": "Xingzhao Liu"
        },
        {
          "authorId": "145976124",
          "name": "G. Liao"
        },
        {
          "authorId": "145065985",
          "name": "Xue Jiang"
        }
      ]
    },
    {
      "paperId": "3fa53e11d02e31f43de579c072928764b79a3e03",
      "externalIds": {
        "MAG": "2009480579",
        "DOI": "10.1016/S0003-2670(98)00120-2",
        "CorpusId": 95963915
      },
      "url": "https://www.semanticscholar.org/paper/3fa53e11d02e31f43de579c072928764b79a3e03",
      "title": "Application of Fourier transform to multivariate calibration of near-infrared data",
      "venue": "",
      "year": 1998,
      "referenceCount": 24,
      "citationCount": 21,
      "authors": [
        {
          "authorId": "3587120",
          "name": "L. Pasti"
        },
        {
          "authorId": "1429010147",
          "name": "D. Jouan-Rimbaud"
        },
        {
          "authorId": "2240563661",
          "name": "Desire L. Massart"
        },
        {
          "authorId": "46781459",
          "name": "O. E. Noord"
        }
      ]
    },
    {
      "paperId": "c141037222c7ee7886a17b5949b57934f0a5caee",
      "externalIds": {
        "DBLP": "journals/corr/abs-2312-01179",
        "DOI": "10.48550/arXiv.2312.01179",
        "CorpusId": 270867975
      },
      "url": "https://www.semanticscholar.org/paper/c141037222c7ee7886a17b5949b57934f0a5caee",
      "title": "The time dimensional reduction method to determine the initial conditions for nonlinear and nonlocal hyperbolic equations",
      "venue": "arXiv.org",
      "year": 2023,
      "referenceCount": 56,
      "citationCount": 0,
      "authors": [
        {
          "authorId": "102359518",
          "name": "Trong D. Dang"
        },
        {
          "authorId": "2309153152",
          "name": "†. LocH.Nguyen"
        },
        {
          "authorId": "2269471538",
          "name": "H. T. Vu"
        }
      ]
    },
    {
      "paperId": "cd26e3619132cb1c2fec64ebd454b695b648c1ba",
      "externalIds": {
        "DBLP": "journals/tcad/FangTW85",
        "MAG": "2014126444",
        "DOI": "10.1109/TCAD.1985.1270165",
        "CorpusId": 17813727
      },
      "url": "https://www.semanticscholar.org/paper/cd26e3619132cb1c2fec64ebd454b695b648c1ba",
      "title": "Time- and Frequency-Domain Analysis of Linear Switched-Capacitor Networks Using State Charge Variables",
      "venue": "IEEE Transactions on Computer-Aided Design of Integrated Circuits and Systems",
      "year": 1985,
      "referenceCount": 10,
      "citationCount": 16,
      "authors": [
        {
          "authorId": "3353544",
          "name": "S. Fang"
        },
        {
          "authorId": "50401714",
          "name": "Y. Tsividis"
        },
        {
          "authorId": "2670564",
          "name": "O. Wing"
        }
      ]
    },
    {
      "paperId": "e8953fc290ce6ba9070cc3636f7f28799b29182d",
      "externalIds": {
        "MAG": "2037838758",
        "DOI": "10.1016/0010-468X(70)90007-3",
        "CorpusId": 121854133
      },
      "url": "https://www.semanticscholar.org/paper/e8953fc290ce6ba9070cc3636f7f28799b29182d",
      "title": "Spectrum analysis of the electroencephalogram",
      "venue": "",
      "year": 1970,
      "referenceCount": 10,
      "citationCount": 16,
      "authors": [
        {
          "authorId": "2058466037",
          "name": "B. Kleiner"
        },
        {
          "authorId": "2058466037",
          "name": "B. Kleiner"
        },
        {
          "authorId": "2829581",
          "name": "H. Flühler"
        },
        {
          "authorId": "2829581",
          "name": "H. Flühler"
        },
        {
          "authorId": "2053483350",
          "name": "P. Huber"
        },
        {
          "authorId": "2053483350",
          "name": "P. Huber"
        },
        {
          "authorId": "4004842",
          "name": "G. Dumermuth"
        },
        {
          "authorId": "4004842",
          "name": "G. Dumermuth"
        }
      ]
    },
    {
      "paperId": "f2ff93f4c073cb42738b50528d6d63927e2e922e",
      "externalIds": {
        "MAG": "2048823513",
        "DOI": "10.1121/1.2143640",
        "CorpusId": 121520754
      },
      "url": "https://www.semanticscholar.org/paper/f2ff93f4c073cb42738b50528d6d63927e2e922e",
      "title": "Extraction of the Spectrum Envelope for Voiced Speech Segments",
      "venue": "",
      "year": 1967,
      "referenceCount": 0,
      "citationCount": 4,
      "authors": [
        {
          "authorId": "143791674",
          "name": "P. Mermelstein"
        }
      ]
    },
    {
      "paperId": "9670346f67d0342cfadc72eca69f60073eb86f43",
      "externalIds": {
        "MAG": "1967431807",
        "DOI": "10.1016/0168-9002(87)91051-5",
        "CorpusId": 119583829
      },
      "url": "https://www.semanticscholar.org/paper/9670346f67d0342cfadc72eca69f60073eb86f43",
      "title": "Deconvolution of Lorentzian broadened spectra part I: Direct deconvolution",
      "venue": "",
      "year": 1987,
      "referenceCount": 10,
      "citationCount": 7,
      "authors": [
        {
          "authorId": "102548402",
          "name": "S. Nikolov"
        },
        {
          "authorId": "87744275",
          "name": "K. Kantchev"
        }
      ]
    }
  ]
}