{
  "total": 21416,
  "offset": 0,
  "next": 10,
  "data": [
    {
      "paperId": "754dbc09783980f383e16b8728fb9c21a39bfff0",
      "externalIds": {
        "DBLP": "journals/corr/WangALB16",
        "MAG": "1883346539",
        "ArXiv": "1602.01024",
        "CorpusId": 14269196
      },
      "url": "https://www.semanticscholar.org/paper/754dbc09783980f383e16b8728fb9c21a39bfff0",
      "title": "On Deep Multi-View Representation Learning",
      "venue": "International Conference on Machine Learning",
      "year": 2015,
      "referenceCount": 91,
      "citationCount": 1024,
      "authors": [
        {
          "authorId": "1702290",
          "name": "Weiran Wang"
        },
        {
          "authorId": "144365054",
          "name": "R. Arora"
        },
        {
          "authorId": "2924113",
          "name": "Karen Livescu"
        },
        {
          "authorId": "1748118",
          "name": "J. Bilmes"
        }
      ]
    },
    {
      "paperId": "60296bbabd52881cb6dbb52de2d6843d29541d01",
      "externalIds": {
        "DBLP": "journals/tcsv/ZhaoWLWC25",
        "DOI": "10.1109/TCSVT.2024.3509892",
        "CorpusId": 274453329
      },
      "url": "https://www.semanticscholar.org/paper/60296bbabd52881cb6dbb52de2d6843d29541d01",
      "title": "Learnable Graph Guided Deep Multi-View Representation Learning via Information Bottleneck",
      "venue": "IEEE transactions on circuits and systems for video technology (Print)",
      "year": 2025,
      "referenceCount": 66,
      "citationCount": 22,
      "authors": [
        {
          "authorId": "2151579906",
          "name": "Liang Zhao"
        },
        {
          "authorId": "2292732908",
          "name": "Xiao Wang"
        },
        {
          "authorId": "2146260360",
          "name": "Zhenjiao Liu"
        },
        {
          "authorId": "2323725233",
          "name": "Ziyue Wang"
        },
        {
          "authorId": "2150915267",
          "name": "Zhikui Chen"
        }
      ]
    },
    {
      "paperId": "2f7ed330c43c708514cb3a646c9ddc3eaa1816bd",
      "externalIds": {
        "DBLP": "journals/cssp/DeepakSRC21",
        "MAG": "3081114748",
        "DOI": "10.1007/s00034-020-01522-7",
        "CorpusId": 225337268
      },
      "url": "https://www.semanticscholar.org/paper/2f7ed330c43c708514cb3a646c9ddc3eaa1816bd",
      "title": "Deep Multi-view Representation Learning for Video Anomaly Detection Using Spatiotemporal Autoencoders",
      "venue": "Circuits, systems, and signal processing",
      "year": 2020,
      "referenceCount": 54,
      "citationCount": 36,
      "authors": [
        {
          "authorId": "153145089",
          "name": "K. Deepak"
        },
        {
          "authorId": "2005940893",
          "name": "G. Srivathsan"
        },
        {
          "authorId": "1490423869",
          "name": "S. Roshan"
        },
        {
          "authorId": "1727475",
          "name": "S. Chandrakala"
        }
      ]
    },
    {
      "paperId": "f54fce599cc3adbbfc756e2cc6cb17b57630ddde",
      "externalIds": {
        "DBLP": "journals/ci/ZhengXCY23",
        "DOI": "10.1111/coin.12504",
        "CorpusId": 246391010
      },
      "url": "https://www.semanticscholar.org/paper/f54fce599cc3adbbfc756e2cc6cb17b57630ddde",
      "title": "Security alert: Generalized deep multi‐view representation learning for crime forecasting",
      "venue": "International Conference on Climate Informatics",
      "year": 2022,
      "referenceCount": 13,
      "citationCount": 6,
      "authors": [
        {
          "authorId": "120964454",
          "name": "Ziwan Zheng"
        },
        {
          "authorId": "2111276135",
          "name": "Yu Xia"
        },
        {
          "authorId": "48283085",
          "name": "Xiaocong Chen"
        },
        {
          "authorId": "2217592892",
          "name": "Junwei Yao"
        }
      ]
    },
    {
      "paperId": "1ba9d12f24ac04f0309e8ff9b0162c6e18d97dc3",
      "externalIds": {
        "MAG": "2526639894",
        "DBLP": "conf/mm/LiZZLLSFS16",
        "DOI": "10.1145/2964284.2984061",
        "CorpusId": 2414400
      },
      "url": "https://www.semanticscholar.org/paper/1ba9d12f24ac04f0309e8ff9b0162c6e18d97dc3",
      "title": "Robust Face Recognition with Deep Multi-View Representation Learning",
      "venue": "ACM Multimedia",
      "year": 2016,
      "referenceCount": 10,
      "citationCount": 40,
      "authors": [
        {
          "authorId": "2109020391",
          "name": "Jianshu Li"
        },
        {
          "authorId": "71425092",
          "name": "Jian Zhao"
        },
        {
          "authorId": "145246817",
          "name": "F. Zhao"
        },
        {
          "authorId": "48446712",
          "name": "Hao Liu"
        },
        {
          "authorId": "2152911867",
          "name": "Jing Li"
        },
        {
          "authorId": "3493398",
          "name": "Shengmei Shen"
        },
        {
          "authorId": "33221685",
          "name": "Jiashi Feng"
        },
        {
          "authorId": "1715286",
          "name": "T. Sim"
        }
      ]
    },
    {
      "paperId": "b406f291ed520ab09e91e06d37b9beae1e10186d",
      "externalIds": {
        "MAG": "2889321257",
        "DBLP": "journals/asc/HuangZZLH18",
        "DOI": "10.1016/J.ASOC.2018.08.010",
        "CorpusId": 53773511
      },
      "url": "https://www.semanticscholar.org/paper/b406f291ed520ab09e91e06d37b9beae1e10186d",
      "title": "Deep multi-view representation learning for social images",
      "venue": "Applied Soft Computing",
      "year": 2018,
      "referenceCount": 57,
      "citationCount": 16,
      "authors": [
        {
          "authorId": "1939569",
          "name": "Feiran Huang"
        },
        {
          "authorId": "2115306399",
          "name": "Xiaoming Zhang"
        },
        {
          "authorId": "8419850",
          "name": "Zhonghua Zhao"
        },
        {
          "authorId": "1707275",
          "name": "Zhoujun Li"
        },
        {
          "authorId": "2577617",
          "name": "Yueying He"
        }
      ]
    },
    {
      "paperId": "70c57111e7d09a192d64ccd88d95a1974e6e0c9a",
      "externalIds": {
        "DBLP": "conf/icpr/SellamiT20",
        "DOI": "10.1109/ICPR48806.2021.9413239",
        "CorpusId": 233876992
      },
      "url": "https://www.semanticscholar.org/paper/70c57111e7d09a192d64ccd88d95a1974e6e0c9a",
      "title": "Video semantic segmentation using deep multi-view representation learning",
      "venue": "International Conference on Pattern Recognition",
      "year": 2021,
      "referenceCount": 39,
      "citationCount": 3,
      "authors": [
        {
          "authorId": "31894749",
          "name": "A. Sellami"
        },
        {
          "authorId": "1719344",
          "name": "S. Tabbone"
        }
      ]
    },
    {
      "paperId": "087f2130f311ff460eb50cf2d16cd2e6a5652d24",
      "externalIds": {
        "MAG": "2404687653",
        "DBLP": "conf/icassp/QiT16",
        "DOI": "10.1109/ICASSP.2016.7471816",
        "CorpusId": 6171136
      },
      "url": "https://www.semanticscholar.org/paper/087f2130f311ff460eb50cf2d16cd2e6a5652d24",
      "title": "Deep multi-view representation learning for multi-modal features of the schizophrenia and schizo-affective disorder",
      "venue": "IEEE International Conference on Acoustics, Speech, and Signal Processing",
      "year": 2016,
      "referenceCount": 17,
      "citationCount": 19,
      "authors": [
        {
          "authorId": "145913380",
          "name": "Jun Qi"
        },
        {
          "authorId": "144564646",
          "name": "Javier Tejedor"
        }
      ]
    },
    {
      "paperId": "03333a0ded14d9144c1cf0654d4830d71cd7ef29",
      "externalIds": {
        "DBLP": "conf/mlicom/XuXL019",
        "MAG": "2981713760",
        "DOI": "10.1007/978-3-030-32388-2_61",
        "CorpusId": 208095642
      },
      "url": "https://www.semanticscholar.org/paper/03333a0ded14d9144c1cf0654d4830d71cd7ef29",
      "title": "Multi-spectral Palmprint Recognition with Deep Multi-view Representation Learning",
      "venue": "International Conference on Machine Learning and Intelligent Communications",
      "year": 2019,
      "referenceCount": 28,
      "citationCount": 2,
      "authors": [
        {
          "authorId": null,
          "name": "Xiangyu Xu"
        },
        {
          "authorId": "30522732",
          "name": "Nuoya Xu"
        },
        {
          "authorId": "46381611",
          "name": "Huijie Li"
        },
        {
          "authorId": "145165476",
          "name": "Qi Zhu"
        }
      ]
    },
    {
      "paperId": "077b89299c200e79d66c80d55d131238e521f5cd",
      "externalIds": {
        "ArXiv": "2506.12459",
        "DBLP": "journals/corr/abs-2506-12459",
        "DOI": "10.1145/3711896.3737046",
        "CorpusId": 279402587
      },
      "url": "https://www.semanticscholar.org/paper/077b89299c200e79d66c80d55d131238e521f5cd",
      "title": "Merlin: Multi-View Representation Learning for Robust Multivariate Time Series Forecasting with Unfixed Missing Rates",
      "venue": "Knowledge Discovery and Data Mining",
      "year": 2025,
      "referenceCount": 68,
      "citationCount": 14,
      "authors": [
        {
          "authorId": "2257373592",
          "name": "Chengqing Yu"
        },
        {
          "authorId": "2363487920",
          "name": "Fei Wang"
        },
        {
          "authorId": "102756770",
          "name": "Chuanguang Yang"
        },
        {
          "authorId": "2088909840",
          "name": "Zezhi Shao"
        },
        {
          "authorId": "2088917869",
          "name": "Tao Sun"
        },
        {
          "authorId": "1856855595",
          "name": "Tangwen Qian"
        },
        {
          "authorId": "2257053527",
          "name": "Wei Wei"
        },
        {
          "authorId": "2127813",
          "name": "Zhulin An"
        },
        {
          "authorId": "2318924925",
          "name": "Yongjun Xu"
        }
      ]
    }
  ]
}