{
  "total": 34,
  "offset": 0,
  "next": 10,
  "data": [
    {
      "paperId": "7db73b56ca014d44b925ed6ad6d1fe18a774ecd1",
      "externalIds": {
        "MAG": "2290854557",
        "DBLP": "conf/icml/CohenS16",
        "ArXiv": "1603.00162",
        "CorpusId": 7369238
      },
      "url": "https://www.semanticscholar.org/paper/7db73b56ca014d44b925ed6ad6d1fe18a774ecd1",
      "title": "Convolutional Rectifier Networks as Generalized Tensor Decompositions",
      "venue": "International Conference on Machine Learning",
      "year": 2016,
      "referenceCount": 33,
      "citationCount": 158,
      "authors": [
        {
          "authorId": "32289606",
          "name": "Nadav Cohen"
        },
        {
          "authorId": "3140335",
          "name": "A. Shashua"
        }
      ]
    },
    {
      "paperId": "6359c49dd9e9553ec2e4f117e7735bd16fe18dba",
      "externalIds": {
        "CorpusId": 276648240
      },
      "url": "https://www.semanticscholar.org/paper/6359c49dd9e9553ec2e4f117e7735bd16fe18dba",
      "title": "Convolutional Rectifier Networks as Generalized Tensor Decompositions",
      "venue": "",
      "year": 2016,
      "referenceCount": 0,
      "citationCount": 1,
      "authors": []
    },
    {
      "paperId": "e47c71329fdf3afe740ec50ed44c171d181ed6b0",
      "externalIds": {
        "DBLP": "conf/ijcai/HuangLYN20",
        "MAG": "3035254312",
        "DOI": "10.24963/ijcai.2020/175",
        "CorpusId": 220484103
      },
      "url": "https://www.semanticscholar.org/paper/e47c71329fdf3afe740ec50ed44c171d181ed6b0",
      "title": "MR-GCN: Multi-Relational Graph Convolutional Networks based on Generalized Tensor Product",
      "venue": "International Joint Conference on Artificial Intelligence",
      "year": 2020,
      "referenceCount": 31,
      "citationCount": 46,
      "authors": [
        {
          "authorId": "2156501254",
          "name": "Zhichao Huang"
        },
        {
          "authorId": "2380744115",
          "name": "Xutao Li"
        },
        {
          "authorId": "144782498",
          "name": "Yunming Ye"
        },
        {
          "authorId": "2391161804",
          "name": "M. Ng"
        }
      ]
    },
    {
      "paperId": "24a196d9ee7fda6754365bee42a89aa1d9add80b",
      "externalIds": {
        "DBLP": "journals/comintsys/XiongSZLWZ24",
        "DOI": "10.1007/s40747-024-01578-x",
        "CorpusId": 271850450
      },
      "url": "https://www.semanticscholar.org/paper/24a196d9ee7fda6754365bee42a89aa1d9add80b",
      "title": "Generalized spatial–temporal regression graph convolutional transformer for traffic forecasting",
      "venue": "Complex & Intelligent Systems",
      "year": 2024,
      "referenceCount": 44,
      "citationCount": 10,
      "authors": [
        {
          "authorId": "2292852914",
          "name": "Lang Xiong"
        },
        {
          "authorId": "2282950869",
          "name": "Liyun Su"
        },
        {
          "authorId": "2282678191",
          "name": "Shiyi Zeng"
        },
        {
          "authorId": "2282900756",
          "name": "Xiangjing Li"
        },
        {
          "authorId": "2315856167",
          "name": "Tong Wang"
        },
        {
          "authorId": "2283265867",
          "name": "Feng Zhao"
        }
      ]
    },
    {
      "paperId": "f5922c054964d46ecb7e15f2f1bdde0a65a9264e",
      "externalIds": {
        "DBLP": "journals/remotesensing/GiannopoulosTT24",
        "DOI": "10.3390/rs16112020",
        "CorpusId": 270274143
      },
      "url": "https://www.semanticscholar.org/paper/f5922c054964d46ecb7e15f2f1bdde0a65a9264e",
      "title": "Higher-Order Convolutional Neural Networks for Essential Climate Variables Forecasting",
      "venue": "Remote Sensing",
      "year": 2024,
      "referenceCount": 31,
      "citationCount": 4,
      "authors": [
        {
          "authorId": "51417503",
          "name": "Michalis Giannopoulos"
        },
        {
          "authorId": "47952527",
          "name": "G. Tsagkatakis"
        },
        {
          "authorId": "1694755",
          "name": "P. Tsakalides"
        }
      ]
    },
    {
      "paperId": "c3a926b4b0f5544fb28f45d1813ca939ae49a5bb",
      "externalIds": {
        "ArXiv": "2511.23037",
        "DBLP": "journals/corr/abs-2511-23037",
        "DOI": "10.48550/arXiv.2511.23037",
        "CorpusId": 283439133
      },
      "url": "https://www.semanticscholar.org/paper/c3a926b4b0f5544fb28f45d1813ca939ae49a5bb",
      "title": "Time Extrapolation with Graph Convolutional Autoencoder and Tensor Train Decomposition",
      "venue": "arXiv.org",
      "year": 2025,
      "referenceCount": 89,
      "citationCount": 1,
      "authors": [
        {
          "authorId": "2288144565",
          "name": "Yuanhong Chen"
        },
        {
          "authorId": "102988093",
          "name": "F. Pichi"
        },
        {
          "authorId": "2193378218",
          "name": "Zhen Gao"
        },
        {
          "authorId": "2104716",
          "name": "G. Rozza"
        }
      ]
    },
    {
      "paperId": "0a49d7be35018c4ba66c12d0058a73a67e9e403b",
      "externalIds": {
        "ArXiv": "2205.15307",
        "DBLP": "conf/icml/0005SLW0X22",
        "DOI": "10.48550/arXiv.2205.15307",
        "CorpusId": 249209569
      },
      "url": "https://www.semanticscholar.org/paper/0a49d7be35018c4ba66c12d0058a73a67e9e403b",
      "title": "A Unified Weight Initialization Paradigm for Tensorial Convolutional Neural Networks",
      "venue": "International Conference on Machine Learning",
      "year": 2022,
      "referenceCount": 32,
      "citationCount": 15,
      "authors": [
        {
          "authorId": "143749869",
          "name": "Y. Pan"
        },
        {
          "authorId": "2027184600",
          "name": "Zeyong Su"
        },
        {
          "authorId": "1491241424",
          "name": "Ao Liu"
        },
        {
          "authorId": "2157406958",
          "name": "Jingquan Wang"
        },
        {
          "authorId": "2149457233",
          "name": "Nannan Li"
        },
        {
          "authorId": "1683510",
          "name": "Zenglin Xu"
        }
      ]
    },
    {
      "paperId": "928486dfe72aeea853b3c3984e538f7c72a40707",
      "externalIds": {
        "MAG": "3044528693",
        "ArXiv": "2003.00895",
        "DBLP": "journals/corr/abs-2003-00895",
        "CorpusId": 211678407
      },
      "url": "https://www.semanticscholar.org/paper/928486dfe72aeea853b3c3984e538f7c72a40707",
      "title": "Revisiting Convolutional Neural Networks for Urban Flow Analytics",
      "venue": "arXiv.org",
      "year": 2020,
      "referenceCount": 28,
      "citationCount": 3,
      "authors": [
        {
          "authorId": "3431194",
          "name": "Yuxuan Liang"
        },
        {
          "authorId": null,
          "name": "Kun Ouyang"
        },
        {
          "authorId": "50562026",
          "name": "Junbo Zhang"
        },
        {
          "authorId": "144384718",
          "name": "Yu Zheng"
        },
        {
          "authorId": "1889646",
          "name": "David S. Rosenblum"
        }
      ]
    },
    {
      "paperId": "b7ae93cbec5c7cb2c96adf8c4524a09e4dde7f2f",
      "externalIds": {
        "DBLP": "conf/aaai/HameedTMN22",
        "ArXiv": "2109.14710",
        "DOI": "10.1609/aaai.v36i1.19958",
        "CorpusId": 238226792
      },
      "url": "https://www.semanticscholar.org/paper/b7ae93cbec5c7cb2c96adf8c4524a09e4dde7f2f",
      "title": "Convolutional Neural Network Compression through Generalized Kronecker Product Decomposition",
      "venue": "AAAI Conference on Artificial Intelligence",
      "year": 2021,
      "referenceCount": 51,
      "citationCount": 33,
      "authors": [
        {
          "authorId": "2132627195",
          "name": "Marawan Gamal Abdel Hameed"
        },
        {
          "authorId": "1996315",
          "name": "Marzieh S. Tahaei"
        },
        {
          "authorId": "2369473",
          "name": "A. Mosleh"
        },
        {
          "authorId": "10127337",
          "name": "V. Nia"
        }
      ]
    },
    {
      "paperId": "12349380044963e95980672040b49460908269a9",
      "externalIds": {
        "MAG": "3036608994",
        "DBLP": "conf/pkdd/LiangOWLZZR20",
        "DOI": "10.1007/978-3-030-67658-2_33",
        "CorpusId": 219953896
      },
      "url": "https://www.semanticscholar.org/paper/12349380044963e95980672040b49460908269a9",
      "title": "Revisiting Convolutional Neural Networks for Citywide Crowd Flow Analytics",
      "venue": "ECML/PKDD",
      "year": 2020,
      "referenceCount": 30,
      "citationCount": 50,
      "authors": [
        {
          "authorId": "3431194",
          "name": "Yuxuan Liang"
        },
        {
          "authorId": null,
          "name": "Kun Ouyang"
        },
        {
          "authorId": "2108841625",
          "name": "Yiwei Wang"
        },
        {
          "authorId": "2108334421",
          "name": "Ye Liu"
        },
        {
          "authorId": "50562026",
          "name": "Junbo Zhang"
        },
        {
          "authorId": "144384718",
          "name": "Yu Zheng"
        },
        {
          "authorId": "1889646",
          "name": "David S. Rosenblum"
        }
      ]
    }
  ]
}