{
  "total": 11,
  "offset": 0,
  "next": 10,
  "data": [
    {
      "paperId": "b74bfb6afd5abcb2c6fe0b2f8d60b97cdb80ca55",
      "externalIds": {
        "MAG": "2740137140",
        "DBLP": "conf/icml/HelfrichWY18",
        "ArXiv": "1707.09520",
        "CorpusId": 44778792
      },
      "url": "https://www.semanticscholar.org/paper/b74bfb6afd5abcb2c6fe0b2f8d60b97cdb80ca55",
      "title": "Orthogonal Recurrent Neural Networks with Scaled Cayley Transform",
      "venue": "International Conference on Machine Learning",
      "year": 2017,
      "referenceCount": 28,
      "citationCount": 142,
      "authors": [
        {
          "authorId": "145288911",
          "name": "Kyle E. Helfrich"
        },
        {
          "authorId": "2853458",
          "name": "Devin Willmott"
        },
        {
          "authorId": "50540106",
          "name": "Q. Ye"
        }
      ]
    },
    {
      "paperId": "2cce3077c91b49de1a8492a36f8c32bd5b9af3f1",
      "externalIds": {
        "DBLP": "journals/corr/abs-1811-04142",
        "ArXiv": "1811.04142",
        "MAG": "2899962223",
        "DOI": "10.1609/AAAI.V33I01.33014528",
        "CorpusId": 53286454
      },
      "url": "https://www.semanticscholar.org/paper/2cce3077c91b49de1a8492a36f8c32bd5b9af3f1",
      "title": "Complex Unitary Recurrent Neural Networks using Scaled Cayley Transform",
      "venue": "AAAI Conference on Artificial Intelligence",
      "year": 2018,
      "referenceCount": 22,
      "citationCount": 33,
      "authors": [
        {
          "authorId": "51936405",
          "name": "K. D. G. Maduranga"
        },
        {
          "authorId": "145288911",
          "name": "Kyle E. Helfrich"
        },
        {
          "authorId": "50540106",
          "name": "Q. Ye"
        }
      ]
    },
    {
      "paperId": "00d206342746d4b7a63942278b5afbc4e8e1f55c",
      "externalIds": {
        "MAG": "3082168113",
        "DOI": "10.13023/ETD.2020.380",
        "CorpusId": 226588949
      },
      "url": "https://www.semanticscholar.org/paper/00d206342746d4b7a63942278b5afbc4e8e1f55c",
      "title": "Unitary and Symmetric Structure in Deep Neural Networks",
      "venue": "",
      "year": 2020,
      "referenceCount": 66,
      "citationCount": 1,
      "authors": [
        {
          "authorId": "51936405",
          "name": "K. D. G. Maduranga"
        }
      ]
    },
    {
      "paperId": "fef1ef8d71d8c668e7fe15a807729d2d1d63ad15",
      "externalIds": {
        "DBLP": "journals/neco/ZadorozhnyyMPNY24",
        "ArXiv": "2208.06496",
        "DOI": "10.1162/neco_a_01710",
        "CorpusId": 251564694,
        "PubMed": "39312497"
      },
      "url": "https://www.semanticscholar.org/paper/fef1ef8d71d8c668e7fe15a807729d2d1d63ad15",
      "title": "Orthogonal Gated Recurrent Unit With Neumann-Cayley Transformation",
      "venue": "Neural Computation",
      "year": 2022,
      "referenceCount": 37,
      "citationCount": 7,
      "authors": [
        {
          "authorId": "2181503088",
          "name": "Edison Mucllari"
        },
        {
          "authorId": "2032263714",
          "name": "Vasily Zadorozhnyy"
        },
        {
          "authorId": "2181503182",
          "name": "Cole Pospisil"
        },
        {
          "authorId": "2112293465",
          "name": "D. Nguyen"
        },
        {
          "authorId": "96967408",
          "name": "Qiang Ye"
        }
      ]
    },
    {
      "paperId": "f576305ea85006392c1f863db5246f214cb38ebb",
      "externalIds": {
        "MAG": "2925304338",
        "DOI": "10.13023/ETD.2018.401",
        "CorpusId": 108404162
      },
      "url": "https://www.semanticscholar.org/paper/f576305ea85006392c1f863db5246f214cb38ebb",
      "title": "Recurrent Neural Networks and Their Applications to RNA Secondary Structure Inference",
      "venue": "",
      "year": 2018,
      "referenceCount": 55,
      "citationCount": 3,
      "authors": [
        {
          "authorId": "2853458",
          "name": "Devin Willmott"
        }
      ]
    },
    {
      "paperId": "5a7bd43f0ceb23c2365d46344986415228c4e467",
      "externalIds": {
        "MAG": "2030925257",
        "DOI": "10.1016/j.jneumeth.2010.08.030",
        "CorpusId": 2082439,
        "PubMed": "20817036"
      },
      "url": "https://www.semanticscholar.org/paper/5a7bd43f0ceb23c2365d46344986415228c4e467",
      "title": "Epileptic seizure detection using multiwavelet transform based approximate entropy and artificial neural networks.",
      "venue": "Journal of Neuroscience Methods",
      "year": 2010,
      "referenceCount": 39,
      "citationCount": 414,
      "authors": [
        {
          "authorId": "2110671636",
          "name": "Ling Guo"
        },
        {
          "authorId": "145212083",
          "name": "D. Rivero"
        },
        {
          "authorId": "102284939",
          "name": "A. Pazos"
        }
      ]
    },
    {
      "paperId": "9806ab3c41944af6c09a949b60d3ed05f25d2ce1",
      "externalIds": {
        "DBLP": "journals/ojcomps/AbdallahAS25",
        "DOI": "10.1109/OJCS.2025.3535663",
        "CorpusId": 275979282
      },
      "url": "https://www.semanticscholar.org/paper/9806ab3c41944af6c09a949b60d3ed05f25d2ce1",
      "title": "Hybrid POF-VLC Systems: Recent Advances, Challenges, Opportunities, and Future Directions",
      "venue": "IEEE Open Journal of the Computer Society",
      "year": 2025,
      "referenceCount": 121,
      "citationCount": 2,
      "authors": [
        {
          "authorId": "2074783344",
          "name": "R. Abdallah"
        },
        {
          "authorId": "2278115619",
          "name": "M. Atef"
        },
        {
          "authorId": "2299941685",
          "name": "Nasir Saeed"
        }
      ]
    },
    {
      "paperId": "33e186f5c713d737994aaa724863275f0bef5275",
      "externalIds": {
        "MAG": "3016617846",
        "ArXiv": "2004.08675",
        "DBLP": "journals/corr/abs-2004-08675",
        "CorpusId": 215828402
      },
      "url": "https://www.semanticscholar.org/paper/33e186f5c713d737994aaa724863275f0bef5275",
      "title": "CWY Parametrization for Scalable Learning of Orthogonal and Stiefel Matrices",
      "venue": "arXiv.org",
      "year": 2020,
      "referenceCount": 37,
      "citationCount": 4,
      "authors": [
        {
          "authorId": "52314889",
          "name": "Valerii Likhosherstov"
        },
        {
          "authorId": "29827891",
          "name": "Jared Davis"
        },
        {
          "authorId": "1805203",
          "name": "K. Choromanski"
        },
        {
          "authorId": "145689461",
          "name": "Adrian Weller"
        }
      ]
    },
    {
      "paperId": "29b606d869acc85087aae7d4d373d1aa916ebd2a",
      "externalIds": {
        "DBLP": "journals/corr/abs-1906-11617",
        "ArXiv": "1906.11617",
        "MAG": "2989171482",
        "DOI": "10.1103/PhysRevE.100.053306",
        "CorpusId": 195699939,
        "PubMed": "31869971"
      },
      "url": "https://www.semanticscholar.org/paper/29b606d869acc85087aae7d4d373d1aa916ebd2a",
      "title": "A non-intrusive reduced order modeling framework for quasi-geostrophic turbulence",
      "venue": "Physical Review E",
      "year": 2019,
      "referenceCount": 113,
      "citationCount": 48,
      "authors": [
        {
          "authorId": "144257832",
          "name": "S. M. Rahman"
        },
        {
          "authorId": "11347090",
          "name": "Suraj Pawar"
        },
        {
          "authorId": "3071838",
          "name": "O. San"
        },
        {
          "authorId": "49219413",
          "name": "A. Rasheed"
        },
        {
          "authorId": "1699295",
          "name": "T. Iliescu"
        }
      ]
    },
    {
      "paperId": "73dedb6578476648fbd9ff83cadf4ebde7a77b89",
      "externalIds": {
        "MAG": "2118960253",
        "DOI": "10.1109/ICSMC.1997.638292",
        "CorpusId": 62659125
      },
      "url": "https://www.semanticscholar.org/paper/73dedb6578476648fbd9ff83cadf4ebde7a77b89",
      "title": "A comparative study of two biorthogonal wavelet transforms in time series prediction",
      "venue": "1997 IEEE International Conference on Systems, Man, and Cybernetics. Computational Cybernetics and Simulation",
      "year": 1997,
      "referenceCount": 12,
      "citationCount": 20,
      "authors": [
        {
          "authorId": "1803201",
          "name": "F. Tsui"
        },
        {
          "authorId": "153228269",
          "name": "Ching-Chung Li"
        },
        {
          "authorId": "145070659",
          "name": "Mingui Sun"
        },
        {
          "authorId": "35176521",
          "name": "R. Sclabassi"
        }
      ]
    }
  ]
}