{
  "total": 246,
  "offset": 0,
  "next": 10,
  "data": [
    {
      "paperId": "49196db76c03912535e99e3b492917915e87f4a6",
      "externalIds": {
        "MAG": "2113149525",
        "DBLP": "conf/icml/TanseyPSR15",
        "ArXiv": "1505.05117",
        "CorpusId": 7289472
      },
      "url": "https://www.semanticscholar.org/paper/49196db76c03912535e99e3b492917915e87f4a6",
      "title": "Vector-Space Markov Random Fields via Exponential Families",
      "venue": "International Conference on Machine Learning",
      "year": 2015,
      "referenceCount": 12,
      "citationCount": 22,
      "authors": [
        {
          "authorId": "145305182",
          "name": "Wesley Tansey"
        },
        {
          "authorId": "2527891",
          "name": "Oscar Hernan Madrid Padilla"
        },
        {
          "authorId": "2170091",
          "name": "A. Suggala"
        },
        {
          "authorId": "145969795",
          "name": "Pradeep Ravikumar"
        }
      ]
    },
    {
      "paperId": "9ce33a40bb9613cd178149bb8136bd13e3345b69",
      "externalIds": {
        "CorpusId": 265099509
      },
      "url": "https://www.semanticscholar.org/paper/9ce33a40bb9613cd178149bb8136bd13e3345b69",
      "title": "Vector-Space Markov Random Fields via Exponential Families Appendix",
      "venue": "",
      "year": 2015,
      "referenceCount": 1,
      "citationCount": 0,
      "authors": []
    },
    {
      "paperId": "41b963d0cb33dc292ac2fb4123a5bbeeab013472",
      "externalIds": {
        "DBLP": "journals/corr/abs-2212-00296",
        "DOI": "10.48550/arXiv.2212.00296",
        "CorpusId": 254125623
      },
      "url": "https://www.semanticscholar.org/paper/41b963d0cb33dc292ac2fb4123a5bbeeab013472",
      "title": "Learning Combinatorial Structures via Markov Random Fields with Sampling through Lovász Local Lemma",
      "venue": "arXiv.org",
      "year": 2022,
      "referenceCount": 59,
      "citationCount": 0,
      "authors": [
        {
          "authorId": "48272707",
          "name": "Nan Jiang"
        },
        {
          "authorId": "144559035",
          "name": "Yi Gu"
        },
        {
          "authorId": "2937530",
          "name": "Yexiang Xue"
        }
      ]
    },
    {
      "paperId": "c7a7ce0af32d84c3d9840dd91bbb481f1f3ff4b6",
      "externalIds": {
        "MAG": "3091424143",
        "DBLP": "conf/aistats/ParkHBL17",
        "CorpusId": 14331176,
        "PubMed": "30931433"
      },
      "url": "https://www.semanticscholar.org/paper/c7a7ce0af32d84c3d9840dd91bbb481f1f3ff4b6",
      "title": "Learning the Network Structure of Heterogeneous Data via Pairwise Exponential Markov Random Fields",
      "venue": "International Conference on Artificial Intelligence and Statistics",
      "year": 2017,
      "referenceCount": 27,
      "citationCount": 21,
      "authors": [
        {
          "authorId": "1845861038",
          "name": "Youngsuk Park"
        },
        {
          "authorId": "2444195",
          "name": "David Hallac"
        },
        {
          "authorId": "1843103",
          "name": "Stephen P. Boyd"
        },
        {
          "authorId": "1702139",
          "name": "J. Leskovec"
        }
      ]
    },
    {
      "paperId": "8e4faf6cd773ceaeaa896b131622d17b7d769165",
      "externalIds": {
        "CorpusId": 31801088
      },
      "url": "https://www.semanticscholar.org/paper/8e4faf6cd773ceaeaa896b131622d17b7d769165",
      "title": "Supplementary Material for “ Learning the Network Structure of Heterogeneous Data via Pairwise Exponential Markov Random Fields ”",
      "venue": "",
      "year": 2017,
      "referenceCount": 5,
      "citationCount": 0,
      "authors": [
        {
          "authorId": "2444195",
          "name": "David Hallac"
        },
        {
          "authorId": "1843103",
          "name": "Stephen P. Boyd"
        }
      ]
    },
    {
      "paperId": "380ac364206d18786288911e8079f4e869cf53fe",
      "externalIds": {
        "MAG": "206906224",
        "DBLP": "conf/aistats/YangBRAL14",
        "CorpusId": 10019388
      },
      "url": "https://www.semanticscholar.org/paper/380ac364206d18786288911e8079f4e869cf53fe",
      "title": "Mixed Graphical Models via Exponential Families",
      "venue": "International Conference on Artificial Intelligence and Statistics",
      "year": 2014,
      "referenceCount": 25,
      "citationCount": 113,
      "authors": [
        {
          "authorId": "1720494",
          "name": "Eunho Yang"
        },
        {
          "authorId": "13097574",
          "name": "Yulia Baker"
        },
        {
          "authorId": "145969795",
          "name": "Pradeep Ravikumar"
        },
        {
          "authorId": "2302572",
          "name": "Genevera I. Allen"
        },
        {
          "authorId": "2235247905",
          "name": "Zhandong Liu"
        }
      ]
    },
    {
      "paperId": "d6d97d6549d764a0c6453c9c786f39d7b08ff156",
      "externalIds": {
        "MAG": "2767340384",
        "DBLP": "journals/tgrs/ZhangGJZ18",
        "DOI": "10.1109/TGRS.2017.2762593",
        "CorpusId": 3663081
      },
      "url": "https://www.semanticscholar.org/paper/d6d97d6549d764a0c6453c9c786f39d7b08ff156",
      "title": "Multifeature Hyperspectral Image Classification With Local and Nonlocal Spatial Information via Markov Random Field in Semantic Space",
      "venue": "IEEE Transactions on Geoscience and Remote Sensing",
      "year": 2018,
      "referenceCount": 50,
      "citationCount": 57,
      "authors": [
        {
          "authorId": "26887655",
          "name": "Xiangrong Zhang"
        },
        {
          "authorId": "8011267",
          "name": "Zeyu Gao"
        },
        {
          "authorId": "144125122",
          "name": "L. Jiao"
        },
        {
          "authorId": "46544755",
          "name": "Huiyu Zhou"
        }
      ]
    },
    {
      "paperId": "01c1c4f817d1f8e810a90bea21572ddef9ada596",
      "externalIds": {
        "DBLP": "journals/corr/abs-2211-16229",
        "ArXiv": "2211.16229",
        "DOI": "10.48550/arXiv.2211.16229",
        "CorpusId": 254069830
      },
      "url": "https://www.semanticscholar.org/paper/01c1c4f817d1f8e810a90bea21572ddef9ada596",
      "title": "Triadic Temporal Exponential Random Graph Models (TTERGM)",
      "venue": "arXiv.org",
      "year": 2022,
      "referenceCount": 34,
      "citationCount": 1,
      "authors": [
        {
          "authorId": "2160430666",
          "name": "Yifan Huang"
        },
        {
          "authorId": "36730256",
          "name": "Clayton Barham"
        },
        {
          "authorId": "117351576",
          "name": "Eric Page"
        },
        {
          "authorId": "3185961",
          "name": "P. Douglas"
        }
      ]
    },
    {
      "paperId": "a75fbf83cf329d44b99ce8c940819686cb11230f",
      "externalIds": {
        "DBLP": "journals/tomacs/LiS24",
        "DOI": "10.1145/3649463",
        "CorpusId": 268170518
      },
      "url": "https://www.semanticscholar.org/paper/a75fbf83cf329d44b99ce8c940819686cb11230f",
      "title": "Projected Gaussian Markov Improvement Algorithm for High-Dimensional Discrete Optimization via Simulation",
      "venue": "ACM Transactions on Modeling and Computer Simulation",
      "year": 2024,
      "referenceCount": 38,
      "citationCount": 4,
      "authors": [
        {
          "authorId": "2395560857",
          "name": "Xinru Li"
        },
        {
          "authorId": "2281993915",
          "name": "Eunhye Song"
        }
      ]
    },
    {
      "paperId": "64f2978e128498da0849e4adb7878d05f9b5d450",
      "externalIds": {
        "ArXiv": "1503.01228",
        "DBLP": "journals/corr/TangRBJ15",
        "MAG": "1656881698",
        "CorpusId": 15800230
      },
      "url": "https://www.semanticscholar.org/paper/64f2978e128498da0849e4adb7878d05f9b5d450",
      "title": "Bethe Learning of Conditional Random Fields via MAP Decoding",
      "venue": "arXiv.org",
      "year": 2015,
      "referenceCount": 44,
      "citationCount": 5,
      "authors": [
        {
          "authorId": "39986217",
          "name": "K. Tang"
        },
        {
          "authorId": "2273098",
          "name": "Nicholas Ruozzi"
        },
        {
          "authorId": "2636941",
          "name": "David Belanger"
        },
        {
          "authorId": "1768120",
          "name": "Tony Jebara"
        }
      ]
    }
  ]
}