{
  "total": 25,
  "offset": 0,
  "next": 10,
  "data": [
    {
      "paperId": "afdb6b7a083e3b7304c354925a3f3528716cb44e",
      "externalIds": {
        "DBLP": "conf/icml/WeiIB15",
        "MAG": "1912128066",
        "CorpusId": 9176532
      },
      "url": "https://www.semanticscholar.org/paper/afdb6b7a083e3b7304c354925a3f3528716cb44e",
      "title": "Submodularity in Data Subset Selection and Active Learning",
      "venue": "International Conference on Machine Learning",
      "year": 2015,
      "referenceCount": 58,
      "citationCount": 463,
      "authors": [
        {
          "authorId": "145874824",
          "name": "K. Wei"
        },
        {
          "authorId": "145074006",
          "name": "Rishabh K. Iyer"
        },
        {
          "authorId": "1748118",
          "name": "J. Bilmes"
        }
      ]
    },
    {
      "paperId": "199ac333b1ff37917d1ab4a2e2002d9605b3db1e",
      "externalIds": {
        "ArXiv": "2012.10630",
        "DBLP": "conf/aaai/KillamsettySRI21",
        "DOI": "10.1609/aaai.v35i9.16988",
        "CorpusId": 229339854
      },
      "url": "https://www.semanticscholar.org/paper/199ac333b1ff37917d1ab4a2e2002d9605b3db1e",
      "title": "GLISTER: Generalization based Data Subset Selection for Efficient and Robust Learning",
      "venue": "AAAI Conference on Artificial Intelligence",
      "year": 2020,
      "referenceCount": 38,
      "citationCount": 297,
      "authors": [
        {
          "authorId": "2112203718",
          "name": "Krishnateja Killamsetty"
        },
        {
          "authorId": "1485380858",
          "name": "Durga Sivasubramanian"
        },
        {
          "authorId": "150114500",
          "name": "Ganesh Ramakrishnan"
        },
        {
          "authorId": "2039902834",
          "name": "Rishabh Iyer University of Texas at Dallas"
        },
        {
          "authorId": "2039903111",
          "name": "Indian Institute of Technology Bombay Institution One"
        },
        {
          "authorId": "2085963769",
          "name": "I. Two"
        }
      ]
    },
    {
      "paperId": "7c99633f8f3415824ae9f5f138a06c91e1ea3f6c",
      "externalIds": {
        "MAG": "2747178704",
        "DBLP": "conf/cvpr/PaulBR17",
        "DOI": "10.1109/CVPR.2017.95",
        "CorpusId": 10405227
      },
      "url": "https://www.semanticscholar.org/paper/7c99633f8f3415824ae9f5f138a06c91e1ea3f6c",
      "title": "Non-uniform Subset Selection for Active Learning in Structured Data",
      "venue": "Computer Vision and Pattern Recognition",
      "year": 2017,
      "referenceCount": 53,
      "citationCount": 22,
      "authors": [
        {
          "authorId": "49616225",
          "name": "S. Paul"
        },
        {
          "authorId": "3415408",
          "name": "Jawadul H. Bappy"
        },
        {
          "authorId": "1404727582",
          "name": "A. Roy-Chowdhury"
        }
      ]
    },
    {
      "paperId": "397b8b7a49af2f7b80deadc30702ebd54fba947d",
      "externalIds": {
        "DBLP": "journals/corr/abs-2105-00043",
        "ArXiv": "2105.00043",
        "CorpusId": 233481568
      },
      "url": "https://www.semanticscholar.org/paper/397b8b7a49af2f7b80deadc30702ebd54fba947d",
      "title": "Submodular Mutual Information for Targeted Data Subset Selection",
      "venue": "arXiv.org",
      "year": 2021,
      "referenceCount": 17,
      "citationCount": 11,
      "authors": [
        {
          "authorId": "9745898",
          "name": "S. Kothawade"
        },
        {
          "authorId": "3333118",
          "name": "Vishal Kaushal"
        },
        {
          "authorId": "150114500",
          "name": "Ganesh Ramakrishnan"
        },
        {
          "authorId": "1748118",
          "name": "J. Bilmes"
        },
        {
          "authorId": "145074006",
          "name": "Rishabh K. Iyer"
        }
      ]
    },
    {
      "paperId": "4f789ee52aaeac38123af0f957f841d40db34f0b",
      "externalIds": {
        "DBLP": "journals/corr/abs-2202-00132",
        "ArXiv": "2202.00132",
        "CorpusId": 246442100
      },
      "url": "https://www.semanticscholar.org/paper/4f789ee52aaeac38123af0f957f841d40db34f0b",
      "title": "Submodularity In Machine Learning and Artificial Intelligence",
      "venue": "arXiv.org",
      "year": 2022,
      "referenceCount": 261,
      "citationCount": 74,
      "authors": [
        {
          "authorId": "1748118",
          "name": "J. Bilmes"
        }
      ]
    },
    {
      "paperId": "719a3e8e26f6762ac654f68d907b56dfc2dff824",
      "externalIds": {
        "CorpusId": 249916522
      },
      "url": "https://www.semanticscholar.org/paper/719a3e8e26f6762ac654f68d907b56dfc2dff824",
      "title": "Subset Selection in Machine Learning: Theory, Applications, and Hands On",
      "venue": "",
      "year": 2022,
      "referenceCount": 29,
      "citationCount": 3,
      "authors": [
        {
          "authorId": "145074006",
          "name": "Rishabh K. Iyer"
        },
        {
          "authorId": "152356803",
          "name": "A. De"
        },
        {
          "authorId": "150114500",
          "name": "Ganesh Ramakrishnan"
        },
        {
          "authorId": "1748118",
          "name": "J. Bilmes"
        }
      ]
    },
    {
      "paperId": "0c6a775833b9b40f98e01f79e13a2c5d36744834",
      "externalIds": {
        "ArXiv": "2603.15110",
        "CorpusId": 286573008
      },
      "url": "https://www.semanticscholar.org/paper/0c6a775833b9b40f98e01f79e13a2c5d36744834",
      "title": "Sampling-guided exploration of active feature selection policies",
      "venue": "",
      "year": 2026,
      "referenceCount": 26,
      "citationCount": 0,
      "authors": [
        {
          "authorId": "2342611923",
          "name": "G. Bernardino"
        },
        {
          "authorId": "2275054708",
          "name": "Anders Jonsson"
        },
        {
          "authorId": "2252673214",
          "name": "Patrick Clarysse"
        },
        {
          "authorId": "2311852190",
          "name": "N. Duchateau"
        }
      ]
    },
    {
      "paperId": "2bf887f517970d32919ef5d031e77d3d2b36d2e1",
      "externalIds": {
        "ArXiv": "2503.14571",
        "DBLP": "journals/corr/abs-2503-14571",
        "DOI": "10.48550/arXiv.2503.14571",
        "CorpusId": 277112784
      },
      "url": "https://www.semanticscholar.org/paper/2bf887f517970d32919ef5d031e77d3d2b36d2e1",
      "title": "Efficient Data Selection for Training Genomic Perturbation Models",
      "venue": "arXiv.org",
      "year": 2025,
      "referenceCount": 56,
      "citationCount": 0,
      "authors": [
        {
          "authorId": "34702974",
          "name": "G. Panagopoulos"
        },
        {
          "authorId": "89948093",
          "name": "J. Lutzeyer"
        },
        {
          "authorId": "2187458074",
          "name": "Sofiane Ennadir"
        },
        {
          "authorId": "1690383",
          "name": "M. Vazirgiannis"
        },
        {
          "authorId": "2293720452",
          "name": "Jun Pang"
        }
      ]
    },
    {
      "paperId": "150a4e6635d4733ff490d931d7f70ea1217223d6",
      "externalIds": {
        "DBLP": "conf/icml/SimFTJL24",
        "CorpusId": 271164223
      },
      "url": "https://www.semanticscholar.org/paper/150a4e6635d4733ff490d931d7f70ea1217223d6",
      "title": "Deletion-Anticipative Data Selection with a Limited Budget",
      "venue": "International Conference on Machine Learning",
      "year": 2024,
      "referenceCount": 64,
      "citationCount": 1,
      "authors": [
        {
          "authorId": "2003246244",
          "name": "Rachael Hwee Ling Sim"
        },
        {
          "authorId": "2275287472",
          "name": "Jue Fan"
        },
        {
          "authorId": "2275997471",
          "name": "Xiao Tian"
        },
        {
          "authorId": "2066231840",
          "name": "P. Jaillet"
        },
        {
          "authorId": "145454065",
          "name": "K. H. Low"
        }
      ]
    },
    {
      "paperId": "13dac47c5138296d5890847a22c7b552c8838c64",
      "externalIds": {
        "ArXiv": "2505.17799",
        "DBLP": "journals/corr/abs-2505-17799",
        "DOI": "10.48550/arXiv.2505.17799",
        "CorpusId": 278886355
      },
      "url": "https://www.semanticscholar.org/paper/13dac47c5138296d5890847a22c7b552c8838c64",
      "title": "A Coreset Selection of Coreset Selection Literature: Introduction and Recent Advances",
      "venue": "arXiv.org",
      "year": 2025,
      "referenceCount": 178,
      "citationCount": 14,
      "authors": [
        {
          "authorId": "2064375154",
          "name": "Brian B. Moser"
        },
        {
          "authorId": "2277248486",
          "name": "Arundhati S. Shanbhag"
        },
        {
          "authorId": "50120446",
          "name": "Stanislav Frolov"
        },
        {
          "authorId": "48258541",
          "name": "Federico Raue"
        },
        {
          "authorId": "144553243",
          "name": "Joachim Folz"
        },
        {
          "authorId": "2282138873",
          "name": "Andreas Dengel"
        }
      ]
    }
  ]
}