{
  "total": 182359,
  "offset": 0,
  "next": 10,
  "data": [
    {
      "paperId": "bd1cf4279d834699db871e1451d289c49ff2b6de",
      "externalIds": {
        "ArXiv": "1703.06891",
        "DBLP": "journals/corr/DonahueLM17",
        "MAG": "2962794517",
        "CorpusId": 14219890
      },
      "url": "https://www.semanticscholar.org/paper/bd1cf4279d834699db871e1451d289c49ff2b6de",
      "title": "Dance Dance Convolution",
      "venue": "International Conference on Machine Learning",
      "year": 2017,
      "referenceCount": 49,
      "citationCount": 39,
      "authors": [
        {
          "authorId": "1872307",
          "name": "Chris Donahue"
        },
        {
          "authorId": "32219137",
          "name": "Zachary Chase Lipton"
        },
        {
          "authorId": "35660011",
          "name": "Julian McAuley"
        }
      ]
    },
    {
      "paperId": "c7d090d47ce230b2c55565f864d50754c8753b17",
      "externalIds": {
        "DOI": "10.1109/ICICNCT66124.2025.11232936",
        "CorpusId": 283101598
      },
      "url": "https://www.semanticscholar.org/paper/c7d090d47ce230b2c55565f864d50754c8753b17",
      "title": "Style-Conditioned Dance Action Generation Using Spatio-Temporal Graph Convolution and Transformer Decoder",
      "venue": "2025 International Conference on Intelligent Communication Networks and Computational Techniques (ICICNCT)",
      "year": 2025,
      "referenceCount": 15,
      "citationCount": 0,
      "authors": [
        {
          "authorId": "2269251196",
          "name": "Xi Yang"
        }
      ]
    },
    {
      "paperId": "4bbab0e894d31e16868f34f86b88476586f3f2b6",
      "externalIds": {
        "DBLP": "journals/corr/abs-2502-01190",
        "ArXiv": "2502.01190",
        "DOI": "10.48550/arXiv.2502.01190",
        "CorpusId": 276094188
      },
      "url": "https://www.semanticscholar.org/paper/4bbab0e894d31e16868f34f86b88476586f3f2b6",
      "title": "Dance recalibration for dance coherency with recurrent convolution block",
      "venue": "arXiv.org",
      "year": 2025,
      "referenceCount": 0,
      "citationCount": 0,
      "authors": [
        {
          "authorId": "2260511627",
          "name": "Seungho Eum"
        },
        {
          "authorId": "2343633857",
          "name": "Ihjoon Cho"
        },
        {
          "authorId": "2344198619",
          "name": "Junghyeon Kim"
        }
      ]
    },
    {
      "paperId": "98cf100cd554e38e674ccd2866963605e8686988",
      "externalIds": {
        "DOI": "10.37965/jait.2025.0738",
        "CorpusId": 281184619
      },
      "url": "https://www.semanticscholar.org/paper/98cf100cd554e38e674ccd2866963605e8686988",
      "title": "Evaluation of Dragon and Lion Dance Teaching Actions and Digital Sports Intangible Cultural Heritage Inheritance Based on Hypergraph Convolution",
      "venue": "Journal of Artificial Intelligence and Technology",
      "year": 2025,
      "referenceCount": 25,
      "citationCount": 0,
      "authors": [
        {
          "authorId": "2345577962",
          "name": "Dongbiao Li"
        },
        {
          "authorId": "117579061",
          "name": "Narantsatsral Delgerkhuu"
        }
      ]
    },
    {
      "paperId": "db66ce315b9b0f8af7b78e04ece200317dbe048d",
      "externalIds": {
        "DBLP": "journals/corr/abs-2507-01644",
        "ArXiv": "2507.01644",
        "DOI": "10.48550/arXiv.2507.01644",
        "CorpusId": 280067377
      },
      "url": "https://www.semanticscholar.org/paper/db66ce315b9b0f8af7b78e04ece200317dbe048d",
      "title": "Dance Dance ConvLSTM",
      "venue": "arXiv.org",
      "year": 2025,
      "referenceCount": 16,
      "citationCount": 1,
      "authors": [
        {
          "authorId": "2237190964",
          "name": "Miguel O'Malley"
        }
      ]
    },
    {
      "paperId": "5ca12a0894b39b045fed93a835366409d3ac09f7",
      "externalIds": {
        "DBLP": "journals/jifs/ChallapalliD23",
        "DOI": "10.3233/JIFS-231183",
        "CorpusId": 260083708
      },
      "url": "https://www.semanticscholar.org/paper/5ca12a0894b39b045fed93a835366409d3ac09f7",
      "title": "Generative adversarial network based data augmentation and quantum based convolution neural network for the classification of Indian classical dance forms",
      "venue": "Journal of Intelligent & Fuzzy Systems",
      "year": 2023,
      "referenceCount": 51,
      "citationCount": 3,
      "authors": [
        {
          "authorId": "2179596434",
          "name": "Jhansi Rani Challapalli"
        },
        {
          "authorId": "9364224",
          "name": "N. Devarakonda"
        }
      ]
    },
    {
      "paperId": "7e696b2ef95f2a53c9a9c08eac8da2d4118360ae",
      "externalIds": {
        "DOI": "10.1109/RMKMATE59243.2023.10368946",
        "CorpusId": 266745849
      },
      "url": "https://www.semanticscholar.org/paper/7e696b2ef95f2a53c9a9c08eac8da2d4118360ae",
      "title": "3-Dimensional Indian Dance Pose Classification using Convolution-al Neural Network",
      "venue": "2023 International Conference on Research Methodologies in Knowledge Management, Artificial Intelligence and Telecommunication Engineering (RMKMATE)",
      "year": 2023,
      "referenceCount": 28,
      "citationCount": 0,
      "authors": [
        {
          "authorId": "41212177",
          "name": "D. A. Kumar"
        },
        {
          "authorId": "2175739284",
          "name": "T. Babu"
        },
        {
          "authorId": "2277659328",
          "name": "E. S. Gowtham"
        },
        {
          "authorId": "2361366410",
          "name": "M. Chandana"
        },
        {
          "authorId": "2277659980",
          "name": "G. V. Vineelka"
        },
        {
          "authorId": "2294836720",
          "name": "K. Reddy"
        }
      ]
    },
    {
      "paperId": "d20a192c321e07179319e5fe06b76138645b311b",
      "externalIds": {
        "DOI": "10.1142/s0219519426500077",
        "CorpusId": 286199346
      },
      "url": "https://www.semanticscholar.org/paper/d20a192c321e07179319e5fe06b76138645b311b",
      "title": "Dance Therapy Motion Recognition and Quality Evaluation Based on Hybrid Dilated Convolution and Spatial-Temporal Aggregation Network",
      "venue": "Journal of Mechanics in Medicine and Biology",
      "year": 2026,
      "referenceCount": 0,
      "citationCount": 0,
      "authors": [
        {
          "authorId": "2316294882",
          "name": "Yangyang Xie"
        },
        {
          "authorId": "2274707370",
          "name": "Lin Han"
        },
        {
          "authorId": "2345093203",
          "name": "Wei Zhao"
        }
      ]
    },
    {
      "paperId": "2a5b36b2ac0afd2ea6816a0c75b0a597a5dfd322",
      "externalIds": {
        "DBLP": "journals/mam/ChallapalliD22",
        "DOI": "10.1016/j.micpro.2022.104651",
        "CorpusId": 251889719
      },
      "url": "https://www.semanticscholar.org/paper/2a5b36b2ac0afd2ea6816a0c75b0a597a5dfd322",
      "title": "An effectual classical dance pose estimation and classification system employing Convolution Neural Network -Long ShortTerm Memory (CNN-LSTM) network for video sequences",
      "venue": "Microprocessors and microsystems",
      "year": 2022,
      "referenceCount": 17,
      "citationCount": 30,
      "authors": [
        {
          "authorId": "2179596434",
          "name": "Jhansi Rani Challapalli"
        },
        {
          "authorId": "9364224",
          "name": "N. Devarakonda"
        }
      ]
    },
    {
      "paperId": "a85a9f0773a6839170ec2e45275d2a4ae24ae989",
      "externalIds": {
        "PubMedCentral": "9288280",
        "DOI": "10.1155/2022/4713643",
        "CorpusId": 250413271,
        "PubMed": "35855817"
      },
      "url": "https://www.semanticscholar.org/paper/a85a9f0773a6839170ec2e45275d2a4ae24ae989",
      "title": "An Intelligent and Fast Dance Action Recognition Model Using Two-Dimensional Convolution Network Method",
      "venue": "Journal of Environmental and Public Health",
      "year": 2022,
      "referenceCount": 26,
      "citationCount": 4,
      "authors": [
        {
          "authorId": "2186397275",
          "name": "Shuai Zhang"
        }
      ]
    }
  ]
}