{
  "total": 27,
  "offset": 0,
  "next": 10,
  "data": [
    {
      "paperId": "7d77a29f2e1dc796d202d6cf01f299da7c197c22",
      "externalIds": {
        "ArXiv": "1702.08139",
        "DBLP": "conf/icml/YangHSB17",
        "MAG": "2963600562",
        "CorpusId": 1696516
      },
      "url": "https://www.semanticscholar.org/paper/7d77a29f2e1dc796d202d6cf01f299da7c197c22",
      "title": "Improved Variational Autoencoders for Text Modeling using Dilated Convolutions",
      "venue": "International Conference on Machine Learning",
      "year": 2017,
      "referenceCount": 42,
      "citationCount": 400,
      "authors": [
        {
          "authorId": "8387085",
          "name": "Zichao Yang"
        },
        {
          "authorId": "2749311",
          "name": "Zhiting Hu"
        },
        {
          "authorId": "145124475",
          "name": "R. Salakhutdinov"
        },
        {
          "authorId": "1400419309",
          "name": "Taylor Berg-Kirkpatrick"
        }
      ]
    },
    {
      "paperId": "1463b4a833a8f2da936a768661642b42aa5803d4",
      "externalIds": {
        "DBLP": "journals/access/KunHXDS24",
        "DOI": "10.1109/ACCESS.2024.3434708",
        "CorpusId": 271562732
      },
      "url": "https://www.semanticscholar.org/paper/1463b4a833a8f2da936a768661642b42aa5803d4",
      "title": "Enhancing Gas Turbine Fault Diagnosis Using a Multi-Scale Dilated Graph Variational Autoencoder Model",
      "venue": "IEEE Access",
      "year": 2024,
      "referenceCount": 37,
      "citationCount": 4,
      "authors": [
        {
          "authorId": "2299025494",
          "name": "Zhang Kun"
        },
        {
          "authorId": "2299101462",
          "name": "Hongren Li"
        },
        {
          "authorId": "2299030713",
          "name": "Wang Xin"
        },
        {
          "authorId": "2299034273",
          "name": "Daxing Xie"
        },
        {
          "authorId": "1500654347",
          "name": "Yang Shuai"
        }
      ]
    },
    {
      "paperId": "dab8ffb3b35b8f149983708c0362f13bf4ca7d9c",
      "externalIds": {
        "DBLP": "journals/information/WanJR24",
        "DOI": "10.3390/info15110717",
        "CorpusId": 273922644
      },
      "url": "https://www.semanticscholar.org/paper/dab8ffb3b35b8f149983708c0362f13bf4ca7d9c",
      "title": "Variational Color Shift and Auto-Encoder Based on Large Separable Kernel Attention for Enhanced Text CAPTCHA Vulnerability Assessment",
      "venue": "Inf.",
      "year": 2024,
      "referenceCount": 0,
      "citationCount": 2,
      "authors": [
        {
          "authorId": "2305799530",
          "name": "Xing Wan"
        },
        {
          "authorId": "2258242140",
          "name": "Juliana Johari"
        },
        {
          "authorId": "3300883",
          "name": "F. Ruslan"
        }
      ]
    },
    {
      "paperId": "3fa939927451b30a1913c3bd846f6d20442ea008",
      "externalIds": {
        "MAG": "2963826396",
        "DBLP": "journals/corr/abs-1901-06103",
        "ArXiv": "1901.06103",
        "DOI": "10.1016/j.ymeth.2019.02.021",
        "CorpusId": 58028970,
        "PubMed": "30822516"
      },
      "url": "https://www.semanticscholar.org/paper/3fa939927451b30a1913c3bd846f6d20442ea008",
      "title": "Exploring Semi-supervised Variational Autoencoders for Biomedical Relation Extraction",
      "venue": "Methods",
      "year": 2019,
      "referenceCount": 36,
      "citationCount": 58,
      "authors": [
        {
          "authorId": "49889530",
          "name": "Yijia Zhang"
        },
        {
          "authorId": "144202084",
          "name": "Zhiyong Lu"
        }
      ]
    },
    {
      "paperId": "410939d4ed0d703039e993af0e91b6e9891b79b1",
      "externalIds": {
        "DOI": "10.1109/CEEPE58418.2023.10167013",
        "CorpusId": 259363014
      },
      "url": "https://www.semanticscholar.org/paper/410939d4ed0d703039e993af0e91b6e9891b79b1",
      "title": "Resident Load Disaggregation Based on Dilated Causal Convolution and Variational Autoencoder",
      "venue": "2023 6th International Conference on Energy, Electrical and Power Engineering (CEEPE)",
      "year": 2023,
      "referenceCount": 23,
      "citationCount": 0,
      "authors": [
        {
          "authorId": "2221266891",
          "name": "Jiawei Chen"
        },
        {
          "authorId": "2072498228",
          "name": "T. Ji"
        },
        {
          "authorId": "66563471",
          "name": "Luliang Zhang"
        }
      ]
    },
    {
      "paperId": "cbd420aef666786a28c3b135b8b61117fb73d885",
      "externalIds": {
        "DBLP": "journals/access/KuangJYPMO25",
        "DOI": "10.1109/ACCESS.2025.3558499",
        "CorpusId": 277714166
      },
      "url": "https://www.semanticscholar.org/paper/cbd420aef666786a28c3b135b8b61117fb73d885",
      "title": "Synergistic Integration of Image-Text Modalities in Telemedicine: VAE-Infused Graph Convolutional Networks for Diagnostic Decision-Making",
      "venue": "IEEE Access",
      "year": 2025,
      "referenceCount": 44,
      "citationCount": 0,
      "authors": [
        {
          "authorId": "2339093156",
          "name": "Yirui Kuang"
        },
        {
          "authorId": "2354707215",
          "name": "Hui Jin"
        },
        {
          "authorId": "2287043332",
          "name": "Jiayu Yang"
        },
        {
          "authorId": "2352709084",
          "name": "Mengxue Pang"
        },
        {
          "authorId": "2303361004",
          "name": "Jianqiang Ma"
        },
        {
          "authorId": "2336875812",
          "name": "Wei Ou"
        }
      ]
    },
    {
      "paperId": "64d6eaccd4f286b5bef9382dacf2cf4c35911908",
      "externalIds": {
        "DOI": "10.1109/AANN66429.2025.11257690",
        "CorpusId": 283469884
      },
      "url": "https://www.semanticscholar.org/paper/64d6eaccd4f286b5bef9382dacf2cf4c35911908",
      "title": "Foreign Object Detection in Rivers Based on Improved Yolov10n for Uavs",
      "venue": "2025 5th International Conference on Advanced Algorithms and Neural Networks (AANN)",
      "year": 2025,
      "referenceCount": 13,
      "citationCount": 0,
      "authors": [
        {
          "authorId": "2347570024",
          "name": "Yuan Wang"
        },
        {
          "authorId": "2396975086",
          "name": "Haorui Liu"
        },
        {
          "authorId": "2326843897",
          "name": "Bowen Zheng"
        },
        {
          "authorId": "2355559128",
          "name": "Shichao Chen"
        }
      ]
    },
    {
      "paperId": "ec13309e3dfcc7a295181fa2d9b28979550ea27c",
      "externalIds": {
        "DOI": "10.1109/ACIRS66343.2025.11360854",
        "CorpusId": 285178508
      },
      "url": "https://www.semanticscholar.org/paper/ec13309e3dfcc7a295181fa2d9b28979550ea27c",
      "title": "Carbon Emission Prediction in Power Systems Using A VAE-TCN Hybrid Architecture",
      "venue": "Asia-Pacific Conference on Intelligent Robot Systems",
      "year": 2025,
      "referenceCount": 11,
      "citationCount": 0,
      "authors": [
        {
          "authorId": "2375730440",
          "name": "Qian Zhao"
        },
        {
          "authorId": "2391338824",
          "name": "Jianhua Chen"
        },
        {
          "authorId": "2393551756",
          "name": "Qianwei Jia"
        },
        {
          "authorId": "2393781953",
          "name": "Cong Sun"
        },
        {
          "authorId": "2392634042",
          "name": "Xi Chen"
        },
        {
          "authorId": "2382722098",
          "name": "Hongtian Chen"
        }
      ]
    },
    {
      "paperId": "ebe9b159e9e3fbe95b0094243800ac6af969ccd8",
      "externalIds": {
        "DBLP": "journals/remotesensing/WangZXCS24",
        "DOI": "10.3390/rs16162990",
        "CorpusId": 271926046
      },
      "url": "https://www.semanticscholar.org/paper/ebe9b159e9e3fbe95b0094243800ac6af969ccd8",
      "title": "Enhanced Dual-Channel Model-Based with Improved Unet++ Network for Landslide Monitoring and Region Extraction in Remote Sensing Images",
      "venue": "Remote Sensing",
      "year": 2024,
      "referenceCount": 52,
      "citationCount": 12,
      "authors": [
        {
          "authorId": "2316668386",
          "name": "Junxin Wang"
        },
        {
          "authorId": "2328019616",
          "name": "Qintong Zhang"
        },
        {
          "authorId": "2354108760",
          "name": "Hao Xie"
        },
        {
          "authorId": "2109345878",
          "name": "Yingying Chen"
        },
        {
          "authorId": "2180638973",
          "name": "Rui Sun"
        }
      ]
    },
    {
      "paperId": "92e08ad61112dfb6b20f20b39a495ccf1df41d0d",
      "externalIds": {
        "DBLP": "journals/tjs/XuGZL023",
        "DOI": "10.1007/s11227-023-05139-w",
        "CorpusId": 257535831
      },
      "url": "https://www.semanticscholar.org/paper/92e08ad61112dfb6b20f20b39a495ccf1df41d0d",
      "title": "CNN-VAE: An intelligent text representation algorithm",
      "venue": "Journal of Supercomputing",
      "year": 2023,
      "referenceCount": 57,
      "citationCount": 8,
      "authors": [
        {
          "authorId": "2110727678",
          "name": "Saijuan Xu"
        },
        {
          "authorId": "153714950",
          "name": "Canyang Guo"
        },
        {
          "authorId": "2291072730",
          "name": "Yuhan Zhu"
        },
        {
          "authorId": "2258272",
          "name": "Genggeng Liu"
        },
        {
          "authorId": "2139877448",
          "name": "Neal Xiong"
        }
      ]
    }
  ]
}