{
  "total": 385,
  "offset": 0,
  "next": 10,
  "data": [
    {
      "paperId": "77b95b9790e2fa51b625841830685c08cde129f9",
      "externalIds": {
        "MAG": "1869602175",
        "DBLP": "conf/icml/Kandemir15",
        "CorpusId": 15037360
      },
      "url": "https://www.semanticscholar.org/paper/77b95b9790e2fa51b625841830685c08cde129f9",
      "title": "Asymmetric Transfer Learning with Deep Gaussian Processes",
      "venue": "International Conference on Machine Learning",
      "year": 2015,
      "referenceCount": 25,
      "citationCount": 52,
      "authors": [
        {
          "authorId": "11213556",
          "name": "M. Kandemir"
        }
      ]
    },
    {
      "paperId": "d73b24d310c9b3fba8e328a9fd7b13a7ba8ebb93",
      "externalIds": {
        "DBLP": "journals/dai/AhishakiyeK24",
        "DOI": "10.1007/s44163-024-00185-6",
        "CorpusId": 273710216
      },
      "url": "https://www.semanticscholar.org/paper/d73b24d310c9b3fba8e328a9fd7b13a7ba8ebb93",
      "title": "Optimizing cervical cancer classification using transfer learning with deep gaussian processes and support vector machines",
      "venue": "Discover Artificial Intelligence",
      "year": 2024,
      "referenceCount": 55,
      "citationCount": 11,
      "authors": [
        {
          "authorId": "72588086",
          "name": "Emmanuel Ahishakiye"
        },
        {
          "authorId": "51984278",
          "name": "Fredrick Kanobe"
        }
      ]
    },
    {
      "paperId": "b991a886ce8b12d8b4fd851b0b1e69bd207e8dac",
      "externalIds": {
        "DBLP": "journals/ijhpca/LuszczekSD23",
        "DOI": "10.1177/10943420231166365",
        "CorpusId": 257877883
      },
      "url": "https://www.semanticscholar.org/paper/b991a886ce8b12d8b4fd851b0b1e69bd207e8dac",
      "title": "Combining multitask and transfer learning with deep Gaussian processes for autotuning-based performance engineering",
      "venue": "The international journal of high performance computing applications",
      "year": 2023,
      "referenceCount": 58,
      "citationCount": 7,
      "authors": [
        {
          "authorId": "1741269",
          "name": "P. Luszczek"
        },
        {
          "authorId": "1403462444",
          "name": "Wissam M. Sid-Lakhdar"
        },
        {
          "authorId": "1708869",
          "name": "J. Dongarra"
        }
      ]
    },
    {
      "paperId": "12f33546efa3c7fdadfdb41fe0190767ef18f5fc",
      "externalIds": {
        "MAG": "3034782107",
        "DBLP": "journals/pami/SunDL21",
        "DOI": "10.1109/tpami.2020.3001433",
        "CorpusId": 220976768,
        "PubMed": "32750782"
      },
      "url": "https://www.semanticscholar.org/paper/12f33546efa3c7fdadfdb41fe0190767ef18f5fc",
      "title": "Multi-View Representation Learning With Deep Gaussian Processes",
      "venue": "IEEE Transactions on Pattern Analysis and Machine Intelligence",
      "year": 2020,
      "referenceCount": 0,
      "citationCount": 78,
      "authors": [
        {
          "authorId": "20632291",
          "name": "Shiliang Sun"
        },
        {
          "authorId": "50702793",
          "name": "Wenbo Dong"
        },
        {
          "authorId": "10440006",
          "name": "Qiuyang Liu"
        }
      ]
    },
    {
      "paperId": "4fc986dcb0bb638e26de7e56fdd0e463fdce327f",
      "externalIds": {
        "MAG": "3024287798",
        "ArXiv": "1905.12407",
        "CorpusId": 211259523
      },
      "url": "https://www.semanticscholar.org/paper/4fc986dcb0bb638e26de7e56fdd0e463fdce327f",
      "title": "Non-linear Multitask Learning with Deep Gaussian Processes",
      "venue": "",
      "year": 2019,
      "referenceCount": 28,
      "citationCount": 6,
      "authors": [
        {
          "authorId": "72496634",
          "name": "Ayman Boustati"
        },
        {
          "authorId": "1760294",
          "name": "T. Damoulas"
        },
        {
          "authorId": "49735642",
          "name": "R. Savage"
        }
      ]
    },
    {
      "paperId": "fa12c53142830565573b2b154badfaa275ee9e61",
      "externalIds": {
        "DBLP": "journals/pami/DongS23",
        "DOI": "10.1109/TPAMI.2023.3316671",
        "CorpusId": 262070025,
        "PubMed": "37725728"
      },
      "url": "https://www.semanticscholar.org/paper/fa12c53142830565573b2b154badfaa275ee9e61",
      "title": "Multi-View Deep Gaussian Processes for Supervised Learning",
      "venue": "IEEE Transactions on Pattern Analysis and Machine Intelligence",
      "year": 2023,
      "referenceCount": 58,
      "citationCount": 6,
      "authors": [
        {
          "authorId": "2191056916",
          "name": "Wen-Xia Dong"
        },
        {
          "authorId": "32484584",
          "name": "S. Sun"
        }
      ]
    },
    {
      "paperId": "cc23659e081440b23749579dd6c488d147a45534",
      "externalIds": {
        "DBLP": "journals/corr/abs-1910-05199",
        "MAG": "2980037473",
        "ArXiv": "1910.05199",
        "CorpusId": 204401913
      },
      "url": "https://www.semanticscholar.org/paper/cc23659e081440b23749579dd6c488d147a45534",
      "title": "Deep Kernel Transfer in Gaussian Processes for Few-shot Learning",
      "venue": "arXiv.org",
      "year": 2019,
      "referenceCount": 48,
      "citationCount": 20,
      "authors": [
        {
          "authorId": "3366919",
          "name": "Massimiliano Patacchiola"
        },
        {
          "authorId": "31463533",
          "name": "Jack Turner"
        },
        {
          "authorId": "37120806",
          "name": "Elliot J. Crowley"
        },
        {
          "authorId": "1728216",
          "name": "A. Storkey"
        }
      ]
    },
    {
      "paperId": "5e55cb2e6eb5ddd8dde595fce6e43dd77b9e3f9e",
      "externalIds": {
        "PubMedCentral": "12128098",
        "DOI": "10.1021/acs.jpclett.5c00592",
        "CorpusId": 278729768,
        "PubMed": "40383929"
      },
      "url": "https://www.semanticscholar.org/paper/5e55cb2e6eb5ddd8dde595fce6e43dd77b9e3f9e",
      "title": "Bayesian Optimization with Gaussian Processes Assisted by Deep Learning for Material Designs",
      "venue": "Journal of Physical Chemistry Letters",
      "year": 2025,
      "referenceCount": 35,
      "citationCount": 3,
      "authors": [
        {
          "authorId": "2293710606",
          "name": "Shin Kiyohara"
        },
        {
          "authorId": "2253701206",
          "name": "Yu Kumagai"
        }
      ]
    },
    {
      "paperId": "f4166cc0f6d8549bc3c45b0d671ba98de3e01087",
      "externalIds": {
        "DBLP": "phd/ethos/Zhang20c",
        "CorpusId": 251471633
      },
      "url": "https://www.semanticscholar.org/paper/f4166cc0f6d8549bc3c45b0d671ba98de3e01087",
      "title": "Gaussian processes based transfer learning for online multiple-person tracking and building blocks for deep learning",
      "venue": "",
      "year": 2020,
      "referenceCount": 0,
      "citationCount": 1,
      "authors": [
        {
          "authorId": "46824161",
          "name": "Baobing Zhang"
        }
      ]
    },
    {
      "paperId": "e54bd75efb3242e043d7c852f33ced0bb51f1cb3",
      "externalIds": {
        "DBLP": "conf/hpec/Sid-LakhdarALD22",
        "DOI": "10.1109/HPEC55821.2022.9926396",
        "CorpusId": 253251234
      },
      "url": "https://www.semanticscholar.org/paper/e54bd75efb3242e043d7c852f33ced0bb51f1cb3",
      "title": "Deep Gaussian process with multitask and transfer learning for performance optimization",
      "venue": "IEEE Conference on High Performance Extreme Computing",
      "year": 2022,
      "referenceCount": 21,
      "citationCount": 1,
      "authors": [
        {
          "authorId": "1403462444",
          "name": "Wissam M. Sid-Lakhdar"
        },
        {
          "authorId": "2113344",
          "name": "M. Aznaveh"
        },
        {
          "authorId": "1741269",
          "name": "P. Luszczek"
        },
        {
          "authorId": "1708869",
          "name": "J. Dongarra"
        }
      ]
    }
  ]
}