{
  "total": 222,
  "offset": 0,
  "next": 10,
  "data": [
    {
      "paperId": "edf658590695a981f9dad41f5fe41e496d6ccc31",
      "externalIds": {
        "MAG": "2963609427",
        "DBLP": "journals/corr/LiOW16",
        "ArXiv": "1604.00676",
        "CorpusId": 5849029
      },
      "url": "https://www.semanticscholar.org/paper/edf658590695a981f9dad41f5fe41e496d6ccc31",
      "title": "Multi-Bias Non-linear Activation in Deep Neural Networks",
      "venue": "International Conference on Machine Learning",
      "year": 2016,
      "referenceCount": 25,
      "citationCount": 67,
      "authors": [
        {
          "authorId": "46382329",
          "name": "Hongyang Li"
        },
        {
          "authorId": "3001348",
          "name": "Wanli Ouyang"
        },
        {
          "authorId": "31843833",
          "name": "Xiaogang Wang"
        }
      ]
    },
    {
      "paperId": "83ee5ea3c79f9956e59fe16217ad98db87e88cf1",
      "externalIds": {
        "MAG": "1581245121",
        "ArXiv": "0712.0938",
        "DBLP": "journals/corr/abs-0712-0938",
        "CorpusId": 6313308
      },
      "url": "https://www.semanticscholar.org/paper/83ee5ea3c79f9956e59fe16217ad98db87e88cf1",
      "title": "Automatic Pattern Classification by Unsupervised Learning Using Dimensionality Reduction of Data with Mirroring Neural Networks",
      "venue": "arXiv.org",
      "year": 2007,
      "referenceCount": 19,
      "citationCount": 6,
      "authors": [
        {
          "authorId": "3193071",
          "name": "D. R. Deepthi"
        },
        {
          "authorId": "1423723157",
          "name": "G. Krishna"
        },
        {
          "authorId": "144415385",
          "name": "K. Eswaran"
        }
      ]
    },
    {
      "paperId": "7ace0ca30987028861e0edfed4b349bb0fb9e65b",
      "externalIds": {
        "DBLP": "journals/iacr/AsselineauDFM26",
        "CorpusId": 285618457
      },
      "url": "https://www.semanticscholar.org/paper/7ace0ca30987028861e0edfed4b349bb0fb9e65b",
      "title": "Cryptanalytic Extraction of Deep Neural Networks with Non-Linear Activations",
      "venue": "IACR Cryptology ePrint Archive",
      "year": 2026,
      "referenceCount": 19,
      "citationCount": 0,
      "authors": [
        {
          "authorId": "2411027945",
          "name": "Roderick Asselineau"
        },
        {
          "authorId": "3058095",
          "name": "Patrick Derbez"
        },
        {
          "authorId": "1740168",
          "name": "Pierre-Alain Fouque"
        },
        {
          "authorId": "1817082",
          "name": "Brice Minaud"
        }
      ]
    },
    {
      "paperId": "469ffe19bfc74081aa001ce1044c671658f01d53",
      "externalIds": {
        "DBLP": "conf/uss/DiaaFHDEK0LMOAK24",
        "ArXiv": "2306.08538",
        "DOI": "10.48550/arXiv.2306.08538",
        "CorpusId": 259165592
      },
      "url": "https://www.semanticscholar.org/paper/469ffe19bfc74081aa001ce1044c671658f01d53",
      "title": "Fast and Private Inference of Deep Neural Networks by Co-designing Activation Functions",
      "venue": "USENIX Security Symposium",
      "year": 2023,
      "referenceCount": 36,
      "citationCount": 13,
      "authors": [
        {
          "authorId": "2179442643",
          "name": "Abdulrahman Diaa"
        },
        {
          "authorId": "117486919",
          "name": "L. Fenaux"
        },
        {
          "authorId": "2062922894",
          "name": "Thomas Humphries"
        },
        {
          "authorId": "2220101118",
          "name": "Marian Dietz"
        },
        {
          "authorId": "2220099263",
          "name": "Faezeh Ebrahimianghazani"
        },
        {
          "authorId": "23545318",
          "name": "Bailey Kacsmar"
        },
        {
          "authorId": "2108782531",
          "name": "Xinda Li"
        },
        {
          "authorId": "79993101",
          "name": "Nils Lukas"
        },
        {
          "authorId": "2059548651",
          "name": "R. Mahdavi"
        },
        {
          "authorId": "35441897",
          "name": "Simon Oya"
        },
        {
          "authorId": "3219618",
          "name": "Ehsan Amjadian"
        },
        {
          "authorId": "1682949",
          "name": "F. Kerschbaum"
        }
      ]
    },
    {
      "paperId": "4d6e83e568677244c74c032afbd82609dcb5b8eb",
      "externalIds": {
        "DBLP": "journals/corr/abs-2506-10552",
        "ArXiv": "2506.10552",
        "DOI": "10.21468/SciPostPhys.19.6.141",
        "CorpusId": 279318565
      },
      "url": "https://www.semanticscholar.org/paper/4d6e83e568677244c74c032afbd82609dcb5b8eb",
      "title": "On the role of non-linear latent features in bipartite generative neural networks",
      "venue": "SciPost Physics",
      "year": 2025,
      "referenceCount": 71,
      "citationCount": 0,
      "authors": [
        {
          "authorId": "6011777",
          "name": "T. Bonnaire"
        },
        {
          "authorId": "143999532",
          "name": "Giovanni Catania"
        },
        {
          "authorId": "2769325",
          "name": "A. Decelle"
        },
        {
          "authorId": "2237989085",
          "name": "Beatriz Seoane"
        }
      ]
    },
    {
      "paperId": "fa318aa62518cfb1e8bc3543e1ece76c266d5aa5",
      "externalIds": {
        "DOI": "10.1049/elp2.70017",
        "CorpusId": 277368722
      },
      "url": "https://www.semanticscholar.org/paper/fa318aa62518cfb1e8bc3543e1ece76c266d5aa5",
      "title": "Enhanced Multi‐Objective Design Optimisation of Salient Pole Reluctance Magnetic Gear Using Bayesian‐Optimised Artificial Neural Networks",
      "venue": "IET electric power applications",
      "year": 2025,
      "referenceCount": 22,
      "citationCount": 3,
      "authors": [
        {
          "authorId": "2239274853",
          "name": "Aran Shoaei"
        },
        {
          "authorId": "2281544892",
          "name": "Farnam Farshbaf‐Roomi"
        },
        {
          "authorId": "2244038821",
          "name": "Qingsong Wang"
        }
      ]
    },
    {
      "paperId": "2ce5e4df9116fcd955f19df5405d6be36699e36e",
      "externalIds": {
        "ArXiv": "2405.14468",
        "DBLP": "journals/corr/abs-2405-14468",
        "DOI": "10.48550/arXiv.2405.14468",
        "CorpusId": 269982927
      },
      "url": "https://www.semanticscholar.org/paper/2ce5e4df9116fcd955f19df5405d6be36699e36e",
      "title": "Neural Collapse versus Low-rank Bias: Is Deep Neural Collapse Really Optimal?",
      "venue": "arXiv.org",
      "year": 2024,
      "referenceCount": 63,
      "citationCount": 15,
      "authors": [
        {
          "authorId": "2183206926",
          "name": "Peter S'uken'ik"
        },
        {
          "authorId": "2302797572",
          "name": "Marco Mondelli"
        },
        {
          "authorId": "2302802330",
          "name": "Christoph H. Lampert"
        }
      ]
    },
    {
      "paperId": "448d28f57fe1f8f47acb80361b921c9df86bd12d",
      "externalIds": {
        "ArXiv": "2507.04779",
        "CorpusId": 280081903
      },
      "url": "https://www.semanticscholar.org/paper/448d28f57fe1f8f47acb80361b921c9df86bd12d",
      "title": "Constructive Universal Approximation and Sure Convergence for Multi-Layer Neural Networks",
      "venue": "",
      "year": 2025,
      "referenceCount": 60,
      "citationCount": 0,
      "authors": [
        {
          "authorId": "2372268261",
          "name": "Chien-Ming Chi"
        }
      ]
    },
    {
      "paperId": "69d99d62214accd56c921008ef235c5f71f48a04",
      "externalIds": {
        "DBLP": "journals/corr/abs-2411-15111",
        "ArXiv": "2411.15111",
        "DOI": "10.48550/arXiv.2411.15111",
        "CorpusId": 274192499
      },
      "url": "https://www.semanticscholar.org/paper/69d99d62214accd56c921008ef235c5f71f48a04",
      "title": "Learnable Activation Functions in Physics-Informed Neural Networks for Solving Partial Differential Equations",
      "venue": "Computer Physics Communications",
      "year": 2024,
      "referenceCount": 79,
      "citationCount": 14,
      "authors": [
        {
          "authorId": "2302896134",
          "name": "Afrah Farea"
        },
        {
          "authorId": "2270083776",
          "name": "Mustafa Serdar Çelebi"
        }
      ]
    },
    {
      "paperId": "9a81bcfdb802b178af1a15c516e1c00bf50da226",
      "externalIds": {
        "MAG": "2994769837",
        "DBLP": "journals/ijon/CiuparuNM20",
        "DOI": "10.1016/j.neucom.2019.12.014",
        "CorpusId": 211158604
      },
      "url": "https://www.semanticscholar.org/paper/9a81bcfdb802b178af1a15c516e1c00bf50da226",
      "title": "Soft++, a multi-parametric non-saturating non-linearity that improves convergence in deep neural architectures",
      "venue": "Neurocomputing",
      "year": 2020,
      "referenceCount": 46,
      "citationCount": 29,
      "authors": [
        {
          "authorId": "5171820",
          "name": "Andrei Ciuparu"
        },
        {
          "authorId": "1441389610",
          "name": "Adriana Nagy-Dabâcan"
        },
        {
          "authorId": "47104677",
          "name": "R. Muresan"
        }
      ]
    }
  ]
}