{
  "total": 54,
  "offset": 0,
  "next": 10,
  "data": [
    {
      "paperId": "163ef9a63e6713ee155eb58558dfa70dbc6c4d9d",
      "externalIds": {
        "MAG": "2803757380",
        "DBLP": "conf/icml/LinC18",
        "CorpusId": 47021679
      },
      "url": "https://www.semanticscholar.org/paper/163ef9a63e6713ee155eb58558dfa70dbc6c4d9d",
      "title": "Optimal Distributed Learning with Multi-pass Stochastic Gradient Methods",
      "venue": "International Conference on Machine Learning",
      "year": 2018,
      "referenceCount": 56,
      "citationCount": 29,
      "authors": [
        {
          "authorId": "2717346",
          "name": "Junhong Lin"
        },
        {
          "authorId": "1678641",
          "name": "V. Cevher"
        }
      ]
    },
    {
      "paperId": "c18d71cbf9a71bfeb72f2560253369e7f63e3e9d",
      "externalIds": {
        "MAG": "2415274228",
        "DBLP": "journals/corr/LinR16",
        "ArXiv": "1605.08882",
        "CorpusId": 7484197
      },
      "url": "https://www.semanticscholar.org/paper/c18d71cbf9a71bfeb72f2560253369e7f63e3e9d",
      "title": "Optimal Learning for Multi-pass Stochastic Gradient Methods",
      "venue": "Neural Information Processing Systems",
      "year": 2016,
      "referenceCount": 34,
      "citationCount": 37,
      "authors": [
        {
          "authorId": "2717346",
          "name": "Junhong Lin"
        },
        {
          "authorId": "1690976",
          "name": "L. Rosasco"
        }
      ]
    },
    {
      "paperId": "f053f86502b6d9f025f2dc957c756155536241e4",
      "externalIds": {
        "MAG": "2953196074",
        "DBLP": "journals/jmlr/LinR17",
        "CorpusId": 6718568
      },
      "url": "https://www.semanticscholar.org/paper/f053f86502b6d9f025f2dc957c756155536241e4",
      "title": "Optimal Rates for Multi-pass Stochastic Gradient Methods",
      "venue": "Journal of machine learning research",
      "year": 2016,
      "referenceCount": 36,
      "citationCount": 81,
      "authors": [
        {
          "authorId": "2717346",
          "name": "Junhong Lin"
        },
        {
          "authorId": "1690976",
          "name": "L. Rosasco"
        }
      ]
    },
    {
      "paperId": "091a0796b1fd2d896295e7bedb7f8c05c2dba9df",
      "externalIds": {
        "MAG": "2890702650",
        "ArXiv": "1801.07226",
        "DBLP": "journals/jmlr/LinC20a",
        "CorpusId": 52834039
      },
      "url": "https://www.semanticscholar.org/paper/091a0796b1fd2d896295e7bedb7f8c05c2dba9df",
      "title": "Optimal Convergence for Distributed Learning with Stochastic Gradient Methods and Spectral Algorithms",
      "venue": "Journal of machine learning research",
      "year": 2018,
      "referenceCount": 73,
      "citationCount": 37,
      "authors": [
        {
          "authorId": "2717346",
          "name": "Junhong Lin"
        },
        {
          "authorId": "1678641",
          "name": "V. Cevher"
        }
      ]
    },
    {
      "paperId": "b1f33b774abe7d5c4b9d18492c8af20f039c89dc",
      "externalIds": {
        "MAG": "2785109226",
        "DBLP": "journals/corr/abs-1801-07226",
        "CorpusId": 126203275
      },
      "url": "https://www.semanticscholar.org/paper/b1f33b774abe7d5c4b9d18492c8af20f039c89dc",
      "title": "Optimal Convergence for Distributed Learning with Stochastic Gradient Methods and Spectral-Regularization Algorithms",
      "venue": "arXiv.org",
      "year": 2018,
      "referenceCount": 61,
      "citationCount": 13,
      "authors": [
        {
          "authorId": "2717346",
          "name": "Junhong Lin"
        },
        {
          "authorId": "1678641",
          "name": "V. Cevher"
        }
      ]
    },
    {
      "paperId": "3d1c05497c2a9d96019061677a10355c75087e5c",
      "externalIds": {
        "DBLP": "journals/jmlr/LeiHT21",
        "CorpusId": 263897772
      },
      "url": "https://www.semanticscholar.org/paper/3d1c05497c2a9d96019061677a10355c75087e5c",
      "title": "Generalization Performance of Multi-pass Stochastic Gradient Descent with Convex Loss Functions",
      "venue": "Journal of machine learning research",
      "year": 2021,
      "referenceCount": 58,
      "citationCount": 21,
      "authors": [
        {
          "authorId": "2251781608",
          "name": "Yunwen Lei"
        },
        {
          "authorId": "2283076892",
          "name": "Ting Hu"
        },
        {
          "authorId": "2403877114",
          "name": "K. Tang"
        }
      ]
    },
    {
      "paperId": "9bdcb65c86abf05e675346ed9447ba0c92763a31",
      "externalIds": {
        "CorpusId": 231967475
      },
      "url": "https://www.semanticscholar.org/paper/9bdcb65c86abf05e675346ed9447ba0c92763a31",
      "title": "University of Birmingham Generalization performance of multi-pass stochastic gradient descent with convex loss functions",
      "venue": "",
      "year": 2021,
      "referenceCount": 58,
      "citationCount": 9,
      "authors": [
        {
          "authorId": "2365013",
          "name": "Yunwen Lei"
        }
      ]
    },
    {
      "paperId": "5acfd5da080113a007238ed51d3f7a01114a6156",
      "externalIds": {
        "DOI": "10.1016/j.isatra.2024.10.004",
        "CorpusId": 273318532,
        "PubMed": "39472256"
      },
      "url": "https://www.semanticscholar.org/paper/5acfd5da080113a007238ed51d3f7a01114a6156",
      "title": "Optimized distributed formation control using identifier-critic-actor reinforcement learning for a class of stochastic nonlinear multi-agent systems.",
      "venue": "ISA transactions",
      "year": 2024,
      "referenceCount": 38,
      "citationCount": 5,
      "authors": [
        {
          "authorId": "2290350395",
          "name": "Guoxing Wen"
        },
        {
          "authorId": "2239274787",
          "name": "Ben Niu"
        }
      ]
    },
    {
      "paperId": "9fc50ad15b7a12bac65444f030e1189bab1626e2",
      "externalIds": {
        "MAG": "3127825571",
        "CorpusId": 236102011
      },
      "url": "https://www.semanticscholar.org/paper/9fc50ad15b7a12bac65444f030e1189bab1626e2",
      "title": "Adaptive Single-Pass Stochastic Gradient Descent in Input Sparsity Time",
      "venue": "",
      "year": 2021,
      "referenceCount": 0,
      "citationCount": 0,
      "authors": [
        {
          "authorId": "145700959",
          "name": "S. Mahabadi"
        },
        {
          "authorId": "143982862",
          "name": "David P. Woodruff"
        },
        {
          "authorId": "3393628",
          "name": "Samson Zhou"
        }
      ]
    },
    {
      "paperId": "a1f2bc0687482e1d3b4cd204da05e1e04421e4f0",
      "externalIds": {
        "DOI": "10.1109/CAC63892.2024.10865751",
        "CorpusId": 276347420
      },
      "url": "https://www.semanticscholar.org/paper/a1f2bc0687482e1d3b4cd204da05e1e04421e4f0",
      "title": "Distributed Stochastic Averaging Gradient Algorithm over Directed Graph",
      "venue": "ACM Cloud and Autonomic Computing Conference",
      "year": 2024,
      "referenceCount": 6,
      "citationCount": 0,
      "authors": [
        {
          "authorId": "3286661",
          "name": "Jiahong Zhao"
        },
        {
          "authorId": "2322264922",
          "name": "Wenhua Gao"
        }
      ]
    }
  ]
}