{
  "total": 557212,
  "offset": 0,
  "next": 10,
  "data": [
    {
      "paperId": "d83e2bf44f220bbad35d77f448d7b250aebb511c",
      "externalIds": {
        "ArXiv": "2106.11692",
        "CorpusId": 247476406
      },
      "url": "https://www.semanticscholar.org/paper/d83e2bf44f220bbad35d77f448d7b250aebb511c",
      "title": "A Reduction-Based Framework for Conservative Bandits and Reinforcement Learning",
      "venue": "",
      "year": 2021,
      "referenceCount": 32,
      "citationCount": 9,
      "authors": [
        {
          "authorId": "79327071",
          "name": "Yunchang Yang"
        },
        {
          "authorId": null,
          "name": "Tianhao Wu"
        },
        {
          "authorId": "2064919742",
          "name": "Han Zhong"
        },
        {
          "authorId": "51122019",
          "name": "Evrard Garcelon"
        },
        {
          "authorId": "6234609",
          "name": "Matteo Pirotta"
        },
        {
          "authorId": "3254390",
          "name": "A. Lazaric"
        },
        {
          "authorId": "2143440685",
          "name": "Liwei Wang"
        },
        {
          "authorId": "145697585",
          "name": "S. Du"
        }
      ]
    },
    {
      "paperId": "1354a5ef36ffc43b25a5f616349c7b6e5a08ef3a",
      "externalIds": {
        "DBLP": "journals/corr/abs-1911-11337",
        "ArXiv": "1911.11337",
        "MAG": "2989898262",
        "DOI": "10.1016/j.tcs.2026.115966",
        "CorpusId": 208291123
      },
      "url": "https://www.semanticscholar.org/paper/1354a5ef36ffc43b25a5f616349c7b6e5a08ef3a",
      "title": "Contextual Combinatorial Conservative Bandits",
      "venue": "Theoretical Computer Science",
      "year": 2019,
      "referenceCount": 36,
      "citationCount": 7,
      "authors": [
        {
          "authorId": "50982392",
          "name": "Xiaojin Zhang"
        },
        {
          "authorId": "2133435913",
          "name": "Shuai Li"
        },
        {
          "authorId": "2109270350",
          "name": "Weiwen Liu"
        }
      ]
    },
    {
      "paperId": "390efde41d805b8dbc7e2f2c4c3e92643063a500",
      "externalIds": {
        "DBLP": "conf/iclr/YangWZGPLWD22",
        "CorpusId": 268513904
      },
      "url": "https://www.semanticscholar.org/paper/390efde41d805b8dbc7e2f2c4c3e92643063a500",
      "title": "A Reduction-Based Framework for Conservative Bandits and Reinforcement Learning",
      "venue": "International Conference on Learning Representations",
      "year": 2022,
      "referenceCount": 0,
      "citationCount": 0,
      "authors": [
        {
          "authorId": "79327071",
          "name": "Yunchang Yang"
        },
        {
          "authorId": "2249089626",
          "name": "Tianhao Wu"
        },
        {
          "authorId": "2292208646",
          "name": "Han Zhong"
        },
        {
          "authorId": "51122019",
          "name": "Evrard Garcelon"
        },
        {
          "authorId": "6234609",
          "name": "Matteo Pirotta"
        },
        {
          "authorId": "3254390",
          "name": "A. Lazaric"
        },
        {
          "authorId": "2292052801",
          "name": "Liwei Wang"
        },
        {
          "authorId": "2257232253",
          "name": "S. S. Du"
        }
      ]
    },
    {
      "paperId": "684366703e5028a26bc6ceead067fa74f6e53b9e",
      "externalIds": {
        "MAG": "2625612584",
        "DBLP": "journals/corr/WuSLS16",
        "ArXiv": "1602.04282",
        "CorpusId": 1706681
      },
      "url": "https://www.semanticscholar.org/paper/684366703e5028a26bc6ceead067fa74f6e53b9e",
      "title": "Conservative Bandits",
      "venue": "International Conference on Machine Learning",
      "year": 2016,
      "referenceCount": 18,
      "citationCount": 104,
      "authors": [
        {
          "authorId": "2108741890",
          "name": "Yifan Wu"
        },
        {
          "authorId": "2249576",
          "name": "R. Shariff"
        },
        {
          "authorId": "2989692",
          "name": "Tor Lattimore"
        },
        {
          "authorId": "40868287",
          "name": "Csaba Szepesvari"
        }
      ]
    },
    {
      "paperId": "a055fe4021e3d817dd27b7dc77d384c318c74bbf",
      "externalIds": {
        "DBLP": "journals/corr/abs-2510-00602",
        "ArXiv": "2510.00602",
        "DOI": "10.48550/arXiv.2510.00602",
        "CorpusId": 281705656
      },
      "url": "https://www.semanticscholar.org/paper/a055fe4021e3d817dd27b7dc77d384c318c74bbf",
      "title": "Multi-Agent Stage-wise Conservative Linear Bandits",
      "venue": "arXiv.org",
      "year": 2025,
      "referenceCount": 26,
      "citationCount": 1,
      "authors": [
        {
          "authorId": "2383161840",
          "name": "Amirhoseein Afsharrad"
        },
        {
          "authorId": "24282235",
          "name": "Ahmadreza Moradipari"
        },
        {
          "authorId": "2265647172",
          "name": "Sanjay Lall"
        }
      ]
    },
    {
      "paperId": "5cc9cc8a9e48791de876d78702e8a0ffeb4a4969",
      "externalIds": {
        "DBLP": "conf/iclr/DebG025",
        "CorpusId": 278498475
      },
      "url": "https://www.semanticscholar.org/paper/5cc9cc8a9e48791de876d78702e8a0ffeb4a4969",
      "title": "Conservative Contextual Bandits: Beyond Linear Representations",
      "venue": "International Conference on Learning Representations",
      "year": 2025,
      "referenceCount": 0,
      "citationCount": 0,
      "authors": [
        {
          "authorId": "2276606339",
          "name": "Rohan Deb"
        },
        {
          "authorId": "2294564134",
          "name": "Mohammad Ghavamzadeh"
        },
        {
          "authorId": "2273713129",
          "name": "Arindam Banerjee"
        }
      ]
    },
    {
      "paperId": "423a81f3b1e6c7da21c03f8fd5691a7f80b532a7",
      "externalIds": {
        "DBLP": "journals/corr/abs-2412-06165",
        "ArXiv": "2412.06165",
        "DOI": "10.48550/arXiv.2412.06165",
        "CorpusId": 274598044
      },
      "url": "https://www.semanticscholar.org/paper/423a81f3b1e6c7da21c03f8fd5691a7f80b532a7",
      "title": "Conservative Contextual Bandits: Beyond Linear Representations",
      "venue": "arXiv.org",
      "year": 2024,
      "referenceCount": 0,
      "citationCount": 2,
      "authors": [
        {
          "authorId": "2276606339",
          "name": "Rohan Deb"
        },
        {
          "authorId": "2294564134",
          "name": "Mohammad Ghavamzadeh"
        },
        {
          "authorId": "2273713129",
          "name": "Arindam Banerjee"
        }
      ]
    },
    {
      "paperId": "673517dd2b1246721a3f40f930e9d62e217dd051",
      "externalIds": {
        "DBLP": "conf/icml/Takemura23",
        "CorpusId": 260842454
      },
      "url": "https://www.semanticscholar.org/paper/673517dd2b1246721a3f40f930e9d62e217dd051",
      "title": "Contextual Conservative Interleaving Bandits",
      "venue": "International Conference on Machine Learning",
      "year": 2023,
      "referenceCount": 30,
      "citationCount": 0,
      "authors": [
        {
          "authorId": "47431659",
          "name": "Kei Takemura"
        }
      ]
    },
    {
      "paperId": "8290e710f5ec132f58ffc09426688a207aeac2bd",
      "externalIds": {
        "DBLP": "conf/cdc/LinLJMSG22",
        "ArXiv": "2203.15629",
        "DOI": "10.1109/CDC51059.2022.9993209",
        "CorpusId": 247779221
      },
      "url": "https://www.semanticscholar.org/paper/8290e710f5ec132f58ffc09426688a207aeac2bd",
      "title": "Stochastic Conservative Contextual Linear Bandits",
      "venue": "IEEE Conference on Decision and Control",
      "year": 2022,
      "referenceCount": 24,
      "citationCount": 8,
      "authors": [
        {
          "authorId": "120803608",
          "name": "Jiabin Lin"
        },
        {
          "authorId": "46184864",
          "name": "Xian Yeow Lee"
        },
        {
          "authorId": "3896948",
          "name": "T. Jubery"
        },
        {
          "authorId": "11150085",
          "name": "Shana Moothedath"
        },
        {
          "authorId": "144016196",
          "name": "S. Sarkar"
        },
        {
          "authorId": "3042938",
          "name": "B. Ganapathysubramanian"
        }
      ]
    },
    {
      "paperId": "9f5b0618ca328043134ce9f90f04eab02f4c8efc",
      "externalIds": {
        "DBLP": "journals/corr/abs-2010-00081",
        "ArXiv": "2010.00081",
        "MAG": "3090050536",
        "CorpusId": 222091026
      },
      "url": "https://www.semanticscholar.org/paper/9f5b0618ca328043134ce9f90f04eab02f4c8efc",
      "title": "Stage-wise Conservative Linear Bandits",
      "venue": "Neural Information Processing Systems",
      "year": 2020,
      "referenceCount": 31,
      "citationCount": 34,
      "authors": [
        {
          "authorId": "24282235",
          "name": "Ahmadreza Moradipari"
        },
        {
          "authorId": "2405810558",
          "name": "Christos Thrampoulidis"
        },
        {
          "authorId": "1799995",
          "name": "M. Alizadeh"
        }
      ]
    }
  ]
}