{
  "total": 298718,
  "offset": 0,
  "next": 10,
  "data": [
    {
      "paperId": "0c24f8b51c24f4076d7f66bcc274ad599509f27f",
      "externalIds": {
        "DBLP": "journals/corr/abs-2508-01994",
        "ArXiv": "2508.01994",
        "DOI": "10.48550/arXiv.2508.01994",
        "CorpusId": 280421010
      },
      "url": "https://www.semanticscholar.org/paper/0c24f8b51c24f4076d7f66bcc274ad599509f27f",
      "title": "Deeply Dual Supervised learning for melanoma recognition",
      "venue": "arXiv.org",
      "year": 2025,
      "referenceCount": 171,
      "citationCount": 0,
      "authors": [
        {
          "authorId": "2374473359",
          "name": "Rujosh Polma"
        },
        {
          "authorId": "2374472711",
          "name": "Krishnan Menon Iyer"
        }
      ]
    },
    {
      "paperId": "1816a6fee59ed4612c227432f338e82edae86110",
      "externalIds": {
        "DBLP": "journals/pr/LiuZLCLW23",
        "DOI": "10.1016/j.patcog.2023.109774",
        "CorpusId": 259291360
      },
      "url": "https://www.semanticscholar.org/paper/1816a6fee59ed4612c227432f338e82edae86110",
      "title": "WSDS-GAN: A weak-strong dual supervised learning method for underwater image enhancement",
      "venue": "Pattern Recognition",
      "year": 2023,
      "referenceCount": 46,
      "citationCount": 47,
      "authors": [
        {
          "authorId": "2135923756",
          "name": "Qiong Liu"
        },
        {
          "authorId": "2145907267",
          "name": "Qi Zhang"
        },
        {
          "authorId": "2157222739",
          "name": "Wei Liu"
        },
        {
          "authorId": "2624059",
          "name": "Wenbai Chen"
        },
        {
          "authorId": "49543261",
          "name": "Xinwang Liu"
        },
        {
          "authorId": "40178940",
          "name": "Xiangke Wang"
        }
      ]
    },
    {
      "paperId": "52b15103417a47ad20465bccf86e6302391fe9ce",
      "externalIds": {
        "MAG": "2950633959",
        "ArXiv": "1707.00415",
        "DBLP": "journals/corr/XiaQCBYL17",
        "CorpusId": 3730033
      },
      "url": "https://www.semanticscholar.org/paper/52b15103417a47ad20465bccf86e6302391fe9ce",
      "title": "Dual Supervised Learning",
      "venue": "International Conference on Machine Learning",
      "year": 2017,
      "referenceCount": 44,
      "citationCount": 148,
      "authors": [
        {
          "authorId": "2794096",
          "name": "Yingce Xia"
        },
        {
          "authorId": "143826491",
          "name": "Tao Qin"
        },
        {
          "authorId": null,
          "name": "Wei Chen"
        },
        {
          "authorId": "152441498",
          "name": "Jiang Bian"
        },
        {
          "authorId": "1708598",
          "name": "Nenghai Yu"
        },
        {
          "authorId": "2110264337",
          "name": "Tie-Yan Liu"
        }
      ]
    },
    {
      "paperId": "d833a5a729107ad1fbcd6d49f80f5677717bf048",
      "externalIds": {
        "ACL": "P19-1545",
        "DBLP": "conf/acl/SuHC19",
        "MAG": "2949597526",
        "ArXiv": "1905.06196",
        "DOI": "10.18653/v1/P19-1545",
        "CorpusId": 155092173
      },
      "url": "https://www.semanticscholar.org/paper/d833a5a729107ad1fbcd6d49f80f5677717bf048",
      "title": "Dual Supervised Learning for Natural Language Understanding and Generation",
      "venue": "Annual Meeting of the Association for Computational Linguistics",
      "year": 2019,
      "referenceCount": 24,
      "citationCount": 39,
      "authors": [
        {
          "authorId": "27629426",
          "name": "Shang-Yu Su"
        },
        {
          "authorId": "47396497",
          "name": "Chao-Wei Huang"
        },
        {
          "authorId": "1725643",
          "name": "Yun-Nung (Vivian) Chen"
        }
      ]
    },
    {
      "paperId": "5d9d8c13d455cc6c66a97989fd7c594b9c2d9e09",
      "externalIds": {
        "DBLP": "journals/ejasmp/RadzikowskiNWY19",
        "MAG": "2936055714",
        "DOI": "10.1186/s13636-018-0146-4",
        "CorpusId": 93003948
      },
      "url": "https://www.semanticscholar.org/paper/5d9d8c13d455cc6c66a97989fd7c594b9c2d9e09",
      "title": "Dual supervised learning for non-native speech recognition",
      "venue": "EURASIP Journal on Audio, Speech, and Music Processing",
      "year": 2019,
      "referenceCount": 29,
      "citationCount": 21,
      "authors": [
        {
          "authorId": "9006125",
          "name": "K. Radzikowski"
        },
        {
          "authorId": "152244986",
          "name": "R. Nowak"
        },
        {
          "authorId": "2108572084",
          "name": "Le Wang"
        },
        {
          "authorId": "1409223773",
          "name": "O. Yoshie"
        }
      ]
    },
    {
      "paperId": "6dc3be0b337ac0522d5c5db37a91177447960a6a",
      "externalIds": {
        "DBLP": "journals/eswa/LiuKLSLG25",
        "DOI": "10.1016/j.eswa.2025.127339",
        "CorpusId": 277362747
      },
      "url": "https://www.semanticscholar.org/paper/6dc3be0b337ac0522d5c5db37a91177447960a6a",
      "title": "Dual-view cross attention enhanced semi-supervised learning method for discourse cognitive engagement classification in online course discussions",
      "venue": "Expert systems with applications",
      "year": 2025,
      "referenceCount": 48,
      "citationCount": 24,
      "authors": [
        {
          "authorId": "122050823",
          "name": "Shiqi Liu"
        },
        {
          "authorId": "2393592748",
          "name": "Weizheng Kong"
        },
        {
          "authorId": "2306134038",
          "name": "Zhi Liu"
        },
        {
          "authorId": "1874008",
          "name": "Jianwen Sun"
        },
        {
          "authorId": "2300246874",
          "name": "Sannyuya Liu"
        },
        {
          "authorId": "65953975",
          "name": "D. Gašević"
        }
      ]
    },
    {
      "paperId": "96a1797f4c11b8d36dbe2bc1a5fa02a47bbe5182",
      "externalIds": {
        "DOI": "10.1186/s13636-018-0146-4",
        "CorpusId": 256249391
      },
      "url": "https://www.semanticscholar.org/paper/96a1797f4c11b8d36dbe2bc1a5fa02a47bbe5182",
      "title": "Dual supervised learning for non-native speech recognition",
      "venue": "EURASIP Journal on Audio, Speech, and Music Processing",
      "year": 2019,
      "referenceCount": 0,
      "citationCount": 1,
      "authors": [
        {
          "authorId": "9006125",
          "name": "K. Radzikowski"
        },
        {
          "authorId": "2053565454",
          "name": "R. Nowak"
        },
        {
          "authorId": "2108572084",
          "name": "Le Wang"
        },
        {
          "authorId": "1409223773",
          "name": "O. Yoshie"
        }
      ]
    },
    {
      "paperId": "c783a9944d6628702811de58b0f9caa03c4f3ce5",
      "externalIds": {
        "DBLP": "journals/cmig/MalikWGD25",
        "DOI": "10.1016/j.compmedimag.2025.102494",
        "CorpusId": 276089489,
        "PubMed": "39914126"
      },
      "url": "https://www.semanticscholar.org/paper/c783a9944d6628702811de58b0f9caa03c4f3ce5",
      "title": "Efficient diagnosis of retinal disorders using dual-branch semi-supervised learning (DB-SSL): An enhanced multi-class classification approach",
      "venue": "Comput. Medical Imaging Graph.",
      "year": 2025,
      "referenceCount": 43,
      "citationCount": 11,
      "authors": [
        {
          "authorId": "2343541126",
          "name": "Muhammad Hammad Malik"
        },
        {
          "authorId": "2338925124",
          "name": "Zishuo Wan"
        },
        {
          "authorId": "2339239151",
          "name": "Yu Gao"
        },
        {
          "authorId": "2338888983",
          "name": "Da-Wei Ding"
        }
      ]
    },
    {
      "paperId": "2cdfa7d1d18bd7f98cb7cfa8f0237152ac3c40ce",
      "externalIds": {
        "DOI": "10.1007/s11071-025-11101-7",
        "CorpusId": 277600472
      },
      "url": "https://www.semanticscholar.org/paper/2cdfa7d1d18bd7f98cb7cfa8f0237152ac3c40ce",
      "title": "Self-supervised learning for vehicle bearing fault diagnosis based on time–frequency dual-domain contrast and fusion",
      "venue": "Nonlinear dynamics",
      "year": 2025,
      "referenceCount": 44,
      "citationCount": 10,
      "authors": [
        {
          "authorId": "2267882996",
          "name": "Deqiang He"
        },
        {
          "authorId": "2344059002",
          "name": "Yuan Xu"
        },
        {
          "authorId": "2238626829",
          "name": "Haimeng Sun"
        },
        {
          "authorId": "2111474561",
          "name": "Zhenzhen Jin"
        },
        {
          "authorId": "2334817486",
          "name": "Ming Zhao"
        }
      ]
    },
    {
      "paperId": "3f8d4d0b0e5b408864f7f93c9e3aeb1079aba865",
      "externalIds": {
        "DBLP": "journals/tnn/BianLXWYLN25",
        "DOI": "10.1109/TNNLS.2025.3552969",
        "CorpusId": 277735562,
        "PubMed": "40215153"
      },
      "url": "https://www.semanticscholar.org/paper/3f8d4d0b0e5b408864f7f93c9e3aeb1079aba865",
      "title": "Multilevel Contrastive Multiview Clustering With Dual Self-Supervised Learning",
      "venue": "IEEE Transactions on Neural Networks and Learning Systems",
      "year": 2025,
      "referenceCount": 74,
      "citationCount": 9,
      "authors": [
        {
          "authorId": "1657635214",
          "name": "Jintang Bian"
        },
        {
          "authorId": "2293652685",
          "name": "Yixiang Lin"
        },
        {
          "authorId": "2320765870",
          "name": "Xiaohua Xie"
        },
        {
          "authorId": "2317808002",
          "name": "Chang-Dong Wang"
        },
        {
          "authorId": "49576171",
          "name": "Lingxiao Yang"
        },
        {
          "authorId": "2276422963",
          "name": "Jianhuang Lai"
        },
        {
          "authorId": "2237229273",
          "name": "Feiping Nie"
        }
      ]
    }
  ]
}