{
  "total": 231,
  "offset": 0,
  "next": 10,
  "data": [
    {
      "paperId": "473238ddf6f7d30a5eaf0b3c185025c57864c9bd",
      "externalIds": {
        "DBLP": "conf/icml/KimXVS15",
        "MAG": "1874010440",
        "CorpusId": 7488853,
        "PubMed": "26973982"
      },
      "url": "https://www.semanticscholar.org/paper/473238ddf6f7d30a5eaf0b3c185025c57864c9bd",
      "title": "Manifold-valued Dirichlet Processes",
      "venue": "International Conference on Machine Learning",
      "year": 2015,
      "referenceCount": 48,
      "citationCount": 10,
      "authors": [
        {
          "authorId": "2154858133",
          "name": "Hyunwoo J. Kim"
        },
        {
          "authorId": "2110562225",
          "name": "Jia Xu"
        },
        {
          "authorId": "1733005",
          "name": "B. Vemuri"
        },
        {
          "authorId": "144711711",
          "name": "Vikas Singh"
        }
      ]
    },
    {
      "paperId": "b5798880323981687e0cf35053fff6e629140218",
      "externalIds": {
        "MAG": "2950676684",
        "ArXiv": "1512.06236",
        "DOI": "10.1016/J.SPA.2017.04.001",
        "CorpusId": 53358196
      },
      "url": "https://www.semanticscholar.org/paper/b5798880323981687e0cf35053fff6e629140218",
      "title": "Weak Dirichlet processes with jumps",
      "venue": "",
      "year": 2015,
      "referenceCount": 35,
      "citationCount": 17,
      "authors": [
        {
          "authorId": "7814854",
          "name": "Elena Bandini"
        },
        {
          "authorId": "143844995",
          "name": "F. Russo"
        }
      ]
    },
    {
      "paperId": "ab760e252de7cc63d3bf8ec009ec5acba643c8d4",
      "externalIds": {
        "ArXiv": "1509.02855",
        "MAG": "2225661812",
        "DOI": "10.1214/16-ECP4754",
        "CorpusId": 53574978
      },
      "url": "https://www.semanticscholar.org/paper/ab760e252de7cc63d3bf8ec009ec5acba643c8d4",
      "title": "Skorokhod's M1 topology for distribution-valued processes",
      "venue": "",
      "year": 2015,
      "referenceCount": 44,
      "citationCount": 11,
      "authors": [
        {
          "authorId": "49693457",
          "name": "Sean Ledger"
        }
      ]
    },
    {
      "paperId": "8bee6a4a931cd02912967fcbd4369717a0300648",
      "externalIds": {
        "MAG": "2264624378",
        "CorpusId": 124793441
      },
      "url": "https://www.semanticscholar.org/paper/8bee6a4a931cd02912967fcbd4369717a0300648",
      "title": "Analysis Of Some Deterministic and Stochastic Evolution Equations With Solutions Taking Values In An Infinite Dimensional Hilbert Manifold",
      "venue": "",
      "year": 2015,
      "referenceCount": 41,
      "citationCount": 16,
      "authors": [
        {
          "authorId": "1932163395",
          "name": "J. Hussain"
        }
      ]
    },
    {
      "paperId": "e5b49a1aec137d4864bc99b5cf207da31ee2b120",
      "externalIds": {
        "MAG": "2009456713",
        "DBLP": "journals/jcphy/WangZ15",
        "DOI": "10.1016/j.jcp.2014.10.018",
        "CorpusId": 2420506
      },
      "url": "https://www.semanticscholar.org/paper/e5b49a1aec137d4864bc99b5cf207da31ee2b120",
      "title": "A high-accuracy preserving spectral Galerkin method for the Dirichlet boundary-value problem of variable-coefficient conservative fractional diffusion equations",
      "venue": "Journal of Computational Physics",
      "year": 2015,
      "referenceCount": 12,
      "citationCount": 55,
      "authors": [
        {
          "authorId": "49528487",
          "name": "Hong Wang"
        },
        {
          "authorId": "47956877",
          "name": "Xuhao Zhang"
        }
      ]
    },
    {
      "paperId": "04ffd26ea40c82922dbd52bc120d6923fcb57b0a",
      "externalIds": {
        "DBLP": "conf/aistats/StraubCFF15",
        "MAG": "318315622",
        "CorpusId": 6153216
      },
      "url": "https://www.semanticscholar.org/paper/04ffd26ea40c82922dbd52bc120d6923fcb57b0a",
      "title": "A Dirichlet Process Mixture Model for Spherical Data",
      "venue": "International Conference on Artificial Intelligence and Statistics",
      "year": 2015,
      "referenceCount": 50,
      "citationCount": 57,
      "authors": [
        {
          "authorId": "20128275",
          "name": "Julian Straub"
        },
        {
          "authorId": "35526832",
          "name": "Jason Chang"
        },
        {
          "authorId": "2546556",
          "name": "O. Freifeld"
        },
        {
          "authorId": "31496901",
          "name": "John W. Fisher III"
        }
      ]
    },
    {
      "paperId": "8f694a7dea9f2e9c84f4f8b2623c4e1f42c2e55c",
      "externalIds": {
        "ArXiv": "1506.07431",
        "MAG": "2963153449",
        "DOI": "10.1512/IUMJ.2017.66.6129",
        "CorpusId": 41240851
      },
      "url": "https://www.semanticscholar.org/paper/8f694a7dea9f2e9c84f4f8b2623c4e1f42c2e55c",
      "title": "Manifold decompositions and indices of Schr\\\"odinger operators",
      "venue": "",
      "year": 2015,
      "referenceCount": 30,
      "citationCount": 20,
      "authors": [
        {
          "authorId": "97635464",
          "name": "G. Cox"
        },
        {
          "authorId": "153644176",
          "name": "C. Jones"
        },
        {
          "authorId": "2010804",
          "name": "J. Marzuola"
        }
      ]
    },
    {
      "paperId": "dae31ecab335ea12836eee9077d4b884742a44d0",
      "externalIds": {
        "ArXiv": "1509.01283",
        "MAG": "2170677978",
        "CorpusId": 119150598
      },
      "url": "https://www.semanticscholar.org/paper/dae31ecab335ea12836eee9077d4b884742a44d0",
      "title": "Optimal control of nonlinear systems governed by Dirichlet fractional Laplacian in the minimax framework",
      "venue": "",
      "year": 2015,
      "referenceCount": 46,
      "citationCount": 5,
      "authors": [
        {
          "authorId": "3220998",
          "name": "D. Bors"
        }
      ]
    },
    {
      "paperId": "721740d91cf716a179ec716ea241c48c8796f7f1",
      "externalIds": {
        "DBLP": "journals/bise/0001HB15",
        "MAG": "2810907569",
        "DOI": "10.1007/s12599-015-0401-5",
        "CorpusId": 30892786
      },
      "url": "https://www.semanticscholar.org/paper/721740d91cf716a179ec716ea241c48c8796f7f1",
      "title": "Digital Transformation Strategies",
      "venue": "Business & Information Systems Engineering",
      "year": 2015,
      "referenceCount": 11,
      "citationCount": 2342,
      "authors": [
        {
          "authorId": "145831680",
          "name": "C. Matt"
        },
        {
          "authorId": "38659700",
          "name": "T. Hess"
        },
        {
          "authorId": "3041330",
          "name": "Alexander Benlian"
        }
      ]
    },
    {
      "paperId": "e28a8192ed488380888dddef8145b943f29d5be4",
      "externalIds": {
        "MAG": "2102334379",
        "DOI": "10.1002/nme.4898",
        "CorpusId": 4902029
      },
      "url": "https://www.semanticscholar.org/paper/e28a8192ed488380888dddef8145b943f29d5be4",
      "title": "A new formulation for imposing Dirichlet boundary conditions on non‐matching meshes",
      "venue": "",
      "year": 2015,
      "referenceCount": 45,
      "citationCount": 36,
      "authors": [
        {
          "authorId": "97170398",
          "name": "A. C. Ramos"
        },
        {
          "authorId": "144883459",
          "name": "A. M. Aragón"
        },
        {
          "authorId": "2132154",
          "name": "Soheil Soghrati"
        },
        {
          "authorId": "2299499",
          "name": "P. Geubelle"
        },
        {
          "authorId": "114595659",
          "name": "J. Molinari"
        }
      ]
    }
  ]
}