{
  "total": 430,
  "offset": 0,
  "next": 10,
  "data": [
    {
      "paperId": "b9a81ca3b8fc0ca0fab3ef4dad489f94d8dd2550",
      "externalIds": {
        "DBLP": "journals/corr/CortesGKMY16",
        "ArXiv": "1607.01097",
        "MAG": "2464772092",
        "CorpusId": 11206737
      },
      "url": "https://www.semanticscholar.org/paper/b9a81ca3b8fc0ca0fab3ef4dad489f94d8dd2550",
      "title": "AdaNet: Adaptive Structural Learning of Artificial Neural Networks",
      "venue": "International Conference on Machine Learning",
      "year": 2016,
      "referenceCount": 61,
      "citationCount": 296,
      "authors": [
        {
          "authorId": "145115014",
          "name": "Corinna Cortes"
        },
        {
          "authorId": "2360834",
          "name": "X. Gonzalvo"
        },
        {
          "authorId": "46967902",
          "name": "Vitaly Kuznetsov"
        },
        {
          "authorId": "81080659",
          "name": "M. Mohri"
        },
        {
          "authorId": "2108926107",
          "name": "Scott Yang"
        }
      ]
    },
    {
      "paperId": "8d255cca2be1d1a11f0aa3c2c4ef4b83f638611f",
      "externalIds": {
        "CorpusId": 265038919
      },
      "url": "https://www.semanticscholar.org/paper/8d255cca2be1d1a11f0aa3c2c4ef4b83f638611f",
      "title": "AdaNet: Adaptive Structural Learning of Artificial Neural Networks",
      "venue": "",
      "year": 2017,
      "referenceCount": 0,
      "citationCount": 112,
      "authors": []
    },
    {
      "paperId": "f763872c5ef2b685d3585312b08e810c7fcb34e8",
      "externalIds": {
        "ArXiv": "1711.03130",
        "MAG": "2767517755",
        "DBLP": "journals/corr/abs-1711-03130",
        "CorpusId": 30814211
      },
      "url": "https://www.semanticscholar.org/paper/f763872c5ef2b685d3585312b08e810c7fcb34e8",
      "title": "EnergyNet: Energy-based Adaptive Structural Learning of Artificial Neural Network Architectures",
      "venue": "arXiv.org",
      "year": 2017,
      "referenceCount": 29,
      "citationCount": 1,
      "authors": [
        {
          "authorId": "31663448",
          "name": "G. Kristiansen"
        },
        {
          "authorId": "2360834",
          "name": "X. Gonzalvo"
        }
      ]
    },
    {
      "paperId": "5696d16e8cc19c6d72b17a55aac30ecff65ca05a",
      "externalIds": {
        "MAG": "2405008484",
        "DBLP": "journals/aiedam/KontovourkisPL15",
        "DOI": "10.1017/S0890060415000396",
        "CorpusId": 12205759
      },
      "url": "https://www.semanticscholar.org/paper/5696d16e8cc19c6d72b17a55aac30ecff65ca05a",
      "title": "Adaptive kinetic structural behavior through machine learning: Optimizing the process of kinematic transformation using artificial neural networks",
      "venue": "Artificial intelligence for engineering design, analysis and manufacturing",
      "year": 2015,
      "referenceCount": 50,
      "citationCount": 6,
      "authors": [
        {
          "authorId": "143679156",
          "name": "O. Kontovourkis"
        },
        {
          "authorId": "2497849",
          "name": "M. Phocas"
        },
        {
          "authorId": "2299194",
          "name": "I. Lamprou"
        }
      ]
    },
    {
      "paperId": "eed59470ea758d89443cc0ca79ae9537838d0c36",
      "externalIds": {
        "DBLP": "journals/tase/ChenWC25",
        "DOI": "10.1109/TASE.2024.3460389",
        "CorpusId": 273107633
      },
      "url": "https://www.semanticscholar.org/paper/eed59470ea758d89443cc0ca79ae9537838d0c36",
      "title": "Predefined-Time Synchronization for FitzHugh-Nagumo Neural Networks With External Disturbances and Multiple Time Scales: An Adaptive Control Approach",
      "venue": "IEEE Transactions on Automation Science and Engineering",
      "year": 2025,
      "referenceCount": 48,
      "citationCount": 4,
      "authors": [
        {
          "authorId": "2238726120",
          "name": "Shuting Chen"
        },
        {
          "authorId": "1491239348",
          "name": "Ying Wan"
        },
        {
          "authorId": "2239009654",
          "name": "Jinde Cao"
        }
      ]
    },
    {
      "paperId": "9d6949290c39f90de4a3362661842909efda7d56",
      "externalIds": {
        "PubMedCentral": "10855492",
        "DOI": "10.3390/ijms25031546",
        "CorpusId": 267287012,
        "PubMed": "38338828"
      },
      "url": "https://www.semanticscholar.org/paper/9d6949290c39f90de4a3362661842909efda7d56",
      "title": "Grid-Based Structural and Dimensional Skin Cancer Classification with Self-Featured Optimized Explainable Deep Convolutional Neural Networks",
      "venue": "International Journal of Molecular Sciences",
      "year": 2024,
      "referenceCount": 49,
      "citationCount": 22,
      "authors": [
        {
          "authorId": "2183836087",
          "name": "Kavita Behara"
        },
        {
          "authorId": "8129271",
          "name": "Ernest Bhero"
        },
        {
          "authorId": "2281112514",
          "name": "J. Agee"
        }
      ]
    },
    {
      "paperId": "e0787274657ec113b10a7b512946580e66e54ba2",
      "externalIds": {
        "MAG": "2993541762",
        "DOI": "10.1109/ICTCS.2019.8923070",
        "CorpusId": 208883919
      },
      "url": "https://www.semanticscholar.org/paper/e0787274657ec113b10a7b512946580e66e54ba2",
      "title": "Learning with Dynamic Architectures for Artificial Neural Networks - Adaptive Batch Size Approach",
      "venue": "Italian Conference on Theoretical Computer Science",
      "year": 2019,
      "referenceCount": 22,
      "citationCount": 3,
      "authors": [
        {
          "authorId": "2274894808",
          "name": "Reham Saeed"
        },
        {
          "authorId": "2549042",
          "name": "Rawan Ghnemat"
        },
        {
          "authorId": "2065121472",
          "name": "Ghassen Benbrahim"
        },
        {
          "authorId": "1452350849",
          "name": "Ammar Elhassan"
        }
      ]
    },
    {
      "paperId": "00c4d63217cf829b1ec622b6622226e52a57153f",
      "externalIds": {
        "PubMedCentral": "11524185",
        "DOI": "10.1126/sciadv.adl3931",
        "CorpusId": 273700004,
        "PubMed": "39475619"
      },
      "url": "https://www.semanticscholar.org/paper/00c4d63217cf829b1ec622b6622226e52a57153f",
      "title": "Computation noise promotes zero-shot adaptation to uncertainty during decision-making in artificial neural networks",
      "venue": "Science Advances",
      "year": 2024,
      "referenceCount": 57,
      "citationCount": 6,
      "authors": [
        {
          "authorId": "90943796",
          "name": "Charles Findling"
        },
        {
          "authorId": "2305647135",
          "name": "Valentin Wyart"
        }
      ]
    },
    {
      "paperId": "24cd816e763a23469f7ac93f47e745d71faaaf53",
      "externalIds": {
        "DOI": "10.1515/mt-2024-0514",
        "CorpusId": 276597553
      },
      "url": "https://www.semanticscholar.org/paper/24cd816e763a23469f7ac93f47e745d71faaaf53",
      "title": "Enhanced hippopotamus optimization algorithm and artificial neural network for mechanical component design",
      "venue": "Materials Testing",
      "year": 2025,
      "referenceCount": 28,
      "citationCount": 11,
      "authors": [
        {
          "authorId": "31777558",
          "name": "Pranav Mehta"
        },
        {
          "authorId": "1800189",
          "name": "S. M. Sait"
        },
        {
          "authorId": "153585663",
          "name": "B. Yildiz"
        },
        {
          "authorId": "2269901712",
          "name": "Ali Rıza Yıldız"
        }
      ]
    },
    {
      "paperId": "306975dfe283ce1b8de5336a881750c930565e18",
      "externalIds": {
        "DOI": "10.1109/ICCDS64403.2025.11209727",
        "CorpusId": 282759990
      },
      "url": "https://www.semanticscholar.org/paper/306975dfe283ce1b8de5336a881750c930565e18",
      "title": "Predictive Modeling for Earthquake-Resilient Structures Using AI: Structural Neural Adaptive Architecture",
      "venue": "International Conference on Computing and Data Science",
      "year": 2025,
      "referenceCount": 19,
      "citationCount": 0,
      "authors": [
        {
          "authorId": "2353602192",
          "name": "P. Patil"
        },
        {
          "authorId": "2390639938",
          "name": "S. D. Ingle"
        }
      ]
    }
  ]
}