{
  "total": 44,
  "offset": 0,
  "next": 10,
  "data": [
    {
      "paperId": "2d08ed53491053d84b6de89aedbf2178b9c8cf84",
      "externalIds": {
        "DBLP": "journals/corr/abs-1803-03382",
        "MAG": "2789543585",
        "ArXiv": "1803.03382",
        "CorpusId": 4720016
      },
      "url": "https://www.semanticscholar.org/paper/2d08ed53491053d84b6de89aedbf2178b9c8cf84",
      "title": "Fast Decoding in Sequence Models using Discrete Latent Variables",
      "venue": "International Conference on Machine Learning",
      "year": 2018,
      "referenceCount": 51,
      "citationCount": 251,
      "authors": [
        {
          "authorId": "69894932",
          "name": "Łukasz Kaiser"
        },
        {
          "authorId": "39788470",
          "name": "Aurko Roy"
        },
        {
          "authorId": "40348417",
          "name": "Ashish Vaswani"
        },
        {
          "authorId": "3877127",
          "name": "Niki Parmar"
        },
        {
          "authorId": "1751569",
          "name": "Samy Bengio"
        },
        {
          "authorId": "39328010",
          "name": "Jakob Uszkoreit"
        },
        {
          "authorId": "1846258",
          "name": "Noam Shazeer"
        }
      ]
    },
    {
      "paperId": "fd1a3ae69de08e0c0d37e6098ee0474771158106",
      "externalIds": {
        "DOI": "10.3390/math13122012",
        "CorpusId": 279455739
      },
      "url": "https://www.semanticscholar.org/paper/fd1a3ae69de08e0c0d37e6098ee0474771158106",
      "title": "Recursive Bayesian Decoding in State Observation Models: Theory and Application in Quantum-Based Inference",
      "venue": "Mathematics",
      "year": 2025,
      "referenceCount": 0,
      "citationCount": 0,
      "authors": [
        {
          "authorId": "30960254",
          "name": "Branislav Rudić"
        },
        {
          "authorId": "1397312440",
          "name": "Markus Pichler-Scheder"
        },
        {
          "authorId": "2335890754",
          "name": "Dmitry Efrosinin"
        }
      ]
    },
    {
      "paperId": "d6f65530f57155e2ddae3a40fe40160a11e2e119",
      "externalIds": {
        "ArXiv": "2208.05482",
        "DBLP": "journals/corr/abs-2208-05482",
        "DOI": "10.1145/3511808.3557397",
        "CorpusId": 251492896
      },
      "url": "https://www.semanticscholar.org/paper/d6f65530f57155e2ddae3a40fe40160a11e2e119",
      "title": "Modeling Diverse Chemical Reactions for Single-step Retrosynthesis via Discrete Latent Variables",
      "venue": "International Conference on Information and Knowledge Management",
      "year": 2022,
      "referenceCount": 57,
      "citationCount": 11,
      "authors": [
        {
          "authorId": "2111893823",
          "name": "Huarui He"
        },
        {
          "authorId": "2146042326",
          "name": "Jie Wang"
        },
        {
          "authorId": "2117421242",
          "name": "Yunfei Liu"
        },
        {
          "authorId": "144864333",
          "name": "Feng Wu"
        }
      ]
    },
    {
      "paperId": "028290751247574e802b056e4f17ee47fe5b5508",
      "externalIds": {
        "MAG": "2479608706",
        "DBLP": "journals/tfs/Ramasso17",
        "DOI": "10.1109/TFUZZ.2016.2598361",
        "CorpusId": 6484352
      },
      "url": "https://www.semanticscholar.org/paper/028290751247574e802b056e4f17ee47fe5b5508",
      "title": "Inference and Learning in Evidential Discrete Latent Markov Models",
      "venue": "IEEE transactions on fuzzy systems",
      "year": 2017,
      "referenceCount": 51,
      "citationCount": 6,
      "authors": [
        {
          "authorId": "2660547",
          "name": "E. Ramasso"
        }
      ]
    },
    {
      "paperId": "300f3516e011087ed4c95f4990f7e7b12405a895",
      "externalIds": {
        "MAG": "3087823228",
        "DBLP": "journals/sncs/OsaI20",
        "DOI": "10.1007/s42979-020-00324-7",
        "CorpusId": 258701935
      },
      "url": "https://www.semanticscholar.org/paper/300f3516e011087ed4c95f4990f7e7b12405a895",
      "title": "Goal-Conditioned Variational Autoencoder Trajectory Primitives with Continuous and Discrete Latent Codes",
      "venue": "SN Computer Science",
      "year": 2019,
      "referenceCount": 29,
      "citationCount": 5,
      "authors": [
        {
          "authorId": "40229316",
          "name": "Takayuki Osa"
        },
        {
          "authorId": "2217369971",
          "name": "Shuehi Ikemoto"
        }
      ]
    },
    {
      "paperId": "d6cfb4e345b1031040ccd3683730854c560a2b0d",
      "externalIds": {
        "ArXiv": "1908.07181",
        "MAG": "2996843693",
        "DBLP": "conf/aaai/ShuLNC20",
        "DOI": "10.1609/AAAI.V34I05.6413",
        "CorpusId": 201103818
      },
      "url": "https://www.semanticscholar.org/paper/d6cfb4e345b1031040ccd3683730854c560a2b0d",
      "title": "Latent-Variable Non-Autoregressive Neural Machine Translation with Deterministic Inference using a Delta Posterior",
      "venue": "AAAI Conference on Artificial Intelligence",
      "year": 2019,
      "referenceCount": 35,
      "citationCount": 125,
      "authors": [
        {
          "authorId": "7412686",
          "name": "Raphael Shu"
        },
        {
          "authorId": "100811091",
          "name": "Jason Lee"
        },
        {
          "authorId": "48731103",
          "name": "Hideki Nakayama"
        },
        {
          "authorId": "1979489",
          "name": "Kyunghyun Cho"
        }
      ]
    },
    {
      "paperId": "8228f2230ad1f6364436cf98781b0e7fbd426f91",
      "externalIds": {
        "DOI": "10.1080/01621459.2023.2252570",
        "CorpusId": 261387143,
        "PubMed": "39323740"
      },
      "url": "https://www.semanticscholar.org/paper/8228f2230ad1f6364436cf98781b0e7fbd426f91",
      "title": "Exact Decoding of a Sequentially Markov Coalescent Model in Genetics",
      "venue": "Journal of the American Statistical Association",
      "year": 2023,
      "referenceCount": 62,
      "citationCount": 3,
      "authors": [
        {
          "authorId": "120647931",
          "name": "Caleb Ki"
        },
        {
          "authorId": "2281294",
          "name": "Jonathan Terhorst"
        }
      ]
    },
    {
      "paperId": "a065d570a29a01f72b72f656a732b475b7be4d9c",
      "externalIds": {
        "MAG": "3104610791",
        "DBLP": "conf/emnlp/JhamtaniB20",
        "ArXiv": "2010.03272",
        "ACL": "2020.findings-emnlp.325",
        "DOI": "10.18653/v1/2020.findings-emnlp.325",
        "CorpusId": 222178963
      },
      "url": "https://www.semanticscholar.org/paper/a065d570a29a01f72b72f656a732b475b7be4d9c",
      "title": "Narrative Text Generation with a Latent Discrete Plan",
      "venue": "Findings",
      "year": 2020,
      "referenceCount": 41,
      "citationCount": 18,
      "authors": [
        {
          "authorId": "2006291",
          "name": "Harsh Jhamtani"
        },
        {
          "authorId": "2353956488",
          "name": "Taylor Berg-Kirkpatrick"
        }
      ]
    },
    {
      "paperId": "c7c01260086c4fa0428f945db35ba98c01d998ea",
      "externalIds": {
        "DBLP": "journals/caaitrit/LiuZH25",
        "DOI": "10.1049/cit2.70005",
        "CorpusId": 277562414
      },
      "url": "https://www.semanticscholar.org/paper/c7c01260086c4fa0428f945db35ba98c01d998ea",
      "title": "Molecular Retrosynthesis Top-K Prediction Based on the Latent Generation Process",
      "venue": "CAAI Transactions on Intelligence Technology",
      "year": 2025,
      "referenceCount": 27,
      "citationCount": 0,
      "authors": [
        {
          "authorId": "2108058450",
          "name": "Yupeng Liu"
        },
        {
          "authorId": "2354320807",
          "name": "Han Zhang"
        },
        {
          "authorId": "2336958775",
          "name": "Rui Hu"
        }
      ]
    },
    {
      "paperId": "29655c10a041bcbdf7e039c8eca9675cc62213b6",
      "externalIds": {
        "ArXiv": "2312.03596",
        "DBLP": "conf/cvpr/Pinyoanuntapong24",
        "DOI": "10.1109/CVPR52733.2024.00153",
        "CorpusId": 265664809
      },
      "url": "https://www.semanticscholar.org/paper/29655c10a041bcbdf7e039c8eca9675cc62213b6",
      "title": "MMM: Generative Masked Motion Model",
      "venue": "Computer Vision and Pattern Recognition",
      "year": 2023,
      "referenceCount": 45,
      "citationCount": 128,
      "authors": [
        {
          "authorId": "2188991875",
          "name": "Ekkasit Pinyoanuntapong"
        },
        {
          "authorId": "2142755476",
          "name": "Pu Wang"
        },
        {
          "authorId": "2271374843",
          "name": "Minwoo Lee"
        },
        {
          "authorId": "2271579807",
          "name": "Chen Chen"
        }
      ]
    }
  ]
}