{
  "total": 87,
  "offset": 0,
  "next": 10,
  "data": [
    {
      "paperId": "f0f5e63ca2b8ee32d33c2489225445419364ea99",
      "externalIds": {
        "DBLP": "conf/icml/BerlindU15",
        "MAG": "1870462933",
        "CorpusId": 14404795
      },
      "url": "https://www.semanticscholar.org/paper/f0f5e63ca2b8ee32d33c2489225445419364ea99",
      "title": "Active Nearest Neighbors in Changing Environments",
      "venue": "International Conference on Machine Learning",
      "year": 2015,
      "referenceCount": 32,
      "citationCount": 36,
      "authors": [
        {
          "authorId": "49153699",
          "name": "C. Berlind"
        },
        {
          "authorId": "2224151",
          "name": "Ruth Urner"
        }
      ]
    },
    {
      "paperId": "28a0848f1120290269c01abee3179ec9ab440b00",
      "externalIds": {
        "CorpusId": 18132018
      },
      "url": "https://www.semanticscholar.org/paper/28a0848f1120290269c01abee3179ec9ab440b00",
      "title": "Active Nearest Neighbors in Changing Environments : Supplementary Material",
      "venue": "",
      "year": 2015,
      "referenceCount": 0,
      "citationCount": 0,
      "authors": [
        {
          "authorId": "49153699",
          "name": "C. Berlind"
        },
        {
          "authorId": "2224151",
          "name": "Ruth Urner"
        }
      ]
    },
    {
      "paperId": "611d43f76a67e65ac0a5c0d79487839c94e3d0ae",
      "externalIds": {
        "MAG": "2556512824",
        "CorpusId": 54953216
      },
      "url": "https://www.semanticscholar.org/paper/611d43f76a67e65ac0a5c0d79487839c94e3d0ae",
      "title": "Density-Based K-Nearest Neighbor Active Learning for Improving Farsi-English Statistical Machine Translation System",
      "venue": "",
      "year": 2015,
      "referenceCount": 52,
      "citationCount": 0,
      "authors": [
        {
          "authorId": "3112094",
          "name": "S. Bakhshaei"
        },
        {
          "authorId": "1682051",
          "name": "R. Safabakhsh"
        },
        {
          "authorId": "2490162",
          "name": "Shahram Khadivi"
        }
      ]
    },
    {
      "paperId": "5ebfb42c15ce16e3edbb96f84113a070f3df6777",
      "externalIds": {
        "DBLP": "journals/jcst/RyuJB15",
        "MAG": "2192239100",
        "DOI": "10.1007/s11390-015-1575-5",
        "CorpusId": 15274326
      },
      "url": "https://www.semanticscholar.org/paper/5ebfb42c15ce16e3edbb96f84113a070f3df6777",
      "title": "A Hybrid Instance Selection Using Nearest-Neighbor for Cross-Project Defect Prediction",
      "venue": "Journal of Computational Science and Technology",
      "year": 2015,
      "referenceCount": 27,
      "citationCount": 113,
      "authors": [
        {
          "authorId": "1912898",
          "name": "Duksan Ryu"
        },
        {
          "authorId": "2422885",
          "name": "Jong-In Jang"
        },
        {
          "authorId": "2186147",
          "name": "Jongmoon Baik"
        }
      ]
    },
    {
      "paperId": "f64eb3c50ca077e1dbc3e5874ed0392affcbb1a0",
      "externalIds": {
        "MAG": "1763330462",
        "DBLP": "journals/access/KomaiSHN15",
        "DOI": "10.1109/ACCESS.2015.2445323",
        "CorpusId": 10552761
      },
      "url": "https://www.semanticscholar.org/paper/f64eb3c50ca077e1dbc3e5874ed0392affcbb1a0",
      "title": "${k}$  Nearest Neighbor Search for Location-Dependent Sensor Data in MANETs",
      "venue": "IEEE Access",
      "year": 2015,
      "referenceCount": 23,
      "citationCount": 26,
      "authors": [
        {
          "authorId": "2190033",
          "name": "Yuka Komai"
        },
        {
          "authorId": "2081851",
          "name": "Yuya Sasaki"
        },
        {
          "authorId": "144337552",
          "name": "T. Hara"
        },
        {
          "authorId": "34957142",
          "name": "S. Nishio"
        }
      ]
    },
    {
      "paperId": "58ed8f935969b53cebd6a6e11a7b0d5c1295666a",
      "externalIds": {
        "MAG": "1161315087",
        "DOI": "10.1134/S0023158415040023",
        "CorpusId": 93589842
      },
      "url": "https://www.semanticscholar.org/paper/58ed8f935969b53cebd6a6e11a7b0d5c1295666a",
      "title": "Nature of the active sites of ferrospheres in the oxidative condensation of methane",
      "venue": "Kinetics and catalysis",
      "year": 2015,
      "referenceCount": 26,
      "citationCount": 2,
      "authors": [
        {
          "authorId": "15296861",
          "name": "A. Anshits"
        },
        {
          "authorId": "91668963",
          "name": "O. Bayukov"
        },
        {
          "authorId": "92220056",
          "name": "N. Anshits"
        },
        {
          "authorId": "92719564",
          "name": "O. N. Pletnev"
        },
        {
          "authorId": "14287622",
          "name": "E. Rabchevskiĭ"
        },
        {
          "authorId": "13324869",
          "name": "S. Vereshchagin"
        },
        {
          "authorId": "10343590",
          "name": "E. Kondratenko"
        }
      ]
    },
    {
      "paperId": "ced1f1170710a294528532f493fddc26a1f6d355",
      "externalIds": {
        "MAG": "2186147066",
        "DOI": "10.1093/CZOOLO/61.1.10",
        "CorpusId": 11957440
      },
      "url": "https://www.semanticscholar.org/paper/ced1f1170710a294528532f493fddc26a1f6d355",
      "title": "Annoying neighbors: Multi-scale distribution determinants of two sympatric sibling species of birds",
      "venue": "",
      "year": 2015,
      "referenceCount": 40,
      "citationCount": 5,
      "authors": [
        {
          "authorId": "6083778",
          "name": "A. Guillaumet"
        },
        {
          "authorId": "3871619",
          "name": "G. Léotard"
        }
      ]
    },
    {
      "paperId": "9125b9b8f027405bbb90fa8161bb76c1cb5ba938",
      "externalIds": {
        "MAG": "2322861526",
        "DOI": "10.15680/IJIRCCE.2015.0304045",
        "CorpusId": 59438564
      },
      "url": "https://www.semanticscholar.org/paper/9125b9b8f027405bbb90fa8161bb76c1cb5ba938",
      "title": "Prediction Using Back Propagation and k-Nearest Neighbor (k-NN) Algorithm",
      "venue": "",
      "year": 2015,
      "referenceCount": 8,
      "citationCount": 1,
      "authors": [
        {
          "authorId": "2066163136",
          "name": "Tejaswini Patil"
        },
        {
          "authorId": "2061117417",
          "name": "Karishma Patil"
        },
        {
          "authorId": "2289082184",
          "name": "D. Sonawane"
        },
        {
          "authorId": "2094021466",
          "name": "raprakash"
        }
      ]
    },
    {
      "paperId": "6e3c65ec706bc567dd7873077757b675f76b3303",
      "externalIds": {
        "DOI": "10.1007/s11390-015-1575-5",
        "CorpusId": 255162994
      },
      "url": "https://www.semanticscholar.org/paper/6e3c65ec706bc567dd7873077757b675f76b3303",
      "title": "A Hybrid Instance Selection Using Nearest-Neighbor for Cross-Project Defect Prediction",
      "venue": "Journal of Computational Science and Technology",
      "year": 2015,
      "referenceCount": 0,
      "citationCount": 0,
      "authors": [
        {
          "authorId": "1912898",
          "name": "Duksan Ryu"
        },
        {
          "authorId": "2422885",
          "name": "Jong-In Jang"
        },
        {
          "authorId": "98798518",
          "name": "Jong-Chan Baik"
        }
      ]
    },
    {
      "paperId": "16beecb88feab8665ead261dfe1e7e8de9e5e275",
      "externalIds": {
        "MAG": "2275168231",
        "DOI": "10.1088/1674-1056/25/1/017301",
        "CorpusId": 21675883
      },
      "url": "https://www.semanticscholar.org/paper/16beecb88feab8665ead261dfe1e7e8de9e5e275",
      "title": "Manipulating coupling state and magnetism of Mn-doped ZnO nanocrystals by changing the coordination environment of Mn via hydrogen annealing",
      "venue": "",
      "year": 2015,
      "referenceCount": 37,
      "citationCount": 5,
      "authors": [
        {
          "authorId": "2177560503",
          "name": "Y. Cheng 程"
        },
        {
          "authorId": "2148755318",
          "name": "W. Li 李"
        },
        {
          "authorId": "2177640802",
          "name": "W. Hao 郝"
        },
        {
          "authorId": "2177591550",
          "name": "Huai-Zhe 怀哲 Xu 许"
        },
        {
          "authorId": "2242545121",
          "name": "Zhong-Fei 忠菲 Xu 徐"
        },
        {
          "authorId": "2177557569",
          "name": "L. Zheng 郑"
        },
        {
          "authorId": "2239491557",
          "name": "J. Zhang 张"
        },
        {
          "authorId": "2177878669",
          "name": "Shi-Xue 士学 Dou 窦"
        },
        {
          "authorId": "2177553678",
          "name": "T. Wang 王"
        }
      ]
    }
  ]
}