{
  "total": 469,
  "offset": 0,
  "next": 10,
  "data": [
    {
      "paperId": "7c77d4410a588304a1499c5ee6f1bba7833cfc52",
      "externalIds": {
        "DBLP": "conf/icml/RuMGO18",
        "MAG": "2964066221",
        "ArXiv": "1711.00673",
        "CorpusId": 49391211
      },
      "url": "https://www.semanticscholar.org/paper/7c77d4410a588304a1499c5ee6f1bba7833cfc52",
      "title": "Fast Information-theoretic Bayesian Optimisation",
      "venue": "International Conference on Machine Learning",
      "year": 2017,
      "referenceCount": 24,
      "citationCount": 51,
      "authors": [
        {
          "authorId": "88739736",
          "name": "Binxin Ru"
        },
        {
          "authorId": "145960612",
          "name": "Mark McLeod"
        },
        {
          "authorId": "10746977",
          "name": "Diego Granziol"
        },
        {
          "authorId": "144484861",
          "name": "Michael A. Osborne"
        }
      ]
    },
    {
      "paperId": "40af3b4432634f6a762689221c33d915e480bb7e",
      "externalIds": {
        "CorpusId": 199384302
      },
      "url": "https://www.semanticscholar.org/paper/40af3b4432634f6a762689221c33d915e480bb7e",
      "title": "Supplementary Material for : Fast Information-theoretic Bayesian Optimisation",
      "venue": "",
      "year": 2017,
      "referenceCount": 1,
      "citationCount": 0,
      "authors": [
        {
          "authorId": "88739736",
          "name": "Binxin Ru"
        }
      ]
    },
    {
      "paperId": "068188c6294d89766f985d393d228dd847968274",
      "externalIds": {
        "MAG": "2951106473",
        "ArXiv": "1906.01101",
        "DBLP": "journals/corr/abs-1906-01101",
        "PubMedCentral": "7515039",
        "DOI": "10.3390/e21060551",
        "CorpusId": 174798051,
        "PubMed": "33267265"
      },
      "url": "https://www.semanticscholar.org/paper/068188c6294d89766f985d393d228dd847968274",
      "title": "MEMe: An Accurate Maximum Entropy Method for Efficient Approximations in Large-Scale Machine Learning",
      "venue": "Entropy",
      "year": 2019,
      "referenceCount": 46,
      "citationCount": 21,
      "authors": [
        {
          "authorId": "10746977",
          "name": "Diego Granziol"
        },
        {
          "authorId": "88739736",
          "name": "Binxin Ru"
        },
        {
          "authorId": "8106073",
          "name": "S. Zohren"
        },
        {
          "authorId": "145392527",
          "name": "Xiaowen Dong"
        },
        {
          "authorId": "144484861",
          "name": "Michael A. Osborne"
        },
        {
          "authorId": "143841496",
          "name": "Stephen J. Roberts"
        }
      ]
    },
    {
      "paperId": "0d28444454a60eb77cd3a612b3c3e0550750bfce",
      "externalIds": {
        "DBLP": "journals/corr/abs-2206-02437",
        "ArXiv": "2206.02437",
        "DOI": "10.48550/arXiv.2206.02437",
        "CorpusId": 249394595
      },
      "url": "https://www.semanticscholar.org/paper/0d28444454a60eb77cd3a612b3c3e0550750bfce",
      "title": "Information-theoretic Inducing Point Placement for High-throughput Bayesian Optimisation",
      "venue": "arXiv.org",
      "year": 2022,
      "referenceCount": 21,
      "citationCount": 5,
      "authors": [
        {
          "authorId": "51024046",
          "name": "Henry B. Moss"
        },
        {
          "authorId": "13465893",
          "name": "Sebastian W. Ober"
        },
        {
          "authorId": "3283191",
          "name": "V. Picheny"
        }
      ]
    },
    {
      "paperId": "80304323cb0ecee1e0c8977f611ae03399ba15ff",
      "externalIds": {
        "MAG": "2914694469",
        "DBLP": "conf/pkdd/RamachandranGRV18",
        "DOI": "10.1007/978-3-030-10928-8_49",
        "CorpusId": 59159135
      },
      "url": "https://www.semanticscholar.org/paper/80304323cb0ecee1e0c8977f611ae03399ba15ff",
      "title": "Information-Theoretic Transfer Learning Framework for Bayesian Optimisation",
      "venue": "ECML/PKDD",
      "year": 2018,
      "referenceCount": 34,
      "citationCount": 22,
      "authors": [
        {
          "authorId": "2064357269",
          "name": "Anil Ramachandran"
        },
        {
          "authorId": "119971153",
          "name": "Sunil Gupta"
        },
        {
          "authorId": "2285720075",
          "name": "Santu Rana"
        },
        {
          "authorId": "143761093",
          "name": "S. Venkatesh"
        }
      ]
    },
    {
      "paperId": "ea168df108ed50e10b32056083602392ee563747",
      "externalIds": {
        "MAG": "2991037246",
        "DBLP": "conf/ausai/Ramachandran0RV19",
        "DOI": "10.1007/978-3-030-35288-2_40",
        "CorpusId": 208269059
      },
      "url": "https://www.semanticscholar.org/paper/ea168df108ed50e10b32056083602392ee563747",
      "title": "Information-Theoretic Multi-task Learning Framework for Bayesian Optimisation",
      "venue": "Australasian Conference on Artificial Intelligence",
      "year": 2019,
      "referenceCount": 15,
      "citationCount": 2,
      "authors": [
        {
          "authorId": "2064357269",
          "name": "Anil Ramachandran"
        },
        {
          "authorId": "119971153",
          "name": "Sunil Gupta"
        },
        {
          "authorId": "2285720075",
          "name": "Santu Rana"
        },
        {
          "authorId": "143761093",
          "name": "S. Venkatesh"
        }
      ]
    },
    {
      "paperId": "7c91b7e847dce9444f4c37530a85e941dd87140c",
      "externalIds": {
        "ArXiv": "2102.03324",
        "DBLP": "journals/corr/abs-2102-03324",
        "CorpusId": 231839492
      },
      "url": "https://www.semanticscholar.org/paper/7c91b7e847dce9444f4c37530a85e941dd87140c",
      "title": "GIBBON: General-purpose Information-Based Bayesian OptimisatioN",
      "venue": "Journal of machine learning research",
      "year": 2021,
      "referenceCount": 95,
      "citationCount": 55,
      "authors": [
        {
          "authorId": "51024046",
          "name": "Henry B. Moss"
        },
        {
          "authorId": "31819180",
          "name": "David S. Leslie"
        },
        {
          "authorId": "1390665327",
          "name": "Javier I. González"
        },
        {
          "authorId": "1929390",
          "name": "Paul Rayson"
        }
      ]
    },
    {
      "paperId": "414014747ab085317ce97aa33ce54801474d08fe",
      "externalIds": {
        "DBLP": "journals/corr/abs-2301-13647",
        "ArXiv": "2301.13647",
        "DOI": "10.48550/arXiv.2301.13647",
        "CorpusId": 256416058
      },
      "url": "https://www.semanticscholar.org/paper/414014747ab085317ce97aa33ce54801474d08fe",
      "title": "Bayesian estimation of information-theoretic metrics for sparsely sampled distributions",
      "venue": "Chaos, Solitons &amp; Fractals",
      "year": 2023,
      "referenceCount": 51,
      "citationCount": 7,
      "authors": [
        {
          "authorId": "103348126",
          "name": "Angelo Piga"
        },
        {
          "authorId": "2130010958",
          "name": "Lluc Font-Pomarol"
        },
        {
          "authorId": "1387886014",
          "name": "M. Sales-Pardo"
        },
        {
          "authorId": "144030911",
          "name": "R. Guimerà"
        }
      ]
    },
    {
      "paperId": "20a93646a95156b07f1212932d4aa5ad34ad8ad6",
      "externalIds": {
        "DBLP": "conf/icml/ZiomekB23",
        "ArXiv": "2301.12844",
        "DOI": "10.48550/arXiv.2301.12844",
        "CorpusId": 256390592
      },
      "url": "https://www.semanticscholar.org/paper/20a93646a95156b07f1212932d4aa5ad34ad8ad6",
      "title": "Are Random Decompositions all we need in High Dimensional Bayesian Optimisation?",
      "venue": "International Conference on Machine Learning",
      "year": 2023,
      "referenceCount": 53,
      "citationCount": 37,
      "authors": [
        {
          "authorId": "1884921320",
          "name": "Juliusz Ziomek"
        },
        {
          "authorId": "1398842047",
          "name": "Haitham Bou-Ammar"
        }
      ]
    },
    {
      "paperId": "bca1f33124b1a97d2a06781538b971b2e1867de3",
      "externalIds": {
        "DOI": "10.1080/09544828.2024.2436968",
        "CorpusId": 279000318
      },
      "url": "https://www.semanticscholar.org/paper/bca1f33124b1a97d2a06781538b971b2e1867de3",
      "title": "Hyperparameter tuning design of performance indicators prediction for hydrogen fuel cells based on Bayesian optimisation with AIGC",
      "venue": "Journal of engineering design",
      "year": 2024,
      "referenceCount": 58,
      "citationCount": 3,
      "authors": [
        {
          "authorId": "2351251895",
          "name": "Yi-Tian Song"
        },
        {
          "authorId": "2351444841",
          "name": "Yan-Ning Sun"
        },
        {
          "authorId": "2350988414",
          "name": "Jia-Yang Zhu"
        },
        {
          "authorId": "2327240905",
          "name": "Hai-Bo Qiao"
        },
        {
          "authorId": "2326915870",
          "name": "Zeng-Gui Gao"
        },
        {
          "authorId": "2326876891",
          "name": "Li-Lan Liu"
        }
      ]
    }
  ]
}