{
  "total": 19,
  "offset": 0,
  "next": 10,
  "data": [
    {
      "paperId": "b146a44b5895ef4e40fbf198a44806625f9cb2f6",
      "externalIds": {
        "MAG": "1809492646",
        "DBLP": "conf/icml/CohenW15",
        "ArXiv": "1505.04413",
        "CorpusId": 216079513
      },
      "url": "https://www.semanticscholar.org/paper/b146a44b5895ef4e40fbf198a44806625f9cb2f6",
      "title": "Harmonic Exponential Families on Manifolds",
      "venue": "International Conference on Machine Learning",
      "year": 2015,
      "referenceCount": 24,
      "citationCount": 24,
      "authors": [
        {
          "authorId": "2244769925",
          "name": "Taco Cohen"
        },
        {
          "authorId": "2238638174",
          "name": "Max Welling"
        }
      ]
    },
    {
      "paperId": "d6278fa2da3b701602824924ff1ed59174326766",
      "externalIds": {
        "MAG": "2916272948",
        "DOI": "10.3934/PROC.2007.2007.875",
        "CorpusId": 128171163
      },
      "url": "https://www.semanticscholar.org/paper/d6278fa2da3b701602824924ff1ed59174326766",
      "title": "On the influence of the kernel of the bi-harmonic operator on fourth order equations with exponential growth",
      "venue": "",
      "year": 2007,
      "referenceCount": 11,
      "citationCount": 1,
      "authors": [
        {
          "authorId": "31713281",
          "name": "F. Robert"
        }
      ]
    },
    {
      "paperId": "5ef25577b3c4f5da24d24279a2ba4f28e00de609",
      "externalIds": {
        "ArXiv": "2103.13889",
        "DOI": "10.1007/s40316-021-00185-3",
        "CorpusId": 232352725
      },
      "url": "https://www.semanticscholar.org/paper/5ef25577b3c4f5da24d24279a2ba4f28e00de609",
      "title": "Exponential localization of Steklov eigenfunctions on warped product manifolds: the flea on the elephant phenomenon",
      "venue": "Annales mathématiques du Québec",
      "year": 2021,
      "referenceCount": 30,
      "citationCount": 10,
      "authors": [
        {
          "authorId": "2075640275",
          "name": "Thierry Daud'e"
        },
        {
          "authorId": "2153183",
          "name": "B. Helffer"
        },
        {
          "authorId": "13451068",
          "name": "F. Nicoleau"
        }
      ]
    },
    {
      "paperId": "e0d562c1900bb5ee4efa86fb1bcf875fd7ba4170",
      "externalIds": {
        "MAG": "2168549032",
        "ArXiv": "1510.06292",
        "DOI": "10.1007/s00222-017-0735-3",
        "CorpusId": 49362410
      },
      "url": "https://www.semanticscholar.org/paper/e0d562c1900bb5ee4efa86fb1bcf875fd7ba4170",
      "title": "Norms on the cohomology of hyperbolic 3-manifolds",
      "venue": "",
      "year": 2015,
      "referenceCount": 38,
      "citationCount": 21,
      "authors": [
        {
          "authorId": "36693786",
          "name": "Jeffrey F. Brock"
        },
        {
          "authorId": "2708983",
          "name": "N. Dunfield"
        }
      ]
    },
    {
      "paperId": "95f0be7ad71eccc24251d87c8e4d5621da73982e",
      "externalIds": {
        "DOI": "10.1007/s00222-017-0735-3",
        "CorpusId": 253743458
      },
      "url": "https://www.semanticscholar.org/paper/95f0be7ad71eccc24251d87c8e4d5621da73982e",
      "title": "Norms on the cohomology of hyperbolic 3-manifolds",
      "venue": "Inventiones Mathematicae",
      "year": 2017,
      "referenceCount": 31,
      "citationCount": 0,
      "authors": [
        {
          "authorId": "36693786",
          "name": "Jeffrey F. Brock"
        },
        {
          "authorId": "2708983",
          "name": "N. Dunfield"
        }
      ]
    },
    {
      "paperId": "32accde87a4da4124220892a8bae4f554907fb3b",
      "externalIds": {
        "MAG": "144505972",
        "DOI": "10.1007/978-88-7642-473-1_12",
        "CorpusId": 115894003
      },
      "url": "https://www.semanticscholar.org/paper/32accde87a4da4124220892a8bae4f554907fb3b",
      "title": "Maximally localized Wannier functions: existence and exponential localization",
      "venue": "",
      "year": 2013,
      "referenceCount": 41,
      "citationCount": 0,
      "authors": [
        {
          "authorId": "71994832",
          "name": "A. Pisante"
        }
      ]
    },
    {
      "paperId": "066fb73653d79e6540ac150f1cf9dd33a31ecf4a",
      "externalIds": {
        "ArXiv": "2604.08784",
        "CorpusId": 287351453
      },
      "url": "https://www.semanticscholar.org/paper/066fb73653d79e6540ac150f1cf9dd33a31ecf4a",
      "title": "Path-Integral Formulation of Unavoidable Canonical Nonlinearity: Dynamic Discretization Cost over Variable Supports",
      "venue": "",
      "year": 2026,
      "referenceCount": 0,
      "citationCount": 0,
      "authors": [
        {
          "authorId": "34705814",
          "name": "Koretaka Yuge"
        }
      ]
    },
    {
      "paperId": "5a1b43ad0b1b3c6e440504e2a7f88935f73afa38",
      "externalIds": {
        "DOI": "10.1112/jlms.12581",
        "CorpusId": 248683249
      },
      "url": "https://www.semanticscholar.org/paper/5a1b43ad0b1b3c6e440504e2a7f88935f73afa38",
      "title": "Asymptotic geometry of the moduli space of parabolic SL(2,C)$\\operatorname{SL}(2,\\mathbb {C})$ ‐Higgs bundles",
      "venue": "Journal of the London Mathematical Society",
      "year": 2022,
      "referenceCount": 34,
      "citationCount": 12,
      "authors": [
        {
          "authorId": "36245503",
          "name": "Laura Fredrickson"
        },
        {
          "authorId": "9749014",
          "name": "R. Mazzeo"
        },
        {
          "authorId": "50883357",
          "name": "J. Swoboda"
        },
        {
          "authorId": "29365836",
          "name": "H. Weiss"
        }
      ]
    },
    {
      "paperId": "5ac943b93b6bddf68bb0afd59bdcbfea6858e1ce",
      "externalIds": {
        "MAG": "628181257",
        "CorpusId": 117760035
      },
      "url": "https://www.semanticscholar.org/paper/5ac943b93b6bddf68bb0afd59bdcbfea6858e1ce",
      "title": "Harmonic analysis, Iraklion 1978 : proceedings of a conference held at the University of Crete, Iraklion, Greece, July 1978",
      "venue": "",
      "year": 1980,
      "referenceCount": 0,
      "citationCount": 0,
      "authors": [
        {
          "authorId": "101326512",
          "name": "N. Petridis"
        },
        {
          "authorId": "101508291",
          "name": "S. K. Pichorides"
        },
        {
          "authorId": "102680932",
          "name": "N. Varopoulos"
        },
        {
          "authorId": "147808875",
          "name": "P. Krētēs"
        }
      ]
    },
    {
      "paperId": "da9eeac4d91f6db23ec06f9f4871e3fa685e9a7b",
      "externalIds": {
        "MAG": "1999814762",
        "ArXiv": "1112.6197",
        "DOI": "10.1007/s00220-013-1741-y",
        "CorpusId": 119606843
      },
      "url": "https://www.semanticscholar.org/paper/da9eeac4d91f6db23ec06f9f4871e3fa685e9a7b",
      "title": "Bloch Bundles, Marzari-Vanderbilt Functional and Maximally Localized Wannier Functions",
      "venue": "",
      "year": 2011,
      "referenceCount": 56,
      "citationCount": 66,
      "authors": [
        {
          "authorId": "2622814",
          "name": "G. Panati"
        },
        {
          "authorId": "71994832",
          "name": "A. Pisante"
        }
      ]
    }
  ]
}