{
  "total": 6072,
  "offset": 0,
  "next": 10,
  "data": [
    {
      "paperId": "3817b42757e113525011af9e9ad5469a993702c0",
      "externalIds": {
        "DBLP": "conf/icml/WuCN18",
        "MAG": "2953166978",
        "ArXiv": "1809.07471",
        "DOI": "10.1287/moor.2021.1221",
        "CorpusId": 51873685
      },
      "url": "https://www.semanticscholar.org/paper/3817b42757e113525011af9e9ad5469a993702c0",
      "title": "Local Density Estimation in High Dimensions",
      "venue": "International Conference on Machine Learning",
      "year": 2018,
      "referenceCount": 34,
      "citationCount": 15,
      "authors": [
        {
          "authorId": "2108404463",
          "name": "Xian Wu"
        },
        {
          "authorId": "1745732",
          "name": "M. Charikar"
        },
        {
          "authorId": "10009856",
          "name": "Vishnu Natchu"
        }
      ]
    },
    {
      "paperId": "2a1d6a51526742bfa5081636451b563e41cb45e3",
      "externalIds": {
        "CorpusId": 53456109
      },
      "url": "https://www.semanticscholar.org/paper/2a1d6a51526742bfa5081636451b563e41cb45e3",
      "title": "Local Density Estimation in High Dimensions Supplementary Materials",
      "venue": "",
      "year": null,
      "referenceCount": 0,
      "citationCount": 0,
      "authors": [
        {
          "authorId": "2108404463",
          "name": "Xian Wu"
        },
        {
          "authorId": "1745732",
          "name": "M. Charikar"
        },
        {
          "authorId": "10009856",
          "name": "Vishnu Natchu"
        }
      ]
    },
    {
      "paperId": "f49f8ff65cdc321cfe2d48ee443b91943282fbc7",
      "externalIds": {
        "DBLP": "journals/corr/abs-2107-03280",
        "ArXiv": "2107.03280",
        "CorpusId": 235755109
      },
      "url": "https://www.semanticscholar.org/paper/f49f8ff65cdc321cfe2d48ee443b91943282fbc7",
      "title": "MD-split+: Practical Local Conformal Inference in High Dimensions",
      "venue": "arXiv.org",
      "year": 2021,
      "referenceCount": 17,
      "citationCount": 7,
      "authors": [
        {
          "authorId": "153513635",
          "name": "B. LeRoy"
        },
        {
          "authorId": "144652878",
          "name": "David Zhao"
        }
      ]
    },
    {
      "paperId": "6f4d53ef1a6b707aa36bf4782b5d64514bb027fc",
      "externalIds": {
        "MAG": "2355656224",
        "CorpusId": 123870731
      },
      "url": "https://www.semanticscholar.org/paper/6f4d53ef1a6b707aa36bf4782b5d64514bb027fc",
      "title": "Spectral Clustering Based on Local Density Estimation and Neighbor Propagation",
      "venue": "",
      "year": 2014,
      "referenceCount": 0,
      "citationCount": 0,
      "authors": [
        {
          "authorId": "2054279233",
          "name": "Ge Hong"
        }
      ]
    },
    {
      "paperId": "6d630714c2b089aad5abed6f23889dc9bf173498",
      "externalIds": {
        "ArXiv": "2106.03500",
        "CorpusId": 250420812
      },
      "url": "https://www.semanticscholar.org/paper/6d630714c2b089aad5abed6f23889dc9bf173498",
      "title": "Density estimation on smooth manifolds with normalizing flows",
      "venue": "",
      "year": 2021,
      "referenceCount": 39,
      "citationCount": 7,
      "authors": [
        {
          "authorId": "2299082189",
          "name": "Dimitris Kalatzis"
        },
        {
          "authorId": "152328343",
          "name": "J. Z. Ye"
        },
        {
          "authorId": "144865146",
          "name": "A. Pouplin"
        },
        {
          "authorId": "2107058222",
          "name": "Jesper Wohlert"
        },
        {
          "authorId": "2142792",
          "name": "Søren Hauberg"
        }
      ]
    },
    {
      "paperId": "986bc8e52572d35c3aacba1c1aee6ff4381c494f",
      "externalIds": {
        "MAG": "2051484940",
        "DBLP": "journals/lgrs/CoillieDVW13",
        "DOI": "10.1109/LGRS.2013.2242044",
        "CorpusId": 11999253
      },
      "url": "https://www.semanticscholar.org/paper/986bc8e52572d35c3aacba1c1aee6ff4381c494f",
      "title": "Directional Local Filtering for Stand Density Estimation in Closed Forest Canopies Using VHR Optical and LiDAR Data",
      "venue": "IEEE Geoscience and Remote Sensing Letters",
      "year": 2013,
      "referenceCount": 28,
      "citationCount": 1,
      "authors": [
        {
          "authorId": "143782296",
          "name": "F. Coillie"
        },
        {
          "authorId": "2440818",
          "name": "Flore R. Devriendt"
        },
        {
          "authorId": "47226918",
          "name": "L. Verbeke"
        },
        {
          "authorId": "145823243",
          "name": "R. Wulf"
        }
      ]
    },
    {
      "paperId": "2733a0e1f2422edb0f02a4fd6cf9fff51b3c47ca",
      "externalIds": {
        "ArXiv": "2206.14882",
        "DBLP": "conf/icml/TempczykMGSTG22",
        "DOI": "10.48550/arXiv.2206.14882",
        "CorpusId": 237263712
      },
      "url": "https://www.semanticscholar.org/paper/2733a0e1f2422edb0f02a4fd6cf9fff51b3c47ca",
      "title": "LIDL: Local Intrinsic Dimension Estimation Using Approximate Likelihood",
      "venue": "International Conference on Machine Learning",
      "year": 2022,
      "referenceCount": 45,
      "citationCount": 38,
      "authors": [
        {
          "authorId": "2124037443",
          "name": "Piotr Tempczyk"
        },
        {
          "authorId": "79665491",
          "name": "Lukasz Garncarek"
        },
        {
          "authorId": "34590757",
          "name": "Adam Golinski"
        }
      ]
    },
    {
      "paperId": "e85d286647e634838b015145a347c503684d22e6",
      "externalIds": {
        "DBLP": "journals/corr/abs-2510-20681",
        "ArXiv": "2510.20681",
        "DOI": "10.48550/arXiv.2510.20681",
        "CorpusId": 282304362
      },
      "url": "https://www.semanticscholar.org/paper/e85d286647e634838b015145a347c503684d22e6",
      "title": "Downsizing Diffusion Models for Cardinality Estimation",
      "venue": "arXiv.org",
      "year": 2025,
      "referenceCount": 28,
      "citationCount": 0,
      "authors": [
        {
          "authorId": "2387214486",
          "name": "Xinhe Mu"
        },
        {
          "authorId": "2381313340",
          "name": "Zhaoqi Zhou"
        },
        {
          "authorId": "2381261276",
          "name": "Zaijiu Shang"
        },
        {
          "authorId": "2381374868",
          "name": "Chuan Zhou"
        },
        {
          "authorId": "2387218085",
          "name": "Gang Fu"
        },
        {
          "authorId": "2111822853",
          "name": "Guiying Yan"
        },
        {
          "authorId": "2381295656",
          "name": "Guoliang Li"
        },
        {
          "authorId": "2380570922",
          "name": "Zhiming Ma"
        }
      ]
    },
    {
      "paperId": "90c35aaae94fee871bf29c604d10715ecb2d37b4",
      "externalIds": {
        "DBLP": "journals/corr/abs-2206-08051",
        "ArXiv": "2206.08051",
        "DOI": "10.48550/arXiv.2206.08051",
        "CorpusId": 249712238
      },
      "url": "https://www.semanticscholar.org/paper/90c35aaae94fee871bf29c604d10715ecb2d37b4",
      "title": "Voronoi Density Estimator for High-Dimensional Data: Computation, Compactification and Convergence",
      "venue": "Conference on Uncertainty in Artificial Intelligence",
      "year": 2022,
      "referenceCount": 45,
      "citationCount": 8,
      "authors": [
        {
          "authorId": "2154412561",
          "name": "Vladislav Polianskii"
        },
        {
          "authorId": "33290210",
          "name": "G. Marchetti"
        },
        {
          "authorId": "2170532783",
          "name": "Alexander Kravberg"
        },
        {
          "authorId": "47248552",
          "name": "Anastasiia Varava"
        },
        {
          "authorId": "1881469",
          "name": "Florian T. Pokorny"
        },
        {
          "authorId": "1731490",
          "name": "D. Kragic"
        }
      ]
    },
    {
      "paperId": "736bd4cf6ca86083dd3962306e8603f848dd59db",
      "externalIds": {
        "ArXiv": "2511.02873",
        "CorpusId": 282758544
      },
      "url": "https://www.semanticscholar.org/paper/736bd4cf6ca86083dd3962306e8603f848dd59db",
      "title": "Curvature of high-dimensional data",
      "venue": "",
      "year": 2025,
      "referenceCount": 16,
      "citationCount": 0,
      "authors": [
        {
          "authorId": "2384521019",
          "name": "Jiayi Chen"
        },
        {
          "authorId": "90568361",
          "name": "Mohammad Javad Latifi Jebelli"
        },
        {
          "authorId": "2275825077",
          "name": "Daniel Rockmore"
        }
      ]
    }
  ]
}