{
  "total": 95,
  "offset": 0,
  "next": 10,
  "data": [
    {
      "paperId": "d98c2e1bd81cbf97b76200426b487803e95f5ec5",
      "externalIds": {
        "MAG": "2419569556",
        "DBLP": "conf/icml/NiuRFH16",
        "CorpusId": 10007969
      },
      "url": "https://www.semanticscholar.org/paper/d98c2e1bd81cbf97b76200426b487803e95f5ec5",
      "title": "Fast Parameter Inference in Nonlinear Dynamical Systems using Iterative Gradient Matching",
      "venue": "International Conference on Machine Learning",
      "year": 2016,
      "referenceCount": 0,
      "citationCount": 12,
      "authors": [
        {
          "authorId": "35478651",
          "name": "Mu Niu"
        },
        {
          "authorId": "145129912",
          "name": "S. Rogers"
        },
        {
          "authorId": "3138895",
          "name": "M. Filippone"
        },
        {
          "authorId": "1702356",
          "name": "D. Husmeier"
        }
      ]
    },
    {
      "paperId": "7741bb50965b5d5c68c35be116409a6e9d46a549",
      "externalIds": {
        "CorpusId": 16523493
      },
      "url": "https://www.semanticscholar.org/paper/7741bb50965b5d5c68c35be116409a6e9d46a549",
      "title": "Fast Inference in Nonlinear Dynamical Systems using Gradient Matching",
      "venue": "",
      "year": 2016,
      "referenceCount": 17,
      "citationCount": 14,
      "authors": [
        {
          "authorId": "2261310812",
          "name": "Mu Niu"
        },
        {
          "authorId": "2261311464",
          "name": "Simon Rogers"
        },
        {
          "authorId": "2249127480",
          "name": "Uk"
        },
        {
          "authorId": "2261306435",
          "name": "Maurizio Filippone"
        },
        {
          "authorId": "1702356",
          "name": "D. Husmeier"
        }
      ]
    },
    {
      "paperId": "b1c936a3d28c6ef4b8653116de3f362e92d3e0b3",
      "externalIds": {
        "MAG": "2460801207",
        "CorpusId": 124030631
      },
      "url": "https://www.semanticscholar.org/paper/b1c936a3d28c6ef4b8653116de3f362e92d3e0b3",
      "title": "Fast inference in nonlinear dynamical systems using gradient matching",
      "venue": "International Conference on Machine Learning",
      "year": 2016,
      "referenceCount": 17,
      "citationCount": 2,
      "authors": [
        {
          "authorId": "35478651",
          "name": "Mu Niu"
        },
        {
          "authorId": "145129912",
          "name": "S. Rogers"
        },
        {
          "authorId": "3138895",
          "name": "M. Filippone"
        },
        {
          "authorId": "1702356",
          "name": "D. Husmeier"
        }
      ]
    },
    {
      "paperId": "61b4131fc0f6acf8305939c2ac82bd0b618bac9f",
      "externalIds": {
        "CorpusId": 204955526
      },
      "url": "https://www.semanticscholar.org/paper/61b4131fc0f6acf8305939c2ac82bd0b618bac9f",
      "title": "Fast Inference in Nonlinear Dynamical Systems using Gradient Matching",
      "venue": "",
      "year": 2016,
      "referenceCount": 17,
      "citationCount": 0,
      "authors": [
        {
          "authorId": "2093625253",
          "name": "Mu"
        },
        {
          "authorId": "2093580334",
          "name": "Niu"
        }
      ]
    },
    {
      "paperId": "10d2797334584f4c2cfb8ba18840eb41b8b7b87e",
      "externalIds": {
        "MAG": "3045310619",
        "DBLP": "journals/cstat/NiuWDRH21",
        "DOI": "10.1007/s00180-020-01014-x",
        "CorpusId": 225484303
      },
      "url": "https://www.semanticscholar.org/paper/10d2797334584f4c2cfb8ba18840eb41b8b7b87e",
      "title": "R package for statistical inference in dynamical systems using kernel based gradient matching: KGode",
      "venue": "Computational statistics (Zeitschrift)",
      "year": 2020,
      "referenceCount": 40,
      "citationCount": 2,
      "authors": [
        {
          "authorId": "35478651",
          "name": "Mu Niu"
        },
        {
          "authorId": "3284697",
          "name": "Joe Wandy"
        },
        {
          "authorId": "47869561",
          "name": "Rónán Daly"
        },
        {
          "authorId": "145129912",
          "name": "S. Rogers"
        },
        {
          "authorId": "1702356",
          "name": "D. Husmeier"
        }
      ]
    },
    {
      "paperId": "4dced58f5c5737541e67c9ad6ec12731d8224877",
      "externalIds": {
        "PubMedCentral": "12034378",
        "DBLP": "journals/bioinformatics/OppenM25",
        "DOI": "10.1101/2024.06.11.598320",
        "CorpusId": 270522218,
        "PubMed": "40199819"
      },
      "url": "https://www.semanticscholar.org/paper/4dced58f5c5737541e67c9ad6ec12731d8224877",
      "title": "Gradient matching accelerates mixed-effects inference for biochemical networks",
      "venue": "bioRxiv",
      "year": 2024,
      "referenceCount": 73,
      "citationCount": 1,
      "authors": [
        {
          "authorId": "2164552198",
          "name": "Yulan B. van Oppen"
        },
        {
          "authorId": "1403966179",
          "name": "Andreas Milias-Argeitis"
        }
      ]
    },
    {
      "paperId": "5ca87def4d295f760571e442f6265f661b70fdaa",
      "externalIds": {
        "PubMedCentral": "8316824",
        "DOI": "10.1098/rsos.210171",
        "CorpusId": 236457529,
        "PubMed": "34350015"
      },
      "url": "https://www.semanticscholar.org/paper/5ca87def4d295f760571e442f6265f661b70fdaa",
      "title": "Numerical method for parameter inference of systems of nonlinear ordinary differential equations with partial observations",
      "venue": "Royal Society Open Science",
      "year": 2021,
      "referenceCount": 22,
      "citationCount": 1,
      "authors": [
        {
          "authorId": "2144837375",
          "name": "Yu Chen"
        },
        {
          "authorId": "2118477571",
          "name": "Jin Cheng"
        },
        {
          "authorId": "2110046983",
          "name": "Arvind Gupta"
        },
        {
          "authorId": "2092157",
          "name": "Huaxiong Huang"
        },
        {
          "authorId": "50433482",
          "name": "Shixin Xú"
        }
      ]
    },
    {
      "paperId": "ee6e7cea998ac3edcc466d5ff5363943cb2d4e7b",
      "externalIds": {
        "MAG": "2997359407",
        "ArXiv": "1912.12783",
        "CorpusId": 209515788
      },
      "url": "https://www.semanticscholar.org/paper/ee6e7cea998ac3edcc466d5ff5363943cb2d4e7b",
      "title": "Numerical Method for Parameter Inference of Nonlinear ODEs with Partial Observations.",
      "venue": "",
      "year": 2019,
      "referenceCount": 25,
      "citationCount": 1,
      "authors": [
        {
          "authorId": "2144837375",
          "name": "Yu Chen"
        },
        {
          "authorId": "2118477571",
          "name": "Jin Cheng"
        },
        {
          "authorId": "2110046983",
          "name": "Arvind Gupta"
        },
        {
          "authorId": "2092157",
          "name": "Huaxiong Huang"
        },
        {
          "authorId": "50433482",
          "name": "Shixin Xú"
        }
      ]
    },
    {
      "paperId": "5e89c64049306e234e0098007cf3ae332bcbd56b",
      "externalIds": {
        "DOI": "10.71465/fapm689",
        "CorpusId": 286395974
      },
      "url": "https://www.semanticscholar.org/paper/5e89c64049306e234e0098007cf3ae332bcbd56b",
      "title": "Autonomous Stereo Vision Parameter Optimization based on Nonlinear Conjugate Gradient",
      "venue": "Frontiers in Applied Physics and Mathematics",
      "year": 2026,
      "referenceCount": 30,
      "citationCount": 0,
      "authors": [
        {
          "authorId": "2350151945",
          "name": "Wei Xie"
        },
        {
          "authorId": "114691262",
          "name": "R. Sterling"
        },
        {
          "authorId": "146671055",
          "name": "E. Vance"
        }
      ]
    },
    {
      "paperId": "df8a6152f51a1a657efca5367a0799a307fca1ff",
      "externalIds": {
        "DBLP": "journals/soco/Kumar23",
        "DOI": "10.1007/s00500-023-08061-8",
        "CorpusId": 257797810
      },
      "url": "https://www.semanticscholar.org/paper/df8a6152f51a1a657efca5367a0799a307fca1ff",
      "title": "Double internal loop higher-order recurrent neural network-based adaptive control of the nonlinear dynamical system",
      "venue": "Soft Computing - A Fusion of Foundations, Methodologies and Applications",
      "year": 2023,
      "referenceCount": 58,
      "citationCount": 32,
      "authors": [
        {
          "authorId": "47654405",
          "name": "Rajesh Kumar"
        }
      ]
    }
  ]
}