{
  "total": 215,
  "offset": 0,
  "next": 10,
  "data": [
    {
      "paperId": "30834ae1497c35d362eea14857d93c28d2d12b57",
      "externalIds": {
        "MAG": "2620290674",
        "ArXiv": "1706.05064",
        "DBLP": "conf/icml/OhSLK17",
        "CorpusId": 11974467
      },
      "url": "https://www.semanticscholar.org/paper/30834ae1497c35d362eea14857d93c28d2d12b57",
      "title": "Zero-Shot Task Generalization with Multi-Task Deep Reinforcement Learning",
      "venue": "International Conference on Machine Learning",
      "year": 2017,
      "referenceCount": 49,
      "citationCount": 283,
      "authors": [
        {
          "authorId": "2894414",
          "name": "Junhyuk Oh"
        },
        {
          "authorId": "1699868",
          "name": "Satinder Singh"
        },
        {
          "authorId": "1697141",
          "name": "Honglak Lee"
        },
        {
          "authorId": "143967473",
          "name": "Pushmeet Kohli"
        }
      ]
    },
    {
      "paperId": "025d142e712c5ddf97157e62765ff518da6ef9b2",
      "externalIds": {
        "DBLP": "journals/corr/abs-2006-01110",
        "ArXiv": "2006.01110",
        "MAG": "3034441385",
        "DOI": "10.1109/IROS45743.2020.9341325",
        "CorpusId": 219176671
      },
      "url": "https://www.semanticscholar.org/paper/025d142e712c5ddf97157e62765ff518da6ef9b2",
      "title": "Encoding formulas as deep networks: Reinforcement learning for zero-shot execution of LTL formulas",
      "venue": "IEEE/RJS International Conference on Intelligent RObots and Systems",
      "year": 2020,
      "referenceCount": 22,
      "citationCount": 52,
      "authors": [
        {
          "authorId": "1947473",
          "name": "Yen-Ling Kuo"
        },
        {
          "authorId": "143912599",
          "name": "B. Katz"
        },
        {
          "authorId": "21570451",
          "name": "Andrei Barbu"
        }
      ]
    },
    {
      "paperId": "ebc22c739d7d8ec93d29c3fcf3b7c9f16d5563ba",
      "externalIds": {
        "DBLP": "journals/firai/KuoKB21",
        "PubMedCentral": "8326833",
        "DOI": "10.3389/frobt.2021.689550",
        "CorpusId": 236035789,
        "PubMed": "34350213"
      },
      "url": "https://www.semanticscholar.org/paper/ebc22c739d7d8ec93d29c3fcf3b7c9f16d5563ba",
      "title": "Compositional RL Agents That Follow Language Commands in Temporal Logic",
      "venue": "Frontiers in Robotics and AI",
      "year": 2021,
      "referenceCount": 29,
      "citationCount": 3,
      "authors": [
        {
          "authorId": "1947473",
          "name": "Yen-Ling Kuo"
        },
        {
          "authorId": "143912599",
          "name": "B. Katz"
        },
        {
          "authorId": "21570451",
          "name": "Andrei Barbu"
        }
      ]
    },
    {
      "paperId": "01714c4da16ac7f6f3c9f639d593f4e16a732b74",
      "externalIds": {
        "DBLP": "journals/corr/abs-2508-01561",
        "ArXiv": "2508.01561",
        "DOI": "10.48550/arXiv.2508.01561",
        "CorpusId": 280421967
      },
      "url": "https://www.semanticscholar.org/paper/01714c4da16ac7f6f3c9f639d593f4e16a732b74",
      "title": "One Subgoal at a Time: Zero-Shot Generalization to Arbitrary Linear Temporal Logic Requirements in Multi-Task Reinforcement Learning",
      "venue": "arXiv.org",
      "year": 2025,
      "referenceCount": 61,
      "citationCount": 7,
      "authors": [
        {
          "authorId": "2287873298",
          "name": "Zijian Guo"
        },
        {
          "authorId": "2137508907",
          "name": "I. Isik"
        },
        {
          "authorId": "2006599378",
          "name": "H. Ahmad"
        },
        {
          "authorId": "2108689185",
          "name": "Wenchao Li"
        }
      ]
    },
    {
      "paperId": "c468365dcec2506f8a034b9e587ee7303b3abaf1",
      "externalIds": {
        "CorpusId": 31993641
      },
      "url": "https://www.semanticscholar.org/paper/c468365dcec2506f8a034b9e587ee7303b3abaf1",
      "title": "Supplementary Material : Zero-Shot Task Generalization with MultiTask Deep Reinforcement Learning",
      "venue": "",
      "year": 2017,
      "referenceCount": 9,
      "citationCount": 0,
      "authors": [
        {
          "authorId": "2894414",
          "name": "Junhyuk Oh"
        },
        {
          "authorId": "2108384183",
          "name": "Satinder Singh"
        },
        {
          "authorId": "1697141",
          "name": "Honglak Lee"
        },
        {
          "authorId": "143967473",
          "name": "Pushmeet Kohli"
        }
      ]
    },
    {
      "paperId": "ac610af541e0214ae27a8b53720d4e4af71dacfb",
      "externalIds": {
        "DBLP": "conf/ijcnn/WuYZZHYZ25",
        "DOI": "10.1109/IJCNN64981.2025.11229170",
        "CorpusId": 283014123
      },
      "url": "https://www.semanticscholar.org/paper/ac610af541e0214ae27a8b53720d4e4af71dacfb",
      "title": "Mutual Information-Guided Subtask Selection for Zero-Shot Generalization in Multi-Agent Reinforcement Learning",
      "venue": "IEEE International Joint Conference on Neural Network",
      "year": 2025,
      "referenceCount": 36,
      "citationCount": 0,
      "authors": [
        {
          "authorId": "2333604980",
          "name": "Shijie Wu"
        },
        {
          "authorId": "2291993692",
          "name": "Yuan Yao"
        },
        {
          "authorId": "2284946500",
          "name": "Wenqi Zhang"
        },
        {
          "authorId": "2288503659",
          "name": "Yining Zhu"
        },
        {
          "authorId": "32485423",
          "name": "Yujiao Hu"
        },
        {
          "authorId": "2287798190",
          "name": "Gang Yang"
        },
        {
          "authorId": "2259441865",
          "name": "Xingshe Zhou"
        }
      ]
    },
    {
      "paperId": "c9fa6719cbcefe3c009caf5e54be91decb51bd70",
      "externalIds": {
        "DBLP": "journals/fcsc/RenCZLP26",
        "DOI": "10.1007/s11704-025-41285-5",
        "CorpusId": 285535815
      },
      "url": "https://www.semanticscholar.org/paper/c9fa6719cbcefe3c009caf5e54be91decb51bd70",
      "title": "Zero-shot reinforcement learning for multi-domain task-oriented dialogue policy",
      "venue": "Frontiers of Computer Science",
      "year": 2026,
      "referenceCount": 17,
      "citationCount": 0,
      "authors": [
        {
          "authorId": "2109977357",
          "name": "Yuan Ren"
        },
        {
          "authorId": "2303462098",
          "name": "Sixiang Chen"
        },
        {
          "authorId": "2292292911",
          "name": "Richong Zhang"
        },
        {
          "authorId": "2135803774",
          "name": "Xu-Dong Liu"
        },
        {
          "authorId": "2410180194",
          "name": "Ming-Tian Peng"
        }
      ]
    },
    {
      "paperId": "8ddbd6dccc2674c5dad2b962465014bd8c73f705",
      "externalIds": {
        "DBLP": "journals/ieeejas/CarvalhoA25",
        "DOI": "10.1109/JAS.2024.125064",
        "CorpusId": 276061507
      },
      "url": "https://www.semanticscholar.org/paper/8ddbd6dccc2674c5dad2b962465014bd8c73f705",
      "title": "Deep Reinforcement Learning for Zero-Shot Coverage Path Planning With Mobile Robots",
      "venue": "IEEE/CAA Journal of Automatica Sinica",
      "year": 2025,
      "referenceCount": 54,
      "citationCount": 10,
      "authors": [
        {
          "authorId": "2303218515",
          "name": "J. P. Carvalho"
        },
        {
          "authorId": "2343390195",
          "name": "A. Aguiar"
        }
      ]
    },
    {
      "paperId": "355ade59288d553735fbd077edf1e9cb68dbb82f",
      "externalIds": {
        "DBLP": "journals/tcc/XuLS25",
        "DOI": "10.1109/TCC.2025.3611647",
        "CorpusId": 281485905
      },
      "url": "https://www.semanticscholar.org/paper/355ade59288d553735fbd077edf1e9cb68dbb82f",
      "title": "Zero-Shot Generalizable Task Offloading in Edge Computing: A Causal Reinforcement Learning Approach",
      "venue": "IEEE Transactions on Cloud Computing",
      "year": 2025,
      "referenceCount": 31,
      "citationCount": 0,
      "authors": [
        {
          "authorId": "2244618308",
          "name": "Zhizhao Xu"
        },
        {
          "authorId": "2244618982",
          "name": "Chao Luo"
        },
        {
          "authorId": "2069518382",
          "name": "Rui Shao"
        }
      ]
    },
    {
      "paperId": "e209aaaeb067dc48ed0225f90220a0a9c629f7d3",
      "externalIds": {
        "DBLP": "journals/corr/abs-2507-23698",
        "ArXiv": "2507.23698",
        "DOI": "10.48550/arXiv.2507.23698",
        "CorpusId": 280401029
      },
      "url": "https://www.semanticscholar.org/paper/e209aaaeb067dc48ed0225f90220a0a9c629f7d3",
      "title": "Scalable Multi-Task Reinforcement Learning for Generalizable Spatial Intelligence in Visuomotor Agents",
      "venue": "arXiv.org",
      "year": 2025,
      "referenceCount": 30,
      "citationCount": 0,
      "authors": [
        {
          "authorId": "1993661033",
          "name": "Shaofei Cai"
        },
        {
          "authorId": "2309169358",
          "name": "Zhancun Mu"
        },
        {
          "authorId": "2385826665",
          "name": "Haiwen Xia"
        },
        {
          "authorId": "2257373058",
          "name": "Bowei Zhang"
        },
        {
          "authorId": "70097297",
          "name": "Anji Liu"
        },
        {
          "authorId": "2257367774",
          "name": "Yitao Liang"
        }
      ]
    }
  ]
}