{
  "total": 652268,
  "offset": 0,
  "next": 10,
  "data": [
    {
      "paperId": "732a20876f3ae98053e9ded1f1bbb5db9dd82794",
      "externalIds": {
        "DBLP": "journals/qip/ZhangSW21",
        "DOI": "10.1007/s11128-021-03160-7",
        "CorpusId": 236522286
      },
      "url": "https://www.semanticscholar.org/paper/732a20876f3ae98053e9ded1f1bbb5db9dd82794",
      "title": "An improved quantum algorithm for support matrix machines",
      "venue": "Quantum Information Processing",
      "year": 2021,
      "referenceCount": 29,
      "citationCount": 5,
      "authors": [
        {
          "authorId": "7550203",
          "name": "Yanbing Zhang"
        },
        {
          "authorId": "2055314296",
          "name": "Tingting Song"
        },
        {
          "authorId": "2146253842",
          "name": "Zhihao Wu"
        }
      ]
    },
    {
      "paperId": "7a32faac85f2caa0730c20c708aff8d770623ea7",
      "externalIds": {
        "MAG": "2752255339",
        "DOI": "10.1103/PHYSREVA.96.032301",
        "CorpusId": 125629025
      },
      "url": "https://www.semanticscholar.org/paper/7a32faac85f2caa0730c20c708aff8d770623ea7",
      "title": "Quantum algorithm for support matrix machines",
      "venue": "",
      "year": 2017,
      "referenceCount": 0,
      "citationCount": 57,
      "authors": [
        {
          "authorId": "50859380",
          "name": "Bo-jia Duan"
        },
        {
          "authorId": "46685438",
          "name": "Jiabin Yuan"
        },
        {
          "authorId": "46399320",
          "name": "Y. Liu"
        },
        {
          "authorId": "48109180",
          "name": "Dan Li"
        }
      ]
    },
    {
      "paperId": "e9f527250555a2711348b6f45eff38745ae14d94",
      "externalIds": {
        "MAG": "2940902102",
        "DOI": "10.1109/TNSRE.2019.2913142",
        "CorpusId": 133604284,
        "PubMed": "31021801"
      },
      "url": "https://www.semanticscholar.org/paper/e9f527250555a2711348b6f45eff38745ae14d94",
      "title": "Multiclass Support Matrix Machines by Maximizing the Inter-Class Margin for Single Trial EEG Classification",
      "venue": "IEEE transactions on neural systems and rehabilitation engineering",
      "year": 2019,
      "referenceCount": 40,
      "citationCount": 30,
      "authors": [
        {
          "authorId": "1630421985",
          "name": "Imran Razzak"
        },
        {
          "authorId": "1801266",
          "name": "M. Blumenstein"
        },
        {
          "authorId": "1747560",
          "name": "Guandong Xu"
        }
      ]
    },
    {
      "paperId": "20e9f826d195cdb72df3fbbc18757705e5420095",
      "externalIds": {
        "MAG": "2977556778",
        "DOI": "10.1109/JTEHM.2019.2942017",
        "CorpusId": 204970896,
        "PubMed": "32309055"
      },
      "url": "https://www.semanticscholar.org/paper/20e9f826d195cdb72df3fbbc18757705e5420095",
      "title": "Robust Sparse Representation and Multiclass Support Matrix Machines for the Classification of Motor Imagery EEG Signals",
      "venue": "IEEE Journal of Translational Engineering in Health and Medicine",
      "year": 2019,
      "referenceCount": 43,
      "citationCount": 18,
      "authors": [
        {
          "authorId": "1630421985",
          "name": "Imran Razzak"
        },
        {
          "authorId": "1390151477",
          "name": "Ibrahim A. Hameed"
        },
        {
          "authorId": "1747560",
          "name": "Guandong Xu"
        }
      ]
    },
    {
      "paperId": "b9584d29b29516f7fcfa9bbf452451230410cf9f",
      "externalIds": {
        "MAG": "3091306596",
        "DBLP": "conf/ijcnn/Razzak20",
        "DOI": "10.1109/IJCNN48605.2020.9207164",
        "CorpusId": 221543772
      },
      "url": "https://www.semanticscholar.org/paper/b9584d29b29516f7fcfa9bbf452451230410cf9f",
      "title": "Cooperative Evolution Multiclass Support Matrix Machines",
      "venue": "IEEE International Joint Conference on Neural Network",
      "year": 2020,
      "referenceCount": 18,
      "citationCount": 5,
      "authors": [
        {
          "authorId": "1630421985",
          "name": "Imran Razzak"
        }
      ]
    },
    {
      "paperId": "ff37cc844c6625ec8c41e8cc54943fdd1f18fee9",
      "externalIds": {
        "DBLP": "conf/icml/LuoXZL15",
        "MAG": "2132380474",
        "CorpusId": 16963124
      },
      "url": "https://www.semanticscholar.org/paper/ff37cc844c6625ec8c41e8cc54943fdd1f18fee9",
      "title": "Support Matrix Machines",
      "venue": "International Conference on Machine Learning",
      "year": 2015,
      "referenceCount": 32,
      "citationCount": 101,
      "authors": [
        {
          "authorId": "2020695",
          "name": "Luo Luo"
        },
        {
          "authorId": "2118596012",
          "name": "Yubo Xie"
        },
        {
          "authorId": "47294286",
          "name": "Zhihua Zhang"
        },
        {
          "authorId": "2108767848",
          "name": "Wu-Jun Li"
        }
      ]
    },
    {
      "paperId": "ecc94c936541dc4bc344f2cbb151d2d73acffd16",
      "externalIds": {
        "DBLP": "journals/mp/QianTFZL19",
        "MAG": "2932520883",
        "DOI": "10.1007/s10107-019-01386-z",
        "CorpusId": 133531929,
        "PubMed": "31983775"
      },
      "url": "https://www.semanticscholar.org/paper/ecc94c936541dc4bc344f2cbb151d2d73acffd16",
      "title": "Robust multicategory support matrix machines",
      "venue": "Mathematical programming",
      "year": 2019,
      "referenceCount": 52,
      "citationCount": 9,
      "authors": [
        {
          "authorId": "108767199",
          "name": "Chengde Qian"
        },
        {
          "authorId": "1403374767",
          "name": "Quoc Tran-Dinh"
        },
        {
          "authorId": "143932599",
          "name": "Sheng Fu"
        },
        {
          "authorId": "3005204",
          "name": "Changliang Zou"
        },
        {
          "authorId": "46399637",
          "name": "Yufeng Liu"
        }
      ]
    },
    {
      "paperId": "dbffb3024f96ffff3e967d4621cd942c18392783",
      "externalIds": {
        "MAG": "2954236829",
        "DOI": "10.1007/978-3-030-11431-2_4",
        "CorpusId": 198360722
      },
      "url": "https://www.semanticscholar.org/paper/dbffb3024f96ffff3e967d4621cd942c18392783",
      "title": "Wavelet Kernels for Support Matrix Machines",
      "venue": "STEAM-H: Science, Technology, Engineering, Agriculture, Mathematics & Health",
      "year": 2019,
      "referenceCount": 13,
      "citationCount": 4,
      "authors": [
        {
          "authorId": "1402035715",
          "name": "Edgard M. Maboudou-Tchao"
        }
      ]
    },
    {
      "paperId": "93c4e4b07f36a533ebaa29d3f859a0d356696eab",
      "externalIds": {
        "DBLP": "journals/prl/YeH19",
        "MAG": "2971620631",
        "ArXiv": "1807.00451",
        "DOI": "10.1016/j.patrec.2019.09.004",
        "CorpusId": 49558829
      },
      "url": "https://www.semanticscholar.org/paper/93c4e4b07f36a533ebaa29d3f859a0d356696eab",
      "title": "Multi-distance Support Matrix Machines",
      "venue": "Pattern Recognition Letters",
      "year": 2018,
      "referenceCount": 36,
      "citationCount": 7,
      "authors": [
        {
          "authorId": "1987058766",
          "name": "Yunfei Ye"
        },
        {
          "authorId": "104583106",
          "name": "D. Han"
        }
      ]
    },
    {
      "paperId": "16214c25890d4fe655fe23b64dcb64e0366f7a76",
      "externalIds": {
        "PubMedCentral": "6822635",
        "DOI": "10.1109/JTEHM.2019.2942017",
        "CorpusId": 215798561
      },
      "url": "https://www.semanticscholar.org/paper/16214c25890d4fe655fe23b64dcb64e0366f7a76",
      "title": "Robust Sparse Representation and Multiclass Support Matrix Machines for the Classification of Motor Imagery EEG Signals",
      "venue": "IEEE Journal of Translational Engineering in Health and Medicine",
      "year": 2019,
      "referenceCount": 44,
      "citationCount": 3,
      "authors": [
        {
          "authorId": "1637844255",
          "name": "Imran Imran Razzak Razzak"
        },
        {
          "authorId": "1637887549",
          "name": "Ibrahim Ibrahim A. Hameed A. Hameed"
        },
        {
          "authorId": "1747560",
          "name": "Guandong Xu"
        }
      ]
    }
  ]
}