{
  "total": 34,
  "offset": 0,
  "next": 10,
  "data": [
    {
      "paperId": "ccc14aaa85455a198d3f06960506b410fa0c0625",
      "externalIds": {
        "MAG": "2951191462",
        "DBLP": "conf/icml/LocatelloRKRSSJ18",
        "ArXiv": "1803.09539",
        "CorpusId": 46941379
      },
      "url": "https://www.semanticscholar.org/paper/ccc14aaa85455a198d3f06960506b410fa0c0625",
      "title": "On Matching Pursuit and Coordinate Descent",
      "venue": "International Conference on Machine Learning",
      "year": 2018,
      "referenceCount": 50,
      "citationCount": 25,
      "authors": [
        {
          "authorId": "9557137",
          "name": "Francesco Locatello"
        },
        {
          "authorId": "1709198",
          "name": "Anant Raj"
        },
        {
          "authorId": "40911632",
          "name": "Sai Praneeth Karimireddy"
        },
        {
          "authorId": "2414086",
          "name": "G. Rätsch"
        },
        {
          "authorId": "1707625",
          "name": "B. Scholkopf"
        },
        {
          "authorId": "2127057",
          "name": "Sebastian U. Stich"
        },
        {
          "authorId": "2456863",
          "name": "Martin Jaggi"
        }
      ]
    },
    {
      "paperId": "c11d0bb1002d611259ae281f66ef0b7b2bd80aae",
      "externalIds": {
        "MAG": "1977811251",
        "DBLP": "journals/sigpro/OnoseD13",
        "DOI": "10.1016/j.sigpro.2013.05.001",
        "CorpusId": 7891266
      },
      "url": "https://www.semanticscholar.org/paper/c11d0bb1002d611259ae281f66ef0b7b2bd80aae",
      "title": "Adaptive matching pursuit using coordinate descent and double residual minimization",
      "venue": "Signal Processing",
      "year": 2013,
      "referenceCount": 21,
      "citationCount": 6,
      "authors": [
        {
          "authorId": "2488657",
          "name": "Alexandru Onose"
        },
        {
          "authorId": "1716861",
          "name": "B. Dumitrescu"
        }
      ]
    },
    {
      "paperId": "f76d7bf15d0e33ddaeae75339c59f193bdb5f6f3",
      "externalIds": {
        "DBLP": "conf/ispacs/OnoseD13",
        "MAG": "1982482915",
        "DOI": "10.1109/ISPACS.2013.6704605",
        "CorpusId": 16463751
      },
      "url": "https://www.semanticscholar.org/paper/f76d7bf15d0e33ddaeae75339c59f193bdb5f6f3",
      "title": "Distributed coordinate descent using adaptive matching pursuit",
      "venue": "International Symposium on Intelligent Signal Processing and Communication Systems",
      "year": 2013,
      "referenceCount": 19,
      "citationCount": 1,
      "authors": [
        {
          "authorId": "2488657",
          "name": "Alexandru Onose"
        },
        {
          "authorId": "1716861",
          "name": "B. Dumitrescu"
        }
      ]
    },
    {
      "paperId": "93fc710b20713bfa8869dff9f1b4ecfbd9286606",
      "externalIds": {
        "CorpusId": 221687391
      },
      "url": "https://www.semanticscholar.org/paper/93fc710b20713bfa8869dff9f1b4ecfbd9286606",
      "title": "Orthogonal matching pursuit using dichotomous coordinate descent iterations",
      "venue": "",
      "year": 2012,
      "referenceCount": 18,
      "citationCount": 0,
      "authors": [
        {
          "authorId": "1974654795",
          "name": "Y. Zakharov"
        },
        {
          "authorId": "2285734280",
          "name": "Ieee V´ıtor Nascimento Senior Member"
        }
      ]
    },
    {
      "paperId": "94706d6d8a09f0b037d4e6e02476026a7fed24ff",
      "externalIds": {
        "ArXiv": "2402.12021",
        "DBLP": "conf/eusipco/BenardTA24",
        "DOI": "10.48550/arXiv.2402.12021",
        "CorpusId": 267750390
      },
      "url": "https://www.semanticscholar.org/paper/94706d6d8a09f0b037d4e6e02476026a7fed24ff",
      "title": "Projected Block Coordinate Descent for Sparse Spike Estimation",
      "venue": "European Signal Processing Conference",
      "year": 2024,
      "referenceCount": 31,
      "citationCount": 0,
      "authors": [
        {
          "authorId": "2248735300",
          "name": "Pierre-Jean Bénard"
        },
        {
          "authorId": "2121022157",
          "name": "Yann Traonmilin"
        },
        {
          "authorId": "8201937",
          "name": "Jean-François Aujol"
        }
      ]
    },
    {
      "paperId": "5464dc94eb3d5dc374a4e7402b41c625c1c6cfac",
      "externalIds": {
        "ArXiv": "2403.03072",
        "DBLP": "journals/jmlr/MoucerT025",
        "CorpusId": 268248012
      },
      "url": "https://www.semanticscholar.org/paper/5464dc94eb3d5dc374a4e7402b41c625c1c6cfac",
      "title": "Geometry-Dependent Matching Pursuit: a Transition Phase for Convergence on Linear Regression and LASSO",
      "venue": "Journal of machine learning research",
      "year": 2024,
      "referenceCount": 71,
      "citationCount": 0,
      "authors": [
        {
          "authorId": "2149497445",
          "name": "Céline Moucer"
        },
        {
          "authorId": "2266021183",
          "name": "Adrien B. Taylor"
        },
        {
          "authorId": "2265905929",
          "name": "Francis R. Bach"
        }
      ]
    },
    {
      "paperId": "809c50988f7e8416a102768796475d75ccca506b",
      "externalIds": {
        "MAG": "3134697971",
        "DOI": "10.1016/J.YMSSP.2021.107727",
        "CorpusId": 233538665
      },
      "url": "https://www.semanticscholar.org/paper/809c50988f7e8416a102768796475d75ccca506b",
      "title": "Sparse polynomial chaos expansion based on Bregman-iterative greedy coordinate descent for global sensitivity analysis",
      "venue": "Mechanical systems and signal processing",
      "year": 2021,
      "referenceCount": 58,
      "citationCount": 31,
      "authors": [
        {
          "authorId": "2151809430",
          "name": "Jian Zhang"
        },
        {
          "authorId": "2057215673",
          "name": "Xinxin Yue"
        },
        {
          "authorId": "1382864765",
          "name": "Jiajia Qiu"
        },
        {
          "authorId": "2087703966",
          "name": "Lijun Zhuo"
        },
        {
          "authorId": "2146281268",
          "name": "Jianguo Zhu"
        }
      ]
    },
    {
      "paperId": "80f0ef42b3f8fdcad562590ad8a671682ff7ea7f",
      "externalIds": {
        "MAG": "2970112869",
        "ArXiv": "1904.12335",
        "DBLP": "journals/corr/abs-1904-12335",
        "CorpusId": 139102916
      },
      "url": "https://www.semanticscholar.org/paper/80f0ef42b3f8fdcad562590ad8a671682ff7ea7f",
      "title": "Blended Matching Pursuit",
      "venue": "Neural Information Processing Systems",
      "year": 2019,
      "referenceCount": 43,
      "citationCount": 6,
      "authors": [
        {
          "authorId": "114277531",
          "name": "Cyrille W. Combettes"
        },
        {
          "authorId": "145729210",
          "name": "S. Pokutta"
        }
      ]
    },
    {
      "paperId": "22b656958c9a4424e5679aed98e63de3d15d2ca7",
      "externalIds": {
        "MAG": "2398893698",
        "DBLP": "journals/tsp/OnoseD15",
        "DOI": "10.1109/TSP.2015.2436369",
        "CorpusId": 13261329
      },
      "url": "https://www.semanticscholar.org/paper/22b656958c9a4424e5679aed98e63de3d15d2ca7",
      "title": "Adaptive Randomized Coordinate Descent for Sparse Systems: Lasso and Greedy Algorithms",
      "venue": "IEEE Transactions on Signal Processing",
      "year": 2015,
      "referenceCount": 24,
      "citationCount": 4,
      "authors": [
        {
          "authorId": "2488657",
          "name": "Alexandru Onose"
        },
        {
          "authorId": "1716861",
          "name": "B. Dumitrescu"
        }
      ]
    },
    {
      "paperId": "f89a686c37300062ff36528d3e1642b9111ab795",
      "externalIds": {
        "MAG": "2023632670",
        "DOI": "10.1049/EL.2012.3923",
        "CorpusId": 120493241
      },
      "url": "https://www.semanticscholar.org/paper/f89a686c37300062ff36528d3e1642b9111ab795",
      "title": "Orthogonal matching pursuit with DCD iterations",
      "venue": "",
      "year": 2013,
      "referenceCount": 9,
      "citationCount": 11,
      "authors": [
        {
          "authorId": "8312946",
          "name": "Y. Zakharov"
        },
        {
          "authorId": "1835476",
          "name": "V. Nascimento"
        }
      ]
    }
  ]
}