{
  "total": 344,
  "offset": 0,
  "next": 10,
  "data": [
    {
      "paperId": "a0331910bf2eacb55274bc7a7e761c11c553c730",
      "externalIds": {
        "DBLP": "journals/corr/abs-1805-05703",
        "MAG": "2951126060",
        "ArXiv": "1805.05703",
        "CorpusId": 21665256
      },
      "url": "https://www.semanticscholar.org/paper/a0331910bf2eacb55274bc7a7e761c11c553c730",
      "title": "The Hierarchical Adaptive Forgetting Variational Filter",
      "venue": "International Conference on Machine Learning",
      "year": 2018,
      "referenceCount": 36,
      "citationCount": 4,
      "authors": [
        {
          "authorId": "12887111",
          "name": "V. Moens"
        }
      ]
    },
    {
      "paperId": "e0984b281032dcf0db98342ad0c2bbb70ce33f54",
      "externalIds": {
        "PubMedCentral": "12693985",
        "DOI": "10.3390/s25237173",
        "CorpusId": 283333086,
        "PubMed": "41374547"
      },
      "url": "https://www.semanticscholar.org/paper/e0984b281032dcf0db98342ad0c2bbb70ce33f54",
      "title": "An Improved Variational Bayesian-Based Adaptive Federated Kalman Filter for Multi-Sensor Integrated Navigation Systems",
      "venue": "Italian National Conference on Sensors",
      "year": 2025,
      "referenceCount": 36,
      "citationCount": 1,
      "authors": [
        {
          "authorId": "2321869037",
          "name": "Yuwei Yan"
        },
        {
          "authorId": "2321654392",
          "name": "Jing Yang"
        }
      ]
    },
    {
      "paperId": "2e2a70c0616aa1a58a1bd0f96bb10c12f7f9c662",
      "externalIds": {
        "DOI": "10.1002/acs.70051",
        "CorpusId": 285509125
      },
      "url": "https://www.semanticscholar.org/paper/2e2a70c0616aa1a58a1bd0f96bb10c12f7f9c662",
      "title": "Adaptive Variational Bayesian Cubature Quadrature Kalman Filter With Randomly Delayed Measurements and Unknown Noise Covariance Matrices",
      "venue": "International Journal of Adaptive Control and Signal Processing",
      "year": 2026,
      "referenceCount": 43,
      "citationCount": 0,
      "authors": [
        {
          "authorId": "2008214624",
          "name": "P. S. Mannarayana"
        },
        {
          "authorId": "3331862",
          "name": "Aritro Dey"
        }
      ]
    },
    {
      "paperId": "c9869a1ea4650b0aa3789ba9fc7586d4ba079d27",
      "externalIds": {
        "DOI": "10.4103/atmr.atmr_123_25",
        "CorpusId": 282708404
      },
      "url": "https://www.semanticscholar.org/paper/c9869a1ea4650b0aa3789ba9fc7586d4ba079d27",
      "title": "Hierarchical Bayesian Particle Filtering for Artificial Intelligence-enhanced Real-time Anaesthesia Monitoring: A Dynamically Adaptive Framework",
      "venue": "Journal of Advanced Trends in Medical Research",
      "year": 2025,
      "referenceCount": 29,
      "citationCount": 0,
      "authors": [
        {
          "authorId": "2215713977",
          "name": "A. Aleid"
        },
        {
          "authorId": "2328602124",
          "name": "Ahmed Albashri"
        },
        {
          "authorId": "2316191176",
          "name": "Jawad Albashri"
        },
        {
          "authorId": "2390099405",
          "name": "Belal Ahmed Alkatheri"
        },
        {
          "authorId": "2377163069",
          "name": "F. S. Albashri"
        },
        {
          "authorId": "2390105089",
          "name": "Osama Abdulrahman Alraddadi"
        },
        {
          "authorId": "2390112261",
          "name": "Moayyad Yousef Khojah"
        },
        {
          "authorId": "2390087536",
          "name": "Turki Khalid Alsayed"
        },
        {
          "authorId": "2377111203",
          "name": "S. O. Abushal"
        },
        {
          "authorId": "2280744874",
          "name": "A. Kharaba"
        }
      ]
    },
    {
      "paperId": "7cb3938593e473816f6efa25a9b3a16dd829032c",
      "externalIds": {
        "DBLP": "journals/tac/HuangZSC21",
        "MAG": "3027249705",
        "DOI": "10.1109/TAC.2020.2995674",
        "CorpusId": 219523272
      },
      "url": "https://www.semanticscholar.org/paper/7cb3938593e473816f6efa25a9b3a16dd829032c",
      "title": "Variational Adaptive Kalman Filter With Gaussian-Inverse-Wishart Mixture Distribution",
      "venue": "IEEE Transactions on Automatic Control",
      "year": 2021,
      "referenceCount": 13,
      "citationCount": 87,
      "authors": [
        {
          "authorId": "3245477",
          "name": "Yulong Huang"
        },
        {
          "authorId": "48379934",
          "name": "Yonggang Zhang"
        },
        {
          "authorId": "143673663",
          "name": "P. Shi"
        },
        {
          "authorId": "1695771",
          "name": "J. Chambers"
        }
      ]
    },
    {
      "paperId": "281cbd576adf49af34afba131a198b36713365bb",
      "externalIds": {
        "DBLP": "journals/tdsc/GaoRXVFX26",
        "DOI": "10.1109/TDSC.2025.3625268",
        "CorpusId": 282637399
      },
      "url": "https://www.semanticscholar.org/paper/281cbd576adf49af34afba131a198b36713365bb",
      "title": "AHGT-DFD: Adaptive Hierarchical Graph Transformer for Dynamic Fraud Detection in Blockchain Networks",
      "venue": "IEEE Transactions on Dependable and Secure Computing",
      "year": 2026,
      "referenceCount": 27,
      "citationCount": 0,
      "authors": [
        {
          "authorId": "2524489",
          "name": "Jianbin Gao"
        },
        {
          "authorId": "2389173643",
          "name": "Befoum Stephane Richard"
        },
        {
          "authorId": "49837331",
          "name": "Hu Xia"
        },
        {
          "authorId": "2368199176",
          "name": "Kombou Victor"
        },
        {
          "authorId": "2377432490",
          "name": "Eyezo'o Benjamin Fabien"
        },
        {
          "authorId": "2389429058",
          "name": "Qi Xia"
        }
      ]
    },
    {
      "paperId": "0405bc83b25226b89813e1c6687ba746f786434a",
      "externalIds": {
        "DOI": "10.1109/JSEN.2024.3383656",
        "CorpusId": 268969766
      },
      "url": "https://www.semanticscholar.org/paper/0405bc83b25226b89813e1c6687ba746f786434a",
      "title": "Adaptive Robust Federal Kalman Filter for Multisensor Fusion Positioning Systems of Intelligent Vehicles",
      "venue": "IEEE Sensors Journal",
      "year": 2024,
      "referenceCount": 32,
      "citationCount": 12,
      "authors": [
        {
          "authorId": "2244621896",
          "name": "Ziyu Zhang"
        },
        {
          "authorId": "2274109358",
          "name": "Xiaochuan Zhou"
        },
        {
          "authorId": "2201456188",
          "name": "Chunyan Wang"
        },
        {
          "authorId": "9456896",
          "name": "Wanzhong Zhao"
        },
        {
          "authorId": "2152004462",
          "name": "Gang Wu"
        },
        {
          "authorId": "2281615832",
          "name": "Tao Jiang"
        },
        {
          "authorId": "2295481046",
          "name": "Min Wang"
        }
      ]
    },
    {
      "paperId": "62ada41375cf3c84bd710e432177e177c25a0942",
      "externalIds": {
        "DBLP": "journals/access/RoutD25",
        "DOI": "10.1109/ACCESS.2025.3533137",
        "CorpusId": 275870737
      },
      "url": "https://www.semanticscholar.org/paper/62ada41375cf3c84bd710e432177e177c25a0942",
      "title": "A Joint Forgetting Factor-Based Adaptive Extended Kalman Filtering Approach to Predict the State-of-Charge and Model Parameter of Lithium-Ion Battery",
      "venue": "IEEE Access",
      "year": 2025,
      "referenceCount": 0,
      "citationCount": 4,
      "authors": [
        {
          "authorId": "2281588019",
          "name": "Satyaprakash Rout"
        },
        {
          "authorId": "2281507845",
          "name": "Satyajit Das"
        }
      ]
    },
    {
      "paperId": "d38be7bcc49a1838b36c9aee5710b0228bb0122c",
      "externalIds": {
        "PubMedCentral": "12756264",
        "DOI": "10.1038/s41598-025-28560-y",
        "CorpusId": 283456305,
        "PubMed": "41326496"
      },
      "url": "https://www.semanticscholar.org/paper/d38be7bcc49a1838b36c9aee5710b0228bb0122c",
      "title": "BHFVAL: Block chain-Enabled Hierarchical Federated Variational Auto encoder Framework for Secure Intrusion Detection in Vehicular Networks",
      "venue": "Scientific Reports",
      "year": 2025,
      "referenceCount": 37,
      "citationCount": 0,
      "authors": [
        {
          "authorId": "1749272713",
          "name": "G. E. Visuvanathan"
        },
        {
          "authorId": "2175291",
          "name": "Md. Shohel Sayeed"
        },
        {
          "authorId": "26954926",
          "name": "S. Yogarayan"
        }
      ]
    },
    {
      "paperId": "1e20f725ac44404a90e3d6b0c6c6444904a4beee",
      "externalIds": {
        "ArXiv": "2505.08639",
        "DBLP": "journals/iotj/ZhouLGY26",
        "DOI": "10.1109/JIOT.2025.3631736",
        "CorpusId": 278535077
      },
      "url": "https://www.semanticscholar.org/paper/1e20f725ac44404a90e3d6b0c6c6444904a4beee",
      "title": "Robust Indoor Localization via Conformal Methods and Variational Bayesian Adaptive Filtering",
      "venue": "IEEE Internet of Things Journal",
      "year": 2025,
      "referenceCount": 45,
      "citationCount": 0,
      "authors": [
        {
          "authorId": "2361360204",
          "name": "Zhiyi Zhou"
        },
        {
          "authorId": "9371114",
          "name": "Dongzhuo Liu"
        },
        {
          "authorId": "2269125962",
          "name": "Songtao Guo"
        },
        {
          "authorId": "2360658512",
          "name": "Yuanyuan Yang"
        }
      ]
    }
  ]
}