{
  "total": 152,
  "offset": 0,
  "next": 10,
  "data": [
    {
      "paperId": "d9b03fe5fb9525e6d2949bbd70220110f3665404",
      "externalIds": {
        "ArXiv": "1702.08169",
        "DBLP": "conf/icml/GarberSS17",
        "MAG": "2964091758",
        "CorpusId": 13090895
      },
      "url": "https://www.semanticscholar.org/paper/d9b03fe5fb9525e6d2949bbd70220110f3665404",
      "title": "Communication-efficient Algorithms for Distributed Stochastic Principal Component Analysis",
      "venue": "International Conference on Machine Learning",
      "year": 2017,
      "referenceCount": 27,
      "citationCount": 45,
      "authors": [
        {
          "authorId": "52292717",
          "name": "D. Garber"
        },
        {
          "authorId": "1768909",
          "name": "Ohad Shamir"
        },
        {
          "authorId": "1706280",
          "name": "N. Srebro"
        }
      ]
    },
    {
      "paperId": "43da1ad5fd2feba8030a7c5beb66fee6479dc4e4",
      "externalIds": {
        "ArXiv": "2506.02879",
        "DBLP": "conf/icml/SongLGY25",
        "CorpusId": 279119147
      },
      "url": "https://www.semanticscholar.org/paper/43da1ad5fd2feba8030a7c5beb66fee6479dc4e4",
      "title": "Distributed Retraction-Free and Communication-Efficient Optimization on the Stiefel Manifold",
      "venue": "International Conference on Machine Learning",
      "year": 2025,
      "referenceCount": 59,
      "citationCount": 2,
      "authors": [
        {
          "authorId": "2365134100",
          "name": "Yilong Song"
        },
        {
          "authorId": "2340009280",
          "name": "Peijin Li"
        },
        {
          "authorId": "2268761633",
          "name": "Bin Gao"
        },
        {
          "authorId": "2365041036",
          "name": "Kun Yuan"
        }
      ]
    },
    {
      "paperId": "fe7232cb04e6bde2647cad5c8ee523b239992b93",
      "externalIds": {
        "DOI": "10.17762/ijritcc.v11i5s.6654",
        "CorpusId": 259888350
      },
      "url": "https://www.semanticscholar.org/paper/fe7232cb04e6bde2647cad5c8ee523b239992b93",
      "title": "Recommendation of Algorithm for Efficient Retrieval of Songs from Musical Dataset",
      "venue": "International Journal on Recent and Innovation Trends in Computing and Communication",
      "year": 2023,
      "referenceCount": 0,
      "citationCount": 0,
      "authors": [
        {
          "authorId": "9282757",
          "name": "Swathy Vodithala"
        },
        {
          "authorId": "2223342665",
          "name": "Vaishnavi Gudimalla"
        },
        {
          "authorId": "31151876",
          "name": "Dr. Y. Bhavani"
        },
        {
          "authorId": "2223324184",
          "name": "Preethi Madadi"
        },
        {
          "authorId": "2214155571",
          "name": "Mohammed Sharfuddin Waseem"
        }
      ]
    },
    {
      "paperId": "40862edd1441aef5be80a59d82cf2499f1cc59c8",
      "externalIds": {
        "DOI": "10.1063/5.0302576",
        "CorpusId": 284618514
      },
      "url": "https://www.semanticscholar.org/paper/40862edd1441aef5be80a59d82cf2499f1cc59c8",
      "title": "Efficient prediction of stargazing the indian national satellite system (INSAT) way using principal component analysis algorithm over t-distributed stochastic neighbor embedding system",
      "venue": "AIP Conference Proceedings",
      "year": 2026,
      "referenceCount": 7,
      "citationCount": 0,
      "authors": [
        {
          "authorId": "2317568775",
          "name": "T. Revanth"
        },
        {
          "authorId": "2266888124",
          "name": "T. P. Anithaashri"
        },
        {
          "authorId": "2403805281",
          "name": "R. MaheshMuthulakshmi"
        }
      ]
    },
    {
      "paperId": "24f97f3d51e700b317289fce44eee4437be33c8b",
      "externalIds": {
        "ArXiv": "2503.03123",
        "CorpusId": 276781757
      },
      "url": "https://www.semanticscholar.org/paper/24f97f3d51e700b317289fce44eee4437be33c8b",
      "title": "Few-Round Distributed Principal Component Analysis: Closing the Statistical Efficiency Gap by Consensus",
      "venue": "",
      "year": 2025,
      "referenceCount": 46,
      "citationCount": 1,
      "authors": [
        {
          "authorId": "2160704857",
          "name": "Zeyu Li"
        },
        {
          "authorId": "2290974631",
          "name": "Xinsheng Zhang"
        },
        {
          "authorId": "2290975360",
          "name": "Wang Zhou"
        }
      ]
    },
    {
      "paperId": "1c3eaeb7a67d3c53f0badc408dede57f2bf52dd7",
      "externalIds": {
        "DBLP": "journals/corr/abs-2001-01017",
        "ArXiv": "2001.01017",
        "MAG": "2997657780",
        "CorpusId": 209862021
      },
      "url": "https://www.semanticscholar.org/paper/1c3eaeb7a67d3c53f0badc408dede57f2bf52dd7",
      "title": "Distributed Stochastic Algorithms for High-rate Streaming Principal Component Analysis",
      "venue": "Trans. Mach. Learn. Res.",
      "year": 2020,
      "referenceCount": 86,
      "citationCount": 11,
      "authors": [
        {
          "authorId": "1842719",
          "name": "Haroon Raja"
        },
        {
          "authorId": "2138101",
          "name": "W. Bajwa"
        }
      ]
    },
    {
      "paperId": "1c9164135049e7e2e91296d22da742d1aa7f6e5b",
      "externalIds": {
        "DBLP": "journals/corr/abs-2005-02664",
        "MAG": "3020946518",
        "CorpusId": 218516947
      },
      "url": "https://www.semanticscholar.org/paper/1c9164135049e7e2e91296d22da742d1aa7f6e5b",
      "title": "A Communication-Efficient Distributed Algorithm for Kernel Principal Component Analysis",
      "venue": "arXiv.org",
      "year": 2020,
      "referenceCount": 34,
      "citationCount": 0,
      "authors": [
        {
          "authorId": "2065065255",
          "name": "Fan He"
        },
        {
          "authorId": "47932717",
          "name": "Xiaolin Huang"
        },
        {
          "authorId": "75148474",
          "name": "Kexin Lv"
        },
        {
          "authorId": "2146104027",
          "name": "Jie Yang"
        }
      ]
    },
    {
      "paperId": "1213ab1692a1d5037181578087ca2eb6e0766c7f",
      "externalIds": {
        "DBLP": "conf/nips/AlimisisDVA21",
        "ArXiv": "2110.14391",
        "CorpusId": 239998746
      },
      "url": "https://www.semanticscholar.org/paper/1213ab1692a1d5037181578087ca2eb6e0766c7f",
      "title": "Distributed Principal Component Analysis with Limited Communication",
      "venue": "Neural Information Processing Systems",
      "year": 2021,
      "referenceCount": 33,
      "citationCount": 15,
      "authors": [
        {
          "authorId": "1382636529",
          "name": "Foivos Alimisis"
        },
        {
          "authorId": "152609310",
          "name": "Peter Davies"
        },
        {
          "authorId": "3146549",
          "name": "Bart Vandereycken"
        },
        {
          "authorId": "3311387",
          "name": "Dan Alistarh"
        }
      ]
    },
    {
      "paperId": "4b727df2e66d52984850cca3a82a76fcd157744c",
      "externalIds": {
        "MAG": "2387215011",
        "DBLP": "conf/kdd/BalcanLSW016",
        "DOI": "10.1145/2939672.2939796",
        "CorpusId": 14226133
      },
      "url": "https://www.semanticscholar.org/paper/4b727df2e66d52984850cca3a82a76fcd157744c",
      "title": "Communication Efficient Distributed Kernel Principal Component Analysis",
      "venue": "Knowledge Discovery and Data Mining",
      "year": 2015,
      "referenceCount": 34,
      "citationCount": 38,
      "authors": [
        {
          "authorId": "1745410",
          "name": "Maria-Florina Balcan"
        },
        {
          "authorId": "40609253",
          "name": "Yingyu Liang"
        },
        {
          "authorId": "1779453",
          "name": "Le Song"
        },
        {
          "authorId": "143982862",
          "name": "David P. Woodruff"
        },
        {
          "authorId": "2064541476",
          "name": "Bo Xie"
        }
      ]
    },
    {
      "paperId": "1fc57acdb0b4820a2f42901b4e4ce44420af0c57",
      "externalIds": {
        "DBLP": "journals/tsp/GangB22",
        "ArXiv": "2108.12373",
        "DOI": "10.1109/TSP.2022.3229635",
        "CorpusId": 237346908
      },
      "url": "https://www.semanticscholar.org/paper/1fc57acdb0b4820a2f42901b4e4ce44420af0c57",
      "title": "FAST-PCA: A Fast and Exact Algorithm for Distributed Principal Component Analysis",
      "venue": "IEEE Transactions on Signal Processing",
      "year": 2021,
      "referenceCount": 58,
      "citationCount": 21,
      "authors": [
        {
          "authorId": "7469847",
          "name": "Arpita Gang"
        },
        {
          "authorId": "2138101",
          "name": "W. Bajwa"
        }
      ]
    }
  ]
}