{
  "total": 10735,
  "offset": 0,
  "next": 10,
  "data": [
    {
      "paperId": "9b510639c82fbbc8c7d883644d7d15f5901c8c73",
      "externalIds": {
        "MAG": "1826694107",
        "DBLP": "journals/corr/BelangerK15",
        "ArXiv": "1502.04081",
        "CorpusId": 570528
      },
      "url": "https://www.semanticscholar.org/paper/9b510639c82fbbc8c7d883644d7d15f5901c8c73",
      "title": "A Linear Dynamical System Model for Text",
      "venue": "International Conference on Machine Learning",
      "year": 2015,
      "referenceCount": 44,
      "citationCount": 35,
      "authors": [
        {
          "authorId": "2636941",
          "name": "David Belanger"
        },
        {
          "authorId": "144695232",
          "name": "S. Kakade"
        }
      ]
    },
    {
      "paperId": "984089b275c6d4e325d7509b84597517d9ea8bfe",
      "externalIds": {
        "ArXiv": "2004.03762",
        "DBLP": "conf/conll/WeberSKBC20",
        "ACL": "2020.conll-1.42",
        "MAG": "3101097926",
        "DOI": "10.18653/v1/2020.conll-1.42",
        "CorpusId": 215415939
      },
      "url": "https://www.semanticscholar.org/paper/984089b275c6d4e325d7509b84597517d9ea8bfe",
      "title": "Generating Narrative Text in a Switching Dynamical System",
      "venue": "Conference on Computational Natural Language Learning",
      "year": 2020,
      "referenceCount": 45,
      "citationCount": 5,
      "authors": [
        {
          "authorId": "31455344",
          "name": "Noah Weber"
        },
        {
          "authorId": "49902768",
          "name": "L. Shekhar"
        },
        {
          "authorId": "2050205",
          "name": "Heeyoung Kwon"
        },
        {
          "authorId": "35217367",
          "name": "Niranjan Balasubramanian"
        },
        {
          "authorId": "1729918",
          "name": "Nathanael Chambers"
        }
      ]
    },
    {
      "paperId": "bf85c5ff482117debfefdc9fc904b32b6f244776",
      "externalIds": {
        "MAG": "2034162223",
        "DBLP": "conf/icassp/TsiarasMDSD14",
        "DOI": "10.1109/ICASSP.2014.6853606",
        "CorpusId": 15357266
      },
      "url": "https://www.semanticscholar.org/paper/bf85c5ff482117debfefdc9fc904b32b6f244776",
      "title": "Linear dynamical models in speech synthesis",
      "venue": "IEEE International Conference on Acoustics, Speech, and Signal Processing",
      "year": 2014,
      "referenceCount": 28,
      "citationCount": 7,
      "authors": [
        {
          "authorId": "38213614",
          "name": "V. Tsiaras"
        },
        {
          "authorId": "145981206",
          "name": "R. Maia"
        },
        {
          "authorId": "2204516",
          "name": "Vassilios Diakoloukas"
        },
        {
          "authorId": "3101750",
          "name": "Y. Stylianou"
        },
        {
          "authorId": "2121786",
          "name": "V. Digalakis"
        }
      ]
    },
    {
      "paperId": "3fbee60ad978a90e7e29ddf52cfb459f17f6ca45",
      "externalIds": {
        "DOI": "10.1142/s0218127426500744",
        "CorpusId": 285420093
      },
      "url": "https://www.semanticscholar.org/paper/3fbee60ad978a90e7e29ddf52cfb459f17f6ca45",
      "title": "Exploring Chameleon Chaos: A Linearly Modulated Generalized Duffing System with Hidden and Self-Excited Attractors",
      "venue": "International Journal of Bifurcation and Chaos in Applied Sciences and Engineering",
      "year": 2026,
      "referenceCount": 0,
      "citationCount": 0,
      "authors": [
        {
          "authorId": "2319013607",
          "name": "Xueqing Liu"
        },
        {
          "authorId": "2282855675",
          "name": "Bo Sang"
        },
        {
          "authorId": "2319081431",
          "name": "Chun Wang"
        },
        {
          "authorId": "2404425764",
          "name": "Cuicui Wang"
        },
        {
          "authorId": "2368495066",
          "name": "Yan Liu"
        },
        {
          "authorId": "2368094296",
          "name": "Cuihong Yang"
        },
        {
          "authorId": "2344318464",
          "name": "Irfan Ahmad"
        },
        {
          "authorId": "2142856202",
          "name": "T. Karimov"
        },
        {
          "authorId": "39761054",
          "name": "V. Rybin"
        },
        {
          "authorId": "102267088",
          "name": "D. Butusov"
        },
        {
          "authorId": "2152170707",
          "name": "Ning Wang"
        }
      ]
    },
    {
      "paperId": "a97ccc2a6e0d061f61d57c2464f3660bbfa9fec7",
      "externalIds": {
        "ArXiv": "2412.12602",
        "DBLP": "journals/corr/abs-2412-12602",
        "DOI": "10.48550/arXiv.2412.12602",
        "CorpusId": 274789588
      },
      "url": "https://www.semanticscholar.org/paper/a97ccc2a6e0d061f61d57c2464f3660bbfa9fec7",
      "title": "Don't Yell at Your Robot: Physical Correction as the Collaborative Interface for Language Model Powered Robots",
      "venue": "arXiv.org",
      "year": 2024,
      "referenceCount": 0,
      "citationCount": 2,
      "authors": [
        {
          "authorId": "2215500204",
          "name": "Chuye Zhang"
        },
        {
          "authorId": "2245808425",
          "name": "Y. Shao"
        },
        {
          "authorId": "2304553772",
          "name": "Harshil Parekh"
        },
        {
          "authorId": "2297813255",
          "name": "Junyao Shi"
        },
        {
          "authorId": "2258718499",
          "name": "Pratik Chaudhari"
        },
        {
          "authorId": "2319386166",
          "name": "Vijay Kumar"
        },
        {
          "authorId": "2335673555",
          "name": "Nadia Figueroa"
        }
      ]
    },
    {
      "paperId": "9489af7a184d0aec2a15bd1d99e71d47b29a6581",
      "externalIds": {
        "CorpusId": 16044371
      },
      "url": "https://www.semanticscholar.org/paper/9489af7a184d0aec2a15bd1d99e71d47b29a6581",
      "title": "Text S3: Linear Stability of the Traveling Wave So- Lutions",
      "venue": "",
      "year": null,
      "referenceCount": 4,
      "citationCount": 0,
      "authors": []
    },
    {
      "paperId": "9d5ff8867b912ac8ce326b7b698f5bbfb6d21062",
      "externalIds": {
        "DOI": "10.1142/s021812742650121x",
        "CorpusId": 287203117
      },
      "url": "https://www.semanticscholar.org/paper/9d5ff8867b912ac8ce326b7b698f5bbfb6d21062",
      "title": "Controlling Chaos in an Axisymmetric Rayleigh–Bénard Convection in a Cylindrical Enclosure with Variable Gravity Fields",
      "venue": "International Journal of Bifurcation and Chaos in Applied Sciences and Engineering",
      "year": 2026,
      "referenceCount": 0,
      "citationCount": 0,
      "authors": [
        {
          "authorId": "2135162866",
          "name": "S. Noor Arshika"
        },
        {
          "authorId": "2387166390",
          "name": "P. G. Siddheshwar"
        },
        {
          "authorId": "93869413",
          "name": "Sameena Tarannum"
        },
        {
          "authorId": "2299227626",
          "name": "D. Laroze"
        }
      ]
    },
    {
      "paperId": "1a33155bb184ced67cc51b1b5f37a326ff7e04bd",
      "externalIds": {
        "DBLP": "journals/ijbc/MessiasMRGA25",
        "DOI": "10.1142/s0218127425300204",
        "CorpusId": 278724035
      },
      "url": "https://www.semanticscholar.org/paper/1a33155bb184ced67cc51b1b5f37a326ff7e04bd",
      "title": "Electronic Implementation Replicates Numerical Error in the Chaotic Attractor Formation in a Memristive Circuit",
      "venue": "International Journal of Bifurcation and Chaos in Applied Sciences and Engineering",
      "year": 2025,
      "referenceCount": 0,
      "citationCount": 0,
      "authors": [
        {
          "authorId": "2322886821",
          "name": "Marcelo Messias"
        },
        {
          "authorId": "2729944",
          "name": "M. Meneguette"
        },
        {
          "authorId": "3245919",
          "name": "A. C. Reinol"
        },
        {
          "authorId": "103416989",
          "name": "A. Gokyildirim"
        },
        {
          "authorId": "47736058",
          "name": "A. Akgul"
        }
      ]
    },
    {
      "paperId": "a95ca607b2d17ee8171e186a4ed32b7432d2bfc2",
      "externalIds": {
        "DBLP": "journals/corr/abs-2108-11959",
        "ArXiv": "2108.11959",
        "CorpusId": 235428619
      },
      "url": "https://www.semanticscholar.org/paper/a95ca607b2d17ee8171e186a4ed32b7432d2bfc2",
      "title": "Finite-time System Identification and Adaptive Control in Autoregressive Exogenous Systems",
      "venue": "Conference on Learning for Dynamics & Control",
      "year": 2021,
      "referenceCount": 55,
      "citationCount": 13,
      "authors": [
        {
          "authorId": "66230713",
          "name": "Sahin Lale"
        },
        {
          "authorId": "3371922",
          "name": "K. Azizzadenesheli"
        },
        {
          "authorId": "1736279",
          "name": "B. Hassibi"
        },
        {
          "authorId": "2047844",
          "name": "Anima Anandkumar"
        }
      ]
    },
    {
      "paperId": "b843d36bfcdd2a19082fe00563281a758115e1d6",
      "externalIds": {
        "MAG": "2007471652",
        "DOI": "10.1007/S11012-007-9089-Z",
        "CorpusId": 119531121
      },
      "url": "https://www.semanticscholar.org/paper/b843d36bfcdd2a19082fe00563281a758115e1d6",
      "title": "Dynamical behavior of a nonlinear single-degree-of-freedom system with negative viscous and positive frictional damping",
      "venue": "",
      "year": 2008,
      "referenceCount": 7,
      "citationCount": 3,
      "authors": [
        {
          "authorId": "145655759",
          "name": "N. Jaksic"
        }
      ]
    }
  ]
}