{
  "total": 150,
  "offset": 0,
  "next": 10,
  "data": [
    {
      "paperId": "a2141a5ec0c65ea0a9861ae562f4c9fb8020d197",
      "externalIds": {
        "ArXiv": "1707.08475",
        "DBLP": "journals/corr/HigginsPRMBPBBL17",
        "MAG": "2739083961",
        "CorpusId": 9129880
      },
      "url": "https://www.semanticscholar.org/paper/a2141a5ec0c65ea0a9861ae562f4c9fb8020d197",
      "title": "DARLA: Improving Zero-Shot Transfer in Reinforcement Learning",
      "venue": "International Conference on Machine Learning",
      "year": 2017,
      "referenceCount": 72,
      "citationCount": 442,
      "authors": [
        {
          "authorId": "39051054",
          "name": "I. Higgins"
        },
        {
          "authorId": "3422676",
          "name": "Arka Pal"
        },
        {
          "authorId": "2228824",
          "name": "Andrei A. Rusu"
        },
        {
          "authorId": "2367480",
          "name": "L. Matthey"
        },
        {
          "authorId": "145463968",
          "name": "Christopher P. Burgess"
        },
        {
          "authorId": "1863250",
          "name": "A. Pritzel"
        },
        {
          "authorId": "46378362",
          "name": "M. Botvinick"
        },
        {
          "authorId": "1723876",
          "name": "C. Blundell"
        },
        {
          "authorId": "2289726",
          "name": "Alexander Lerchner"
        }
      ]
    },
    {
      "paperId": "1c200fd0057b32e1c67084999d2912f3dec6e1cd",
      "externalIds": {
        "CorpusId": 260551078
      },
      "url": "https://www.semanticscholar.org/paper/1c200fd0057b32e1c67084999d2912f3dec6e1cd",
      "title": "DARLA: Improving Zero-Shot Transfer in Reinforcement Learning",
      "venue": "",
      "year": 2017,
      "referenceCount": 0,
      "citationCount": 142,
      "authors": []
    },
    {
      "paperId": "d550ba66aa8310ec4c9d62811db71b2ce36cde24",
      "externalIds": {
        "DBLP": "conf/nips/KimPK22",
        "DOI": "10.52202/068431-0331",
        "CorpusId": 258509559
      },
      "url": "https://www.semanticscholar.org/paper/d550ba66aa8310ec4c9d62811db71b2ce36cde24",
      "title": "Constrained GPI for Zero-Shot Transfer in Reinforcement Learning",
      "venue": "Neural Information Processing Systems",
      "year": 2022,
      "referenceCount": 35,
      "citationCount": 10,
      "authors": [
        {
          "authorId": "65924935",
          "name": "Jaekyeom Kim"
        },
        {
          "authorId": "2118885320",
          "name": "Seohong Park"
        },
        {
          "authorId": "70308241",
          "name": "Gunhee Kim"
        }
      ]
    },
    {
      "paperId": "7517e1e7aa170667e5c4f23313431cecd14e35c6",
      "externalIds": {
        "DBLP": "journals/robotics/TranosSBS24",
        "DOI": "10.3390/robotics13070109",
        "CorpusId": 271360132
      },
      "url": "https://www.semanticscholar.org/paper/7517e1e7aa170667e5c4f23313431cecd14e35c6",
      "title": "Large-Scale Urban Traffic Management Using Zero-Shot Knowledge Transfer in Multi-Agent Reinforcement Learning for Intersection Patterns",
      "venue": "Robotics",
      "year": 2024,
      "referenceCount": 56,
      "citationCount": 1,
      "authors": [
        {
          "authorId": "2312541569",
          "name": "Theodore Tranos"
        },
        {
          "authorId": "22645094",
          "name": "Christos Spatharis"
        },
        {
          "authorId": "2302467683",
          "name": "Konstantinos Blekas"
        },
        {
          "authorId": "2312541801",
          "name": "Andreas-Giorgios Stafylopatis"
        }
      ]
    },
    {
      "paperId": "c2232e68cc1fba2d5fe166c86a8315e81f41440e",
      "externalIds": {
        "DOI": "10.63282/3050-9246.ijetcsit-v6i3p118",
        "CorpusId": 286196661
      },
      "url": "https://www.semanticscholar.org/paper/c2232e68cc1fba2d5fe166c86a8315e81f41440e",
      "title": "Zero-Shot Policy Transfer in Multi-Agent Reinforcement Learning via Trusted Federated Explainability",
      "venue": "International Journal of Emerging Trends in Computer Science and Information Technology",
      "year": 2025,
      "referenceCount": 0,
      "citationCount": 0,
      "authors": [
        {
          "authorId": "2383667092",
          "name": "Mohan Siva Krishna Konakanchi"
        }
      ]
    },
    {
      "paperId": "3008be468ec62e6179e1f9b969aae6f35515485a",
      "externalIds": {
        "DBLP": "journals/access/Song024",
        "DOI": "10.1109/ACCESS.2024.3361478",
        "CorpusId": 267427454
      },
      "url": "https://www.semanticscholar.org/paper/3008be468ec62e6179e1f9b969aae6f35515485a",
      "title": "Ricci Planner: Zero-Shot Transfer for Goal-Conditioned Reinforcement Learning via Geometric Flow",
      "venue": "IEEE Access",
      "year": 2024,
      "referenceCount": 46,
      "citationCount": 1,
      "authors": [
        {
          "authorId": "121389940",
          "name": "Wongeun Song"
        },
        {
          "authorId": "2281288151",
          "name": "Jungwoo Lee"
        }
      ]
    },
    {
      "paperId": "3c45d197fa151052fea9a173f4f1cd45ca2bff9a",
      "externalIds": {
        "DBLP": "journals/access/JiLHM24",
        "DOI": "10.1109/ACCESS.2024.3473935",
        "CorpusId": 273141570
      },
      "url": "https://www.semanticscholar.org/paper/3c45d197fa151052fea9a173f4f1cd45ca2bff9a",
      "title": "Real-Time Parameter Control for Trajectory Generation Using Reinforcement Learning With Zero-Shot Sim-to-Real Transfer",
      "venue": "IEEE Access",
      "year": 2024,
      "referenceCount": 46,
      "citationCount": 0,
      "authors": [
        {
          "authorId": "2212613905",
          "name": "Chang-Hun Ji"
        },
        {
          "authorId": "2324323773",
          "name": "Gyeonghun Lim"
        },
        {
          "authorId": "2152772803",
          "name": "Youn-Hee Han"
        },
        {
          "authorId": "2262395011",
          "name": "Sungtae Moon"
        }
      ]
    },
    {
      "paperId": "fdf377ebe49ea3d0ce40238463015ac8ba0bd2b6",
      "externalIds": {
        "DBLP": "conf/iros/LachHT0RST24",
        "DOI": "10.1109/IROS58592.2024.10802386",
        "CorpusId": 275021090
      },
      "url": "https://www.semanticscholar.org/paper/fdf377ebe49ea3d0ce40238463015ac8ba0bd2b6",
      "title": "Zero-Shot Transfer of a Tactile-based Continuous Force Control Policy from Simulation to Robot",
      "venue": "IEEE/RJS International Conference on Intelligent RObots and Systems",
      "year": 2024,
      "referenceCount": 60,
      "citationCount": 1,
      "authors": [
        {
          "authorId": "1999910670",
          "name": "Luca Lach"
        },
        {
          "authorId": "2112168",
          "name": "R. Haschke"
        },
        {
          "authorId": "2309004144",
          "name": "Davide Tateo"
        },
        {
          "authorId": "2257194996",
          "name": "Jan Peters"
        },
        {
          "authorId": "2266392061",
          "name": "Helge J. Ritter"
        },
        {
          "authorId": "2423090",
          "name": "Júlia Borràs Sol"
        },
        {
          "authorId": "2201511530",
          "name": "Carme Torras"
        }
      ]
    },
    {
      "paperId": "7aea7e0bf21799467adad8d30763f3b9555b658d",
      "externalIds": {
        "ArXiv": "2603.26097",
        "CorpusId": 286942456
      },
      "url": "https://www.semanticscholar.org/paper/7aea7e0bf21799467adad8d30763f3b9555b658d",
      "title": "Dynamic Tokenization via Reinforcement Patching: End-to-end Training and Zero-shot Transfer",
      "venue": "",
      "year": 2026,
      "referenceCount": 28,
      "citationCount": 0,
      "authors": [
        {
          "authorId": "2353092766",
          "name": "Yulun Wu"
        },
        {
          "authorId": "2166050415",
          "name": "S. Ankireddy"
        },
        {
          "authorId": "2238625839",
          "name": "Sam Sharpe"
        },
        {
          "authorId": "2361919220",
          "name": "N. Seleznev"
        },
        {
          "authorId": "2402902190",
          "name": "Dehao Yuan"
        },
        {
          "authorId": "2261390419",
          "name": "Hyeji Kim"
        },
        {
          "authorId": "2264278343",
          "name": "Nam H. Nguyen"
        }
      ]
    },
    {
      "paperId": "b989e6a346be1dad8eaf15a2b7b638b5b2ea3929",
      "externalIds": {
        "ArXiv": "2601.16677",
        "DBLP": "journals/eaai/GuittaLopezGBL25",
        "DOI": "10.1016/j.engappai.2025.111510",
        "CorpusId": 279889410
      },
      "url": "https://www.semanticscholar.org/paper/b989e6a346be1dad8eaf15a2b7b638b5b2ea3929",
      "title": "Sim-to-real transfer via a Style-Identified Cycle Consistent Generative Adversarial Network: Zero-shot deployment on robotic manipulators through visual domain adaptation",
      "venue": "Engineering applications of artificial intelligence",
      "year": 2025,
      "referenceCount": 51,
      "citationCount": 2,
      "authors": [
        {
          "authorId": "2190074254",
          "name": "Lucía Güitta-López"
        },
        {
          "authorId": "2380383425",
          "name": "Lionel Güitta-López"
        },
        {
          "authorId": "2369058900",
          "name": "Jaime Boal"
        },
        {
          "authorId": "2380486310",
          "name": "Alvaro Jesús López López"
        }
      ]
    }
  ]
}