{
  "total": 2036,
  "offset": 0,
  "next": 10,
  "data": [
    {
      "paperId": "fffaa4ba2542e4b1e31127b360aa8a66088a2775",
      "externalIds": {
        "DBLP": "journals/corr/abs-1802-05757",
        "MAG": "2788452549",
        "ArXiv": "1802.05757",
        "CorpusId": 263047176
      },
      "url": "https://www.semanticscholar.org/paper/fffaa4ba2542e4b1e31127b360aa8a66088a2775",
      "title": "Stochastic Wasserstein Barycenters",
      "venue": "International Conference on Machine Learning",
      "year": 2018,
      "referenceCount": 36,
      "citationCount": 77,
      "authors": [
        {
          "authorId": "2777863",
          "name": "Sebastian Claici"
        },
        {
          "authorId": "2305678963",
          "name": "Edward Chien"
        },
        {
          "authorId": "2300175253",
          "name": "J. Solomon"
        }
      ]
    },
    {
      "paperId": "f856316b01c84c6279c5871d71a61a1a449a7bb5",
      "externalIds": {
        "DBLP": "journals/oms/Dvinskikh22",
        "DOI": "10.1080/10556788.2021.1965600",
        "CorpusId": 268107615
      },
      "url": "https://www.semanticscholar.org/paper/f856316b01c84c6279c5871d71a61a1a449a7bb5",
      "title": "Stochastic approximation versus sample average approximation for Wasserstein barycenters",
      "venue": "Optim. Methods Softw.",
      "year": 2021,
      "referenceCount": 80,
      "citationCount": 5,
      "authors": [
        {
          "authorId": "40896959",
          "name": "D. Dvinskikh"
        }
      ]
    },
    {
      "paperId": "b4e66e0e2c47754bf05496cb491f97a180da6004",
      "externalIds": {
        "DBLP": "journals/corr/abs-2006-06763",
        "MAG": "3034922262",
        "CorpusId": 260529729
      },
      "url": "https://www.semanticscholar.org/paper/b4e66e0e2c47754bf05496cb491f97a180da6004",
      "title": "Stochastic Saddle-Point Optimization for Wasserstein Barycenters",
      "venue": "arXiv.org",
      "year": 2020,
      "referenceCount": 36,
      "citationCount": 5,
      "authors": [
        {
          "authorId": "1748959458",
          "name": "D. Tiapkin"
        },
        {
          "authorId": "2663409",
          "name": "A. Gasnikov"
        },
        {
          "authorId": "2960542",
          "name": "P. Dvurechensky"
        }
      ]
    },
    {
      "paperId": "4e10e7d45e7e2b13c0ab157580fca85082a452b6",
      "externalIds": {
        "ArXiv": "2411.14477",
        "CorpusId": 274192636
      },
      "url": "https://www.semanticscholar.org/paper/4e10e7d45e7e2b13c0ab157580fca85082a452b6",
      "title": "Scenario Tree Reduction via Wasserstein Barycenters",
      "venue": "",
      "year": 2024,
      "referenceCount": 0,
      "citationCount": 0,
      "authors": [
        {
          "authorId": "2238954819",
          "name": "D. Mimouni"
        },
        {
          "authorId": "2238954816",
          "name": "P. Malisani"
        },
        {
          "authorId": "2326799937",
          "name": "Jiamin Zhu"
        },
        {
          "authorId": "2238954763",
          "name": "W. D. Oliveira"
        }
      ]
    },
    {
      "paperId": "2b751e38b285f647f8ad162498470d3867bda737",
      "externalIds": {
        "MAG": "3089104126",
        "ArXiv": "2001.07697",
        "CorpusId": 221749121
      },
      "url": "https://www.semanticscholar.org/paper/2b751e38b285f647f8ad162498470d3867bda737",
      "title": "Stochastic Approximation versus Sample Average Approximation for population Wasserstein barycenters.",
      "venue": "",
      "year": 2020,
      "referenceCount": 106,
      "citationCount": 11,
      "authors": [
        {
          "authorId": "40896959",
          "name": "D. Dvinskikh"
        }
      ]
    },
    {
      "paperId": "6a8c3d43f44ff4c99e775b294e85fe4c57a7fb63",
      "externalIds": {
        "MAG": "3046655939",
        "DBLP": "conf/colt/ChewiMRS20",
        "ArXiv": "2001.01700",
        "CorpusId": 209862512
      },
      "url": "https://www.semanticscholar.org/paper/6a8c3d43f44ff4c99e775b294e85fe4c57a7fb63",
      "title": "Gradient descent algorithms for Bures-Wasserstein barycenters",
      "venue": "Annual Conference Computational Learning Theory",
      "year": 2020,
      "referenceCount": 60,
      "citationCount": 102,
      "authors": [
        {
          "authorId": "14838310",
          "name": "Sinho Chewi"
        },
        {
          "authorId": "1929091",
          "name": "Tyler Maunu"
        },
        {
          "authorId": "2352281",
          "name": "P. Rigollet"
        },
        {
          "authorId": "51124541",
          "name": "Austin J. Stromme"
        }
      ]
    },
    {
      "paperId": "81698495f50f0ebcb25622a91fa4c1ef1c718336",
      "externalIds": {
        "MAG": "3081712068",
        "DBLP": "conf/nips/LiGYS20",
        "ArXiv": "2008.12534",
        "CorpusId": 221370709
      },
      "url": "https://www.semanticscholar.org/paper/81698495f50f0ebcb25622a91fa4c1ef1c718336",
      "title": "Continuous Regularized Wasserstein Barycenters",
      "venue": "Neural Information Processing Systems",
      "year": 2020,
      "referenceCount": 34,
      "citationCount": 57,
      "authors": [
        {
          "authorId": "2145683158",
          "name": "Lingxiao Li"
        },
        {
          "authorId": "3403009",
          "name": "Aude Genevay"
        },
        {
          "authorId": "8202372",
          "name": "M. Yurochkin"
        },
        {
          "authorId": "1932072",
          "name": "J. Solomon"
        }
      ]
    },
    {
      "paperId": "857a5176c17c9a60a7b11d25c1885fe2fd3715da",
      "externalIds": {
        "MAG": "2963448041",
        "ArXiv": "1806.03915",
        "DBLP": "journals/corr/abs-1806-03915",
        "CorpusId": 47019571
      },
      "url": "https://www.semanticscholar.org/paper/857a5176c17c9a60a7b11d25c1885fe2fd3715da",
      "title": "Decentralize and Randomize: Faster Algorithm for Wasserstein Barycenters",
      "venue": "Neural Information Processing Systems",
      "year": 2018,
      "referenceCount": 48,
      "citationCount": 107,
      "authors": [
        {
          "authorId": "2960542",
          "name": "P. Dvurechensky"
        },
        {
          "authorId": "40896959",
          "name": "D. Dvinskikh"
        },
        {
          "authorId": "2663409",
          "name": "A. Gasnikov"
        },
        {
          "authorId": "32030988",
          "name": "César A. Uribe"
        },
        {
          "authorId": "30910707",
          "name": "Angelia Nedi'c"
        }
      ]
    },
    {
      "paperId": "4f1b35ff132a3f3baacba13ac7f110c92e308c0f",
      "externalIds": {
        "MAG": "2804763455",
        "ArXiv": "1805.10833",
        "DBLP": "journals/corr/abs-1805-10833",
        "DOI": "10.1051/ps/2022015",
        "CorpusId": 44133853
      },
      "url": "https://www.semanticscholar.org/paper/4f1b35ff132a3f3baacba13ac7f110c92e308c0f",
      "title": "Bayesian Learning with Wasserstein Barycenters",
      "venue": "E S A I M: Probability & Statistics",
      "year": 2018,
      "referenceCount": 79,
      "citationCount": 38,
      "authors": [
        {
          "authorId": "38707482",
          "name": "Gonzalo Rios"
        },
        {
          "authorId": "8770058",
          "name": "Julio D. Backhoff Veraguas"
        },
        {
          "authorId": "2577235",
          "name": "J. Fontbona"
        },
        {
          "authorId": "2841497",
          "name": "Felipe A. Tobar"
        }
      ]
    },
    {
      "paperId": "7aeab520abfc8bef01b53eb94356d4cb876a4547",
      "externalIds": {
        "DBLP": "journals/tcns/CisnerosVelardeB23",
        "MAG": "3110996742",
        "ArXiv": "2012.08610",
        "DOI": "10.1109/TCNS.2022.3210341",
        "CorpusId": 229191106
      },
      "url": "https://www.semanticscholar.org/paper/7aeab520abfc8bef01b53eb94356d4cb876a4547",
      "title": "Distributed Wasserstein Barycenters via Displacement Interpolation",
      "venue": "IEEE Transactions on Control of Network Systems",
      "year": 2020,
      "referenceCount": 40,
      "citationCount": 6,
      "authors": [
        {
          "authorId": "1403482597",
          "name": "Pedro Cisneros-Velarde"
        },
        {
          "authorId": "1793883",
          "name": "F. Bullo"
        }
      ]
    }
  ]
}