{
  "total": 4571,
  "offset": 0,
  "next": 10,
  "data": [
    {
      "paperId": "0b6641489bd7b20647cda69be927eaadebe50e7a",
      "externalIds": {
        "CorpusId": 533368
      },
      "url": "https://www.semanticscholar.org/paper/0b6641489bd7b20647cda69be927eaadebe50e7a",
      "title": "Robust Principal Component Analysis with Side Information",
      "venue": "",
      "year": 2016,
      "referenceCount": 0,
      "citationCount": 35,
      "authors": [
        {
          "authorId": "2272676247",
          "name": "kPT xiy"
        },
        {
          "authorId": "2272618958",
          "name": "hPT xiy"
        }
      ]
    },
    {
      "paperId": "e5885001d2d15720e8921186ab7456e85e2237cb",
      "externalIds": {
        "DBLP": "conf/icml/ChiangHD16",
        "MAG": "2463344124",
        "CorpusId": 14047904
      },
      "url": "https://www.semanticscholar.org/paper/e5885001d2d15720e8921186ab7456e85e2237cb",
      "title": "Robust Principal Component Analysis with Side Information",
      "venue": "International Conference on Machine Learning",
      "year": 2016,
      "referenceCount": 22,
      "citationCount": 7,
      "authors": [
        {
          "authorId": "3102065",
          "name": "Kai-Yang Chiang"
        },
        {
          "authorId": "1793529",
          "name": "Cho-Jui Hsieh"
        },
        {
          "authorId": "1783667",
          "name": "I. Dhillon"
        }
      ]
    },
    {
      "paperId": "fecbf84c6905cf2fff22236e4090114b401134fc",
      "externalIds": {
        "DBLP": "journals/tcsv/HanZLWYW23",
        "DOI": "10.1109/TCSVT.2023.3239376",
        "CorpusId": 256291071
      },
      "url": "https://www.semanticscholar.org/paper/fecbf84c6905cf2fff22236e4090114b401134fc",
      "title": "Tensor Robust Principal Component Analysis With Side Information: Models and Applications",
      "venue": "IEEE transactions on circuits and systems for video technology (Print)",
      "year": 2023,
      "referenceCount": 72,
      "citationCount": 15,
      "authors": [
        {
          "authorId": "144236633",
          "name": "Zhi Han"
        },
        {
          "authorId": "2202950042",
          "name": "Shaojie Zhang"
        },
        {
          "authorId": "2200168829",
          "name": "Zhiyu Liu"
        },
        {
          "authorId": "2130356228",
          "name": "Yanmei Wang"
        },
        {
          "authorId": "2026803258",
          "name": "Junping Yao"
        },
        {
          "authorId": "2144276483",
          "name": "Yao Wang"
        }
      ]
    },
    {
      "paperId": "dd33c1fac6d2861505a94d46c4f305eec155d1a3",
      "externalIds": {
        "DBLP": "journals/sivp/XuCW25",
        "DOI": "10.1007/s11760-025-04264-8",
        "CorpusId": 278835019
      },
      "url": "https://www.semanticscholar.org/paper/dd33c1fac6d2861505a94d46c4f305eec155d1a3",
      "title": "Background subtraction based on tensor Robust principal component analysis with side information",
      "venue": "Signal, Image and Video Processing",
      "year": 2025,
      "referenceCount": 26,
      "citationCount": 0,
      "authors": [
        {
          "authorId": "2363487731",
          "name": "Xin Xu"
        },
        {
          "authorId": "35155443",
          "name": "Lixia Chen"
        },
        {
          "authorId": "2108076696",
          "name": "Xuewen Wang"
        }
      ]
    },
    {
      "paperId": "194949a79bb431d43401feb61b94ec4a6d6612ca",
      "externalIds": {
        "MAG": "2962711020",
        "DBLP": "conf/iccv/XuePZ17",
        "DOI": "10.1109/ICCV.2017.463",
        "CorpusId": 263881757
      },
      "url": "https://www.semanticscholar.org/paper/194949a79bb431d43401feb61b94ec4a6d6612ca",
      "title": "Side Information in Robust Principal Component Analysis: Algorithms and Applications",
      "venue": "IEEE International Conference on Computer Vision",
      "year": 2017,
      "referenceCount": 35,
      "citationCount": 9,
      "authors": [
        {
          "authorId": "4091869",
          "name": "Niannan Xue"
        },
        {
          "authorId": "1780393",
          "name": "Yannis Panagakis"
        },
        {
          "authorId": "1776444",
          "name": "S. Zafeiriou"
        }
      ]
    },
    {
      "paperId": "3162ee57e37cf23e3ca2a20bf60dd9e409feb4f3",
      "externalIds": {
        "DBLP": "conf/igarss/ZhouZH23",
        "DOI": "10.1109/IGARSS52108.2023.10282097",
        "CorpusId": 264356192
      },
      "url": "https://www.semanticscholar.org/paper/3162ee57e37cf23e3ca2a20bf60dd9e409feb4f3",
      "title": "Learned Masked Robust Principal Component Analysis Model for Infrared Small Target Detection",
      "venue": "IEEE International Geoscience and Remote Sensing Symposium",
      "year": 2023,
      "referenceCount": 9,
      "citationCount": 0,
      "authors": [
        {
          "authorId": "47154961",
          "name": "Xinyu Zhou"
        },
        {
          "authorId": "2260831761",
          "name": "Ye Zhang"
        },
        {
          "authorId": "2260828662",
          "name": "Yue Hu"
        }
      ]
    },
    {
      "paperId": "e43af539e9b7944ee5d15452e20c78faf18c9018",
      "externalIds": {
        "DBLP": "journals/corr/XuePZ17",
        "ArXiv": "1702.00648",
        "MAG": "2586462511",
        "CorpusId": 12874335
      },
      "url": "https://www.semanticscholar.org/paper/e43af539e9b7944ee5d15452e20c78faf18c9018",
      "title": "Side Information in Robust Principle Component Analysis: Algorithms and Applications",
      "venue": "arXiv.org",
      "year": 2017,
      "referenceCount": 30,
      "citationCount": 3,
      "authors": [
        {
          "authorId": "4091869",
          "name": "Niannan Xue"
        },
        {
          "authorId": "1780393",
          "name": "Yannis Panagakis"
        },
        {
          "authorId": "1776444",
          "name": "S. Zafeiriou"
        }
      ]
    },
    {
      "paperId": "121253837dfbafe26f65ec1adbea69477df47ef4",
      "externalIds": {
        "ArXiv": "1709.04836",
        "DBLP": "journals/corr/abs-1709-04836",
        "MAG": "2963844871",
        "DOI": "10.1609/aaai.v32i1.11612",
        "CorpusId": 19105275
      },
      "url": "https://www.semanticscholar.org/paper/121253837dfbafe26f65ec1adbea69477df47ef4",
      "title": "Informed Non-convex Robust Principal Component Analysis with Features",
      "venue": "AAAI Conference on Artificial Intelligence",
      "year": 2017,
      "referenceCount": 25,
      "citationCount": 7,
      "authors": [
        {
          "authorId": "4091869",
          "name": "Niannan Xue"
        },
        {
          "authorId": "3234063",
          "name": "Jiankang Deng"
        },
        {
          "authorId": "1780393",
          "name": "Yannis Panagakis"
        },
        {
          "authorId": "1776444",
          "name": "S. Zafeiriou"
        }
      ]
    },
    {
      "paperId": "2e81c6a45762aa6855f23e9bdb292df40097bf58",
      "externalIds": {
        "DBLP": "journals/ejisec/FanZZ22",
        "DOI": "10.1186/s13635-022-00130-z",
        "CorpusId": 256252822
      },
      "url": "https://www.semanticscholar.org/paper/2e81c6a45762aa6855f23e9bdb292df40097bf58",
      "title": "Robust video steganography for social media sharing based on principal component analysis",
      "venue": "EURASIP Journal on Information Security",
      "year": 2021,
      "referenceCount": 62,
      "citationCount": 18,
      "authors": [
        {
          "authorId": "1753697104",
          "name": "Pingan Fan"
        },
        {
          "authorId": "2146243587",
          "name": "Hong Zhang"
        },
        {
          "authorId": "1773110",
          "name": "Xianfeng Zhao"
        }
      ]
    },
    {
      "paperId": "d3536975f9f340c4d023f37acb76873f079c31b1",
      "externalIds": {
        "DBLP": "journals/pami/XueDCPZ19",
        "MAG": "2784562179",
        "ArXiv": "1801.07580",
        "DOI": "10.1109/TPAMI.2019.2902556",
        "CorpusId": 8932623,
        "PubMed": "30843800"
      },
      "url": "https://www.semanticscholar.org/paper/d3536975f9f340c4d023f37acb76873f079c31b1",
      "title": "Side Information for Face Completion: A Robust PCA Approach",
      "venue": "IEEE Transactions on Pattern Analysis and Machine Intelligence",
      "year": 2018,
      "referenceCount": 92,
      "citationCount": 26,
      "authors": [
        {
          "authorId": "4091869",
          "name": "Niannan Xue"
        },
        {
          "authorId": "3234063",
          "name": "Jiankang Deng"
        },
        {
          "authorId": "145864185",
          "name": "Shiyang Cheng"
        },
        {
          "authorId": "1780393",
          "name": "Yannis Panagakis"
        },
        {
          "authorId": "1776444",
          "name": "S. Zafeiriou"
        }
      ]
    }
  ]
}