{
  "total": 8273,
  "offset": 0,
  "next": 10,
  "data": [
    {
      "paperId": "a3475d7be51529932d7f33c273b3c74bbba0d551",
      "externalIds": {
        "ArXiv": "1803.01489",
        "MAG": "2793100723",
        "DBLP": "journals/corr/abs-1803-01489",
        "CorpusId": 3705950
      },
      "url": "https://www.semanticscholar.org/paper/a3475d7be51529932d7f33c273b3c74bbba0d551",
      "title": "Recurrent Predictive State Policy Networks",
      "venue": "International Conference on Machine Learning",
      "year": 2018,
      "referenceCount": 38,
      "citationCount": 20,
      "authors": [
        {
          "authorId": "145253835",
          "name": "Ahmed S. Hefny"
        },
        {
          "authorId": "2566656",
          "name": "Zita Marinho"
        },
        {
          "authorId": "144426657",
          "name": "Wen Sun"
        },
        {
          "authorId": "1752197",
          "name": "S. Srinivasa"
        },
        {
          "authorId": "21889436",
          "name": "Geoffrey J. Gordon"
        }
      ]
    },
    {
      "paperId": "40e660e7ede7152085334836163b83962e97d4b7",
      "externalIds": {
        "CorpusId": 260548499
      },
      "url": "https://www.semanticscholar.org/paper/40e660e7ede7152085334836163b83962e97d4b7",
      "title": "Recurrent Predictive State Policy Networks",
      "venue": "",
      "year": 2018,
      "referenceCount": 0,
      "citationCount": 1,
      "authors": []
    },
    {
      "paperId": "bb199d7959a2ee37ee716baf275d849467643693",
      "externalIds": {
        "ArXiv": "2211.06236",
        "DBLP": "journals/corr/abs-2211-06236",
        "DOI": "10.48550/arXiv.2211.06236",
        "CorpusId": 253498947
      },
      "url": "https://www.semanticscholar.org/paper/bb199d7959a2ee37ee716baf275d849467643693",
      "title": "Efficient Deep Reinforcement Learning with Predictive Processing Proximal Policy Optimization",
      "venue": "Neurons, Behavior, Data analysis, and Theory",
      "year": 2022,
      "referenceCount": 79,
      "citationCount": 2,
      "authors": [
        {
          "authorId": "2156839488",
          "name": "Burcu Küçükoğlu"
        },
        {
          "authorId": "2190691862",
          "name": "Walraaf Borkent"
        },
        {
          "authorId": "4765464",
          "name": "Bodo Rueckauer"
        },
        {
          "authorId": "153414459",
          "name": "Nasir Ahmad"
        },
        {
          "authorId": "3038211",
          "name": "Umut Güçlü"
        },
        {
          "authorId": "143799386",
          "name": "M. Gerven"
        }
      ]
    },
    {
      "paperId": "f7b92d352a6ff9c454c5810090efa0c0dfde220a",
      "externalIds": {
        "DOI": "10.1109/ICCSIE65832.2025.00036",
        "CorpusId": 285315804
      },
      "url": "https://www.semanticscholar.org/paper/f7b92d352a6ff9c454c5810090efa0c0dfde220a",
      "title": "Intelligent Environmental Control for Data Centers Based on Deep Neural Networks",
      "venue": "2025 10th International Conference on Cyber Security and Information Engineering (ICCSIE)",
      "year": 2025,
      "referenceCount": 15,
      "citationCount": 0,
      "authors": [
        {
          "authorId": "2390166076",
          "name": "Zhixuan Zhang"
        },
        {
          "authorId": "2409800879",
          "name": "Wei Huang"
        },
        {
          "authorId": "2408994032",
          "name": "Wenji Li"
        },
        {
          "authorId": "2409154858",
          "name": "Yuan Zhang"
        },
        {
          "authorId": "2027161302",
          "name": "Zhitao Shao"
        },
        {
          "authorId": "2408938611",
          "name": "Zheng Lian"
        }
      ]
    },
    {
      "paperId": "09dec357b88eda105bae481e7e1f80dea12a6e10",
      "externalIds": {
        "MAG": "2765401264",
        "DBLP": "conf/icann/OtteSFB17",
        "DOI": "10.1007/978-3-319-68600-4_27",
        "CorpusId": 36510844
      },
      "url": "https://www.semanticscholar.org/paper/09dec357b88eda105bae481e7e1f80dea12a6e10",
      "title": "Inferring Adaptive Goal-Directed Behavior Within Recurrent Neural Networks",
      "venue": "International Conference on Artificial Neural Networks",
      "year": 2017,
      "referenceCount": 14,
      "citationCount": 22,
      "authors": [
        {
          "authorId": "2527215",
          "name": "S. Otte"
        },
        {
          "authorId": "39476475",
          "name": "T. Schmitt"
        },
        {
          "authorId": "1737497",
          "name": "Karl J. Friston"
        },
        {
          "authorId": "1732540",
          "name": "Martin Volker Butz"
        }
      ]
    },
    {
      "paperId": "3d2a9c8f3b0aa6483cba0e39b8f0f620ddb1e247",
      "externalIds": {
        "DBLP": "journals/tmlr/RemmerdenYYHF25",
        "CorpusId": 283675124
      },
      "url": "https://www.semanticscholar.org/paper/3d2a9c8f3b0aa6483cba0e39b8f0f620ddb1e247",
      "title": "Learning Task-Aware Abstract Representations for Meta-Reinforcement Learning",
      "venue": "Trans. Mach. Learn. Res.",
      "year": 2025,
      "referenceCount": 31,
      "citationCount": 0,
      "authors": [
        {
          "authorId": "2397206455",
          "name": "Louk van Remmerden"
        },
        {
          "authorId": "2363265641",
          "name": "Zhao Yang"
        },
        {
          "authorId": "2344609821",
          "name": "Shujian Yu"
        },
        {
          "authorId": "2220882638",
          "name": "M. Hoogendoorn"
        },
        {
          "authorId": "2265638999",
          "name": "Vincent François-Lavet"
        }
      ]
    },
    {
      "paperId": "8dc8ddb5daedc8c6539bf0c29a64bb33687ef4d4",
      "externalIds": {
        "MAG": "2063227712",
        "DBLP": "conf/smc/KimLK13",
        "DOI": "10.1109/SMC.2013.620",
        "CorpusId": 39760910
      },
      "url": "https://www.semanticscholar.org/paper/8dc8ddb5daedc8c6539bf0c29a64bb33687ef4d4",
      "title": "Predictive Modeling of Time-Varying Environmental Information for Path Planning",
      "venue": "IEEE International Conference on Systems, Man and Cybernetics",
      "year": 2013,
      "referenceCount": 22,
      "citationCount": 2,
      "authors": [
        {
          "authorId": "2119155832",
          "name": "Woojin Kim"
        },
        {
          "authorId": "102708768",
          "name": "Hyeonbeom Lee"
        },
        {
          "authorId": "2250517980",
          "name": "H. J. Kim"
        }
      ]
    },
    {
      "paperId": "0421a6a269b31827429290a4afebffc384a5e76c",
      "externalIds": {
        "DBLP": "journals/corr/abs-1903-04714",
        "MAG": "2930620797",
        "ArXiv": "1903.04714",
        "CorpusId": 75134905
      },
      "url": "https://www.semanticscholar.org/paper/0421a6a269b31827429290a4afebffc384a5e76c",
      "title": "Imitation Learning of Factored Multi-agent Reactive Models",
      "venue": "arXiv.org",
      "year": 2019,
      "referenceCount": 30,
      "citationCount": 1,
      "authors": [
        {
          "authorId": "40287287",
          "name": "Michael Teng"
        },
        {
          "authorId": "2067951916",
          "name": "T. Le"
        },
        {
          "authorId": "3207374",
          "name": "A. Scibior"
        },
        {
          "authorId": "144109143",
          "name": "Frank Wood"
        }
      ]
    },
    {
      "paperId": "9c92c6729ce0ecc52476d0a606769e2adb0de59a",
      "externalIds": {
        "ArXiv": "1705.09353",
        "MAG": "2962824919",
        "DBLP": "conf/nips/DowneyHBGL17",
        "CorpusId": 28146865
      },
      "url": "https://www.semanticscholar.org/paper/9c92c6729ce0ecc52476d0a606769e2adb0de59a",
      "title": "Predictive State Recurrent Neural Networks",
      "venue": "Neural Information Processing Systems",
      "year": 2017,
      "referenceCount": 40,
      "citationCount": 57,
      "authors": [
        {
          "authorId": "35526495",
          "name": "Carlton Downey"
        },
        {
          "authorId": "145253835",
          "name": "Ahmed S. Hefny"
        },
        {
          "authorId": "3288815",
          "name": "Byron Boots"
        },
        {
          "authorId": "21889436",
          "name": "Geoffrey J. Gordon"
        },
        {
          "authorId": "29892904",
          "name": "Boyue Li"
        }
      ]
    },
    {
      "paperId": "5b1c86ee83df029405f8e270d2a257679ab879fe",
      "externalIds": {
        "MAG": "2750941309",
        "DBLP": "conf/nips/VenkatramanRSPH17",
        "ArXiv": "1709.08520",
        "CorpusId": 21277703
      },
      "url": "https://www.semanticscholar.org/paper/5b1c86ee83df029405f8e270d2a257679ab879fe",
      "title": "Predictive-State Decoders: Encoding the Future into Recurrent Networks",
      "venue": "Neural Information Processing Systems",
      "year": 2017,
      "referenceCount": 72,
      "citationCount": 43,
      "authors": [
        {
          "authorId": "1978198",
          "name": "Arun Venkatraman"
        },
        {
          "authorId": "1974383",
          "name": "Nicholas Rhinehart"
        },
        {
          "authorId": "144426657",
          "name": "Wen Sun"
        },
        {
          "authorId": "34026610",
          "name": "Lerrel Pinto"
        },
        {
          "authorId": "145670946",
          "name": "M. Hebert"
        },
        {
          "authorId": "3288815",
          "name": "Byron Boots"
        },
        {
          "authorId": "37991449",
          "name": "Kris M. Kitani"
        },
        {
          "authorId": "1756566",
          "name": "J. Bagnell"
        }
      ]
    }
  ]
}