{
  "total": 3552,
  "offset": 0,
  "next": 10,
  "data": [
    {
      "paperId": "b5abfc198683f99927f7e56fd68ad39cdceff364",
      "externalIds": {
        "MAG": "1844525149",
        "DBLP": "conf/icml/GuanSBMBB15",
        "CorpusId": 3098112
      },
      "url": "https://www.semanticscholar.org/paper/b5abfc198683f99927f7e56fd68ad39cdceff364",
      "title": "Moderated and Drifting Linear Dynamical Systems",
      "venue": "International Conference on Machine Learning",
      "year": 2015,
      "referenceCount": 44,
      "citationCount": 3,
      "authors": [
        {
          "authorId": "2625010",
          "name": "Jinyan Guan"
        },
        {
          "authorId": "32454473",
          "name": "K. Simek"
        },
        {
          "authorId": "2048004",
          "name": "Ernesto Brau"
        },
        {
          "authorId": "3056892",
          "name": "Clayton T. Morrison"
        },
        {
          "authorId": "34687440",
          "name": "Emily Butler"
        },
        {
          "authorId": "145602732",
          "name": "Kobus Barnard"
        }
      ]
    },
    {
      "paperId": "780685468434850cd6513b0f2a2532a7b620e012",
      "externalIds": {
        "DOI": "10.1109/MEES64070.2024.11404844",
        "CorpusId": 286133632
      },
      "url": "https://www.semanticscholar.org/paper/780685468434850cd6513b0f2a2532a7b620e012",
      "title": "Perturbed Motions in Previously-Disturbed Continuous-Time Linear Dynamical Systems",
      "venue": "2024 IEEE 6th International Conference on Modern Electrical and Energy System (MEES)",
      "year": 2024,
      "referenceCount": 30,
      "citationCount": 0,
      "authors": [
        {
          "authorId": "2332097646",
          "name": "R. Voliansky"
        },
        {
          "authorId": "2266766467",
          "name": "Oleg Sergienko"
        },
        {
          "authorId": "47773533",
          "name": "O. Tolochko"
        },
        {
          "authorId": "1404439446",
          "name": "Iurii Shramko"
        },
        {
          "authorId": "40911858",
          "name": "Nina Volianska"
        },
        {
          "authorId": "69463148",
          "name": "Yunifa Miftachul Arif"
        }
      ]
    },
    {
      "paperId": "c8b076dece4075ccac3f70fce926b67e1fa2e34e",
      "externalIds": {
        "ArXiv": "2502.14337",
        "CorpusId": 276482594
      },
      "url": "https://www.semanticscholar.org/paper/c8b076dece4075ccac3f70fce926b67e1fa2e34e",
      "title": "Latent computing by biological neural networks: A dynamical systems framework",
      "venue": "",
      "year": 2025,
      "referenceCount": 0,
      "citationCount": 4,
      "authors": [
        {
          "authorId": "2133954288",
          "name": "Fatih Dinç"
        },
        {
          "authorId": "1490742650",
          "name": "M. Blanco-Pozo"
        },
        {
          "authorId": "2396490488",
          "name": "David A. Klindt"
        },
        {
          "authorId": "2197081953",
          "name": "Francisco Acosta"
        },
        {
          "authorId": "2317102248",
          "name": "Yiqi Jiang"
        },
        {
          "authorId": "90386360",
          "name": "Sadegh Ebrahimi"
        },
        {
          "authorId": "2267247728",
          "name": "Adam Shai"
        },
        {
          "authorId": "2267308505",
          "name": "Hidenori Tanaka"
        },
        {
          "authorId": "2346311183",
          "name": "Peng Yuan"
        },
        {
          "authorId": "2267245011",
          "name": "Mark J. Schnitzer"
        },
        {
          "authorId": "2219727218",
          "name": "N. Miolane"
        }
      ]
    },
    {
      "paperId": "deac584d1ccb0e916dc387a12089fd1c83b78509",
      "externalIds": {
        "DBLP": "journals/corr/abs-2405-08307",
        "ArXiv": "2405.08307",
        "DOI": "10.1002/nme.7618",
        "CorpusId": 269761867
      },
      "url": "https://www.semanticscholar.org/paper/deac584d1ccb0e916dc387a12089fd1c83b78509",
      "title": "Sequential Maximal Updated Density Parameter Estimation for Dynamical Systems With Parameter Drift",
      "venue": "International Journal for Numerical Methods in Engineering",
      "year": 2024,
      "referenceCount": 74,
      "citationCount": 3,
      "authors": [
        {
          "authorId": "1409285918",
          "name": "C. Del-Castillo-Negrete"
        },
        {
          "authorId": "2301204902",
          "name": "Rylan Spence"
        },
        {
          "authorId": "2265328110",
          "name": "Troy Butler"
        },
        {
          "authorId": "2301205558",
          "name": "Clint Dawson"
        }
      ]
    },
    {
      "paperId": "588d5b34ef0294757f1cd6821ce6bbcb4444bd97",
      "externalIds": {
        "DBLP": "journals/corr/abs-2410-03108",
        "ArXiv": "2410.03108",
        "DOI": "10.48550/arXiv.2410.03108",
        "CorpusId": 273163220
      },
      "url": "https://www.semanticscholar.org/paper/588d5b34ef0294757f1cd6821ce6bbcb4444bd97",
      "title": "A Training-Free Conditional Diffusion Model for Learning Stochastic Dynamical Systems",
      "venue": "SIAM Journal on Scientific Computing",
      "year": 2024,
      "referenceCount": 39,
      "citationCount": 13,
      "authors": [
        {
          "authorId": "2261329572",
          "name": "Yanfang Liu"
        },
        {
          "authorId": "2274982188",
          "name": "Yuan Chen"
        },
        {
          "authorId": "2274937717",
          "name": "Dongbin Xiu"
        },
        {
          "authorId": "2248813625",
          "name": "Guannan Zhang"
        }
      ]
    },
    {
      "paperId": "fb5a6372627f5197aa3ce8be0cd5ce95472896f3",
      "externalIds": {
        "DOI": "10.64898/2026.03.07.710319",
        "CorpusId": 286493870
      },
      "url": "https://www.semanticscholar.org/paper/fb5a6372627f5197aa3ce8be0cd5ce95472896f3",
      "title": "Stiefel Manifold Dynamical Systems for Tracking Representational Drift",
      "venue": "bioRxiv",
      "year": 2026,
      "referenceCount": 0,
      "citationCount": 0,
      "authors": [
        {
          "authorId": "2336917675",
          "name": "Hyun Dong Lee"
        },
        {
          "authorId": "1642116101",
          "name": "Aditi Jha"
        },
        {
          "authorId": "2353168600",
          "name": "Stephen E. Clarke"
        },
        {
          "authorId": "2126182843",
          "name": "Michael P. Silvernagel"
        },
        {
          "authorId": "2257344288",
          "name": "Paul Nuyujukian"
        },
        {
          "authorId": "2375011821",
          "name": "Scott W. Linderman"
        }
      ]
    },
    {
      "paperId": "fd8f7c2cbfb53ca01c4ec45dfb28864ba94ee9f6",
      "externalIds": {
        "MAG": "3001252160",
        "ArXiv": "2001.07057",
        "DOI": "10.3934/mcrf.2022018",
        "CorpusId": 210839563
      },
      "url": "https://www.semanticscholar.org/paper/fd8f7c2cbfb53ca01c4ec45dfb28864ba94ee9f6",
      "title": "Approximation of linear controlled dynamical systems with small random noise and fast periodic sampling",
      "venue": "Mathematical Control and Related Fields",
      "year": 2020,
      "referenceCount": 52,
      "citationCount": 2,
      "authors": [
        {
          "authorId": "1490485989",
          "name": "Shivam Dhama"
        },
        {
          "authorId": "2878756",
          "name": "Chetan D. Pahlajani"
        }
      ]
    },
    {
      "paperId": "af4cbc573435f513c7a4f05e6d0e27b75cc20409",
      "externalIds": {
        "MAG": "2727620183",
        "CorpusId": 117412009
      },
      "url": "https://www.semanticscholar.org/paper/af4cbc573435f513c7a4f05e6d0e27b75cc20409",
      "title": "Drifting-ice structure interaction, a dynamical systems approach",
      "venue": "",
      "year": 2015,
      "referenceCount": 32,
      "citationCount": 1,
      "authors": [
        {
          "authorId": "102664928",
          "name": "T. V. Dijk"
        }
      ]
    },
    {
      "paperId": "445a876ba315bfe96e4698a6ab91625658f4cc23",
      "externalIds": {
        "DBLP": "journals/corr/abs-2105-08449",
        "ArXiv": "2105.08449",
        "DOI": "10.23919/EUSIPCO54536.2021.9616068",
        "CorpusId": 234763094
      },
      "url": "https://www.semanticscholar.org/paper/445a876ba315bfe96e4698a6ab91625658f4cc23",
      "title": "Learning stochastic dynamical systems with neural networks mimicking the Euler-Maruyama scheme",
      "venue": "European Signal Processing Conference",
      "year": 2021,
      "referenceCount": 29,
      "citationCount": 10,
      "authors": [
        {
          "authorId": "144404277",
          "name": "Noura Dridi"
        },
        {
          "authorId": "3407508",
          "name": "Lucas Drumetz"
        },
        {
          "authorId": "1731935",
          "name": "Ronan Fablet"
        }
      ]
    },
    {
      "paperId": "1ee4e419154835d1618ac84702346c81b608b3fb",
      "externalIds": {
        "DBLP": "journals/siamads/VarzanehRS22",
        "DOI": "10.1137/21m1433435",
        "CorpusId": 201660440
      },
      "url": "https://www.semanticscholar.org/paper/1ee4e419154835d1618ac84702346c81b608b3fb",
      "title": "A Dynamical Theory for Singular Stochastic Delay Differential Equations I: Linear Equations and a Multiplicative Ergodic Theorem on Fields of Banach Spaces",
      "venue": "SIAM Journal on Applied Dynamical Systems",
      "year": 2022,
      "referenceCount": 61,
      "citationCount": 14,
      "authors": [
        {
          "authorId": "102681371",
          "name": "Mazyar Ghani Varzaneh"
        },
        {
          "authorId": null,
          "name": "Sebastian Riedel"
        },
        {
          "authorId": "1699674",
          "name": "M. Scheutzow"
        }
      ]
    }
  ]
}