{
  "total": 164,
  "offset": 0,
  "next": 10,
  "data": [
    {
      "paperId": "7d520c022397773ab25feef5c5c6492bf1900999",
      "externalIds": {
        "DBLP": "conf/icml/KucukelbirWB17",
        "MAG": "2740945067",
        "CorpusId": 7432732
      },
      "url": "https://www.semanticscholar.org/paper/7d520c022397773ab25feef5c5c6492bf1900999",
      "title": "Evaluating Bayesian Models with Posterior Dispersion Indices",
      "venue": "International Conference on Machine Learning",
      "year": 2017,
      "referenceCount": 40,
      "citationCount": 4,
      "authors": [
        {
          "authorId": "3081817",
          "name": "A. Kucukelbir"
        },
        {
          "authorId": "2108734693",
          "name": "Yixin Wang"
        },
        {
          "authorId": "1796335",
          "name": "D. Blei"
        }
      ]
    },
    {
      "paperId": "c609cb589f603e703afb98371166f674c50d846b",
      "externalIds": {
        "DOI": "10.1080/10705511.2024.2413128",
        "CorpusId": 273746292
      },
      "url": "https://www.semanticscholar.org/paper/c609cb589f603e703afb98371166f674c50d846b",
      "title": "Evaluating Local Model Misspecification with Modification Indices in Bayesian Structural Equation Modeling",
      "venue": "Structural Equation Modeling: A Multidisciplinary Journal",
      "year": 2024,
      "referenceCount": 63,
      "citationCount": 8,
      "authors": [
        {
          "authorId": "2258181958",
          "name": "M. Garnier-Villarreal"
        },
        {
          "authorId": "2249353499",
          "name": "Terrence D. Jorgensen"
        }
      ]
    },
    {
      "paperId": "75938c3eec2870d858b8f38618e51df8643e9738",
      "externalIds": {
        "DOI": "10.1111/jedm.12408",
        "CorpusId": 271263676
      },
      "url": "https://www.semanticscholar.org/paper/75938c3eec2870d858b8f38618e51df8643e9738",
      "title": "Model Selection Posterior Predictive Model Checking via Limited‐Information Indices for Bayesian Diagnostic Classification Modeling",
      "venue": "Journal of Educational Measurement",
      "year": 2024,
      "referenceCount": 40,
      "citationCount": 1,
      "authors": [
        {
          "authorId": "2107929866",
          "name": "Jihong Zhang"
        },
        {
          "authorId": "2311799254",
          "name": "Jonathan Templin"
        },
        {
          "authorId": "40250405",
          "name": "Xinya Liang"
        }
      ]
    },
    {
      "paperId": "11bbfa63087cbde7407f86fdf57f457e3defc2cc",
      "externalIds": {
        "DOI": "10.3758/s13428-025-02921-x",
        "CorpusId": 285975658,
        "PubMed": "41731243"
      },
      "url": "https://www.semanticscholar.org/paper/11bbfa63087cbde7407f86fdf57f457e3defc2cc",
      "title": "How plausible is my model? Assessing model plausibility of structural equation models using Bayesian posterior probabilities (BPP)",
      "venue": "Behavior Research Methods",
      "year": 2026,
      "referenceCount": 26,
      "citationCount": 0,
      "authors": [
        {
          "authorId": "13122036",
          "name": "I. J. Pesigan"
        },
        {
          "authorId": "2271436857",
          "name": "Shu Fai Cheung"
        },
        {
          "authorId": "49498685",
          "name": "Huiping Wu"
        },
        {
          "authorId": "2418253781",
          "name": "Florbela Chang"
        },
        {
          "authorId": "2204010041",
          "name": "Shing on Leung"
        }
      ]
    },
    {
      "paperId": "44f6d290b7add316695cd1d014bb0d5b2ee6b9c8",
      "externalIds": {
        "DOI": "10.1016/j.jsp.2025.101429",
        "CorpusId": 277481914,
        "PubMed": "40506161"
      },
      "url": "https://www.semanticscholar.org/paper/44f6d290b7add316695cd1d014bb0d5b2ee6b9c8",
      "title": "Flexible distributional models for meta-analysis of reading fluency outcomes from single-case designs: An examination using Bayesian methods.",
      "venue": "Journal of School Psychology",
      "year": 2025,
      "referenceCount": 85,
      "citationCount": 1,
      "authors": [
        {
          "authorId": "2353151320",
          "name": "Paulina Grekov"
        },
        {
          "authorId": "2266445260",
          "name": "James E Pustejovsky"
        },
        {
          "authorId": "6695117",
          "name": "David A. Klingbeil"
        }
      ]
    },
    {
      "paperId": "d952453fc406a13ddac04c8d408a556c37f7baa1",
      "externalIds": {
        "DBLP": "journals/corr/KucukelbirB16",
        "ArXiv": "1605.07604",
        "MAG": "2394568797",
        "CorpusId": 9178692
      },
      "url": "https://www.semanticscholar.org/paper/d952453fc406a13ddac04c8d408a556c37f7baa1",
      "title": "Posterior Dispersion Indices",
      "venue": "arXiv.org",
      "year": 2016,
      "referenceCount": 34,
      "citationCount": 0,
      "authors": [
        {
          "authorId": "3081817",
          "name": "A. Kucukelbir"
        },
        {
          "authorId": "1796335",
          "name": "D. Blei"
        }
      ]
    },
    {
      "paperId": "a2f6ecfaa27692ec0cb7b29014a38fc13df7e9b9",
      "externalIds": {
        "DOI": "10.1080/10705511.2025.2503789",
        "CorpusId": 279578026
      },
      "url": "https://www.semanticscholar.org/paper/a2f6ecfaa27692ec0cb7b29014a38fc13df7e9b9",
      "title": "Model Assumption Violations in Bayesian Latent Mediation Analysis: An Exploration of Bayesian SEM Fit Indices and PPP",
      "venue": "Structural Equation Modeling: A Multidisciplinary Journal",
      "year": 2025,
      "referenceCount": 51,
      "citationCount": 3,
      "authors": [
        {
          "authorId": "2275593168",
          "name": "Haiyan Liu"
        },
        {
          "authorId": "2143765430",
          "name": "Ihnwhi Heo"
        },
        {
          "authorId": "2353653716",
          "name": "Aleksandr Ivanov"
        },
        {
          "authorId": "4005871",
          "name": "S. Depaoli"
        }
      ]
    },
    {
      "paperId": "7ecdf54b61072070bec625730180ae810b170900",
      "externalIds": {
        "DOI": "10.21474/ijar01/20835",
        "CorpusId": 279011468
      },
      "url": "https://www.semanticscholar.org/paper/7ecdf54b61072070bec625730180ae810b170900",
      "title": "BAYESIAN MIXTURE APPROACH TO INCOME INEQUALITY AND POVERTY INDICES OF LIBERIA A STUDY USING HIES DATA OF 2016-2017",
      "venue": "International Journal of Advanced Research",
      "year": 2025,
      "referenceCount": 0,
      "citationCount": 0,
      "authors": [
        {
          "authorId": "2364263632",
          "name": "David Clarence Gray"
        }
      ]
    },
    {
      "paperId": "7d82244147a82f9a014258a8fb8b43c370c8e2d6",
      "externalIds": {
        "DOI": "10.1080/24725854.2025.2476194",
        "CorpusId": 276968283
      },
      "url": "https://www.semanticscholar.org/paper/7d82244147a82f9a014258a8fb8b43c370c8e2d6",
      "title": "A Bayesian Tweedie exponential dispersion process with a change-point for two-phase degradation data",
      "venue": "IISE Transactions",
      "year": 2025,
      "referenceCount": 48,
      "citationCount": 2,
      "authors": [
        {
          "authorId": "46808682",
          "name": "Pingping Wang"
        },
        {
          "authorId": "2280450893",
          "name": "S.J. Bae"
        }
      ]
    },
    {
      "paperId": "c0b3b2f87b3fa445e97226a42dbb7203e723b073",
      "externalIds": {
        "MAG": "2951914964",
        "DOI": "10.1037/met0000224",
        "CorpusId": 184485485,
        "PubMed": "31180693"
      },
      "url": "https://www.semanticscholar.org/paper/c0b3b2f87b3fa445e97226a42dbb7203e723b073",
      "title": "Adapting fit indices for Bayesian structural equation modeling: Comparison to maximum likelihood.",
      "venue": "Psychological methods",
      "year": 2020,
      "referenceCount": 94,
      "citationCount": 132,
      "authors": [
        {
          "authorId": "1398733181",
          "name": "Mauricio Garnier-Villarreal"
        },
        {
          "authorId": "39273203",
          "name": "Terrence D. Jorgensen"
        }
      ]
    }
  ]
}