{
  "total": 380,
  "offset": 0,
  "next": 10,
  "data": [
    {
      "paperId": "402c047bf6636ff784aa51b83c8ac64d18b67918",
      "externalIds": {
        "DBLP": "conf/icml/ManoelKTZ15",
        "MAG": "1855388283",
        "CorpusId": 13613285
      },
      "url": "https://www.semanticscholar.org/paper/402c047bf6636ff784aa51b83c8ac64d18b67918",
      "title": "Swept Approximate Message Passing for Sparse Estimation",
      "venue": "International Conference on Machine Learning",
      "year": 2015,
      "referenceCount": 31,
      "citationCount": 48,
      "authors": [
        {
          "authorId": "145580422",
          "name": "Andre Manoel"
        },
        {
          "authorId": "2909402",
          "name": "Florent Krzakala"
        },
        {
          "authorId": "2433727",
          "name": "Eric W. Tramel"
        },
        {
          "authorId": "2546601",
          "name": "L. Zdeborová"
        }
      ]
    },
    {
      "paperId": "852344e22ccb890abe6747cb48f3caae4328ee31",
      "externalIds": {
        "DBLP": "conf/eusipco/ThomasS20",
        "DOI": "10.23919/Eusipco47968.2020.9287708",
        "CorpusId": 221701660
      },
      "url": "https://www.semanticscholar.org/paper/852344e22ccb890abe6747cb48f3caae4328ee31",
      "title": "Generalized Swept Approximate Message Passing based Kalman Filtering for Dynamic Sparse Bayesian Learning",
      "venue": "European Signal Processing Conference",
      "year": 2021,
      "referenceCount": 19,
      "citationCount": 4,
      "authors": [
        {
          "authorId": "35400114",
          "name": "C. Thomas"
        },
        {
          "authorId": "145588715",
          "name": "D. Slock"
        }
      ]
    },
    {
      "paperId": "00dd5657af21da3432a6c0828d8f90d8de6815af",
      "externalIds": {
        "MAG": "2164031139",
        "ArXiv": "1406.4311",
        "DBLP": "journals/corr/ManoelKTZ14",
        "CorpusId": 15809213
      },
      "url": "https://www.semanticscholar.org/paper/00dd5657af21da3432a6c0828d8f90d8de6815af",
      "title": "Sparse Estimation with the Swept Approximated Message-Passing Algorithm",
      "venue": "arXiv.org",
      "year": 2014,
      "referenceCount": 24,
      "citationCount": 40,
      "authors": [
        {
          "authorId": "145580422",
          "name": "Andre Manoel"
        },
        {
          "authorId": "2909402",
          "name": "Florent Krzakala"
        },
        {
          "authorId": "2433727",
          "name": "Eric W. Tramel"
        },
        {
          "authorId": "2546601",
          "name": "L. Zdeborová"
        }
      ]
    },
    {
      "paperId": "90b6f063513f0a707b274f8df32429680d57925a",
      "externalIds": {
        "DBLP": "journals/tvt/HuLWXJWLYW25",
        "DOI": "10.1109/TVT.2024.3464537",
        "CorpusId": 272776272
      },
      "url": "https://www.semanticscholar.org/paper/90b6f063513f0a707b274f8df32429680d57925a",
      "title": "Optimized Unsourced Random Access Schemes With Sparse-Correction-Based Approximate Message Passing for Massive MIMO Systems",
      "venue": "IEEE Transactions on Vehicular Technology",
      "year": 2025,
      "referenceCount": 40,
      "citationCount": 6,
      "authors": [
        {
          "authorId": "2146315488",
          "name": "Yanfeng Hu"
        },
        {
          "authorId": "153706996",
          "name": "Mengting Lou"
        },
        {
          "authorId": "2111417882",
          "name": "Dongmin Wang"
        },
        {
          "authorId": "30401492",
          "name": "Xinjiang Xia"
        },
        {
          "authorId": "2293548294",
          "name": "Jing Jin"
        },
        {
          "authorId": "2109090620",
          "name": "Qixing Wang"
        },
        {
          "authorId": "2261781085",
          "name": "Guangyi Liu"
        },
        {
          "authorId": "2237802990",
          "name": "X. You"
        },
        {
          "authorId": "2238165455",
          "name": "Jiangzhou Wang"
        }
      ]
    },
    {
      "paperId": "080a5baaea7383152d83ebce03f03fac0d1b1a21",
      "externalIds": {
        "DBLP": "journals/peerj-cs/KPKMCAI25",
        "DOI": "10.7717/peerj-cs.2582",
        "CorpusId": 275308063
      },
      "url": "https://www.semanticscholar.org/paper/080a5baaea7383152d83ebce03f03fac0d1b1a21",
      "title": "Expectation maximization - vector approximate message passing based generalized linear model for channel estimation in intelligent reflecting surface-assisted millimeter multi-user multiple-input multiple-output systems",
      "venue": "PeerJ Computer Science",
      "year": 2025,
      "referenceCount": 40,
      "citationCount": 0,
      "authors": [
        {
          "authorId": "2133260349",
          "name": "S. K"
        },
        {
          "authorId": "70547306",
          "name": "S. Philip"
        },
        {
          "authorId": "2163374384",
          "name": "A. Khan"
        },
        {
          "authorId": "79670032",
          "name": "Leeban Moses"
        },
        {
          "authorId": "2237710014",
          "name": "Korhan Cengiz"
        },
        {
          "authorId": "1774354",
          "name": "S. Akleylek"
        },
        {
          "authorId": "17742052",
          "name": "N. Ivković"
        }
      ]
    },
    {
      "paperId": "0d96203a0709cba675597f6f8acd2d8cc39e4151",
      "externalIds": {
        "DBLP": "journals/tweb/RuanZJZDW24",
        "DOI": "10.1109/TWC.2023.3324679",
        "CorpusId": 264476298
      },
      "url": "https://www.semanticscholar.org/paper/0d96203a0709cba675597f6f8acd2d8cc39e4151",
      "title": "Simplified Learned Approximate Message Passing Network for Beamspace Channel Estimation in mmWave Massive MIMO Systems",
      "venue": "IEEE Transactions on Wireless Communications",
      "year": 2024,
      "referenceCount": 39,
      "citationCount": 22,
      "authors": [
        {
          "authorId": "2087833610",
          "name": "Chengyao Ruan"
        },
        {
          "authorId": "9338762",
          "name": "Zaichen Zhang"
        },
        {
          "authorId": "2041293234",
          "name": "Hao Jiang"
        },
        {
          "authorId": "2261074712",
          "name": "Hongming Zhang"
        },
        {
          "authorId": "144562616",
          "name": "J. Dang"
        },
        {
          "authorId": "144127704",
          "name": "Liang Wu"
        }
      ]
    },
    {
      "paperId": "52d0618458829f5b2acdf463308b3d6fa7c7e059",
      "externalIds": {
        "DOI": "10.1109/JPHOT.2023.3339148",
        "CorpusId": 265902707
      },
      "url": "https://www.semanticscholar.org/paper/52d0618458829f5b2acdf463308b3d6fa7c7e059",
      "title": "Singular Value Decomposition-Based Adaptive Sampling Approximate Message Passing Net for Sparse-View CT Reconstruction",
      "venue": "IEEE Photonics Journal",
      "year": 2024,
      "referenceCount": 37,
      "citationCount": 0,
      "authors": [
        {
          "authorId": "2146269553",
          "name": "Zhenhua Wu"
        },
        {
          "authorId": "2222780960",
          "name": "Jiafei Xu"
        },
        {
          "authorId": "2271353827",
          "name": "Lixia Yang"
        }
      ]
    },
    {
      "paperId": "89676b25e7c3658cad5938ce6e8a00c40332726e",
      "externalIds": {
        "DBLP": "journals/corr/abs-2512-03326",
        "ArXiv": "2512.03326",
        "DOI": "10.48550/arXiv.2512.03326",
        "CorpusId": 283466407
      },
      "url": "https://www.semanticscholar.org/paper/89676b25e7c3658cad5938ce6e8a00c40332726e",
      "title": "Generalized Orthogonal Approximate Message-Passing for Sublinear Sparsity",
      "venue": "arXiv.org",
      "year": 2025,
      "referenceCount": 70,
      "citationCount": 1,
      "authors": [
        {
          "authorId": "2237861870",
          "name": "Keigo Takeuchi"
        }
      ]
    },
    {
      "paperId": "47269899a9a869f7f82dc7afc3e6918e54466952",
      "externalIds": {
        "DOI": "10.1109/ICET58434.2023.10211336",
        "CorpusId": 260934246
      },
      "url": "https://www.semanticscholar.org/paper/47269899a9a869f7f82dc7afc3e6918e54466952",
      "title": "Channel Estimation for RIS-assisted MISO System using Vector Approximate Message Passing",
      "venue": "International Conference on Emerging Technologies",
      "year": 2023,
      "referenceCount": 14,
      "citationCount": 1,
      "authors": [
        {
          "authorId": "2108248691",
          "name": "Xi Wang"
        },
        {
          "authorId": "8912948",
          "name": "Dongtang Ma"
        },
        {
          "authorId": "2044357483",
          "name": "Dengke Guo"
        },
        {
          "authorId": "144394896",
          "name": "Jun Xiong"
        },
        {
          "authorId": "144429536",
          "name": "Xiaoran Liu"
        },
        {
          "authorId": "2157175384",
          "name": "Jun Liu"
        }
      ]
    },
    {
      "paperId": "420cec461a60cf6c20d77a5b9095a148fd6835a4",
      "externalIds": {
        "MAG": "2966633831",
        "DBLP": "conf/tsp/DandanovTPK19",
        "DOI": "10.1109/TSP.2019.8768850",
        "CorpusId": 198932091
      },
      "url": "https://www.semanticscholar.org/paper/420cec461a60cf6c20d77a5b9095a148fd6835a4",
      "title": "Approximate Message Passing for Downlink Sparse Channel Estimation in FDD Massive MIMO",
      "venue": "International Conference on Telecommunications and Signal Processing",
      "year": 2019,
      "referenceCount": 16,
      "citationCount": 2,
      "authors": [
        {
          "authorId": "7420437",
          "name": "Nikolay Dandanov"
        },
        {
          "authorId": "1710302",
          "name": "Krasimir Tonchev"
        },
        {
          "authorId": "1703073",
          "name": "V. Poulkov"
        },
        {
          "authorId": "38936929",
          "name": "P. Koleva"
        }
      ]
    }
  ]
}