{
  "total": 98759,
  "offset": 0,
  "next": 10,
  "data": [
    {
      "paperId": "f44f194bb7994d4b28ec99c08655b960985fd308",
      "externalIds": {
        "ArXiv": "2506.02386",
        "DBLP": "conf/uai/BianT25",
        "DOI": "10.48550/arXiv.2506.02386",
        "CorpusId": 279119174
      },
      "url": "https://www.semanticscholar.org/paper/f44f194bb7994d4b28ec99c08655b960985fd308",
      "title": "Asymptotically Optimal Linear Best Feasible Arm Identification with Fixed Budget",
      "venue": "Conference on Uncertainty in Artificial Intelligence",
      "year": 2025,
      "referenceCount": 32,
      "citationCount": 0,
      "authors": [
        {
          "authorId": "2303259325",
          "name": "Jie Bian"
        },
        {
          "authorId": "2303255349",
          "name": "V. Y. F. Tan"
        }
      ]
    },
    {
      "paperId": "5c6bc62b888a2662b760142a2b1d624d1832884d",
      "externalIds": {
        "DBLP": "conf/aistats/Katz-SamuelsS19",
        "MAG": "2921650573",
        "CorpusId": 88494686
      },
      "url": "https://www.semanticscholar.org/paper/5c6bc62b888a2662b760142a2b1d624d1832884d",
      "title": "Top Feasible Arm Identification",
      "venue": "International Conference on Artificial Intelligence and Statistics",
      "year": 2019,
      "referenceCount": 16,
      "citationCount": 25,
      "authors": [
        {
          "authorId": "1410109944",
          "name": "Julian Katz-Samuels"
        },
        {
          "authorId": "2403412732",
          "name": "C. Scott"
        }
      ]
    },
    {
      "paperId": "b2f9086e841a2151513f6647da11ca5665a9c63e",
      "externalIds": {
        "MAG": "2803724713",
        "DBLP": "conf/icml/Katz-SamuelsS18",
        "CorpusId": 51882159
      },
      "url": "https://www.semanticscholar.org/paper/b2f9086e841a2151513f6647da11ca5665a9c63e",
      "title": "Feasible Arm Identification",
      "venue": "International Conference on Machine Learning",
      "year": 2018,
      "referenceCount": 19,
      "citationCount": 26,
      "authors": [
        {
          "authorId": "1410109944",
          "name": "Julian Katz-Samuels"
        },
        {
          "authorId": "2403412732",
          "name": "C. Scott"
        }
      ]
    },
    {
      "paperId": "cd322945ac96cafc96a9e411f59e9a5d65f50a9e",
      "externalIds": {
        "CorpusId": 53127926
      },
      "url": "https://www.semanticscholar.org/paper/cd322945ac96cafc96a9e411f59e9a5d65f50a9e",
      "title": "Feasible Arm Identification : Supplementary Material",
      "venue": "",
      "year": 2018,
      "referenceCount": 6,
      "citationCount": 0,
      "authors": [
        {
          "authorId": "1410109944",
          "name": "Julian Katz-Samuels"
        },
        {
          "authorId": "2403412732",
          "name": "C. Scott"
        }
      ]
    },
    {
      "paperId": "a7cb929b0a3f0e05523d933d06f9512802b7bd52",
      "externalIds": {
        "MAG": "3103164577",
        "CorpusId": 238115294
      },
      "url": "https://www.semanticscholar.org/paper/a7cb929b0a3f0e05523d933d06f9512802b7bd52",
      "title": "Any-m Feasible Arm Identification",
      "venue": "",
      "year": 2019,
      "referenceCount": 0,
      "citationCount": 1,
      "authors": [
        {
          "authorId": "2666918",
          "name": "A. Bagherjeiran"
        },
        {
          "authorId": "1410109944",
          "name": "Julian Katz-Samuels"
        }
      ]
    },
    {
      "paperId": "87827d6203c84096f3df5487d032f5bfee0f9e36",
      "externalIds": {
        "CorpusId": 139085241
      },
      "url": "https://www.semanticscholar.org/paper/87827d6203c84096f3df5487d032f5bfee0f9e36",
      "title": "Supplemental Material for Top Feasible Arm Identification",
      "venue": "",
      "year": 2019,
      "referenceCount": 5,
      "citationCount": 0,
      "authors": [
        {
          "authorId": "2374378314",
          "name": "J. Scott"
        }
      ]
    },
    {
      "paperId": "aeffc4e5e1f106705c70aa9d1d57f4fce6d8ca32",
      "externalIds": {
        "ArXiv": "2401.08845",
        "CorpusId": 267028732
      },
      "url": "https://www.semanticscholar.org/paper/aeffc4e5e1f106705c70aa9d1d57f4fce6d8ca32",
      "title": "Top Feasible-Arm Subset Identification in Constrained Multi-Armed Bandit with Limited Budget",
      "venue": "",
      "year": 2024,
      "referenceCount": 13,
      "citationCount": 0,
      "authors": [
        {
          "authorId": "3166766",
          "name": "H. Chang"
        }
      ]
    },
    {
      "paperId": "05f15e1d16b6021b8f674678a143bb77fed615f5",
      "externalIds": {
        "DBLP": "journals/corr/abs-2511-09808",
        "ArXiv": "2511.09808",
        "DOI": "10.48550/arXiv.2511.09808",
        "CorpusId": 282991985
      },
      "url": "https://www.semanticscholar.org/paper/05f15e1d16b6021b8f674678a143bb77fed615f5",
      "title": "Constrained Best Arm Identification with Tests for Feasibility",
      "venue": "AAAI Conference on Artificial Intelligence",
      "year": 2025,
      "referenceCount": 46,
      "citationCount": 0,
      "authors": [
        {
          "authorId": "2330629116",
          "name": "Ting Cai"
        },
        {
          "authorId": "2286363493",
          "name": "Kirthevasan Kandasamy"
        }
      ]
    },
    {
      "paperId": "c82f410a245d433f22a737d20c3d22f00fb5095f",
      "externalIds": {
        "DBLP": "journals/corr/abs-2408-14195",
        "ArXiv": "2408.14195",
        "DOI": "10.1109/ICASSP49660.2025.10890622",
        "CorpusId": 271956629
      },
      "url": "https://www.semanticscholar.org/paper/c82f410a245d433f22a737d20c3d22f00fb5095f",
      "title": "Representative Arm Identification: A fixed confidence approach to identify cluster representatives",
      "venue": "IEEE International Conference on Acoustics, Speech, and Signal Processing",
      "year": 2024,
      "referenceCount": 29,
      "citationCount": 2,
      "authors": [
        {
          "authorId": "107883900",
          "name": "Sarvesh Gharat"
        },
        {
          "authorId": "2333406694",
          "name": "A. Yadav"
        },
        {
          "authorId": "2244621624",
          "name": "Nikhil Karamchandani"
        },
        {
          "authorId": "2244620614",
          "name": "Jayakrishnan Nair"
        }
      ]
    },
    {
      "paperId": "a881fe1dc2d03ed541ec39c03f3ca170431f9740",
      "externalIds": {
        "DBLP": "conf/spcom/SravaniHM24",
        "ArXiv": "2412.08031",
        "DOI": "10.1109/SPCOM60851.2024.10631651",
        "CorpusId": 271935189
      },
      "url": "https://www.semanticscholar.org/paper/a881fe1dc2d03ed541ec39c03f3ca170431f9740",
      "title": "Constrained Best Arm Identification in Grouped Bandits",
      "venue": "International Conference on Signal Processing and Communications",
      "year": 2024,
      "referenceCount": 11,
      "citationCount": 1,
      "authors": [
        {
          "authorId": "2423952596",
          "name": "Malyala Preethi Sravani"
        },
        {
          "authorId": "2290556393",
          "name": "Sakshi Heda"
        },
        {
          "authorId": "2316755282",
          "name": "Sharayu Moharir"
        }
      ]
    }
  ]
}