{
  "total": 93,
  "offset": 0,
  "next": 10,
  "data": [
    {
      "paperId": "ef516c5bef5c7b53629b7e6a13927d8e4d63326d",
      "externalIds": {
        "MAG": "2803829055",
        "DBLP": "conf/icml/KennamerKIS18",
        "CorpusId": 51877305
      },
      "url": "https://www.semanticscholar.org/paper/ef516c5bef5c7b53629b7e6a13927d8e4d63326d",
      "title": "ContextNet: Deep learning for Star Galaxy Classification",
      "venue": "International Conference on Machine Learning",
      "year": 2018,
      "referenceCount": 13,
      "citationCount": 7,
      "authors": [
        {
          "authorId": "51119854",
          "name": "Noble Kennamer"
        },
        {
          "authorId": "144779785",
          "name": "D. Kirkby"
        },
        {
          "authorId": "1740137",
          "name": "A. Ihler"
        },
        {
          "authorId": "1414732878",
          "name": "Francisco Javier Sanchez-Lopez"
        }
      ]
    },
    {
      "paperId": "0589deb5c50c4265bd75490364fd4943f01be96e",
      "externalIds": {
        "CorpusId": 52259227
      },
      "url": "https://www.semanticscholar.org/paper/0589deb5c50c4265bd75490364fd4943f01be96e",
      "title": "Deep Learning for Star-Galaxy Classification",
      "venue": "",
      "year": 2017,
      "referenceCount": 12,
      "citationCount": 2,
      "authors": [
        {
          "authorId": "2084069708",
          "name": "G. Chandrasekar"
        }
      ]
    },
    {
      "paperId": "253453d64860505cabd82e259ed5c36fd36ddbfd",
      "externalIds": {
        "DOI": "10.1109/ASSIC60049.2024.10507986",
        "CorpusId": 269486149
      },
      "url": "https://www.semanticscholar.org/paper/253453d64860505cabd82e259ed5c36fd36ddbfd",
      "title": "Star Galaxy Classification Using Deep Learning",
      "venue": "2024 International Conference on Advancements in Smart, Secure and Intelligent Computing (ASSIC)",
      "year": 2024,
      "referenceCount": 17,
      "citationCount": 3,
      "authors": [
        {
          "authorId": "2299190245",
          "name": "Sejal Sunil Kadam"
        },
        {
          "authorId": "2299191621",
          "name": "Keyur Sunit Chaudhari"
        },
        {
          "authorId": "2305222213",
          "name": "J. Chaudhari"
        },
        {
          "authorId": "2361728993",
          "name": "Tanmay Mahajan"
        },
        {
          "authorId": "2403911",
          "name": "Pranali K. Kosamkar"
        }
      ]
    },
    {
      "paperId": "c4d71b11ff6e736bffd96b942da6601dc449f2c1",
      "externalIds": {
        "DOI": "10.59035/vvlr5284",
        "CorpusId": 259776021
      },
      "url": "https://www.semanticscholar.org/paper/c4d71b11ff6e736bffd96b942da6601dc449f2c1",
      "title": "Star-Galaxy classification using machine learning algorithms and deep learning",
      "venue": "International Journal on Information Technologies and Security",
      "year": 2023,
      "referenceCount": 12,
      "citationCount": 10,
      "authors": [
        {
          "authorId": "65824342",
          "name": "A. Savyanavar"
        },
        {
          "authorId": "40015993",
          "name": "Nikhil C. Mhala"
        },
        {
          "authorId": "32334647",
          "name": "Shiv H. Sutar"
        }
      ]
    },
    {
      "paperId": "8d542c04cf95ab84ff0bd25e20a67811510e24fb",
      "externalIds": {
        "ArXiv": "2604.10086",
        "DOI": "10.1016/j.ascom.2026.101112",
        "CorpusId": 286799085
      },
      "url": "https://www.semanticscholar.org/paper/8d542c04cf95ab84ff0bd25e20a67811510e24fb",
      "title": "A multi-modal fusion network for star-galaxy classification from CSST simulated datasets",
      "venue": "Astronomy and Computing",
      "year": 2026,
      "referenceCount": 35,
      "citationCount": 0,
      "authors": [
        {
          "authorId": "2321169776",
          "name": "Zhuoming Han"
        },
        {
          "authorId": "2480569",
          "name": "Tianmeng Zhang"
        },
        {
          "authorId": "2267114620",
          "name": "Chao Liu"
        },
        {
          "authorId": "145875218",
          "name": "Chenxiaoji Ling"
        }
      ]
    },
    {
      "paperId": "7b0fc1a71ba8f4decbf01f06a6da034f135708dd",
      "externalIds": {
        "ArXiv": "2312.04948",
        "DBLP": "journals/corr/abs-2312-04948",
        "DOI": "10.48550/arXiv.2312.04948",
        "CorpusId": 266149593
      },
      "url": "https://www.semanticscholar.org/paper/7b0fc1a71ba8f4decbf01f06a6da034f135708dd",
      "title": "Scientific Preparation for CSST: Classification of Galaxy and Nebula/Star Cluster Based on Deep Learning",
      "venue": "arXiv.org",
      "year": 2023,
      "referenceCount": 1,
      "citationCount": 5,
      "authors": [
        {
          "authorId": "2159221453",
          "name": "Yuquan Zhang"
        },
        {
          "authorId": "2089759804",
          "name": "Zhong Cao"
        },
        {
          "authorId": "2272660908",
          "name": "Feng Wang"
        },
        {
          "authorId": "2283212239",
          "name": "Man I Lam"
        },
        {
          "authorId": "145869039",
          "name": "H. Deng"
        },
        {
          "authorId": "2162694",
          "name": "Y. Mei"
        },
        {
          "authorId": "2272739317",
          "name": "Lei Tan"
        }
      ]
    },
    {
      "paperId": "eb317917b489ca56128263cdb514fc3f268a8405",
      "externalIds": {
        "ArXiv": "2603.25262",
        "DOI": "10.1051/0004-6361/202658903",
        "CorpusId": 286789680
      },
      "url": "https://www.semanticscholar.org/paper/eb317917b489ca56128263cdb514fc3f268a8405",
      "title": "Star–galaxy classification in deep LSST data with random forest:. A pilot study on the Data Preview 1 release",
      "venue": "Astronomy &amp; Astrophysics",
      "year": 2026,
      "referenceCount": 0,
      "citationCount": 0,
      "authors": [
        {
          "authorId": "2266237968",
          "name": "M. Gatto"
        },
        {
          "authorId": "2242902419",
          "name": "V. Ripepi"
        },
        {
          "authorId": "2266239288",
          "name": "M. Bellazzini"
        },
        {
          "authorId": "2284220906",
          "name": "C. Tortora"
        },
        {
          "authorId": "1388230918",
          "name": "M. Dall’ora"
        }
      ]
    },
    {
      "paperId": "d93f122f6632e859cbdeeef8a6b1dad12e5ccd34",
      "externalIds": {
        "DOI": "10.59720/23-105",
        "CorpusId": 267425060
      },
      "url": "https://www.semanticscholar.org/paper/d93f122f6632e859cbdeeef8a6b1dad12e5ccd34",
      "title": "Automated classification of nebulae using deep learning & machine learning for enhanced discovery",
      "venue": "Journal of emerging investigators",
      "year": 2024,
      "referenceCount": 0,
      "citationCount": 0,
      "authors": [
        {
          "authorId": "2282645612",
          "name": "Meenakshi Nair"
        },
        {
          "authorId": "2282639239",
          "name": "Nisha Narayanakurup"
        }
      ]
    },
    {
      "paperId": "16fb5b4e0c3e9c020125115dd66b959788df6e73",
      "externalIds": {
        "DOI": "10.1051/0004-6361/202450214",
        "CorpusId": 272521148
      },
      "url": "https://www.semanticscholar.org/paper/16fb5b4e0c3e9c020125115dd66b959788df6e73",
      "title": "Supervised star, galaxy, and QSO classification with sharpened dimensionality reduction",
      "venue": "Astronomy &amp; Astrophysics",
      "year": 2024,
      "referenceCount": 6,
      "citationCount": 0,
      "authors": [
        {
          "authorId": "2320278944",
          "name": "M. Lourens"
        },
        {
          "authorId": "2264802243",
          "name": "S. C. Trager"
        },
        {
          "authorId": "2352454487",
          "name": "Y. Kim"
        },
        {
          "authorId": "2320283844",
          "name": "A.C. Telea"
        },
        {
          "authorId": "2239288855",
          "name": "J. Roerdink"
        }
      ]
    },
    {
      "paperId": "59c7789f4b70e1706c736dada92d85d963d200a3",
      "externalIds": {
        "ArXiv": "2311.04146",
        "DOI": "10.1093/mnras/stae1461",
        "CorpusId": 265043766
      },
      "url": "https://www.semanticscholar.org/paper/59c7789f4b70e1706c736dada92d85d963d200a3",
      "title": "Galaxy Spectra neural Network (GaSNet). II. Using Deep Learning for Spectral Classification and Redshift Predictions",
      "venue": "Monthly notices of the Royal Astronomical Society",
      "year": 2023,
      "referenceCount": 12,
      "citationCount": 7,
      "authors": [
        {
          "authorId": "2154765043",
          "name": "Fucheng Zhong"
        },
        {
          "authorId": "2265583955",
          "name": "Nicola R. Napolitano"
        },
        {
          "authorId": "90076643",
          "name": "C. Heneka"
        },
        {
          "authorId": "2265621460",
          "name": "Rui Li"
        },
        {
          "authorId": "2237989924",
          "name": "F. Bauer"
        },
        {
          "authorId": "2265584111",
          "name": "Nicolas Bouché"
        },
        {
          "authorId": "30007241",
          "name": "J. Comparat"
        },
        {
          "authorId": "2265606577",
          "name": "Young-Lo Kim"
        },
        {
          "authorId": "102611357",
          "name": "J. Krogager"
        },
        {
          "authorId": "101740122",
          "name": "M. Longhetti"
        },
        {
          "authorId": "2259949459",
          "name": "J. Loveday"
        },
        {
          "authorId": "90267368",
          "name": "B. Roukema"
        },
        {
          "authorId": "2402609787",
          "name": "Benedict L Rouse"
        },
        {
          "authorId": "3544239",
          "name": "M. Salvato"
        },
        {
          "authorId": "2256666805",
          "name": "Crescenzo Tortora"
        },
        {
          "authorId": "144609521",
          "name": "R. Assef"
        },
        {
          "authorId": "102756942",
          "name": "L. Cassarà"
        },
        {
          "authorId": "2259391273",
          "name": "L. Costantin"
        },
        {
          "authorId": "2181504153",
          "name": "S. Croom"
        },
        {
          "authorId": "2244856415",
          "name": "L. Davies"
        },
        {
          "authorId": "2267188550",
          "name": "Alexander Fritz"
        },
        {
          "authorId": "89220237",
          "name": "G. Guiglion"
        },
        {
          "authorId": "2256689083",
          "name": "A. Humphrey"
        },
        {
          "authorId": "47091099",
          "name": "E. Pompei"
        },
        {
          "authorId": "2265584420",
          "name": "C. Ricci"
        },
        {
          "authorId": "9835313",
          "name": "C. Sifón"
        },
        {
          "authorId": "2265580940",
          "name": "Elmo Tempel"
        },
        {
          "authorId": "2264826047",
          "name": "Tayyaba Zafar"
        }
      ]
    }
  ]
}