{
  "total": 2309,
  "offset": 0,
  "next": 10,
  "data": [
    {
      "paperId": "dac1c3f055a4bd8f12d9b9a2a0d3e47490f71bc1",
      "externalIds": {
        "MAG": "1848872188",
        "DBLP": "conf/icml/SibonyCJ15",
        "CorpusId": 14193209
      },
      "url": "https://www.semanticscholar.org/paper/dac1c3f055a4bd8f12d9b9a2a0d3e47490f71bc1",
      "title": "MRA-based Statistical Learning from Incomplete Rankings",
      "venue": "International Conference on Machine Learning",
      "year": 2015,
      "referenceCount": 36,
      "citationCount": 11,
      "authors": [
        {
          "authorId": "2073593",
          "name": "Eric Sibony"
        },
        {
          "authorId": "1696620",
          "name": "S. Clémençon"
        },
        {
          "authorId": "34913672",
          "name": "J. Jakubowicz"
        }
      ]
    },
    {
      "paperId": "feb66e5fc21a3faa7a53ebcdc0cda6cd337de617",
      "externalIds": {
        "CorpusId": 15087214
      },
      "url": "https://www.semanticscholar.org/paper/feb66e5fc21a3faa7a53ebcdc0cda6cd337de617",
      "title": "Material for the paper “ MRA-based Statistical Learning from Incomplete Rankings ”",
      "venue": "",
      "year": 2015,
      "referenceCount": 3,
      "citationCount": 0,
      "authors": [
        {
          "authorId": "2073593",
          "name": "Eric Sibony"
        }
      ]
    },
    {
      "paperId": "760079e116ccfa5d2a1efa93f9c027efdc756bec",
      "externalIds": {
        "DBLP": "journals/midm/PhatLVLP25",
        "PubMedCentral": "12341307",
        "DOI": "10.1186/s12911-025-03139-9",
        "CorpusId": 280633623,
        "PubMed": "40790736"
      },
      "url": "https://www.semanticscholar.org/paper/760079e116ccfa5d2a1efa93f9c027efdc756bec",
      "title": "Risk factors for tuberculosis treatment outcomes: a statistical learning-based exploration using the SINAN database with incomplete observations",
      "venue": "BMC Medical Informatics and Decision Making",
      "year": 2025,
      "referenceCount": 62,
      "citationCount": 1,
      "authors": [
        {
          "authorId": "2138455363",
          "name": "Nguyen Ky Phat"
        },
        {
          "authorId": "2314511151",
          "name": "Yoonah Lee"
        },
        {
          "authorId": "3985160",
          "name": "D. Vu"
        },
        {
          "authorId": "2283787735",
          "name": "Nguyen Phuoc Long"
        },
        {
          "authorId": "2263954431",
          "name": "Seongoh Park"
        }
      ]
    },
    {
      "paperId": "4a7bebc8573817d26daaed93a92d765efea06e36",
      "externalIds": {
        "DBLP": "journals/tsp/JavaheriAMP24",
        "DOI": "10.1109/TSP.2024.3354572",
        "CorpusId": 268442523
      },
      "url": "https://www.semanticscholar.org/paper/4a7bebc8573817d26daaed93a92d765efea06e36",
      "title": "Learning Spatiotemporal Graphical Models From Incomplete Observations",
      "venue": "IEEE Transactions on Signal Processing",
      "year": 2024,
      "referenceCount": 55,
      "citationCount": 8,
      "authors": [
        {
          "authorId": "2276610545",
          "name": "Amirhossein Javaheri"
        },
        {
          "authorId": "2276610228",
          "name": "Arash Amini"
        },
        {
          "authorId": "152735346",
          "name": "F. Marvasti"
        },
        {
          "authorId": "2264325637",
          "name": "D. P. Palomar"
        }
      ]
    },
    {
      "paperId": "451c69cfa57ac623823d301e37542814f4cc01fa",
      "externalIds": {
        "DBLP": "journals/ijmi/LiZSFWJHCZWYLYZW24",
        "DOI": "10.1016/j.ijmedinf.2024.105487",
        "CorpusId": 269881927,
        "PubMed": "38761459"
      },
      "url": "https://www.semanticscholar.org/paper/451c69cfa57ac623823d301e37542814f4cc01fa",
      "title": "Deep learning-based platform performs high detection sensitivity of intracranial aneurysms in 3D brain TOF-MRA: An external clinical validation study",
      "venue": "Int. J. Medical Informatics",
      "year": 2024,
      "referenceCount": 36,
      "citationCount": 9,
      "authors": [
        {
          "authorId": "2302282271",
          "name": "Yuanyuan Li"
        },
        {
          "authorId": "2302123429",
          "name": "Huiling Zhang"
        },
        {
          "authorId": "2271290241",
          "name": "Yunfu Sun"
        },
        {
          "authorId": "2203393773",
          "name": "Qianrui Fan"
        },
        {
          "authorId": "2301872929",
          "name": "Long Wang"
        },
        {
          "authorId": "2007848196",
          "name": "Congshan Ji"
        },
        {
          "authorId": "2302052667",
          "name": "HuiGu"
        },
        {
          "authorId": "12515087",
          "name": "Baojin Chen"
        },
        {
          "authorId": "49113167",
          "name": "Shuo Zhao"
        },
        {
          "authorId": "2236580520",
          "name": "Dawei Wang"
        },
        {
          "authorId": "2291075244",
          "name": "Pengxin Yu"
        },
        {
          "authorId": "2157844359",
          "name": "Junchen Li"
        },
        {
          "authorId": "2115361432",
          "name": "Shifeng Yang"
        },
        {
          "authorId": "2267307561",
          "name": "Chuanchen Zhang"
        },
        {
          "authorId": "50142231",
          "name": "Ximing Wang"
        }
      ]
    },
    {
      "paperId": "411dab97caea222574114b355a264f7090e0e342",
      "externalIds": {
        "PubMedCentral": "12096847",
        "DOI": "10.3389/fneur.2025.1544571",
        "CorpusId": 278076903,
        "PubMed": "40406704"
      },
      "url": "https://www.semanticscholar.org/paper/411dab97caea222574114b355a264f7090e0e342",
      "title": "Automatic diagnosis and measurement of intracranial aneurysms using deep learning in MRA raw images",
      "venue": "Frontiers in Neurology",
      "year": 2025,
      "referenceCount": 26,
      "citationCount": 2,
      "authors": [
        {
          "authorId": "2287799341",
          "name": "Qingning Yang"
        },
        {
          "authorId": "2259043011",
          "name": "Fengxi Chen"
        },
        {
          "authorId": "2350303291",
          "name": "Li Li"
        },
        {
          "authorId": "2216219175",
          "name": "Rong Zeng"
        },
        {
          "authorId": "2280882098",
          "name": "Jiaqing Li"
        },
        {
          "authorId": "2048055907",
          "name": "Jingxu Xu"
        },
        {
          "authorId": "4415005",
          "name": "Chencui Huang"
        },
        {
          "authorId": "2047899731",
          "name": "Junbang Feng"
        },
        {
          "authorId": "2278104485",
          "name": "Chuanming Li"
        }
      ]
    },
    {
      "paperId": "b5f8411ed9aa2a687c4b4a08f101d402077d75cb",
      "externalIds": {
        "DOI": "10.1088/1742-6596/2600/7/072013",
        "CorpusId": 265534218
      },
      "url": "https://www.semanticscholar.org/paper/b5f8411ed9aa2a687c4b4a08f101d402077d75cb",
      "title": "Physics-informed machine learning framework to model buildings from incomplete information",
      "venue": "Journal of Physics: Conference Series",
      "year": 2023,
      "referenceCount": 10,
      "citationCount": 2,
      "authors": [
        {
          "authorId": "2268961082",
          "name": "T. Kuo"
        },
        {
          "authorId": "2269012865",
          "name": "S. Manikkan"
        },
        {
          "authorId": "2300480457",
          "name": "I. Bilionis"
        },
        {
          "authorId": "2269019049",
          "name": "X. Liu"
        },
        {
          "authorId": "2269012492",
          "name": "P. Karava"
        }
      ]
    },
    {
      "paperId": "c3d616d37e2a96dbe6f548a0172ce39409573107",
      "externalIds": {
        "DBLP": "journals/mia/RossBRWKFPGTIATMCMKM23",
        "DOI": "10.1016/j.media.2023.102765",
        "CorpusId": 257288137,
        "PubMed": "36965252"
      },
      "url": "https://www.semanticscholar.org/paper/c3d616d37e2a96dbe6f548a0172ce39409573107",
      "title": "Beyond rankings: Learning (more) from algorithm validation",
      "venue": "Medical Image Anal.",
      "year": 2023,
      "referenceCount": 40,
      "citationCount": 16,
      "authors": [
        {
          "authorId": "118012992",
          "name": "T. Ross"
        },
        {
          "authorId": "51903792",
          "name": "Pierangela Bruno"
        },
        {
          "authorId": "47131776",
          "name": "Annika Reinke"
        },
        {
          "authorId": "12078222",
          "name": "M. Wiesenfarth"
        },
        {
          "authorId": "2241757017",
          "name": "Lisa Koeppel"
        },
        {
          "authorId": "93088018",
          "name": "P. Full"
        },
        {
          "authorId": "2113244647",
          "name": "Bunyamin Pekdemir"
        },
        {
          "authorId": "2113240903",
          "name": "Patrick Godau"
        },
        {
          "authorId": "2064520162",
          "name": "D. Trofimova"
        },
        {
          "authorId": "7886986",
          "name": "Fabian Isensee"
        },
        {
          "authorId": "144784171",
          "name": "T. Adler"
        },
        {
          "authorId": "1585890027",
          "name": "T. Tran"
        },
        {
          "authorId": "38092305",
          "name": "S. Moccia"
        },
        {
          "authorId": "1748306",
          "name": "Francesco Calimeri"
        },
        {
          "authorId": "1390139613",
          "name": "B. Müller-Stich"
        },
        {
          "authorId": "1397958699",
          "name": "A. Kopp-Schneider"
        },
        {
          "authorId": "1397958668",
          "name": "L. Maier-Hein"
        }
      ]
    },
    {
      "paperId": "1739bab1193214a5064e19ca29d68af7836bf6bf",
      "externalIds": {
        "DOI": "10.1145/3797903",
        "CorpusId": 285800162
      },
      "url": "https://www.semanticscholar.org/paper/1739bab1193214a5064e19ca29d68af7836bf6bf",
      "title": "Spatio-Temporal Missing Data Imputation: A Systematic Literature Review with a Focus on Statistical and Machine Learning-Based Approaches",
      "venue": "ACM Computing Surveys",
      "year": 2026,
      "referenceCount": 285,
      "citationCount": 2,
      "authors": [
        {
          "authorId": "2341327600",
          "name": "Samira Zahmatkesh"
        },
        {
          "authorId": "2341322435",
          "name": "Philipp Zech"
        }
      ]
    },
    {
      "paperId": "5bb331cd5b9cc04bcbc72c7478df87b3cfea23a8",
      "externalIds": {
        "DOI": "10.1186/s13014-026-02811-2",
        "CorpusId": 286226854,
        "PubMed": "41772699"
      },
      "url": "https://www.semanticscholar.org/paper/5bb331cd5b9cc04bcbc72c7478df87b3cfea23a8",
      "title": "Multi-reader evaluation of deep learning-based auto-segmentation of eloquent brain arteriovenous malformation on MRA and white matter tractography in stereotactic radiosurgery.",
      "venue": "Radiation Oncology",
      "year": 2026,
      "referenceCount": 16,
      "citationCount": 0,
      "authors": [
        {
          "authorId": "2344961090",
          "name": "Mingzhu Li"
        },
        {
          "authorId": "2155824020",
          "name": "P. Lu"
        },
        {
          "authorId": "153372549",
          "name": "Y. Guan"
        },
        {
          "authorId": "9656843",
          "name": "Hua-guang Zhu"
        },
        {
          "authorId": "2075407816",
          "name": "Xiu Gong"
        },
        {
          "authorId": "7268110",
          "name": "Guanghai Mei"
        },
        {
          "authorId": "2320269347",
          "name": "Tao Jin"
        },
        {
          "authorId": "2374254697",
          "name": "Minghao Sun"
        },
        {
          "authorId": "2374005903",
          "name": "Xiaoxia Liu"
        },
        {
          "authorId": "2267772402",
          "name": "Zhiyong Qin"
        },
        {
          "authorId": "2374040482",
          "name": "Xing Di"
        }
      ]
    }
  ]
}