{
  "total": 79614,
  "offset": 0,
  "next": 10,
  "data": [
    {
      "paperId": "74d3f033e168891ee5cefb9e8df4787652eb1104",
      "externalIds": {
        "DBLP": "conf/icml/BhatnagarWX023",
        "ArXiv": "2302.07869",
        "DOI": "10.48550/arXiv.2302.07869",
        "CorpusId": 256868761
      },
      "url": "https://www.semanticscholar.org/paper/74d3f033e168891ee5cefb9e8df4787652eb1104",
      "title": "Improved Online Conformal Prediction via Strongly Adaptive Online Learning",
      "venue": "International Conference on Machine Learning",
      "year": 2023,
      "referenceCount": 78,
      "citationCount": 86,
      "authors": [
        {
          "authorId": "31553879",
          "name": "Aadyot Bhatnagar"
        },
        {
          "authorId": "46507194",
          "name": "Haiquan Wang"
        },
        {
          "authorId": "2228109",
          "name": "Caiming Xiong"
        },
        {
          "authorId": "8681368",
          "name": "Yu Bai"
        }
      ]
    },
    {
      "paperId": "bd48af9879444598f2c2fb9c45578b23cc42f388",
      "externalIds": {
        "MAG": "3035709284",
        "DBLP": "conf/icml/Cutkosky20",
        "CorpusId": 221089377
      },
      "url": "https://www.semanticscholar.org/paper/bd48af9879444598f2c2fb9c45578b23cc42f388",
      "title": "Parameter-free, Dynamic, and Strongly-Adaptive Online Learning",
      "venue": "International Conference on Machine Learning",
      "year": 2020,
      "referenceCount": 28,
      "citationCount": 63,
      "authors": [
        {
          "authorId": "9407860",
          "name": "Ashok Cutkosky"
        }
      ]
    },
    {
      "paperId": "d83dd7771e52bac386433657f1b06a26ef0e8d31",
      "externalIds": {
        "DBLP": "conf/icml/DanielyGS15",
        "MAG": "2097545189",
        "ArXiv": "1502.07073",
        "CorpusId": 8342240
      },
      "url": "https://www.semanticscholar.org/paper/d83dd7771e52bac386433657f1b06a26ef0e8d31",
      "title": "Strongly Adaptive Online Learning",
      "venue": "International Conference on Machine Learning",
      "year": 2015,
      "referenceCount": 16,
      "citationCount": 193,
      "authors": [
        {
          "authorId": "2898312",
          "name": "Amit Daniely"
        },
        {
          "authorId": "40048435",
          "name": "Alon Gonen"
        },
        {
          "authorId": "1389955537",
          "name": "S. Shalev-Shwartz"
        }
      ]
    },
    {
      "paperId": "04bf6e2f674f486dd225384d8a81c69ee4e6b3d7",
      "externalIds": {
        "MAG": "2963988524",
        "ArXiv": "1610.04578",
        "DBLP": "journals/corr/JunOWW16",
        "CorpusId": 15882384
      },
      "url": "https://www.semanticscholar.org/paper/04bf6e2f674f486dd225384d8a81c69ee4e6b3d7",
      "title": "Improved Strongly Adaptive Online Learning using Coin Betting",
      "venue": "International Conference on Artificial Intelligence and Statistics",
      "year": 2016,
      "referenceCount": 15,
      "citationCount": 92,
      "authors": [
        {
          "authorId": "2610963",
          "name": "Kwang-Sung Jun"
        },
        {
          "authorId": "1721068",
          "name": "Francesco Orabona"
        },
        {
          "authorId": "152506763",
          "name": "S. Wright"
        },
        {
          "authorId": "145952380",
          "name": "R. Willett"
        }
      ]
    },
    {
      "paperId": "ca7830fc2b40faaf167dc25abd3137f59be1b09c",
      "externalIds": {
        "DBLP": "conf/aistats/0003CP22",
        "ArXiv": "2102.01623",
        "CorpusId": 235377450
      },
      "url": "https://www.semanticscholar.org/paper/ca7830fc2b40faaf167dc25abd3137f59be1b09c",
      "title": "Adversarial Tracking Control via Strongly Adaptive Online Learning with Memory",
      "venue": "International Conference on Artificial Intelligence and Statistics",
      "year": 2021,
      "referenceCount": 65,
      "citationCount": 18,
      "authors": [
        {
          "authorId": "2117992745",
          "name": "Zhiyu Zhang"
        },
        {
          "authorId": "9407860",
          "name": "Ashok Cutkosky"
        },
        {
          "authorId": "1691402",
          "name": "I. Paschalidis"
        }
      ]
    },
    {
      "paperId": "a1c5f7d1f10dd0279e45ed69b5a71628aa003cf2",
      "externalIds": {
        "DBLP": "journals/chinaf/WanTZ22",
        "DOI": "10.1007/s11432-020-3273-9",
        "CorpusId": 248660043
      },
      "url": "https://www.semanticscholar.org/paper/a1c5f7d1f10dd0279e45ed69b5a71628aa003cf2",
      "title": "Strongly adaptive online learning over partial intervals",
      "venue": "Science China Information Sciences",
      "year": 2022,
      "referenceCount": 43,
      "citationCount": 8,
      "authors": [
        {
          "authorId": "50826651",
          "name": "Yuanyu Wan"
        },
        {
          "authorId": "2164418416",
          "name": "TU Wei-Wei"
        },
        {
          "authorId": "2143381978",
          "name": "Lijun Zhang"
        }
      ]
    },
    {
      "paperId": "196e47e95b7a62de0bffecdca2dadaa95ee17705",
      "externalIds": {
        "CorpusId": 11836093
      },
      "url": "https://www.semanticscholar.org/paper/196e47e95b7a62de0bffecdca2dadaa95ee17705",
      "title": "Supplement : Strongly Adaptive Online Learning",
      "venue": "",
      "year": 2015,
      "referenceCount": 0,
      "citationCount": 0,
      "authors": [
        {
          "authorId": "2898312",
          "name": "Amit Daniely"
        }
      ]
    },
    {
      "paperId": "7fa6ae9129bb6d7f061ecb03a223f07da5a5b003",
      "externalIds": {
        "ArXiv": "2101.09438",
        "DBLP": "conf/aistats/BabyZW21",
        "CorpusId": 231698964
      },
      "url": "https://www.semanticscholar.org/paper/7fa6ae9129bb6d7f061ecb03a223f07da5a5b003",
      "title": "An Optimal Reduction of TV-Denoising to Adaptive Online Learning",
      "venue": "International Conference on Artificial Intelligence and Statistics",
      "year": 2021,
      "referenceCount": 51,
      "citationCount": 12,
      "authors": [
        {
          "authorId": "146464336",
          "name": "Dheeraj Baby"
        },
        {
          "authorId": "150345512",
          "name": "Xuandong Zhao"
        },
        {
          "authorId": "2040617",
          "name": "Yu-Xiang Wang"
        }
      ]
    },
    {
      "paperId": "b8360e77bf4b3f077310fe57415182d0963f54c3",
      "externalIds": {
        "DBLP": "journals/tmlr/0005WL0W23",
        "CorpusId": 266684201
      },
      "url": "https://www.semanticscholar.org/paper/b8360e77bf4b3f077310fe57415182d0963f54c3",
      "title": "Pairwise Learning with Adaptive Online Gradient Descent",
      "venue": "Trans. Mach. Learn. Res.",
      "year": 2023,
      "referenceCount": 50,
      "citationCount": 1,
      "authors": [
        {
          "authorId": "2257135850",
          "name": "Tao Sun"
        },
        {
          "authorId": "2300504212",
          "name": "Qingsong Wang"
        },
        {
          "authorId": "2256481124",
          "name": "Yunwen Lei"
        },
        {
          "authorId": "2108481384",
          "name": "Dongsheng Li"
        },
        {
          "authorId": "2229031597",
          "name": "Bao Wang"
        }
      ]
    },
    {
      "paperId": "bd583a41460d2cd386745398e84cc367e5c7a7ef",
      "externalIds": {
        "DBLP": "conf/aistats/Baby022",
        "ArXiv": "2201.08905",
        "CorpusId": 246240848
      },
      "url": "https://www.semanticscholar.org/paper/bd583a41460d2cd386745398e84cc367e5c7a7ef",
      "title": "Optimal Dynamic Regret in Proper Online Learning with Strongly Convex Losses and Beyond",
      "venue": "International Conference on Artificial Intelligence and Statistics",
      "year": 2022,
      "referenceCount": 42,
      "citationCount": 34,
      "authors": [
        {
          "authorId": "146464336",
          "name": "Dheeraj Baby"
        },
        {
          "authorId": "2040617",
          "name": "Yu-Xiang Wang"
        }
      ]
    }
  ]
}