{
  "total": 3974,
  "offset": 0,
  "next": 10,
  "data": [
    {
      "paperId": "3516222cdab2e0d19bb0477af53815e0cbe1e116",
      "externalIds": {
        "MAG": "2740515272",
        "DBLP": "conf/icml/ChenB17",
        "CorpusId": 13100791
      },
      "url": "https://www.semanticscholar.org/paper/3516222cdab2e0d19bb0477af53815e0cbe1e116",
      "title": "Robust Structured Estimation with Single-Index Models",
      "venue": "International Conference on Machine Learning",
      "year": 2017,
      "referenceCount": 48,
      "citationCount": 7,
      "authors": [
        {
          "authorId": "2118528383",
          "name": "Sheng Chen"
        },
        {
          "authorId": "144205696",
          "name": "A. Banerjee"
        }
      ]
    },
    {
      "paperId": "c33ddce450db3e655657cda39fb8d043957277a8",
      "externalIds": {
        "CorpusId": 35969300
      },
      "url": "https://www.semanticscholar.org/paper/c33ddce450db3e655657cda39fb8d043957277a8",
      "title": "Material to Robust Structured Estimation with Single-Index Models",
      "venue": "",
      "year": 2017,
      "referenceCount": 6,
      "citationCount": 0,
      "authors": [
        {
          "authorId": "2118528383",
          "name": "Sheng Chen"
        },
        {
          "authorId": "144205696",
          "name": "A. Banerjee"
        }
      ]
    },
    {
      "paperId": "a918a346abcef469e816765258435ac6eb5fc379",
      "externalIds": {
        "ArXiv": "1705.03536",
        "MAG": "2612195446",
        "DBLP": "journals/tsp/MeiM18",
        "DOI": "10.1109/TSP.2018.2818075",
        "CorpusId": 5032764
      },
      "url": "https://www.semanticscholar.org/paper/a918a346abcef469e816765258435ac6eb5fc379",
      "title": "SILVar: Single Index Latent Variable Models",
      "venue": "IEEE Transactions on Signal Processing",
      "year": 2017,
      "referenceCount": 41,
      "citationCount": 24,
      "authors": [
        {
          "authorId": "2387786",
          "name": "Jonathan Mei"
        },
        {
          "authorId": "144915495",
          "name": "José M. F. Moura"
        }
      ]
    },
    {
      "paperId": "eff0a9bbd38a3c9afac9c4784d4d431be9ab63e5",
      "externalIds": {
        "DOI": "10.3390/math13040602",
        "CorpusId": 276329516
      },
      "url": "https://www.semanticscholar.org/paper/eff0a9bbd38a3c9afac9c4784d4d431be9ab63e5",
      "title": "Robust Estimation of L1-Modal Regression Under Functional Single-Index Models for Practical Applications",
      "venue": "Mathematics",
      "year": 2025,
      "referenceCount": 47,
      "citationCount": 1,
      "authors": [
        {
          "authorId": "73229560",
          "name": "F. A. Almulhim"
        },
        {
          "authorId": "2297109882",
          "name": "Mohammed B. Alamari"
        },
        {
          "authorId": "2080034",
          "name": "Salim Bouzebda"
        },
        {
          "authorId": "102218615",
          "name": "Z. Kaid"
        },
        {
          "authorId": "3065653",
          "name": "Ali Laksaci"
        }
      ]
    },
    {
      "paperId": "0818839b9b7dc6bb26cba99777a7b91fbdb4c83c",
      "externalIds": {
        "DBLP": "journals/csda/HeZC25",
        "DOI": "10.1016/j.csda.2024.108052",
        "CorpusId": 272277327
      },
      "url": "https://www.semanticscholar.org/paper/0818839b9b7dc6bb26cba99777a7b91fbdb4c83c",
      "title": "Robust direction estimation in single-index models via cumulative divergence",
      "venue": "Computational Statistics & Data Analysis",
      "year": 2024,
      "referenceCount": 29,
      "citationCount": 1,
      "authors": [
        {
          "authorId": "2290008685",
          "name": "Shuaida He"
        },
        {
          "authorId": "2175963865",
          "name": "Jiarui Zhang"
        },
        {
          "authorId": "2292451527",
          "name": "Xin Chen"
        }
      ]
    },
    {
      "paperId": "bd18cfd3bb949245fe6145b688361bfd4f2e7fa8",
      "externalIds": {
        "DOI": "10.1007/s00362-023-01407-2",
        "CorpusId": 257781619
      },
      "url": "https://www.semanticscholar.org/paper/bd18cfd3bb949245fe6145b688361bfd4f2e7fa8",
      "title": "Efficient robust estimation for single-index mixed effects models with missing observations",
      "venue": "Statistical Papers",
      "year": 2023,
      "referenceCount": 29,
      "citationCount": 3,
      "authors": [
        {
          "authorId": "2816295",
          "name": "L. Xue"
        },
        {
          "authorId": "102455807",
          "name": "Junshan Xie"
        }
      ]
    },
    {
      "paperId": "3df65791e6e9fa2298609210eb23974095573497",
      "externalIds": {
        "DOI": "10.1080/10485252.2022.2027411",
        "CorpusId": 246397566
      },
      "url": "https://www.semanticscholar.org/paper/3df65791e6e9fa2298609210eb23974095573497",
      "title": "Robust estimation for partial linear single-index models",
      "venue": "Journal of nonparametric statistics (Print)",
      "year": 2022,
      "referenceCount": 28,
      "citationCount": 2,
      "authors": [
        {
          "authorId": "46317114",
          "name": "Yang Zhao"
        },
        {
          "authorId": "3017084",
          "name": "S. Feng"
        }
      ]
    },
    {
      "paperId": "27a7769a555347952453cc3ce632f427228fe191",
      "externalIds": {
        "DOI": "10.1080/10485252.2024.2405937",
        "CorpusId": 272746238
      },
      "url": "https://www.semanticscholar.org/paper/27a7769a555347952453cc3ce632f427228fe191",
      "title": "Minimum profile Hellinger distance estimation for single-index models",
      "venue": "Journal of nonparametric statistics (Print)",
      "year": 2024,
      "referenceCount": 45,
      "citationCount": 0,
      "authors": [
        {
          "authorId": "1782879226",
          "name": "Bowei Ding"
        },
        {
          "authorId": "36846697",
          "name": "R. Karunamuni"
        },
        {
          "authorId": "2285405555",
          "name": "Jingjing Wu"
        }
      ]
    },
    {
      "paperId": "bbeec3ba7a93fc0d448290363412cce6316421ec",
      "externalIds": {
        "DOI": "10.1093/ectj/utac005",
        "CorpusId": 246416492
      },
      "url": "https://www.semanticscholar.org/paper/bbeec3ba7a93fc0d448290363412cce6316421ec",
      "title": "Misclassification-robust semiparametric estimation of single-index binary-choice models",
      "venue": "Econometrics Journal",
      "year": 2022,
      "referenceCount": 0,
      "citationCount": 0,
      "authors": [
        {
          "authorId": "32618117",
          "name": "P. Čížek"
        },
        {
          "authorId": "102553402",
          "name": "S. Sadikoğlu"
        }
      ]
    },
    {
      "paperId": "aec47ba799e6cdd1c1e698f31ed6d8e382f74b97",
      "externalIds": {
        "MAG": "3033227198",
        "DOI": "10.1007/s00362-020-01184-2",
        "CorpusId": 219934702
      },
      "url": "https://www.semanticscholar.org/paper/aec47ba799e6cdd1c1e698f31ed6d8e382f74b97",
      "title": "Robust estimation of single index models with responses missing at random",
      "venue": "Statistical Papers",
      "year": 2020,
      "referenceCount": 65,
      "citationCount": 2,
      "authors": [
        {
          "authorId": "16122331",
          "name": "A. Abebe"
        },
        {
          "authorId": "1989665",
          "name": "H. Bindele"
        },
        {
          "authorId": "104285966",
          "name": "Masego Otlaadisa"
        },
        {
          "authorId": "7521795",
          "name": "B. Makubate"
        }
      ]
    }
  ]
}