{
  "total": 24,
  "offset": 0,
  "next": 10,
  "data": [
    {
      "paperId": "c8c38fed36b374e4eb94f858a11a7d0006b7c9c4",
      "externalIds": {
        "MAG": "1836744047",
        "DBLP": "conf/icml/SunWKM15",
        "CorpusId": 6904845
      },
      "url": "https://www.semanticscholar.org/paper/c8c38fed36b374e4eb94f858a11a7d0006b7c9c4",
      "title": "Information Geometry and Minimum Description Length Networks",
      "venue": "International Conference on Machine Learning",
      "year": 2015,
      "referenceCount": 47,
      "citationCount": 2,
      "authors": [
        {
          "authorId": "143819050",
          "name": "Ke Sun"
        },
        {
          "authorId": "40362307",
          "name": "Jun Wang"
        },
        {
          "authorId": "1784711",
          "name": "Alexandros Kalousis"
        },
        {
          "authorId": "1398659765",
          "name": "S. Marchand-Maillet"
        }
      ]
    },
    {
      "paperId": "578637b12ee4448d50026af3b49a3aac55040a58",
      "externalIds": {
        "CorpusId": 207789919
      },
      "url": "https://www.semanticscholar.org/paper/578637b12ee4448d50026af3b49a3aac55040a58",
      "title": "Information Geometry and Minimum Description Length Networks",
      "venue": "",
      "year": 2015,
      "referenceCount": 40,
      "citationCount": 0,
      "authors": [
        {
          "authorId": "143819050",
          "name": "Ke Sun"
        }
      ]
    },
    {
      "paperId": "3f365f7dd42ad565c8f9857f06757f42e9cd4554",
      "externalIds": {
        "MAG": "2326043905",
        "DBLP": "phd/basesearch/Sun15b",
        "DOI": "10.13097/ARCHIVE-OUVERTE/UNIGE:80017",
        "CorpusId": 123666775
      },
      "url": "https://www.semanticscholar.org/paper/3f365f7dd42ad565c8f9857f06757f42e9cd4554",
      "title": "Information geometry and data manifold representations",
      "venue": "",
      "year": 2015,
      "referenceCount": 125,
      "citationCount": 1,
      "authors": [
        {
          "authorId": "143819050",
          "name": "Ke Sun"
        }
      ]
    },
    {
      "paperId": "04b1448dbe26ef4d0882ee3dedf04ec60cd9411d",
      "externalIds": {
        "MAG": "2045462402",
        "DOI": "10.1259/dmfr.20140279",
        "CorpusId": 35434811,
        "PubMed": "25472616"
      },
      "url": "https://www.semanticscholar.org/paper/04b1448dbe26ef4d0882ee3dedf04ec60cd9411d",
      "title": "Bayesian belief network analysis applied to determine the progression of temporomandibular disorders using MRI.",
      "venue": "Dento maxillo facial radiology",
      "year": 2015,
      "referenceCount": 41,
      "citationCount": 17,
      "authors": [
        {
          "authorId": "91970580",
          "name": "H. Iwasaki"
        }
      ]
    },
    {
      "paperId": "63e033ccf225fd343a9dd367c75909108fbeaa1b",
      "externalIds": {
        "MAG": "2178636936",
        "PubMedCentral": "4651358",
        "DOI": "10.1371/journal.pone.0142707",
        "CorpusId": 4853630,
        "PubMed": "26580801"
      },
      "url": "https://www.semanticscholar.org/paper/63e033ccf225fd343a9dd367c75909108fbeaa1b",
      "title": "State-Space Modelling of the Drivers of Movement Behaviour in Sympatric Species",
      "venue": "PLoS ONE",
      "year": 2015,
      "referenceCount": 94,
      "citationCount": 13,
      "authors": [
        {
          "authorId": "2412848330",
          "name": "F. J. Pérez-Barbería"
        },
        {
          "authorId": "2412848330",
          "name": "F. J. Pérez-Barbería"
        },
        {
          "authorId": "2412848330",
          "name": "F. J. Pérez-Barbería"
        },
        {
          "authorId": "2250908513",
          "name": "Michael Small"
        },
        {
          "authorId": "2059406454",
          "name": "R. Hooper"
        },
        {
          "authorId": "6371977",
          "name": "A. Aldezabal"
        },
        {
          "authorId": "1422564547",
          "name": "R. Soriguer-Escofet"
        },
        {
          "authorId": "3057828",
          "name": "G. S. Bakken"
        },
        {
          "authorId": "2208710676",
          "name": "Iain J. Gordon"
        }
      ]
    },
    {
      "paperId": "e74fadb874d432cf03efea357336a0b290f9f147",
      "externalIds": {
        "MAG": "1554445912",
        "DOI": "10.1109/ICACT.2015.7224806",
        "CorpusId": 35508627
      },
      "url": "https://www.semanticscholar.org/paper/e74fadb874d432cf03efea357336a0b290f9f147",
      "title": "Wrapper induction of news information for feeding to social networking service on smartphone",
      "venue": "International Conference on Advanced Communication Technology",
      "year": 2015,
      "referenceCount": 20,
      "citationCount": 1,
      "authors": [
        {
          "authorId": "27863427",
          "name": "Zhong-Liang Xiang"
        },
        {
          "authorId": "3387513",
          "name": "Xiang-Ru Yu"
        },
        {
          "authorId": "1955615",
          "name": "Dae-Ki Kang"
        }
      ]
    },
    {
      "paperId": "e58d7fba48be719744ef850e029ece0bf41b982c",
      "externalIds": {
        "MAG": "2306318008",
        "CorpusId": 124685829
      },
      "url": "https://www.semanticscholar.org/paper/e58d7fba48be719744ef850e029ece0bf41b982c",
      "title": "OPTIMAL PARAMETER ESTIMATION OF ULTRASONIC SIGNALS BY USING A COMBINATION OF PARTICLE SWARM OPTIMIZATION AND GAUSS-NEWTON ALGORITHMS",
      "venue": "",
      "year": 2015,
      "referenceCount": 17,
      "citationCount": 2,
      "authors": [
        {
          "authorId": "2064338906",
          "name": "Gholami Ali"
        },
        {
          "authorId": "98375539",
          "name": "H. Farhang"
        },
        {
          "authorId": "2058625125",
          "name": "Abrishami Moghaddam Hamid"
        }
      ]
    },
    {
      "paperId": "d484d9b9a1b3d24fd602ddf0a33005279f07269b",
      "externalIds": {
        "MAG": "1589954106",
        "DOI": "10.1109/IRS.2015.7226351",
        "CorpusId": 22923025
      },
      "url": "https://www.semanticscholar.org/paper/d484d9b9a1b3d24fd602ddf0a33005279f07269b",
      "title": "Improving BEM channel estimation for airborne passive radar reference signal reconstruction",
      "venue": "International Radar Symposium",
      "year": 2015,
      "referenceCount": 7,
      "citationCount": 4,
      "authors": [
        {
          "authorId": "40459986",
          "name": "Clément Berthillot"
        },
        {
          "authorId": "2263454",
          "name": "A. Santori"
        },
        {
          "authorId": "2435277",
          "name": "O. Rabaste"
        },
        {
          "authorId": "2729904",
          "name": "D. Poullin"
        },
        {
          "authorId": "3206561",
          "name": "M. Lesturgie"
        }
      ]
    },
    {
      "paperId": "340f9e587346a22ef95a148327484e82ec69a264",
      "externalIds": {
        "MAG": "2085375449",
        "DBLP": "conf/mm/WangLWZ15",
        "DOI": "10.1145/2733373.2806233",
        "CorpusId": 17387113
      },
      "url": "https://www.semanticscholar.org/paper/340f9e587346a22ef95a148327484e82ec69a264",
      "title": "Effective Multi-Query Expansions: Robust Landmark Retrieval",
      "venue": "ACM Multimedia",
      "year": 2015,
      "referenceCount": 39,
      "citationCount": 70,
      "authors": [
        {
          "authorId": "46396571",
          "name": "Yang Wang"
        },
        {
          "authorId": "2873542",
          "name": "Xuemin Lin"
        },
        {
          "authorId": "2116666483",
          "name": "Lin Wu"
        },
        {
          "authorId": "19262604",
          "name": "W. Zhang"
        }
      ]
    },
    {
      "paperId": "acdb356cd30244ebb76be12e55859118d36c5015",
      "externalIds": {
        "DBLP": "conf/icdm/KotterGBF15",
        "MAG": "2241576602",
        "DOI": "10.1109/ICDM.2015.24",
        "CorpusId": 10602889
      },
      "url": "https://www.semanticscholar.org/paper/acdb356cd30244ebb76be12e55859118d36c5015",
      "title": "Automatic Taxonomy Extraction from Bipartite Graphs",
      "venue": "2015 IEEE International Conference on Data Mining",
      "year": 2015,
      "referenceCount": 27,
      "citationCount": 1,
      "authors": [
        {
          "authorId": "2873353",
          "name": "Tobias Kötter"
        },
        {
          "authorId": "3075189",
          "name": "Stephan Günnemann"
        },
        {
          "authorId": "1683418",
          "name": "M. Berthold"
        },
        {
          "authorId": "1702392",
          "name": "C. Faloutsos"
        }
      ]
    }
  ]
}