{
  "total": 529,
  "offset": 0,
  "next": 10,
  "data": [
    {
      "paperId": "a936ab35fb0d21eccfb30e13777c35e4fd6df59b",
      "externalIds": {
        "MAG": "2804188591",
        "DBLP": "conf/icml/PretoriusKK18",
        "ArXiv": "1806.05413",
        "CorpusId": 49207733
      },
      "url": "https://www.semanticscholar.org/paper/a936ab35fb0d21eccfb30e13777c35e4fd6df59b",
      "title": "Learning Dynamics of Linear Denoising Autoencoders",
      "venue": "International Conference on Machine Learning",
      "year": 2018,
      "referenceCount": 36,
      "citationCount": 28,
      "authors": [
        {
          "authorId": "38166712",
          "name": "Arnu Pretorius"
        },
        {
          "authorId": "47323756",
          "name": "Steve Kroon"
        },
        {
          "authorId": "2308553",
          "name": "H. Kamper"
        }
      ]
    },
    {
      "paperId": "7f625d54189044ecac44cc4e9029945c3be18e64",
      "externalIds": {
        "CorpusId": 53382890
      },
      "url": "https://www.semanticscholar.org/paper/7f625d54189044ecac44cc4e9029945c3be18e64",
      "title": "Supplementary material: Learning Dynamics of Linear Denoising Autoencoders",
      "venue": "",
      "year": 2018,
      "referenceCount": 1,
      "citationCount": 0,
      "authors": []
    },
    {
      "paperId": "f6d78103dae005489ba9f6f3821126b1cefffdaa",
      "externalIds": {
        "CorpusId": 268116035
      },
      "url": "https://www.semanticscholar.org/paper/f6d78103dae005489ba9f6f3821126b1cefffdaa",
      "title": "The Effects of Noise : a Simulation",
      "venue": "",
      "year": 2018,
      "referenceCount": 38,
      "citationCount": 0,
      "authors": [
        {
          "authorId": "38166712",
          "name": "Arnu Pretorius"
        },
        {
          "authorId": "47323756",
          "name": "Steve Kroon"
        },
        {
          "authorId": "2308553",
          "name": "H. Kamper"
        }
      ]
    },
    {
      "paperId": "06884945d09d34724134dbaa9f15446d5231f850",
      "externalIds": {
        "ArXiv": "2505.24668",
        "DBLP": "journals/corr/abs-2505-24668",
        "DOI": "10.48550/arXiv.2505.24668",
        "CorpusId": 279070581
      },
      "url": "https://www.semanticscholar.org/paper/06884945d09d34724134dbaa9f15446d5231f850",
      "title": "Impact of Bottleneck Layers and Skip Connections on the Generalization of Linear Denoising Autoencoders",
      "venue": "arXiv.org",
      "year": 2025,
      "referenceCount": 48,
      "citationCount": 0,
      "authors": [
        {
          "authorId": "2364682580",
          "name": "Jonghyun Ham"
        },
        {
          "authorId": "2237797794",
          "name": "Maximilian Fleissner"
        },
        {
          "authorId": "2261310",
          "name": "D. Ghoshdastidar"
        }
      ]
    },
    {
      "paperId": "98714ada90223ae7a4b55ee7ffab41480691a1f7",
      "externalIds": {
        "DBLP": "journals/corr/abs-2201-02115",
        "ArXiv": "2201.02115",
        "DOI": "10.1088/1742-5468/ad01af",
        "CorpusId": 245769690
      },
      "url": "https://www.semanticscholar.org/paper/98714ada90223ae7a4b55ee7ffab41480691a1f7",
      "title": "The dynamics of representation learning in shallow, non-linear autoencoders",
      "venue": "International Conference on Machine Learning",
      "year": 2022,
      "referenceCount": 51,
      "citationCount": 25,
      "authors": [
        {
          "authorId": "1515579422",
          "name": "Maria Refinetti"
        },
        {
          "authorId": "2304015844",
          "name": "Sebastian Goldt"
        }
      ]
    },
    {
      "paperId": "57ed05ab8d2f0c2348e7f143107de94213fc19d0",
      "externalIds": {
        "DBLP": "journals/corr/abs-2508-00758",
        "ArXiv": "2508.00758",
        "DOI": "10.1145/3711896.3736910",
        "CorpusId": 280417183
      },
      "url": "https://www.semanticscholar.org/paper/57ed05ab8d2f0c2348e7f143107de94213fc19d0",
      "title": "Diffusion-Scheduled Denoising Autoencoders for Anomaly Detection in Tabular Data",
      "venue": "Knowledge Discovery and Data Mining",
      "year": 2025,
      "referenceCount": 63,
      "citationCount": 5,
      "authors": [
        {
          "authorId": "26340270",
          "name": "Timur Sattarov"
        },
        {
          "authorId": "3206427",
          "name": "Marco Schreyer"
        },
        {
          "authorId": "2279335719",
          "name": "Damian Borth"
        }
      ]
    },
    {
      "paperId": "e3336903aa869495cb286cd7f4c9b3ede5c90903",
      "externalIds": {
        "DBLP": "journals/aaiml/PSV25",
        "DOI": "10.54364/aaiml.2025.51203",
        "CorpusId": 277534178
      },
      "url": "https://www.semanticscholar.org/paper/e3336903aa869495cb286cd7f4c9b3ede5c90903",
      "title": "Next-Generation Noise-Resilient Communication Receiver Design Using Denoising Autoencoders",
      "venue": "Advances in Artificial Intelligence and Machine Learning",
      "year": 2025,
      "referenceCount": 32,
      "citationCount": 0,
      "authors": [
        {
          "authorId": "2353705517",
          "name": "P. Varsha"
        },
        {
          "authorId": "2276912680",
          "name": "V. Hari"
        }
      ]
    },
    {
      "paperId": "936421e15cc4d78d0bf62a2bfdbacf7cea8ee535",
      "externalIds": {
        "ArXiv": "2507.02351",
        "DBLP": "journals/corr/abs-2507-02351",
        "DOI": "10.1016/j.jobe.2025.113759",
        "CorpusId": 280150639
      },
      "url": "https://www.semanticscholar.org/paper/936421e15cc4d78d0bf62a2bfdbacf7cea8ee535",
      "title": "Indoor thermal comfort management: A Bayesian machine-learning approach to data denoising and dynamics prediction of HVAC systems",
      "venue": "Journal of Building Engineering",
      "year": 2025,
      "referenceCount": 52,
      "citationCount": 4,
      "authors": [
        {
          "authorId": "2291135017",
          "name": "J. Penuela"
        },
        {
          "authorId": "2223769099",
          "name": "Sahar Moghimian Hoosh"
        },
        {
          "authorId": "69455467",
          "name": "I. Kamyshev"
        },
        {
          "authorId": "2237579670",
          "name": "A. Bischi"
        },
        {
          "authorId": "49944304",
          "name": "H. Ouerdane"
        }
      ]
    },
    {
      "paperId": "a4d571744f067d043958eaf4d4fe6e22a5cbcd73",
      "externalIds": {
        "DOI": "10.1109/RADAR52380.2025.11031805",
        "CorpusId": 279455135
      },
      "url": "https://www.semanticscholar.org/paper/a4d571744f067d043958eaf4d4fe6e22a5cbcd73",
      "title": "Covariance Matrix Reconstruction Based on Regularized Denoising Autoencoders for Direction-of-Arrival Estimation",
      "venue": "Radar",
      "year": 2025,
      "referenceCount": 23,
      "citationCount": 0,
      "authors": [
        {
          "authorId": "2367613674",
          "name": "Gabriel Valenti"
        },
        {
          "authorId": "145970309",
          "name": "M. Mouhamadou"
        },
        {
          "authorId": "3316367",
          "name": "C. Decroze"
        }
      ]
    },
    {
      "paperId": "7669fea710b955b6794a6b04ea77f06462a4751e",
      "externalIds": {
        "ArXiv": "2310.15440",
        "DBLP": "journals/corr/abs-2310-15440",
        "DOI": "10.48550/arXiv.2310.15440",
        "CorpusId": 264439660
      },
      "url": "https://www.semanticscholar.org/paper/7669fea710b955b6794a6b04ea77f06462a4751e",
      "title": "Learning Dynamics in Linear VAE: Posterior Collapse Threshold, Superfluous Latent Space Pitfalls, and Speedup with KL Annealing",
      "venue": "International Conference on Artificial Intelligence and Statistics",
      "year": 2023,
      "referenceCount": 69,
      "citationCount": 12,
      "authors": [
        {
          "authorId": "2055995118",
          "name": "Yuma Ichikawa"
        },
        {
          "authorId": "2240521950",
          "name": "Koji Hukushima"
        }
      ]
    }
  ]
}