{
  "total": 1055,
  "offset": 0,
  "next": 10,
  "data": [
    {
      "paperId": "3ab308a469439917204c5e9eab833e0f5f2f74da",
      "externalIds": {
        "MAG": "2468354762",
        "ArXiv": "1701.04113",
        "DBLP": "journals/corr/AbelHL17",
        "CorpusId": 5877340
      },
      "url": "https://www.semanticscholar.org/paper/3ab308a469439917204c5e9eab833e0f5f2f74da",
      "title": "Near Optimal Behavior via Approximate State Abstraction",
      "venue": "International Conference on Machine Learning",
      "year": 2016,
      "referenceCount": 42,
      "citationCount": 180,
      "authors": [
        {
          "authorId": "152422014",
          "name": "David Abel"
        },
        {
          "authorId": "145661994",
          "name": "D. E. Hershkowitz"
        },
        {
          "authorId": "144885169",
          "name": "M. Littman"
        }
      ]
    },
    {
      "paperId": "dd5a0bfcf2fa2cb34e2e04123b75b8f7fa51cbfe",
      "externalIds": {
        "ArXiv": "2603.16114",
        "CorpusId": 286579790
      },
      "url": "https://www.semanticscholar.org/paper/dd5a0bfcf2fa2cb34e2e04123b75b8f7fa51cbfe",
      "title": "Near-Optimal Constrained Feedback Control of Nonlinear Systems via Approximate HJB and Control Barrier Functions",
      "venue": "",
      "year": 2026,
      "referenceCount": 17,
      "citationCount": 0,
      "authors": [
        {
          "authorId": "2323513754",
          "name": "Milad Alipour Shahraki"
        },
        {
          "authorId": "2248195433",
          "name": "Laurent Lessard"
        }
      ]
    },
    {
      "paperId": "8cbdd5f3608eaa5f3fc53bbe3e6cc4e8ecc82b9a",
      "externalIds": {
        "DBLP": "journals/tnn/YangXHYDCG25",
        "DOI": "10.1109/TNNLS.2024.3467338",
        "CorpusId": 273457322,
        "PubMed": "39423076"
      },
      "url": "https://www.semanticscholar.org/paper/8cbdd5f3608eaa5f3fc53bbe3e6cc4e8ecc82b9a",
      "title": "State Abstraction via Deep Supervised Hash Learning",
      "venue": "IEEE Transactions on Neural Networks and Learning Systems",
      "year": 2024,
      "referenceCount": 38,
      "citationCount": 1,
      "authors": [
        {
          "authorId": "2326668515",
          "name": "Guang Yang"
        },
        {
          "authorId": "2288033661",
          "name": "Zheng Xu"
        },
        {
          "authorId": "2055851838",
          "name": "Jing Huo"
        },
        {
          "authorId": "3385090",
          "name": "Shangdong Yang"
        },
        {
          "authorId": "2287824245",
          "name": "Tianyu Ding"
        },
        {
          "authorId": "2118652926",
          "name": "Xingguo Chen"
        },
        {
          "authorId": "2321615132",
          "name": "Yang Gao"
        }
      ]
    },
    {
      "paperId": "4efa84074c42a78e5ed446a3ffab29234ad8c338",
      "externalIds": {
        "DBLP": "conf/cdc/GengDZL25",
        "DOI": "10.1109/CDC57313.2025.11312342",
        "CorpusId": 284724119
      },
      "url": "https://www.semanticscholar.org/paper/4efa84074c42a78e5ed446a3ffab29234ad8c338",
      "title": "Approximate Optimal Control for Nonlinear System with State Constraints and Partially Unknown Dynamics",
      "venue": "IEEE Conference on Decision and Control",
      "year": 2025,
      "referenceCount": 18,
      "citationCount": 0,
      "authors": [
        {
          "authorId": "2354019308",
          "name": "Fan Geng"
        },
        {
          "authorId": "2269025975",
          "name": "Yi Dong"
        },
        {
          "authorId": "26649175",
          "name": "Liubin Zhou"
        },
        {
          "authorId": "2119922090",
          "name": "Rongyan Li"
        }
      ]
    },
    {
      "paperId": "45e629cd2388164f08cdc67aead47b95d19707b0",
      "externalIds": {
        "MAG": "2990189926",
        "DBLP": "conf/smc/WangCZZ19",
        "DOI": "10.1109/SMC.2019.8914595",
        "CorpusId": 204955798
      },
      "url": "https://www.semanticscholar.org/paper/45e629cd2388164f08cdc67aead47b95d19707b0",
      "title": "Near-Optimal Control of Motor Drives via Approximate Dynamic Programming",
      "venue": "IEEE International Conference on Systems, Man and Cybernetics",
      "year": 2019,
      "referenceCount": 25,
      "citationCount": 4,
      "authors": [
        {
          "authorId": "2115737831",
          "name": "Yebin Wang"
        },
        {
          "authorId": "35054948",
          "name": "A. Chakrabarty"
        },
        {
          "authorId": "143849611",
          "name": "Mengchu Zhou"
        },
        {
          "authorId": "3398800",
          "name": "Jinyun Zhang"
        }
      ]
    },
    {
      "paperId": "790ee8f4bcdf53295c0d3981adbb17dbad7fcae6",
      "externalIds": {
        "DOI": "10.1007/s12555-021-0674-z",
        "CorpusId": 257348947
      },
      "url": "https://www.semanticscholar.org/paper/790ee8f4bcdf53295c0d3981adbb17dbad7fcae6",
      "title": "Robust Near-optimal Control for Constrained Nonlinear System via Integral Reinforcement Learning",
      "venue": "International Journal of Control, Automation and Systems",
      "year": 2023,
      "referenceCount": 41,
      "citationCount": 8,
      "authors": [
        {
          "authorId": "2153278039",
          "name": "Y. Qiu"
        },
        {
          "authorId": "2152884130",
          "name": "Yan Li"
        },
        {
          "authorId": "2141399002",
          "name": "Zhong Wang"
        }
      ]
    },
    {
      "paperId": "c4bb66e9fd1c34e2032880a559060af7f9897714",
      "externalIds": {
        "DOI": "10.1109/TASE.2026.3678792",
        "CorpusId": 287015394
      },
      "url": "https://www.semanticscholar.org/paper/c4bb66e9fd1c34e2032880a559060af7f9897714",
      "title": "Approximate Optimal Enclosing Control for UAVs With Performance Guarantees: A Prescribed-Time Learning Solution",
      "venue": "IEEE Transactions on Automation Science and Engineering",
      "year": 2026,
      "referenceCount": 46,
      "citationCount": 0,
      "authors": [
        {
          "authorId": "2397491506",
          "name": "Wanning Wang"
        },
        {
          "authorId": "2128362",
          "name": "Xingling Shao"
        },
        {
          "authorId": "2256176301",
          "name": "Jun Liu"
        },
        {
          "authorId": "2244293405",
          "name": "Zhengrong Xiang"
        },
        {
          "authorId": "2153201680",
          "name": "Junzhi Yu"
        }
      ]
    },
    {
      "paperId": "209dc40c1ff97fa0a235eaa0a5a677a4598c96b8",
      "externalIds": {
        "DBLP": "conf/cdc/FisckoKS23",
        "DOI": "10.1109/CDC49753.2023.10383361",
        "CorpusId": 267045580
      },
      "url": "https://www.semanticscholar.org/paper/209dc40c1ff97fa0a235eaa0a5a677a4598c96b8",
      "title": "Maximizing Reachability in Factored MDPs via Near-Optimal Clustering with Applications to Control of Multi-Agent Systems",
      "venue": "IEEE Conference on Decision and Control",
      "year": 2023,
      "referenceCount": 21,
      "citationCount": 0,
      "authors": [
        {
          "authorId": "1394435740",
          "name": "Carmel Fiscko"
        },
        {
          "authorId": "1699677",
          "name": "S. Kar"
        },
        {
          "authorId": "2257235432",
          "name": "Bruno Sinopoli"
        }
      ]
    },
    {
      "paperId": "e9c20f45667ad97c4803bd8d5cc2739f4069be8a",
      "externalIds": {
        "DOI": "10.3390/math12081146",
        "CorpusId": 269098302
      },
      "url": "https://www.semanticscholar.org/paper/e9c20f45667ad97c4803bd8d5cc2739f4069be8a",
      "title": "Near-Optimal Tracking Control of Partially Unknown Discrete-Time Nonlinear Systems Based on Radial Basis Function Neural Network",
      "venue": "Mathematics",
      "year": 2024,
      "referenceCount": 34,
      "citationCount": 6,
      "authors": [
        {
          "authorId": "2274706039",
          "name": "Jiashun Huang"
        },
        {
          "authorId": "2274717500",
          "name": "Dengguo Xu"
        },
        {
          "authorId": "2274458743",
          "name": "Yahui Li"
        },
        {
          "authorId": "2274608198",
          "name": "Yan Ma"
        }
      ]
    },
    {
      "paperId": "ffbc6126817f509f218fe661aedfe1457f0383ac",
      "externalIds": {
        "ArXiv": "2502.01042",
        "DBLP": "conf/emnlp/HanQCZJZ25",
        "DOI": "10.18653/v1/2025.findings-emnlp.366",
        "CorpusId": 276094149
      },
      "url": "https://www.semanticscholar.org/paper/ffbc6126817f509f218fe661aedfe1457f0383ac",
      "title": "SafeSwitch: Steering Unsafe LLM Behavior via Internal Activation Signals",
      "venue": "Conference on Empirical Methods in Natural Language Processing",
      "year": 2025,
      "referenceCount": 50,
      "citationCount": 19,
      "authors": [
        {
          "authorId": "2335865940",
          "name": "Peixuan Han"
        },
        {
          "authorId": "2324517283",
          "name": "Cheng Qian"
        },
        {
          "authorId": "29963551",
          "name": "Xiusi Chen"
        },
        {
          "authorId": "2284725570",
          "name": "Yuji Zhang"
        },
        {
          "authorId": "2335923683",
          "name": "Denghui Zhang"
        },
        {
          "authorId": "2336048765",
          "name": "Heng Ji"
        }
      ]
    }
  ]
}