{
  "total": 47,
  "offset": 0,
  "next": 10,
  "data": [
    {
      "paperId": "781430acf5b91122db2d5993cbdacfd5a5b6273a",
      "externalIds": {
        "DBLP": "conf/icml/JunN16",
        "MAG": "2473871880",
        "CorpusId": 3967031,
        "PubMed": "29541329"
      },
      "url": "https://www.semanticscholar.org/paper/781430acf5b91122db2d5993cbdacfd5a5b6273a",
      "title": "Anytime Exploration for Multi-armed Bandits using Confidence Information",
      "venue": "International Conference on Machine Learning",
      "year": 2016,
      "referenceCount": 13,
      "citationCount": 23,
      "authors": [
        {
          "authorId": "2610963",
          "name": "Kwang-Sung Jun"
        },
        {
          "authorId": "50033772",
          "name": "R. Nowak"
        }
      ]
    },
    {
      "paperId": "3bd4729b2e7291624af68f9ebd8bb178c1015a45",
      "externalIds": {
        "DOI": "10.54254/2753-8818/2026.ch29998",
        "CorpusId": 283421456
      },
      "url": "https://www.semanticscholar.org/paper/3bd4729b2e7291624af68f9ebd8bb178c1015a45",
      "title": "Contextual Multi-Armed Bandits for Dynamic News Recommendation: An Empirical Evaluation",
      "venue": "Theoretical and Natural Science",
      "year": 2025,
      "referenceCount": 0,
      "citationCount": 0,
      "authors": [
        {
          "authorId": "2309118475",
          "name": "Jiashuo Wang"
        }
      ]
    },
    {
      "paperId": "a9befe0b54a1d1ffeae502e4dfeb43c89a465d2b",
      "externalIds": {
        "ArXiv": "2102.13101",
        "DBLP": "journals/corr/abs-2102-13101",
        "CorpusId": 232046186
      },
      "url": "https://www.semanticscholar.org/paper/a9befe0b54a1d1ffeae502e4dfeb43c89a465d2b",
      "title": "Federated Multi-armed Bandits with Personalization",
      "venue": "International Conference on Artificial Intelligence and Statistics",
      "year": 2021,
      "referenceCount": 35,
      "citationCount": 100,
      "authors": [
        {
          "authorId": "1382573171",
          "name": "Chengshuai Shi"
        },
        {
          "authorId": "33298166",
          "name": "Cong Shen"
        },
        {
          "authorId": "2143851813",
          "name": "Jing Yang"
        }
      ]
    },
    {
      "paperId": "9a1ee3ecf0f5a2d7ca5e36444a864d34b8283900",
      "externalIds": {
        "DBLP": "journals/corr/abs-2108-01152",
        "CorpusId": 236881015
      },
      "url": "https://www.semanticscholar.org/paper/9a1ee3ecf0f5a2d7ca5e36444a864d34b8283900",
      "title": "Pure Exploration in Multi-armed Bandits with Graph Side Information",
      "venue": "arXiv.org",
      "year": 2021,
      "referenceCount": 45,
      "citationCount": 5,
      "authors": [
        {
          "authorId": "145385636",
          "name": "Parth Thaker"
        },
        {
          "authorId": "145850291",
          "name": "Nikhil S. Rao"
        },
        {
          "authorId": "2020741643",
          "name": "Mohit Malu"
        },
        {
          "authorId": "1843941",
          "name": "Gautam Dasarathy"
        }
      ]
    },
    {
      "paperId": "99479ffa07054e1043034f50953c2e1f9c22b6a6",
      "externalIds": {
        "DOI": "10.1109/ICCT67417.2025.11373961",
        "CorpusId": 286013602
      },
      "url": "https://www.semanticscholar.org/paper/99479ffa07054e1043034f50953c2e1f9c22b6a6",
      "title": "Efficient Multi-Armed Bandit-Based Beam Training for Multi-User XL-MIMO Systems",
      "venue": "International Conference on Speech Technology and Human-Computer Dialogue",
      "year": 2025,
      "referenceCount": 14,
      "citationCount": 0,
      "authors": [
        {
          "authorId": "2401266674",
          "name": "Yixin Jiang"
        },
        {
          "authorId": "2237402384",
          "name": "Huibin Liang"
        },
        {
          "authorId": "2238896296",
          "name": "Yunchao Song"
        },
        {
          "authorId": "2237428156",
          "name": "Chen Liu"
        }
      ]
    },
    {
      "paperId": "8d6b1d9133069140a0504310b355cc43504e7992",
      "externalIds": {
        "DOI": "10.5220/0014366500004918",
        "CorpusId": 286097463
      },
      "url": "https://www.semanticscholar.org/paper/8d6b1d9133069140a0504310b355cc43504e7992",
      "title": "The Exploration of Music Recommendation System Performance Based on Multi-Armed Bandit Algorithms",
      "venue": "Proceedings of the 3rd International Conference on Computer Science and Mechatronics",
      "year": 2025,
      "referenceCount": 9,
      "citationCount": 0,
      "authors": [
        {
          "authorId": "2281396285",
          "name": "Xinyue Hu"
        }
      ]
    },
    {
      "paperId": "a3638c0d5b9270210efa083c7b6cb7353fab3b1d",
      "externalIds": {
        "DBLP": "journals/corr/abs-2501-00891",
        "ArXiv": "2501.00891",
        "DOI": "10.48550/arXiv.2501.00891",
        "CorpusId": 275212141
      },
      "url": "https://www.semanticscholar.org/paper/a3638c0d5b9270210efa083c7b6cb7353fab3b1d",
      "title": "Demystifying Online Clustering of Bandits: Enhanced Exploration Under Stochastic and Smoothed Adversarial Contexts",
      "venue": "International Conference on Learning Representations",
      "year": 2025,
      "referenceCount": 38,
      "citationCount": 4,
      "authors": [
        {
          "authorId": "2128032002",
          "name": "Zhuohua Li"
        },
        {
          "authorId": "2192334582",
          "name": "Maoli Liu"
        },
        {
          "authorId": "2303941298",
          "name": "Xiangxiang Dai"
        },
        {
          "authorId": "2273096112",
          "name": "John C. S. Lui"
        }
      ]
    },
    {
      "paperId": "91dd89e9e11cc1873ed2d4ac87e3466fc576396b",
      "externalIds": {
        "DOI": "10.54254/2755-2721/36/20230453",
        "CorpusId": 267535309
      },
      "url": "https://www.semanticscholar.org/paper/91dd89e9e11cc1873ed2d4ac87e3466fc576396b",
      "title": "Improvement of the recommendation system based on the multi-armed bandit algorithm",
      "venue": "Applied and Computational Engineering",
      "year": 2024,
      "referenceCount": 0,
      "citationCount": 0,
      "authors": [
        {
          "authorId": "2283179508",
          "name": "Youxuan Li"
        }
      ]
    },
    {
      "paperId": "96ce26b064cc1e14c55ea782042956c710fb7612",
      "externalIds": {
        "DOI": "10.1109/TMC.2025.3638816",
        "CorpusId": 283493814
      },
      "url": "https://www.semanticscholar.org/paper/96ce26b064cc1e14c55ea782042956c710fb7612",
      "title": "LearnRouter: A Reinforcement Learning-Based Routing for Opportunistic Mobile Networks Using Multi-Armed Bandit Approach",
      "venue": "IEEE Transactions on Mobile Computing",
      "year": 2026,
      "referenceCount": 34,
      "citationCount": 0,
      "authors": [
        {
          "authorId": "2327561747",
          "name": "Aanchal Phutela"
        },
        {
          "authorId": "2396087361",
          "name": "Shiva Koshta"
        },
        {
          "authorId": "2261730045",
          "name": "Sujata Pal"
        },
        {
          "authorId": "2268697612",
          "name": "S. Sampalli"
        }
      ]
    },
    {
      "paperId": "8db07dc2c82fcd33a00ee5e788ae339a7199355f",
      "externalIds": {
        "DOI": "10.54254/2755-2721/68/20241407",
        "CorpusId": 270303899
      },
      "url": "https://www.semanticscholar.org/paper/8db07dc2c82fcd33a00ee5e788ae339a7199355f",
      "title": "Analyzing the strengths and weaknesses of diverse algorithms for solving Multi-Armed Bandit problems using Python",
      "venue": "Applied and Computational Engineering",
      "year": 2024,
      "referenceCount": 0,
      "citationCount": 0,
      "authors": [
        {
          "authorId": "2219681041",
          "name": "Lingxiang Zhang"
        }
      ]
    }
  ]
}