{
  "total": 339,
  "offset": 0,
  "next": 10,
  "data": [
    {
      "paperId": "a02ae42ff5c468244bbf40f215042e8bc96c3804",
      "externalIds": {
        "DBLP": "conf/icml/ZhangP15",
        "MAG": "1835150476",
        "CorpusId": 9706038
      },
      "url": "https://www.semanticscholar.org/paper/a02ae42ff5c468244bbf40f215042e8bc96c3804",
      "title": "Markov Mixed Membership Models",
      "venue": "International Conference on Machine Learning",
      "year": 2015,
      "referenceCount": 31,
      "citationCount": 10,
      "authors": [
        {
          "authorId": "2852051",
          "name": "Aonan Zhang"
        },
        {
          "authorId": "143855009",
          "name": "J. Paisley"
        }
      ]
    },
    {
      "paperId": "3250400791333697125b77aae218350bd183b0f7",
      "externalIds": {
        "MAG": "3021866355",
        "ArXiv": "1510.04815",
        "DBLP": "journals/corr/LiAW15",
        "CorpusId": 6059103
      },
      "url": "https://www.semanticscholar.org/paper/3250400791333697125b77aae218350bd183b0f7",
      "title": "Scalable MCMC for Mixed Membership Stochastic Blockmodels",
      "venue": "International Conference on Artificial Intelligence and Statistics",
      "year": 2015,
      "referenceCount": 27,
      "citationCount": 44,
      "authors": [
        {
          "authorId": "2135914554",
          "name": "Wenzhe Li"
        },
        {
          "authorId": "3103594",
          "name": "Sungjin Ahn"
        },
        {
          "authorId": "1678311",
          "name": "M. Welling"
        }
      ]
    },
    {
      "paperId": "2ec609d46cb4be79294982a59ddf59e0d24abda2",
      "externalIds": {
        "CorpusId": 18508748
      },
      "url": "https://www.semanticscholar.org/paper/2ec609d46cb4be79294982a59ddf59e0d24abda2",
      "title": "Variational Inference for Hierarchical Dirichlet Process Based Nonparametric Models",
      "venue": "",
      "year": 2015,
      "referenceCount": 19,
      "citationCount": 1,
      "authors": [
        {
          "authorId": "1799035",
          "name": "Erik B. Sudderth"
        }
      ]
    },
    {
      "paperId": "286a7efd62e7ea4d6353ac3dff05664bbdce5717",
      "externalIds": {
        "MAG": "2557088125",
        "ArXiv": "1512.08731",
        "DOI": "10.1214/17-AOAS1034",
        "CorpusId": 88520117
      },
      "url": "https://www.semanticscholar.org/paper/286a7efd62e7ea4d6353ac3dff05664bbdce5717",
      "title": "A Variational EM Method for Mixed Membership Models with Multivariate Rank Data: an Analysis of Public Policy Preferences",
      "venue": "",
      "year": 2015,
      "referenceCount": 37,
      "citationCount": 12,
      "authors": [
        {
          "authorId": "2152607207",
          "name": "Y. S. Wang"
        },
        {
          "authorId": "48742381",
          "name": "R. Matsueda"
        },
        {
          "authorId": "1868490",
          "name": "E. Erosheva"
        }
      ]
    },
    {
      "paperId": "053d896bc460a22ceadab97e4be5bd0410b207f7",
      "externalIds": {
        "MAG": "2101391670",
        "DOI": "10.1093/aje/kwv051",
        "CorpusId": 46434579,
        "PubMed": "26209524"
      },
      "url": "https://www.semanticscholar.org/paper/053d896bc460a22ceadab97e4be5bd0410b207f7",
      "title": "Empirically Derived Trajectories to Dementia Over 15 Years of Follow-up Identified by Using Mixed Membership Models.",
      "venue": "American Journal of Epidemiology",
      "year": 2015,
      "referenceCount": 42,
      "citationCount": 6,
      "authors": [
        {
          "authorId": "2962773",
          "name": "F. Lecci"
        },
        {
          "authorId": "21695559",
          "name": "B. Junker"
        },
        {
          "authorId": "2604336",
          "name": "L. Kuller"
        },
        {
          "authorId": "2400866847",
          "name": "O. Lopez"
        },
        {
          "authorId": "32038841",
          "name": "J. Becker"
        }
      ]
    },
    {
      "paperId": "17702ad83d1011abd059195a93a3f51952c2aa0d",
      "externalIds": {
        "MAG": "1839759725",
        "DBLP": "conf/icml/VirtanenG15",
        "CorpusId": 15660756
      },
      "url": "https://www.semanticscholar.org/paper/17702ad83d1011abd059195a93a3f51952c2aa0d",
      "title": "Ordinal Mixed Membership Models",
      "venue": "International Conference on Machine Learning",
      "year": 2015,
      "referenceCount": 22,
      "citationCount": 5,
      "authors": [
        {
          "authorId": "40210701",
          "name": "S. Virtanen"
        },
        {
          "authorId": "50859190",
          "name": "M. Girolami"
        }
      ]
    },
    {
      "paperId": "ee19f4365e3e1e47920d21d03dd68954ae3281a3",
      "externalIds": {
        "CorpusId": 55026803
      },
      "url": "https://www.semanticscholar.org/paper/ee19f4365e3e1e47920d21d03dd68954ae3281a3",
      "title": "Fitting Mixed Membership Models using mixedMem",
      "venue": "",
      "year": 2015,
      "referenceCount": 13,
      "citationCount": 4,
      "authors": [
        {
          "authorId": "2152607207",
          "name": "Y. S. Wang"
        },
        {
          "authorId": "1868490",
          "name": "E. Erosheva"
        }
      ]
    },
    {
      "paperId": "f92d59a9d56bb83723722aed82e11dd829f98db4",
      "externalIds": {
        "MAG": "2200768123",
        "CorpusId": 124227752
      },
      "url": "https://www.semanticscholar.org/paper/f92d59a9d56bb83723722aed82e11dd829f98db4",
      "title": "A Variational EM Method for Mixed Membership Models for Rank Data: an Analysis of Public Policy Preferences",
      "venue": "",
      "year": 2015,
      "referenceCount": 24,
      "citationCount": 1,
      "authors": [
        {
          "authorId": "2152607207",
          "name": "Y. S. Wang"
        },
        {
          "authorId": "48742381",
          "name": "R. Matsueda"
        },
        {
          "authorId": "1868490",
          "name": "E. Erosheva"
        }
      ]
    },
    {
      "paperId": "f3a9b1cc2167fd2a91b8e53f437d12ddf754c206",
      "externalIds": {
        "MAG": "1929235752",
        "CorpusId": 120748066
      },
      "url": "https://www.semanticscholar.org/paper/f3a9b1cc2167fd2a91b8e53f437d12ddf754c206",
      "title": "Tools for Discrete Multivariate Mixed Membership Models",
      "venue": "",
      "year": 2015,
      "referenceCount": 0,
      "citationCount": 4,
      "authors": [
        {
          "authorId": "2152607207",
          "name": "Y. S. Wang"
        },
        {
          "authorId": "1868490",
          "name": "E. Erosheva"
        }
      ]
    },
    {
      "paperId": "bd2110478dbd8ce2b7a295e32bc40a44cf152511",
      "externalIds": {
        "MAG": "2210066274",
        "CorpusId": 61220087
      },
      "url": "https://www.semanticscholar.org/paper/bd2110478dbd8ce2b7a295e32bc40a44cf152511",
      "title": "Learning mixed membership models with a separable latent structure: Theory, provably efficient algorithms, and applications",
      "venue": "",
      "year": 2015,
      "referenceCount": 89,
      "citationCount": 1,
      "authors": [
        {
          "authorId": "2365722",
          "name": "Weicong Ding"
        }
      ]
    }
  ]
}