{
  "total": 140,
  "offset": 0,
  "next": 10,
  "data": [
    {
      "paperId": "d4a31e8416ee4e76e399a69ccb77068646e16e7b",
      "externalIds": {
        "MAG": "2741071393",
        "DBLP": "conf/icml/YangBL17",
        "CorpusId": 26384446
      },
      "url": "https://www.semanticscholar.org/paper/d4a31e8416ee4e76e399a69ccb77068646e16e7b",
      "title": "High-dimensional Non-Gaussian Single Index Models via Thresholded Score Function Estimation",
      "venue": "International Conference on Machine Learning",
      "year": 2017,
      "referenceCount": 40,
      "citationCount": 54,
      "authors": [
        {
          "authorId": "150358650",
          "name": "Zhuoran Yang"
        },
        {
          "authorId": "1682978",
          "name": "K. Balasubramanian"
        },
        {
          "authorId": "49957601",
          "name": "Han Liu"
        }
      ]
    },
    {
      "paperId": "4ab4f4e4d543beece8ba5224a45353a39207f5a5",
      "externalIds": {
        "MAG": "2753644247",
        "DBLP": "conf/nips/YangBWL17",
        "CorpusId": 4727421
      },
      "url": "https://www.semanticscholar.org/paper/4ab4f4e4d543beece8ba5224a45353a39207f5a5",
      "title": "Estimating High-dimensional Non-Gaussian Multiple Index Models via Stein's Lemma",
      "venue": "Neural Information Processing Systems",
      "year": 2017,
      "referenceCount": 0,
      "citationCount": 19,
      "authors": [
        {
          "authorId": "150358650",
          "name": "Zhuoran Yang"
        },
        {
          "authorId": "1682978",
          "name": "K. Balasubramanian"
        },
        {
          "authorId": "3113442",
          "name": "Zhaoran Wang"
        },
        {
          "authorId": "49957601",
          "name": "Han Liu"
        }
      ]
    },
    {
      "paperId": "afea234e64326aa5ceebf296304e00babcce764d",
      "externalIds": {
        "DBLP": "journals/corr/abs-2403-05529",
        "ArXiv": "2403.05529",
        "DOI": "10.48550/arXiv.2403.05529",
        "CorpusId": 268296983
      },
      "url": "https://www.semanticscholar.org/paper/afea234e64326aa5ceebf296304e00babcce764d",
      "title": "Computational-Statistical Gaps in Gaussian Single-Index Models",
      "venue": "Annual Conference Computational Learning Theory",
      "year": 2024,
      "referenceCount": 0,
      "citationCount": 36,
      "authors": [
        {
          "authorId": "2284986062",
          "name": "Alex Damian"
        },
        {
          "authorId": "1399505772",
          "name": "Loucas Pillaud-Vivien"
        },
        {
          "authorId": "2268337987",
          "name": "Jason D. Lee"
        },
        {
          "authorId": "2253594578",
          "name": "Joan Bruna"
        }
      ]
    },
    {
      "paperId": "03bd51fe393e8aa75698205dc3404e91645b4a63",
      "externalIds": {
        "DBLP": "journals/corr/abs-2505-21336",
        "ArXiv": "2505.21336",
        "DOI": "10.48550/arXiv.2505.21336",
        "CorpusId": 278911433
      },
      "url": "https://www.semanticscholar.org/paper/03bd51fe393e8aa75698205dc3404e91645b4a63",
      "title": "Joint Learning in the Gaussian Single Index Model",
      "venue": "arXiv.org",
      "year": 2025,
      "referenceCount": 32,
      "citationCount": 0,
      "authors": [
        {
          "authorId": "1399505772",
          "name": "Loucas Pillaud-Vivien"
        },
        {
          "authorId": "2408648614",
          "name": "Adrien Schertzer"
        }
      ]
    },
    {
      "paperId": "d3569843bc2c289793a0ce4a08b4e5a562fbc374",
      "externalIds": {
        "MAG": "2759654819",
        "ArXiv": "1709.08795",
        "CorpusId": 88515958
      },
      "url": "https://www.semanticscholar.org/paper/d3569843bc2c289793a0ce4a08b4e5a562fbc374",
      "title": "On Stein's Identity and Near-Optimal Estimation in High-dimensional Index Models",
      "venue": "",
      "year": 2017,
      "referenceCount": 61,
      "citationCount": 15,
      "authors": [
        {
          "authorId": "150358650",
          "name": "Zhuoran Yang"
        },
        {
          "authorId": "1682978",
          "name": "K. Balasubramanian"
        },
        {
          "authorId": null,
          "name": "Han Liu"
        }
      ]
    },
    {
      "paperId": "fada7f37c61f26aa9c3be4452f352de94926dbc2",
      "externalIds": {
        "DOI": "10.3390/math10152704",
        "CorpusId": 251269069
      },
      "url": "https://www.semanticscholar.org/paper/fada7f37c61f26aa9c3be4452f352de94926dbc2",
      "title": "High-Dimensional Statistics: Non-Parametric Generalized Functional Partially Linear Single-Index Model",
      "venue": "Mathematics",
      "year": 2022,
      "referenceCount": 0,
      "citationCount": 1,
      "authors": [
        {
          "authorId": "2006630970",
          "name": "Mohamed Alahiane"
        },
        {
          "authorId": "2379727",
          "name": "I. Ouassou"
        },
        {
          "authorId": "2509565",
          "name": "Mustapha Rachdi"
        },
        {
          "authorId": "1727940",
          "name": "P. Vieu"
        }
      ]
    },
    {
      "paperId": "1d65b316f5d45147149b1dee83680c9f0579a80e",
      "externalIds": {
        "ArXiv": "2405.09312",
        "DBLP": "journals/corr/abs-2405-09312",
        "DOI": "10.48550/arXiv.2405.09312",
        "CorpusId": 269773070
      },
      "url": "https://www.semanticscholar.org/paper/1d65b316f5d45147149b1dee83680c9f0579a80e",
      "title": "Agnostic Active Learning of Single Index Models with Linear Sample Complexity",
      "venue": "Annual Conference Computational Learning Theory",
      "year": 2024,
      "referenceCount": 64,
      "citationCount": 13,
      "authors": [
        {
          "authorId": "1988550110",
          "name": "Aarshvi Gajjar"
        },
        {
          "authorId": "2301312532",
          "name": "Wai Ming Tai"
        },
        {
          "authorId": "2301427465",
          "name": "Xingyu Xu"
        },
        {
          "authorId": "2262216898",
          "name": "Chinmay Hegde"
        },
        {
          "authorId": "2237192492",
          "name": "Chris Musco"
        },
        {
          "authorId": "2301502144",
          "name": "Yi Li"
        }
      ]
    },
    {
      "paperId": "e761d4c5b4b6b36e173d7e85311d820b5745f9fd",
      "externalIds": {
        "MAG": "3043551273",
        "DBLP": "journals/jmlr/EftekhariBR21",
        "CorpusId": 220514682
      },
      "url": "https://www.semanticscholar.org/paper/e761d4c5b4b6b36e173d7e85311d820b5745f9fd",
      "title": "Inference In High-dimensional Single-Index Models Under Symmetric Designs",
      "venue": "Journal of machine learning research",
      "year": 2019,
      "referenceCount": 41,
      "citationCount": 22,
      "authors": [
        {
          "authorId": "3441650",
          "name": "Hamid Eftekhari"
        },
        {
          "authorId": "35096678",
          "name": "M. Banerjee"
        },
        {
          "authorId": "100532061",
          "name": "Y. Ritov"
        }
      ]
    },
    {
      "paperId": "c5023d812e0fd58431481b95dfe75b20a8f22acb",
      "externalIds": {
        "MAG": "2745416417",
        "DOI": "10.4310/SII.2018.V11.N1.A14",
        "CorpusId": 125494176
      },
      "url": "https://www.semanticscholar.org/paper/c5023d812e0fd58431481b95dfe75b20a8f22acb",
      "title": "Variable selection and direction estimation for single-index models via DC-TGDR method",
      "venue": "",
      "year": 2018,
      "referenceCount": 38,
      "citationCount": 4,
      "authors": [
        {
          "authorId": "2087563217",
          "name": "Wei Zhong"
        },
        {
          "authorId": "2110719734",
          "name": "Xi Liu"
        },
        {
          "authorId": "144072412",
          "name": "Shuangge Ma"
        }
      ]
    },
    {
      "paperId": "7d085067987e37582431824433e37ef7f5adf72b",
      "externalIds": {
        "MAG": "2971636865",
        "ArXiv": "1909.03540",
        "CorpusId": 202538568
      },
      "url": "https://www.semanticscholar.org/paper/7d085067987e37582431824433e37ef7f5adf72b",
      "title": "Inference In General Single-Index Models Under High-dimensional Symmetric Designs",
      "venue": "",
      "year": 2019,
      "referenceCount": 35,
      "citationCount": 2,
      "authors": [
        {
          "authorId": "3441650",
          "name": "Hamid Eftekhari"
        },
        {
          "authorId": "35096678",
          "name": "M. Banerjee"
        },
        {
          "authorId": "100532061",
          "name": "Y. Ritov"
        }
      ]
    }
  ]
}