{
  "total": 2605,
  "offset": 0,
  "next": 10,
  "data": [
    {
      "paperId": "07c0fcb60625841d01563b03f9b44749b1404186",
      "externalIds": {
        "MAG": "1837062119",
        "DBLP": "conf/icml/LesnerS15",
        "CorpusId": 18384883
      },
      "url": "https://www.semanticscholar.org/paper/07c0fcb60625841d01563b03f9b44749b1404186",
      "title": "Non-Stationary Approximate Modified Policy Iteration",
      "venue": "International Conference on Machine Learning",
      "year": 2015,
      "referenceCount": 15,
      "citationCount": 12,
      "authors": [
        {
          "authorId": "2961471",
          "name": "Boris Lesner"
        },
        {
          "authorId": "1689774",
          "name": "B. Scherrer"
        }
      ]
    },
    {
      "paperId": "4e98a1238c01394913c6dc249a2f7c38314e1762",
      "externalIds": {
        "CorpusId": 5917752
      },
      "url": "https://www.semanticscholar.org/paper/4e98a1238c01394913c6dc249a2f7c38314e1762",
      "title": "Non-stationary Approximate Modified Policy Iteration Supplementary Material for Non-stationary Approximate Modified Policy Iteration",
      "venue": "",
      "year": null,
      "referenceCount": 0,
      "citationCount": 0,
      "authors": []
    },
    {
      "paperId": "588810296fd1ad374f027258dd356a98a3b0e975",
      "externalIds": {
        "ArXiv": "1304.5610",
        "MAG": "1545272985",
        "DBLP": "journals/corr/abs-1304-5610",
        "CorpusId": 14085335
      },
      "url": "https://www.semanticscholar.org/paper/588810296fd1ad374f027258dd356a98a3b0e975",
      "title": "Tight Performance Bounds for Approximate Modified Policy Iteration with Non-Stationary Policies",
      "venue": "arXiv.org",
      "year": 2013,
      "referenceCount": 15,
      "citationCount": 3,
      "authors": [
        {
          "authorId": "2961471",
          "name": "Boris Lesner"
        },
        {
          "authorId": "1689774",
          "name": "B. Scherrer"
        }
      ]
    },
    {
      "paperId": "b6c743e22e79b90589dd4d4e3d4c317ee83999e7",
      "externalIds": {
        "DBLP": "journals/ejcon/Bar-ShalomK00",
        "MAG": "2084993070",
        "DOI": "10.1016/S0947-3580(00)70914-9",
        "CorpusId": 206105693
      },
      "url": "https://www.semanticscholar.org/paper/b6c743e22e79b90589dd4d4e3d4c317ee83999e7",
      "title": "Discussion on: 'Suboptimal LQG Discrete-Time Control with Amplitude Constrained Input' by A. Królikowski",
      "venue": "European Journal of Control",
      "year": 2000,
      "referenceCount": 1,
      "citationCount": 0,
      "authors": [
        {
          "authorId": "150346573",
          "name": "Y. Bar-Shalom"
        },
        {
          "authorId": "49631512",
          "name": "A. Królikowski"
        }
      ]
    },
    {
      "paperId": "43e67a2a676676380fdfe935f56a79eca5de29a5",
      "externalIds": {
        "DBLP": "journals/wpc/KumarMM25",
        "DOI": "10.1007/s11277-025-11786-4",
        "CorpusId": 279174523
      },
      "url": "https://www.semanticscholar.org/paper/43e67a2a676676380fdfe935f56a79eca5de29a5",
      "title": "Signal Detection in OTFS with Non-stationary Iteration Based Approximate Inversion",
      "venue": "Wireless personal communications",
      "year": 2025,
      "referenceCount": 30,
      "citationCount": 0,
      "authors": [
        {
          "authorId": "2318685419",
          "name": "Chandan Kumar"
        },
        {
          "authorId": "2318548332",
          "name": "Himanshu B. Mishra"
        },
        {
          "authorId": "2318422436",
          "name": "Debjani Mitra"
        }
      ]
    },
    {
      "paperId": "a6ee4ae5344033fee613898841e2b9894bbfe4b7",
      "externalIds": {
        "MAG": "1889629917",
        "DBLP": "journals/jmlr/ScherrerGGLG15",
        "DOI": "10.5555/2789272.2886802",
        "CorpusId": 2686060
      },
      "url": "https://www.semanticscholar.org/paper/a6ee4ae5344033fee613898841e2b9894bbfe4b7",
      "title": "Approximate modified policy iteration and its application to the game of Tetris",
      "venue": "Journal of machine learning research",
      "year": 2015,
      "referenceCount": 52,
      "citationCount": 140,
      "authors": [
        {
          "authorId": "1689774",
          "name": "B. Scherrer"
        },
        {
          "authorId": "1678622",
          "name": "M. Ghavamzadeh"
        },
        {
          "authorId": "3038127",
          "name": "Victor Gabillon"
        },
        {
          "authorId": "2961471",
          "name": "Boris Lesner"
        },
        {
          "authorId": "1737555",
          "name": "M. Geist"
        }
      ]
    },
    {
      "paperId": "14a565a84d02173ec12f9f173ac6d384149e7d12",
      "externalIds": {
        "MAG": "2123917165",
        "DBLP": "journals/corr/abs-1205-3054",
        "ArXiv": "1205.3054",
        "CorpusId": 3127390
      },
      "url": "https://www.semanticscholar.org/paper/14a565a84d02173ec12f9f173ac6d384149e7d12",
      "title": "Approximate Modified Policy Iteration",
      "venue": "International Conference on Machine Learning",
      "year": 2012,
      "referenceCount": 19,
      "citationCount": 53,
      "authors": [
        {
          "authorId": "1689774",
          "name": "B. Scherrer"
        },
        {
          "authorId": "3038127",
          "name": "Victor Gabillon"
        },
        {
          "authorId": "1678622",
          "name": "M. Ghavamzadeh"
        },
        {
          "authorId": "1737555",
          "name": "M. Geist"
        }
      ]
    },
    {
      "paperId": "0857651de62e6f180256c20dc40d8f0e59532b22",
      "externalIds": {
        "ArXiv": "2303.08604",
        "CorpusId": 257532770
      },
      "url": "https://www.semanticscholar.org/paper/0857651de62e6f180256c20dc40d8f0e59532b22",
      "title": "Error Analysis of an Approximate Optimal Policy for a Non-stationary Inventory System with Setup Costs",
      "venue": "",
      "year": 2023,
      "referenceCount": 32,
      "citationCount": 0,
      "authors": [
        {
          "authorId": "2108351673",
          "name": "Jianyong Liu"
        },
        {
          "authorId": "1741378029",
          "name": "Wei Geng"
        },
        {
          "authorId": "1844067",
          "name": "Xiaobo Zhao"
        }
      ]
    },
    {
      "paperId": "556de1e5fe87224b6a694c9cd44519ff411fedbc",
      "externalIds": {
        "ArXiv": "2210.15755",
        "DBLP": "journals/corr/abs-2210-15755",
        "DOI": "10.48550/arXiv.2210.15755",
        "CorpusId": 253223883
      },
      "url": "https://www.semanticscholar.org/paper/556de1e5fe87224b6a694c9cd44519ff411fedbc",
      "title": "Confident Approximate Policy Iteration for Efficient Local Planning in qπ-realizable MDPs",
      "venue": "Neural Information Processing Systems",
      "year": 2022,
      "referenceCount": 28,
      "citationCount": 9,
      "authors": [
        {
          "authorId": "39752522",
          "name": "G. Weisz"
        },
        {
          "authorId": "2090601385",
          "name": "Andr'as Gyorgy"
        },
        {
          "authorId": "2237799351",
          "name": "Tadashi Kozuno"
        },
        {
          "authorId": "40868287",
          "name": "Csaba Szepesvari"
        }
      ]
    },
    {
      "paperId": "97631709c229fc4fddac17afc40524b161a47b97",
      "externalIds": {
        "ArXiv": "2503.18607",
        "DBLP": "journals/corr/abs-2503-18607",
        "DOI": "10.48550/arXiv.2503.18607",
        "CorpusId": 277271825
      },
      "url": "https://www.semanticscholar.org/paper/97631709c229fc4fddac17afc40524b161a47b97",
      "title": "Reinforcement Learning in Switching Non-Stationary Markov Decision Processes: Algorithms and Convergence Analysis",
      "venue": "arXiv.org",
      "year": 2025,
      "referenceCount": 34,
      "citationCount": 2,
      "authors": [
        {
          "authorId": "2351786389",
          "name": "Mohsen Amiri"
        },
        {
          "authorId": "2348540913",
          "name": "Sindri Magn'usson"
        }
      ]
    }
  ]
}