{
  "total": 4350,
  "offset": 0,
  "next": 10,
  "data": [
    {
      "paperId": "17702ad83d1011abd059195a93a3f51952c2aa0d",
      "externalIds": {
        "MAG": "1839759725",
        "DBLP": "conf/icml/VirtanenG15",
        "CorpusId": 15660756
      },
      "url": "https://www.semanticscholar.org/paper/17702ad83d1011abd059195a93a3f51952c2aa0d",
      "title": "Ordinal Mixed Membership Models",
      "venue": "International Conference on Machine Learning",
      "year": 2015,
      "referenceCount": 22,
      "citationCount": 5,
      "authors": [
        {
          "authorId": "40210701",
          "name": "S. Virtanen"
        },
        {
          "authorId": "50859190",
          "name": "M. Girolami"
        }
      ]
    },
    {
      "paperId": "f95605958f6aa9098112e31ac1e6f39af5fb6944",
      "externalIds": {
        "DBLP": "journals/tfs/RemlallianaS26",
        "DOI": "10.1109/TFUZZ.2025.3650419",
        "CorpusId": 284443365
      },
      "url": "https://www.semanticscholar.org/paper/f95605958f6aa9098112e31ac1e6f39af5fb6944",
      "title": "Fuzzy LASSO Logistic Regression: A Regularized Framework for Interpretable Binary Classification Under Uncertainty",
      "venue": "IEEE transactions on fuzzy systems",
      "year": 2026,
      "referenceCount": 40,
      "citationCount": 0,
      "authors": [
        {
          "authorId": "2402347364",
          "name": "Joshua Remlalliana"
        },
        {
          "authorId": null,
          "name": "Parthiban S"
        }
      ]
    },
    {
      "paperId": "db461e10f9914bf780c792e72e2a6f0a25e1d3d1",
      "externalIds": {
        "MAG": "1520787119",
        "DBLP": "conf/gfkl/2004",
        "DOI": "10.1007/3-540-28084-7",
        "CorpusId": 31543755
      },
      "url": "https://www.semanticscholar.org/paper/db461e10f9914bf780c792e72e2a6f0a25e1d3d1",
      "title": "Classification - the Ubiquitous Challenge, Proceedings of the 28th Annual Conference of the Gesellschaft für Klassifikation e.V., University of Dortmund, March 9-11, 2004",
      "venue": "Annual Conference of the Gesellschaft für Klassifikation",
      "year": 2005,
      "referenceCount": 0,
      "citationCount": 64,
      "authors": [
        {
          "authorId": "66181685",
          "name": "G. F. K. Jahrestagung"
        },
        {
          "authorId": "1684641",
          "name": "C. Weihs"
        },
        {
          "authorId": "144366978",
          "name": "W. Gaul"
        }
      ]
    },
    {
      "paperId": "20443e6d20322687a30518ca76497f15a4d9093e",
      "externalIds": {
        "MAG": "2143217649",
        "DOI": "10.1177/1024258912459312",
        "CorpusId": 154608761
      },
      "url": "https://www.semanticscholar.org/paper/20443e6d20322687a30518ca76497f15a4d9093e",
      "title": "Is there a paradox of lower job satisfaction among trade union members? European evidence",
      "venue": "",
      "year": 2012,
      "referenceCount": 35,
      "citationCount": 19,
      "authors": [
        {
          "authorId": "116751205",
          "name": "C. Donegani"
        },
        {
          "authorId": "48307524",
          "name": "S. McKay"
        }
      ]
    },
    {
      "paperId": "89e1c557275aac5a92247e81dc94b0f6c90ea2f3",
      "externalIds": {
        "PubMedCentral": "12610336",
        "DOI": "10.1080/29979676.2025.2566646",
        "CorpusId": 282622377,
        "PubMed": "41234476"
      },
      "url": "https://www.semanticscholar.org/paper/89e1c557275aac5a92247e81dc94b0f6c90ea2f3",
      "title": "Covariate Adjusted Functional Mixed Membership Models",
      "venue": "Statistics and data science in imaging",
      "year": 2025,
      "referenceCount": 67,
      "citationCount": 0,
      "authors": [
        {
          "authorId": "2148504509",
          "name": "Nicholas Marco"
        },
        {
          "authorId": "2993078",
          "name": "D. Şentürk"
        },
        {
          "authorId": "6645079",
          "name": "Shafali S. Jeste"
        },
        {
          "authorId": "34973216",
          "name": "Charlotte DiStefano"
        },
        {
          "authorId": "2304313432",
          "name": "Abigail Dickinson"
        },
        {
          "authorId": "48208541",
          "name": "D. Telesca"
        }
      ]
    },
    {
      "paperId": "fc42858f66c15f6e8b44c8301835ea9bcca20a7a",
      "externalIds": {
        "DOI": "10.1080/03610926.2025.2505986",
        "CorpusId": 279077766
      },
      "url": "https://www.semanticscholar.org/paper/fc42858f66c15f6e8b44c8301835ea9bcca20a7a",
      "title": "The existence of the maximum likelihood estimate in multinomial logistic regression for mixed-membership models",
      "venue": "Communications in Statistics - Theory and Methods",
      "year": 2025,
      "referenceCount": 14,
      "citationCount": 0,
      "authors": [
        {
          "authorId": "108496612",
          "name": "dwight nwaigwe"
        },
        {
          "authorId": "46974968",
          "name": "Marek Rychlik"
        }
      ]
    },
    {
      "paperId": "538db6aabc4793f51564f870aabd69bba6369209",
      "externalIds": {
        "ArXiv": "2410.00370",
        "CorpusId": 273022909
      },
      "url": "https://www.semanticscholar.org/paper/538db6aabc4793f51564f870aabd69bba6369209",
      "title": "Covariate Adjusted Functional Mixed Membership Models",
      "venue": "",
      "year": 2024,
      "referenceCount": 0,
      "citationCount": 0,
      "authors": [
        {
          "authorId": "2148504509",
          "name": "Nicholas Marco"
        },
        {
          "authorId": "116316878",
          "name": "Damla cSenturk"
        },
        {
          "authorId": "6645079",
          "name": "Shafali S. Jeste"
        },
        {
          "authorId": "34973216",
          "name": "Charlotte DiStefano"
        },
        {
          "authorId": "2304313432",
          "name": "Abigail Dickinson"
        },
        {
          "authorId": "48208541",
          "name": "D. Telesca"
        }
      ]
    },
    {
      "paperId": "d384b33b8000bf6b0bb7f6603afbf247992bbde0",
      "externalIds": {
        "ArXiv": "2412.08762",
        "CorpusId": 274656597
      },
      "url": "https://www.semanticscholar.org/paper/d384b33b8000bf6b0bb7f6603afbf247992bbde0",
      "title": "Modeling EEG Spectral Features through Warped Functional Mixed Membership Models",
      "venue": "",
      "year": 2024,
      "referenceCount": 0,
      "citationCount": 0,
      "authors": [
        {
          "authorId": "2380610956",
          "name": "E. Landry"
        },
        {
          "authorId": "6140340",
          "name": "Damla Senturk"
        },
        {
          "authorId": "6645079",
          "name": "Shafali S. Jeste"
        },
        {
          "authorId": "34973216",
          "name": "Charlotte DiStefano"
        },
        {
          "authorId": "2304313432",
          "name": "Abigail Dickinson"
        },
        {
          "authorId": "48208541",
          "name": "D. Telesca"
        }
      ]
    },
    {
      "paperId": "89eda653eb4e362b5f0346cd49d730c7fef6f3e7",
      "externalIds": {
        "ArXiv": "2410.07621",
        "CorpusId": 273234174
      },
      "url": "https://www.semanticscholar.org/paper/89eda653eb4e362b5f0346cd49d730c7fef6f3e7",
      "title": "Optimal Estimation of Parameters in Degree Corrected Mixed Membership Models",
      "venue": "",
      "year": 2024,
      "referenceCount": 0,
      "citationCount": 1,
      "authors": [
        {
          "authorId": "30007671",
          "name": "Stephen Jiang"
        },
        {
          "authorId": "2266124380",
          "name": "Jianqing Fan"
        }
      ]
    },
    {
      "paperId": "5d7f1aa1b2db27a9023b36150569c1d71b1fee8b",
      "externalIds": {
        "ArXiv": "2604.09910",
        "CorpusId": 287425124
      },
      "url": "https://www.semanticscholar.org/paper/5d7f1aa1b2db27a9023b36150569c1d71b1fee8b",
      "title": "Mixed Membership Models for Multilevel Functional Data",
      "venue": "",
      "year": 2026,
      "referenceCount": 8,
      "citationCount": 0,
      "authors": [
        {
          "authorId": "48208541",
          "name": "D. Telesca"
        },
        {
          "authorId": "2148504509",
          "name": "Nicholas Marco"
        },
        {
          "authorId": "2380610956",
          "name": "E. Landry"
        }
      ]
    }
  ]
}