{
  "total": 29622,
  "offset": 0,
  "next": 10,
  "data": [
    {
      "paperId": "6b73775f40467aed52784ff355b9bb7168e9078c",
      "externalIds": {
        "MAG": "2803832867",
        "DBLP": "conf/icml/BelghaziBROBHC18",
        "ArXiv": "1801.04062",
        "CorpusId": 44220142
      },
      "url": "https://www.semanticscholar.org/paper/6b73775f40467aed52784ff355b9bb7168e9078c",
      "title": "Mutual Information Neural Estimation",
      "venue": "International Conference on Machine Learning",
      "year": 2018,
      "referenceCount": 61,
      "citationCount": 1571,
      "authors": [
        {
          "authorId": "31619472",
          "name": "Mohamed Ishmael Belghazi"
        },
        {
          "authorId": "14398916",
          "name": "A. Baratin"
        },
        {
          "authorId": "2306961146",
          "name": "Sai Rajeswar"
        },
        {
          "authorId": "1955694",
          "name": "Sherjil Ozair"
        },
        {
          "authorId": "1751762",
          "name": "Yoshua Bengio"
        },
        {
          "authorId": "40482726",
          "name": "R. Devon Hjelm"
        },
        {
          "authorId": "1760871",
          "name": "Aaron C. Courville"
        }
      ]
    },
    {
      "paperId": "bb17ff968ae1dbd772ac337f469d1ca915cb4c03",
      "externalIds": {
        "MAG": "2915380248",
        "DBLP": "journals/corr/abs-1801-04062",
        "CorpusId": 3614357
      },
      "url": "https://www.semanticscholar.org/paper/bb17ff968ae1dbd772ac337f469d1ca915cb4c03",
      "title": "MINE: Mutual Information Neural Estimation",
      "venue": "arXiv.org",
      "year": 2018,
      "referenceCount": 65,
      "citationCount": 727,
      "authors": [
        {
          "authorId": "3422357",
          "name": "Ishmael Belghazi"
        },
        {
          "authorId": "2306961146",
          "name": "Sai Rajeswar"
        },
        {
          "authorId": "14398916",
          "name": "A. Baratin"
        },
        {
          "authorId": "40482726",
          "name": "R. Devon Hjelm"
        },
        {
          "authorId": "1760871",
          "name": "Aaron C. Courville"
        }
      ]
    },
    {
      "paperId": "34b57d81268746d4758000e917dbd7ca5329b296",
      "externalIds": {
        "DBLP": "journals/entropy/JiWQK25",
        "PubMedCentral": "12025961",
        "DOI": "10.3390/e27040451",
        "CorpusId": 278011326,
        "PubMed": "40282686"
      },
      "url": "https://www.semanticscholar.org/paper/34b57d81268746d4758000e917dbd7ca5329b296",
      "title": "Mutual Information Neural-Estimation-Driven Constellation Shaping Design and Performance Analysis",
      "venue": "Entropy",
      "year": 2025,
      "referenceCount": 28,
      "citationCount": 1,
      "authors": [
        {
          "authorId": "2237077176",
          "name": "Xiuli Ji"
        },
        {
          "authorId": "2155616508",
          "name": "Qian Wang"
        },
        {
          "authorId": "2182034299",
          "name": "Lijun Qian"
        },
        {
          "authorId": "2261612402",
          "name": "Pooi-Yuen Kam"
        }
      ]
    },
    {
      "paperId": "0c2193ab0bee5f0ffa57527eb25490a976997f24",
      "externalIds": {
        "DBLP": "journals/corr/abs-2002-08129",
        "ArXiv": "2002.08129",
        "MAG": "3008404836",
        "CorpusId": 211171409
      },
      "url": "https://www.semanticscholar.org/paper/0c2193ab0bee5f0ffa57527eb25490a976997f24",
      "title": "Bayesian Experimental Design for Implicit Models by Mutual Information Neural Estimation",
      "venue": "International Conference on Machine Learning",
      "year": 2020,
      "referenceCount": 39,
      "citationCount": 83,
      "authors": [
        {
          "authorId": "80633848",
          "name": "Steven Kleinegesse"
        },
        {
          "authorId": "145992652",
          "name": "Michael U Gutmann"
        }
      ]
    },
    {
      "paperId": "a2cdd5c3d4e11fc542e1d5d936357e67cdc8cb37",
      "externalIds": {
        "DBLP": "journals/tdsc/GaoWWYDYZ23",
        "DOI": "10.1109/TDSC.2023.3241428",
        "CorpusId": 256534583
      },
      "url": "https://www.semanticscholar.org/paper/a2cdd5c3d4e11fc542e1d5d936357e67cdc8cb37",
      "title": "Detecting Adversarial Examples on Deep Neural Networks With Mutual Information Neural Estimation",
      "venue": "IEEE Transactions on Dependable and Secure Computing",
      "year": 2023,
      "referenceCount": 50,
      "citationCount": 16,
      "authors": [
        {
          "authorId": "2112170760",
          "name": "Song Gao"
        },
        {
          "authorId": "2156024559",
          "name": "Ruxin Wang"
        },
        {
          "authorId": null,
          "name": "Xiaoxuan Wang"
        },
        {
          "authorId": "2152479196",
          "name": "Shui Yu"
        },
        {
          "authorId": "2115461409",
          "name": "Yunyun Dong"
        },
        {
          "authorId": "2077434734",
          "name": "Shao-qing Yao"
        },
        {
          "authorId": "101829183",
          "name": "Wei Zhou"
        }
      ]
    },
    {
      "paperId": "e9179acb0634b9a61077393c23b96d17651ac799",
      "externalIds": {
        "ArXiv": "2405.16177",
        "CorpusId": 270063130
      },
      "url": "https://www.semanticscholar.org/paper/e9179acb0634b9a61077393c23b96d17651ac799",
      "title": "Transformer Meets Gated Residual Networks To Enhance Photoplethysmogram Artifact Detection Informed by Mutual Information Neural Estimation",
      "venue": "",
      "year": 2024,
      "referenceCount": 55,
      "citationCount": 3,
      "authors": [
        {
          "authorId": "2277597597",
          "name": "Thanh-Dung Le"
        },
        {
          "authorId": "2231659145",
          "name": "C. Macabiau"
        },
        {
          "authorId": "2065510204",
          "name": "Kévin Albert"
        },
        {
          "authorId": "1760292",
          "name": "S. Chatzinotas"
        },
        {
          "authorId": "2244955595",
          "name": "P. Jouvet"
        },
        {
          "authorId": "2479033",
          "name": "R. Noumeir"
        }
      ]
    },
    {
      "paperId": "93d9a4e6ffcb12f06695eb40a2934fe337ac4cba",
      "externalIds": {
        "DBLP": "conf/ipin/HindererBY25",
        "ArXiv": "2509.17344",
        "DOI": "10.1109/IPIN66788.2025.11213414",
        "CorpusId": 281421217
      },
      "url": "https://www.semanticscholar.org/paper/93d9a4e6ffcb12f06695eb40a2934fe337ac4cba",
      "title": "On Mutual Information Neural Estimation for Localization",
      "venue": "International Conference on Indoor Positioning and Indoor Navigation",
      "year": 2025,
      "referenceCount": 28,
      "citationCount": 0,
      "authors": [
        {
          "authorId": "2256992002",
          "name": "Sven Hinderer"
        },
        {
          "authorId": "2294298611",
          "name": "M. Buchfink"
        },
        {
          "authorId": "2370731728",
          "name": "Bin Yang"
        }
      ]
    },
    {
      "paperId": "ef7e1321b2fe9dc1ce88f5932b03002bd01d3468",
      "externalIds": {
        "DBLP": "journals/corr/abs-2510-02610",
        "ArXiv": "2510.02610",
        "DOI": "10.48550/arXiv.2510.02610",
        "CorpusId": 281829608
      },
      "url": "https://www.semanticscholar.org/paper/ef7e1321b2fe9dc1ce88f5932b03002bd01d3468",
      "title": "MINERVA: Mutual Information Neural Estimation for Supervised Feature Selection",
      "venue": "arXiv.org",
      "year": 2025,
      "referenceCount": 43,
      "citationCount": 0,
      "authors": [
        {
          "authorId": "1502225902",
          "name": "Taurai Muvunza"
        },
        {
          "authorId": "2302329496",
          "name": "Egor Kraev"
        },
        {
          "authorId": "2383973907",
          "name": "Pere Planell-Morell"
        },
        {
          "authorId": "4129738",
          "name": "Alexander Y. Shestopaloff"
        }
      ]
    },
    {
      "paperId": "39234bc44d4b8d09c230ea2a9cf10e1c14bed31c",
      "externalIds": {
        "DBLP": "journals/tmlr/FazeliAslZKJ26",
        "CorpusId": 286498825
      },
      "url": "https://www.semanticscholar.org/paper/39234bc44d4b8d09c230ea2a9cf10e1c14bed31c",
      "title": "A Bayesian Bootstrap Framework for Mutual Information Neural Estimation: Bridging Classical Mutual Information Learning and Bayesian Nonparametric Learning",
      "venue": "Trans. Mach. Learn. Res.",
      "year": 2026,
      "referenceCount": 37,
      "citationCount": 0,
      "authors": [
        {
          "authorId": "2349637862",
          "name": "Forough Fazeliasl"
        },
        {
          "authorId": "1409764328",
          "name": "M. Zhang"
        },
        {
          "authorId": "2267870673",
          "name": "Linglong Kong"
        },
        {
          "authorId": "2153963597",
          "name": "Bei Jiang"
        }
      ]
    },
    {
      "paperId": "0d8d31ddd306fa5642011cedbb06c14f6fe4ecb2",
      "externalIds": {
        "DOI": "10.1109/TNNLS.2026.3656756",
        "CorpusId": 285379370,
        "PubMed": "41650422"
      },
      "url": "https://www.semanticscholar.org/paper/0d8d31ddd306fa5642011cedbb06c14f6fe4ecb2",
      "title": "Transformer Meets Gated Residual Networks to Enhance PICU's PPG Artifact Detection Informed by Mutual Information Neural Estimation.",
      "venue": "IEEE Transactions on Neural Networks and Learning Systems",
      "year": 2026,
      "referenceCount": 0,
      "citationCount": 0,
      "authors": [
        {
          "authorId": "2277597597",
          "name": "Thanh-Dung Le"
        },
        {
          "authorId": "2231659145",
          "name": "C. Macabiau"
        },
        {
          "authorId": "2065510204",
          "name": "Kévin Albert"
        },
        {
          "authorId": "1760292",
          "name": "S. Chatzinotas"
        },
        {
          "authorId": "2244955595",
          "name": "P. Jouvet"
        },
        {
          "authorId": "2479033",
          "name": "R. Noumeir"
        }
      ]
    }
  ]
}