{
  "total": 41,
  "offset": 0,
  "next": 10,
  "data": [
    {
      "paperId": "2b4313e50f54da7d89ed6ad0d2ff5c8d27f41bb2",
      "externalIds": {
        "DBLP": "conf/icml/Pouget-AbadieH15",
        "MAG": "2952115282",
        "ArXiv": "1505.05663",
        "DOI": "10.1145/2740908.2744107",
        "CorpusId": 120395
      },
      "url": "https://www.semanticscholar.org/paper/2b4313e50f54da7d89ed6ad0d2ff5c8d27f41bb2",
      "title": "Inferring Graphs from Cascades: A Sparse Recovery Framework",
      "venue": "International Conference on Machine Learning",
      "year": 2015,
      "referenceCount": 38,
      "citationCount": 56,
      "authors": [
        {
          "authorId": "1403025868",
          "name": "Jean Pouget-Abadie"
        },
        {
          "authorId": "2142860",
          "name": "Thibaut Horel"
        }
      ]
    },
    {
      "paperId": "f75355cbd96a1744d76ff5455fad178245988b5f",
      "externalIds": {
        "ArXiv": "2604.18820",
        "CorpusId": 287636436
      },
      "url": "https://www.semanticscholar.org/paper/f75355cbd96a1744d76ff5455fad178245988b5f",
      "title": "Sparse Network Inference under Imperfect Detection and its Application to Ecological Networks",
      "venue": "",
      "year": 2026,
      "referenceCount": 53,
      "citationCount": 0,
      "authors": [
        {
          "authorId": "2287241722",
          "name": "Aoran Zhang"
        },
        {
          "authorId": "2068206486",
          "name": "Tian Wei"
        },
        {
          "authorId": "2214795612",
          "name": "Maria J. Guerrero"
        },
        {
          "authorId": "2264422007",
          "name": "César A. Uribe"
        }
      ]
    },
    {
      "paperId": "da32ec0b00f6601242a1342803c968c3c6081905",
      "externalIds": {
        "ArXiv": "2506.02337",
        "DBLP": "journals/corr/abs-2506-02337",
        "DOI": "10.48550/arXiv.2506.02337",
        "CorpusId": 279120054
      },
      "url": "https://www.semanticscholar.org/paper/da32ec0b00f6601242a1342803c968c3c6081905",
      "title": "Discovery of Probabilistic Dirichlet-to-Neumann Maps on Graphs",
      "venue": "SIAM Journal on Scientific Computing",
      "year": 2025,
      "referenceCount": 44,
      "citationCount": 0,
      "authors": [
        {
          "authorId": "2258951769",
          "name": "Adrienne M. Propp"
        },
        {
          "authorId": "32638641",
          "name": "Jonas A. Actor"
        },
        {
          "authorId": "2262445052",
          "name": "Elise Walker"
        },
        {
          "authorId": "1760230",
          "name": "H. Owhadi"
        },
        {
          "authorId": "2305842453",
          "name": "Nathaniel Trask"
        },
        {
          "authorId": "1739131",
          "name": "D. Tartakovsky"
        }
      ]
    },
    {
      "paperId": "28ed549b41caad3b655075ed6d23416634299519",
      "externalIds": {
        "ArXiv": "2604.12806",
        "CorpusId": 287475703
      },
      "url": "https://www.semanticscholar.org/paper/28ed549b41caad3b655075ed6d23416634299519",
      "title": "Interpretable Relational Inference with LLM-Guided Symbolic Dynamics Modeling",
      "venue": "",
      "year": 2026,
      "referenceCount": 0,
      "citationCount": 0,
      "authors": [
        {
          "authorId": "2358456105",
          "name": "Xiao Liang"
        },
        {
          "authorId": "2347168341",
          "name": "Juyuan Zhang"
        },
        {
          "authorId": "2347275845",
          "name": "Liming Pan"
        },
        {
          "authorId": "2373405083",
          "name": "Linyuan Lu"
        }
      ]
    },
    {
      "paperId": "126f21f6892d200a6a2156ec5f4029ee49baf8c6",
      "externalIds": {
        "DBLP": "journals/corr/abs-2511-07734",
        "ArXiv": "2511.07734",
        "DOI": "10.48550/arXiv.2511.07734",
        "CorpusId": 282922198
      },
      "url": "https://www.semanticscholar.org/paper/126f21f6892d200a6a2156ec5f4029ee49baf8c6",
      "title": "Global Optimization on Graph-Structured Data via Gaussian Processes with Spectral Representations",
      "venue": "arXiv.org",
      "year": 2025,
      "referenceCount": 32,
      "citationCount": 0,
      "authors": [
        {
          "authorId": "2379725730",
          "name": "Shu Hong"
        },
        {
          "authorId": "2125178464",
          "name": "Yongsheng Mei"
        },
        {
          "authorId": "2281639581",
          "name": "Mahdi Imani"
        },
        {
          "authorId": "2372651236",
          "name": "Tian Lan"
        }
      ]
    },
    {
      "paperId": "eec3f777af7e2f7f4444a6a02369ff963eb1d1d1",
      "externalIds": {
        "CorpusId": 7570871
      },
      "url": "https://www.semanticscholar.org/paper/eec3f777af7e2f7f4444a6a02369ff963eb1d1d1",
      "title": "Sub-linear Time Compressed Sensing for Support Recovery using Sparse-Graph Codes",
      "venue": "",
      "year": 2015,
      "referenceCount": 65,
      "citationCount": 0,
      "authors": [
        {
          "authorId": "2108785400",
          "name": "Xiao Li"
        },
        {
          "authorId": "3069772",
          "name": "S. Pawar"
        },
        {
          "authorId": "144161012",
          "name": "K. Ramchandran"
        }
      ]
    },
    {
      "paperId": "81492e40ba5b84919a16f71174e351f47d46a04b",
      "externalIds": {
        "MAG": "2953096735",
        "DBLP": "conf/iclr/BelilovskyKVB17",
        "ArXiv": "1605.06359",
        "CorpusId": 6790140
      },
      "url": "https://www.semanticscholar.org/paper/81492e40ba5b84919a16f71174e351f47d46a04b",
      "title": "Learning to Discover Sparse Graphical Models",
      "venue": "International Conference on Machine Learning",
      "year": 2016,
      "referenceCount": 39,
      "citationCount": 33,
      "authors": [
        {
          "authorId": "1829344",
          "name": "Eugene Belilovsky"
        },
        {
          "authorId": "2182706",
          "name": "Kyle Kastner"
        },
        {
          "authorId": "3025780",
          "name": "G. Varoquaux"
        },
        {
          "authorId": "1758219",
          "name": "Matthew B. Blaschko"
        }
      ]
    },
    {
      "paperId": "e4d47613c01ce3c8f277a66cd52301bec4b9f792",
      "externalIds": {
        "MAG": "2949068282",
        "DBLP": "journals/tit/LiYPPR19",
        "ArXiv": "1412.7646",
        "DOI": "10.1109/TIT.2019.2921757",
        "CorpusId": 3518544
      },
      "url": "https://www.semanticscholar.org/paper/e4d47613c01ce3c8f277a66cd52301bec4b9f792",
      "title": "Sub-Linear Time Support Recovery for Compressed Sensing Using Sparse-Graph Codes",
      "venue": "IEEE Transactions on Information Theory",
      "year": 2014,
      "referenceCount": 89,
      "citationCount": 20,
      "authors": [
        {
          "authorId": "2108785400",
          "name": "Xiao Li"
        },
        {
          "authorId": "50559902",
          "name": "Dong Yin"
        },
        {
          "authorId": "3069772",
          "name": "S. Pawar"
        },
        {
          "authorId": "2686521",
          "name": "Ramtin Pedarsani"
        },
        {
          "authorId": "144161012",
          "name": "K. Ramchandran"
        }
      ]
    },
    {
      "paperId": "57beaeccb087051c23af77ab444ba4a42fd4c7cd",
      "externalIds": {
        "DBLP": "journals/tit/LubyMSS01",
        "MAG": "2115104320",
        "DOI": "10.1109/18.910575",
        "CorpusId": 3148302
      },
      "url": "https://www.semanticscholar.org/paper/57beaeccb087051c23af77ab444ba4a42fd4c7cd",
      "title": "Efficient erasure correcting codes",
      "venue": "IEEE Transactions on Information Theory",
      "year": 2001,
      "referenceCount": 30,
      "citationCount": 1272,
      "authors": [
        {
          "authorId": "145881044",
          "name": "Michael Luby"
        },
        {
          "authorId": "1745699",
          "name": "M. Mitzenmacher"
        },
        {
          "authorId": "143916589",
          "name": "A. Shokrollahi"
        },
        {
          "authorId": "2417095",
          "name": "D. Spielman"
        }
      ]
    },
    {
      "paperId": "b3e1815c7306f70d129c2623b891a5c6f6f4853f",
      "externalIds": {
        "DOI": "10.64898/2026.04.01.715977",
        "CorpusId": 287210136
      },
      "url": "https://www.semanticscholar.org/paper/b3e1815c7306f70d129c2623b891a5c6f6f4853f",
      "title": "Spatially Varying Graphical Models for Cell-Cell Interaction Networks in Multiplexed Tissue Imaging",
      "venue": "bioRxiv",
      "year": 2026,
      "referenceCount": 25,
      "citationCount": 0,
      "authors": [
        {
          "authorId": "2181454358",
          "name": "Sagnik Bhadury"
        },
        {
          "authorId": "2313713826",
          "name": "Jeremy T. Gaskins"
        },
        {
          "authorId": "2269733090",
          "name": "Arvind Rao"
        }
      ]
    }
  ]
}