{
  "total": 62,
  "offset": 0,
  "next": 10,
  "data": [
    {
      "paperId": "29831b8830e278c8c28e45c8e9c41c619c89f86a",
      "externalIds": {
        "DBLP": "conf/icml/MeschederNG17",
        "MAG": "2579277680",
        "ArXiv": "1701.04722",
        "CorpusId": 605416
      },
      "url": "https://www.semanticscholar.org/paper/29831b8830e278c8c28e45c8e9c41c619c89f86a",
      "title": "Adversarial Variational Bayes: Unifying Variational Autoencoders and Generative Adversarial Networks",
      "venue": "International Conference on Machine Learning",
      "year": 2017,
      "referenceCount": 46,
      "citationCount": 563,
      "authors": [
        {
          "authorId": "8226549",
          "name": "L. Mescheder"
        },
        {
          "authorId": "2388416",
          "name": "Sebastian Nowozin"
        },
        {
          "authorId": "47237027",
          "name": "Andreas Geiger"
        }
      ]
    },
    {
      "paperId": "05c37730e8c02cedc652b427303d7a87d32ad1f7",
      "externalIds": {
        "CorpusId": 31268490
      },
      "url": "https://www.semanticscholar.org/paper/05c37730e8c02cedc652b427303d7a87d32ad1f7",
      "title": "Supplementary Material for Adversarial Variational Bayes : Unifying Variational Autoencoders and Generative Adversarial Networks",
      "venue": "",
      "year": 2017,
      "referenceCount": 0,
      "citationCount": 0,
      "authors": [
        {
          "authorId": "8226549",
          "name": "L. Mescheder"
        },
        {
          "authorId": "2388416",
          "name": "Sebastian Nowozin"
        },
        {
          "authorId": "47237027",
          "name": "Andreas Geiger"
        }
      ]
    },
    {
      "paperId": "939c39e368237c2a78f66af6ea8514979ee3ac6a",
      "externalIds": {
        "DOI": "10.1007/s11709-024-1052-8",
        "CorpusId": 270161544
      },
      "url": "https://www.semanticscholar.org/paper/939c39e368237c2a78f66af6ea8514979ee3ac6a",
      "title": "Fire resistance evaluation through synthetic fire tests and generative adversarial networks",
      "venue": "Frontiers of Structural and Civil Engineering",
      "year": 2024,
      "referenceCount": 74,
      "citationCount": 11,
      "authors": [
        {
          "authorId": "2078445849",
          "name": "A. Ӧ. Çiftçioğlu"
        },
        {
          "authorId": "153389167",
          "name": "M. Naser"
        }
      ]
    },
    {
      "paperId": "0a03a128e7f3ff4cbde2d90476ded7fdd60e4116",
      "externalIds": {
        "DBLP": "journals/corr/abs-2502-10650",
        "PubMedCentral": "12805202",
        "ArXiv": "2502.10650",
        "DOI": "10.1017/psy.2025.10059",
        "CorpusId": 276408917,
        "PubMed": "41216666"
      },
      "url": "https://www.semanticscholar.org/paper/0a03a128e7f3ff4cbde2d90476ded7fdd60e4116",
      "title": "Generative Adversarial Networks for High-Dimensional Item Factor Analysis: A Deep Adversarial Learning Algorithm",
      "venue": "Psychometrika",
      "year": 2025,
      "referenceCount": 76,
      "citationCount": 3,
      "authors": [
        {
          "authorId": "2345820139",
          "name": "Nanyu Luo"
        },
        {
          "authorId": "2345821564",
          "name": "Feng Ji"
        }
      ]
    },
    {
      "paperId": "21d092bd89aebd38615a267cdd4e0bfaf20a60fb",
      "externalIds": {
        "DOI": "10.5772/acrt.20240003",
        "CorpusId": 272248340
      },
      "url": "https://www.semanticscholar.org/paper/21d092bd89aebd38615a267cdd4e0bfaf20a60fb",
      "title": "Adversarial Variational Autoencoders to Extend and Improve Generative Model",
      "venue": "AI Computer Science and Robotics Technology",
      "year": 2024,
      "referenceCount": 1,
      "citationCount": 1,
      "authors": [
        {
          "authorId": "2297158997",
          "name": "Loc Nguyen"
        },
        {
          "authorId": "143701802",
          "name": "H. I. Abdalla"
        },
        {
          "authorId": "2285660094",
          "name": "A. A. Amer"
        }
      ]
    },
    {
      "paperId": "307fc0285f5a9d3465fb922f5248b0ea1ad926d7",
      "externalIds": {
        "DBLP": "conf/ijcai/LiuHR25",
        "DOI": "10.24963/ijcai.2025/842",
        "CorpusId": 281452322
      },
      "url": "https://www.semanticscholar.org/paper/307fc0285f5a9d3465fb922f5248b0ea1ad926d7",
      "title": "Asset Pricing with Contrastive Adversarial Variational Bayes",
      "venue": "International Joint Conference on Artificial Intelligence",
      "year": 2025,
      "referenceCount": 21,
      "citationCount": 0,
      "authors": [
        {
          "authorId": "2239556500",
          "name": "Ruirui Liu"
        },
        {
          "authorId": "2146086145",
          "name": "Huichou Huang"
        },
        {
          "authorId": "2375607936",
          "name": "Johannes Ruf"
        }
      ]
    },
    {
      "paperId": "5a5fd95a339f4b2ea037cd5c9e71a05dba130cc3",
      "externalIds": {
        "ArXiv": "2111.13282",
        "DBLP": "journals/corr/abs-2111-13282",
        "CorpusId": 244708917
      },
      "url": "https://www.semanticscholar.org/paper/5a5fd95a339f4b2ea037cd5c9e71a05dba130cc3",
      "title": "Generative Adversarial Networks and Adversarial Autoencoders: Tutorial and Survey",
      "venue": "arXiv.org",
      "year": 2021,
      "referenceCount": 134,
      "citationCount": 19,
      "authors": [
        {
          "authorId": "24033665",
          "name": "Benyamin Ghojogh"
        },
        {
          "authorId": "38565890",
          "name": "A. Ghodsi"
        },
        {
          "authorId": "1696863",
          "name": "F. Karray"
        },
        {
          "authorId": "32755716",
          "name": "Mark Crowley"
        }
      ]
    },
    {
      "paperId": "3273d775c5969176705aa15ac896679b06ad3155",
      "externalIds": {
        "MAG": "2966145721",
        "DBLP": "conf/ijcai/YuZCX19",
        "DOI": "10.24963/ijcai.2019/584",
        "CorpusId": 199465775
      },
      "url": "https://www.semanticscholar.org/paper/3273d775c5969176705aa15ac896679b06ad3155",
      "title": "VAEGAN: A Collaborative Filtering Framework based on Adversarial Variational Autoencoders",
      "venue": "International Joint Conference on Artificial Intelligence",
      "year": 2019,
      "referenceCount": 25,
      "citationCount": 86,
      "authors": [
        {
          "authorId": "4838630",
          "name": "Xianwen Yu"
        },
        {
          "authorId": "49468968",
          "name": "Xiaoning Zhang"
        },
        {
          "authorId": "2125469909",
          "name": "Yang Cao"
        },
        {
          "authorId": "2056031612",
          "name": "Min Xia"
        }
      ]
    },
    {
      "paperId": "47ecc1178b26405ebcb32a8186f827bbdafde2b8",
      "externalIds": {
        "DBLP": "journals/corr/abs-2507-14633",
        "ArXiv": "2507.14633",
        "DOI": "10.1109/COMST.2026.3660854",
        "CorpusId": 280279225
      },
      "url": "https://www.semanticscholar.org/paper/47ecc1178b26405ebcb32a8186f827bbdafde2b8",
      "title": "Agentic Satellite-Augmented Low-Altitude Economy and Terrestrial Networks: A Survey on Generative Approaches",
      "venue": "IEEE Communications Surveys and Tutorials",
      "year": 2025,
      "referenceCount": 331,
      "citationCount": 16,
      "authors": [
        {
          "authorId": "9698506",
          "name": "Xiaozheng Gao"
        },
        {
          "authorId": "2366053850",
          "name": "Yichen Wang"
        },
        {
          "authorId": "2363344366",
          "name": "Bosen Liu"
        },
        {
          "authorId": "2336917312",
          "name": "Xiao Zhou"
        },
        {
          "authorId": "2266463634",
          "name": "Ruichen Zhang"
        },
        {
          "authorId": "2229328382",
          "name": "Jiacheng Wang"
        },
        {
          "authorId": "2340230621",
          "name": "D. Niyato"
        },
        {
          "authorId": "1470983736",
          "name": "Dong In Kim"
        },
        {
          "authorId": "2237828911",
          "name": "Abbas Jamalipour"
        },
        {
          "authorId": "2321868054",
          "name": "Chau Yuen"
        },
        {
          "authorId": "2151864031",
          "name": "Jianping An"
        },
        {
          "authorId": "2345299693",
          "name": "Kai Yang"
        }
      ]
    },
    {
      "paperId": "9bd2120b4fcba190e257367330a112cdb8229791",
      "externalIds": {
        "DBLP": "conf/icmcs/HanLZHF25",
        "DOI": "10.1109/ICME59968.2025.11208941",
        "CorpusId": 282612108
      },
      "url": "https://www.semanticscholar.org/paper/9bd2120b4fcba190e257367330a112cdb8229791",
      "title": "Robust Generalized Zero-Shot Learning via Dual-Stream Variational Autoencoders and Out-of-Distribution Detection",
      "venue": "IEEE International Conference on Multimedia and Expo",
      "year": 2025,
      "referenceCount": 39,
      "citationCount": 0,
      "authors": [
        {
          "authorId": "2358805455",
          "name": "Xue Han"
        },
        {
          "authorId": "2358608126",
          "name": "Zhixiang Li"
        },
        {
          "authorId": "2349943965",
          "name": "Wenchuan Zhang"
        },
        {
          "authorId": "11637427",
          "name": "Hanyuan Huang"
        },
        {
          "authorId": "2327060840",
          "name": "Wentao Fan"
        }
      ]
    }
  ]
}