{
  "total": 120,
  "offset": 0,
  "next": 10,
  "data": [
    {
      "paperId": "2fdb536da39a014c598ea67b0db88431fcd852a8",
      "externalIds": {
        "MAG": "2952690945",
        "DBLP": "conf/icml/JiangL16",
        "ArXiv": "1511.03722",
        "CorpusId": 5806691
      },
      "url": "https://www.semanticscholar.org/paper/2fdb536da39a014c598ea67b0db88431fcd852a8",
      "title": "Doubly Robust Off-policy Value Evaluation for Reinforcement Learning",
      "venue": "International Conference on Machine Learning",
      "year": 2015,
      "referenceCount": 44,
      "citationCount": 695,
      "authors": [
        {
          "authorId": "48272707",
          "name": "Nan Jiang"
        },
        {
          "authorId": "47681372",
          "name": "Lihong Li"
        }
      ]
    },
    {
      "paperId": "19c148cc8feaf77aaf0c5b6f8ea08074c9a72b4f",
      "externalIds": {
        "CorpusId": 260554353
      },
      "url": "https://www.semanticscholar.org/paper/19c148cc8feaf77aaf0c5b6f8ea08074c9a72b4f",
      "title": "Doubly Robust Off-policy Value Evaluation for Reinforcement Learning",
      "venue": "",
      "year": 2016,
      "referenceCount": 1,
      "citationCount": 1,
      "authors": []
    },
    {
      "paperId": "e5309d90535f7f798ef8482e2450f78900a53651",
      "externalIds": {
        "DBLP": "journals/corr/JiangL15",
        "CorpusId": 5980182
      },
      "url": "https://www.semanticscholar.org/paper/e5309d90535f7f798ef8482e2450f78900a53651",
      "title": "Doubly Robust Off-policy Evaluation for Reinforcement Learning",
      "venue": "arXiv.org",
      "year": 2015,
      "referenceCount": 32,
      "citationCount": 67,
      "authors": [
        {
          "authorId": "48272707",
          "name": "Nan Jiang"
        },
        {
          "authorId": "47681372",
          "name": "Lihong Li"
        }
      ]
    },
    {
      "paperId": "7a7e1f9bdb51dd86fa474a4e722cb5efc3deb741",
      "externalIds": {
        "MAG": "2995031981",
        "DBLP": "journals/corr/abs-1912-05109",
        "ArXiv": "1912.05109",
        "CorpusId": 209202886
      },
      "url": "https://www.semanticscholar.org/paper/7a7e1f9bdb51dd86fa474a4e722cb5efc3deb741",
      "title": "Doubly Robust Off-Policy Actor-Critic Algorithms for Reinforcement Learning",
      "venue": "arXiv.org",
      "year": 2019,
      "referenceCount": 25,
      "citationCount": 3,
      "authors": [
        {
          "authorId": "18014232",
          "name": "Riashat Islam"
        },
        {
          "authorId": "1411436226",
          "name": "Raihan Seraj"
        },
        {
          "authorId": "30625371",
          "name": "Samin Yeasar Arnob"
        },
        {
          "authorId": "144368601",
          "name": "Doina Precup"
        }
      ]
    },
    {
      "paperId": "baf8acffd7472b9155a6cab71f83d750ad6fdbd1",
      "externalIds": {
        "ArXiv": "2404.01830",
        "DBLP": "journals/corr/abs-2404-01830",
        "DOI": "10.48550/arXiv.2404.01830",
        "CorpusId": 268856509
      },
      "url": "https://www.semanticscholar.org/paper/baf8acffd7472b9155a6cab71f83d750ad6fdbd1",
      "title": "Doubly-Robust Off-Policy Evaluation with Estimated Logging Policy",
      "venue": "arXiv.org",
      "year": 2024,
      "referenceCount": 21,
      "citationCount": 0,
      "authors": [
        {
          "authorId": "71486814",
          "name": "Kyungbok Lee"
        },
        {
          "authorId": "1893021",
          "name": "M. Paik"
        }
      ]
    },
    {
      "paperId": "00c0bd0b8c7dc1f9ecdaec2dfda0976f4d47ac4d",
      "externalIds": {
        "DOI": "10.54254/2755-2721/2026.30880",
        "CorpusId": 284237435
      },
      "url": "https://www.semanticscholar.org/paper/00c0bd0b8c7dc1f9ecdaec2dfda0976f4d47ac4d",
      "title": "Reinforcement Learning Driven Counterfactual Policy Evaluation for Dynamic Allocation of Mental Health Services",
      "venue": "Applied and Computational Engineering",
      "year": 2025,
      "referenceCount": 0,
      "citationCount": 0,
      "authors": [
        {
          "authorId": "2401797050",
          "name": "Yiwen He"
        }
      ]
    },
    {
      "paperId": "14b2427fe8317a48e73d1b8aa5ad3ce13096b61d",
      "externalIds": {
        "CorpusId": 198927280
      },
      "url": "https://www.semanticscholar.org/paper/14b2427fe8317a48e73d1b8aa5ad3ce13096b61d",
      "title": "A New Doubly Robust Policy Estimator on Inﬁnite Horizon Reinforcement Learning",
      "venue": "",
      "year": 2019,
      "referenceCount": 21,
      "citationCount": 0,
      "authors": [
        {
          "authorId": "1855780",
          "name": "Ziyang Tang"
        },
        {
          "authorId": "22758695",
          "name": "Yihao Feng"
        },
        {
          "authorId": "47362268",
          "name": "Qiang Liu"
        }
      ]
    },
    {
      "paperId": "dfff7f355250fc332c4fa00516c1973ef883ef01",
      "externalIds": {
        "DOI": "10.71465/ajbd3668",
        "CorpusId": 287569210
      },
      "url": "https://www.semanticscholar.org/paper/dfff7f355250fc332c4fa00516c1973ef883ef01",
      "title": "Counterfactual Policy Evaluation for Improving Coordination Quality in Multi-Agent Reinforcement Systems",
      "venue": "American journal of big data",
      "year": 2026,
      "referenceCount": 0,
      "citationCount": 0,
      "authors": [
        {
          "authorId": "2430267540",
          "name": "Jisoo Kim"
        },
        {
          "authorId": "2430267733",
          "name": "Minho Park"
        },
        {
          "authorId": "2430263251",
          "name": "Hyunwoo Lee"
        }
      ]
    },
    {
      "paperId": "7b5773650b4e52568d4e9e4c6384e9034d40fd66",
      "externalIds": {
        "DBLP": "conf/icml/UeharaHJ20",
        "MAG": "3034525128",
        "ArXiv": "1910.12809",
        "CorpusId": 204906990
      },
      "url": "https://www.semanticscholar.org/paper/7b5773650b4e52568d4e9e4c6384e9034d40fd66",
      "title": "Minimax Weight and Q-Function Learning for Off-Policy Evaluation",
      "venue": "International Conference on Machine Learning",
      "year": 2019,
      "referenceCount": 58,
      "citationCount": 199,
      "authors": [
        {
          "authorId": "51228100",
          "name": "Masatoshi Uehara"
        },
        {
          "authorId": "151624938",
          "name": "Jiawei Huang"
        },
        {
          "authorId": "48272707",
          "name": "Nan Jiang"
        }
      ]
    },
    {
      "paperId": "e409e2a13d484902f1aae77990d88cef4005978b",
      "externalIds": {
        "CorpusId": 234337709
      },
      "url": "https://www.semanticscholar.org/paper/e409e2a13d484902f1aae77990d88cef4005978b",
      "title": "CASA-B: A Uniﬁed Framework of Model-Free Reinforcement Learning",
      "venue": "",
      "year": 2021,
      "referenceCount": 29,
      "citationCount": 1,
      "authors": [
        {
          "authorId": "2090353480",
          "name": "Changnan Xiao"
        },
        {
          "authorId": "2108661275",
          "name": "Haosen Shi"
        },
        {
          "authorId": "2047532575",
          "name": "Jiajun Fan"
        },
        {
          "authorId": "2090489849",
          "name": "Shihong Deng"
        }
      ]
    }
  ]
}