{
  "total": 29460,
  "offset": 0,
  "next": 10,
  "data": [
    {
      "paperId": "6bc0223d3ea1c6570d0e1ac38603201a6b4eb36d",
      "externalIds": {
        "DBLP": "conf/icml/ErraqabiVCM16",
        "MAG": "2403304671",
        "CorpusId": 7300447
      },
      "url": "https://www.semanticscholar.org/paper/6bc0223d3ea1c6570d0e1ac38603201a6b4eb36d",
      "title": "Pliable Rejection Sampling",
      "venue": "International Conference on Machine Learning",
      "year": 2016,
      "referenceCount": 20,
      "citationCount": 6,
      "authors": [
        {
          "authorId": "3429013",
          "name": "Akram Erraqabi"
        },
        {
          "authorId": "1806291",
          "name": "Michal Valko"
        },
        {
          "authorId": "37178915",
          "name": "A. Carpentier"
        },
        {
          "authorId": "1794867",
          "name": "Odalric-Ambrym Maillard"
        }
      ]
    },
    {
      "paperId": "5728ba3b8c6353a65b32bbd36ef9859dcc363d83",
      "externalIds": {
        "CorpusId": 17453597
      },
      "url": "https://www.semanticscholar.org/paper/5728ba3b8c6353a65b32bbd36ef9859dcc363d83",
      "title": "Pliable Rejection Sampling A. Proofs of the Main Results",
      "venue": "",
      "year": null,
      "referenceCount": 0,
      "citationCount": 0,
      "authors": []
    },
    {
      "paperId": "29d0ed9caf811212341f67617d8cbd8c1fa2cc25",
      "externalIds": {
        "DBLP": "journals/corr/abs-2504-11343",
        "ArXiv": "2504.11343",
        "DOI": "10.48550/arXiv.2504.11343",
        "CorpusId": 277786703
      },
      "url": "https://www.semanticscholar.org/paper/29d0ed9caf811212341f67617d8cbd8c1fa2cc25",
      "title": "A Minimalist Approach to LLM Reasoning: from Rejection Sampling to Reinforce",
      "venue": "arXiv.org",
      "year": 2025,
      "referenceCount": 41,
      "citationCount": 112,
      "authors": [
        {
          "authorId": "2275119437",
          "name": "Wei Xiong"
        },
        {
          "authorId": "2283873071",
          "name": "Jiarui Yao"
        },
        {
          "authorId": "48615640",
          "name": "Yuhui Xu"
        },
        {
          "authorId": "2301158116",
          "name": "Bo Pang"
        },
        {
          "authorId": "2313773658",
          "name": "Lei Wang"
        },
        {
          "authorId": "36187119",
          "name": "Doyen Sahoo"
        },
        {
          "authorId": "2268797933",
          "name": "Junnan Li"
        },
        {
          "authorId": "2275167899",
          "name": "Nan Jiang"
        },
        {
          "authorId": "2301173100",
          "name": "Tong Zhang"
        },
        {
          "authorId": "2292439981",
          "name": "Caiming Xiong"
        },
        {
          "authorId": "35279146",
          "name": "Hanze Dong"
        }
      ]
    },
    {
      "paperId": "3d58168c202c95ee932c1913f445b3f5efe0f75e",
      "externalIds": {
        "ArXiv": "2505.02391",
        "DBLP": "journals/corr/abs-2505-02391",
        "DOI": "10.48550/arXiv.2505.02391",
        "CorpusId": 278327012
      },
      "url": "https://www.semanticscholar.org/paper/3d58168c202c95ee932c1913f445b3f5efe0f75e",
      "title": "Optimizing Chain-of-Thought Reasoners via Gradient Variance Minimization in Rejection Sampling and RL",
      "venue": "arXiv.org",
      "year": 2025,
      "referenceCount": 53,
      "citationCount": 20,
      "authors": [
        {
          "authorId": "2283873071",
          "name": "Jiarui Yao"
        },
        {
          "authorId": "2250884648",
          "name": "Yifan Hao"
        },
        {
          "authorId": "2267057406",
          "name": "Hanning Zhang"
        },
        {
          "authorId": "2316906100",
          "name": "Hanze Dong"
        },
        {
          "authorId": "2275119437",
          "name": "Wei Xiong"
        },
        {
          "authorId": "2275167899",
          "name": "Nan Jiang"
        },
        {
          "authorId": "2301173100",
          "name": "Tong Zhang"
        }
      ]
    },
    {
      "paperId": "1407966036a1d70124f822b16bd961526de88295",
      "externalIds": {
        "ArXiv": "2504.05410",
        "DBLP": "journals/corr/abs-2504-05410",
        "DOI": "10.48550/arXiv.2504.05410",
        "CorpusId": 277626733
      },
      "url": "https://www.semanticscholar.org/paper/1407966036a1d70124f822b16bd961526de88295",
      "title": "Fast Controlled Generation from Language Models with Adaptive Weighted Rejection Sampling",
      "venue": "arXiv.org",
      "year": 2025,
      "referenceCount": 103,
      "citationCount": 12,
      "authors": [
        {
          "authorId": "2350190846",
          "name": "Ben Lipkin"
        },
        {
          "authorId": "2159712810",
          "name": "Benjamin LeBrun"
        },
        {
          "authorId": "2391630686",
          "name": "Jacob Hoover Vigly"
        },
        {
          "authorId": "2350188443",
          "name": "João Loula"
        },
        {
          "authorId": "2354251205",
          "name": "David R. MacIver"
        },
        {
          "authorId": "2277206167",
          "name": "Li Du"
        },
        {
          "authorId": "2277216293",
          "name": "Jason Eisner"
        },
        {
          "authorId": "2295665129",
          "name": "Ryan Cotterell"
        },
        {
          "authorId": "1735083",
          "name": "Vikash K. Mansinghka"
        },
        {
          "authorId": "2305621044",
          "name": "Timothy J. O'Donnell"
        },
        {
          "authorId": "1393982589",
          "name": "Alexander K. Lew"
        },
        {
          "authorId": "2396787",
          "name": "Tim Vieira"
        }
      ]
    },
    {
      "paperId": "4d4432514695e0f36720c73c23d15d8e21abe2fe",
      "externalIds": {
        "DBLP": "conf/naacl/KhakiLMYR24",
        "ArXiv": "2402.10038",
        "DOI": "10.48550/arXiv.2402.10038",
        "CorpusId": 267682216
      },
      "url": "https://www.semanticscholar.org/paper/4d4432514695e0f36720c73c23d15d8e21abe2fe",
      "title": "RS-DPO: A Hybrid Rejection Sampling and Direct Preference Optimization Method for Alignment of Large Language Models",
      "venue": "NAACL-HLT",
      "year": 2024,
      "referenceCount": 34,
      "citationCount": 42,
      "authors": [
        {
          "authorId": "2238206230",
          "name": "Saeed Khaki"
        },
        {
          "authorId": "2284249190",
          "name": "JinJin Li"
        },
        {
          "authorId": "2238398936",
          "name": "Lan Ma"
        },
        {
          "authorId": "2267519122",
          "name": "Liu Yang"
        },
        {
          "authorId": "2121359655",
          "name": "Prathap Ramachandra"
        }
      ]
    },
    {
      "paperId": "e8cf47fc6ab8b719d434e879f9feace82f72d270",
      "externalIds": {
        "DBLP": "conf/crypto/Gartner25",
        "DOI": "10.1007/978-3-032-01855-7_17",
        "CorpusId": 278396154
      },
      "url": "https://www.semanticscholar.org/paper/e8cf47fc6ab8b719d434e879f9feace82f72d270",
      "title": "Compact Lattice Signatures via Iterative Rejection Sampling",
      "venue": "Annual International Cryptology Conference",
      "year": 2025,
      "referenceCount": 24,
      "citationCount": 3,
      "authors": [
        {
          "authorId": "2266474526",
          "name": "Joel Gärtner"
        }
      ]
    },
    {
      "paperId": "bdd0a889aac239fc5b7059297e79a3adc15a75bc",
      "externalIds": {
        "DBLP": "journals/corr/abs-2510-01902",
        "ArXiv": "2510.01902",
        "DOI": "10.48550/arXiv.2510.01902",
        "CorpusId": 281724719
      },
      "url": "https://www.semanticscholar.org/paper/bdd0a889aac239fc5b7059297e79a3adc15a75bc",
      "title": "Constrained Adaptive Rejection Sampling",
      "venue": "arXiv.org",
      "year": 2025,
      "referenceCount": 39,
      "citationCount": 2,
      "authors": [
        {
          "authorId": "2383307806",
          "name": "Pawel Parys"
        },
        {
          "authorId": "2366020300",
          "name": "Sairam Vaidya"
        },
        {
          "authorId": "2303399361",
          "name": "Taylor Berg-Kirkpatrick"
        },
        {
          "authorId": "1397413848",
          "name": "Loris D'antoni"
        }
      ]
    },
    {
      "paperId": "22ab4219371366a4e890382bc0ca606130840ca7",
      "externalIds": {
        "ArXiv": "2309.06657",
        "DBLP": "conf/iclr/0002ZJKSLL24",
        "DOI": "10.48550/arXiv.2309.06657",
        "CorpusId": 261705578
      },
      "url": "https://www.semanticscholar.org/paper/22ab4219371366a4e890382bc0ca606130840ca7",
      "title": "Statistical Rejection Sampling Improves Preference Optimization",
      "venue": "International Conference on Learning Representations",
      "year": 2023,
      "referenceCount": 38,
      "citationCount": 344,
      "authors": [
        {
          "authorId": "2239381730",
          "name": "Tianqi Liu"
        },
        {
          "authorId": "2143397386",
          "name": "Yao Zhao"
        },
        {
          "authorId": "51468278",
          "name": "Rishabh Joshi"
        },
        {
          "authorId": "2140488873",
          "name": "Misha Khalman"
        },
        {
          "authorId": "144413479",
          "name": "Mohammad Saleh"
        },
        {
          "authorId": "35025299",
          "name": "Peter J. Liu"
        },
        {
          "authorId": "2239559694",
          "name": "Jialu Liu"
        }
      ]
    },
    {
      "paperId": "3b249cf57d6cc41a733dae4ce08e6c46b1b72461",
      "externalIds": {
        "DBLP": "journals/corr/abs-2504-04267",
        "ArXiv": "2504.04267",
        "DOI": "10.1109/TIT.2026.3658044",
        "CorpusId": 277620915
      },
      "url": "https://www.semanticscholar.org/paper/3b249cf57d6cc41a733dae4ce08e6c46b1b72461",
      "title": "Efficient Rejection Sampling in the Entropy-Optimal Range",
      "venue": "IEEE Transactions on Information Theory",
      "year": 2025,
      "referenceCount": 66,
      "citationCount": 3,
      "authors": [
        {
          "authorId": "2354173416",
          "name": "Thomas L. Draper"
        },
        {
          "authorId": "2325366276",
          "name": "Feras A. Saad"
        }
      ]
    }
  ]
}