{
  "total": 12,
  "offset": 0,
  "next": 10,
  "data": [
    {
      "paperId": "0e4acfc7c431d02d138b8d664e3c0a5a81a507a8",
      "externalIds": {
        "DBLP": "conf/icml/LeeHGJC17",
        "MAG": "2963345328",
        "ArXiv": "1702.08239",
        "DOI": "10.17863/CAM.11069",
        "CorpusId": 553293
      },
      "url": "https://www.semanticscholar.org/paper/0e4acfc7c431d02d138b8d664e3c0a5a81a507a8",
      "title": "Bayesian inference on random simple graphs with power law degree distributions",
      "venue": "International Conference on Machine Learning",
      "year": 2017,
      "referenceCount": 39,
      "citationCount": 5,
      "authors": [
        {
          "authorId": "2108550899",
          "name": "Juho Lee"
        },
        {
          "authorId": "3135212",
          "name": "Creighton Heaukulani"
        },
        {
          "authorId": "1744700",
          "name": "Zoubin Ghahramani"
        },
        {
          "authorId": "40439165",
          "name": "Lancelot F. James"
        },
        {
          "authorId": "3960497",
          "name": "Seungjin Choi"
        }
      ]
    },
    {
      "paperId": "139c68df4e882b9c12ea8aaf33a098ed83d4169a",
      "externalIds": {
        "ArXiv": "2512.10717",
        "CorpusId": 283736938
      },
      "url": "https://www.semanticscholar.org/paper/139c68df4e882b9c12ea8aaf33a098ed83d4169a",
      "title": "Dynamic sparse graphs with overlapping communities",
      "venue": "",
      "year": 2025,
      "referenceCount": 43,
      "citationCount": 0,
      "authors": [
        {
          "authorId": "52142116",
          "name": "Xenia Miscouridou"
        },
        {
          "authorId": "2237483365",
          "name": "Francesca Panero"
        },
        {
          "authorId": "2397758796",
          "name": "Antreas Laos"
        }
      ]
    },
    {
      "paperId": "5c4b9f5bb89d00609dd6d45bd89f6ef4f5596b33",
      "externalIds": {
        "DBLP": "journals/corr/abs-1810-01778",
        "MAG": "2952857763",
        "ArXiv": "1810.01778",
        "CorpusId": 52916786
      },
      "url": "https://www.semanticscholar.org/paper/5c4b9f5bb89d00609dd6d45bd89f6ef4f5596b33",
      "title": "A Bayesian model for sparse graphs with flexible degree distribution and overlapping community structure",
      "venue": "International Conference on Artificial Intelligence and Statistics",
      "year": 2018,
      "referenceCount": 47,
      "citationCount": 4,
      "authors": [
        {
          "authorId": "2108550899",
          "name": "Juho Lee"
        },
        {
          "authorId": "40439165",
          "name": "Lancelot F. James"
        },
        {
          "authorId": "3960497",
          "name": "Seungjin Choi"
        },
        {
          "authorId": "1774837",
          "name": "F. Caron"
        }
      ]
    },
    {
      "paperId": "d0827d894f6a5f27d1ed8dc743902f75c8350b47",
      "externalIds": {
        "DBLP": "journals/corr/abs-2501-19239",
        "ArXiv": "2501.19239",
        "DOI": "10.1109/WSC68292.2025.11338855",
        "CorpusId": 276079774
      },
      "url": "https://www.semanticscholar.org/paper/d0827d894f6a5f27d1ed8dc743902f75c8350b47",
      "title": "Multi-Agent Multi-Armed Bandit with Fully Heavy-Tailed Dynamics",
      "venue": "Online World Conference on Soft Computing in Industrial Applications",
      "year": 2025,
      "referenceCount": 29,
      "citationCount": 1,
      "authors": [
        {
          "authorId": "2348302122",
          "name": "Xingyu Wang"
        },
        {
          "authorId": "2343643959",
          "name": "Mengfan Xu"
        }
      ]
    },
    {
      "paperId": "bf41a2163efe5430c19951c634a01016a1a1d6e9",
      "externalIds": {
        "MAG": "1728536600",
        "DBLP": "journals/corr/cs-LG-0309015",
        "ArXiv": "cs/0309015",
        "CorpusId": 15431512
      },
      "url": "https://www.semanticscholar.org/paper/bf41a2163efe5430c19951c634a01016a1a1d6e9",
      "title": "Reliable and Efficient Inference of Bayesian Networks from Sparse Data by Statistical Learning Theory",
      "venue": "arXiv.org",
      "year": 2003,
      "referenceCount": 10,
      "citationCount": 2,
      "authors": [
        {
          "authorId": "1700657",
          "name": "D. Janzing"
        },
        {
          "authorId": "2061023110",
          "name": "D. Herrmann"
        }
      ]
    },
    {
      "paperId": "7e368027508794b46be3c8035337e269a9fd4307",
      "externalIds": {
        "MAG": "1510924284",
        "DOI": "10.1002/9780470725160",
        "CorpusId": 117895854
      },
      "url": "https://www.semanticscholar.org/paper/7e368027508794b46be3c8035337e269a9fd4307",
      "title": "Statistical Analysis and Modelling of Spatial Point Patterns",
      "venue": "",
      "year": 2008,
      "referenceCount": 3,
      "citationCount": 1804,
      "authors": [
        {
          "authorId": "6490847",
          "name": "J. Illian"
        },
        {
          "authorId": "36705837",
          "name": "Antti Penttinen"
        },
        {
          "authorId": "2521582",
          "name": "H. Stoyan"
        },
        {
          "authorId": "2149065",
          "name": "D. Stoyan"
        }
      ]
    },
    {
      "paperId": "8d95fbbb1bf1a1844368e9bad075845210e5200c",
      "externalIds": {
        "PubMedCentral": "2974640",
        "MAG": "1977876909",
        "DOI": "10.1371/journal.pone.0013580",
        "CorpusId": 16576583,
        "PubMed": "21079769"
      },
      "url": "https://www.semanticscholar.org/paper/8d95fbbb1bf1a1844368e9bad075845210e5200c",
      "title": "A Scale-Free Structure Prior for Graphical Models with Applications in Functional Genomics",
      "venue": "PLoS ONE",
      "year": 2010,
      "referenceCount": 69,
      "citationCount": 31,
      "authors": [
        {
          "authorId": "16828646",
          "name": "Paul Sheridan"
        },
        {
          "authorId": "2060576853",
          "name": "Takeshi Kamimura"
        },
        {
          "authorId": "3261971",
          "name": "Hidetoshi Shimodaira"
        }
      ]
    },
    {
      "paperId": "7664f6d04b0b3663f89f567547d0ee1ad53566dc",
      "externalIds": {
        "MAG": "2971618491",
        "DOI": "10.1002/9781119487845.ch1",
        "CorpusId": 202777177
      },
      "url": "https://www.semanticscholar.org/paper/7664f6d04b0b3663f89f567547d0ee1ad53566dc",
      "title": "Statistical Modeling and Inference in Genetics",
      "venue": "Handbook of Statistical Genomics",
      "year": 2019,
      "referenceCount": 74,
      "citationCount": 0,
      "authors": [
        {
          "authorId": "3259402",
          "name": "Daniel Wegmann"
        },
        {
          "authorId": "3337097",
          "name": "Christoph Leuenberger"
        }
      ]
    },
    {
      "paperId": "1fef0413974019ac78ce931768e2f9259e2744af",
      "externalIds": {
        "MAG": "2531009629",
        "CorpusId": 125475607
      },
      "url": "https://www.semanticscholar.org/paper/1fef0413974019ac78ce931768e2f9259e2744af",
      "title": "Structural inference and the statistics of networks",
      "venue": "",
      "year": 2006,
      "referenceCount": 0,
      "citationCount": 0,
      "authors": [
        {
          "authorId": "123174883",
          "name": "C. Moore"
        },
        {
          "authorId": "1978989",
          "name": "A. Clauset"
        }
      ]
    },
    {
      "paperId": "243fc4563ca731ff056a744dedc28c0f92a260b0",
      "externalIds": {
        "DBLP": "phd/ndltd/Zaman11",
        "MAG": "1600480948",
        "CorpusId": 11300167
      },
      "url": "https://www.semanticscholar.org/paper/243fc4563ca731ff056a744dedc28c0f92a260b0",
      "title": "Information extraction with network centralities: finding rumor sources, measuring influence, and learning community structure",
      "venue": "",
      "year": 2011,
      "referenceCount": 49,
      "citationCount": 3,
      "authors": [
        {
          "authorId": "2644275",
          "name": "Tauhid Zaman"
        }
      ]
    }
  ]
}