{
  "total": 34076,
  "offset": 0,
  "next": 10,
  "data": [
    {
      "paperId": "c141b7c4ccb4a0e5d2a327aa260b318c7c3bcfbb",
      "externalIds": {
        "ArXiv": "1705.05823",
        "MAG": "2963449488",
        "DBLP": "conf/icml/RippelB17",
        "CorpusId": 8291598
      },
      "url": "https://www.semanticscholar.org/paper/c141b7c4ccb4a0e5d2a327aa260b318c7c3bcfbb",
      "title": "Real-Time Adaptive Image Compression",
      "venue": "International Conference on Machine Learning",
      "year": 2017,
      "referenceCount": 28,
      "citationCount": 586,
      "authors": [
        {
          "authorId": "1757324",
          "name": "Oren Rippel"
        },
        {
          "authorId": "1769383",
          "name": "Lubomir D. Bourdev"
        }
      ]
    },
    {
      "paperId": "4bab0e7a06ac19c8ac8ddc2e1a4ee830b5f47ca2",
      "externalIds": {
        "DOI": "10.14445/23488379/ijeee-v12i7p117",
        "CorpusId": 280902411
      },
      "url": "https://www.semanticscholar.org/paper/4bab0e7a06ac19c8ac8ddc2e1a4ee830b5f47ca2",
      "title": "Real-Time Adaptive Rate Control for Hyperspectral Image Compression on FPGA",
      "venue": "International Journal of Electrical and Electronics Engineering",
      "year": 2025,
      "referenceCount": 44,
      "citationCount": 0,
      "authors": [
        {
          "authorId": "2374625638",
          "name": "D. Balaji"
        },
        {
          "authorId": "2321634653",
          "name": "S. Shiyamala"
        }
      ]
    },
    {
      "paperId": "a2c0c1dbd460e47aac1a2384df066b1c06ded301",
      "externalIds": {
        "DOI": "10.1109/ICSADL67539.2026.11450544",
        "CorpusId": 287029725
      },
      "url": "https://www.semanticscholar.org/paper/a2c0c1dbd460e47aac1a2384df066b1c06ded301",
      "title": "Quantum Variational Autoencoder with TinyML Adaptive Neural Compression for Real-Time Medical Image Transmission on Edge Devices",
      "venue": "2026 5th International Conference on Sentiment Analysis and Deep Learning (ICSADL)",
      "year": 2026,
      "referenceCount": 29,
      "citationCount": 0,
      "authors": [
        {
          "authorId": "2345397378",
          "name": "K. Venkateswara"
        },
        {
          "authorId": "2288994847",
          "name": "Rao Asst. Professor"
        },
        {
          "authorId": "2345390433",
          "name": "Dr.P.Namratha"
        },
        {
          "authorId": "144491103",
          "name": "K. A. Kumar"
        },
        {
          "authorId": "66772788",
          "name": "D. K. Shareef"
        },
        {
          "authorId": "2427465557",
          "name": "K.MD.Akib Juber"
        }
      ]
    },
    {
      "paperId": "f3de335daabe6245067f438ff2be8448784f13be",
      "externalIds": {
        "DOI": "10.63278/1399",
        "CorpusId": 277972626
      },
      "url": "https://www.semanticscholar.org/paper/f3de335daabe6245067f438ff2be8448784f13be",
      "title": "Development of a Modified Predictive Coding Algorithm for High-Resolution Image Compression in Real-Time Structural Health Monitoring of Metallic Component",
      "venue": "Metallurgical & Materials Engineering",
      "year": 2025,
      "referenceCount": 7,
      "citationCount": 0,
      "authors": [
        {
          "authorId": "2356692589",
          "name": "Sivakumar. R.D"
        }
      ]
    },
    {
      "paperId": "3f83174f01fb6e5fff5285478b22a268f66e9c87",
      "externalIds": {
        "DOI": "10.1049/ell2.70430",
        "CorpusId": 281554942
      },
      "url": "https://www.semanticscholar.org/paper/3f83174f01fb6e5fff5285478b22a268f66e9c87",
      "title": "Quantum Fourier Transform‐Based Adaptive Image Compression and Transmission System",
      "venue": "Electronics Letters",
      "year": 2025,
      "referenceCount": 12,
      "citationCount": 0,
      "authors": [
        {
          "authorId": "2314192530",
          "name": "Udara Jayasinghe"
        },
        {
          "authorId": "2248935513",
          "name": "Thanuj Fernando"
        },
        {
          "authorId": "2284379138",
          "name": "Anil Fernando"
        }
      ]
    },
    {
      "paperId": "6bdfca93a265ed73048ccb23b91ef0b2d184451c",
      "externalIds": {
        "DOI": "10.1109/ICIRT66379.2025.11216736",
        "CorpusId": 282824968
      },
      "url": "https://www.semanticscholar.org/paper/6bdfca93a265ed73048ccb23b91ef0b2d184451c",
      "title": "A Dynamic Channel-State-Based Adaptive Image Compression Strategy for High-Speed Railways",
      "venue": "2025 IEEE International Conference on Intelligent Rail Transportation (ICIRT)",
      "year": 2025,
      "referenceCount": 15,
      "citationCount": 0,
      "authors": [
        {
          "authorId": "2064114293",
          "name": "Anna Dai"
        },
        {
          "authorId": "2391103472",
          "name": "Mingduan Liu"
        },
        {
          "authorId": "2304761672",
          "name": "Peng Li"
        },
        {
          "authorId": "2391105196",
          "name": "Xinjian Han"
        },
        {
          "authorId": "2393020104",
          "name": "Yang Chu"
        },
        {
          "authorId": "2053190098",
          "name": "Yuntong An"
        },
        {
          "authorId": "2304303508",
          "name": "Yongkui Sun"
        },
        {
          "authorId": "2117107891",
          "name": "Yuan Cao"
        }
      ]
    },
    {
      "paperId": "ac40912840999e1f7dce0d4057536a243cb47875",
      "externalIds": {
        "ArXiv": "2603.13699",
        "CorpusId": 286568445
      },
      "url": "https://www.semanticscholar.org/paper/ac40912840999e1f7dce0d4057536a243cb47875",
      "title": "D-Compress: Detail-Preserving LiDAR Range Image Compression for Real-Time Streaming on Resource-Constrained Robots",
      "venue": "",
      "year": 2026,
      "referenceCount": 34,
      "citationCount": 0,
      "authors": [
        {
          "authorId": "2370594495",
          "name": "Sheng Wang"
        },
        {
          "authorId": "2240532365",
          "name": "Changhe Tu"
        },
        {
          "authorId": "2145188378",
          "name": "He Chen"
        }
      ]
    },
    {
      "paperId": "23c21b03994af6f63914a106cf66a08c1d58fd4b",
      "externalIds": {
        "PubMedCentral": "12411030",
        "DOI": "10.1002/jbio.70043",
        "CorpusId": 278029889,
        "PubMed": "40268498"
      },
      "url": "https://www.semanticscholar.org/paper/23c21b03994af6f63914a106cf66a08c1d58fd4b",
      "title": "Adaptive Run‐Length Encoded DCT: A High‐Fidelity Compression Algorithm for Real‐Time Photoacoustic Microscopy Imaging in LabVIEW",
      "venue": "Journal of Biophotonics",
      "year": 2025,
      "referenceCount": 36,
      "citationCount": 5,
      "authors": [
        {
          "authorId": "2140073359",
          "name": "M. Zafar"
        },
        {
          "authorId": "150169927",
          "name": "K. Avanaki"
        }
      ]
    },
    {
      "paperId": "2c5bf953bd302afd966588a4ca0397f00967b8af",
      "externalIds": {
        "DOI": "10.1109/OPTIMA67660.2025.11380227",
        "CorpusId": 285734794
      },
      "url": "https://www.semanticscholar.org/paper/2c5bf953bd302afd966588a4ca0397f00967b8af",
      "title": "Raspberry Pi–Enabled Real-Time Optical Image Enhancement and Compression for Resource-Constrained IoT Cameras",
      "venue": "OPTIMA",
      "year": 2025,
      "referenceCount": 10,
      "citationCount": 0,
      "authors": [
        {
          "authorId": "14518370",
          "name": "Djamshid Sultanov"
        },
        {
          "authorId": "2341526306",
          "name": "Ibrohimbek Yusupov"
        },
        {
          "authorId": "2372351755",
          "name": "Devender Kumar"
        },
        {
          "authorId": "2215104745",
          "name": "Rakhimberdiev Kuvonchbek"
        },
        {
          "authorId": "2412200502",
          "name": "Abdukhalil Ganiyev"
        }
      ]
    },
    {
      "paperId": "b11a4233ebc0c57c0c01aef7e5c639de2eacd933",
      "externalIds": {
        "DBLP": "journals/tmi/OzbekDR22",
        "DOI": "10.1109/TMI.2022.3175471",
        "CorpusId": 248919277,
        "PubMed": "35588420"
      },
      "url": "https://www.semanticscholar.org/paper/b11a4233ebc0c57c0c01aef7e5c639de2eacd933",
      "title": "Universal Real-Time Adaptive Signal Compression for High-Frame-Rate Optoacoustic Tomography",
      "venue": "IEEE Transactions on Medical Imaging",
      "year": 2022,
      "referenceCount": 41,
      "citationCount": 6,
      "authors": [
        {
          "authorId": "72225520",
          "name": "A. Özbek"
        },
        {
          "authorId": "1389940986",
          "name": "X. Deán‐Ben"
        },
        {
          "authorId": "2884129",
          "name": "D. Razansky"
        }
      ]
    }
  ]
}