{
  "total": 638,
  "offset": 0,
  "next": 10,
  "data": [
    {
      "paperId": "0ab07d0d6cf8d417e695a43ef4b88bf70b68213a",
      "externalIds": {
        "MAG": "2804371177",
        "DBLP": "journals/corr/abs-1806-04895",
        "ArXiv": "1806.04895",
        "CorpusId": 49191089
      },
      "url": "https://www.semanticscholar.org/paper/0ab07d0d6cf8d417e695a43ef4b88bf70b68213a",
      "title": "Adversarial Learning with Local Coordinate Coding",
      "venue": "International Conference on Machine Learning",
      "year": 2018,
      "referenceCount": 30,
      "citationCount": 39,
      "authors": [
        {
          "authorId": "32879676",
          "name": "Jiezhang Cao"
        },
        {
          "authorId": "143670622",
          "name": "Yong Guo"
        },
        {
          "authorId": "8277017",
          "name": "Qingyao Wu"
        },
        {
          "authorId": "1780381",
          "name": "Chunhua Shen"
        },
        {
          "authorId": "1768190",
          "name": "Junzhou Huang"
        },
        {
          "authorId": "2823637",
          "name": "Mingkui Tan"
        }
      ]
    },
    {
      "paperId": "a8e51fceaad152c864ef36c06c6c174e3b4ff9e3",
      "externalIds": {
        "CorpusId": 53539125
      },
      "url": "https://www.semanticscholar.org/paper/a8e51fceaad152c864ef36c06c6c174e3b4ff9e3",
      "title": "Supplementary Materials for “ Adversarial Learning with Local Coordinate Coding ”",
      "venue": "",
      "year": 2018,
      "referenceCount": 0,
      "citationCount": 0,
      "authors": [
        {
          "authorId": "2082516786",
          "name": "∣∣∣∣Dv−Dv"
        },
        {
          "authorId": "2084755399",
          "name": "∥∥∥∥Gu"
        }
      ]
    },
    {
      "paperId": "c1bc4d75eb1255ef06d1c8a2f1e7a033a5e7f3fc",
      "externalIds": {
        "MAG": "3046618572",
        "ArXiv": "2008.00942",
        "DBLP": "journals/pami/CaoGWSHT22",
        "DOI": "10.1109/tpami.2020.3012096",
        "CorpusId": 220936399,
        "PubMed": "32750833"
      },
      "url": "https://www.semanticscholar.org/paper/c1bc4d75eb1255ef06d1c8a2f1e7a033a5e7f3fc",
      "title": "Improving Generative Adversarial Networks With Local Coordinate Coding",
      "venue": "IEEE Transactions on Pattern Analysis and Machine Intelligence",
      "year": 2020,
      "referenceCount": 59,
      "citationCount": 20,
      "authors": [
        {
          "authorId": "32879676",
          "name": "Jiezhang Cao"
        },
        {
          "authorId": "143670622",
          "name": "Yong Guo"
        },
        {
          "authorId": "8277017",
          "name": "Qingyao Wu"
        },
        {
          "authorId": "12459603",
          "name": "Chunhua Shen"
        },
        {
          "authorId": "1768190",
          "name": "Junzhou Huang"
        },
        {
          "authorId": "2823637",
          "name": "Mingkui Tan"
        }
      ]
    },
    {
      "paperId": "16ca97faa96df461b2595db6d5c558c20ceecae2",
      "externalIds": {
        "DOI": "10.1109/ICIC63915.2024.11116285",
        "CorpusId": 280663691
      },
      "url": "https://www.semanticscholar.org/paper/16ca97faa96df461b2595db6d5c558c20ceecae2",
      "title": "Encoding Human Activity Recognition: Local Coordinate Coding on Multimodal Sensory Data",
      "venue": "International Conference on Intelligent Computing",
      "year": 2024,
      "referenceCount": 47,
      "citationCount": 0,
      "authors": [
        {
          "authorId": "2386914592",
          "name": "Khadija Noor"
        },
        {
          "authorId": "134789275",
          "name": "Tazeem Haider"
        },
        {
          "authorId": "2376024665",
          "name": "Shakaib Aziz"
        },
        {
          "authorId": "2320111233",
          "name": "Zubair Zulfiqar"
        },
        {
          "authorId": "2305826440",
          "name": "Muhammad Hassan Khan"
        },
        {
          "authorId": "49803789",
          "name": "M. S. Farid"
        }
      ]
    },
    {
      "paperId": "a5e23ef59eaf3fd897c460c28d23a982c72e8f65",
      "externalIds": {
        "MAG": "2134563198",
        "DBLP": "conf/nips/YuZG09",
        "CorpusId": 1045818
      },
      "url": "https://www.semanticscholar.org/paper/a5e23ef59eaf3fd897c460c28d23a982c72e8f65",
      "title": "Nonlinear Learning using Local Coordinate Coding",
      "venue": "Neural Information Processing Systems",
      "year": 2009,
      "referenceCount": 13,
      "citationCount": 806,
      "authors": [
        {
          "authorId": "144782042",
          "name": "Kai Yu"
        },
        {
          "authorId": "49104973",
          "name": "Tong Zhang"
        },
        {
          "authorId": "144768792",
          "name": "Yihong Gong"
        }
      ]
    },
    {
      "paperId": "aa0b1d797f01180eb9402841cca52cb3c0e7bdba",
      "externalIds": {
        "DBLP": "journals/tcsv/WangZQYX25",
        "DOI": "10.1109/TCSVT.2024.3460172",
        "CorpusId": 272648736
      },
      "url": "https://www.semanticscholar.org/paper/aa0b1d797f01180eb9402841cca52cb3c0e7bdba",
      "title": "FreqGAN: Infrared and Visible Image Fusion via Unified Frequency Adversarial Learning",
      "venue": "IEEE transactions on circuits and systems for video technology (Print)",
      "year": 2025,
      "referenceCount": 42,
      "citationCount": 72,
      "authors": [
        {
          "authorId": "2396290",
          "name": "Zhishe Wang"
        },
        {
          "authorId": "2321142225",
          "name": "Zhuoqun Zhang"
        },
        {
          "authorId": "2321117718",
          "name": "Wuqiang Qi"
        },
        {
          "authorId": "2303072728",
          "name": "Fengbao Yang"
        },
        {
          "authorId": "2110476951",
          "name": "Jiawei Xu"
        }
      ]
    },
    {
      "paperId": "8caf100798c9a20db95acd7e9c73a6f9c3fe6c30",
      "externalIds": {
        "MAG": "2036824456",
        "DBLP": "journals/ijon/PangZQZQHY15",
        "DOI": "10.1016/j.neucom.2015.01.035",
        "CorpusId": 39067696
      },
      "url": "https://www.semanticscholar.org/paper/8caf100798c9a20db95acd7e9c73a6f9c3fe6c30",
      "title": "Online dictionary learning for Local Coordinate Coding with Locality Coding Adaptors",
      "venue": "Neurocomputing",
      "year": 2015,
      "referenceCount": 29,
      "citationCount": 3,
      "authors": [
        {
          "authorId": "1760554",
          "name": "Junbiao Pang"
        },
        {
          "authorId": "1713887",
          "name": "Chunjie Zhang"
        },
        {
          "authorId": "145583736",
          "name": "Lei Qin"
        },
        {
          "authorId": "47527850",
          "name": "W. Zhang"
        },
        {
          "authorId": "2343895",
          "name": "Laiyun Qing"
        },
        {
          "authorId": "1689702",
          "name": "Qingming Huang"
        },
        {
          "authorId": "1714354",
          "name": "Baocai Yin"
        }
      ]
    },
    {
      "paperId": "10e1a279dd8176a70b8cc05ca8258c10d14d98cd",
      "externalIds": {
        "MAG": "1983928359",
        "DBLP": "conf/bmvc/XieST10",
        "DOI": "10.5244/C.24.36",
        "CorpusId": 11792432
      },
      "url": "https://www.semanticscholar.org/paper/10e1a279dd8176a70b8cc05ca8258c10d14d98cd",
      "title": "Large-scale Dictionary Learning For Local Coordinate Coding",
      "venue": "British Machine Vision Conference",
      "year": 2010,
      "referenceCount": 16,
      "citationCount": 16,
      "authors": [
        {
          "authorId": "2064541120",
          "name": "Bo Xie"
        },
        {
          "authorId": "144646841",
          "name": "Mingli Song"
        },
        {
          "authorId": "143719920",
          "name": "D. Tao"
        }
      ]
    },
    {
      "paperId": "a54e74cd36f89304d79035f1ecfa508c19484f01",
      "externalIds": {
        "DBLP": "journals/tomccap/LiuPLJ25",
        "DOI": "10.1145/3697837",
        "CorpusId": 273603403
      },
      "url": "https://www.semanticscholar.org/paper/a54e74cd36f89304d79035f1ecfa508c19484f01",
      "title": "CTRNet++: Dual-Path Learning with Local-Global Context Modeling for Scene Text Removal",
      "venue": "ACM Trans. Multim. Comput. Commun. Appl.",
      "year": 2024,
      "referenceCount": 80,
      "citationCount": 0,
      "authors": [
        {
          "authorId": "9401586",
          "name": "Chongyu Liu"
        },
        {
          "authorId": "50705920",
          "name": "Dezhi Peng"
        },
        {
          "authorId": "2108353180",
          "name": "Yuliang Liu"
        },
        {
          "authorId": "2256463370",
          "name": "Lianwen Jin"
        }
      ]
    },
    {
      "paperId": "1ce1b06113253fb701a0a3f7ed5784309d3e5746",
      "externalIds": {
        "DBLP": "journals/tcsv/HeYZCJ26",
        "DOI": "10.1109/TCSVT.2025.3609776",
        "CorpusId": 281349727
      },
      "url": "https://www.semanticscholar.org/paper/1ce1b06113253fb701a0a3f7ed5784309d3e5746",
      "title": "FedDAAM: Federated Domain Adversarial Learning With Attention Mechanism for Privacy Preserving Multimodal Depression Assessment",
      "venue": "IEEE transactions on circuits and systems for video technology (Print)",
      "year": 2026,
      "referenceCount": 61,
      "citationCount": 6,
      "authors": [
        {
          "authorId": "2237109048",
          "name": "Lang He"
        },
        {
          "authorId": "2261792891",
          "name": "Weizhao Yang"
        },
        {
          "authorId": "2302313746",
          "name": "Junnan Zhao"
        },
        {
          "authorId": "2302225152",
          "name": "Haifeng Chen"
        },
        {
          "authorId": "2286615809",
          "name": "Dongmei Jiang"
        }
      ]
    }
  ]
}