{
  "total": 33,
  "offset": 0,
  "next": 10,
  "data": [
    {
      "paperId": "5ec868ebe59918f94140bb2889b9027c55c09b65",
      "externalIds": {
        "ArXiv": "1807.02635",
        "MAG": "2952595815",
        "DBLP": "journals/corr/abs-1807-02635",
        "CorpusId": 49651450
      },
      "url": "https://www.semanticscholar.org/paper/5ec868ebe59918f94140bb2889b9027c55c09b65",
      "title": "Video Prediction with Appearance and Motion Conditions",
      "venue": "International Conference on Machine Learning",
      "year": 2018,
      "referenceCount": 45,
      "citationCount": 45,
      "authors": [
        {
          "authorId": "2338742",
          "name": "Y. Jang"
        },
        {
          "authorId": "1743920",
          "name": "Gunhee Kim"
        },
        {
          "authorId": "2317183",
          "name": "Yale Song"
        }
      ]
    },
    {
      "paperId": "d74e14de664be4b784813d93e260abe379e2602d",
      "externalIds": {
        "CorpusId": 53129726
      },
      "url": "https://www.semanticscholar.org/paper/d74e14de664be4b784813d93e260abe379e2602d",
      "title": "Supplementary Material for : Video Prediction with Appearance and Motion Conditions",
      "venue": "",
      "year": 2018,
      "referenceCount": 9,
      "citationCount": 0,
      "authors": [
        {
          "authorId": "2072584146",
          "name": "Yunseok Jang"
        },
        {
          "authorId": "1743920",
          "name": "Gunhee Kim"
        },
        {
          "authorId": "2317183",
          "name": "Yale Song"
        }
      ]
    },
    {
      "paperId": "8c6583a8334bb7688505d6f745a0dcf29203ee47",
      "externalIds": {
        "DBLP": "journals/corr/abs-2404-03736",
        "ArXiv": "2404.03736",
        "DOI": "10.48550/arXiv.2404.03736",
        "CorpusId": 268987482
      },
      "url": "https://www.semanticscholar.org/paper/8c6583a8334bb7688505d6f745a0dcf29203ee47",
      "title": "SC4D: Sparse-Controlled Video-to-4D Generation and Motion Transfer",
      "venue": "European Conference on Computer Vision",
      "year": 2024,
      "referenceCount": 83,
      "citationCount": 58,
      "authors": [
        {
          "authorId": "2187780453",
          "name": "Zijie Wu"
        },
        {
          "authorId": "2110961040",
          "name": "Chaohui Yu"
        },
        {
          "authorId": "2265542118",
          "name": "Yanqin Jiang"
        },
        {
          "authorId": "2296071044",
          "name": "Chenjie Cao"
        },
        {
          "authorId": "2257894784",
          "name": "Fan Wang"
        },
        {
          "authorId": "2258401423",
          "name": "Xiang Bai"
        }
      ]
    },
    {
      "paperId": "36b8fd684ca2c72a8000daf7cac63e15925f841e",
      "externalIds": {
        "DBLP": "conf/aaai/0010CYFGYS025",
        "ArXiv": "2412.09026",
        "DOI": "10.48550/arXiv.2412.09026",
        "CorpusId": 274656131
      },
      "url": "https://www.semanticscholar.org/paper/36b8fd684ca2c72a8000daf7cac63e15925f841e",
      "title": "Video Anomaly Detection with Motion and Appearance Guided Patch Diffusion Model",
      "venue": "AAAI Conference on Artificial Intelligence",
      "year": 2024,
      "referenceCount": 39,
      "citationCount": 23,
      "authors": [
        {
          "authorId": "2243737713",
          "name": "Hang Zhou"
        },
        {
          "authorId": "2244145726",
          "name": "Jiale Cai"
        },
        {
          "authorId": "2192689522",
          "name": "Yuteng Ye"
        },
        {
          "authorId": "2357027746",
          "name": "Yonghui Feng"
        },
        {
          "authorId": "2243086273",
          "name": "Chenxing Gao"
        },
        {
          "authorId": "2237947276",
          "name": "Junqing Yu"
        },
        {
          "authorId": "7576095",
          "name": "Zikai Song"
        },
        {
          "authorId": "2243650023",
          "name": "Wei Yang"
        }
      ]
    },
    {
      "paperId": "7ffd9e745e58f9dc876af7f68e9ef5b9d56d6461",
      "externalIds": {
        "CorpusId": 53684657
      },
      "url": "https://www.semanticscholar.org/paper/7ffd9e745e58f9dc876af7f68e9ef5b9d56d6461",
      "title": "VIDEO UNDERSTANDING THROUGH THE DISENTANGLEMENT OF APPEARANCE AND MOTION",
      "venue": "",
      "year": 2018,
      "referenceCount": 41,
      "citationCount": 0,
      "authors": [
        {
          "authorId": "145491338",
          "name": "Sebastián M. Palacio"
        },
        {
          "authorId": "35472350",
          "name": "V. Campos"
        }
      ]
    },
    {
      "paperId": "906267079ef822bcdd0cf98c471ea8bd61549f65",
      "externalIds": {
        "MAG": "1977801599",
        "DOI": "10.1007/s00426-012-0426-z",
        "CorpusId": 34856724,
        "PubMed": "22371203"
      },
      "url": "https://www.semanticscholar.org/paper/906267079ef822bcdd0cf98c471ea8bd61549f65",
      "title": "The role of appearance and motion in action prediction",
      "venue": "Psychological Research",
      "year": 2012,
      "referenceCount": 45,
      "citationCount": 33,
      "authors": [
        {
          "authorId": "2277803",
          "name": "A. Saygin"
        },
        {
          "authorId": "3060106",
          "name": "W. Stadler"
        }
      ]
    },
    {
      "paperId": "7b6c0c29e4318215a44c65326625253e17ff352d",
      "externalIds": {
        "DBLP": "journals/jimaging/MengDMH25",
        "PubMedCentral": "12112576",
        "DOI": "10.3390/jimaging11050144",
        "CorpusId": 278350474,
        "PubMed": "40423001"
      },
      "url": "https://www.semanticscholar.org/paper/7b6c0c29e4318215a44c65326625253e17ff352d",
      "title": "Motion-Perception Multi-Object Tracking (MPMOT): Enhancing Multi-Object Tracking Performance via Motion-Aware Data Association and Trajectory Connection",
      "venue": "Journal of Imaging",
      "year": 2025,
      "referenceCount": 74,
      "citationCount": 6,
      "authors": [
        {
          "authorId": "2351492717",
          "name": "Weijun Meng"
        },
        {
          "authorId": "2289575785",
          "name": "Shuaipeng Duan"
        },
        {
          "authorId": "38998702",
          "name": "Sugang Ma"
        },
        {
          "authorId": "2299757887",
          "name": "Bin Hu"
        }
      ]
    },
    {
      "paperId": "5090569467c9aae14bf8d5daa8c6d4ec4b154b7b",
      "externalIds": {
        "DBLP": "journals/jei/TanWXX23",
        "DOI": "10.1117/1.JEI.32.6.063020",
        "CorpusId": 265510685
      },
      "url": "https://www.semanticscholar.org/paper/5090569467c9aae14bf8d5daa8c6d4ec4b154b7b",
      "title": "Abnormal event detection based on masked reconstruction and dual-channel adversarial prediction",
      "venue": "J. Electronic Imaging",
      "year": 2023,
      "referenceCount": 36,
      "citationCount": 1,
      "authors": [
        {
          "authorId": "2008740667",
          "name": "Lunzheng Tan"
        },
        {
          "authorId": "2298048867",
          "name": "Yu Weng"
        },
        {
          "authorId": "2267033040",
          "name": "L. Xia"
        },
        {
          "authorId": "2269124556",
          "name": "Jiusheng Xiao"
        }
      ]
    },
    {
      "paperId": "32a108d0e065aced1d072afc3e32e8c92b043f4c",
      "externalIds": {
        "DBLP": "journals/ijcv/CarceroniK02",
        "MAG": "3015613699",
        "DOI": "10.1023/A:1020145606604",
        "CorpusId": 1864608
      },
      "url": "https://www.semanticscholar.org/paper/32a108d0e065aced1d072afc3e32e8c92b043f4c",
      "title": "Multi-View Scene Capture by Surfel Sampling: From Video Streams to Non-Rigid 3D Motion, Shape and Reflectance",
      "venue": "International Journal of Computer Vision",
      "year": 2002,
      "referenceCount": 104,
      "citationCount": 183,
      "authors": [
        {
          "authorId": "1831412",
          "name": "R. Carceroni"
        },
        {
          "authorId": "1734027",
          "name": "Kiriakos N. Kutulakos"
        }
      ]
    },
    {
      "paperId": "7b2026b6add7901b344cd442476da357fb25279d",
      "externalIds": {
        "DBLP": "conf/iccv/CarceroniK01",
        "MAG": "2099271371",
        "DOI": "10.1109/ICCV.2001.937603",
        "CorpusId": 265295916
      },
      "url": "https://www.semanticscholar.org/paper/7b2026b6add7901b344cd442476da357fb25279d",
      "title": "Multi-view scene capture by surfel sampling: from video streams to non-rigid 3D motion, shape and reflectance",
      "venue": "Proceedings Eighth IEEE International Conference on Computer Vision. ICCV 2001",
      "year": 2001,
      "referenceCount": 86,
      "citationCount": 21,
      "authors": [
        {
          "authorId": "1831412",
          "name": "R. Carceroni"
        },
        {
          "authorId": "49979899",
          "name": "Kiriakos N. Kutulakos"
        }
      ]
    }
  ]
}