{
  "total": 892,
  "offset": 0,
  "next": 10,
  "data": [
    {
      "paperId": "a99d857ecc78316a0d9a774972b775058d5644ca",
      "externalIds": {
        "MAG": "2949268663",
        "DBLP": "conf/icml/ZenkePG17",
        "CorpusId": 10409742,
        "PubMed": "31909397"
      },
      "url": "https://www.semanticscholar.org/paper/a99d857ecc78316a0d9a774972b775058d5644ca",
      "title": "Continual Learning Through Synaptic Intelligence",
      "venue": "International Conference on Machine Learning",
      "year": 2017,
      "referenceCount": 30,
      "citationCount": 3195,
      "authors": [
        {
          "authorId": "39979946",
          "name": "Friedemann Zenke"
        },
        {
          "authorId": "16443937",
          "name": "Ben Poole"
        },
        {
          "authorId": "25769960",
          "name": "S. Ganguli"
        }
      ]
    },
    {
      "paperId": "db940c933262c53d707f493d0c5558731fa62334",
      "externalIds": {
        "CorpusId": 41556161
      },
      "url": "https://www.semanticscholar.org/paper/db940c933262c53d707f493d0c5558731fa62334",
      "title": "Supplementary Material : Continual Learning Through Synaptic Intelligence",
      "venue": "",
      "year": 2017,
      "referenceCount": 3,
      "citationCount": 0,
      "authors": [
        {
          "authorId": "39979946",
          "name": "Friedemann Zenke"
        },
        {
          "authorId": "16443937",
          "name": "Ben Poole"
        },
        {
          "authorId": "25769960",
          "name": "S. Ganguli"
        }
      ]
    },
    {
      "paperId": "5ee26e44f27626311a95bef9954bc588034a8511",
      "externalIds": {
        "ArXiv": "2412.13779",
        "DBLP": "conf/icml/0006WWQX025",
        "CorpusId": 278367468
      },
      "url": "https://www.semanticscholar.org/paper/5ee26e44f27626311a95bef9954bc588034a8511",
      "title": "FedSSI: Rehearsal-Free Continual Federated Learning with Synergistic Synaptic Intelligence",
      "venue": "International Conference on Machine Learning",
      "year": 2024,
      "referenceCount": 54,
      "citationCount": 12,
      "authors": [
        {
          "authorId": "2290859580",
          "name": "Yichen Li"
        },
        {
          "authorId": "2336037764",
          "name": "Yuying Wang"
        },
        {
          "authorId": "51175126",
          "name": "Haozhao Wang"
        },
        {
          "authorId": "2278194140",
          "name": "Yining Qi"
        },
        {
          "authorId": "2335858987",
          "name": "Tianzhe Xiao"
        },
        {
          "authorId": "2260298889",
          "name": "Ruixuan Li"
        }
      ]
    },
    {
      "paperId": "75259c289399069c423ab7722014e0b2cefba11c",
      "externalIds": {
        "ArXiv": "2405.16922",
        "DBLP": "journals/corr/abs-2405-16922",
        "DOI": "10.48550/arXiv.2405.16922",
        "CorpusId": 270062566
      },
      "url": "https://www.semanticscholar.org/paper/75259c289399069c423ab7722014e0b2cefba11c",
      "title": "Theories of synaptic memory consolidation and intelligent plasticity for continual learning",
      "venue": "arXiv.org",
      "year": 2024,
      "referenceCount": 48,
      "citationCount": 10,
      "authors": [
        {
          "authorId": "39979946",
          "name": "Friedemann Zenke"
        },
        {
          "authorId": "1557381641",
          "name": "Axel Laborieux"
        }
      ]
    },
    {
      "paperId": "236f834880d83dbc3b833c656a361e3f61c37b9c",
      "externalIds": {
        "ArXiv": "2308.14991",
        "DBLP": "journals/natmi/WangZLZSZZ23",
        "DOI": "10.1038/s42256-023-00747-w",
        "CorpusId": 261276620
      },
      "url": "https://www.semanticscholar.org/paper/236f834880d83dbc3b833c656a361e3f61c37b9c",
      "title": "Incorporating neuro-inspired adaptability for continual learning in artificial intelligence",
      "venue": "Nature Machine Intelligence",
      "year": 2023,
      "referenceCount": 84,
      "citationCount": 94,
      "authors": [
        {
          "authorId": "1390770350",
          "name": "Liyuan Wang"
        },
        {
          "authorId": "37409910",
          "name": "Xingxing Zhang"
        },
        {
          "authorId": "2117125722",
          "name": "Qian Li"
        },
        {
          "authorId": "2352035640",
          "name": "Mingtian Zhang"
        },
        {
          "authorId": "2093561216",
          "name": "Hang Su"
        },
        {
          "authorId": "145254043",
          "name": "Jun Zhu"
        },
        {
          "authorId": "2156196218",
          "name": "Yi Zhong"
        }
      ]
    },
    {
      "paperId": "4bb7383043ff6eddcaddc98f8c82af7e8ac2178e",
      "externalIds": {
        "DBLP": "journals/icl/GouCZXLW25",
        "DOI": "10.1109/LCOMM.2025.3586843",
        "CorpusId": 280165517
      },
      "url": "https://www.semanticscholar.org/paper/4bb7383043ff6eddcaddc98f8c82af7e8ac2178e",
      "title": "Synaptic Intelligence-Based Beam Selection in Dynamic Environments",
      "venue": "IEEE Communications Letters",
      "year": 2025,
      "referenceCount": 14,
      "citationCount": 0,
      "authors": [
        {
          "authorId": "2338299151",
          "name": "Yunwei Gou"
        },
        {
          "authorId": "2109277705",
          "name": "Yawen Chen"
        },
        {
          "authorId": "2338900343",
          "name": "Yifan Zhu"
        },
        {
          "authorId": "2151204369",
          "name": "Wan Xiang"
        },
        {
          "authorId": "2297422711",
          "name": "Zhaoming Lu"
        },
        {
          "authorId": "2270619757",
          "name": "Xiangming Wen"
        }
      ]
    },
    {
      "paperId": "14c11559b1bcdb70bedc972b566e9ebe1dba2954",
      "externalIds": {
        "DBLP": "journals/comintsys/FranciesKAA25",
        "DOI": "10.1007/s40747-025-02049-7",
        "CorpusId": 280841029
      },
      "url": "https://www.semanticscholar.org/paper/14c11559b1bcdb70bedc972b566e9ebe1dba2954",
      "title": "A framework for continual learning in real-time traffic forecasting utilizing spatial–temporal graph convolutional recurrent networks",
      "venue": "Complex & Intelligent Systems",
      "year": 2025,
      "referenceCount": 52,
      "citationCount": 4,
      "authors": [
        {
          "authorId": "2128287489",
          "name": "Mariam L. Francies"
        },
        {
          "authorId": "2298480098",
          "name": "A. T. Khalil"
        },
        {
          "authorId": "2313556145",
          "name": "Hanan M. Amer"
        },
        {
          "authorId": "36555872",
          "name": "M. M. Ata"
        }
      ]
    },
    {
      "paperId": "e871c78169d79a5624be5391312e2c375e7fde3a",
      "externalIds": {
        "ArXiv": "2509.15192",
        "DBLP": "journals/corr/abs-2509-15192",
        "DOI": "10.48550/arXiv.2509.15192",
        "CorpusId": 281394621
      },
      "url": "https://www.semanticscholar.org/paper/e871c78169d79a5624be5391312e2c375e7fde3a",
      "title": "Channel Prediction under Network Distribution Shift Using Continual Learning-based Loss Regularization",
      "venue": "IEEE International Conference on Acoustics, Speech, and Signal Processing",
      "year": 2025,
      "referenceCount": 16,
      "citationCount": 1,
      "authors": [
        {
          "authorId": "2340391104",
          "name": "M. Mohsin"
        },
        {
          "authorId": "2291290247",
          "name": "Muhammad Umer"
        },
        {
          "authorId": "2340393408",
          "name": "Ahsan Bilal"
        },
        {
          "authorId": "2381059416",
          "name": "Muhammad Ibtsaam Qadir"
        },
        {
          "authorId": "2054530",
          "name": "Muhammad Ali Jamshed"
        },
        {
          "authorId": "1694750",
          "name": "Dean Frederick Hougen"
        },
        {
          "authorId": "2265934488",
          "name": "J. Cioffi"
        }
      ]
    },
    {
      "paperId": "50cda8fdb0173c2643e80ce3e136cba52f66aab5",
      "externalIds": {
        "ArXiv": "2502.17168",
        "CorpusId": 276576258
      },
      "url": "https://www.semanticscholar.org/paper/50cda8fdb0173c2643e80ce3e136cba52f66aab5",
      "title": "Enabling Green Wireless Communications with Neuromorphic Continual Learning",
      "venue": "",
      "year": 2025,
      "referenceCount": 0,
      "citationCount": 2,
      "authors": [
        {
          "authorId": "2291443867",
          "name": "Yanzhen Liu"
        },
        {
          "authorId": "2347743279",
          "name": "Zhijin Qin"
        },
        {
          "authorId": "2345899543",
          "name": "Yongxu Zhu"
        },
        {
          "authorId": "2339726933",
          "name": "Geoffrey Ye Li"
        }
      ]
    },
    {
      "paperId": "b6fb216318bc265f6c667b44464ca13044d825dc",
      "externalIds": {
        "ArXiv": "2509.00047",
        "DBLP": "journals/corr/abs-2509-00047",
        "DOI": "10.48550/arXiv.2509.00047",
        "CorpusId": 281079228
      },
      "url": "https://www.semanticscholar.org/paper/b6fb216318bc265f6c667b44464ca13044d825dc",
      "title": "Teaching AI to Remember: Insights from Brain-Inspired Replay in Continual Learning",
      "venue": "arXiv.org",
      "year": 2025,
      "referenceCount": 14,
      "citationCount": 0,
      "authors": [
        {
          "authorId": "2378722934",
          "name": "Jina Kim"
        }
      ]
    }
  ]
}