{
  "total": 19,
  "offset": 0,
  "next": 10,
  "data": [
    {
      "paperId": "0679950558d72791f16031dd08c39367d8dd47b8",
      "externalIds": {
        "MAG": "2963023528",
        "ArXiv": "1802.09568",
        "DBLP": "journals/corr/abs-1802-09568",
        "CorpusId": 3585068
      },
      "url": "https://www.semanticscholar.org/paper/0679950558d72791f16031dd08c39367d8dd47b8",
      "title": "Shampoo: Preconditioned Stochastic Tensor Optimization",
      "venue": "International Conference on Machine Learning",
      "year": 2018,
      "referenceCount": 26,
      "citationCount": 366,
      "authors": [
        {
          "authorId": "50811638",
          "name": "Vineet Gupta"
        },
        {
          "authorId": "1711492",
          "name": "Tomer Koren"
        },
        {
          "authorId": "1740765",
          "name": "Y. Singer"
        }
      ]
    },
    {
      "paperId": "dbf2f56cd77cf334a8acf584ee3609d95e2d22c0",
      "externalIds": {
        "CorpusId": 64647990
      },
      "url": "https://www.semanticscholar.org/paper/dbf2f56cd77cf334a8acf584ee3609d95e2d22c0",
      "title": "L G ] 2 M ar 2 01 8 Shampoo : Preconditioned Stochastic Tensor Optimization",
      "venue": "",
      "year": 2018,
      "referenceCount": 24,
      "citationCount": 0,
      "authors": [
        {
          "authorId": "50811638",
          "name": "Vineet Gupta"
        },
        {
          "authorId": "1711492",
          "name": "Tomer Koren"
        },
        {
          "authorId": "1740765",
          "name": "Y. Singer"
        }
      ]
    },
    {
      "paperId": "ab23013e2eb2597178821215bd41795c38cc6c60",
      "externalIds": {
        "ArXiv": "2412.10663",
        "DBLP": "journals/corr/abs-2412-10663",
        "DOI": "10.48550/arXiv.2412.10663",
        "CorpusId": 274776182
      },
      "url": "https://www.semanticscholar.org/paper/ab23013e2eb2597178821215bd41795c38cc6c60",
      "title": "Memory-Efficient 4-bit Preconditioned Stochastic Optimization",
      "venue": "arXiv.org",
      "year": 2024,
      "referenceCount": 64,
      "citationCount": 3,
      "authors": [
        {
          "authorId": "2286987689",
          "name": "Jingyang Li"
        },
        {
          "authorId": "2211427982",
          "name": "Kuangyu Ding"
        },
        {
          "authorId": "2286880565",
          "name": "Kim-Chuan Toh"
        },
        {
          "authorId": "2287975517",
          "name": "Pan Zhou"
        }
      ]
    },
    {
      "paperId": "5f89518352e9825d9b92af5abb61930848d434ee",
      "externalIds": {
        "ArXiv": "2305.19416",
        "DBLP": "journals/corr/abs-2305-19416",
        "DOI": "10.48550/arXiv.2305.19416",
        "CorpusId": 258987429
      },
      "url": "https://www.semanticscholar.org/paper/5f89518352e9825d9b92af5abb61930848d434ee",
      "title": "KrADagrad: Kronecker Approximation-Domination Gradient Preconditioned Stochastic Optimization",
      "venue": "Conference on Uncertainty in Artificial Intelligence",
      "year": 2023,
      "referenceCount": 47,
      "citationCount": 1,
      "authors": [
        {
          "authorId": "2387786",
          "name": "Jonathan Mei"
        },
        {
          "authorId": "2075449839",
          "name": "Alexander Moreno"
        },
        {
          "authorId": "2217350396",
          "name": "Luke Walters"
        }
      ]
    },
    {
      "paperId": "642caa72f7023018e804f32cb3d493ad4fa64603",
      "externalIds": {
        "ArXiv": "2303.16492",
        "DBLP": "journals/corr/abs-2303-16492",
        "DOI": "10.48550/arXiv.2303.16492",
        "CorpusId": 257805128
      },
      "url": "https://www.semanticscholar.org/paper/642caa72f7023018e804f32cb3d493ad4fa64603",
      "title": "Block-Randomized Stochastic Methods for Tensor Ring Decomposition",
      "venue": "arXiv.org",
      "year": 2023,
      "referenceCount": 24,
      "citationCount": 2,
      "authors": [
        {
          "authorId": "2108559331",
          "name": "Yajie Yu"
        },
        {
          "authorId": "119886096",
          "name": "Hanyu Li"
        },
        {
          "authorId": "2175579884",
          "name": "Jingchu Zhou"
        }
      ]
    },
    {
      "paperId": "3490a9a8926a9ff8298703b87cf308150205a0d6",
      "externalIds": {
        "CorpusId": 286158783
      },
      "url": "https://www.semanticscholar.org/paper/3490a9a8926a9ff8298703b87cf308150205a0d6",
      "title": "Memory-Efﬁcient 4-bit Preconditioned Stochastic Optimization",
      "venue": "",
      "year": null,
      "referenceCount": 65,
      "citationCount": 0,
      "authors": [
        {
          "authorId": "2286987689",
          "name": "Jingyang Li"
        },
        {
          "authorId": "2211427982",
          "name": "Kuangyu Ding"
        },
        {
          "authorId": "2286880565",
          "name": "Kim-Chuan Toh"
        },
        {
          "authorId": "2287975517",
          "name": "Pan Zhou"
        }
      ]
    },
    {
      "paperId": "5deb716c6bfcbc0b9f45b090c5bfe6c1abba1e34",
      "externalIds": {
        "DOI": "10.1109/DCNA67486.2025.11199920",
        "CorpusId": 282257032
      },
      "url": "https://www.semanticscholar.org/paper/5deb716c6bfcbc0b9f45b090c5bfe6c1abba1e34",
      "title": "Trade-Off Between Memory Usage and Optimization Speed in a Simple Machine Learning Task",
      "venue": "2025 9th Scientific School Dynamics of Complex Networks and their Applications (DCNA)",
      "year": 2025,
      "referenceCount": 4,
      "citationCount": 0,
      "authors": [
        {
          "authorId": "2313007515",
          "name": "Oleg Goryunov"
        },
        {
          "authorId": "2202684240",
          "name": "I. Soloviev"
        },
        {
          "authorId": "2386888093",
          "name": "Vladimir Klinshov"
        }
      ]
    },
    {
      "paperId": "8bb2182c143049705befeee5d8b594a512a2f40b",
      "externalIds": {
        "DBLP": "journals/corr/abs-2111-05180",
        "ArXiv": "2111.05180",
        "DOI": "10.1002/nla.2481",
        "CorpusId": 243861001
      },
      "url": "https://www.semanticscholar.org/paper/8bb2182c143049705befeee5d8b594a512a2f40b",
      "title": "TTRISK: Tensor train decomposition algorithm for risk averse optimization",
      "venue": "Numerical Linear Algebra with Applications",
      "year": 2021,
      "referenceCount": 46,
      "citationCount": 15,
      "authors": [
        {
          "authorId": "2360634",
          "name": "H. Antil"
        },
        {
          "authorId": "6597626",
          "name": "S. Dolgov"
        },
        {
          "authorId": "3437633",
          "name": "Akwum Onwunta"
        }
      ]
    },
    {
      "paperId": "6ffe9688e4c3ff3f4c254417b32274d9f90bde68",
      "externalIds": {
        "DBLP": "journals/corr/abs-2309-06497",
        "ArXiv": "2309.06497",
        "DOI": "10.48550/arXiv.2309.06497",
        "CorpusId": 261706041
      },
      "url": "https://www.semanticscholar.org/paper/6ffe9688e4c3ff3f4c254417b32274d9f90bde68",
      "title": "A Distributed Data-Parallel PyTorch Implementation of the Distributed Shampoo Optimizer for Training Neural Networks At-Scale",
      "venue": "arXiv.org",
      "year": 2023,
      "referenceCount": 85,
      "citationCount": 56,
      "authors": [
        {
          "authorId": "2239744725",
          "name": "H. Shi"
        },
        {
          "authorId": "2239411071",
          "name": "Tsung-Hsien Lee"
        },
        {
          "authorId": "3451002",
          "name": "Shintaro Iwasaki"
        },
        {
          "authorId": "1410596066",
          "name": "Jose Gallego-Posada"
        },
        {
          "authorId": "2239393485",
          "name": "Zhijing Li"
        },
        {
          "authorId": "19253234",
          "name": "Kaushik Rangadurai"
        },
        {
          "authorId": "2205699",
          "name": "Dheevatsa Mudigere"
        },
        {
          "authorId": "2284991448",
          "name": "Michael Rabbat"
        }
      ]
    },
    {
      "paperId": "61aca02b344fea0095a517deb9ada64ee73d6e0e",
      "externalIds": {
        "ArXiv": "1605.08257",
        "DBLP": "conf/icml/KasaiM16",
        "MAG": "2407024508",
        "CorpusId": 15069841
      },
      "url": "https://www.semanticscholar.org/paper/61aca02b344fea0095a517deb9ada64ee73d6e0e",
      "title": "Low-rank tensor completion: a Riemannian manifold preconditioning approach",
      "venue": "International Conference on Machine Learning",
      "year": 2016,
      "referenceCount": 31,
      "citationCount": 127,
      "authors": [
        {
          "authorId": "2061436080",
          "name": "Hiroyuki Kasai"
        },
        {
          "authorId": "37585320",
          "name": "Bamdev Mishra"
        }
      ]
    }
  ]
}