{
  "total": 133,
  "offset": 0,
  "next": 10,
  "data": [
    {
      "paperId": "63c957063c68b08df717c6d479970af66b270f48",
      "externalIds": {
        "DBLP": "conf/icml/WuS15",
        "MAG": "1659646057",
        "CorpusId": 6753649
      },
      "url": "https://www.semanticscholar.org/paper/63c957063c68b08df717c6d479970af66b270f48",
      "title": "An Online Learning Algorithm for Bilinear Models",
      "venue": "International Conference on Machine Learning",
      "year": 2015,
      "referenceCount": 27,
      "citationCount": 3,
      "authors": [
        {
          "authorId": "3174675",
          "name": "Yuanbin Wu"
        },
        {
          "authorId": "20632291",
          "name": "Shiliang Sun"
        }
      ]
    },
    {
      "paperId": "53a61a580b2d491858cd9f9928a03ebf434b55ec",
      "externalIds": {
        "ArXiv": "1804.10328",
        "DBLP": "journals/corr/abs-1804-10328",
        "MAG": "2798543980",
        "CorpusId": 13749619
      },
      "url": "https://www.semanticscholar.org/paper/53a61a580b2d491858cd9f9928a03ebf434b55ec",
      "title": "Scalable Bilinear π Learning Using State and Action Features",
      "venue": "International Conference on Machine Learning",
      "year": 2018,
      "referenceCount": 45,
      "citationCount": 47,
      "authors": [
        {
          "authorId": "6130810",
          "name": "Yichen Chen"
        },
        {
          "authorId": "47681372",
          "name": "Lihong Li"
        },
        {
          "authorId": "145731462",
          "name": "Mengdi Wang"
        }
      ]
    },
    {
      "paperId": "a3e62eb57cc3295068e268cf84186685dd719c10",
      "externalIds": {
        "DBLP": "journals/nca/ZulaikaAL23",
        "DOI": "10.1007/s00521-022-07796-z",
        "CorpusId": 252457782
      },
      "url": "https://www.semanticscholar.org/paper/a3e62eb57cc3295068e268cf84186685dd719c10",
      "title": "Regularized online tensor factorization for sparse knowledge graph embeddings",
      "venue": "Neural computing & applications (Print)",
      "year": 2022,
      "referenceCount": 50,
      "citationCount": 6,
      "authors": [
        {
          "authorId": "1415014186",
          "name": "U. Zulaika"
        },
        {
          "authorId": "1725530",
          "name": "Aitor Almeida"
        },
        {
          "authorId": "1383994527",
          "name": "D. López-de-Ipiña"
        }
      ]
    },
    {
      "paperId": "1f70a0c541fd4472858da1031bf4e0c4da5f11e3",
      "externalIds": {
        "MAG": "2025619168",
        "DBLP": "journals/ijon/WangCX11",
        "DOI": "10.1016/j.neucom.2010.11.020",
        "CorpusId": 207102047
      },
      "url": "https://www.semanticscholar.org/paper/1f70a0c541fd4472858da1031bf4e0c4da5f11e3",
      "title": "Adaptive multi-cue tracking by online appearance learning",
      "venue": "Neurocomputing",
      "year": 2011,
      "referenceCount": 31,
      "citationCount": 10,
      "authors": [
        {
          "authorId": "2145463935",
          "name": "Qing Wang"
        },
        {
          "authorId": "50613814",
          "name": "Feng Chen"
        },
        {
          "authorId": "1779759",
          "name": "Wenli Xu"
        }
      ]
    },
    {
      "paperId": "e7e9a228d1562ea991a31ecdd2c10163a95fe7d1",
      "externalIds": {
        "MAG": "2323684557",
        "DBLP": "journals/ijon/ZhouYS16",
        "DOI": "10.1016/j.neucom.2016.02.039",
        "CorpusId": 32506606
      },
      "url": "https://www.semanticscholar.org/paper/e7e9a228d1562ea991a31ecdd2c10163a95fe7d1",
      "title": "Kinship verification from facial images by scalable similarity fusion",
      "venue": "Neurocomputing",
      "year": 2016,
      "referenceCount": 43,
      "citationCount": 48,
      "authors": [
        {
          "authorId": "3353607",
          "name": "Xiuzhuang Zhou"
        },
        {
          "authorId": "2859196",
          "name": "Haibin Yan"
        },
        {
          "authorId": "47706545",
          "name": "Yuanyuan Shang"
        }
      ]
    },
    {
      "paperId": "62774d8c8917844177c7c5ef546b39c1fc4ba768",
      "externalIds": {
        "MAG": "2349137024",
        "CorpusId": 123444422
      },
      "url": "https://www.semanticscholar.org/paper/62774d8c8917844177c7c5ef546b39c1fc4ba768",
      "title": "Object Joint Optimization Tracking Based on Gray-Level Co-Occurrence and Multi-Clues",
      "venue": "",
      "year": 2016,
      "referenceCount": 0,
      "citationCount": 0,
      "authors": [
        {
          "authorId": "2086411176",
          "name": "Jin Guang-zh"
        }
      ]
    },
    {
      "paperId": "0b361354ecc0a8c8d9cbce2f3159565d9d991251",
      "externalIds": {
        "DOI": "10.3390/asi7030040",
        "CorpusId": 269852670
      },
      "url": "https://www.semanticscholar.org/paper/0b361354ecc0a8c8d9cbce2f3159565d9d991251",
      "title": "Online Prediction Method of Transmission Line Icing Based on Robust Seasonal Decomposition of Time Series and Bilinear Temporal–Spectral Fusion and Improved Beluga Whale Optimization Algorithm–Least Squares Support Vector Regression",
      "venue": "Applied System Innovation",
      "year": 2024,
      "referenceCount": 22,
      "citationCount": 3,
      "authors": [
        {
          "authorId": "2279069020",
          "name": "Qiang Li"
        },
        {
          "authorId": "2278860403",
          "name": "Xiao Liao"
        },
        {
          "authorId": "2290086780",
          "name": "Wei Cui"
        },
        {
          "authorId": "2302155456",
          "name": "Ying Wang"
        },
        {
          "authorId": "2278970474",
          "name": "Hui Cao"
        },
        {
          "authorId": "2302133648",
          "name": "Xianjing Zhong"
        }
      ]
    },
    {
      "paperId": "8a33ee9c96e292f8a4d9941f7d9d5f5368320775",
      "externalIds": {
        "DBLP": "conf/icra/WangNLZ24",
        "DOI": "10.1109/ICRA57147.2024.10610765",
        "CorpusId": 271798121
      },
      "url": "https://www.semanticscholar.org/paper/8a33ee9c96e292f8a4d9941f7d9d5f5368320775",
      "title": "Online-Learning-Based Distributionally Robust Motion Control with Collision Avoidance for Mobile Robots",
      "venue": "IEEE International Conference on Robotics and Automation",
      "year": 2024,
      "referenceCount": 14,
      "citationCount": 1,
      "authors": [
        {
          "authorId": "2281481121",
          "name": "Han Wang"
        },
        {
          "authorId": "2242969177",
          "name": "Chao Ning"
        },
        {
          "authorId": "2111942220",
          "name": "Longyan Li"
        },
        {
          "authorId": "2252994450",
          "name": "Weidong Zhang"
        }
      ]
    },
    {
      "paperId": "595465ecf1b0fe223e7d49944d06fdf1213b28ca",
      "externalIds": {
        "ArXiv": "2506.18186",
        "DBLP": "journals/corr/abs-2506-18186",
        "DOI": "10.48550/arXiv.2506.18186",
        "CorpusId": 280000479
      },
      "url": "https://www.semanticscholar.org/paper/595465ecf1b0fe223e7d49944d06fdf1213b28ca",
      "title": "Online Learning of Whittle Indices for Restless Bandits with Non-Stationary Transition Kernels",
      "venue": "arXiv.org",
      "year": 2025,
      "referenceCount": 60,
      "citationCount": 1,
      "authors": [
        {
          "authorId": "32367213",
          "name": "Md Kamran Chowdhury Shisher"
        },
        {
          "authorId": "32119872",
          "name": "Vishrant Tripathi"
        },
        {
          "authorId": "2265579214",
          "name": "Mung Chiang"
        },
        {
          "authorId": "2338002455",
          "name": "Christopher G. Brinton"
        }
      ]
    },
    {
      "paperId": "7d86632a0ccc0ee0c672e2ac44a8b495292df436",
      "externalIds": {
        "DBLP": "journals/access/ZhouZD20",
        "MAG": "3015108600",
        "DOI": "10.1109/ACCESS.2020.2984319",
        "CorpusId": 215799760
      },
      "url": "https://www.semanticscholar.org/paper/7d86632a0ccc0ee0c672e2ac44a8b495292df436",
      "title": "Recursive Learning-Based Bilinear Subspace Identification for Online Modeling and Predictive Control of a Complicated Industrial Process",
      "venue": "IEEE Access",
      "year": 2020,
      "referenceCount": 29,
      "citationCount": 10,
      "authors": [
        {
          "authorId": "144255239",
          "name": "P. Zhou"
        },
        {
          "authorId": "2108432758",
          "name": "Shuai Zhang"
        },
        {
          "authorId": "144089558",
          "name": "Peng-jie Dai"
        }
      ]
    }
  ]
}