{
  "total": 22,
  "offset": 0,
  "next": 10,
  "data": [
    {
      "paperId": "f7484ba4a4b00d01a44cc7e29fdf3045823aa5cf",
      "externalIds": {
        "MAG": "1838272156",
        "DBLP": "conf/icml/WangLWC15",
        "CorpusId": 15780635
      },
      "url": "https://www.semanticscholar.org/paper/f7484ba4a4b00d01a44cc7e29fdf3045823aa5cf",
      "title": "Metadata Dependent Mondrian Processes",
      "venue": "International Conference on Machine Learning",
      "year": 2015,
      "referenceCount": 28,
      "citationCount": 9,
      "authors": [
        {
          "authorId": "2154457821",
          "name": "Yi Wang"
        },
        {
          "authorId": "2156072019",
          "name": "Bin Li"
        },
        {
          "authorId": "46396571",
          "name": "Yang Wang"
        },
        {
          "authorId": "2149500683",
          "name": "Fang Chen"
        }
      ]
    },
    {
      "paperId": "fbb3b3c88a21bd8288ec6e69442e911ddfbe800f",
      "externalIds": {
        "MAG": "1969118544",
        "DBLP": "journals/ijcisys/ZhuWZL15",
        "DOI": "10.1080/18756891.2015.1023588",
        "CorpusId": 4961247
      },
      "url": "https://www.semanticscholar.org/paper/fbb3b3c88a21bd8288ec6e69442e911ddfbe800f",
      "title": "A Supervised Requirement-oriented Patent Classification Scheme Based on the Combination of Metadata and Citation Information",
      "venue": "International Journal of Computational Intelligence Systems",
      "year": 2015,
      "referenceCount": 37,
      "citationCount": 13,
      "authors": [
        {
          "authorId": "3248841",
          "name": "Fujin Zhu"
        },
        {
          "authorId": "2108196738",
          "name": "Xuefeng Wang"
        },
        {
          "authorId": "2228972",
          "name": "Donghua Zhu"
        },
        {
          "authorId": "49421138",
          "name": "Yuqin Liu"
        }
      ]
    },
    {
      "paperId": "d1d6d268654525e86b33425c94200c9869f9e0bc",
      "externalIds": {
        "DBLP": "conf/ecbs/RastocnyB15",
        "MAG": "1656425925",
        "DOI": "10.1109/ECBS-EERC.2015.13",
        "CorpusId": 18114583
      },
      "url": "https://www.semanticscholar.org/paper/d1d6d268654525e86b33425c94200c9869f9e0bc",
      "title": "Empirical Metadata Maintenance in Source Code Development Process",
      "venue": "2015 4th Eastern European Regional Conference on the Engineering of Computer Based Systems",
      "year": 2015,
      "referenceCount": 20,
      "citationCount": 2,
      "authors": [
        {
          "authorId": "1760200",
          "name": "K. Rástočný"
        },
        {
          "authorId": "1726847",
          "name": "Maria Bielikova"
        }
      ]
    },
    {
      "paperId": "e12b5363078a6d435bfba80e9d5cbab6b2cac897",
      "externalIds": {
        "MAG": "2499741213",
        "DOI": "10.11588/DAH.2015.1.21631",
        "CorpusId": 193379638
      },
      "url": "https://www.semanticscholar.org/paper/e12b5363078a6d435bfba80e9d5cbab6b2cac897",
      "title": "Data Science and Digital Art History",
      "venue": "",
      "year": 2015,
      "referenceCount": 0,
      "citationCount": 98,
      "authors": [
        {
          "authorId": "2895132",
          "name": "Lev Manovich"
        }
      ]
    },
    {
      "paperId": "34825ec5e7a3a5be63e67bd724ad23931b8f3b41",
      "externalIds": {
        "MAG": "2139632129",
        "DOI": "10.1002/hbm.22703",
        "CorpusId": 7278876,
        "PubMed": "25482016"
      },
      "url": "https://www.semanticscholar.org/paper/34825ec5e7a3a5be63e67bd724ad23931b8f3b41",
      "title": "Functional connectivity mapping of regions associated with self‐ and other‐processing",
      "venue": "Human Brain Mapping",
      "year": 2015,
      "referenceCount": 158,
      "citationCount": 129,
      "authors": [
        {
          "authorId": "34646013",
          "name": "Ryan J. Murray"
        },
        {
          "authorId": "2474372",
          "name": "M. Debbané"
        },
        {
          "authorId": "1690619",
          "name": "P. Fox"
        },
        {
          "authorId": "1700231",
          "name": "D. Bzdok"
        },
        {
          "authorId": "1717616",
          "name": "S. Eickhoff"
        }
      ]
    },
    {
      "paperId": "5cb7f1875e8106933d3acfb40158097c3caf9eb1",
      "externalIds": {
        "DBLP": "journals/chinaf/WangHCXWC15",
        "MAG": "2294996473",
        "DOI": "10.1007/s11432-015-5403-x",
        "CorpusId": 6348969
      },
      "url": "https://www.semanticscholar.org/paper/5cb7f1875e8106933d3acfb40158097c3caf9eb1",
      "title": "Spatio-temporal enabled urban decision-making process modeling and visualization under the cyber-physical environment",
      "venue": "Science China Information Sciences",
      "year": 2015,
      "referenceCount": 23,
      "citationCount": 9,
      "authors": [
        {
          "authorId": "46314517",
          "name": "Wei Wang"
        },
        {
          "authorId": "120583544",
          "name": "Chuanbo Hu"
        },
        {
          "authorId": "7700987",
          "name": "Nengcheng Chen"
        },
        {
          "authorId": "8468924",
          "name": "C. Xiao"
        },
        {
          "authorId": "2144446949",
          "name": "Chao Wang"
        },
        {
          "authorId": "48354580",
          "name": "Zeqiang Chen"
        }
      ]
    },
    {
      "paperId": "51a09227f314fb2d42a7526b40e292e5bbc4b00c",
      "externalIds": {
        "CorpusId": 17780178
      },
      "url": "https://www.semanticscholar.org/paper/51a09227f314fb2d42a7526b40e292e5bbc4b00c",
      "title": "MODELLING : AN EFFICIENT APPROACH FOR CREATING SPATIOTEMPORAL PREDICTIVE 3 D MAPS OF LARGE-SCALE CULTURAL RESOURCES",
      "venue": "",
      "year": 2015,
      "referenceCount": 14,
      "citationCount": 45,
      "authors": [
        {
          "authorId": "1746705",
          "name": "A. Doulamis"
        },
        {
          "authorId": "120205775",
          "name": "N. Doulamis"
        },
        {
          "authorId": "1861698",
          "name": "C. Ioannidis"
        },
        {
          "authorId": "1709809",
          "name": "C. Chrysouli"
        },
        {
          "authorId": "102852188",
          "name": "N. Grammalidis"
        },
        {
          "authorId": "2296506",
          "name": "K. Dimitropoulos"
        },
        {
          "authorId": "2736220",
          "name": "C. Potsiou"
        },
        {
          "authorId": "34857132",
          "name": "Elisavet (Ellie) Konstantina Stathopoulou"
        },
        {
          "authorId": "39772191",
          "name": "M. Ioannides"
        }
      ]
    },
    {
      "paperId": "66a71db51129c02cf5a9e56b2132e47f1d5466f3",
      "externalIds": {
        "MAG": "2402502812",
        "DOI": "10.18260/p.23554",
        "CorpusId": 7915369
      },
      "url": "https://www.semanticscholar.org/paper/66a71db51129c02cf5a9e56b2132e47f1d5466f3",
      "title": "Analyzing Data Management Plans: Where Librarians Can Make a Difference",
      "venue": "",
      "year": 2015,
      "referenceCount": 27,
      "citationCount": 11,
      "authors": [
        {
          "authorId": "46555882",
          "name": "S. Samuel"
        },
        {
          "authorId": "50611656",
          "name": "P. Grochowski"
        },
        {
          "authorId": "72703561",
          "name": "L. Lalwani"
        },
        {
          "authorId": "2053899744",
          "name": "Jake Carlson"
        }
      ]
    },
    {
      "paperId": "6918edf7da4b61e075a3646f78ee35e8b9ff677e",
      "externalIds": {
        "MAG": "1659407333",
        "CorpusId": 60937513
      },
      "url": "https://www.semanticscholar.org/paper/6918edf7da4b61e075a3646f78ee35e8b9ff677e",
      "title": "Big data, brand loyalty, and business models : accounting for imprecision and noise in consumer preferences",
      "venue": "",
      "year": 2015,
      "referenceCount": 16,
      "citationCount": 0,
      "authors": [
        {
          "authorId": "3493599",
          "name": "Ganna Pogrebna"
        }
      ]
    },
    {
      "paperId": "51ca989f64e9da50dcc26e736d387d1d9d8c5c14",
      "externalIds": {
        "DBLP": "conf/webi/GullandMW15",
        "MAG": "2286170196",
        "DOI": "10.1109/WI-IAT.2015.53",
        "CorpusId": 9696755
      },
      "url": "https://www.semanticscholar.org/paper/51ca989f64e9da50dcc26e736d387d1d9d8c5c14",
      "title": "Automated Calculation of Term Relatedness Weights for Semantic Searches",
      "venue": "2015 IEEE/WIC/ACM International Conference on Web Intelligence and Intelligent Agent Technology (WI-IAT)",
      "year": 2015,
      "referenceCount": 23,
      "citationCount": 1,
      "authors": [
        {
          "authorId": "41184884",
          "name": "E. Gulland"
        },
        {
          "authorId": "2951873",
          "name": "Simon Moncrieff"
        },
        {
          "authorId": "145227675",
          "name": "G. West"
        }
      ]
    }
  ]
}