{
  "total": 45592,
  "offset": 0,
  "next": 10,
  "data": [
    {
      "paperId": "1363cc4630aab752c1d7dfea51579d310e2c0935",
      "externalIds": {
        "DBLP": "conf/icml/KalimerisSSW18",
        "MAG": "2804529731",
        "CorpusId": 51880994
      },
      "url": "https://www.semanticscholar.org/paper/1363cc4630aab752c1d7dfea51579d310e2c0935",
      "title": "Learning Diffusion using Hyperparameters",
      "venue": "International Conference on Machine Learning",
      "year": 2018,
      "referenceCount": 23,
      "citationCount": 31,
      "authors": [
        {
          "authorId": "2543788",
          "name": "Dimitris Kalimeris"
        },
        {
          "authorId": "1778763",
          "name": "Yaron Singer"
        },
        {
          "authorId": "2691095",
          "name": "Karthik Subbian"
        },
        {
          "authorId": "2714236",
          "name": "Udi Weinsberg"
        }
      ]
    },
    {
      "paperId": "ad1db2c735b68f5e9efaeb0180b0bf46f4628fe4",
      "externalIds": {
        "CorpusId": 53321257
      },
      "url": "https://www.semanticscholar.org/paper/ad1db2c735b68f5e9efaeb0180b0bf46f4628fe4",
      "title": "Learning Diffusion using Hyperparameters",
      "venue": "",
      "year": 2018,
      "referenceCount": 0,
      "citationCount": 0,
      "authors": [
        {
          "authorId": "2078837640",
          "name": "A. T. Hyperparametric"
        }
      ]
    },
    {
      "paperId": "8ae81c4d9b14bb2db6b7cbe1ea8749f821ef941a",
      "externalIds": {
        "DOI": "10.2166/wpt.2025.133",
        "CorpusId": 282913902
      },
      "url": "https://www.semanticscholar.org/paper/8ae81c4d9b14bb2db6b7cbe1ea8749f821ef941a",
      "title": "Enhancing dam inflow forecasting using hybrid deep learning and diffusion models: a case study on the Malampuzha dam",
      "venue": "Water Practice &amp; Technology",
      "year": 2025,
      "referenceCount": 0,
      "citationCount": 0,
      "authors": [
        {
          "authorId": "2391731141",
          "name": "N. C. M."
        },
        {
          "authorId": "2281352267",
          "name": "N. Thangarasu"
        }
      ]
    },
    {
      "paperId": "41fceb98911815869a296d62f018558bf29e979c",
      "externalIds": {
        "PubMedCentral": "11085799",
        "DOI": "10.3390/polym16091204",
        "CorpusId": 269425200,
        "PubMed": "38732673"
      },
      "url": "https://www.semanticscholar.org/paper/41fceb98911815869a296d62f018558bf29e979c",
      "title": "Predicting Diffusion Coefficients in Nafion Membranes during the Soaking Process Using a Machine Learning Approach",
      "venue": "Polymers",
      "year": 2024,
      "referenceCount": 90,
      "citationCount": 3,
      "authors": [
        {
          "authorId": "2277070408",
          "name": "I. Malashin"
        },
        {
          "authorId": "2164934823",
          "name": "D. Daibagya"
        },
        {
          "authorId": "2221900951",
          "name": "V. Tynchenko"
        },
        {
          "authorId": "2258475619",
          "name": "Andrei P. Gantimurov"
        },
        {
          "authorId": "2284907687",
          "name": "V. Nelyub"
        },
        {
          "authorId": "2277068250",
          "name": "A. Borodulin"
        }
      ]
    },
    {
      "paperId": "e55de5dce1b87c73a825b1a5c5f5375f5dbb50f4",
      "externalIds": {
        "DOI": "10.1016/j.scitotenv.2024.174363",
        "CorpusId": 270903988,
        "PubMed": "38960196"
      },
      "url": "https://www.semanticscholar.org/paper/e55de5dce1b87c73a825b1a5c5f5375f5dbb50f4",
      "title": "Predicting anion diffusion in bentonite using hybrid machine learning model and correlation of physical quantities.",
      "venue": "Science of the Total Environment",
      "year": 2024,
      "referenceCount": 0,
      "citationCount": 9,
      "authors": [
        {
          "authorId": "2282942295",
          "name": "Tao Wu"
        },
        {
          "authorId": "2283267033",
          "name": "Junlei Tian"
        },
        {
          "authorId": "2283143518",
          "name": "Xiaoqiong Shi"
        },
        {
          "authorId": "2307389213",
          "name": "Zhilong Li"
        },
        {
          "authorId": "2309664502",
          "name": "Jiaxing Feng"
        },
        {
          "authorId": "2309410461",
          "name": "Zhengye Feng"
        },
        {
          "authorId": "2307313996",
          "name": "Qingfeng Li"
        }
      ]
    },
    {
      "paperId": "8899a55b0db3d1305ad380db5cbe8408972cf294",
      "externalIds": {
        "DBLP": "conf/nips/Denker0PDMBDMKL24",
        "ArXiv": "2406.01781",
        "DOI": "10.52202/079017-0620",
        "CorpusId": 270226583
      },
      "url": "https://www.semanticscholar.org/paper/8899a55b0db3d1305ad380db5cbe8408972cf294",
      "title": "DEFT: Efficient Fine-tuning of Diffusion Models by Learning the Generalised $h$-transform",
      "venue": "Neural Information Processing Systems",
      "year": 2024,
      "referenceCount": 84,
      "citationCount": 31,
      "authors": [
        {
          "authorId": "2071691141",
          "name": "Alexander Denker"
        },
        {
          "authorId": "2274102606",
          "name": "Francisco Vargas"
        },
        {
          "authorId": "151216770",
          "name": "Shreyas Padhy"
        },
        {
          "authorId": "2154776505",
          "name": "Kieran Didi"
        },
        {
          "authorId": "2054235048",
          "name": "Simon V. Mathis"
        },
        {
          "authorId": "2274102779",
          "name": "Vincent Dutordoir"
        },
        {
          "authorId": "1823519091",
          "name": "Riccardo Barbano"
        },
        {
          "authorId": "2274102454",
          "name": "Emile Mathieu"
        },
        {
          "authorId": "2204759203",
          "name": "U. J. Komorowska"
        },
        {
          "authorId": "2344757609",
          "name": "Pietro Lio"
        }
      ]
    },
    {
      "paperId": "09b679ae3d0e51ace4ea1625dfa32ebc37d6f60b",
      "externalIds": {
        "DBLP": "conf/wacv/AsakuraIS25",
        "DOI": "10.1109/WACV61041.2025.00864",
        "CorpusId": 277186677
      },
      "url": "https://www.semanticscholar.org/paper/09b679ae3d0e51ace4ea1625dfa32ebc37d6f60b",
      "title": "Diffusion-Based Generative Regularization for Supervised Discriminative Learning",
      "venue": "IEEE Workshop/Winter Conference on Applications of Computer Vision",
      "year": 2025,
      "referenceCount": 102,
      "citationCount": 0,
      "authors": [
        {
          "authorId": "2103331731",
          "name": "Takuya Asakura"
        },
        {
          "authorId": "1718406",
          "name": "Nakamasa Inoue"
        },
        {
          "authorId": "2257236296",
          "name": "Koichi Shinoda"
        }
      ]
    },
    {
      "paperId": "3cb8d21040b9510db75b37e0270e34136df65371",
      "externalIds": {
        "PubMedCentral": "12913653",
        "DOI": "10.1038/s41598-026-37699-1",
        "CorpusId": 285183118,
        "PubMed": "41617772"
      },
      "url": "https://www.semanticscholar.org/paper/3cb8d21040b9510db75b37e0270e34136df65371",
      "title": "Dynamic community detection using class preserving time series generation with Fourier Markov diffusion",
      "venue": "Scientific Reports",
      "year": 2026,
      "referenceCount": 43,
      "citationCount": 1,
      "authors": [
        {
          "authorId": "2378114908",
          "name": "Yanfei Ma"
        },
        {
          "authorId": "2377861376",
          "name": "Daozheng Qu"
        },
        {
          "authorId": "2403626749",
          "name": "Yibo Wang"
        }
      ]
    },
    {
      "paperId": "d138c64c9688b5fb63cc2382fc6c57d222eaf46d",
      "externalIds": {
        "DOI": "10.1029/2024GL114298",
        "CorpusId": 276206129
      },
      "url": "https://www.semanticscholar.org/paper/d138c64c9688b5fb63cc2382fc6c57d222eaf46d",
      "title": "Toward Artificial General Intelligence in Hydrogeological Modeling With an Integrated Latent Diffusion Framework",
      "venue": "Geophysical Research Letters",
      "year": 2025,
      "referenceCount": 41,
      "citationCount": 10,
      "authors": [
        {
          "authorId": "28058136",
          "name": "Chuanjun Zhan"
        },
        {
          "authorId": "2239611336",
          "name": "Zhenxue Dai"
        },
        {
          "authorId": "94288274",
          "name": "J. Jiao"
        },
        {
          "authorId": "39722659",
          "name": "M. Soltanian"
        },
        {
          "authorId": "2113973466",
          "name": "Huichao Yin"
        },
        {
          "authorId": "2298646654",
          "name": "K. Carroll"
        }
      ]
    },
    {
      "paperId": "14695c6d2f27626d3dcc626f9dbe3d862aa7b399",
      "externalIds": {
        "DOI": "10.1109/ICICML67980.2025.11333452",
        "CorpusId": 284906295
      },
      "url": "https://www.semanticscholar.org/paper/14695c6d2f27626d3dcc626f9dbe3d862aa7b399",
      "title": "Balancing Clarity and Diversity in Image Generation: Insights from Classifier-Free Guided Diffusion Models",
      "venue": "2025 4th International Conference on Image Processing, Computer Vision and Machine Learning (ICICML)",
      "year": 2025,
      "referenceCount": 18,
      "citationCount": 0,
      "authors": [
        {
          "authorId": "2346424387",
          "name": "Ting Qiao"
        }
      ]
    }
  ]
}