{
  "total": 13,
  "offset": 0,
  "next": 10,
  "data": [
    {
      "paperId": "cd07eebf5dd38a72ea26a7901a908868b34a7c78",
      "externalIds": {
        "DBLP": "conf/icml/BalleM17",
        "MAG": "2740540418",
        "CorpusId": 22620856
      },
      "url": "https://www.semanticscholar.org/paper/cd07eebf5dd38a72ea26a7901a908868b34a7c78",
      "title": "Spectral Learning from a Single Trajectory under Finite-State Policies",
      "venue": "International Conference on Machine Learning",
      "year": 2017,
      "referenceCount": 38,
      "citationCount": 4,
      "authors": [
        {
          "authorId": "1718064",
          "name": "Borja Balle"
        },
        {
          "authorId": "1794867",
          "name": "Odalric-Ambrym Maillard"
        }
      ]
    },
    {
      "paperId": "b1747e706d216d184830b108532b77cff01432bd",
      "externalIds": {
        "ArXiv": "2604.01024",
        "CorpusId": 287023389
      },
      "url": "https://www.semanticscholar.org/paper/b1747e706d216d184830b108532b77cff01432bd",
      "title": "Model-Based Learning of Near-Optimal Finite-Window Policies in POMDPs",
      "venue": "",
      "year": 2026,
      "referenceCount": 21,
      "citationCount": 0,
      "authors": [
        {
          "authorId": "2070084966",
          "name": "P. Jordan"
        },
        {
          "authorId": "2267831670",
          "name": "Maryam Kamgarpour"
        }
      ]
    },
    {
      "paperId": "5033b4da2439851555528e2985579e60051d062d",
      "externalIds": {
        "DBLP": "conf/aistats/ZengBKG25",
        "ArXiv": "2408.04780",
        "CorpusId": 271843278
      },
      "url": "https://www.semanticscholar.org/paper/5033b4da2439851555528e2985579e60051d062d",
      "title": "Learning in Herding Mean Field Games: Single-Loop Algorithm with Finite-Time Convergence Analysis",
      "venue": "International Conference on Artificial Intelligence and Statistics",
      "year": 2024,
      "referenceCount": 48,
      "citationCount": 3,
      "authors": [
        {
          "authorId": "2267343040",
          "name": "Sihan Zeng"
        },
        {
          "authorId": "2267342140",
          "name": "Sujay Bhatt"
        },
        {
          "authorId": "2267340621",
          "name": "Alec Koppel"
        },
        {
          "authorId": "2283031189",
          "name": "Sumitra Ganesh"
        }
      ]
    },
    {
      "paperId": "2f65669fe02a3a7350825bfe8ee67935b8329346",
      "externalIds": {
        "DBLP": "journals/tmlr/SowmyaKJ26",
        "CorpusId": 285167884
      },
      "url": "https://www.semanticscholar.org/paper/2f65669fe02a3a7350825bfe8ee67935b8329346",
      "title": "Mitigating Steady-State Bias in Off-Policy TD Learning via Distributional Correction",
      "venue": "Trans. Mach. Learn. Res.",
      "year": 2026,
      "referenceCount": 41,
      "citationCount": 0,
      "authors": [
        {
          "authorId": "2409506753",
          "name": "Emani Naga Sai Venkata Sowmya"
        },
        {
          "authorId": "2073139138",
          "name": "A. Kesari"
        },
        {
          "authorId": "2392386121",
          "name": "A. Joseph"
        }
      ]
    },
    {
      "paperId": "beebd7505997cd9fdc5b69f50885c7c7f11149d2",
      "externalIds": {
        "DBLP": "journals/jmlr/SattarO22",
        "MAG": "3007678396",
        "ArXiv": "2002.08538",
        "CorpusId": 211204701
      },
      "url": "https://www.semanticscholar.org/paper/beebd7505997cd9fdc5b69f50885c7c7f11149d2",
      "title": "Non-asymptotic and Accurate Learning of Nonlinear Dynamical Systems",
      "venue": "Journal of machine learning research",
      "year": 2020,
      "referenceCount": 80,
      "citationCount": 63,
      "authors": [
        {
          "authorId": "7949401",
          "name": "Yahya Sattar"
        },
        {
          "authorId": "3103394",
          "name": "Samet Oymak"
        }
      ]
    },
    {
      "paperId": "2e528a5290d4e3c98a6c51c4d7c0b68234399a5e",
      "externalIds": {
        "DBLP": "journals/corr/abs-2304-01708",
        "ArXiv": "2304.01708",
        "DOI": "10.48550/arXiv.2304.01708",
        "CorpusId": 257921332
      },
      "url": "https://www.semanticscholar.org/paper/2e528a5290d4e3c98a6c51c4d7c0b68234399a5e",
      "title": "Learning and Concentration for High Dimensional Linear Gaussians: an Invariant Subspace Approach",
      "venue": "arXiv.org",
      "year": 2023,
      "referenceCount": 22,
      "citationCount": 2,
      "authors": [
        {
          "authorId": "2124896043",
          "name": "Muhammad Naeem"
        }
      ]
    },
    {
      "paperId": "0d7b511d0c4b5452c60e3c490f1316c7005107da",
      "externalIds": {
        "MAG": "2955458869",
        "DOI": "10.7939/R3901ZX92",
        "CorpusId": 198329845
      },
      "url": "https://www.semanticscholar.org/paper/0d7b511d0c4b5452c60e3c490f1316c7005107da",
      "title": "Machine Learning Approaches for Wireless Spectrum and Energy Intelligence",
      "venue": "",
      "year": 2018,
      "referenceCount": 108,
      "citationCount": 0,
      "authors": [
        {
          "authorId": "2112645912",
          "name": "Keyu Wu"
        }
      ]
    },
    {
      "paperId": "adce10fbe97d27a51fcd43fc0d3b25f4ee148445",
      "externalIds": {
        "MAG": "2032374758",
        "DOI": "10.1109/TAC.1974.1100628",
        "CorpusId": 62132497
      },
      "url": "https://www.semanticscholar.org/paper/adce10fbe97d27a51fcd43fc0d3b25f4ee148445",
      "title": "Linear optimal control systems",
      "venue": "",
      "year": 1974,
      "referenceCount": 0,
      "citationCount": 314,
      "authors": [
        {
          "authorId": "30360088",
          "name": "A. Pearson"
        }
      ]
    },
    {
      "paperId": "d4dd6f8ef0ac051ad397d713bab436a0077fcf29",
      "externalIds": {
        "MAG": "2395995741",
        "CorpusId": 148536250
      },
      "url": "https://www.semanticscholar.org/paper/d4dd6f8ef0ac051ad397d713bab436a0077fcf29",
      "title": "Systemness: A Case Study",
      "venue": "",
      "year": 2015,
      "referenceCount": 0,
      "citationCount": 0,
      "authors": [
        {
          "authorId": "79421899",
          "name": "Frances A. Viggiani"
        },
        {
          "authorId": "11940774",
          "name": "D. Szczerbacki"
        }
      ]
    },
    {
      "paperId": "43094b75c06dd94bdd67b902e5942a82573dd5ab",
      "externalIds": {
        "MAG": "1830979786",
        "DOI": "10.1017/S002572730000377X",
        "CorpusId": 70530165
      },
      "url": "https://www.semanticscholar.org/paper/43094b75c06dd94bdd67b902e5942a82573dd5ab",
      "title": "Book Reviews: Community care in perspective: care, control and citizenship",
      "venue": "Medicina e historia",
      "year": 2009,
      "referenceCount": 0,
      "citationCount": 0,
      "authors": [
        {
          "authorId": "3741823",
          "name": "A. Borsay"
        }
      ]
    }
  ]
}