{
  "total": 1507,
  "offset": 0,
  "next": 10,
  "data": [
    {
      "paperId": "67f027dccf997cee75b6501d1946b36011896f99",
      "externalIds": {
        "MAG": "2953363904",
        "DBLP": "conf/icml/ZhaoYZL15",
        "ArXiv": "1312.4564",
        "CorpusId": 9356827
      },
      "url": "https://www.semanticscholar.org/paper/67f027dccf997cee75b6501d1946b36011896f99",
      "title": "Adaptive Stochastic Alternating Direction Method of Multipliers",
      "venue": "International Conference on Machine Learning",
      "year": 2013,
      "referenceCount": 20,
      "citationCount": 20,
      "authors": [
        {
          "authorId": "144259957",
          "name": "P. Zhao"
        },
        {
          "authorId": "152905595",
          "name": "Jinwei Yang"
        },
        {
          "authorId": "38144094",
          "name": "T. Zhang"
        },
        {
          "authorId": "144785135",
          "name": "Ping Li"
        }
      ]
    },
    {
      "paperId": "9a4a2c47e0fab4ded601fb1064991d93234d30ee",
      "externalIds": {
        "DOI": "10.1063/5.0147536",
        "CorpusId": 258623309
      },
      "url": "https://www.semanticscholar.org/paper/9a4a2c47e0fab4ded601fb1064991d93234d30ee",
      "title": "Multi-timescale scheduling strategy for multi-microgrids with accelerated alternating direction method of multipliers and stochastic model predictive control",
      "venue": "Journal of Renewable and Sustainable Energy",
      "year": 2023,
      "referenceCount": 32,
      "citationCount": 4,
      "authors": [
        {
          "authorId": "2109720715",
          "name": "Zhenlei Li"
        },
        {
          "authorId": "50492525",
          "name": "Peng Li"
        },
        {
          "authorId": "48803794",
          "name": "Zhihang Yuan"
        },
        {
          "authorId": "2069551509",
          "name": "Jing Xia"
        }
      ]
    },
    {
      "paperId": "57efda84bd0c3bdda323ed77fee0d163bee2b8fc",
      "externalIds": {
        "DBLP": "journals/corr/ZhaoYZL13",
        "MAG": "2401472671",
        "CorpusId": 42561143
      },
      "url": "https://www.semanticscholar.org/paper/57efda84bd0c3bdda323ed77fee0d163bee2b8fc",
      "title": "Accelerating Stochastic Alternating Direction Method of Multipliers with Adaptive Subgradient",
      "venue": "arXiv.org",
      "year": 2013,
      "referenceCount": 0,
      "citationCount": 0,
      "authors": [
        {
          "authorId": "144259957",
          "name": "P. Zhao"
        },
        {
          "authorId": "152905595",
          "name": "Jinwei Yang"
        },
        {
          "authorId": "38144094",
          "name": "T. Zhang"
        },
        {
          "authorId": "144785135",
          "name": "Ping Li"
        }
      ]
    },
    {
      "paperId": "1c6f9c25d41535a02d1287a75632bf5a70a3492d",
      "externalIds": {
        "DBLP": "journals/tcasI/GengQRLL24",
        "DOI": "10.1109/TCSI.2024.3386506",
        "CorpusId": 269490752
      },
      "url": "https://www.semanticscholar.org/paper/1c6f9c25d41535a02d1287a75632bf5a70a3492d",
      "title": "Adaptive Neural Stochastic Control With Lipschitz Constant Optimization",
      "venue": "IEEE Transactions on Circuits and Systems Part 1: Regular Papers",
      "year": 2024,
      "referenceCount": 34,
      "citationCount": 1,
      "authors": [
        {
          "authorId": "2239243225",
          "name": "Lian Geng"
        },
        {
          "authorId": "2242972524",
          "name": "Qingyu Qu"
        },
        {
          "authorId": "2818989",
          "name": "Maopeng Ran"
        },
        {
          "authorId": "49600047",
          "name": "Kexin Liu"
        },
        {
          "authorId": "2149588199",
          "name": "Jinhu Lü"
        }
      ]
    },
    {
      "paperId": "28cbf0c09dccea15025252e99b26eac0522eec46",
      "externalIds": {
        "DBLP": "journals/iotj/LeiYXSH22",
        "DOI": "10.1109/JIOT.2022.3187067",
        "CorpusId": 250157101
      },
      "url": "https://www.semanticscholar.org/paper/28cbf0c09dccea15025252e99b26eac0522eec46",
      "title": "Adaptive Stochastic ADMM for Decentralized Reinforcement Learning in Edge IoT",
      "venue": "IEEE Internet of Things Journal",
      "year": 2022,
      "referenceCount": 59,
      "citationCount": 11,
      "authors": [
        {
          "authorId": "1406504292",
          "name": "Wanlu Lei"
        },
        {
          "authorId": "1845874192",
          "name": "Yu Ye"
        },
        {
          "authorId": "2263629384",
          "name": "Ming Xiao"
        },
        {
          "authorId": "1707959",
          "name": "M. Skoglund"
        },
        {
          "authorId": "2113962182",
          "name": "Zhu Han"
        }
      ]
    },
    {
      "paperId": "9e731d1635eb27db45a668ebc019ca6b715f827a",
      "externalIds": {
        "ArXiv": "2107.00481",
        "DBLP": "journals/corr/abs-2107-00481",
        "CorpusId": 235694219
      },
      "url": "https://www.semanticscholar.org/paper/9e731d1635eb27db45a668ebc019ca6b715f827a",
      "title": "Adaptive Stochastic ADMM for Decentralized Reinforcement Learning in Edge Industrial IoT",
      "venue": "arXiv.org",
      "year": 2021,
      "referenceCount": 53,
      "citationCount": 1,
      "authors": [
        {
          "authorId": "1406504292",
          "name": "Wanlu Lei"
        },
        {
          "authorId": "1845874192",
          "name": "Yu Ye"
        },
        {
          "authorId": "2263629384",
          "name": "Ming Xiao"
        },
        {
          "authorId": "1707959",
          "name": "M. Skoglund"
        },
        {
          "authorId": "2113962182",
          "name": "Zhu Han"
        }
      ]
    },
    {
      "paperId": "69ab096d3f0e4056b69209bdeebbc1013e76f6b6",
      "externalIds": {
        "ArXiv": "2505.06921",
        "DOI": "10.1016/j.apnum.2025.12.007",
        "CorpusId": 278501821
      },
      "url": "https://www.semanticscholar.org/paper/69ab096d3f0e4056b69209bdeebbc1013e76f6b6",
      "title": "Stochastic ADMM with batch size adaptation for nonconvex nonsmooth optimization",
      "venue": "Applied Numerical Mathematics",
      "year": 2025,
      "referenceCount": 54,
      "citationCount": 1,
      "authors": [
        {
          "authorId": "2293548310",
          "name": "Jiachen Jin"
        },
        {
          "authorId": "2293170964",
          "name": "Kangkang Deng"
        },
        {
          "authorId": "2355115651",
          "name": "Boyu Wang"
        },
        {
          "authorId": "2268629825",
          "name": "Hongxia Wang"
        }
      ]
    },
    {
      "paperId": "5d5c48544cdac24c863e84c067267ad076678679",
      "externalIds": {
        "ArXiv": "2603.07682",
        "CorpusId": 286377308
      },
      "url": "https://www.semanticscholar.org/paper/5d5c48544cdac24c863e84c067267ad076678679",
      "title": "Heterogeneous Stochastic Momentum ADMM for Distributed Nonconvex Composite Optimization",
      "venue": "",
      "year": 2026,
      "referenceCount": 31,
      "citationCount": 0,
      "authors": [
        {
          "authorId": "2298764962",
          "name": "Yang Zhang"
        },
        {
          "authorId": "2340612195",
          "name": "Yongyang Xiong"
        },
        {
          "authorId": "2276270641",
          "name": "Jinming Xu"
        },
        {
          "authorId": "2257184834",
          "name": "Keyou You"
        },
        {
          "authorId": "2262673385",
          "name": "Yang Shi"
        }
      ]
    },
    {
      "paperId": "ff9e2d93969390a17cc2624424586fe1b53f115c",
      "externalIds": {
        "MAG": "3034969626",
        "DBLP": "journals/tsg/NazirPJ20",
        "DOI": "10.1109/TSG.2020.3002100",
        "CorpusId": 225050568
      },
      "url": "https://www.semanticscholar.org/paper/ff9e2d93969390a17cc2624424586fe1b53f115c",
      "title": "Distributed Solution of Stochastic Volt/VAr Control in Radial Networks",
      "venue": "IEEE Transactions on Smart Grid",
      "year": 2020,
      "referenceCount": 37,
      "citationCount": 28,
      "authors": [
        {
          "authorId": "52559112",
          "name": "F. U. Nazir"
        },
        {
          "authorId": "30679182",
          "name": "B. Pal"
        },
        {
          "authorId": "2225982",
          "name": "R. Jabr"
        }
      ]
    },
    {
      "paperId": "5f74640f5b64505c89a7a3388e0a913278bcd434",
      "externalIds": {
        "DBLP": "conf/nips/XuLLY17",
        "MAG": "2768931586",
        "CorpusId": 9532748
      },
      "url": "https://www.semanticscholar.org/paper/5f74640f5b64505c89a7a3388e0a913278bcd434",
      "title": "ADMM without a Fixed Penalty Parameter: Faster Convergence with New Adaptive Penalization",
      "venue": "Neural Information Processing Systems",
      "year": 2017,
      "referenceCount": 39,
      "citationCount": 58,
      "authors": [
        {
          "authorId": "2110289529",
          "name": "Yi Xu"
        },
        {
          "authorId": "14697929",
          "name": "Mingrui Liu"
        },
        {
          "authorId": "39436683",
          "name": "Qihang Lin"
        },
        {
          "authorId": "40381920",
          "name": "Tianbao Yang"
        }
      ]
    }
  ]
}