{
  "total": 11,
  "offset": 0,
  "next": 10,
  "data": [
    {
      "paperId": "90fbb48392417ec101b8eda33c70537d94758248",
      "externalIds": {
        "MAG": "1677263269",
        "DBLP": "conf/icml/KuklianskyS15",
        "CorpusId": 713043
      },
      "url": "https://www.semanticscholar.org/paper/90fbb48392417ec101b8eda33c70537d94758248",
      "title": "Attribute Efficient Linear Regression with Distribution-Dependent Sampling",
      "venue": "International Conference on Machine Learning",
      "year": 2015,
      "referenceCount": 14,
      "citationCount": 14,
      "authors": [
        {
          "authorId": "2771709",
          "name": "Doron Kukliansky"
        },
        {
          "authorId": "1768909",
          "name": "Ohad Shamir"
        }
      ]
    },
    {
      "paperId": "8e31f365ef7a7ad309706997151dc717beaf42a5",
      "externalIds": {
        "CorpusId": 1461705
      },
      "url": "https://www.semanticscholar.org/paper/8e31f365ef7a7ad309706997151dc717beaf42a5",
      "title": "Attribute Efficient Linear Regression with Distribution-Dependent Sampling",
      "venue": "",
      "year": 2015,
      "referenceCount": 0,
      "citationCount": 1,
      "authors": [
        {
          "authorId": "2079677080",
          "name": "A. Two-Phased"
        },
        {
          "authorId": "2081712025",
          "name": "Ddaerr"
        }
      ]
    },
    {
      "paperId": "90262601fe457ed7c6bbf52594d3a8cedc3dcd24",
      "externalIds": {
        "MAG": "3102209298",
        "ArXiv": "1511.06028",
        "DOI": "10.3982/ECTA14434",
        "CorpusId": 170415
      },
      "url": "https://www.semanticscholar.org/paper/90262601fe457ed7c6bbf52594d3a8cedc3dcd24",
      "title": "Optimal inference in a class of regression models",
      "venue": "",
      "year": 2015,
      "referenceCount": 68,
      "citationCount": 142,
      "authors": [
        {
          "authorId": "145191796",
          "name": "T. Armstrong"
        },
        {
          "authorId": "40405669",
          "name": "M. Kolesár"
        }
      ]
    },
    {
      "paperId": "70957c956f577d9767b72bd57e5d55e10c89651f",
      "externalIds": {
        "DBLP": "journals/gis/GeWHJLW15",
        "MAG": "1969000410",
        "DOI": "10.1080/13658816.2014.948446",
        "CorpusId": 4583302
      },
      "url": "https://www.semanticscholar.org/paper/70957c956f577d9767b72bd57e5d55e10c89651f",
      "title": "Sampling design optimization of a wireless sensor network for monitoring ecohydrological processes in the Babao River basin, China",
      "venue": "International Journal of Geographical Information Science",
      "year": 2015,
      "referenceCount": 47,
      "citationCount": 60,
      "authors": [
        {
          "authorId": "144143227",
          "name": "Y. Ge"
        },
        {
          "authorId": "2269757094",
          "name": "Jing Wang"
        },
        {
          "authorId": "145253407",
          "name": "G. Heuvelink"
        },
        {
          "authorId": "2278370127",
          "name": "Rui Jin"
        },
        {
          "authorId": "2153898212",
          "name": "Xin Li"
        },
        {
          "authorId": "2249127282",
          "name": "Jinfeng Wang"
        }
      ]
    },
    {
      "paperId": "a6937f55a3cb72926a372f351cbd2ac0a0cf8231",
      "externalIds": {
        "MAG": "2060732235",
        "DBLP": "journals/ma/QiuLY15",
        "DOI": "10.1016/j.jmva.2015.02.004",
        "CorpusId": 2228740
      },
      "url": "https://www.semanticscholar.org/paper/a6937f55a3cb72926a372f351cbd2ac0a0cf8231",
      "title": "SCAD-penalized regression for varying-coefficient models with autoregressive errors",
      "venue": "Journal of Multivariate Analysis",
      "year": 2015,
      "referenceCount": 32,
      "citationCount": 2,
      "authors": [
        {
          "authorId": "2116039202",
          "name": "Jia Qiu"
        },
        {
          "authorId": "46599252",
          "name": "Degao Li"
        },
        {
          "authorId": "3200544",
          "name": "Jinhong You"
        }
      ]
    },
    {
      "paperId": "304305edd2d718fade8c3dfb48e0e4d0facd95f2",
      "externalIds": {
        "MAG": "2222560805",
        "CorpusId": 110558755
      },
      "url": "https://www.semanticscholar.org/paper/304305edd2d718fade8c3dfb48e0e4d0facd95f2",
      "title": "PENGARUH ATRIBUT PRODUK TERHADAP KEPUTUSAN PEMBELIAN PRODUK SOPHIE PARIS DI KOTA PADANG",
      "venue": "",
      "year": 2015,
      "referenceCount": 5,
      "citationCount": 0,
      "authors": [
        {
          "authorId": "107613389",
          "name": "Fitri Aprianti"
        },
        {
          "authorId": "66667792",
          "name": "L. Lindawati"
        },
        {
          "authorId": "70154086",
          "name": "Ice Kamela"
        }
      ]
    },
    {
      "paperId": "d134f8b1d1ddb27823d36ac74998e6d66e89ad9f",
      "externalIds": {
        "MAG": "2553202123",
        "DOI": "10.22067/IJASR.V7I1.32445",
        "CorpusId": 109243895
      },
      "url": "https://www.semanticscholar.org/paper/d134f8b1d1ddb27823d36ac74998e6d66e89ad9f",
      "title": "مقایسه مدل های رگرسیونی و شبکه های عصبی مصنوعی در پیش بینی عملکرد تولیدی مرغان تخمگذار",
      "venue": "",
      "year": 2015,
      "referenceCount": 0,
      "citationCount": 0,
      "authors": [
        {
          "authorId": "98649494",
          "name": "جواد ایزی"
        },
        {
          "authorId": "87257167",
          "name": "حیدر زرقی"
        }
      ]
    },
    {
      "paperId": "c1e004ef1decb3a20ba0f8b2aa84afa42b7fe16e",
      "externalIds": {
        "CorpusId": 208297811
      },
      "url": "https://www.semanticscholar.org/paper/c1e004ef1decb3a20ba0f8b2aa84afa42b7fe16e",
      "title": "Visual Examination of the Effects of the Different Operating Conditions on the Residence Time Distribution in a Single-Screw Extruder with Transparent Barrel",
      "venue": "",
      "year": 2015,
      "referenceCount": 18,
      "citationCount": 1,
      "authors": [
        {
          "authorId": "92956995",
          "name": "M. Ergin"
        },
        {
          "authorId": "48417725",
          "name": "I. Aydin"
        },
        {
          "authorId": "144554105",
          "name": "A. Albayrak"
        }
      ]
    },
    {
      "paperId": "be2e29e0db7ca9f699178dc1a7c8e2bac3cff191",
      "externalIds": {
        "MAG": "2156749838",
        "DOI": "10.22067/JSW.V0I0.22620",
        "CorpusId": 111093070
      },
      "url": "https://www.semanticscholar.org/paper/be2e29e0db7ca9f699178dc1a7c8e2bac3cff191",
      "title": "مدل سازی پایداری خاکدانهها با استفاده از ماشینهای بردار پشتیبان و رگرسیون خطی چند متغیره",
      "venue": "",
      "year": 2015,
      "referenceCount": 0,
      "citationCount": 0,
      "authors": [
        {
          "authorId": "87715444",
          "name": "علی اصغر خانی پور"
        },
        {
          "authorId": "93272566",
          "name": "حسین شیرانی"
        },
        {
          "authorId": "98426706",
          "name": "عیسی اسفندیارپور"
        }
      ]
    },
    {
      "paperId": "1107bbf3796273c144a5de540bce36f66ff9f81f",
      "externalIds": {
        "CorpusId": 10628798
      },
      "url": "https://www.semanticscholar.org/paper/1107bbf3796273c144a5de540bce36f66ff9f81f",
      "title": "Equivalent Partial Correlation Selection for High Dimensional Gaussian Graphical Models",
      "venue": "",
      "year": 2015,
      "referenceCount": 0,
      "citationCount": 0,
      "authors": [
        {
          "authorId": "2518560",
          "name": "F. Liang"
        }
      ]
    }
  ]
}