{
  "total": 19,
  "offset": 0,
  "next": 10,
  "data": [
    {
      "paperId": "ddad47918168e932b53fa79e79b25f7d68f08034",
      "externalIds": {
        "MAG": "2949090471",
        "ArXiv": "1502.08053",
        "DBLP": "journals/corr/CsibaQR15",
        "CorpusId": 6399659
      },
      "url": "https://www.semanticscholar.org/paper/ddad47918168e932b53fa79e79b25f7d68f08034",
      "title": "Stochastic Dual Coordinate Ascent with Adaptive Probabilities",
      "venue": "International Conference on Machine Learning",
      "year": 2015,
      "referenceCount": 53,
      "citationCount": 97,
      "authors": [
        {
          "authorId": "1813427",
          "name": "Dominik Csiba"
        },
        {
          "authorId": "38862887",
          "name": "Zheng Qu"
        },
        {
          "authorId": "2662221",
          "name": "Peter Richtárik"
        }
      ]
    },
    {
      "paperId": "68c43141323ed4a38a4aae33644a607c44aa216c",
      "externalIds": {
        "CorpusId": 86864054
      },
      "url": "https://www.semanticscholar.org/paper/68c43141323ed4a38a4aae33644a607c44aa216c",
      "title": "O C ] 27 F eb 2 01 5 Stochastic Dual Coordinate Ascent with Adaptive Probabilities",
      "venue": "",
      "year": 2018,
      "referenceCount": 31,
      "citationCount": 0,
      "authors": [
        {
          "authorId": "1813427",
          "name": "Dominik Csiba"
        }
      ]
    },
    {
      "paperId": "cb59d79f30deea383cc5d64f541c4c08f182cb79",
      "externalIds": {
        "CorpusId": 15942630
      },
      "url": "https://www.semanticscholar.org/paper/cb59d79f30deea383cc5d64f541c4c08f182cb79",
      "title": "Stochastic Dual Coordinate Ascent with Adaptive Probabilities : Supplementary material",
      "venue": "",
      "year": 2015,
      "referenceCount": 0,
      "citationCount": 0,
      "authors": []
    },
    {
      "paperId": "2f74ebc1737136b48713f2fa6fbf9e9a6f0c493e",
      "externalIds": {
        "CorpusId": 408722
      },
      "url": "https://www.semanticscholar.org/paper/2f74ebc1737136b48713f2fa6fbf9e9a6f0c493e",
      "title": "Adaptive Probabilities in Stochastic Optimization Algorithms Master Thesis",
      "venue": "",
      "year": 2015,
      "referenceCount": 32,
      "citationCount": 0,
      "authors": [
        {
          "authorId": "2087286341",
          "name": "Lei Zhong April"
        }
      ]
    },
    {
      "paperId": "689ac466840606566a12a3756c021dda945c06cd",
      "externalIds": {
        "MAG": "1551883816",
        "DOI": "10.3929/ethz-a-010421465",
        "CorpusId": 195609943
      },
      "url": "https://www.semanticscholar.org/paper/689ac466840606566a12a3756c021dda945c06cd",
      "title": "Adaptive Probabilities in Stochastic Optimization Algorithms",
      "venue": "",
      "year": 2015,
      "referenceCount": 38,
      "citationCount": 0,
      "authors": [
        {
          "authorId": "2112682904",
          "name": "L. Zhong"
        }
      ]
    },
    {
      "paperId": "a62b6352a820418fce3284eef0ad94fe5817b52a",
      "externalIds": {
        "MAG": "2963438599",
        "DBLP": "journals/corr/abs-1712-08577",
        "ArXiv": "1712.08577",
        "CorpusId": 31093580
      },
      "url": "https://www.semanticscholar.org/paper/a62b6352a820418fce3284eef0ad94fe5817b52a",
      "title": "Adaptive Stochastic Dual Coordinate Ascent for Conditional Random Fields",
      "venue": "Conference on Uncertainty in Artificial Intelligence",
      "year": 2017,
      "referenceCount": 27,
      "citationCount": 7,
      "authors": [
        {
          "authorId": "10712297",
          "name": "Rémi Le Priol"
        },
        {
          "authorId": "49504044",
          "name": "Alexandre Piché"
        },
        {
          "authorId": "1388317459",
          "name": "Simon Lacoste-Julien"
        }
      ]
    },
    {
      "paperId": "8815d9fd43661ffdc6f9240dbca0a020c4f80d98",
      "externalIds": {
        "DBLP": "conf/iclr/OkoSNW22",
        "CorpusId": 247625306
      },
      "url": "https://www.semanticscholar.org/paper/8815d9fd43661ffdc6f9240dbca0a020c4f80d98",
      "title": "Particle Stochastic Dual Coordinate Ascent: Exponential convergent algorithm for mean field neural network optimization",
      "venue": "International Conference on Learning Representations",
      "year": 2022,
      "referenceCount": 49,
      "citationCount": 8,
      "authors": [
        {
          "authorId": "2159692145",
          "name": "Kazusato Oko"
        },
        {
          "authorId": "2026193813",
          "name": "Taiji Suzuki"
        },
        {
          "authorId": "2002509",
          "name": "Atsushi Nitanda"
        },
        {
          "authorId": "32329596",
          "name": "Denny Wu"
        }
      ]
    },
    {
      "paperId": "a43cd7ae0748907bbcd0eddb5a236485d7e0746e",
      "externalIds": {
        "MAG": "3002580787",
        "DBLP": "conf/icpram/QaadanPSG19",
        "DOI": "10.1007/978-3-030-40014-9_2",
        "CorpusId": 226494666
      },
      "url": "https://www.semanticscholar.org/paper/a43cd7ae0748907bbcd0eddb5a236485d7e0746e",
      "title": "Online Budgeted Stochastic Coordinate Ascent for Large-Scale Kernelized Dual Support Vector Machine Training",
      "venue": "International Conference on Pattern Recognition Applications and Methods",
      "year": 2019,
      "referenceCount": 35,
      "citationCount": 0,
      "authors": [
        {
          "authorId": "51026325",
          "name": "Sahar Qaadan"
        },
        {
          "authorId": "1491142625",
          "name": "Abhijeet Pendyala"
        },
        {
          "authorId": "50997973",
          "name": "Merlin Schüler"
        },
        {
          "authorId": "1756710",
          "name": "T. Glasmachers"
        }
      ]
    },
    {
      "paperId": "3e2c27a7d7251451bf70391394500d9e6875247e",
      "externalIds": {
        "DOI": "10.1109/ICPES68632.2025.11371994",
        "CorpusId": 285473370
      },
      "url": "https://www.semanticscholar.org/paper/3e2c27a7d7251451bf70391394500d9e6875247e",
      "title": "A Stochastic Model Predictive Control Method for AGC in Thermal Power Units Assisted by a Dual-Type Lithium Battery Hybrid Energy Storage System",
      "venue": "IEEE International Conference Power and Energy Systems",
      "year": 2025,
      "referenceCount": 12,
      "citationCount": 0,
      "authors": [
        {
          "authorId": "2379768346",
          "name": "Tianyu Wang"
        },
        {
          "authorId": "2199303916",
          "name": "Jiangfeng Zhang"
        },
        {
          "authorId": "2410444293",
          "name": "Haorui Yin"
        },
        {
          "authorId": "2410319187",
          "name": "Xujuan Zhang"
        },
        {
          "authorId": "2310753911",
          "name": "Hong Zhao"
        },
        {
          "authorId": "2410056556",
          "name": "Qi Wang"
        }
      ]
    },
    {
      "paperId": "08c26e424147177902cf5050f819279224e652f6",
      "externalIds": {
        "ArXiv": "1801.08436",
        "DBLP": "journals/fams/0004TT18",
        "MAG": "2593327172",
        "DOI": "10.3389/fams.2018.00033",
        "CorpusId": 18573295
      },
      "url": "https://www.semanticscholar.org/paper/08c26e424147177902cf5050f819279224e652f6",
      "title": "Dual Free Adaptive Minibatch SDCA for Empirical Risk Minimization",
      "venue": "Frontiers in Applied Mathematics and Statistics",
      "year": 2018,
      "referenceCount": 37,
      "citationCount": 3,
      "authors": [
        {
          "authorId": "2111124687",
          "name": "Xi He"
        },
        {
          "authorId": "2390330",
          "name": "R. Tappenden"
        },
        {
          "authorId": "144696183",
          "name": "Martin Takác"
        }
      ]
    }
  ]
}