{
  "total": 134,
  "offset": 0,
  "next": 10,
  "data": [
    {
      "paperId": "d20d2f793fa738f4fd3129f6ff2cff9034cae1e8",
      "externalIds": {
        "DBLP": "conf/icml/SuzumuraNUTT17",
        "MAG": "2740764417",
        "CorpusId": 9379170
      },
      "url": "https://www.semanticscholar.org/paper/d20d2f793fa738f4fd3129f6ff2cff9034cae1e8",
      "title": "Selective Inference for Sparse High-Order Interaction Models",
      "venue": "International Conference on Machine Learning",
      "year": 2017,
      "referenceCount": 27,
      "citationCount": 57,
      "authors": [
        {
          "authorId": "31464311",
          "name": "S. Suzumura"
        },
        {
          "authorId": "50129289",
          "name": "K. Nakagawa"
        },
        {
          "authorId": "34746851",
          "name": "Yuta Umezu"
        },
        {
          "authorId": "34628173",
          "name": "K. Tsuda"
        },
        {
          "authorId": "48050268",
          "name": "I. Takeuchi"
        }
      ]
    },
    {
      "paperId": "b4db4ce28b81d208519b66d582a4dff5697324c3",
      "externalIds": {
        "DBLP": "conf/aaai/DasDHTT22",
        "ArXiv": "2106.04929",
        "DOI": "10.1609/aaai.v36i9.21238",
        "CorpusId": 235377191
      },
      "url": "https://www.semanticscholar.org/paper/b4db4ce28b81d208519b66d582a4dff5697324c3",
      "title": "Fast and More Powerful Selective Inference for Sparse High-order Interaction Model",
      "venue": "AAAI Conference on Artificial Intelligence",
      "year": 2021,
      "referenceCount": 36,
      "citationCount": 23,
      "authors": [
        {
          "authorId": "2260227",
          "name": "Diptesh Das"
        },
        {
          "authorId": "113438599",
          "name": "Vo Nguyen Le Duy"
        },
        {
          "authorId": "49918683",
          "name": "Hiroyuki Hanada"
        },
        {
          "authorId": "34628173",
          "name": "K. Tsuda"
        },
        {
          "authorId": "48050268",
          "name": "I. Takeuchi"
        }
      ]
    },
    {
      "paperId": "1942fc8692f9b5b1718d69f58bc59f7ff5d7a85a",
      "externalIds": {
        "MAG": "3018334423",
        "DOI": "10.3410/f.732326451.793540791",
        "CorpusId": 224315197
      },
      "url": "https://www.semanticscholar.org/paper/1942fc8692f9b5b1718d69f58bc59f7ff5d7a85a",
      "title": "Faculty Opinions recommendation of Selective Inference for Sparse High-Order Interaction Models.",
      "venue": "",
      "year": 2017,
      "referenceCount": 0,
      "citationCount": 0,
      "authors": [
        {
          "authorId": "4318923",
          "name": "Chloé-Agathe Azencott"
        }
      ]
    },
    {
      "paperId": "8571554cdf91e7f68b4ec57a8b640501fb6149f4",
      "externalIds": {
        "MAG": "3133351296",
        "DOI": "10.2197/IPSJTBIO.14.1",
        "CorpusId": 234215111
      },
      "url": "https://www.semanticscholar.org/paper/8571554cdf91e7f68b4ec57a8b640501fb6149f4",
      "title": "Selective Inference for High-order Interaction Features Selected in a Stepwise Manner",
      "venue": "IPSJ Transactions on Bioinformatics",
      "year": 2021,
      "referenceCount": 28,
      "citationCount": 2,
      "authors": [
        {
          "authorId": "31464311",
          "name": "S. Suzumura"
        },
        {
          "authorId": "50129289",
          "name": "K. Nakagawa"
        },
        {
          "authorId": "34746851",
          "name": "Yuta Umezu"
        },
        {
          "authorId": "34628173",
          "name": "K. Tsuda"
        },
        {
          "authorId": "48050268",
          "name": "I. Takeuchi"
        }
      ]
    },
    {
      "paperId": "7b0500065b7cfed8d7b20706b17ae9a25ee7878e",
      "externalIds": {
        "DBLP": "journals/corr/abs-2207-03639",
        "ArXiv": "2207.03639",
        "DOI": "10.48550/arXiv.2207.03639",
        "CorpusId": 250360855
      },
      "url": "https://www.semanticscholar.org/paper/7b0500065b7cfed8d7b20706b17ae9a25ee7878e",
      "title": "Nonparametric Embeddings of Sparse High-Order Interaction Events",
      "venue": "International Conference on Machine Learning",
      "year": 2022,
      "referenceCount": 59,
      "citationCount": 5,
      "authors": [
        {
          "authorId": "11032852",
          "name": "Z. Wang"
        },
        {
          "authorId": "1782200532",
          "name": "Yiming Xu"
        },
        {
          "authorId": "2119256162",
          "name": "Conor Tillinghast"
        },
        {
          "authorId": "103030058",
          "name": "Shibo Li"
        },
        {
          "authorId": "1689459",
          "name": "A. Narayan"
        },
        {
          "authorId": "2390798",
          "name": "Shandian Zhe"
        }
      ]
    },
    {
      "paperId": "59c30e0bbf2b3c61bfedba17ea4f889871d9974d",
      "externalIds": {
        "MAG": "2792967141",
        "CorpusId": 125701082
      },
      "url": "https://www.semanticscholar.org/paper/59c30e0bbf2b3c61bfedba17ea4f889871d9974d",
      "title": "Selective inference for high-order interaction model",
      "venue": "",
      "year": 2015,
      "referenceCount": 0,
      "citationCount": 0,
      "authors": [
        {
          "authorId": "73066861",
          "name": "Suzumura Shinya"
        },
        {
          "authorId": "52424514",
          "name": "Nakagawa Kazuya"
        },
        {
          "authorId": "65886085",
          "name": "Tsuda Koji"
        },
        {
          "authorId": "52436132",
          "name": "Takeuchi Ichiro"
        }
      ]
    },
    {
      "paperId": "069de9e4ced02ac86e947463d2f56c72a7943d7f",
      "externalIds": {
        "ArXiv": "2505.17495",
        "DBLP": "journals/corr/abs-2505-17495",
        "DOI": "10.48550/arXiv.2505.17495",
        "CorpusId": 278886628
      },
      "url": "https://www.semanticscholar.org/paper/069de9e4ced02ac86e947463d2f56c72a7943d7f",
      "title": "ProxySPEX: Inference-Efficient Interpretability via Sparse Feature Interactions in LLMs",
      "venue": "arXiv.org",
      "year": 2025,
      "referenceCount": 66,
      "citationCount": 4,
      "authors": [
        {
          "authorId": "2282540684",
          "name": "Landon Butler"
        },
        {
          "authorId": "79162085",
          "name": "Abhineet Agarwal"
        },
        {
          "authorId": "2282602519",
          "name": "J. Kang"
        },
        {
          "authorId": "2003612714",
          "name": "Y. E. Erginbas"
        },
        {
          "authorId": "2346813317",
          "name": "Bin Yu"
        },
        {
          "authorId": "2066489854",
          "name": "K. Ramchandran"
        }
      ]
    },
    {
      "paperId": "7608d172f7da8a1f98f14ac2028f588a870c2895",
      "externalIds": {
        "DBLP": "journals/iotj/JingCZLS24",
        "DOI": "10.1109/JIOT.2023.3285601",
        "CorpusId": 259408143
      },
      "url": "https://www.semanticscholar.org/paper/7608d172f7da8a1f98f14ac2028f588a870c2895",
      "title": "Multimodal High-Order Relationship Inference Network for Fashion Compatibility Modeling in Internet of Multimedia Things",
      "venue": "IEEE Internet of Things Journal",
      "year": 2024,
      "referenceCount": 68,
      "citationCount": 20,
      "authors": [
        {
          "authorId": "2989256",
          "name": "Peiguang Jing"
        },
        {
          "authorId": null,
          "name": "Kai Cui"
        },
        {
          "authorId": "2155699833",
          "name": "Jing Zhang"
        },
        {
          "authorId": "2267889611",
          "name": "Yun Li"
        },
        {
          "authorId": "2788104",
          "name": "Yuting Su"
        }
      ]
    },
    {
      "paperId": "e16d2c300efbf0b95e3e76913bbd6d25f3678f1f",
      "externalIds": {
        "DBLP": "journals/corr/abs-2305-01939",
        "ArXiv": "2305.01939",
        "DOI": "10.48550/arXiv.2305.01939",
        "CorpusId": 258461436
      },
      "url": "https://www.semanticscholar.org/paper/e16d2c300efbf0b95e3e76913bbd6d25f3678f1f",
      "title": "Where We Have Arrived in Proving the Emergence of Sparse Symbolic Concepts in AI Models",
      "venue": "arXiv.org",
      "year": 2023,
      "referenceCount": 51,
      "citationCount": 14,
      "authors": [
        {
          "authorId": "147863855",
          "name": "Qihan Ren"
        },
        {
          "authorId": "46930061",
          "name": "Jiayang Gao"
        },
        {
          "authorId": "2149662127",
          "name": "Wen Shen"
        },
        {
          "authorId": "22063226",
          "name": "Quanshi Zhang"
        }
      ]
    },
    {
      "paperId": "2fc6cec3bbf4804fcc70565afbc9aba7b014ab98",
      "externalIds": {
        "ArXiv": "2510.17886",
        "DOI": "10.21468/SciPostPhys.20.4.110",
        "CorpusId": 282246650
      },
      "url": "https://www.semanticscholar.org/paper/2fc6cec3bbf4804fcc70565afbc9aba7b014ab98",
      "title": "Graphical model for factorization and completion of relatively high rank tensors by sparse sampling",
      "venue": "SciPost Physics",
      "year": 2025,
      "referenceCount": 24,
      "citationCount": 0,
      "authors": [
        {
          "authorId": "2072026588",
          "name": "A. Cavaliere"
        },
        {
          "authorId": "95326213",
          "name": "Riki Nagasawa"
        },
        {
          "authorId": "2386820997",
          "name": "Shuta Yokoi"
        },
        {
          "authorId": "2322992896",
          "name": "Tomoyuki Obuchi"
        },
        {
          "authorId": "2242642188",
          "name": "H. Yoshino"
        }
      ]
    }
  ]
}