{
  "total": 1961,
  "offset": 0,
  "next": 10,
  "data": [
    {
      "paperId": "3904315e2eca50d0086e4b7273f7fd707c652230",
      "externalIds": {
        "MAG": "2472819217",
        "DBLP": "conf/icml/SantoroBBWL16",
        "CorpusId": 6466088
      },
      "url": "https://www.semanticscholar.org/paper/3904315e2eca50d0086e4b7273f7fd707c652230",
      "title": "Meta-Learning with Memory-Augmented Neural Networks",
      "venue": "International Conference on Machine Learning",
      "year": 2016,
      "referenceCount": 21,
      "citationCount": 2118,
      "authors": [
        {
          "authorId": "35030998",
          "name": "Adam Santoro"
        },
        {
          "authorId": "2258504",
          "name": "Sergey Bartunov"
        },
        {
          "authorId": "46378362",
          "name": "M. Botvinick"
        },
        {
          "authorId": "1688276",
          "name": "Daan Wierstra"
        },
        {
          "authorId": "2542999",
          "name": "T. Lillicrap"
        }
      ]
    },
    {
      "paperId": "48382a62eecf77b1cf27d54652872cffa89ad67d",
      "externalIds": {
        "DBLP": "journals/corr/abs-1806-00044",
        "ArXiv": "1806.00044",
        "MAG": "2807022326",
        "DOI": "10.1016/j.specom.2019.02.003",
        "CorpusId": 44096406
      },
      "url": "https://www.semanticscholar.org/paper/48382a62eecf77b1cf27d54652872cffa89ad67d",
      "title": "Text Normalization using Memory Augmented Neural Networks",
      "venue": "Speech Communication",
      "year": 2018,
      "referenceCount": 26,
      "citationCount": 29,
      "authors": [
        {
          "authorId": "51011359",
          "name": "Subhojeet Pramanik"
        },
        {
          "authorId": "46906326",
          "name": "A. Hussain"
        }
      ]
    },
    {
      "paperId": "761838cdf6072cae627cf5555ca82c144a4e9d37",
      "externalIds": {
        "DOI": "10.18535/ijecs/v13i07.4852",
        "CorpusId": 271278419
      },
      "url": "https://www.semanticscholar.org/paper/761838cdf6072cae627cf5555ca82c144a4e9d37",
      "title": "Enhancing Plant Disease Detection through Transfer Learning by Incorporating MemoryAugmented Networks and Meta-Learning Approaches",
      "venue": "International Journal Of Engineering And Computer Science",
      "year": 2024,
      "referenceCount": 0,
      "citationCount": 0,
      "authors": [
        {
          "authorId": "2311915323",
          "name": "Dr. Mohana Priya C"
        }
      ]
    },
    {
      "paperId": "a8b84026625c90f2b2fac39f890edd0e3a2c16da",
      "externalIds": {
        "DOI": "10.1109/ICRTEECT67512.2025.11448717",
        "CorpusId": 286874140
      },
      "url": "https://www.semanticscholar.org/paper/a8b84026625c90f2b2fac39f890edd0e3a2c16da",
      "title": "Meta-Learning for Few-Shot Adaptation in Robotic Control Tasks",
      "venue": "2025 2nd International Conference on Recent Trends in Electrical, Electronics and Computing Technologies (ICRTEECT)",
      "year": 2025,
      "referenceCount": 15,
      "citationCount": 0,
      "authors": [
        {
          "authorId": "2298067483",
          "name": "Saksham Mittal"
        },
        {
          "authorId": "2291715817",
          "name": "S. Makhmudov"
        },
        {
          "authorId": "2426082657",
          "name": "Sarvarbek Matniyozov"
        },
        {
          "authorId": "2372676331",
          "name": "Barno Matchanova"
        },
        {
          "authorId": "2426075732",
          "name": "Asadbek Sobirov"
        },
        {
          "authorId": "2365175666",
          "name": "Temur Eshchanov"
        }
      ]
    },
    {
      "paperId": "ba27e798f0315f880655ffc4ef8c5d5dd79cab63",
      "externalIds": {
        "DOI": "10.1109/EDTM55494.2023.10103030",
        "CorpusId": 258335913
      },
      "url": "https://www.semanticscholar.org/paper/ba27e798f0315f880655ffc4ef8c5d5dd79cab63",
      "title": "Variation-Tolerant Ferroelectric FET-based Ternary Content-Addressable Memories (TCAM) Cell for Meta-learning Application",
      "venue": "IEEE Electron Devices Technology and Manufacturing Conference",
      "year": 2023,
      "referenceCount": 6,
      "citationCount": 3,
      "authors": [
        {
          "authorId": "2215407363",
          "name": "Han-Fu Chuang"
        },
        {
          "authorId": "2590326",
          "name": "V. Hu"
        }
      ]
    },
    {
      "paperId": "a5c8bb65f59f5990b750e34f9fb9f5147ed8c666",
      "externalIds": {
        "MAG": "2919681562",
        "DBLP": "conf/icml/RaeBL19",
        "ArXiv": "1906.04304",
        "CorpusId": 86477253
      },
      "url": "https://www.semanticscholar.org/paper/a5c8bb65f59f5990b750e34f9fb9f5147ed8c666",
      "title": "Meta-Learning Neural Bloom Filters",
      "venue": "International Conference on Machine Learning",
      "year": 2019,
      "referenceCount": 39,
      "citationCount": 40,
      "authors": [
        {
          "authorId": "34269227",
          "name": "Jack W. Rae"
        },
        {
          "authorId": "2258504",
          "name": "Sergey Bartunov"
        },
        {
          "authorId": "2542999",
          "name": "T. Lillicrap"
        }
      ]
    },
    {
      "paperId": "b47264a0b34b940e1cc16390553a75144d3caab5",
      "externalIds": {
        "ArXiv": "2110.13976",
        "DBLP": "journals/corr/abs-2110-13976",
        "CorpusId": 239998653
      },
      "url": "https://www.semanticscholar.org/paper/b47264a0b34b940e1cc16390553a75144d3caab5",
      "title": "Biological learning in key-value memory networks",
      "venue": "arXiv.org",
      "year": 2021,
      "referenceCount": 40,
      "citationCount": 36,
      "authors": [
        {
          "authorId": "51257310",
          "name": "Danil Tyulmankov"
        },
        {
          "authorId": "2147436981",
          "name": "Ching Fang"
        },
        {
          "authorId": "66569580",
          "name": "Annapurna Vadaparty"
        },
        {
          "authorId": "31930115",
          "name": "G. Yang"
        }
      ]
    },
    {
      "paperId": "3eb44cc190093ba35e5cb6c54d107cd9220d58f5",
      "externalIds": {
        "DBLP": "conf/nips/Lake19",
        "MAG": "2990379018",
        "ArXiv": "1906.05381",
        "CorpusId": 189762148
      },
      "url": "https://www.semanticscholar.org/paper/3eb44cc190093ba35e5cb6c54d107cd9220d58f5",
      "title": "Compositional generalization through meta sequence-to-sequence learning",
      "venue": "Neural Information Processing Systems",
      "year": 2019,
      "referenceCount": 40,
      "citationCount": 204,
      "authors": [
        {
          "authorId": "2373318",
          "name": "B. Lake"
        }
      ]
    },
    {
      "paperId": "5d433993df496685b6418b5c76e2e16186165b7a",
      "externalIds": {
        "DBLP": "conf/bigdataconf/JiangZJJHTA0B21",
        "DOI": "10.1109/BigData52589.2021.9671447",
        "CorpusId": 245019664
      },
      "url": "https://www.semanticscholar.org/paper/5d433993df496685b6418b5c76e2e16186165b7a",
      "title": "Federated Meta-Location Learning for Fine-Grained Location Prediction",
      "venue": "2021 IEEE International Conference on Big Data (Big Data)",
      "year": 2021,
      "referenceCount": 38,
      "citationCount": 8,
      "authors": [
        {
          "authorId": "2144809796",
          "name": "Xiaopeng Jiang"
        },
        {
          "authorId": "47601075",
          "name": "Shuai Zhao"
        },
        {
          "authorId": "30422969",
          "name": "G. Jacobson"
        },
        {
          "authorId": "145272661",
          "name": "R. Jana"
        },
        {
          "authorId": "2765517",
          "name": "Wen-Ling Hsu"
        },
        {
          "authorId": "2476223",
          "name": "Manoop Talasila"
        },
        {
          "authorId": "51015773",
          "name": "Syed Anwar Aftab"
        },
        {
          "authorId": "2118050477",
          "name": "Yi Chen"
        },
        {
          "authorId": "144888146",
          "name": "C. Borcea"
        }
      ]
    },
    {
      "paperId": "54294587bf324b273addd25327cd230baa2219ea",
      "externalIds": {
        "DOI": "10.3390/iot7010012",
        "CorpusId": 285114448
      },
      "url": "https://www.semanticscholar.org/paper/54294587bf324b273addd25327cd230baa2219ea",
      "title": "H-CLAS: A Hybrid Continual Learning Framework for Adaptive Fault Detection and Self-Healing in IoT-Enabled Smart Grids",
      "venue": "IoT",
      "year": 2026,
      "referenceCount": 29,
      "citationCount": 1,
      "authors": [
        {
          "authorId": "2067209674",
          "name": "T. Babu"
        },
        {
          "authorId": "2203841621",
          "name": "Rekha R. Nair"
        },
        {
          "authorId": "2456784",
          "name": "B. Balusamy"
        },
        {
          "authorId": "26954926",
          "name": "S. Yogarayan"
        }
      ]
    }
  ]
}