{
  "total": 148,
  "offset": 0,
  "next": 10,
  "data": [
    {
      "paperId": "ffa7461d32864d3bf8c73d3a45708776ef7b9c21",
      "externalIds": {
        "DBLP": "conf/icml/RiemerVCHHK16",
        "MAG": "2475207701",
        "CorpusId": 15230747
      },
      "url": "https://www.semanticscholar.org/paper/ffa7461d32864d3bf8c73d3a45708776ef7b9c21",
      "title": "Correcting Forecasts with Multifactor Neural Attention",
      "venue": "International Conference on Machine Learning",
      "year": 2016,
      "referenceCount": 34,
      "citationCount": 32,
      "authors": [
        {
          "authorId": "40497459",
          "name": "M. Riemer"
        },
        {
          "authorId": "2513113",
          "name": "Aditya Vempaty"
        },
        {
          "authorId": "144717568",
          "name": "F. Calmon"
        },
        {
          "authorId": "2462598",
          "name": "F. Heath"
        },
        {
          "authorId": "144837668",
          "name": "R. Hull"
        },
        {
          "authorId": "1840408",
          "name": "Elham Khabiri"
        }
      ]
    },
    {
      "paperId": "34151be46c99cfe899ae599a55e6fc04c70619e1",
      "externalIds": {
        "DBLP": "conf/aaai/WuSLHXC26",
        "ArXiv": "2603.17529",
        "DOI": "10.1609/aaai.v40i19.38627",
        "CorpusId": 286643781
      },
      "url": "https://www.semanticscholar.org/paper/34151be46c99cfe899ae599a55e6fc04c70619e1",
      "title": "AirDDE: Multifactor Neural Delay Differential Equations for Air Quality Forecasting",
      "venue": "AAAI Conference on Artificial Intelligence",
      "year": 2026,
      "referenceCount": 46,
      "citationCount": 0,
      "authors": [
        {
          "authorId": "1624754755",
          "name": "Binqing Wu"
        },
        {
          "authorId": "152449463",
          "name": "Zongjiang Shang"
        },
        {
          "authorId": "2131173304",
          "name": "Shi-yu Liu"
        },
        {
          "authorId": "2279255686",
          "name": "Jianlong Huang"
        },
        {
          "authorId": "2210613978",
          "name": "Jiahui Xu"
        },
        {
          "authorId": "2257016827",
          "name": "Ling Chen"
        }
      ]
    },
    {
      "paperId": "0ad9ecaf1ea975e3f8c1248bb2b972948d9f5772",
      "externalIds": {
        "DOI": "10.1155/ddns/6662757",
        "CorpusId": 285583170
      },
      "url": "https://www.semanticscholar.org/paper/0ad9ecaf1ea975e3f8c1248bb2b972948d9f5772",
      "title": "Forecasting Stock Return Based on the Multifactor Dynamic Attention Network",
      "venue": "Discrete Dynamics in Nature and Society",
      "year": 2026,
      "referenceCount": 41,
      "citationCount": 0,
      "authors": [
        {
          "authorId": "2052285727",
          "name": "Zhen Xue"
        },
        {
          "authorId": "2146645122",
          "name": "Liangliang Zhang"
        },
        {
          "authorId": "2412517916",
          "name": "Yuhong Zhang"
        },
        {
          "authorId": "2307890517",
          "name": "Changli He"
        }
      ]
    },
    {
      "paperId": "fb9021ceee0802804d32b15fa7206d7af64be9c8",
      "externalIds": {
        "DOI": "10.1109/ICSIT65336.2025.11294858",
        "CorpusId": 284024302
      },
      "url": "https://www.semanticscholar.org/paper/fb9021ceee0802804d32b15fa7206d7af64be9c8",
      "title": "Hybrid Deep Neural Architecture for Alzheimer's Stage Prediction Using MRI and Attention-Based Temporal Modeling",
      "venue": "2025 International Conference on Sustainability, Innovation & Technology (ICSIT)",
      "year": 2025,
      "referenceCount": 18,
      "citationCount": 0,
      "authors": [
        {
          "authorId": "2399641394",
          "name": "R. Sherryl"
        },
        {
          "authorId": "2399634964",
          "name": "S. Rosy"
        },
        {
          "authorId": "2344263497",
          "name": "Mithra C"
        },
        {
          "authorId": "2347740430",
          "name": "P. Jayarin"
        },
        {
          "authorId": "2308676320",
          "name": "D. David"
        }
      ]
    },
    {
      "paperId": "1b0d9ac15544901f5efcef3b18bd7d6999cb34e7",
      "externalIds": {
        "DOI": "10.1038/s44407-026-00052-x",
        "CorpusId": 286020597
      },
      "url": "https://www.semanticscholar.org/paper/1b0d9ac15544901f5efcef3b18bd7d6999cb34e7",
      "title": "TransNet: a transport-informed graph neural network for forecasting PM2.5 concentrations across South Korea",
      "venue": "npj Clean Air",
      "year": 2026,
      "referenceCount": 53,
      "citationCount": 1,
      "authors": [
        {
          "authorId": "2219447512",
          "name": "Rijul Dimri"
        },
        {
          "authorId": "2256586471",
          "name": "Yunsoo Choi"
        },
        {
          "authorId": "2210665942",
          "name": "Deveshwar Singh"
        },
        {
          "authorId": "2161494805",
          "name": "Jincheol Park"
        },
        {
          "authorId": "2210439199",
          "name": "Nima Khorshidian"
        }
      ]
    },
    {
      "paperId": "feaebe25a3bcc7a78a983ac62c34acabe6b1ea6e",
      "externalIds": {
        "DOI": "10.1029/2024jh000244",
        "CorpusId": 272140944
      },
      "url": "https://www.semanticscholar.org/paper/feaebe25a3bcc7a78a983ac62c34acabe6b1ea6e",
      "title": "AGATNet: An Adaptive Graph Attention Network for Bias Correction of CMAQ‐Forecasted PM2.5 Concentrations Over South Korea",
      "venue": "Journal of Geophysical Research",
      "year": 2024,
      "referenceCount": 27,
      "citationCount": 9,
      "authors": [
        {
          "authorId": "2219447512",
          "name": "Rijul Dimri"
        },
        {
          "authorId": "2249545200",
          "name": "Yunsoo Choi"
        },
        {
          "authorId": "144076711",
          "name": "A. K. Salman"
        },
        {
          "authorId": "2161494805",
          "name": "Jincheol Park"
        },
        {
          "authorId": "2210665942",
          "name": "Deveshwar Singh"
        }
      ]
    },
    {
      "paperId": "5dfa55fc8eb3f033cfd7baaf26f017e2e8ee213d",
      "externalIds": {
        "DBLP": "journals/corr/abs-2404-11422",
        "ArXiv": "2404.11422",
        "DOI": "10.48550/arXiv.2404.11422",
        "CorpusId": 269188038
      },
      "url": "https://www.semanticscholar.org/paper/5dfa55fc8eb3f033cfd7baaf26f017e2e8ee213d",
      "title": "Short-term wind speed forecasting model based on an attention-gated recurrent neural network and error correction strategy",
      "venue": "arXiv.org",
      "year": 2024,
      "referenceCount": 88,
      "citationCount": 1,
      "authors": [
        {
          "authorId": "2268723133",
          "name": "Haojian Huang"
        }
      ]
    },
    {
      "paperId": "39976c8ece5b60e5b608416f5bddae38a12c7fd0",
      "externalIds": {
        "DBLP": "journals/apin/ZengLWWCL25",
        "DOI": "10.1007/s10489-025-06523-0",
        "CorpusId": 277716723
      },
      "url": "https://www.semanticscholar.org/paper/39976c8ece5b60e5b608416f5bddae38a12c7fd0",
      "title": "A novel hybrid statistical and neural network model for forecasting multivariate time series parameters in forging process",
      "venue": "Applied intelligence (Boston)",
      "year": 2025,
      "referenceCount": 53,
      "citationCount": 8,
      "authors": [
        {
          "authorId": "2303781945",
          "name": "Ning-Fu Zeng"
        },
        {
          "authorId": "2258015029",
          "name": "Yong-cheng Lin"
        },
        {
          "authorId": "2307814283",
          "name": "Miao Wan"
        },
        {
          "authorId": "2211621510",
          "name": "Gui-Cheng Wu"
        },
        {
          "authorId": "2355013744",
          "name": "Ming-Song Chen"
        },
        {
          "authorId": "2331030307",
          "name": "Chao Li"
        }
      ]
    },
    {
      "paperId": "385f5d46c842b4c13889bfcccf098d3fca3073b7",
      "externalIds": {
        "DBLP": "journals/tfs/YuL25",
        "DOI": "10.1109/TFUZZ.2025.3610701",
        "CorpusId": 282166978
      },
      "url": "https://www.semanticscholar.org/paper/385f5d46c842b4c13889bfcccf098d3fca3073b7",
      "title": "CausalSeqGNN: A Fama-French Inspired Fuzzy Cognitive Map Combined With Graph Neural Network for Stock Prediction",
      "venue": "IEEE transactions on fuzzy systems",
      "year": 2025,
      "referenceCount": 56,
      "citationCount": 0,
      "authors": [
        {
          "authorId": "2310566259",
          "name": "He Yu"
        },
        {
          "authorId": "2314395797",
          "name": "Jing Liu"
        }
      ]
    },
    {
      "paperId": "3fdbceca5ee2303efa5286064ac3b11aeaeebb34",
      "externalIds": {
        "DOI": "10.1038/s41612-024-00776-1",
        "CorpusId": 272995916
      },
      "url": "https://www.semanticscholar.org/paper/3fdbceca5ee2303efa5286064ac3b11aeaeebb34",
      "title": "Accurate initial field estimation for weather forecasting with a variational constrained neural network",
      "venue": "npj Climate and Atmospheric Science",
      "year": 2024,
      "referenceCount": 66,
      "citationCount": 13,
      "authors": [
        {
          "authorId": "2142122688",
          "name": "Wuxin Wang"
        },
        {
          "authorId": "2319601231",
          "name": "Jinrong Zhang"
        },
        {
          "authorId": "2301879533",
          "name": "Qingguo Su"
        },
        {
          "authorId": "2323590575",
          "name": "Xingyu Chai"
        },
        {
          "authorId": "144389378",
          "name": "Jingze Lu"
        },
        {
          "authorId": "39849965",
          "name": "Weicheng Ni"
        },
        {
          "authorId": "2267040064",
          "name": "Boheng Duan"
        },
        {
          "authorId": "2410998683",
          "name": "Kaijun Ren"
        }
      ]
    }
  ]
}