{
  "total": 80,
  "offset": 0,
  "next": 10,
  "data": [
    {
      "paperId": "dd969492ce70ae9b2d5f3587a91207e6b535b22f",
      "externalIds": {
        "DBLP": "conf/icml/XuLY17",
        "MAG": "2741924441",
        "CorpusId": 27505020
      },
      "url": "https://www.semanticscholar.org/paper/dd969492ce70ae9b2d5f3587a91207e6b535b22f",
      "title": "Stochastic Convex Optimization: Faster Local Growth Implies Faster Global Convergence",
      "venue": "International Conference on Machine Learning",
      "year": 2017,
      "referenceCount": 43,
      "citationCount": 51,
      "authors": [
        {
          "authorId": "2110289529",
          "name": "Yi Xu"
        },
        {
          "authorId": "39436683",
          "name": "Qihang Lin"
        },
        {
          "authorId": "40381920",
          "name": "Tianbao Yang"
        }
      ]
    },
    {
      "paperId": "345fc15ef572a5493fc24621c027929bdbb3e435",
      "externalIds": {
        "ArXiv": "2410.02017",
        "DBLP": "journals/corr/abs-2410-02017",
        "DOI": "10.48550/arXiv.2410.02017",
        "CorpusId": 273098740
      },
      "url": "https://www.semanticscholar.org/paper/345fc15ef572a5493fc24621c027929bdbb3e435",
      "title": "Review Non-convex Optimization Method for Machine Learning",
      "venue": "arXiv.org",
      "year": 2024,
      "referenceCount": 0,
      "citationCount": 6,
      "authors": [
        {
          "authorId": "2324056069",
          "name": "Greg B Fotopoulos"
        },
        {
          "authorId": "2323982103",
          "name": "Paul Popovich"
        },
        {
          "authorId": "2368752722",
          "name": "N. Papadopoulos"
        }
      ]
    },
    {
      "paperId": "ef3138a655ac51532f5ab5ec40c7ded13510577b",
      "externalIds": {
        "ArXiv": "2602.14830",
        "DBLP": "journals/corr/abs-2602-14830",
        "DOI": "10.48550/arXiv.2602.14830",
        "CorpusId": 285616393
      },
      "url": "https://www.semanticscholar.org/paper/ef3138a655ac51532f5ab5ec40c7ded13510577b",
      "title": "On Convergence Analysis of Network-GIANT: An approximate Hessian-based fully distributed optimization algorithm",
      "venue": "arXiv.org",
      "year": 2026,
      "referenceCount": 35,
      "citationCount": 0,
      "authors": [
        {
          "authorId": "2389259543",
          "name": "Souvik Das"
        },
        {
          "authorId": "2295976265",
          "name": "Luca Schenato"
        },
        {
          "authorId": "2377380379",
          "name": "Subhrakanti Dey"
        }
      ]
    },
    {
      "paperId": "298138e121aa60c15615b565ebf8a785591da3e0",
      "externalIds": {
        "MAG": "2949621560",
        "ArXiv": "1702.00763",
        "DBLP": "conf/icml/Allen-Zhu17",
        "CorpusId": 12305030
      },
      "url": "https://www.semanticscholar.org/paper/298138e121aa60c15615b565ebf8a785591da3e0",
      "title": "Natasha: Faster Non-Convex Stochastic Optimization via Strongly Non-Convex Parameter",
      "venue": "International Conference on Machine Learning",
      "year": 2017,
      "referenceCount": 30,
      "citationCount": 82,
      "authors": [
        {
          "authorId": "1388725932",
          "name": "Zeyuan Allen-Zhu"
        }
      ]
    },
    {
      "paperId": "f0f4cfbe1f73f0b5f443c52c8dfd538b50399570",
      "externalIds": {
        "ArXiv": "1607.01027",
        "MAG": "2962883515",
        "DOI": "10.1142/S0219530519400050",
        "CorpusId": 197617008
      },
      "url": "https://www.semanticscholar.org/paper/f0f4cfbe1f73f0b5f443c52c8dfd538b50399570",
      "title": "Accelerate stochastic subgradient method by leveraging local growth condition",
      "venue": "Analysis and Applications",
      "year": 2016,
      "referenceCount": 61,
      "citationCount": 11,
      "authors": [
        {
          "authorId": "2110289529",
          "name": "Yi Xu"
        },
        {
          "authorId": "39436683",
          "name": "Qihang Lin"
        },
        {
          "authorId": "40381920",
          "name": "Tianbao Yang"
        }
      ]
    },
    {
      "paperId": "4e380ddae0a941769865ed2fb0520d3a5cf0844d",
      "externalIds": {
        "CorpusId": 16344462
      },
      "url": "https://www.semanticscholar.org/paper/4e380ddae0a941769865ed2fb0520d3a5cf0844d",
      "title": "Natasha : Faster Non-Convex Stochastic Optimization Via Strongly Non-Convex Parameter ( version 5 )",
      "venue": "",
      "year": 2018,
      "referenceCount": 31,
      "citationCount": 8,
      "authors": [
        {
          "authorId": "1388725932",
          "name": "Zeyuan Allen-Zhu"
        }
      ]
    },
    {
      "paperId": "ccb0a39090b126468043e7a1c25e015a5aea5cc0",
      "externalIds": {
        "DBLP": "journals/coap/OikonomidisBLP26",
        "ArXiv": "2312.12205",
        "DOI": "10.1007/s10589-025-00730-8",
        "CorpusId": 266362003
      },
      "url": "https://www.semanticscholar.org/paper/ccb0a39090b126468043e7a1c25e015a5aea5cc0",
      "title": "Global convergence analysis of the power proximal point and augmented Lagrangian method",
      "venue": "Computational optimization and applications",
      "year": 2023,
      "referenceCount": 41,
      "citationCount": 5,
      "authors": [
        {
          "authorId": "2114514777",
          "name": "Konstantinos A. Oikonomidis"
        },
        {
          "authorId": "2193386644",
          "name": "Alexander Bodard"
        },
        {
          "authorId": "50551113",
          "name": "E. Laude"
        },
        {
          "authorId": "1772856",
          "name": "Panagiotis Patrinos"
        }
      ]
    },
    {
      "paperId": "f1d634658afe0047c87b8e4da7a91b2bf0123e88",
      "externalIds": {
        "DBLP": "conf/nips/0003G22",
        "ArXiv": "2202.04020",
        "DOI": "10.52202/068431-2210",
        "CorpusId": 253116891
      },
      "url": "https://www.semanticscholar.org/paper/f1d634658afe0047c87b8e4da7a91b2bf0123e88",
      "title": "Local Linear Convergence of Gradient Methods for Subspace Optimization via Strict Complementarity",
      "venue": "Neural Information Processing Systems",
      "year": 2022,
      "referenceCount": 36,
      "citationCount": 1,
      "authors": [
        {
          "authorId": "2153798708",
          "name": "Ron Fisher"
        },
        {
          "authorId": "52292717",
          "name": "D. Garber"
        }
      ]
    },
    {
      "paperId": "2958d091bc40b1ba4c2829c8d65782eaa74304be",
      "externalIds": {
        "ArXiv": "2504.04330",
        "CorpusId": 277621294
      },
      "url": "https://www.semanticscholar.org/paper/2958d091bc40b1ba4c2829c8d65782eaa74304be",
      "title": "Fast Frank--Wolfe Algorithms with Adaptive Bregman Step-Size for Weakly Convex Functions",
      "venue": "",
      "year": 2025,
      "referenceCount": 76,
      "citationCount": 7,
      "authors": [
        {
          "authorId": "2305539",
          "name": "Shota Takahashi"
        },
        {
          "authorId": "145729210",
          "name": "S. Pokutta"
        },
        {
          "authorId": "2266465521",
          "name": "Akiko Takeda"
        }
      ]
    },
    {
      "paperId": "6ca140322fdace44fcce1596c93742efdb9bea6d",
      "externalIds": {
        "DBLP": "journals/corr/abs-2509-17815",
        "ArXiv": "2509.17815",
        "DOI": "10.48550/arXiv.2509.17815",
        "CorpusId": 281421721
      },
      "url": "https://www.semanticscholar.org/paper/6ca140322fdace44fcce1596c93742efdb9bea6d",
      "title": "Global Optimization via Softmin Energy Minimization",
      "venue": "arXiv.org",
      "year": 2025,
      "referenceCount": 24,
      "citationCount": 0,
      "authors": [
        {
          "authorId": "2382917393",
          "name": "Andrea Agazzi"
        },
        {
          "authorId": "2616686",
          "name": "Vittorio Carlei"
        },
        {
          "authorId": "2237816369",
          "name": "Marco Romito"
        },
        {
          "authorId": "2381375756",
          "name": "Samuele Saviozzi"
        }
      ]
    }
  ]
}