{
  "total": 1358,
  "offset": 0,
  "next": 10,
  "data": [
    {
      "paperId": "7c35b0f4d29bc67735ff8b54b69b71d16ecb62f4",
      "externalIds": {
        "MAG": "2887953126",
        "DBLP": "conf/icml/BalestrieroB18",
        "CorpusId": 51882762
      },
      "url": "https://www.semanticscholar.org/paper/7c35b0f4d29bc67735ff8b54b69b71d16ecb62f4",
      "title": "A Spline Theory of Deep Networks",
      "venue": "International Conference on Machine Learning",
      "year": 2018,
      "referenceCount": 31,
      "citationCount": 36,
      "authors": [
        {
          "authorId": "3201463",
          "name": "Randall Balestriero"
        },
        {
          "authorId": "144908066",
          "name": "Richard Baraniuk"
        }
      ]
    },
    {
      "paperId": "69151a79983c34a6bf37f2a0a7f6468297116ad6",
      "externalIds": {
        "DBLP": "journals/corr/abs-1805-06576",
        "MAG": "2803658599",
        "CorpusId": 125747178
      },
      "url": "https://www.semanticscholar.org/paper/69151a79983c34a6bf37f2a0a7f6468297116ad6",
      "title": "A Spline Theory of Deep Networks (Extended Version)",
      "venue": "arXiv.org",
      "year": 2018,
      "referenceCount": 66,
      "citationCount": 2,
      "authors": [
        {
          "authorId": "3201463",
          "name": "Randall Balestriero"
        },
        {
          "authorId": "144908066",
          "name": "Richard Baraniuk"
        }
      ]
    },
    {
      "paperId": "266311bcce6cf4cba39168f9392ca1a42ae75a71",
      "externalIds": {
        "DBLP": "journals/corr/abs-2105-03361",
        "ArXiv": "2105.03361",
        "DOI": "10.1137/21M1418642",
        "CorpusId": 234094274
      },
      "url": "https://www.semanticscholar.org/paper/266311bcce6cf4cba39168f9392ca1a42ae75a71",
      "title": "What Kinds of Functions do Deep Neural Networks Learn? Insights from Variational Spline Theory",
      "venue": "SIAM Journal on Mathematics of Data Science",
      "year": 2021,
      "referenceCount": 59,
      "citationCount": 80,
      "authors": [
        {
          "authorId": "2280409",
          "name": "Rahul Parhi"
        },
        {
          "authorId": "50033772",
          "name": "R. Nowak"
        }
      ]
    },
    {
      "paperId": "c95f0080458bc2388604ca6c0328c2fe6131c52d",
      "externalIds": {
        "ArXiv": "2501.01376",
        "CorpusId": 275213085
      },
      "url": "https://www.semanticscholar.org/paper/c95f0080458bc2388604ca6c0328c2fe6131c52d",
      "title": "Deep P-Spline: Theory, Fast Tuning, and Application",
      "venue": "",
      "year": 2025,
      "referenceCount": 54,
      "citationCount": 3,
      "authors": [
        {
          "authorId": "2393505140",
          "name": "N.T.T. Hung"
        },
        {
          "authorId": "2338314621",
          "name": "Li-Hsiang Lin"
        },
        {
          "authorId": "144048760",
          "name": "V. Calhoun"
        }
      ]
    },
    {
      "paperId": "6aa86110a83febcb6064348644470d90678aa7cd",
      "externalIds": {
        "MAG": "3089846728",
        "ArXiv": "2002.09773",
        "DBLP": "conf/icml/ErgenP21a",
        "CorpusId": 222142337
      },
      "url": "https://www.semanticscholar.org/paper/6aa86110a83febcb6064348644470d90678aa7cd",
      "title": "Revealing the Structure of Deep Neural Networks via Convex Duality",
      "venue": "International Conference on Machine Learning",
      "year": 2020,
      "referenceCount": 46,
      "citationCount": 77,
      "authors": [
        {
          "authorId": "19278348",
          "name": "Tolga Ergen"
        },
        {
          "authorId": "3173667",
          "name": "Mert Pilanci"
        }
      ]
    },
    {
      "paperId": "e2d9faa402409d4e9792d3435a6bcd02f0182d80",
      "externalIds": {
        "ArXiv": "2101.11932",
        "CorpusId": 260429301
      },
      "url": "https://www.semanticscholar.org/paper/e2d9faa402409d4e9792d3435a6bcd02f0182d80",
      "title": "Approximation Theory of Tree Tensor Networks: Tensorized Multivariate Functions",
      "venue": "",
      "year": 2021,
      "referenceCount": 35,
      "citationCount": 8,
      "authors": [
        {
          "authorId": "145753266",
          "name": "Mazen Ali"
        },
        {
          "authorId": "1701074",
          "name": "A. Nouy"
        }
      ]
    },
    {
      "paperId": "23b80bd3065e00bc6c5a1b4e3154c9079c5b12a2",
      "externalIds": {
        "ArXiv": "1805.06576",
        "DBLP": "journals/pieee/BalestrieroB21",
        "MAG": "2884447957",
        "DOI": "10.1109/JPROC.2020.3042100",
        "CorpusId": 49901088
      },
      "url": "https://www.semanticscholar.org/paper/23b80bd3065e00bc6c5a1b4e3154c9079c5b12a2",
      "title": "Mad Max: Affine Spline Insights Into Deep Learning",
      "venue": "Proceedings of the IEEE",
      "year": 2018,
      "referenceCount": 91,
      "citationCount": 91,
      "authors": [
        {
          "authorId": "3201463",
          "name": "Randall Balestriero"
        },
        {
          "authorId": "144908066",
          "name": "Richard Baraniuk"
        }
      ]
    },
    {
      "paperId": "e6bf2e2664c470f2f2b288adbb68108251b9ee63",
      "externalIds": {
        "DOI": "10.1109/DSIS67228.2025.11390070",
        "CorpusId": 286018022
      },
      "url": "https://www.semanticscholar.org/paper/e6bf2e2664c470f2f2b288adbb68108251b9ee63",
      "title": "Multi-Scale KAN Autoencoder with Learnable Spline Convolution Kernels for Side-Channel Analysis",
      "venue": "2025 International Conference on Data Science and Intelligent Systems (DSIS)",
      "year": 2025,
      "referenceCount": 19,
      "citationCount": 0,
      "authors": [
        {
          "authorId": "2327278645",
          "name": "Jiale Wang"
        },
        {
          "authorId": "2295934577",
          "name": "Zhenke Wu"
        }
      ]
    },
    {
      "paperId": "6553d5fa3a4b9a00a38abfd0ac4feed1d6beabcc",
      "externalIds": {
        "DBLP": "journals/corr/abs-1710-09302",
        "MAG": "2765950517",
        "ArXiv": "1710.09302",
        "CorpusId": 37057110
      },
      "url": "https://www.semanticscholar.org/paper/6553d5fa3a4b9a00a38abfd0ac4feed1d6beabcc",
      "title": "Adaptive Partitioning Spline Neural Networks: Template Matching, Memorization, Inhibitor Connections, Inversion, Semi-Sup, Topology Search",
      "venue": "arXiv.org",
      "year": 2017,
      "referenceCount": 97,
      "citationCount": 0,
      "authors": [
        {
          "authorId": "3201463",
          "name": "Randall Balestriero"
        },
        {
          "authorId": "144908066",
          "name": "Richard Baraniuk"
        }
      ]
    },
    {
      "paperId": "c4f00bbd09ee786ea9741554c88e75554d4d8362",
      "externalIds": {
        "DBLP": "journals/tim/ChenZX25",
        "DOI": "10.1109/TIM.2025.3588952",
        "CorpusId": 280036986
      },
      "url": "https://www.semanticscholar.org/paper/c4f00bbd09ee786ea9741554c88e75554d4d8362",
      "title": "AttCWKAN: A Novel Convolution Weighted Kolmogorov–Arnold Networks With Attention Mechanism for Wind Turbine Gearbox Fault Diagnosis",
      "venue": "IEEE Transactions on Instrumentation and Measurement",
      "year": 2025,
      "referenceCount": 31,
      "citationCount": 1,
      "authors": [
        {
          "authorId": "48993498",
          "name": "Wenhe Chen"
        },
        {
          "authorId": "2111825503",
          "name": "Hanting Zhou"
        },
        {
          "authorId": "2056031610",
          "name": "Min Xia"
        }
      ]
    }
  ]
}