{
  "total": 5156,
  "offset": 0,
  "next": 10,
  "data": [
    {
      "paperId": "5856d8c16dce7d6aeb3836b476ff704d0770c58c",
      "externalIds": {
        "MAG": "2885394260",
        "DBLP": "conf/icml/BhaskaraW18",
        "CorpusId": 51875611
      },
      "url": "https://www.semanticscholar.org/paper/5856d8c16dce7d6aeb3836b476ff704d0770c58c",
      "title": "Distributed Clustering via LSH Based Data Partitioning",
      "venue": "International Conference on Machine Learning",
      "year": 2018,
      "referenceCount": 35,
      "citationCount": 24,
      "authors": [
        {
          "authorId": "1736564",
          "name": "Aditya Bhaskara"
        },
        {
          "authorId": "67299126",
          "name": "Pruthuvi Maheshakya Wijewardena"
        }
      ]
    },
    {
      "paperId": "dc415e3b13f8037b0c426f1f5cf0b8dc1a59f680",
      "externalIds": {
        "CorpusId": 53130666
      },
      "url": "https://www.semanticscholar.org/paper/dc415e3b13f8037b0c426f1f5cf0b8dc1a59f680",
      "title": "Supplementary Material Distributed Clustering via LSH Based Data Partitioning 1 Proof of Lemma 3",
      "venue": "",
      "year": null,
      "referenceCount": 1,
      "citationCount": 0,
      "authors": []
    },
    {
      "paperId": "97a3e0ee4741a4c0d576911cab760d88c87b2152",
      "externalIds": {
        "DBLP": "journals/pacmmod/PonsTCRL25",
        "DOI": "10.1145/3769769",
        "CorpusId": 283678595
      },
      "url": "https://www.semanticscholar.org/paper/97a3e0ee4741a4c0d576911cab760d88c87b2152",
      "title": "Building Stateless Serverless Vector DBs via Block-based Data Partitioning",
      "venue": "Proc. ACM Manag. Data",
      "year": 2025,
      "referenceCount": 40,
      "citationCount": 0,
      "authors": [
        {
          "authorId": "51151456",
          "name": "Daniel Barcelona-Pons"
        },
        {
          "authorId": "2715350",
          "name": "Raúl Gracia Tinedo"
        },
        {
          "authorId": "2397236713",
          "name": "Albert Cañadilla-Domingo"
        },
        {
          "authorId": "2268266430",
          "name": "Xavier Roca-Canals"
        },
        {
          "authorId": "2327040727",
          "name": "Pedro García López"
        }
      ]
    },
    {
      "paperId": "da2ee5f408401909c3572987030dc0e326e51bcd",
      "externalIds": {
        "DOI": "10.3390/app14031270",
        "CorpusId": 267503984
      },
      "url": "https://www.semanticscholar.org/paper/da2ee5f408401909c3572987030dc0e326e51bcd",
      "title": "Distributed Action-Rule Discovery Based on Attribute Correlation and Vertical Data Partitioning",
      "venue": "Applied Sciences",
      "year": 2024,
      "referenceCount": 30,
      "citationCount": 4,
      "authors": [
        {
          "authorId": "2283006968",
          "name": "Aileen Benedict"
        },
        {
          "authorId": "2263480729",
          "name": "Zbigniew W. Ras"
        }
      ]
    },
    {
      "paperId": "c2d1b71afd38b5f3ff30140a87e64582659b1a0d",
      "externalIds": {
        "DBLP": "conf/icde/WangYLWWXJ24",
        "DOI": "10.1109/ICDE60146.2024.00344",
        "CorpusId": 271406165
      },
      "url": "https://www.semanticscholar.org/paper/c2d1b71afd38b5f3ff30140a87e64582659b1a0d",
      "title": "SWISP: Distributed Convoy Mining via Sliding Window-based Indexing and Sub-track Partitioning",
      "venue": "IEEE International Conference on Data Engineering",
      "year": 2024,
      "referenceCount": 47,
      "citationCount": 1,
      "authors": [
        {
          "authorId": "2144522173",
          "name": "Chenxu Wang"
        },
        {
          "authorId": "2390556520",
          "name": "Xin Yang"
        },
        {
          "authorId": "2276774389",
          "name": "Tianyi Li"
        },
        {
          "authorId": "2049043949",
          "name": "Jiaxin Wei"
        },
        {
          "authorId": "2152206172",
          "name": "Pinghui Wang"
        },
        {
          "authorId": "2312745402",
          "name": "Hongzhen Xiang"
        },
        {
          "authorId": "2311702120",
          "name": "Christian S. Jensen"
        }
      ]
    },
    {
      "paperId": "a715213791b8ef8d357ff17f8fd421bee0bd266a",
      "externalIds": {
        "DOI": "10.1109/ICPRE59655.2023.10353797",
        "CorpusId": 266439287
      },
      "url": "https://www.semanticscholar.org/paper/a715213791b8ef8d357ff17f8fd421bee0bd266a",
      "title": "Distributed PV cluster partitioning strategy based on GAN data synthesis federation clustering",
      "venue": "IEEE International Conference on Power and Renewable Energy",
      "year": 2023,
      "referenceCount": 14,
      "citationCount": 3,
      "authors": [
        {
          "authorId": "2275866072",
          "name": "Lei Chen"
        },
        {
          "authorId": "2276179982",
          "name": "Yihui Sun"
        },
        {
          "authorId": "2272398455",
          "name": "Zhen-Yu Wu"
        },
        {
          "authorId": "2275098811",
          "name": "Lin Ye"
        },
        {
          "authorId": "2275620971",
          "name": "Yuanyuan Shi"
        },
        {
          "authorId": "2141335479",
          "name": "Zhuo Li"
        }
      ]
    },
    {
      "paperId": "e8c80b03e2fa90cb6bff8d1896891e10e53a23b6",
      "externalIds": {
        "MAG": "2886459722",
        "DBLP": "journals/symmetry/HosseiniK18",
        "DOI": "10.3390/sym10080342",
        "CorpusId": 52294564
      },
      "url": "https://www.semanticscholar.org/paper/e8c80b03e2fa90cb6bff8d1896891e10e53a23b6",
      "title": "A Robust Distributed Big Data Clustering-based on Adaptive Density Partitioning using Apache Spark",
      "venue": "Symmetry",
      "year": 2018,
      "referenceCount": 67,
      "citationCount": 14,
      "authors": [
        {
          "authorId": "145068958",
          "name": "Behrooz Hosseini"
        },
        {
          "authorId": "33834011",
          "name": "K. Kiani"
        }
      ]
    },
    {
      "paperId": "fe66940d9652fd41a9af5f7d301d1484fbcd4540",
      "externalIds": {
        "DBLP": "journals/tkde/ZengPLWLY25",
        "DOI": "10.1109/TKDE.2024.3486530",
        "CorpusId": 273621318
      },
      "url": "https://www.semanticscholar.org/paper/fe66940d9652fd41a9af5f7d301d1484fbcd4540",
      "title": "Scalable Semi-Supervised Clustering via Structural Entropy With Different Constraints",
      "venue": "IEEE Transactions on Knowledge and Data Engineering",
      "year": 2025,
      "referenceCount": 56,
      "citationCount": 15,
      "authors": [
        {
          "authorId": "2061248533",
          "name": "Guangjie Zeng"
        },
        {
          "authorId": "2138444320",
          "name": "Hao Peng"
        },
        {
          "authorId": "2237960041",
          "name": "Angsheng Li"
        },
        {
          "authorId": "2109176690",
          "name": "Jia Wu"
        },
        {
          "authorId": "2212098398",
          "name": "Chunyang Liu"
        },
        {
          "authorId": "2200045681",
          "name": "Phillp S. Yu"
        }
      ]
    },
    {
      "paperId": "a86e75191df88e8e00ebd9ef40025ea6cb07febb",
      "externalIds": {
        "DBLP": "journals/tnn/YangYYCCGH25",
        "DOI": "10.1109/TNNLS.2024.3439735",
        "CorpusId": 271880078,
        "PubMed": "39146177"
      },
      "url": "https://www.semanticscholar.org/paper/a86e75191df88e8e00ebd9ef40025ea6cb07febb",
      "title": "SPGMVC: Multiview Clustering via Partitioning the Signed Prototype Graph",
      "venue": "IEEE Transactions on Neural Networks and Learning Systems",
      "year": 2024,
      "referenceCount": 71,
      "citationCount": 2,
      "authors": [
        {
          "authorId": "2163838733",
          "name": "Geping Yang"
        },
        {
          "authorId": "2316525496",
          "name": "Shusen Yang"
        },
        {
          "authorId": "2277442",
          "name": "Y. Yang"
        },
        {
          "authorId": "2143734280",
          "name": "Xiang Chen"
        },
        {
          "authorId": "2198609823",
          "name": "Can Chen"
        },
        {
          "authorId": "2279123401",
          "name": "Zhiguo Gong"
        },
        {
          "authorId": "2198517337",
          "name": "Zhifeng Hao"
        }
      ]
    },
    {
      "paperId": "370b713e2520c2c93d46901f2eabd1bb79ef018d",
      "externalIds": {
        "MAG": "3157256188",
        "DBLP": "journals/wpc/RavikumarK21",
        "DOI": "10.1007/s11277-021-08516-x",
        "CorpusId": 235580945
      },
      "url": "https://www.semanticscholar.org/paper/370b713e2520c2c93d46901f2eabd1bb79ef018d",
      "title": "A New Adaptive Hybrid Mutation Black Widow Clustering Based Data Partitioning for Big Data Analysis",
      "venue": "Wireless personal communications",
      "year": 2021,
      "referenceCount": 43,
      "citationCount": 28,
      "authors": [
        {
          "authorId": "1740614098",
          "name": "S. Ravikumar"
        },
        {
          "authorId": "150076979",
          "name": "D. Kavitha"
        }
      ]
    }
  ]
}