{
  "total": 8124,
  "offset": 0,
  "next": 10,
  "data": [
    {
      "paperId": "24db7dd58ab4968dcd4f026123153ba30c3c0701",
      "externalIds": {
        "MAG": "1858022548",
        "DBLP": "conf/icml/WangWLCW15",
        "CorpusId": 1371214
      },
      "url": "https://www.semanticscholar.org/paper/24db7dd58ab4968dcd4f026123153ba30c3c0701",
      "title": "Multi-Task Learning for Subspace Segmentation",
      "venue": "International Conference on Machine Learning",
      "year": 2015,
      "referenceCount": 18,
      "citationCount": 20,
      "authors": [
        {
          "authorId": "113310344",
          "name": "Yu Wang"
        },
        {
          "authorId": "2242717",
          "name": "D. Wipf"
        },
        {
          "authorId": "144474120",
          "name": "Qing Ling"
        },
        {
          "authorId": "38244645",
          "name": "Wei Chen"
        },
        {
          "authorId": "1808473",
          "name": "I. Wassell"
        }
      ]
    },
    {
      "paperId": "d13625a1533db82489401d4c6ffebca4e97a4219",
      "externalIds": {
        "CorpusId": 2549355
      },
      "url": "https://www.semanticscholar.org/paper/d13625a1533db82489401d4c6ffebca4e97a4219",
      "title": "Multi-Task Learning for Subspace Segmentation : Supplementary File",
      "venue": "",
      "year": 2015,
      "referenceCount": 5,
      "citationCount": 0,
      "authors": [
        {
          "authorId": "2153605980",
          "name": "Yu Wang"
        }
      ]
    },
    {
      "paperId": "023ba45d57d1b049b63099a653ceff24e523ba76",
      "externalIds": {
        "MAG": "2979445520",
        "DBLP": "conf/miccai/ZhangZWLTLQL19",
        "DOI": "10.1007/978-3-030-32692-0_7",
        "CorpusId": 204538909
      },
      "url": "https://www.semanticscholar.org/paper/023ba45d57d1b049b63099a653ceff24e523ba76",
      "title": "MSAFusionNet: Multiple Subspace Attention Based Deep Multi-modal Fusion Network",
      "venue": "MLMI@MICCAI",
      "year": 2019,
      "referenceCount": 13,
      "citationCount": 4,
      "authors": [
        {
          "authorId": "2107968240",
          "name": "Sen Zhang"
        },
        {
          "authorId": "1409844494",
          "name": "Changzheng Zhang"
        },
        {
          "authorId": "49680751",
          "name": "Lanjun Wang"
        },
        {
          "authorId": "1391213506",
          "name": "Cixing Li"
        },
        {
          "authorId": "2929196",
          "name": "Dandan Tu"
        },
        {
          "authorId": "2054638292",
          "name": "R. Luo"
        },
        {
          "authorId": "2272096",
          "name": "Guo-Jun Qi"
        },
        {
          "authorId": "33642939",
          "name": "Jiebo Luo"
        }
      ]
    },
    {
      "paperId": "40a8972bc737a406cf18952b6231b8a007804805",
      "externalIds": {
        "DBLP": "journals/corr/abs-2007-07175",
        "MAG": "3042939376",
        "CorpusId": 220514798
      },
      "url": "https://www.semanticscholar.org/paper/40a8972bc737a406cf18952b6231b8a007804805",
      "title": "Deep Heterogeneous Autoencoder for Subspace Clustering of Sequential Data",
      "venue": "arXiv.org",
      "year": 2020,
      "referenceCount": 44,
      "citationCount": 1,
      "authors": [
        {
          "authorId": "1780766314",
          "name": "Abubakar Siddique"
        },
        {
          "authorId": "35354697",
          "name": "Reza Jalil Mozhdehi"
        },
        {
          "authorId": "2767912",
          "name": "Henry Medeiros"
        }
      ]
    },
    {
      "paperId": "44a4a8ada1e14a8a921c4387f39e45acb23edaa2",
      "externalIds": {
        "MAG": "2564986616",
        "DBLP": "conf/ideal/QiSWY016",
        "DOI": "10.1007/978-3-319-46257-8_35",
        "CorpusId": 34583561
      },
      "url": "https://www.semanticscholar.org/paper/44a4a8ada1e14a8a921c4387f39e45acb23edaa2",
      "title": "Multi-view Subspace Clustering via a Global Low-Rank Affinity Matrix",
      "venue": "Ideal",
      "year": 2016,
      "referenceCount": 10,
      "citationCount": 4,
      "authors": [
        {
          "authorId": "1785352346",
          "name": "Lei Qi"
        },
        {
          "authorId": "2475959",
          "name": "Yinghuan Shi"
        },
        {
          "authorId": "2108868539",
          "name": "Huihui Wang"
        },
        {
          "authorId": "3183928",
          "name": "Wanqi Yang"
        },
        {
          "authorId": "145644819",
          "name": "Yang Gao"
        }
      ]
    },
    {
      "paperId": "943f48ed7c5d49befb219cde1285ca378f86e3dc",
      "externalIds": {
        "DBLP": "journals/sensors/UsamaNM22",
        "PubMedCentral": "9658979",
        "DOI": "10.3390/s22218311",
        "CorpusId": 253296598,
        "PubMed": "36366009"
      },
      "url": "https://www.semanticscholar.org/paper/943f48ed7c5d49befb219cde1285ca378f86e3dc",
      "title": "Multi-Class Skin Lesions Classification Using Deep Features",
      "venue": "Italian National Conference on Sensors",
      "year": 2022,
      "referenceCount": 22,
      "citationCount": 11,
      "authors": [
        {
          "authorId": "2305750878",
          "name": "Muhammad Usama"
        },
        {
          "authorId": "143823928",
          "name": "M. Naeem"
        },
        {
          "authorId": "2792137",
          "name": "Farhaan Mirza"
        }
      ]
    },
    {
      "paperId": "9e8058d17dc9e655825189be6e2b6ef4fefee1e5",
      "externalIds": {
        "MAG": "43562846",
        "DBLP": "conf/ncpw/Perez-Minana97",
        "DOI": "10.1007/978-1-4471-1546-5_5",
        "CorpusId": 59733265
      },
      "url": "https://www.semanticscholar.org/paper/9e8058d17dc9e655825189be6e2b6ef4fefee1e5",
      "title": "A Generative Learning Algorithm that uses Structural Knowledge of the Input Domain yields a better Multi-layer Perceptron",
      "venue": "Neural Computation and Psychology Workshop",
      "year": 1997,
      "referenceCount": 7,
      "citationCount": 0,
      "authors": [
        {
          "authorId": "101215083",
          "name": "Elena Pérez-Miñana"
        }
      ]
    },
    {
      "paperId": "a7933d4bb03e9f23b01ce4f7ef40ddc2f9b1aefa",
      "externalIds": {
        "MAG": "2294926087",
        "DBLP": "conf/iscide/YouW15",
        "DOI": "10.1007/978-3-319-23989-7_14",
        "CorpusId": 10594491
      },
      "url": "https://www.semanticscholar.org/paper/a7933d4bb03e9f23b01ce4f7ef40ddc2f9b1aefa",
      "title": "Graph Regularized Structured Sparse Subspace Clustering",
      "venue": "Sino-foreign-interchange Workshop on Intelligent Science and Intelligent Data Engineering",
      "year": 2015,
      "referenceCount": 12,
      "citationCount": 0,
      "authors": [
        {
          "authorId": "3077055",
          "name": "Cong-Zhe You"
        },
        {
          "authorId": "50171534",
          "name": "Xiaojun Wu"
        }
      ]
    },
    {
      "paperId": "1c8008a343dff523f1b52d9ae3d71f59ad64fdc9",
      "externalIds": {
        "DBLP": "conf/3dim/BowenTZS22",
        "ArXiv": "2112.01502",
        "DOI": "10.1109/3DV57658.2022.00057",
        "CorpusId": 251554931
      },
      "url": "https://www.semanticscholar.org/paper/1c8008a343dff523f1b52d9ae3d71f59ad64fdc9",
      "title": "Dimensions of Motion: Monocular Prediction through Flow Subspaces",
      "venue": "International Conference on 3D Vision",
      "year": 2021,
      "referenceCount": 58,
      "citationCount": 12,
      "authors": [
        {
          "authorId": "2054616000",
          "name": "Richard Strong Bowen"
        },
        {
          "authorId": "2061556403",
          "name": "Richard Tucker"
        },
        {
          "authorId": "2984143",
          "name": "R. Zabih"
        },
        {
          "authorId": "1830653",
          "name": "Noah Snavely"
        }
      ]
    },
    {
      "paperId": "02fa2510d932cc8636efc1246be02bb63785a99f",
      "externalIds": {
        "DBLP": "journals/corr/abs-2503-18100",
        "ArXiv": "2503.18100",
        "DOI": "10.1609/aaai.v39i2.32227",
        "CorpusId": 277271731
      },
      "url": "https://www.semanticscholar.org/paper/02fa2510d932cc8636efc1246be02bb63785a99f",
      "title": "M3Net: Multimodal Multi-task Learning for 3D Detection, Segmentation, and Occupancy Prediction in Autonomous Driving",
      "venue": "AAAI Conference on Artificial Intelligence",
      "year": 2025,
      "referenceCount": 51,
      "citationCount": 13,
      "authors": [
        {
          "authorId": "2337243157",
          "name": "Xuesong Chen"
        },
        {
          "authorId": "2072683588",
          "name": "Shaoshuai Shi"
        },
        {
          "authorId": "2352429282",
          "name": "Tao Ma"
        },
        {
          "authorId": "2268824360",
          "name": "Jingqiu Zhou"
        },
        {
          "authorId": "2281643656",
          "name": "Simon See"
        },
        {
          "authorId": "2253506793",
          "name": "Ka Chun Cheung"
        },
        {
          "authorId": "2315566230",
          "name": "Hongsheng Li"
        }
      ]
    }
  ]
}