{
  "total": 6807,
  "offset": 0,
  "next": 10,
  "data": [
    {
      "paperId": "40addc9c5d6ab5668fe347806e94546e80e66595",
      "externalIds": {
        "MAG": "2788057085",
        "ArXiv": "1802.09308",
        "DBLP": "conf/icml/PangDZ18",
        "CorpusId": 3518591
      },
      "url": "https://www.semanticscholar.org/paper/40addc9c5d6ab5668fe347806e94546e80e66595",
      "title": "Max-Mahalanobis Linear Discriminant Analysis Networks",
      "venue": "International Conference on Machine Learning",
      "year": 2018,
      "referenceCount": 36,
      "citationCount": 58,
      "authors": [
        {
          "authorId": "19201674",
          "name": "Tianyu Pang"
        },
        {
          "authorId": "144369497",
          "name": "Chao Du"
        },
        {
          "authorId": "145254043",
          "name": "Jun Zhu"
        }
      ]
    },
    {
      "paperId": "eab6d1cc2ac9cf4b756c805d583d3787d1efa544",
      "externalIds": {
        "MAG": "2988008335",
        "DOI": "10.1016/j.mehy.2019.109503",
        "CorpusId": 208274814,
        "PubMed": "31760247"
      },
      "url": "https://www.semanticscholar.org/paper/eab6d1cc2ac9cf4b756c805d583d3787d1efa544",
      "title": "Application of breast cancer diagnosis based on a combination of convolutional neural networks, ridge regression and linear discriminant analysis using invasive breast cancer images processed with autoencoders.",
      "venue": "Medical Hypotheses",
      "year": 2019,
      "referenceCount": 43,
      "citationCount": 93,
      "authors": [
        {
          "authorId": "66282960",
          "name": "Mesut Toğaçar"
        },
        {
          "authorId": "47199664",
          "name": "B. Ergen"
        },
        {
          "authorId": "9170270",
          "name": "Zafer Cömert"
        }
      ]
    },
    {
      "paperId": "ad9e6dd08e197edbb754709a9a67c2049f43713e",
      "externalIds": {
        "MAG": "3082786970",
        "DOI": "10.1007/s10668-020-00964-y",
        "CorpusId": 221365000
      },
      "url": "https://www.semanticscholar.org/paper/ad9e6dd08e197edbb754709a9a67c2049f43713e",
      "title": "Predicting areas with ecotourism capability using artificial neural networks and linear discriminant analysis (case study: Arasbaran Protected Area, Iran)",
      "venue": "Environment, Development and Sustainability",
      "year": 2020,
      "referenceCount": 56,
      "citationCount": 11,
      "authors": [
        {
          "authorId": "1380334925",
          "name": "M. Talebi"
        },
        {
          "authorId": "4145837",
          "name": "B. Majnounian"
        },
        {
          "authorId": "32653702",
          "name": "M. Makhdoum"
        },
        {
          "authorId": "49977422",
          "name": "E. Abdi"
        },
        {
          "authorId": "123775273",
          "name": "M. Omid"
        }
      ]
    },
    {
      "paperId": "e7d44cabbfedc32b0c530d1764cf27ce06f29056",
      "externalIds": {
        "DBLP": "journals/corr/abs-2303-07543",
        "ArXiv": "2303.07543",
        "DOI": "10.1109/ICCV51070.2023.00488",
        "CorpusId": 257505415
      },
      "url": "https://www.semanticscholar.org/paper/e7d44cabbfedc32b0c530d1764cf27ce06f29056",
      "title": "WDiscOOD: Out-of-Distribution Detection via Whitened Linear Discriminant Analysis",
      "venue": "IEEE International Conference on Computer Vision",
      "year": 2023,
      "referenceCount": 50,
      "citationCount": 13,
      "authors": [
        {
          "authorId": "2109208597",
          "name": "Yiye Chen"
        },
        {
          "authorId": "2108867573",
          "name": "Yunzhi Lin"
        },
        {
          "authorId": "19260257",
          "name": "Ruinian Xu"
        },
        {
          "authorId": "1736403",
          "name": "P. Vela"
        }
      ]
    },
    {
      "paperId": "d2cd1e30b708bae37368fe18fefb2445b1210046",
      "externalIds": {
        "DOI": "10.1016/j.aca.2023.341129",
        "CorpusId": 257823252,
        "PubMed": "37147049"
      },
      "url": "https://www.semanticscholar.org/paper/d2cd1e30b708bae37368fe18fefb2445b1210046",
      "title": "Spectral classification by generative adversarial linear discriminant analysis.",
      "venue": "Analytica Chimica Acta",
      "year": 2023,
      "referenceCount": 57,
      "citationCount": 15,
      "authors": [
        {
          "authorId": "2113999252",
          "name": "Ziyi Cao"
        },
        {
          "authorId": "2145407661",
          "name": "Shijie Zhang"
        },
        {
          "authorId": "2108175111",
          "name": "Youlin Liu"
        },
        {
          "authorId": "153551235",
          "name": "Casey J. Smith"
        },
        {
          "authorId": "153703423",
          "name": "A. Sherman"
        },
        {
          "authorId": "2201705893",
          "name": "Yechan Hwang"
        },
        {
          "authorId": "2137046082",
          "name": "Garth J. Simpson"
        }
      ]
    },
    {
      "paperId": "d0377793878cfc1bb5fc449261aa9dfd21064d19",
      "externalIds": {
        "DBLP": "journals/nn/QuP26",
        "DOI": "10.1016/j.neunet.2026.108539",
        "CorpusId": 284568456,
        "PubMed": "41529599"
      },
      "url": "https://www.semanticscholar.org/paper/d0377793878cfc1bb5fc449261aa9dfd21064d19",
      "title": "Kernelized linear principal component discriminant analysis",
      "venue": "Neural Networks",
      "year": 2026,
      "referenceCount": 67,
      "citationCount": 0,
      "authors": [
        {
          "authorId": "2281971846",
          "name": "Lingxiao Qu"
        },
        {
          "authorId": "2274300653",
          "name": "Yan Pei"
        }
      ]
    },
    {
      "paperId": "6c4837c5980811f6a3893b1cbfc40fb45f2691b0",
      "externalIds": {
        "DBLP": "journals/pami/Chang23",
        "DOI": "10.1109/TPAMI.2022.3233572",
        "CorpusId": 255704739,
        "PubMed": "37018309"
      },
      "url": "https://www.semanticscholar.org/paper/6c4837c5980811f6a3893b1cbfc40fb45f2691b0",
      "title": "Fisher's Linear Discriminant Analysis With Space-Folding Operations",
      "venue": "IEEE Transactions on Pattern Analysis and Machine Intelligence",
      "year": 2023,
      "referenceCount": 32,
      "citationCount": 11,
      "authors": [
        {
          "authorId": "40513660",
          "name": "Chin-Chun Chang"
        }
      ]
    },
    {
      "paperId": "199c19ff4e02bde0bedcbbb8d6fe4b684b0d744e",
      "externalIds": {
        "DBLP": "conf/iscslp/YangWSQ018",
        "MAG": "2944613371",
        "DOI": "10.1109/ISCSLP.2018.8706575",
        "CorpusId": 146118924
      },
      "url": "https://www.semanticscholar.org/paper/199c19ff4e02bde0bedcbbb8d6fe4b684b0d744e",
      "title": "Generative Adversarial Networks based X-vector Augmentation for Robust Probabilistic Linear Discriminant Analysis in Speaker Verification",
      "venue": "International Symposium on Chinese Spoken Language Processing",
      "year": 2018,
      "referenceCount": 37,
      "citationCount": 13,
      "authors": [
        {
          "authorId": "46285383",
          "name": "Yexin Yang"
        },
        {
          "authorId": "2118510945",
          "name": "Shuai Wang"
        },
        {
          "authorId": "2115616894",
          "name": "Man Sun"
        },
        {
          "authorId": "2480051",
          "name": "Y. Qian"
        },
        {
          "authorId": "1736727",
          "name": "Kai Yu"
        }
      ]
    },
    {
      "paperId": "19a36b964179c506dcca5cfae1565f659ef4d4c2",
      "externalIds": {
        "DBLP": "journals/pr/ShaoS17",
        "MAG": "2569890902",
        "DOI": "10.1016/j.patcog.2016.12.030",
        "CorpusId": 37359837
      },
      "url": "https://www.semanticscholar.org/paper/19a36b964179c506dcca5cfae1565f659ef4d4c2",
      "title": "Regularized max-min linear discriminant analysis",
      "venue": "Pattern Recognition",
      "year": 2017,
      "referenceCount": 44,
      "citationCount": 24,
      "authors": [
        {
          "authorId": "1810658",
          "name": "Guowan Shao"
        },
        {
          "authorId": "1707161",
          "name": "N. Sang"
        }
      ]
    },
    {
      "paperId": "d03b6a840098f755329401fca46217f821e6e689",
      "externalIds": {
        "MAG": "2768282969",
        "DOI": "10.1590/1984-70332017V17N4A46",
        "CorpusId": 56209682
      },
      "url": "https://www.semanticscholar.org/paper/d03b6a840098f755329401fca46217f821e6e689",
      "title": "Artificial neural networks and linear discriminant analysis in early selection among sugarcane families",
      "venue": "",
      "year": 2017,
      "referenceCount": 17,
      "citationCount": 13,
      "authors": [
        {
          "authorId": "40337527",
          "name": "L. Peternelli"
        },
        {
          "authorId": "145113357",
          "name": "É. A. Moreira"
        },
        {
          "authorId": "50485131",
          "name": "M. Nascimento"
        },
        {
          "authorId": "1756594",
          "name": "C. Cruz"
        }
      ]
    }
  ]
}