{
  "total": 27,
  "offset": 0,
  "next": 10,
  "data": [
    {
      "paperId": "0b16f99ee6a6dd9ed4f6236d557d252ccd613e6f",
      "externalIds": {
        "DBLP": "journals/corr/SelsamLD17",
        "ArXiv": "1706.08605",
        "MAG": "2953323048",
        "CorpusId": 8755038
      },
      "url": "https://www.semanticscholar.org/paper/0b16f99ee6a6dd9ed4f6236d557d252ccd613e6f",
      "title": "Developing Bug-Free Machine Learning Systems With Formal Mathematics",
      "venue": "International Conference on Machine Learning",
      "year": 2017,
      "referenceCount": 30,
      "citationCount": 60,
      "authors": [
        {
          "authorId": "2196579",
          "name": "Daniel Selsam"
        },
        {
          "authorId": "145419642",
          "name": "Percy Liang"
        },
        {
          "authorId": "1699040",
          "name": "D. Dill"
        }
      ]
    },
    {
      "paperId": "8cde92023b267ed8490ce125795a3979cdfd624f",
      "externalIds": {
        "CorpusId": 252125466
      },
      "url": "https://www.semanticscholar.org/paper/8cde92023b267ed8490ce125795a3979cdfd624f",
      "title": "Program YES Workshop 2022 Optimal Transport, Statistics, Machine Learning and moving in between",
      "venue": "",
      "year": 2022,
      "referenceCount": 4,
      "citationCount": 0,
      "authors": [
        {
          "authorId": "2088138879",
          "name": "G. Jin"
        },
        {
          "authorId": "2319416455",
          "name": "Valentina Masarotto"
        }
      ]
    },
    {
      "paperId": "02e9e6b511bc1ed390341ce40fb7b0e6620d2f20",
      "externalIds": {
        "MAG": "2494885854",
        "DOI": "10.1007/978-1-4302-6766-9",
        "CorpusId": 27478602
      },
      "url": "https://www.semanticscholar.org/paper/02e9e6b511bc1ed390341ce40fb7b0e6620d2f20",
      "title": "Machine Learning Projects for .NET Developers",
      "venue": "Apress",
      "year": 2015,
      "referenceCount": 0,
      "citationCount": 1,
      "authors": [
        {
          "authorId": "35595636",
          "name": "Mathias Brandewinder"
        }
      ]
    },
    {
      "paperId": "b99019ed24f8a4c5255eb96de69568729fcdacc9",
      "externalIds": {
        "MAG": "2518852903",
        "DOI": "10.1016/B978-0-12-805246-4.00010-0",
        "CorpusId": 63982815
      },
      "url": "https://www.semanticscholar.org/paper/b99019ed24f8a4c5255eb96de69568729fcdacc9",
      "title": "Model-Free Learning of Nash Games With Applications to Network Security",
      "venue": "",
      "year": 2016,
      "referenceCount": 26,
      "citationCount": 2,
      "authors": [
        {
          "authorId": "2962183",
          "name": "K. Vamvoudakis"
        }
      ]
    },
    {
      "paperId": "5e0906b2fd3b71de70c8e92033fa5409a85a71ab",
      "externalIds": {
        "MAG": "2599926434",
        "DBLP": "phd/basesearch/Aadithya16",
        "CorpusId": 35079402
      },
      "url": "https://www.semanticscholar.org/paper/5e0906b2fd3b71de70c8e92033fa5409a85a71ab",
      "title": "Accurate Booleanization of Continuous Dynamics for Analog/Mixed-Signal Design",
      "venue": "",
      "year": 2016,
      "referenceCount": 68,
      "citationCount": 2,
      "authors": [
        {
          "authorId": "30899585",
          "name": "K. Aadithya"
        }
      ]
    },
    {
      "paperId": "5380617adec05a1e6eef3be50cdfc1e77b9e3117",
      "externalIds": {
        "CorpusId": 202636718
      },
      "url": "https://www.semanticscholar.org/paper/5380617adec05a1e6eef3be50cdfc1e77b9e3117",
      "title": "CPSC 490-Final Report-An Introduction to Coq",
      "venue": "",
      "year": 2017,
      "referenceCount": 0,
      "citationCount": 0,
      "authors": [
        {
          "authorId": "2407520568",
          "name": "Justin Wang"
        }
      ]
    },
    {
      "paperId": "594d39960dc59edb918aeb534dea33fb141cf7d4",
      "externalIds": {
        "MAG": "2689533096",
        "DBLP": "journals/automatica/WangS90",
        "DOI": "10.1016/0005-1098(90)90001-X",
        "CorpusId": 12817992
      },
      "url": "https://www.semanticscholar.org/paper/594d39960dc59edb918aeb534dea33fb141cf7d4",
      "title": "A coordination theory for intelligent machines",
      "venue": "at - Automatisierungstechnik",
      "year": 1990,
      "referenceCount": 21,
      "citationCount": 109,
      "authors": [
        {
          "authorId": "143754347",
          "name": "Fei-Yue Wang"
        },
        {
          "authorId": "2389818",
          "name": "G. Saridis"
        }
      ]
    },
    {
      "paperId": "3b8240a3f674f39a4bb822ab0aa197b309fea879",
      "externalIds": {
        "MAG": "117125681",
        "CorpusId": 59826430
      },
      "url": "https://www.semanticscholar.org/paper/3b8240a3f674f39a4bb822ab0aa197b309fea879",
      "title": "A REVIEW OF FORMAL METHODS",
      "venue": "",
      "year": 2010,
      "referenceCount": 56,
      "citationCount": 5,
      "authors": [
        {
          "authorId": "31064083",
          "name": "R. Vienneau"
        }
      ]
    },
    {
      "paperId": "964ad857b7b447bc657f47a334a84776cd674dbc",
      "externalIds": {
        "DBLP": "journals/cor/CaballeroJK21",
        "MAG": "3111460213",
        "DOI": "10.1016/j.cor.2020.105185",
        "CorpusId": 230597066
      },
      "url": "https://www.semanticscholar.org/paper/964ad857b7b447bc657f47a334a84776cd674dbc",
      "title": "Poisoning finite-horizon Markov decision processes at design time",
      "venue": "Computers & Operations Research",
      "year": 2020,
      "referenceCount": 43,
      "citationCount": 3,
      "authors": [
        {
          "authorId": "103061687",
          "name": "William N. Caballero"
        },
        {
          "authorId": "2005075967",
          "name": "Phillip R. Jenkins"
        },
        {
          "authorId": "144352381",
          "name": "Andrew J. Keith"
        }
      ]
    },
    {
      "paperId": "8420c6643e2f0293f474a89a2c06518b53dd2985",
      "externalIds": {
        "CorpusId": 43134553
      },
      "url": "https://www.semanticscholar.org/paper/8420c6643e2f0293f474a89a2c06518b53dd2985",
      "title": "The Sixteenth Annual Nebraska Conference for Undergraduate Women in Mathematics",
      "venue": "",
      "year": 2014,
      "referenceCount": 0,
      "citationCount": 0,
      "authors": [
        {
          "authorId": "145980736",
          "name": "C. Phillips"
        }
      ]
    }
  ]
}