{
  "total": 1213,
  "offset": 0,
  "next": 10,
  "data": [
    {
      "paperId": "b4568ce26176864c5427dd27ba3687451c181d83",
      "externalIds": {
        "MAG": "1841698879",
        "DBLP": "conf/icml/SunSK15",
        "CorpusId": 1427721
      },
      "url": "https://www.semanticscholar.org/paper/b4568ce26176864c5427dd27ba3687451c181d83",
      "title": "Message Passing for Collective Graphical Models",
      "venue": "International Conference on Machine Learning",
      "year": 2015,
      "referenceCount": 25,
      "citationCount": 29,
      "authors": [
        {
          "authorId": "2088150138",
          "name": "Tao Sun"
        },
        {
          "authorId": "144799908",
          "name": "D. Sheldon"
        },
        {
          "authorId": "40305195",
          "name": "Akshat Kumar"
        }
      ]
    },
    {
      "paperId": "5f7d0ec896f86b57170045f6baa6cb09116b0b6c",
      "externalIds": {
        "CorpusId": 251795036
      },
      "url": "https://www.semanticscholar.org/paper/5f7d0ec896f86b57170045f6baa6cb09116b0b6c",
      "title": "Institutional Knowledge at Singapore Management University Message Passing for Collective Graphical Models",
      "venue": "",
      "year": 2019,
      "referenceCount": 20,
      "citationCount": 0,
      "authors": [
        {
          "authorId": "2113204508",
          "name": "Tao Sun"
        },
        {
          "authorId": "144799908",
          "name": "D. Sheldon"
        },
        {
          "authorId": "40305195",
          "name": "Akshat Kumar"
        }
      ]
    },
    {
      "paperId": "a7ee1f9508617a6ab8569bf538f740e48b76a0cd",
      "externalIds": {
        "DBLP": "conf/aistats/NguyenKLS16",
        "MAG": "2375648536",
        "CorpusId": 7402851
      },
      "url": "https://www.semanticscholar.org/paper/a7ee1f9508617a6ab8569bf538f740e48b76a0cd",
      "title": "Approximate Inference Using DC Programming For Collective Graphical Models",
      "venue": "International Conference on Artificial Intelligence and Statistics",
      "year": 2016,
      "referenceCount": 15,
      "citationCount": 12,
      "authors": [
        {
          "authorId": "35147280",
          "name": "D. Nguyen"
        },
        {
          "authorId": "40305195",
          "name": "Akshat Kumar"
        },
        {
          "authorId": "1725253",
          "name": "H. Lau"
        },
        {
          "authorId": "144799908",
          "name": "D. Sheldon"
        }
      ]
    },
    {
      "paperId": "6dce8abd03b0a7d0027906371ff8bdb92edb275b",
      "externalIds": {
        "DOI": "10.1063/5.0251687",
        "CorpusId": 276129631
      },
      "url": "https://www.semanticscholar.org/paper/6dce8abd03b0a7d0027906371ff8bdb92edb275b",
      "title": "Applications of multi-GPU computing in large-scale fully kinetic particle-in-cell simulations of space plasma",
      "venue": "AIP Advances",
      "year": 2025,
      "referenceCount": 42,
      "citationCount": 1,
      "authors": [
        {
          "authorId": "2071147879",
          "name": "Q. Xiong"
        },
        {
          "authorId": "152257209",
          "name": "S. Y. Huang"
        },
        {
          "authorId": "2107234098",
          "name": "Z. Yuan"
        },
        {
          "authorId": "2343917571",
          "name": "L. Kuang"
        },
        {
          "authorId": "2289286207",
          "name": "B. Sharma"
        },
        {
          "authorId": "2005558665",
          "name": "K. Jiang"
        },
        {
          "authorId": "2257152332",
          "name": "H. Wu"
        },
        {
          "authorId": "2157599709",
          "name": "L. Yu"
        }
      ]
    },
    {
      "paperId": "794ad552081d3191a2b307e8ef14ea215ccf55d3",
      "externalIds": {
        "MAG": "1754515228",
        "DBLP": "journals/jmlr/GuptaSD10",
        "DOI": "10.5555/1756006.1953032",
        "CorpusId": 15428145
      },
      "url": "https://www.semanticscholar.org/paper/794ad552081d3191a2b307e8ef14ea215ccf55d3",
      "title": "Collective Inference for Extraction MRFs Coupled with Symmetric Clique Potentials",
      "venue": "Journal of machine learning research",
      "year": 2010,
      "referenceCount": 66,
      "citationCount": 9,
      "authors": [
        {
          "authorId": "2110342266",
          "name": "Rahul Gupta"
        },
        {
          "authorId": "1770124",
          "name": "S. Sarawagi"
        },
        {
          "authorId": "35202743",
          "name": "A. Diwan"
        }
      ]
    },
    {
      "paperId": "54acf1bde4ffb2f3eac3a7a2ec34fe9f56024fbb",
      "externalIds": {
        "ArXiv": "0907.0589",
        "DBLP": "journals/corr/abs-0907-0589",
        "MAG": "1946414315",
        "CorpusId": 16258006
      },
      "url": "https://www.semanticscholar.org/paper/54acf1bde4ffb2f3eac3a7a2ec34fe9f56024fbb",
      "title": "Generalized Collective Inference with Symmetric Clique Potentials",
      "venue": "arXiv.org",
      "year": 2009,
      "referenceCount": 24,
      "citationCount": 4,
      "authors": [
        {
          "authorId": "2110342266",
          "name": "Rahul Gupta"
        },
        {
          "authorId": "1770124",
          "name": "S. Sarawagi"
        },
        {
          "authorId": "35202743",
          "name": "A. Diwan"
        }
      ]
    },
    {
      "paperId": "0e4dcbbfee7a05f46c5b72156347822cb84f9ebf",
      "externalIds": {
        "DBLP": "journals/tsp/LiWW24",
        "DOI": "10.1109/TSP.2024.3385576",
        "CorpusId": 269027217
      },
      "url": "https://www.semanticscholar.org/paper/0e4dcbbfee7a05f46c5b72156347822cb84f9ebf",
      "title": "Distributed Inference With Variational Message Passing in Gaussian Graphical Models: Tradeoffs in Message Schedules and Convergence Conditions",
      "venue": "IEEE Transactions on Signal Processing",
      "year": 2024,
      "referenceCount": 38,
      "citationCount": 8,
      "authors": [
        {
          "authorId": "2156073272",
          "name": "Bin Li"
        },
        {
          "authorId": "2240184135",
          "name": "Nan Wu"
        },
        {
          "authorId": "2261451601",
          "name": "Yik-Chung Wu"
        }
      ]
    },
    {
      "paperId": "5b644e0e144299ccb6b84efb6d175994cbc1db26",
      "externalIds": {
        "DBLP": "phd/us/AlHajri23",
        "CorpusId": 271970546
      },
      "url": "https://www.semanticscholar.org/paper/5b644e0e144299ccb6b84efb6d175994cbc1db26",
      "title": "Constrained Information Exchange Message Passing Algorithm in Probabilistic Graphical Models",
      "venue": "",
      "year": 2023,
      "referenceCount": 0,
      "citationCount": 0,
      "authors": [
        {
          "authorId": "3299319",
          "name": "M. AlHajri"
        }
      ]
    },
    {
      "paperId": "bceccaddb385bb6613562d776eefbd04bfdd1572",
      "externalIds": {
        "MAG": "2953330839",
        "DBLP": "conf/icml/WangZ018",
        "CorpusId": 3338503
      },
      "url": "https://www.semanticscholar.org/paper/bceccaddb385bb6613562d776eefbd04bfdd1572",
      "title": "Stein Variational Message Passing for Continuous Graphical Models",
      "venue": "International Conference on Machine Learning",
      "year": 2017,
      "referenceCount": 26,
      "citationCount": 53,
      "authors": [
        {
          "authorId": "2848320",
          "name": "Dilin Wang"
        },
        {
          "authorId": "2047081394",
          "name": "Zhe Zeng"
        },
        {
          "authorId": "47362268",
          "name": "Qiang Liu"
        }
      ]
    },
    {
      "paperId": "4faa41183f97095dd10ed8e1277d1964f58d8699",
      "externalIds": {
        "MAG": "2562887561",
        "DBLP": "journals/corr/Karaletsos16",
        "ArXiv": "1612.05048",
        "CorpusId": 10186982
      },
      "url": "https://www.semanticscholar.org/paper/4faa41183f97095dd10ed8e1277d1964f58d8699",
      "title": "Adversarial Message Passing For Graphical Models",
      "venue": "arXiv.org",
      "year": 2016,
      "referenceCount": 35,
      "citationCount": 29,
      "authors": [
        {
          "authorId": "3302673",
          "name": "Theofanis Karaletsos"
        }
      ]
    }
  ]
}