{
  "total": 1179,
  "offset": 0,
  "next": 10,
  "data": [
    {
      "paperId": "39eb6f355b0dc5fbd7115b93d389cc8fa3c5b1c3",
      "externalIds": {
        "DBLP": "conf/icml/AvronH15",
        "MAG": "1840556234",
        "CorpusId": 2504516
      },
      "url": "https://www.semanticscholar.org/paper/39eb6f355b0dc5fbd7115b93d389cc8fa3c5b1c3",
      "title": "Community Detection Using Time-Dependent Personalized PageRank",
      "venue": "International Conference on Machine Learning",
      "year": 2015,
      "referenceCount": 18,
      "citationCount": 25,
      "authors": [
        {
          "authorId": "1922753",
          "name": "H. Avron"
        },
        {
          "authorId": "2522639",
          "name": "L. Horesh"
        }
      ]
    },
    {
      "paperId": "40489bcb27eb9c5471285042f8184ec760a10f02",
      "externalIds": {
        "PubMedCentral": "12507558",
        "DOI": "10.3389/fendo.2025.1651525",
        "CorpusId": 281609525,
        "PubMed": "41079195"
      },
      "url": "https://www.semanticscholar.org/paper/40489bcb27eb9c5471285042f8184ec760a10f02",
      "title": "Microcirculatory disturbances in type 2 diabetes: early detection using laser doppler flowmetry for personalized care",
      "venue": "Frontiers in Endocrinology",
      "year": 2025,
      "referenceCount": 15,
      "citationCount": 0,
      "authors": [
        {
          "authorId": "2265301297",
          "name": "Z. Shaienko"
        }
      ]
    },
    {
      "paperId": "815e57a581c36260f84f9ab08ceff293ea54c099",
      "externalIds": {
        "DBLP": "journals/snam/LouafiT23",
        "DOI": "10.1007/s13278-023-01109-5",
        "CorpusId": 260901121
      },
      "url": "https://www.semanticscholar.org/paper/815e57a581c36260f84f9ab08ceff293ea54c099",
      "title": "PCMeans: community detection using local PageRank, clustering, and K-means",
      "venue": "Social Network Analysis and Mining",
      "year": 2023,
      "referenceCount": 42,
      "citationCount": 2,
      "authors": [
        {
          "authorId": "2231571481",
          "name": "Wafa Louafi"
        },
        {
          "authorId": "3076804",
          "name": "Faiza Titouna"
        }
      ]
    },
    {
      "paperId": "02aeb7ff5d1e62a104b0c865b2b037804395fdf4",
      "externalIds": {
        "DOI": "10.1080/03610926.2025.2525358",
        "CorpusId": 280197811
      },
      "url": "https://www.semanticscholar.org/paper/02aeb7ff5d1e62a104b0c865b2b037804395fdf4",
      "title": "Local community detection by random walk on hypergraphs",
      "venue": "Communications in Statistics - Theory and Methods",
      "year": 2025,
      "referenceCount": 36,
      "citationCount": 1,
      "authors": [
        {
          "authorId": "2372597396",
          "name": "Ryo Oka"
        },
        {
          "authorId": "2309514046",
          "name": "Naoki Matsumoto"
        },
        {
          "authorId": "51444108",
          "name": "Yuuki Takai"
        },
        {
          "authorId": "2372586867",
          "name": "Masahiro Ikeda"
        },
        {
          "authorId": "2301204135",
          "name": "Kunitake Kaneko"
        }
      ]
    },
    {
      "paperId": "d6f610fd707323ed34b02777474319f247ca0eac",
      "externalIds": {
        "MAG": "2556367122",
        "DOI": "10.1007/978-981-10-2525-9_33",
        "CorpusId": 64236100
      },
      "url": "https://www.semanticscholar.org/paper/d6f610fd707323ed34b02777474319f247ca0eac",
      "title": "Improving Personalized Recommendations Through Overlapping Community Detection Using Multi-view Ant Clustering and Association Rule Mining",
      "venue": "",
      "year": 2017,
      "referenceCount": 13,
      "citationCount": 1,
      "authors": [
        {
          "authorId": "77408552",
          "name": "Thenmozhi"
        },
        {
          "authorId": "90283569",
          "name": "Ezhilarasi"
        }
      ]
    },
    {
      "paperId": "ce2f5ae0c3835cb44306b0e77486c17a4106643d",
      "externalIds": {
        "DBLP": "journals/gis/JiaCLLZY22",
        "DOI": "10.1080/13658816.2022.2055037",
        "CorpusId": 248192119
      },
      "url": "https://www.semanticscholar.org/paper/ce2f5ae0c3835cb44306b0e77486c17a4106643d",
      "title": "Dynamical community detection and spatiotemporal analysis in multilayer spatial interaction networks using trajectory data",
      "venue": "International Journal of Geographical Information Science",
      "year": 2022,
      "referenceCount": 45,
      "citationCount": 50,
      "authors": [
        {
          "authorId": "2139908193",
          "name": "Tao Jia"
        },
        {
          "authorId": "2162563757",
          "name": "Chenxi Cai"
        },
        {
          "authorId": "2153899198",
          "name": "Xin Li"
        },
        {
          "authorId": "2336537082",
          "name": "Xi Luo"
        },
        {
          "authorId": "2145794431",
          "name": "Yuanyu Zhang"
        },
        {
          "authorId": "2116329190",
          "name": "Xue Yu"
        }
      ]
    },
    {
      "paperId": "c54ff977d3cc48177727e6b0b76c66e015afa65f",
      "externalIds": {
        "MAG": "3032910583",
        "DBLP": "journals/access/ZhangXXYWYW20",
        "DOI": "10.1109/ACCESS.2020.2998860",
        "CorpusId": 219592494
      },
      "url": "https://www.semanticscholar.org/paper/c54ff977d3cc48177727e6b0b76c66e015afa65f",
      "title": "Robust Hierarchical Overlapping Community Detection With Personalized PageRank",
      "venue": "IEEE Access",
      "year": 2020,
      "referenceCount": 80,
      "citationCount": 6,
      "authors": [
        {
          "authorId": "153533541",
          "name": "Yinglong Zhang"
        },
        {
          "authorId": "1826440",
          "name": "Xuewen Xia"
        },
        {
          "authorId": "2152777692",
          "name": "Xing Xu"
        },
        {
          "authorId": "2155385235",
          "name": "Fei Yu"
        },
        {
          "authorId": "1746570",
          "name": "Hongrun Wu"
        },
        {
          "authorId": "2119040525",
          "name": "Ying Yu"
        },
        {
          "authorId": "1423371162",
          "name": "Bo Wei"
        }
      ]
    },
    {
      "paperId": "cb59f03eef660afb66571629e2105d862a132059",
      "externalIds": {
        "DBLP": "journals/saem/NithyaJJ24",
        "DOI": "10.1007/s13198-024-02483-9",
        "CorpusId": 272011266
      },
      "url": "https://www.semanticscholar.org/paper/cb59f03eef660afb66571629e2105d862a132059",
      "title": "Comparative approach on crop detection using machine learning and deep learning techniques",
      "venue": "International Journal of System Assurance Engineering and Management",
      "year": 2024,
      "referenceCount": 28,
      "citationCount": 6,
      "authors": [
        {
          "authorId": "2268239416",
          "name": "V. Nithya"
        },
        {
          "authorId": "143797308",
          "name": "M. Josephine"
        },
        {
          "authorId": "50845093",
          "name": "V. Jeyabalaraja"
        }
      ]
    },
    {
      "paperId": "3d18276a81d2ef014b903b3b5c823bf86c03e5e0",
      "externalIds": {
        "DOI": "10.1021/acs.jctc.2c00454",
        "CorpusId": 253509116,
        "PubMed": "36374620"
      },
      "url": "https://www.semanticscholar.org/paper/3d18276a81d2ef014b903b3b5c823bf86c03e5e0",
      "title": "Dynamic Community Detection Decouples Multiple Time Scale Behavior of Complex Chemical Systems.",
      "venue": "Journal of Chemical Theory and Computation",
      "year": 2022,
      "referenceCount": 43,
      "citationCount": 7,
      "authors": [
        {
          "authorId": "8749020",
          "name": "Neda Zarayeneh"
        },
        {
          "authorId": "2048579089",
          "name": "Nitesh Kumar"
        },
        {
          "authorId": "1803382",
          "name": "A. Kalyanaraman"
        },
        {
          "authorId": "40535423",
          "name": "A. Clark"
        }
      ]
    },
    {
      "paperId": "f9fd8b98b4d9937da458dc0ecfaf10c2a8dc05b5",
      "externalIds": {
        "MAG": "3017878572",
        "CorpusId": 219118548
      },
      "url": "https://www.semanticscholar.org/paper/f9fd8b98b4d9937da458dc0ecfaf10c2a8dc05b5",
      "title": "Overlapping Community Detection using Local Seed Expansion",
      "venue": "",
      "year": 2020,
      "referenceCount": 24,
      "citationCount": 2,
      "authors": [
        {
          "authorId": "1729516077",
          "name": "Nyunt Nyunt Sein"
        }
      ]
    }
  ]
}