{
  "total": 123,
  "offset": 0,
  "next": 10,
  "data": [
    {
      "paperId": "53e6f10e70393bdbafa98238272977760196fddf",
      "externalIds": {
        "ArXiv": "1611.01423",
        "MAG": "2555308822",
        "DBLP": "journals/corr/AllamanisCKS16",
        "CorpusId": 14298291
      },
      "url": "https://www.semanticscholar.org/paper/53e6f10e70393bdbafa98238272977760196fddf",
      "title": "Learning Continuous Semantic Representations of Symbolic Expressions",
      "venue": "International Conference on Machine Learning",
      "year": 2016,
      "referenceCount": 29,
      "citationCount": 109,
      "authors": [
        {
          "authorId": "3216345",
          "name": "Miltiadis Allamanis"
        },
        {
          "authorId": "3400366",
          "name": "Pankajan Chanthirasegaran"
        },
        {
          "authorId": "143967473",
          "name": "Pushmeet Kohli"
        },
        {
          "authorId": "37210858",
          "name": "Charles Sutton"
        }
      ]
    },
    {
      "paperId": "5547533af523dbabdec503b914fca9362e3f85f3",
      "externalIds": {
        "DBLP": "journals/corr/abs-2501-14951",
        "ArXiv": "2501.14951",
        "DOI": "10.48550/arXiv.2501.14951",
        "CorpusId": 275920683
      },
      "url": "https://www.semanticscholar.org/paper/5547533af523dbabdec503b914fca9362e3f85f3",
      "title": "E-Gen: Leveraging E-Graphs to Improve Continuous Representations of Symbolic Expressions",
      "venue": "North American Chapter of the Association for Computational Linguistics",
      "year": 2025,
      "referenceCount": 57,
      "citationCount": 1,
      "authors": [
        {
          "authorId": "2408197827",
          "name": "Hongbo Zheng"
        },
        {
          "authorId": "2223247522",
          "name": "Suyuan Wang"
        },
        {
          "authorId": "2065642484",
          "name": "Neeraj Gangwar"
        },
        {
          "authorId": "1902706",
          "name": "N. Kani"
        }
      ]
    },
    {
      "paperId": "43030e913a150715d85286375a16b6884408746b",
      "externalIds": {
        "ArXiv": "2505.17950",
        "CorpusId": 278886020
      },
      "url": "https://www.semanticscholar.org/paper/43030e913a150715d85286375a16b6884408746b",
      "title": "Evaluating NLP Embedding Models for Handling Science-Specific Symbolic Expressions in Student Texts",
      "venue": "",
      "year": 2025,
      "referenceCount": 45,
      "citationCount": 2,
      "authors": [
        {
          "authorId": "2333960488",
          "name": "Tom Bleckmann"
        },
        {
          "authorId": "2138999048",
          "name": "Paul Tschisgale"
        }
      ]
    },
    {
      "paperId": "11a0f76fe24c7e2662cb2188d690c23963d14b08",
      "externalIds": {
        "DBLP": "journals/corr/abs-2510-19988",
        "ArXiv": "2510.19988",
        "DOI": "10.48550/arXiv.2510.19988",
        "CorpusId": 282304093
      },
      "url": "https://www.semanticscholar.org/paper/11a0f76fe24c7e2662cb2188d690c23963d14b08",
      "title": "LLM-Augmented Symbolic NLU System for More Reliable Continuous Causal Statement Interpretation",
      "venue": "arXiv.org",
      "year": 2025,
      "referenceCount": 41,
      "citationCount": 0,
      "authors": [
        {
          "authorId": "2380942928",
          "name": "Xin Lian"
        },
        {
          "authorId": "2257182262",
          "name": "Kenneth D. Forbus"
        }
      ]
    },
    {
      "paperId": "04da7ef906550ddfeeddb394c8d0473ed2651c23",
      "externalIds": {
        "ArXiv": "2603.23854",
        "CorpusId": 286775398
      },
      "url": "https://www.semanticscholar.org/paper/04da7ef906550ddfeeddb394c8d0473ed2651c23",
      "title": "Symbolic--KAN: Kolmogorov-Arnold Networks with Discrete Symbolic Structure for Interpretable Learning",
      "venue": "",
      "year": 2026,
      "referenceCount": 61,
      "citationCount": 1,
      "authors": [
        {
          "authorId": "30101290",
          "name": "Salah A. Faroughi"
        },
        {
          "authorId": "2141300894",
          "name": "Farinaz Mostajeran"
        },
        {
          "authorId": "6059048",
          "name": "Amirhossein Arzani"
        },
        {
          "authorId": "7430470",
          "name": "S. Faroughi"
        }
      ]
    },
    {
      "paperId": "b573c2308900f64688de5a8f3c2bd3030d36d888",
      "externalIds": {
        "DBLP": "conf/icdl/SkovieraVSS25",
        "DOI": "10.1109/ICDL63968.2025.11204420",
        "CorpusId": 282273504
      },
      "url": "https://www.semanticscholar.org/paper/b573c2308900f64688de5a8f3c2bd3030d36d888",
      "title": "PRAG: Procedural Action Sequence Symbolic Generator as a Mechanism for Autonomous Learning",
      "venue": "International Conference on Development and Learning",
      "year": 2025,
      "referenceCount": 28,
      "citationCount": 0,
      "authors": [
        {
          "authorId": "1815094",
          "name": "R. Škoviera"
        },
        {
          "authorId": "2832189",
          "name": "M. Vavrecka"
        },
        {
          "authorId": "67076580",
          "name": "G. Sejnova"
        },
        {
          "authorId": "2265550864",
          "name": "Karla Stépánová"
        }
      ]
    },
    {
      "paperId": "b5e6c46e82ad5e8f6a356ec7b5ef92db6e5f77be",
      "externalIds": {
        "DOI": "10.1088/2631-8695/ae4a8b",
        "CorpusId": 286579259
      },
      "url": "https://www.semanticscholar.org/paper/b5e6c46e82ad5e8f6a356ec7b5ef92db6e5f77be",
      "title": "DANVSU: a dual-awareness network for visual-semantic understanding of handwritten mathematical expressions",
      "venue": "Engineering Research Express",
      "year": 2026,
      "referenceCount": 56,
      "citationCount": 0,
      "authors": [
        {
          "authorId": "2424152754",
          "name": "Zhihui Hou"
        },
        {
          "authorId": "2338208385",
          "name": "Yaxue Peng"
        }
      ]
    },
    {
      "paperId": "020007c3ce9d45e92b9d626e1237f48242fe205b",
      "externalIds": {
        "MAG": "1183234502",
        "DBLP": "journals/ijon/HuangXSCWH16",
        "DOI": "10.1016/j.neucom.2015.07.090",
        "CorpusId": 46897269
      },
      "url": "https://www.semanticscholar.org/paper/020007c3ce9d45e92b9d626e1237f48242fe205b",
      "title": "Adapted competitive learning on continuous semantic space for word sense induction",
      "venue": "Neurocomputing",
      "year": 2016,
      "referenceCount": 36,
      "citationCount": 1,
      "authors": [
        {
          "authorId": "7525170",
          "name": "Yanzhou Huang"
        },
        {
          "authorId": "2694222",
          "name": "Deyi Xiong"
        },
        {
          "authorId": "1755321",
          "name": "X. Shi"
        },
        {
          "authorId": "47558200",
          "name": "Yidong Chen"
        },
        {
          "authorId": "7513763",
          "name": "Changxing Wu"
        },
        {
          "authorId": "2068450",
          "name": "Guimin Huang"
        }
      ]
    },
    {
      "paperId": "7053cbf843a53591d0f9cae387c461f81a96dbae",
      "externalIds": {
        "DOI": "10.14569/ijacsa.2026.0170141",
        "CorpusId": 285260831
      },
      "url": "https://www.semanticscholar.org/paper/7053cbf843a53591d0f9cae387c461f81a96dbae",
      "title": "A Few-Shot Semantic Meta-Learning Framework with CRF for Skill Entity Recognition in Open Innovation Ecosystems",
      "venue": "International Journal of Advanced Computer Science and Applications",
      "year": 2026,
      "referenceCount": 78,
      "citationCount": 0,
      "authors": [
        {
          "authorId": "2401900279",
          "name": "Nurchim"
        },
        {
          "authorId": "2280273911",
          "name": "Muljono"
        },
        {
          "authorId": "2083066589",
          "name": "E. Noersasongko"
        },
        {
          "authorId": "1389964076",
          "name": "A. Z. Fanani"
        },
        {
          "authorId": "2348571283",
          "name": "Deshinta Arrova Dewi"
        }
      ]
    },
    {
      "paperId": "65b41d7ee3abeb4937a4e20248d4f08f73a10f3f",
      "externalIds": {
        "DOI": "10.1109/ICTBIG68706.2025.11323874",
        "CorpusId": 284720011
      },
      "url": "https://www.semanticscholar.org/paper/65b41d7ee3abeb4937a4e20248d4f08f73a10f3f",
      "title": "Symbolic Bootstrapping in Deep Networks Using Differentiable Logic Graphs and Conceptual Alignment Layers",
      "venue": "2025 IEEE 5th International Conference on ICT in Business Industry & Government (ICTBIG)",
      "year": 2025,
      "referenceCount": 25,
      "citationCount": 0,
      "authors": [
        {
          "authorId": "2404491932",
          "name": "Venkateshwaran Shanmugham"
        }
      ]
    }
  ]
}