{
  "total": 1094,
  "offset": 0,
  "next": 10,
  "data": [
    {
      "paperId": "75f2cf0e212a40e39d662d6e2c2d33eecc8ce9a9",
      "externalIds": {
        "MAG": "2786201195",
        "DBLP": "conf/icml/BaoNS18",
        "ArXiv": "1802.04381",
        "CorpusId": 3649376
      },
      "url": "https://www.semanticscholar.org/paper/75f2cf0e212a40e39d662d6e2c2d33eecc8ce9a9",
      "title": "Classification from Pairwise Similarity and Unlabeled Data",
      "venue": "International Conference on Machine Learning",
      "year": 2018,
      "referenceCount": 56,
      "citationCount": 102,
      "authors": [
        {
          "authorId": "2052378544",
          "name": "Han Bao"
        },
        {
          "authorId": "47537639",
          "name": "Gang Niu"
        },
        {
          "authorId": "67154907",
          "name": "Masashi Sugiyama"
        }
      ]
    },
    {
      "paperId": "f196fd7d96079287a94b1bf66dad781455e5f519",
      "externalIds": {
        "DBLP": "journals/jmlr/WuL000S22",
        "CorpusId": 253899239
      },
      "url": "https://www.semanticscholar.org/paper/f196fd7d96079287a94b1bf66dad781455e5f519",
      "title": "Learning from Noisy Pairwise Similarity and Unlabeled Data",
      "venue": "Journal of machine learning research",
      "year": 2022,
      "referenceCount": 71,
      "citationCount": 8,
      "authors": [
        {
          "authorId": "2126149590",
          "name": "Songhua Wu"
        },
        {
          "authorId": "121698214",
          "name": "Tongliang Liu"
        },
        {
          "authorId": "2087238859",
          "name": "Bo Han"
        },
        {
          "authorId": "2117885268",
          "name": "Jun Yu"
        },
        {
          "authorId": "47537639",
          "name": "Gang Niu"
        },
        {
          "authorId": "67154907",
          "name": "Masashi Sugiyama"
        },
        {
          "authorId": "145969795",
          "name": "Pradeep Ravikumar"
        }
      ]
    },
    {
      "paperId": "7ba7e54dd8204838cf233772a4f7ff1ec56a6180",
      "externalIds": {
        "DBLP": "conf/ic3k/NitayanontH24",
        "DOI": "10.5220/0012948100003838",
        "CorpusId": 274226449
      },
      "url": "https://www.semanticscholar.org/paper/7ba7e54dd8204838cf233772a4f7ff1ec56a6180",
      "title": "Positive-Unlabeled Learning Using Pairwise Similarity and Parametric Minimum Cuts",
      "venue": "International Conference on Knowledge Discovery and Information Retrieval",
      "year": 2024,
      "referenceCount": 34,
      "citationCount": 1,
      "authors": [
        {
          "authorId": "2289715086",
          "name": "Torpong Nitayanont"
        },
        {
          "authorId": "1717379",
          "name": "D. Hochbaum"
        }
      ]
    },
    {
      "paperId": "20f72a67cc098f99e79f4bd6410aac6f68598219",
      "externalIds": {
        "DOI": "10.1145/3704558.3708467",
        "CorpusId": 275684886
      },
      "url": "https://www.semanticscholar.org/paper/20f72a67cc098f99e79f4bd6410aac6f68598219",
      "title": "Learning from Noisy pairwise dissimilarities and unlabeled data",
      "venue": "Proceedings of the 2024 2nd International Conference on Frontiers of Intelligent Manufacturing and Automation",
      "year": 2024,
      "referenceCount": 21,
      "citationCount": 0,
      "authors": [
        {
          "authorId": "2307444446",
          "name": "Shuying Huang"
        },
        {
          "authorId": "46276561",
          "name": "Junpeng Li"
        },
        {
          "authorId": "2259997844",
          "name": "Changchun Hua"
        },
        {
          "authorId": "3062791",
          "name": "Yana Yang"
        }
      ]
    },
    {
      "paperId": "6bc3d0d2444d2482e551978e78ada90ad5a9d085",
      "externalIds": {
        "DBLP": "journals/tetci/LiQHY25",
        "DOI": "10.1109/TETCI.2025.3537938",
        "CorpusId": 276591379
      },
      "url": "https://www.semanticscholar.org/paper/6bc3d0d2444d2482e551978e78ada90ad5a9d085",
      "title": "Binary Classification From $M$-Tuple Similarity-Confidence Data",
      "venue": "IEEE Transactions on Emerging Topics in Computational Intelligence",
      "year": 2025,
      "referenceCount": 41,
      "citationCount": 2,
      "authors": [
        {
          "authorId": "46276561",
          "name": "Junpeng Li"
        },
        {
          "authorId": "2350322328",
          "name": "Jiahe Qin"
        },
        {
          "authorId": "2259997844",
          "name": "Changchun Hua"
        },
        {
          "authorId": "3062791",
          "name": "Yana Yang"
        }
      ]
    },
    {
      "paperId": "91ece3f21ff706659bf6deda3cac1e479f8e60a8",
      "externalIds": {
        "DBLP": "journals/access/WangL24e",
        "DOI": "10.1109/ACCESS.2024.3439870",
        "CorpusId": 271784216
      },
      "url": "https://www.semanticscholar.org/paper/91ece3f21ff706659bf6deda3cac1e479f8e60a8",
      "title": "Pairwise Similarity for Domain Adaptation",
      "venue": "IEEE Access",
      "year": 2024,
      "referenceCount": 54,
      "citationCount": 0,
      "authors": [
        {
          "authorId": "2265285350",
          "name": "Xiaoshun Wang"
        },
        {
          "authorId": "2311636494",
          "name": "Sibei Luo"
        }
      ]
    },
    {
      "paperId": "b51fb37483cf2eddf3cfd1455590c0ed22b43ce6",
      "externalIds": {
        "MAG": "2945941367",
        "DBLP": "journals/mlc/Tanha19",
        "DOI": "10.1007/s13042-019-00951-4",
        "CorpusId": 181680949
      },
      "url": "https://www.semanticscholar.org/paper/b51fb37483cf2eddf3cfd1455590c0ed22b43ce6",
      "title": "A multiclass boosting algorithm to labeled and unlabeled data",
      "venue": "International Journal of Machine Learning and Cybernetics",
      "year": 2019,
      "referenceCount": 66,
      "citationCount": 16,
      "authors": [
        {
          "authorId": "1708315",
          "name": "J. Tanha"
        }
      ]
    },
    {
      "paperId": "0ac70b32508c08975e5093ece11e0e47dfdded6a",
      "externalIds": {
        "DBLP": "journals/corr/abs-2505-08212",
        "ArXiv": "2505.08212",
        "DOI": "10.48550/arXiv.2505.08212",
        "CorpusId": 278534575
      },
      "url": "https://www.semanticscholar.org/paper/0ac70b32508c08975e5093ece11e0e47dfdded6a",
      "title": "An Effective Flow-based Method for Positive-Unlabeled Learning: 2-HNC",
      "venue": "arXiv.org",
      "year": 2025,
      "referenceCount": 40,
      "citationCount": 0,
      "authors": [
        {
          "authorId": "1717379",
          "name": "D. Hochbaum"
        },
        {
          "authorId": "2289715086",
          "name": "Torpong Nitayanont"
        }
      ]
    },
    {
      "paperId": "152ad26e691a2e3389c31efdaba6ec3f74b9ef8a",
      "externalIds": {
        "MAG": "2770120573",
        "DBLP": "conf/cvpr/Pinheiro18",
        "ArXiv": "1711.08995",
        "DOI": "10.1109/CVPR.2018.00835",
        "CorpusId": 206597087
      },
      "url": "https://www.semanticscholar.org/paper/152ad26e691a2e3389c31efdaba6ec3f74b9ef8a",
      "title": "Unsupervised Domain Adaptation with Similarity Learning",
      "venue": "2018 IEEE/CVF Conference on Computer Vision and Pattern Recognition",
      "year": 2017,
      "referenceCount": 62,
      "citationCount": 288,
      "authors": [
        {
          "authorId": "2708655",
          "name": "Pedro H. O. Pinheiro"
        }
      ]
    },
    {
      "paperId": "44853aa986245dab4f820d83884e91d15835ba79",
      "externalIds": {
        "DBLP": "journals/jbd/RostamiBF20",
        "MAG": "3089379360",
        "DOI": "10.1186/s40537-020-00352-3",
        "CorpusId": 222112382
      },
      "url": "https://www.semanticscholar.org/paper/44853aa986245dab4f820d83884e91d15835ba79",
      "title": "A novel method of constrained feature selection by the measurement of pairwise constraints uncertainty",
      "venue": "Journal of Big Data",
      "year": 2020,
      "referenceCount": 71,
      "citationCount": 59,
      "authors": [
        {
          "authorId": "2067695",
          "name": "M. Rostami"
        },
        {
          "authorId": "52024680",
          "name": "K. Berahmand"
        },
        {
          "authorId": "3103483",
          "name": "Saman Forouzandeh"
        }
      ]
    }
  ]
}