{
  "total": 107,
  "offset": 0,
  "next": 10,
  "data": [
    {
      "paperId": "97c2c626a7de97b0b19187d158ead5b747de012c",
      "externalIds": {
        "DBLP": "journals/mcs/Ruiz-CastroAAAR21",
        "ArXiv": "2402.04425",
        "MAG": "3042214685",
        "DOI": "10.1016/j.matcom.2020.07.006",
        "CorpusId": 225638768
      },
      "url": "https://www.semanticscholar.org/paper/97c2c626a7de97b0b19187d158ead5b747de012c",
      "title": "Linear-Phase-Type probability modelling of functional PCA with applications to resistive memories",
      "venue": "Mathematics and Computers in Simulation",
      "year": 2020,
      "referenceCount": 16,
      "citationCount": 8,
      "authors": [
        {
          "authorId": "1403196007",
          "name": "J. E. Ruiz-Castro"
        },
        {
          "authorId": "51441521",
          "name": "C. Acal"
        },
        {
          "authorId": "2238014813",
          "name": "Ana M. Aguilera"
        },
        {
          "authorId": "1402010759",
          "name": "M. C. Aguilera-Morillo"
        },
        {
          "authorId": "2283138288",
          "name": "Juan B. Roldán"
        }
      ]
    },
    {
      "paperId": "77f11c64e3d0a7e6cd94339c017a40463979352a",
      "externalIds": {
        "CorpusId": 261867371
      },
      "url": "https://www.semanticscholar.org/paper/77f11c64e3d0a7e6cd94339c017a40463979352a",
      "title": "Phase-type probability modelling of functional PCA with applications to resistive memories",
      "venue": "",
      "year": 2021,
      "referenceCount": 14,
      "citationCount": 0,
      "authors": [
        {
          "authorId": "1403196007",
          "name": "J. E. Ruiz-Castro"
        },
        {
          "authorId": "51441521",
          "name": "C. Acal"
        },
        {
          "authorId": "2238014813",
          "name": "Ana M. Aguilera"
        },
        {
          "authorId": "1402010759",
          "name": "M. C. Aguilera-Morillo"
        },
        {
          "authorId": "2285006197",
          "name": "J. Rold´an"
        }
      ]
    },
    {
      "paperId": "2ff2a687d8f57235a162d80a1d8a3af930fe957c",
      "externalIds": {
        "DOI": "10.2166/hydro.2024.207",
        "CorpusId": 269944972
      },
      "url": "https://www.semanticscholar.org/paper/2ff2a687d8f57235a162d80a1d8a3af930fe957c",
      "title": "Scale effects and implications of the stochastic structure of customer water demands",
      "venue": "Journal of Hydroinformatics",
      "year": 2024,
      "referenceCount": 0,
      "citationCount": 2,
      "authors": [
        {
          "authorId": "145494865",
          "name": "S. Díaz"
        },
        {
          "authorId": "2157817102",
          "name": "Javier González"
        },
        {
          "authorId": "2276860260",
          "name": "Kevin Lansey"
        },
        {
          "authorId": "94558959",
          "name": "Michael Pointl"
        }
      ]
    },
    {
      "paperId": "11348a878a9c441605d22f65bdc519b630f9f7dd",
      "externalIds": {
        "DBLP": "conf/eucc/LupuNIGGJ23",
        "DOI": "10.23919/ECC57647.2023.10178317",
        "CorpusId": 259978565
      },
      "url": "https://www.semanticscholar.org/paper/11348a878a9c441605d22f65bdc519b630f9f7dd",
      "title": "Dimensionality reduction of hyperspectral images using an ICA-based stochastic second-order optimization algorithm",
      "venue": "European Control Conference",
      "year": 2023,
      "referenceCount": 16,
      "citationCount": 0,
      "authors": [
        {
          "authorId": "1675379096",
          "name": "D. Lupu"
        },
        {
          "authorId": "2039290",
          "name": "I. Necoara"
        },
        {
          "authorId": "2096482814",
          "name": "T. Ionescu"
        },
        {
          "authorId": "2148513154",
          "name": "L. Ghinea"
        },
        {
          "authorId": "2053268785",
          "name": "J. Garrett"
        },
        {
          "authorId": "1738481",
          "name": "T. Johansen"
        }
      ]
    },
    {
      "paperId": "5ee1b52bdbe1e3d36e02918a384ced78878f6d30",
      "externalIds": {
        "MAG": "2181937966",
        "CorpusId": 124077341
      },
      "url": "https://www.semanticscholar.org/paper/5ee1b52bdbe1e3d36e02918a384ced78878f6d30",
      "title": "PCA Explanatory Power in Stochastic Interest Rate Models",
      "venue": "",
      "year": 2003,
      "referenceCount": 3,
      "citationCount": 0,
      "authors": [
        {
          "authorId": "102769623",
          "name": "Jamil Chevitarese"
        },
        {
          "authorId": "3269161",
          "name": "R. Novinski"
        },
        {
          "authorId": "2077015906",
          "name": "D. Model"
        }
      ]
    },
    {
      "paperId": "186b2ca7783309e0a2431f2a9b14871a0a4cfbcb",
      "externalIds": {
        "MAG": "2793575144",
        "DOI": "10.1016/J.MATPR.2017.12.028",
        "CorpusId": 117593820
      },
      "url": "https://www.semanticscholar.org/paper/186b2ca7783309e0a2431f2a9b14871a0a4cfbcb",
      "title": "Multi-quality Response Optimization of Wire EDM for Ni-75 using PCA based Utility theory",
      "venue": "",
      "year": 2018,
      "referenceCount": 5,
      "citationCount": 9,
      "authors": [
        {
          "authorId": "67302848",
          "name": "S. A. Sonawane"
        },
        {
          "authorId": "48460761",
          "name": "M. L. Kulkarni"
        }
      ]
    },
    {
      "paperId": "be480b6aec957450a7bedf5f7f037a5ff32f90f6",
      "externalIds": {
        "MAG": "2894146836",
        "DOI": "10.1177/1541931218621424",
        "CorpusId": 149767491
      },
      "url": "https://www.semanticscholar.org/paper/be480b6aec957450a7bedf5f7f037a5ff32f90f6",
      "title": "Looking at Mind Wandering During Driving Through the Windows of PCA and t-SNE",
      "venue": "Proceedings of the Human Factors and Ergonomics Society Annual Meeting",
      "year": 2018,
      "referenceCount": 23,
      "citationCount": 6,
      "authors": [
        {
          "authorId": "116486225",
          "name": "Areen Alsaid"
        },
        {
          "authorId": "1520031837",
          "name": "John D. Lee"
        },
        {
          "authorId": "39851809",
          "name": "Daniel M. Roberts"
        },
        {
          "authorId": "114371291",
          "name": "Daniela Barrigan"
        },
        {
          "authorId": "2346493",
          "name": "Carryl L. Baldwin"
        }
      ]
    },
    {
      "paperId": "dc92b280d1678cc3c82848a957180434c2fb5aa7",
      "externalIds": {
        "MAG": "2963163230",
        "ArXiv": "1712.06509",
        "DOI": "10.4310/CMS.2018.V16.N3.A8",
        "CorpusId": 49284187
      },
      "url": "https://www.semanticscholar.org/paper/dc92b280d1678cc3c82848a957180434c2fb5aa7",
      "title": "Semigroups of stochastic gradient descent and online principal component analysis: properties and diffusion approximations",
      "venue": "",
      "year": 2017,
      "referenceCount": 19,
      "citationCount": 28,
      "authors": [
        {
          "authorId": null,
          "name": "Yuanyuan Feng"
        },
        {
          "authorId": "2151530355",
          "name": "Lei Li"
        },
        {
          "authorId": "2119611499",
          "name": "Jian‐Guo Liu"
        }
      ]
    },
    {
      "paperId": "49c1df013271aded839384cdabc6f459fe57564e",
      "externalIds": {
        "MAG": "2780173726",
        "CorpusId": 125408514
      },
      "url": "https://www.semanticscholar.org/paper/49c1df013271aded839384cdabc6f459fe57564e",
      "title": "A note on semi-groups of stochastic gradient descent and online principal component analysis",
      "venue": "",
      "year": 2017,
      "referenceCount": 0,
      "citationCount": 5,
      "authors": [
        {
          "authorId": null,
          "name": "Yuanyuan Feng"
        },
        {
          "authorId": "2151530355",
          "name": "Lei Li"
        },
        {
          "authorId": "2142783351",
          "name": "Jianguo Liu"
        }
      ]
    },
    {
      "paperId": "f8eca8dc4ba9c82733eec300a990fdac7787025c",
      "externalIds": {
        "PubMedCentral": "12427629",
        "DOI": "10.3390/cells14171315",
        "CorpusId": 280925142,
        "PubMed": "40940727"
      },
      "url": "https://www.semanticscholar.org/paper/f8eca8dc4ba9c82733eec300a990fdac7787025c",
      "title": "Artificial Intelligence in Ocular Transcriptomics: Applications of Unsupervised and Supervised Learning",
      "venue": "Cells",
      "year": 2025,
      "referenceCount": 186,
      "citationCount": 4,
      "authors": [
        {
          "authorId": "2375564559",
          "name": "Catherine Lalman"
        },
        {
          "authorId": "2375694241",
          "name": "Yimin Yang"
        },
        {
          "authorId": "2375866851",
          "name": "Janice L Walker"
        }
      ]
    }
  ]
}