{
  "total": 35,
  "offset": 0,
  "next": 10,
  "data": [
    {
      "paperId": "e8d0eb3c3bf64b38ec04e982745147428459e2d2",
      "externalIds": {
        "DBLP": "conf/icml/BeckhamP17",
        "ArXiv": "1705.05278",
        "MAG": "2963016882",
        "CorpusId": 30009063
      },
      "url": "https://www.semanticscholar.org/paper/e8d0eb3c3bf64b38ec04e982745147428459e2d2",
      "title": "Unimodal Probability Distributions for Deep Ordinal Classification",
      "venue": "International Conference on Machine Learning",
      "year": 2017,
      "referenceCount": 19,
      "citationCount": 84,
      "authors": [
        {
          "authorId": "12757989",
          "name": "Christopher Beckham"
        },
        {
          "authorId": "1972076",
          "name": "C. Pal"
        }
      ]
    },
    {
      "paperId": "6b5d42840717536a2481b7ded4ab1a8282080055",
      "externalIds": {
        "DBLP": "journals/tase/FangYMZYSXW23",
        "DOI": "10.1109/TASE.2022.3200073",
        "CorpusId": 251829212
      },
      "url": "https://www.semanticscholar.org/paper/6b5d42840717536a2481b7ded4ab1a8282080055",
      "title": "TactONet: Tactile Ordinal Network Based on Unimodal Probability for Object Hardness Classification",
      "venue": "IEEE Transactions on Automation Science and Engineering",
      "year": 2023,
      "referenceCount": 36,
      "citationCount": 23,
      "authors": [
        {
          "authorId": "2041294715",
          "name": "Senlin Fang"
        },
        {
          "authorId": "7819636",
          "name": "Zhengkun Yi"
        },
        {
          "authorId": "2125341794",
          "name": "Tingting Mi"
        },
        {
          "authorId": "2118666797",
          "name": "Zhenning Zhou"
        },
        {
          "authorId": "2147352329",
          "name": "Chaoxiang Ye"
        },
        {
          "authorId": "145728083",
          "name": "Wanfeng Shang"
        },
        {
          "authorId": "145479904",
          "name": "Tiantian Xu"
        },
        {
          "authorId": "2153098918",
          "name": "Xinyu Wu"
        }
      ]
    },
    {
      "paperId": "faaeb77fdde4994489a9ce5517dc923b4240a11c",
      "externalIds": {
        "DOI": "10.3390/math10060980",
        "CorpusId": 247612368
      },
      "url": "https://www.semanticscholar.org/paper/faaeb77fdde4994489a9ce5517dc923b4240a11c",
      "title": "Quasi-Unimodal Distributions for Ordinal Classification",
      "venue": "Mathematics",
      "year": 2022,
      "referenceCount": 11,
      "citationCount": 6,
      "authors": [
        {
          "authorId": "2091785134",
          "name": "Tomé Albuquerque"
        },
        {
          "authorId": "145994816",
          "name": "Ricardo Cruz"
        },
        {
          "authorId": "2075457734",
          "name": "J. S. Cardoso"
        }
      ]
    },
    {
      "paperId": "20ded07d388c7cbdba706cbea8091af6f8ba58b3",
      "externalIds": {
        "MAG": "3199550750",
        "DBLP": "journals/pr/VargasGH22",
        "DOI": "10.1016/j.patcog.2021.108310",
        "CorpusId": 240571594
      },
      "url": "https://www.semanticscholar.org/paper/20ded07d388c7cbdba706cbea8091af6f8ba58b3",
      "title": "Unimodal regularisation based on beta distribution for deep ordinal regression",
      "venue": "Pattern Recognition",
      "year": 2022,
      "referenceCount": 43,
      "citationCount": 34,
      "authors": [
        {
          "authorId": "144861349",
          "name": "V. Vargas"
        },
        {
          "authorId": "1740647",
          "name": "Pedro Antonio Gutiérrez"
        },
        {
          "authorId": "1388386495",
          "name": "C. Hervás‐Martínez"
        }
      ]
    },
    {
      "paperId": "a91bd2bc93cefce5792ca832123808c2c1a4be30",
      "externalIds": {
        "DOI": "10.1109/AINIT65432.2025.11035003",
        "CorpusId": 279596940
      },
      "url": "https://www.semanticscholar.org/paper/a91bd2bc93cefce5792ca832123808c2c1a4be30",
      "title": "A Semi-Supervised Ordinal Classification Method Based on Ranking Consistency Regularization",
      "venue": "2025 IEEE 6th International Seminar on Artificial Intelligence, Networking and Information Technology (AINIT)",
      "year": 2025,
      "referenceCount": 12,
      "citationCount": 0,
      "authors": [
        {
          "authorId": "2394255917",
          "name": "Jinxiang Chen"
        }
      ]
    },
    {
      "paperId": "8acf641939cb314147cc9754c0e121248aeed86c",
      "externalIds": {
        "DBLP": "conf/aaai/WangJYCGG23",
        "ArXiv": "2303.00396",
        "DOI": "10.48550/arXiv.2303.00396",
        "CorpusId": 257255307
      },
      "url": "https://www.semanticscholar.org/paper/8acf641939cb314147cc9754c0e121248aeed86c",
      "title": "Controlling Class Layout for Deep Ordinal Classification via Constrained Proxies Learning",
      "venue": "AAAI Conference on Artificial Intelligence",
      "year": 2023,
      "referenceCount": 49,
      "citationCount": 7,
      "authors": [
        {
          "authorId": "2210292133",
          "name": "Cong Wang"
        },
        {
          "authorId": "3226550",
          "name": "Zhiwei Jiang"
        },
        {
          "authorId": "1784263",
          "name": "Yafeng Yin"
        },
        {
          "authorId": "79673584",
          "name": "Zifeng Cheng"
        },
        {
          "authorId": "98443092",
          "name": "Shiping Ge"
        },
        {
          "authorId": "2054919499",
          "name": "Qing Gu"
        }
      ]
    },
    {
      "paperId": "6dcebe0a6c1c0c4276fb08edee9030b8685dde71",
      "externalIds": {
        "DBLP": "journals/corr/abs-2510-00122",
        "ArXiv": "2510.00122",
        "DOI": "10.1109/TKDE.2025.3617386",
        "CorpusId": 281706334
      },
      "url": "https://www.semanticscholar.org/paper/6dcebe0a6c1c0c4276fb08edee9030b8685dde71",
      "title": "Approximately Unimodal Likelihood Models for Ordinal Regression",
      "venue": "IEEE Transactions on Knowledge and Data Engineering",
      "year": 2025,
      "referenceCount": 45,
      "citationCount": 1,
      "authors": [
        {
          "authorId": "113508535",
          "name": "Ryoya Yamasaki"
        }
      ]
    },
    {
      "paperId": "b9d20f5ab893d9b6c4da6c1d5ebb5e3e5c84777f",
      "externalIds": {
        "MAG": "3012109467",
        "CorpusId": 212658026
      },
      "url": "https://www.semanticscholar.org/paper/b9d20f5ab893d9b6c4da6c1d5ebb5e3e5c84777f",
      "title": "Non-parametric Uni-modality Constraints for Deep Ordinal Classification.",
      "venue": "",
      "year": 2019,
      "referenceCount": 41,
      "citationCount": 12,
      "authors": [
        {
          "authorId": "1802883",
          "name": "Soufiane Belharbi"
        },
        {
          "authorId": "144019647",
          "name": "Ismail Ben Ayed"
        },
        {
          "authorId": "2065748679",
          "name": "Luke McCaffrey"
        },
        {
          "authorId": "52194462",
          "name": "Eric Granger"
        }
      ]
    },
    {
      "paperId": "9e4dc473178efd1085bb354a7b662d3b9173d470",
      "externalIds": {
        "DBLP": "journals/ijon/LiuFKDXLY20",
        "MAG": "2998802446",
        "DOI": "10.1016/j.neucom.2020.01.025",
        "CorpusId": 214457754
      },
      "url": "https://www.semanticscholar.org/paper/9e4dc473178efd1085bb354a7b662d3b9173d470",
      "title": "Unimodal regularized neuron stick-breaking for ordinal classification",
      "venue": "Neurocomputing",
      "year": 2020,
      "referenceCount": 69,
      "citationCount": 63,
      "authors": [
        {
          "authorId": "2144499630",
          "name": "Xiaofeng Liu"
        },
        {
          "authorId": "1735032619",
          "name": "Fangfang Fan"
        },
        {
          "authorId": "34876535",
          "name": "Lingsheng Kong"
        },
        {
          "authorId": "31535504",
          "name": "Z. Diao"
        },
        {
          "authorId": "2113722130",
          "name": "Wanqing Xie"
        },
        {
          "authorId": "2151165113",
          "name": "Jun Lu"
        },
        {
          "authorId": "144329386",
          "name": "J. You"
        }
      ]
    },
    {
      "paperId": "d10655bf55a18720b730d25d8ec97f6cc828e994",
      "externalIds": {
        "DBLP": "journals/corr/abs-2011-07607",
        "MAG": "3098794096",
        "ArXiv": "2011.07607",
        "CorpusId": 226965196
      },
      "url": "https://www.semanticscholar.org/paper/d10655bf55a18720b730d25d8ec97f6cc828e994",
      "title": "Deep Ordinal Regression using Optimal Transport Loss and Unimodal Output Probabilities",
      "venue": "arXiv.org",
      "year": 2020,
      "referenceCount": 31,
      "citationCount": 9,
      "authors": [
        {
          "authorId": "1762788",
          "name": "Uri Shaham"
        },
        {
          "authorId": "40221862",
          "name": "Jonathan Svirsky"
        }
      ]
    }
  ]
}