{
  "total": 45740,
  "offset": 0,
  "next": 10,
  "data": [
    {
      "paperId": "b9064d773c978dcebc1e88ee193b296f6f513b75",
      "externalIds": {
        "DBLP": "journals/corr/RaghunathanVZ17",
        "MAG": "2949516744",
        "ArXiv": "1707.03854",
        "CorpusId": 20659885
      },
      "url": "https://www.semanticscholar.org/paper/b9064d773c978dcebc1e88ee193b296f6f513b75",
      "title": "Estimating the unseen from multiple populations",
      "venue": "International Conference on Machine Learning",
      "year": 2017,
      "referenceCount": 12,
      "citationCount": 14,
      "authors": [
        {
          "authorId": "2655157",
          "name": "Aditi Raghunathan"
        },
        {
          "authorId": "1806083",
          "name": "G. Valiant"
        },
        {
          "authorId": "145085305",
          "name": "James Y. Zou"
        }
      ]
    },
    {
      "paperId": "219faf03e57f146a8f3800daf6c35f967741a2ea",
      "externalIds": {
        "ArXiv": "2502.04122",
        "CorpusId": 276161304
      },
      "url": "https://www.semanticscholar.org/paper/219faf03e57f146a8f3800daf6c35f967741a2ea",
      "title": "How many unseen species are in multiple areas?",
      "venue": "",
      "year": 2025,
      "referenceCount": 0,
      "citationCount": 0,
      "authors": [
        {
          "authorId": "2263692848",
          "name": "A. Colombi"
        },
        {
          "authorId": "2513816",
          "name": "R. Argiento"
        },
        {
          "authorId": "2335754112",
          "name": "Federico Camerlenghi"
        },
        {
          "authorId": "2264338208",
          "name": "Lucia Paci"
        }
      ]
    },
    {
      "paperId": "dd444f277b115966b30509335f4b91d9a1765331",
      "externalIds": {
        "DBLP": "conf/embc/LiuRSWNLL14",
        "MAG": "2020269787",
        "DOI": "10.1109/EMBC.2014.6944631",
        "CorpusId": 21825985,
        "PubMed": "25570999"
      },
      "url": "https://www.semanticscholar.org/paper/dd444f277b115966b30509335f4b91d9a1765331",
      "title": "Validation of an accelerometer-based fall prediction model",
      "venue": "Annual International Conference of the IEEE Engineering in Medicine and Biology Society",
      "year": 2014,
      "referenceCount": 11,
      "citationCount": 17,
      "authors": [
        {
          "authorId": "49420283",
          "name": "Y. Liu"
        },
        {
          "authorId": "144869332",
          "name": "S. Redmond"
        },
        {
          "authorId": "6749866",
          "name": "T. Shany"
        },
        {
          "authorId": "2074275506",
          "name": "Jane Woolgar"
        },
        {
          "authorId": "2257692",
          "name": "M. R. Narayanan"
        },
        {
          "authorId": "1861504",
          "name": "S. Lord"
        },
        {
          "authorId": "2674844",
          "name": "N. Lovell"
        }
      ]
    },
    {
      "paperId": "4b0e01e4a0293898430cac859fef446f5cf79c22",
      "externalIds": {
        "PubMedCentral": "12184501",
        "DOI": "10.1073/pnas.2416637122",
        "CorpusId": 279328937,
        "PubMed": "40512789"
      },
      "url": "https://www.semanticscholar.org/paper/4b0e01e4a0293898430cac859fef446f5cf79c22",
      "title": "Revealing unseen dynamical regimes of ecosystems from population time-series data",
      "venue": "Proceedings of the National Academy of Sciences of the United States of America",
      "year": 2025,
      "referenceCount": 54,
      "citationCount": 2,
      "authors": [
        {
          "authorId": "50278634",
          "name": "Lucas P. Medeiros"
        },
        {
          "authorId": "2315814352",
          "name": "Darian K Sorenson"
        },
        {
          "authorId": "2189751148",
          "name": "Bethany J. Johnson"
        },
        {
          "authorId": "3984111",
          "name": "E. Palkovacs"
        },
        {
          "authorId": "2286410201",
          "name": "Stephan B. Munch"
        }
      ]
    },
    {
      "paperId": "483efc14d88b1cf5cff784e58c86020d835e6254",
      "externalIds": {
        "MAG": "2991474408",
        "DOI": "10.1111/jch.13729",
        "CorpusId": 208299153,
        "PubMed": "31769168"
      },
      "url": "https://www.semanticscholar.org/paper/483efc14d88b1cf5cff784e58c86020d835e6254",
      "title": "Comparison of 24‐hour urine and 24‐hour diet recall for estimating dietary sodium intake in populations: A systematic review and meta‐analysis",
      "venue": "The Journal of Clinical Hypertension",
      "year": 2019,
      "referenceCount": 47,
      "citationCount": 46,
      "authors": [
        {
          "authorId": "144379693",
          "name": "R. McLean"
        },
        {
          "authorId": "4528655",
          "name": "C. Cameron"
        },
        {
          "authorId": "66444221",
          "name": "Elizabeth Butcher"
        },
        {
          "authorId": "38075616",
          "name": "N. Cook"
        },
        {
          "authorId": "145037492",
          "name": "M. Woodward"
        },
        {
          "authorId": "2203503",
          "name": "N. Campbell"
        }
      ]
    },
    {
      "paperId": "666c2db4c658883b2fe265e70ebc0abad7331a1b",
      "externalIds": {
        "DOI": "10.1016/j.jnma.2023.01.010",
        "CorpusId": 256915653,
        "PubMed": "36801076"
      },
      "url": "https://www.semanticscholar.org/paper/666c2db4c658883b2fe265e70ebc0abad7331a1b",
      "title": "The relationship between state-level structural racism and disparities between the non-hispanic black and non-hispanic white populations in multiple health outcomes.",
      "venue": "Journal of the National Medical Association",
      "year": 2023,
      "referenceCount": 44,
      "citationCount": 26,
      "authors": [
        {
          "authorId": "2113944583",
          "name": "Michael Siegel"
        },
        {
          "authorId": "2107018556",
          "name": "Emma Wiklund"
        }
      ]
    },
    {
      "paperId": "a12c0fad4f3551fb3186b39cdac8566e8977dae8",
      "externalIds": {
        "DOI": "10.1093/jsxmed/qdac033",
        "CorpusId": 257100629,
        "PubMed": "36814112"
      },
      "url": "https://www.semanticscholar.org/paper/a12c0fad4f3551fb3186b39cdac8566e8977dae8",
      "title": "Seeing the unseen: how can we best identify transgender women within the Veterans Affairs healthcare system's electronic medical record?",
      "venue": "Journal of Sexual Medicine",
      "year": 2023,
      "referenceCount": 21,
      "citationCount": 18,
      "authors": [
        {
          "authorId": "1432885527",
          "name": "F. Nik-Ahd"
        },
        {
          "authorId": "40105845",
          "name": "Justin Waller"
        },
        {
          "authorId": "13345626",
          "name": "A. D. De Hoedt"
        },
        {
          "authorId": "2119231241",
          "name": "Maurice M. Garcia"
        },
        {
          "authorId": "114574374",
          "name": "J. Figueiredo"
        },
        {
          "authorId": "2147044235",
          "name": "Peter R. Carroll"
        },
        {
          "authorId": "3353440",
          "name": "M. Cooperberg"
        },
        {
          "authorId": "4738173",
          "name": "S. Freedland"
        }
      ]
    },
    {
      "paperId": "0dc6c2e993b5b94cfe4ebc068e09304a2d92903a",
      "externalIds": {
        "DOI": "10.1016/j.msard.2025.106272",
        "CorpusId": 275563184,
        "PubMed": "39827538"
      },
      "url": "https://www.semanticscholar.org/paper/0dc6c2e993b5b94cfe4ebc068e09304a2d92903a",
      "title": "Real world experience with cladribine tablets for multiple sclerosis at four academic multiple sclerosis centers.",
      "venue": "Multiple Sclerosis and Related Disorders",
      "year": 2025,
      "referenceCount": 19,
      "citationCount": 4,
      "authors": [
        {
          "authorId": "2315372284",
          "name": "DS Conway"
        },
        {
          "authorId": "2355983263",
          "name": "J. Nicholas"
        },
        {
          "authorId": "2268232290",
          "name": "N. Thompson"
        },
        {
          "authorId": "4914874",
          "name": "E. Mowry"
        },
        {
          "authorId": "2319517301",
          "name": "Robert T Naismith"
        }
      ]
    },
    {
      "paperId": "b2920b859dc0edc86c853e2a676bcf365b04759f",
      "externalIds": {
        "ArXiv": "2007.00929",
        "MAG": "3039432565",
        "DOI": "10.1111/rssa.12731",
        "CorpusId": 220302140
      },
      "url": "https://www.semanticscholar.org/paper/b2920b859dc0edc86c853e2a676bcf365b04759f",
      "title": "Multiple system estimation using covariates having missing values and measurement error: Estimating the size of the Māori population in New Zealand",
      "venue": "Journal of the Royal Statistical Society: Series A (Statistics in Society)",
      "year": 2020,
      "referenceCount": 52,
      "citationCount": 10,
      "authors": [
        {
          "authorId": "5205084",
          "name": "P. V. D. van der Heijden"
        },
        {
          "authorId": "4019286",
          "name": "Maarten Cruyff"
        },
        {
          "authorId": "2118148452",
          "name": "Paul A. Smith"
        },
        {
          "authorId": "103763327",
          "name": "C. Bycroft"
        },
        {
          "authorId": "8742229",
          "name": "P. Graham"
        },
        {
          "authorId": "1579630528",
          "name": "Nathaniel Matheson-Dunning"
        }
      ]
    },
    {
      "paperId": "b198d13734885f9615e3fd2fd271e4f609169d84",
      "externalIds": {
        "MAG": "2768653348",
        "DOI": "10.13110/humanbiology.89.1.05",
        "CorpusId": 27705889,
        "PubMed": "29285971"
      },
      "url": "https://www.semanticscholar.org/paper/b198d13734885f9615e3fd2fd271e4f609169d84",
      "title": "Leveraging Multiple Populations across Time Helps Define Accurate Models of Human Evolution: A Reanalysis of the Lactase Persistence Adaptation",
      "venue": "Human Biology: The Official Publication of the American Association of Anthropological Genetics",
      "year": 2017,
      "referenceCount": 99,
      "citationCount": 9,
      "authors": [
        {
          "authorId": "31477153",
          "name": "Chenling Antelope"
        },
        {
          "authorId": "4015732",
          "name": "Davide Marnetto"
        },
        {
          "authorId": "8949576",
          "name": "F. Casey"
        },
        {
          "authorId": "1405262328",
          "name": "E. Huerta-Sánchez"
        }
      ]
    }
  ]
}