{
  "total": 100,
  "offset": 0,
  "next": 10,
  "data": [
    {
      "paperId": "7200969d70cf6f3fd343f48e97b8ebf7d563a584",
      "externalIds": {
        "ArXiv": "1602.02658",
        "MAG": "2270696664",
        "DBLP": "conf/icml/ZahavyBM16",
        "CorpusId": 7292590
      },
      "url": "https://www.semanticscholar.org/paper/7200969d70cf6f3fd343f48e97b8ebf7d563a584",
      "title": "Graying the black box: Understanding DQNs",
      "venue": "International Conference on Machine Learning",
      "year": 2016,
      "referenceCount": 57,
      "citationCount": 287,
      "authors": [
        {
          "authorId": "3331540",
          "name": "Tom Zahavy"
        },
        {
          "authorId": "1405614659",
          "name": "Nir Ben-Zrihem"
        },
        {
          "authorId": "1712535",
          "name": "Shie Mannor"
        }
      ]
    },
    {
      "paperId": "a3ee4346326461e88e744669f8e0df44630b3f30",
      "externalIds": {
        "ArXiv": "2502.14405",
        "DBLP": "journals/corr/abs-2502-14405",
        "DOI": "10.48550/arXiv.2502.14405",
        "CorpusId": 276482671
      },
      "url": "https://www.semanticscholar.org/paper/a3ee4346326461e88e744669f8e0df44630b3f30",
      "title": "Differentiable Black-box and Gray-box Modeling of Nonlinear Audio Effects",
      "venue": "Frontiers in Signal Processing",
      "year": 2025,
      "referenceCount": 153,
      "citationCount": 8,
      "authors": [
        {
          "authorId": "151109099",
          "name": "Marco Comunità"
        },
        {
          "authorId": "145010177",
          "name": "C. Steinmetz"
        },
        {
          "authorId": "2261388519",
          "name": "Joshua D. Reiss"
        }
      ]
    },
    {
      "paperId": "d793373cc12189c79833a9ae24c1837c340daa89",
      "externalIds": {
        "DOI": "10.1109/icABCD62167.2024.10645264",
        "CorpusId": 272264995
      },
      "url": "https://www.semanticscholar.org/paper/d793373cc12189c79833a9ae24c1837c340daa89",
      "title": "Explainable Algorithmic Trading: Unlocking the Black Box with GAN-Based Visualizations",
      "venue": "2024 International Conference on Artificial Intelligence, Big Data, Computing and Data Communication Systems (icABCD)",
      "year": 2024,
      "referenceCount": 15,
      "citationCount": 1,
      "authors": [
        {
          "authorId": "2233499043",
          "name": "Joseph Tafataona Mtetwa"
        },
        {
          "authorId": "31169353",
          "name": "K. Ogudo"
        },
        {
          "authorId": "2791109",
          "name": "S. Pudaruth"
        }
      ]
    },
    {
      "paperId": "e7bb5ab9b95b0fa8613e608dea57cafda4ea179f",
      "externalIds": {
        "MAG": "2608183187",
        "CorpusId": 55094354
      },
      "url": "https://www.semanticscholar.org/paper/e7bb5ab9b95b0fa8613e608dea57cafda4ea179f",
      "title": "A Glimpse Inside the Brain’s Black Box: Understanding the Role of Neuroscience in Criminal Sentencing",
      "venue": "",
      "year": 2016,
      "referenceCount": 3,
      "citationCount": 2,
      "authors": [
        {
          "authorId": "116001506",
          "name": "B. Donald"
        },
        {
          "authorId": "120691500",
          "name": "Erica Bakies"
        }
      ]
    },
    {
      "paperId": "fc1d3bfecc208a5ab3cab3da1f5223f69756f4dc",
      "externalIds": {
        "DBLP": "conf/iti2/ArtyukhovVDAZ24",
        "CorpusId": 276618616
      },
      "url": "https://www.semanticscholar.org/paper/fc1d3bfecc208a5ab3cab3da1f5223f69756f4dc",
      "title": "Evaluating the Quality of Education: Application of Black, Gray, and White Box Methods",
      "venue": "International Conference \"Information Technology and Interactions\"",
      "year": 2024,
      "referenceCount": 35,
      "citationCount": 0,
      "authors": [
        {
          "authorId": "2159474669",
          "name": "A. Artyukhov"
        },
        {
          "authorId": "2159474806",
          "name": "I. Volk"
        },
        {
          "authorId": "2294612901",
          "name": "O. Dluhopolskyi"
        },
        {
          "authorId": "2319706244",
          "name": "Nadiia Artyukhova"
        },
        {
          "authorId": "2347357677",
          "name": "Olena Zelikovska"
        }
      ]
    },
    {
      "paperId": "25c903c350843ef289285bcb23291fa8def8ce54",
      "externalIds": {
        "DOI": "10.1213/ANE.0000000000005500",
        "CorpusId": 232419308,
        "PubMed": "33780392"
      },
      "url": "https://www.semanticscholar.org/paper/25c903c350843ef289285bcb23291fa8def8ce54",
      "title": "Black Box, Gray Box, Clear Box? How Well Must We Understand Monitoring Devices?",
      "venue": "Anesthesia and Analgesia",
      "year": 2021,
      "referenceCount": 14,
      "citationCount": 10,
      "authors": [
        {
          "authorId": "152937473",
          "name": "J. Feldman"
        },
        {
          "authorId": "35620999",
          "name": "K. Kuck"
        },
        {
          "authorId": "1748003",
          "name": "T. Hemmerling"
        }
      ]
    },
    {
      "paperId": "49001376cca959fd4d22818b3e49679cc7657be6",
      "externalIds": {
        "DOI": "10.3389/fevo.2024.1505025",
        "CorpusId": 274629845
      },
      "url": "https://www.semanticscholar.org/paper/49001376cca959fd4d22818b3e49679cc7657be6",
      "title": "Seeing through the gray box: an integrated approach to physiological modeling of phytoplankton stoichiometry",
      "venue": "Frontiers in Ecology and Evolution",
      "year": 2024,
      "referenceCount": 128,
      "citationCount": 0,
      "authors": [
        {
          "authorId": "2115254267",
          "name": "Catriona L. C. Jones"
        },
        {
          "authorId": "1581717853",
          "name": "Judith Camps-Castellà"
        },
        {
          "authorId": "2334668327",
          "name": "Mike Smykala"
        },
        {
          "authorId": "2239189237",
          "name": "M. Sobol"
        },
        {
          "authorId": "9492983",
          "name": "K. Inomura"
        }
      ]
    },
    {
      "paperId": "6a0a1d25157f1df11db2188e8856222a12e1034a",
      "externalIds": {
        "DOI": "10.3390/app16010231",
        "CorpusId": 284327574
      },
      "url": "https://www.semanticscholar.org/paper/6a0a1d25157f1df11db2188e8856222a12e1034a",
      "title": "WSG-FEC: Gray-Box Frequency-Domain Explanation of CNN Models Based on Weakly Supervised Learning",
      "venue": "Applied Sciences",
      "year": 2025,
      "referenceCount": 14,
      "citationCount": 0,
      "authors": [
        {
          "authorId": "2398031528",
          "name": "Ying Zhan"
        },
        {
          "authorId": "2307388215",
          "name": "Xianfeng Li"
        },
        {
          "authorId": "2149514634",
          "name": "Yue Zheng"
        },
        {
          "authorId": "2307597035",
          "name": "Haoran Sun"
        }
      ]
    },
    {
      "paperId": "364f0f27167adeb63afa1545f93d6e6846e22019",
      "externalIds": {
        "DOI": "10.1049/rpg2.70161",
        "CorpusId": 283161467
      },
      "url": "https://www.semanticscholar.org/paper/364f0f27167adeb63afa1545f93d6e6846e22019",
      "title": "Robust Gray‐Box‐Based Dynamic Equivalencing of DC Microgrids",
      "venue": "IET Renewable Power Generation",
      "year": 2025,
      "referenceCount": 26,
      "citationCount": 0,
      "authors": [
        {
          "authorId": "2393568203",
          "name": "Narjes Nezhad Hossein"
        },
        {
          "authorId": "2349622261",
          "name": "Behrooz Zaker"
        },
        {
          "authorId": "2126273879",
          "name": "Dariush Keihan Asl"
        },
        {
          "authorId": "2238572132",
          "name": "Mohammad Mohammadi"
        }
      ]
    },
    {
      "paperId": "06d3683d0d96d5645ce31a046952a0e48a562a2b",
      "externalIds": {
        "MAG": "2237729694",
        "DBLP": "journals/mbec/SarbazP16",
        "DOI": "10.1007/s11517-015-1401-9",
        "CorpusId": 17551608,
        "PubMed": "26546075"
      },
      "url": "https://www.semanticscholar.org/paper/06d3683d0d96d5645ce31a046952a0e48a562a2b",
      "title": "A review of presented mathematical models in Parkinson’s disease: black- and gray-box models",
      "venue": "Medical and Biological Engineering and Computing",
      "year": 2016,
      "referenceCount": 78,
      "citationCount": 34,
      "authors": [
        {
          "authorId": "2324857",
          "name": "Yashar Sarbaz"
        },
        {
          "authorId": "3403025",
          "name": "Hakimeh Pourakbari"
        }
      ]
    }
  ]
}