{
  "total": 80,
  "offset": 0,
  "next": 10,
  "data": [
    {
      "paperId": "9c135a28d84c59ea3b2ea048de6cfa94c6f958b4",
      "externalIds": {
        "MAG": "1948596984",
        "ArXiv": "1502.06668",
        "DBLP": "conf/icml/SteinhardtL15a",
        "CorpusId": 263795035
      },
      "url": "https://www.semanticscholar.org/paper/9c135a28d84c59ea3b2ea048de6cfa94c6f958b4",
      "title": "Learning Fast-Mixing Models for Structured Prediction",
      "venue": "International Conference on Machine Learning",
      "year": 2015,
      "referenceCount": 36,
      "citationCount": 11,
      "authors": [
        {
          "authorId": "2288262462",
          "name": "Jacob Steinhardt"
        },
        {
          "authorId": "2325905225",
          "name": "Percy Liang"
        }
      ]
    },
    {
      "paperId": "3f25e17eb717e5894e0404ea634451332f85d287",
      "externalIds": {
        "MAG": "2188365844",
        "DBLP": "conf/nips/SohnLY15",
        "CorpusId": 13936837
      },
      "url": "https://www.semanticscholar.org/paper/3f25e17eb717e5894e0404ea634451332f85d287",
      "title": "Learning Structured Output Representation using Deep Conditional Generative Models",
      "venue": "Neural Information Processing Systems",
      "year": 2015,
      "referenceCount": 37,
      "citationCount": 3741,
      "authors": [
        {
          "authorId": "1729571",
          "name": "Kihyuk Sohn"
        },
        {
          "authorId": "1697141",
          "name": "Honglak Lee"
        },
        {
          "authorId": "3084614",
          "name": "Xinchen Yan"
        }
      ]
    },
    {
      "paperId": "89fc01b29c73a059b9be1bc7cf66ad4f3381f36a",
      "externalIds": {
        "MAG": "2185101576",
        "ArXiv": "1509.08992",
        "DBLP": "conf/nips/Domke15",
        "CorpusId": 3170996
      },
      "url": "https://www.semanticscholar.org/paper/89fc01b29c73a059b9be1bc7cf66ad4f3381f36a",
      "title": "Maximum Likelihood Learning With Arbitrary Treewidth via Fast-Mixing Parameter Sets",
      "venue": "Neural Information Processing Systems",
      "year": 2015,
      "referenceCount": 34,
      "citationCount": 2,
      "authors": [
        {
          "authorId": "1722101",
          "name": "Justin Domke"
        }
      ]
    },
    {
      "paperId": "437fdba28304a2ff03f7f9a6b93be2f4af561371",
      "externalIds": {
        "DBLP": "conf/miccai/DhungelCB15",
        "MAG": "2294923432",
        "DOI": "10.1007/978-3-319-24553-9_74",
        "CorpusId": 15068147
      },
      "url": "https://www.semanticscholar.org/paper/437fdba28304a2ff03f7f9a6b93be2f4af561371",
      "title": "Deep Learning and Structured Prediction for the Segmentation of Mass in Mammograms",
      "venue": "International Conference on Medical Image Computing and Computer-Assisted Intervention",
      "year": 2015,
      "referenceCount": 23,
      "citationCount": 161,
      "authors": [
        {
          "authorId": "3293652",
          "name": "Neeraj Dhungel"
        },
        {
          "authorId": "145575177",
          "name": "G. Carneiro"
        },
        {
          "authorId": "1720617",
          "name": "A. Bradley"
        }
      ]
    },
    {
      "paperId": "6574745513212ea8262b83eafc1b2f74bb6a907a",
      "externalIds": {
        "DBLP": "conf/aistats/ShiSL15",
        "MAG": "2116929514",
        "CorpusId": 3028360
      },
      "url": "https://www.semanticscholar.org/paper/6574745513212ea8262b83eafc1b2f74bb6a907a",
      "title": "Learning Where to Sample in Structured Prediction",
      "venue": "International Conference on Artificial Intelligence and Statistics",
      "year": 2015,
      "referenceCount": 38,
      "citationCount": 20,
      "authors": [
        {
          "authorId": "10238549",
          "name": "Tianlin Shi"
        },
        {
          "authorId": "5164568",
          "name": "J. Steinhardt"
        },
        {
          "authorId": "145419642",
          "name": "Percy Liang"
        }
      ]
    },
    {
      "paperId": "39826eef152d5fd58bbae9133518b6c15f37cfb0",
      "externalIds": {
        "CorpusId": 2390656
      },
      "url": "https://www.semanticscholar.org/paper/39826eef152d5fd58bbae9133518b6c15f37cfb0",
      "title": "HADES: Hierarchical Approximate Decoding for Structured Prediction",
      "venue": "",
      "year": 2015,
      "referenceCount": 46,
      "citationCount": 0,
      "authors": [
        {
          "authorId": "40401747",
          "name": "Aurélien Lucchi"
        },
        {
          "authorId": "2456863",
          "name": "Martin Jaggi"
        }
      ]
    },
    {
      "paperId": "138fda7e6a92ce0be455901bdfc41c9b76d6e060",
      "externalIds": {
        "MAG": "1415242555",
        "DBLP": "phd/ethos/Coppola15",
        "CorpusId": 11570889
      },
      "url": "https://www.semanticscholar.org/paper/138fda7e6a92ce0be455901bdfc41c9b76d6e060",
      "title": "Iterative parameter mixing for distributed large-margin training of structured predictors for natural language processing",
      "venue": "",
      "year": 2015,
      "referenceCount": 202,
      "citationCount": 19,
      "authors": [
        {
          "authorId": "1779056",
          "name": "Gregory F. Coppola"
        }
      ]
    },
    {
      "paperId": "4c4f01846be3ecc79d030d577b9933ea64c4bf4f",
      "externalIds": {
        "DBLP": "conf/sigmod/PrasadFGMLXHR15",
        "MAG": "2020199039",
        "DOI": "10.1145/2723372.2742789",
        "CorpusId": 16620465
      },
      "url": "https://www.semanticscholar.org/paper/4c4f01846be3ecc79d030d577b9933ea64c4bf4f",
      "title": "Large-scale Predictive Analytics in Vertica: Fast Data Transfer, Distributed Model Creation, and In-database Prediction",
      "venue": "SIGMOD Conference",
      "year": 2015,
      "referenceCount": 26,
      "citationCount": 15,
      "authors": [
        {
          "authorId": "31211320",
          "name": "S. Prasad"
        },
        {
          "authorId": "144861857",
          "name": "A. Fard"
        },
        {
          "authorId": "20278612",
          "name": "Vishrut Gupta"
        },
        {
          "authorId": "2109803844",
          "name": "Jorge Martinez"
        },
        {
          "authorId": "40559862",
          "name": "J. LeFevre"
        },
        {
          "authorId": "2389592408",
          "name": "V. Xu"
        },
        {
          "authorId": "49975266",
          "name": "M. Hsu"
        },
        {
          "authorId": "48315986",
          "name": "Indrajit Roy"
        }
      ]
    },
    {
      "paperId": "16907fcb75f38c774c0118029bb5eceb3caa39d3",
      "externalIds": {
        "DBLP": "conf/icml/BachHBG15",
        "MAG": "1950900001",
        "CorpusId": 217660093
      },
      "url": "https://www.semanticscholar.org/paper/16907fcb75f38c774c0118029bb5eceb3caa39d3",
      "title": "Paired-Dual Learning for Fast Training of Latent Variable Hinge-Loss MRFs",
      "venue": "International Conference on Machine Learning",
      "year": 2015,
      "referenceCount": 31,
      "citationCount": 14,
      "authors": [
        {
          "authorId": "2870504",
          "name": "Stephen H. Bach"
        },
        {
          "authorId": "40486307",
          "name": "Bert Huang"
        },
        {
          "authorId": "2380091142",
          "name": "Jordan L. Boyd-Graber"
        },
        {
          "authorId": "1746034",
          "name": "L. Getoor"
        }
      ]
    },
    {
      "paperId": "ef7083e3edb35db45a9f7afe6005b748b115ddc0",
      "externalIds": {
        "CorpusId": 53517773
      },
      "url": "https://www.semanticscholar.org/paper/ef7083e3edb35db45a9f7afe6005b748b115ddc0",
      "title": "Comparative Study of Machine Learning Models in Protein Structure Prediction *",
      "venue": "",
      "year": 2015,
      "referenceCount": 31,
      "citationCount": 3,
      "authors": [
        {
          "authorId": "48043162",
          "name": "Sonal Mishra"
        },
        {
          "authorId": "9397801",
          "name": "Anamika Ahirwar"
        }
      ]
    }
  ]
}