{
  "total": 1559,
  "offset": 0,
  "next": 10,
  "data": [
    {
      "paperId": "257aeef7463eee895d3657823b1b9f0fe80df0fb",
      "externalIds": {
        "MAG": "2952840881",
        "ArXiv": "1502.02206",
        "DBLP": "conf/icml/ChangKADL15",
        "CorpusId": 16610517
      },
      "url": "https://www.semanticscholar.org/paper/257aeef7463eee895d3657823b1b9f0fe80df0fb",
      "title": "Learning to Search Better than Your Teacher",
      "venue": "International Conference on Machine Learning",
      "year": 2015,
      "referenceCount": 23,
      "citationCount": 233,
      "authors": [
        {
          "authorId": "2782886",
          "name": "Kai-Wei Chang"
        },
        {
          "authorId": "37019006",
          "name": "A. Krishnamurthy"
        },
        {
          "authorId": "40333747",
          "name": "Alekh Agarwal"
        },
        {
          "authorId": "1722360",
          "name": "Hal Daumé"
        },
        {
          "authorId": "144162125",
          "name": "J. Langford"
        }
      ]
    },
    {
      "paperId": "52668fb867bc6b67d41e4dac4ed44975a5155723",
      "externalIds": {
        "DBLP": "journals/corr/abs-2601-08035",
        "ArXiv": "2601.08035",
        "DOI": "10.1145/3786304.3787945",
        "CorpusId": 284704104
      },
      "url": "https://www.semanticscholar.org/paper/52668fb867bc6b67d41e4dac4ed44975a5155723",
      "title": "From Tool to Teacher: Rethinking Search Systems as Instructive Interfaces",
      "venue": "Conference on Human Information Interaction and Retrieval",
      "year": 2026,
      "referenceCount": 57,
      "citationCount": 0,
      "authors": [
        {
          "authorId": "2292413846",
          "name": "David Elsweiler"
        }
      ]
    },
    {
      "paperId": "5e3ac5c0da335a626cfc296ad9f83ad5400c78c5",
      "externalIds": {
        "ArXiv": "2203.12668",
        "DBLP": "conf/interspeech/HwangSHS22",
        "DOI": "10.48550/arXiv.2203.12668",
        "CorpusId": 247628201
      },
      "url": "https://www.semanticscholar.org/paper/5e3ac5c0da335a626cfc296ad9f83ad5400c78c5",
      "title": "Pseudo Label Is Better Than Human Label",
      "venue": "Interspeech",
      "year": 2022,
      "referenceCount": 38,
      "citationCount": 43,
      "authors": [
        {
          "authorId": "101751187",
          "name": "DongSeon Hwang"
        },
        {
          "authorId": "1693612",
          "name": "K. Sim"
        },
        {
          "authorId": "3382735",
          "name": "Zhouyuan Huo"
        },
        {
          "authorId": "2985957",
          "name": "Trevor Strohman"
        }
      ]
    },
    {
      "paperId": "45329810338fe47cfa424c89e81854ec949117b5",
      "externalIds": {
        "DBLP": "journals/corr/abs-2309-08185",
        "ArXiv": "2309.08185",
        "DOI": "10.48550/arXiv.2309.08185",
        "CorpusId": 261875655
      },
      "url": "https://www.semanticscholar.org/paper/45329810338fe47cfa424c89e81854ec949117b5",
      "title": "Multilingual Sentence-Level Semantic Search using Meta-Distillation Learning",
      "venue": "arXiv.org",
      "year": 2023,
      "referenceCount": 62,
      "citationCount": 2,
      "authors": [
        {
          "authorId": "1411352299",
          "name": "Meryem M'hamdi"
        },
        {
          "authorId": "143823227",
          "name": "Jonathan May"
        },
        {
          "authorId": "2462276",
          "name": "Franck Dernoncourt"
        },
        {
          "authorId": "145262461",
          "name": "Trung Bui"
        },
        {
          "authorId": "2110654003",
          "name": "Seunghyun Yoon"
        }
      ]
    },
    {
      "paperId": "3168c059377c7c8cdefd6aa056f5aa10cc024a6a",
      "externalIds": {
        "ArXiv": "2102.08609",
        "DOI": "10.7566/JPSJ.90.074002",
        "CorpusId": 231942316
      },
      "url": "https://www.semanticscholar.org/paper/3168c059377c7c8cdefd6aa056f5aa10cc024a6a",
      "title": "Teacher-Student Learning for a Binary Perceptron with Quantum Fluctuations",
      "venue": "Journal of the Physical Society of Japan",
      "year": 2021,
      "referenceCount": 22,
      "citationCount": 9,
      "authors": [
        {
          "authorId": "8774097",
          "name": "S. Arai"
        },
        {
          "authorId": "3246796",
          "name": "Masayuki Ohzeki"
        },
        {
          "authorId": "49346190",
          "name": "Kazuyuki Tanaka"
        }
      ]
    },
    {
      "paperId": "ffd0b74c9760a25806912cdbfb14cebac69a34c6",
      "externalIds": {
        "ArXiv": "2104.08874",
        "MAG": "3168655307",
        "ACL": "2021.naacl-main.348",
        "DBLP": "journals/corr/abs-2104-08874",
        "DOI": "10.18653/V1/2021.NAACL-MAIN.348",
        "CorpusId": 233296887
      },
      "url": "https://www.semanticscholar.org/paper/ffd0b74c9760a25806912cdbfb14cebac69a34c6",
      "title": "Language in a (Search) Box: Grounding Language Learning in Real-World Human-Machine Interaction",
      "venue": "North American Chapter of the Association for Computational Linguistics",
      "year": 2021,
      "referenceCount": 39,
      "citationCount": 9,
      "authors": [
        {
          "authorId": "49224924",
          "name": "Federico Bianchi"
        },
        {
          "authorId": "144868680",
          "name": "C. Greco"
        },
        {
          "authorId": "1964040776",
          "name": "Jacopo Tagliabue"
        }
      ]
    },
    {
      "paperId": "4627310fc927b1d5a9d22084060760ff5e40c125",
      "externalIds": {
        "DBLP": "journals/symmetry/LeiZL24",
        "DOI": "10.3390/sym16020203",
        "CorpusId": 267612581
      },
      "url": "https://www.semanticscholar.org/paper/4627310fc927b1d5a9d22084060760ff5e40c125",
      "title": "An Adaptive Two-Class Teaching-Learning-Based Optimization for Energy-Efficient Hybrid Flow Shop Scheduling Problems with Additional Resources",
      "venue": "Symmetry",
      "year": 2024,
      "referenceCount": 48,
      "citationCount": 6,
      "authors": [
        {
          "authorId": "2239286475",
          "name": "Deming Lei"
        },
        {
          "authorId": "2107987636",
          "name": "Jiawei Zhang"
        },
        {
          "authorId": "2303518962",
          "name": "Hongli Liu"
        }
      ]
    },
    {
      "paperId": "33e7d66a5136745c5ae5b7166dce49fb4021f40a",
      "externalIds": {
        "MAG": "2885067378",
        "DOI": "10.1177/0022487118789064",
        "CorpusId": 149965063
      },
      "url": "https://www.semanticscholar.org/paper/33e7d66a5136745c5ae5b7166dce49fb4021f40a",
      "title": "Team Teaching During Field Experiences in Teacher Education: Investigating Student Teachers’ Experiences With Parallel and Sequential Teaching",
      "venue": "Journal of Teacher Education",
      "year": 2018,
      "referenceCount": 64,
      "citationCount": 41,
      "authors": [
        {
          "authorId": "69855255",
          "name": "Mathea Simons"
        },
        {
          "authorId": "8475690",
          "name": "Marlies Baeten"
        },
        {
          "authorId": "83659769",
          "name": "C. Vanhees"
        }
      ]
    },
    {
      "paperId": "45a4beb95682741c2e0e9e17e30cea7b30e9d1a2",
      "externalIds": {
        "DOI": "10.1080/13629387.2022.2144253",
        "CorpusId": 253755331
      },
      "url": "https://www.semanticscholar.org/paper/45a4beb95682741c2e0e9e17e30cea7b30e9d1a2",
      "title": "Re-visiting the past in search for silver-lining: Moroccan students’ perceptions of technology-mediated faculty practices under COVID-19",
      "venue": "Journal of North African Studies",
      "year": 2022,
      "referenceCount": 35,
      "citationCount": 1,
      "authors": [
        {
          "authorId": "73285986",
          "name": "Hicham Zyad"
        }
      ]
    },
    {
      "paperId": "89b845de4f4980600b2c65e3402a809f7435af85",
      "externalIds": {
        "MAG": "2032147623",
        "DOI": "10.1016/J.IJEPES.2013.07.011",
        "CorpusId": 108844050
      },
      "url": "https://www.semanticscholar.org/paper/89b845de4f4980600b2c65e3402a809f7435af85",
      "title": "Optimal capacitor placement in radial distribution systems using teaching learning based optimization",
      "venue": "",
      "year": 2014,
      "referenceCount": 39,
      "citationCount": 315,
      "authors": [
        {
          "authorId": "2085937",
          "name": "S. Sultana"
        },
        {
          "authorId": "2948121",
          "name": "P. Roy"
        }
      ]
    }
  ]
}