{
  "total": 1425,
  "offset": 0,
  "next": 10,
  "data": [
    {
      "paperId": "a3cd82aeecb75ef339889174706d168c40187d7d",
      "externalIds": {
        "DBLP": "journals/corr/ShyamGD17",
        "ArXiv": "1703.00767",
        "MAG": "2593331594",
        "CorpusId": 10939199
      },
      "url": "https://www.semanticscholar.org/paper/a3cd82aeecb75ef339889174706d168c40187d7d",
      "title": "Attentive Recurrent Comparators",
      "venue": "International Conference on Machine Learning",
      "year": 2017,
      "referenceCount": 25,
      "citationCount": 115,
      "authors": [
        {
          "authorId": "67311962",
          "name": "Pranav Shyam"
        },
        {
          "authorId": "2118927417",
          "name": "Shubham Gupta"
        },
        {
          "authorId": "2440174",
          "name": "Ambedkar Dukkipati"
        }
      ]
    },
    {
      "paperId": "0b6c7fd405ae5334eb40b5bec76ff812acaf01fa",
      "externalIds": {
        "CorpusId": 265039808
      },
      "url": "https://www.semanticscholar.org/paper/0b6c7fd405ae5334eb40b5bec76ff812acaf01fa",
      "title": "ATTENTIVE RECURRENT COMPARATORS",
      "venue": "",
      "year": 2016,
      "referenceCount": 26,
      "citationCount": 0,
      "authors": [
        {
          "authorId": "67311962",
          "name": "Pranav Shyam"
        }
      ]
    },
    {
      "paperId": "c71592a4a3e55dff63c78a2b589454bbbbae4096",
      "externalIds": {
        "DBLP": "conf/iccv/KimK25",
        "DOI": "10.1109/ICCVW69036.2025.00018",
        "CorpusId": 286014232
      },
      "url": "https://www.semanticscholar.org/paper/c71592a4a3e55dff63c78a2b589454bbbbae4096",
      "title": "Aligning Multimodal Data for Fine-Grained Video Understanding via Cross-Attentive Recurrent Fusion",
      "venue": "2025 IEEE/CVF International Conference on Computer Vision Workshops (ICCVW)",
      "year": 2025,
      "referenceCount": 27,
      "citationCount": 1,
      "authors": [
        {
          "authorId": "2267221855",
          "name": "Nam-Ho Kim"
        },
        {
          "authorId": "2117055182",
          "name": "Jun-Hwa Kim"
        }
      ]
    },
    {
      "paperId": "738403916d60e09d5bf2e762ab2d0c15bd595a5d",
      "externalIds": {
        "DBLP": "journals/nn/PiaoZBTGSWL25",
        "ArXiv": "2402.16230",
        "DOI": "10.48550/arXiv.2402.16230",
        "CorpusId": 267938668,
        "PubMed": "39929068"
      },
      "url": "https://www.semanticscholar.org/paper/738403916d60e09d5bf2e762ab2d0c15bd595a5d",
      "title": "GARNN: An Interpretable Graph Attentive Recurrent Neural Network for Predicting Blood Glucose Levels via Multivariate Time Series",
      "venue": "Neural Networks",
      "year": 2024,
      "referenceCount": 83,
      "citationCount": 13,
      "authors": [
        {
          "authorId": "2277442589",
          "name": "Chengzhe Piao"
        },
        {
          "authorId": "51169745",
          "name": "Taiyu Zhu"
        },
        {
          "authorId": "4877818",
          "name": "S. Baldeweg"
        },
        {
          "authorId": "2286892739",
          "name": "Paul Taylor"
        },
        {
          "authorId": "2209305525",
          "name": "Pantelis Georgiou"
        },
        {
          "authorId": "2287173577",
          "name": "Jiahao Sun"
        },
        {
          "authorId": "2287061979",
          "name": "Jun Wang"
        },
        {
          "authorId": "2271874240",
          "name": "Kezhi Li"
        }
      ]
    },
    {
      "paperId": "3f1d044fc70f3d34cbbaf6356299f683a995d5d7",
      "externalIds": {
        "DBLP": "journals/ijon/RukhsarT25",
        "ArXiv": "2403.03276",
        "DOI": "10.48550/arXiv.2403.03276",
        "CorpusId": 268253370
      },
      "url": "https://www.semanticscholar.org/paper/3f1d044fc70f3d34cbbaf6356299f683a995d5d7",
      "title": "ARNN: Attentive Recurrent Neural Network for Multi-channel EEG Signals to Identify Epileptic Seizures",
      "venue": "Neurocomputing",
      "year": 2024,
      "referenceCount": 38,
      "citationCount": 14,
      "authors": [
        {
          "authorId": "46182143",
          "name": "S. Rukhsar"
        },
        {
          "authorId": "2274353440",
          "name": "Anil Kumar Tiwari"
        }
      ]
    },
    {
      "paperId": "d575c32533d97d1a7ec73f8e7eccad2f563608f1",
      "externalIds": {
        "DBLP": "conf/icassp/TangHZH24",
        "DOI": "10.1109/ICASSP48485.2024.10446084",
        "CorpusId": 268528507
      },
      "url": "https://www.semanticscholar.org/paper/d575c32533d97d1a7ec73f8e7eccad2f563608f1",
      "title": "Phase Continuity-Aware Self-Attentive Recurrent Network with Adaptive Feature Selection for Robust VAD",
      "venue": "IEEE International Conference on Acoustics, Speech, and Signal Processing",
      "year": 2024,
      "referenceCount": 31,
      "citationCount": 1,
      "authors": [
        {
          "authorId": "2330228632",
          "name": "Minjie Tang"
        },
        {
          "authorId": "2262213844",
          "name": "Hao Huang"
        },
        {
          "authorId": "2279668562",
          "name": "Wenbo Zhang"
        },
        {
          "authorId": "2149887963",
          "name": "Liang He"
        }
      ]
    },
    {
      "paperId": "276c0ea1f871909df53f7bf70b9c69d1ee4d24cb",
      "externalIds": {
        "DBLP": "conf/apsipa/Shen024",
        "DOI": "10.1109/APSIPAASC63619.2025.10849253",
        "CorpusId": 275956828
      },
      "url": "https://www.semanticscholar.org/paper/276c0ea1f871909df53f7bf70b9c69d1ee4d24cb",
      "title": "Multichannel Speech Enhancement Using Complex-Valued Graph Convolutional Networks and Triple-Path Attentive Recurrent Networks",
      "venue": "Asia-Pacific Signal and Information Processing Association Annual Summit and Conference",
      "year": 2024,
      "referenceCount": 28,
      "citationCount": 0,
      "authors": [
        {
          "authorId": "2343017246",
          "name": "Xingyu Shen"
        },
        {
          "authorId": "98172318",
          "name": "Wei-Ping Zhu"
        }
      ]
    },
    {
      "paperId": "26099c68993e7c2b83d350264772d181aa9fdb2d",
      "externalIds": {
        "DBLP": "journals/comintsys/OwinoKNK25",
        "DOI": "10.1007/s40747-025-02000-w",
        "CorpusId": 280106510
      },
      "url": "https://www.semanticscholar.org/paper/26099c68993e7c2b83d350264772d181aa9fdb2d",
      "title": "Adaptive infant cry classification using multi-armed bandit modality selection in an attentive convolutional recurrent neural network model",
      "venue": "Complex & Intelligent Systems",
      "year": 2025,
      "referenceCount": 36,
      "citationCount": 3,
      "authors": [
        {
          "authorId": "2193782114",
          "name": "Geofrey Owino"
        },
        {
          "authorId": "2341411010",
          "name": "Timothy K. K. Kamanu"
        },
        {
          "authorId": "2341411814",
          "name": "John Ndiritu"
        },
        {
          "authorId": "104056150",
          "name": "Conlet Kikechi"
        }
      ]
    },
    {
      "paperId": "f1315ed72bac0ee0a8466814be8ee54509e68896",
      "externalIds": {
        "DOI": "10.30955/gnj.06985",
        "CorpusId": 277360594
      },
      "url": "https://www.semanticscholar.org/paper/f1315ed72bac0ee0a8466814be8ee54509e68896",
      "title": "Weather Forecasting model using Attentive Residual Gated Recurrent Unit for urban flood Prediction",
      "venue": "Global NEST Journal",
      "year": 2025,
      "referenceCount": 0,
      "citationCount": 0,
      "authors": [
        {
          "authorId": "2387397335",
          "name": "V. Balaji"
        }
      ]
    },
    {
      "paperId": "9b9d9fd1dc08c6cd85371ceb784c1a7d41b9abef",
      "externalIds": {
        "DBLP": "journals/eswa/ZebZYCZWY25",
        "DOI": "10.1016/j.eswa.2025.128073",
        "CorpusId": 278513725
      },
      "url": "https://www.semanticscholar.org/paper/9b9d9fd1dc08c6cd85371ceb784c1a7d41b9abef",
      "title": "Traffic forecasting with meta attentive graph convolutional recurrent network",
      "venue": "Expert systems with applications",
      "year": 2025,
      "referenceCount": 68,
      "citationCount": 7,
      "authors": [
        {
          "authorId": "19229562",
          "name": "Adnan Zeb"
        },
        {
          "authorId": "2349356031",
          "name": "Jianying Zheng"
        },
        {
          "authorId": "89987905",
          "name": "Yongchao Ye"
        },
        {
          "authorId": "152425934",
          "name": "Junde Chen"
        },
        {
          "authorId": "2145409015",
          "name": "Shiyao Zhang"
        },
        {
          "authorId": "2275279345",
          "name": "Xuetao Wei"
        },
        {
          "authorId": "2282237715",
          "name": "James Jianqiao Yu"
        }
      ]
    }
  ]
}