{
  "total": 132,
  "offset": 0,
  "next": 10,
  "data": [
    {
      "paperId": "3ca94fcffe0e112744a75ca2f9884b73948fccde",
      "externalIds": {
        "MAG": "2740414344",
        "DBLP": "conf/icml/AkrourS0N17",
        "CorpusId": 33086836
      },
      "url": "https://www.semanticscholar.org/paper/3ca94fcffe0e112744a75ca2f9884b73948fccde",
      "title": "Local Bayesian Optimization of Motor Skills",
      "venue": "International Conference on Machine Learning",
      "year": 2017,
      "referenceCount": 41,
      "citationCount": 23,
      "authors": [
        {
          "authorId": "1688702",
          "name": "R. Akrour"
        },
        {
          "authorId": "103454074",
          "name": "Dmitry Sorokin"
        },
        {
          "authorId": "145197867",
          "name": "Jan Peters"
        },
        {
          "authorId": "26599977",
          "name": "G. Neumann"
        }
      ]
    },
    {
      "paperId": "a6b6de5bcb1f609aed6d78d735622ab196455700",
      "externalIds": {
        "DBLP": "conf/l4dc/FrohlichZK21",
        "ArXiv": "2011.09445",
        "MAG": "3104307775",
        "CorpusId": 227013023
      },
      "url": "https://www.semanticscholar.org/paper/a6b6de5bcb1f609aed6d78d735622ab196455700",
      "title": "Cautious Bayesian Optimization for Efficient and Scalable Policy Search",
      "venue": "Conference on Learning for Dynamics & Control",
      "year": 2020,
      "referenceCount": 48,
      "citationCount": 15,
      "authors": [
        {
          "authorId": "1474227728",
          "name": "Lukas P. Fröhlich"
        },
        {
          "authorId": "2176899",
          "name": "M. Zeilinger"
        },
        {
          "authorId": "3090077",
          "name": "Edgar D. Klenske"
        }
      ]
    },
    {
      "paperId": "f0fbee5bb989a66004bcb18351d482ccce911f56",
      "externalIds": {
        "DOI": "10.1101/2025.04.02.646783",
        "CorpusId": 277549538,
        "PubMed": "41701808"
      },
      "url": "https://www.semanticscholar.org/paper/f0fbee5bb989a66004bcb18351d482ccce911f56",
      "title": "Efficient Gaussian Process-based Motor Hotspot Hunting with Concurrent Optimization of TMS Coil Location and Orientation",
      "venue": "bioRxiv",
      "year": 2025,
      "referenceCount": 104,
      "citationCount": 0,
      "authors": [
        {
          "authorId": "2347556032",
          "name": "David Luis Schultheiss"
        },
        {
          "authorId": "35838601",
          "name": "Z. Turi"
        },
        {
          "authorId": "2370858554",
          "name": "Joschka Boedecker"
        },
        {
          "authorId": "2290175188",
          "name": "Andreas Vlachos"
        }
      ]
    },
    {
      "paperId": "fe5086a04197e4c71635d7ff07ad98843c6f45db",
      "externalIds": {
        "DOI": "10.59944/amorti.v4i1.423",
        "CorpusId": 278145073
      },
      "url": "https://www.semanticscholar.org/paper/fe5086a04197e4c71635d7ff07ad98843c6f45db",
      "title": "Santripreneurship development for motor skill optimization through handicrafts at tpq hidayatul mubtadiin, temanggung",
      "venue": "Amorti: Jurnal Studi Islam Interdisipliner",
      "year": 2025,
      "referenceCount": 0,
      "citationCount": 0,
      "authors": [
        {
          "authorId": "2357819839",
          "name": "Eko Sariyekti"
        },
        {
          "authorId": "2357825441",
          "name": "Muhammad Ifandi"
        },
        {
          "authorId": "2357809645",
          "name": "Yusril Anwar"
        },
        {
          "authorId": "2357824088",
          "name": "S. Wicaksono"
        },
        {
          "authorId": "2357825355",
          "name": "Afidah"
        },
        {
          "authorId": "2341344750",
          "name": "Muh. Hasbi Khilal Zuhri"
        }
      ]
    },
    {
      "paperId": "9b3bddc106facdd4e8f463820348efbe99d3d6a4",
      "externalIds": {
        "DBLP": "conf/iros/ZhangBSI24",
        "ArXiv": "2410.16417",
        "DOI": "10.1109/IROS58592.2024.10802762",
        "CorpusId": 273506996
      },
      "url": "https://www.semanticscholar.org/paper/9b3bddc106facdd4e8f463820348efbe99d3d6a4",
      "title": "Online Optimization of Central Pattern Generators for Quadruped Locomotion",
      "venue": "IEEE/RJS International Conference on Intelligent RObots and Systems",
      "year": 2024,
      "referenceCount": 41,
      "citationCount": 10,
      "authors": [
        {
          "authorId": "2237587688",
          "name": "Zewei Zhang"
        },
        {
          "authorId": "2325168330",
          "name": "Guillaume Bellegarda"
        },
        {
          "authorId": "34787383",
          "name": "M. Shafiee"
        },
        {
          "authorId": "8038419",
          "name": "A. Ijspeert"
        }
      ]
    },
    {
      "paperId": "d49661eed3753ae59b42e31f2a10c87c6b92b3f3",
      "externalIds": {
        "DOI": "10.21831/jpa.v15i1.2056",
        "CorpusId": 285043795
      },
      "url": "https://www.semanticscholar.org/paper/d49661eed3753ae59b42e31f2a10c87c6b92b3f3",
      "title": "Integrating Local Culture-Based STEAM-PJBL to Enhance Competence in Fine Motor Skill Learning Design: A Development Study",
      "venue": "Jurnal pendidikan anak",
      "year": 2026,
      "referenceCount": 29,
      "citationCount": 0,
      "authors": [
        {
          "authorId": "2406753999",
          "name": "Dwi Lyna Sari"
        },
        {
          "authorId": "2219172067",
          "name": "Wembrayarli Wembrayarli"
        },
        {
          "authorId": "2406592118",
          "name": "Siyyella Tika Nasution"
        },
        {
          "authorId": "2090090177",
          "name": "Nesna Agustriana"
        },
        {
          "authorId": "2315361816",
          "name": "M. Daryati"
        }
      ]
    },
    {
      "paperId": "a952df323a7b5eabf1912cc7483d84da24d7471b",
      "externalIds": {
        "DOI": "10.4271/2025-01-8536",
        "CorpusId": 277512721
      },
      "url": "https://www.semanticscholar.org/paper/a952df323a7b5eabf1912cc7483d84da24d7471b",
      "title": "Fully Automated Global Powertrain Optimization for Electric Truck Using Active Learning Algorithm and Backwards Simulation Approach",
      "venue": "SAE technical paper series",
      "year": 2025,
      "referenceCount": 10,
      "citationCount": 2,
      "authors": [
        {
          "authorId": "2146711944",
          "name": "Bicheng Chen"
        },
        {
          "authorId": "2155151509",
          "name": "Christoph Wellmann"
        },
        {
          "authorId": "2279719251",
          "name": "Feihong Xia"
        },
        {
          "authorId": "30545197",
          "name": "Rene Savelsberg"
        },
        {
          "authorId": "2279723322",
          "name": "Jakob Andert"
        },
        {
          "authorId": "2296203904",
          "name": "Stefan Pischinger"
        }
      ]
    },
    {
      "paperId": "9edc021796cc52bbc7d319d0a46b41d4135ac57d",
      "externalIds": {
        "DBLP": "journals/corr/abs-2410-05926",
        "ArXiv": "2410.05926",
        "DOI": "10.3217/978-3-99161-014-4-083",
        "CorpusId": 273228735
      },
      "url": "https://www.semanticscholar.org/paper/9edc021796cc52bbc7d319d0a46b41d4135ac57d",
      "title": "Bayesian model of individual learning to control a motor imagery BCI",
      "venue": "arXiv.org",
      "year": 2024,
      "referenceCount": 21,
      "citationCount": 0,
      "authors": [
        {
          "authorId": "2325097644",
          "name": "Côme Annicchiarico"
        },
        {
          "authorId": "2320397529",
          "name": "Fabien Lotte"
        },
        {
          "authorId": "2325094310",
          "name": "J'er'emie Mattout"
        }
      ]
    },
    {
      "paperId": "03ce39c94403efa20bff940fc2a899402c76c993",
      "externalIds": {
        "DOI": "10.1080/21642583.2025.2498914",
        "CorpusId": 278225256
      },
      "url": "https://www.semanticscholar.org/paper/03ce39c94403efa20bff940fc2a899402c76c993",
      "title": "A multi-task deep reinforcement learning framework based on curriculum learning and policy distillation for quadruped robot motor skill training",
      "venue": "Systems Science &amp; Control Engineering",
      "year": 2025,
      "referenceCount": 42,
      "citationCount": 4,
      "authors": [
        {
          "authorId": "2387651646",
          "name": "Liang Chen"
        },
        {
          "authorId": "2358354453",
          "name": "Bo Shen"
        },
        {
          "authorId": "2278214819",
          "name": "Jiale Hong"
        }
      ]
    },
    {
      "paperId": "24bc58833ae3404c03b55a4c10ea588fbdcb3183",
      "externalIds": {
        "DBLP": "conf/corl/KumarHL18",
        "MAG": "2899289853",
        "CorpusId": 53109473
      },
      "url": "https://www.semanticscholar.org/paper/24bc58833ae3404c03b55a4c10ea588fbdcb3183",
      "title": "Expanding Motor Skills using Relay Networks",
      "venue": "Conference on Robot Learning",
      "year": 2018,
      "referenceCount": 30,
      "citationCount": 11,
      "authors": [
        {
          "authorId": "2112128899",
          "name": "Visak C. V. Kumar"
        },
        {
          "authorId": "2248552",
          "name": "Sehoon Ha"
        },
        {
          "authorId": "2282970129",
          "name": "C. Liu"
        }
      ]
    }
  ]
}