{
  "total": 1984,
  "offset": 0,
  "next": 10,
  "data": [
    {
      "paperId": "b887a39268ee41fea8d72f0ecd364eb72fe28a82",
      "externalIds": {
        "MAG": "2952053134",
        "DBLP": "journals/corr/abs-1803-00047",
        "ArXiv": "1803.00047",
        "CorpusId": 4375156
      },
      "url": "https://www.semanticscholar.org/paper/b887a39268ee41fea8d72f0ecd364eb72fe28a82",
      "title": "Analyzing Uncertainty in Neural Machine Translation",
      "venue": "International Conference on Machine Learning",
      "year": 2018,
      "referenceCount": 35,
      "citationCount": 290,
      "authors": [
        {
          "authorId": "40511414",
          "name": "Myle Ott"
        },
        {
          "authorId": "2325985",
          "name": "Michael Auli"
        },
        {
          "authorId": "2529182",
          "name": "David Grangier"
        },
        {
          "authorId": "1706809",
          "name": "Marc'Aurelio Ranzato"
        }
      ]
    },
    {
      "paperId": "dd4ddaf0d84f22852fd43548298c9b32c36bd867",
      "externalIds": {
        "CorpusId": 260447158
      },
      "url": "https://www.semanticscholar.org/paper/dd4ddaf0d84f22852fd43548298c9b32c36bd867",
      "title": "Analyzing Uncertainty in Neural Machine Translation",
      "venue": "",
      "year": 2018,
      "referenceCount": 4,
      "citationCount": 0,
      "authors": []
    },
    {
      "paperId": "1cbcd458ecdd58b35742fa34d57f191205df6496",
      "externalIds": {
        "DBLP": "conf/ijcnn/HuSW25",
        "DOI": "10.1109/IJCNN64981.2025.11228447",
        "CorpusId": 283013462
      },
      "url": "https://www.semanticscholar.org/paper/1cbcd458ecdd58b35742fa34d57f191205df6496",
      "title": "Research on Dynamic Curriculum Learning in Mongolian-Chinese Neural Machine Translation",
      "venue": "IEEE International Joint Conference on Neural Network",
      "year": 2025,
      "referenceCount": 30,
      "citationCount": 0,
      "authors": [
        {
          "authorId": "2392595621",
          "name": "Chunyue Hu"
        },
        {
          "authorId": "2298529466",
          "name": "Qintu Si"
        },
        {
          "authorId": "2298843084",
          "name": "Siriguleng Wang"
        }
      ]
    },
    {
      "paperId": "8b47e920792fda32fad0307e4f394ff86badf23d",
      "externalIds": {
        "DBLP": "conf/eacl/ChengV24",
        "ACL": "2024.eacl-long.129",
        "CorpusId": 268417114
      },
      "url": "https://www.semanticscholar.org/paper/8b47e920792fda32fad0307e4f394ff86badf23d",
      "title": "Measuring Uncertainty in Neural Machine Translation with Similarity-Sensitive Entropy",
      "venue": "Conference of the European Chapter of the Association for Computational Linguistics",
      "year": 2024,
      "referenceCount": 53,
      "citationCount": 13,
      "authors": [
        {
          "authorId": "2268430763",
          "name": "Julius Cheng"
        },
        {
          "authorId": "2266465838",
          "name": "Andreas Vlachos"
        }
      ]
    },
    {
      "paperId": "3670d5f73b69689aa72bfcae8372893e4e11cba1",
      "externalIds": {
        "DBLP": "conf/acl/JiaJXSRWLZL25",
        "DOI": "10.18653/v1/2025.acl-srw.35",
        "CorpusId": 280531877
      },
      "url": "https://www.semanticscholar.org/paper/3670d5f73b69689aa72bfcae8372893e4e11cba1",
      "title": "A Semantic Uncertainty Sampling Strategy for Back-Translation in Low-Resources Neural Machine Translation",
      "venue": "Annual Meeting of the Association for Computational Linguistics",
      "year": 2025,
      "referenceCount": 30,
      "citationCount": 1,
      "authors": [
        {
          "authorId": "2320821244",
          "name": "Yepai Jia"
        },
        {
          "authorId": "89820172",
          "name": "Yatu Ji"
        },
        {
          "authorId": "2375969849",
          "name": "Xiang Xue"
        },
        {
          "authorId": "2374292295",
          "name": "Lei Shi"
        },
        {
          "authorId": "2248061297",
          "name": "Qing-dao-er-ji Ren"
        },
        {
          "authorId": "2302193882",
          "name": "Nier Wu"
        },
        {
          "authorId": "2316521426",
          "name": "Na Liu"
        },
        {
          "authorId": "2320774583",
          "name": "Chen Zhao"
        },
        {
          "authorId": "2375108898",
          "name": "Fu Liu"
        }
      ]
    },
    {
      "paperId": "6d3584603f1b3b51f82382c71b62bd8b54a659d5",
      "externalIds": {
        "DBLP": "journals/ieicetd/LiMR25",
        "DOI": "10.1587/transinf.2024edl8059",
        "CorpusId": 274154884
      },
      "url": "https://www.semanticscholar.org/paper/6d3584603f1b3b51f82382c71b62bd8b54a659d5",
      "title": "Exploiting Multi-Level Data Uncertainty for Japanese-Chinese Neural Machine Translation",
      "venue": "IEICE Trans. Inf. Syst.",
      "year": 2025,
      "referenceCount": 14,
      "citationCount": 0,
      "authors": [
        {
          "authorId": "2287084863",
          "name": "Zezhong Li"
        },
        {
          "authorId": "2331648642",
          "name": "Jianjun Ma"
        },
        {
          "authorId": "2286609609",
          "name": "Fuji Ren"
        }
      ]
    },
    {
      "paperId": "e0a8b67880070624ef8787a08bbbd5aa178d65ac",
      "externalIds": {
        "ArXiv": "1711.07019",
        "MAG": "2769059894",
        "ACL": "C18-1120",
        "DBLP": "journals/corr/abs-1711-07019",
        "CorpusId": 8845492
      },
      "url": "https://www.semanticscholar.org/paper/e0a8b67880070624ef8787a08bbbd5aa178d65ac",
      "title": "Incorporating Syntactic Uncertainty in Neural Machine Translation with a Forest-to-Sequence Model",
      "venue": "International Conference on Computational Linguistics",
      "year": 2017,
      "referenceCount": 19,
      "citationCount": 16,
      "authors": [
        {
          "authorId": "47942148",
          "name": "Poorya Zaremoodi"
        },
        {
          "authorId": "2561045",
          "name": "Gholamreza Haffari"
        }
      ]
    },
    {
      "paperId": "084650eb23a5a368bf861af1520f0172498bd2df",
      "externalIds": {
        "DBLP": "journals/corr/abs-2402-10940",
        "ArXiv": "2402.10940",
        "DOI": "10.48550/arXiv.2402.10940",
        "CorpusId": 267750215
      },
      "url": "https://www.semanticscholar.org/paper/084650eb23a5a368bf861af1520f0172498bd2df",
      "title": "Neural machine translation of clinical procedure codes for medical diagnosis and uncertainty quantification",
      "venue": "arXiv.org",
      "year": 2024,
      "referenceCount": 31,
      "citationCount": 0,
      "authors": [
        {
          "authorId": "2279270563",
          "name": "Pei-Hung Chung"
        },
        {
          "authorId": "2279377820",
          "name": "Shuhan He"
        },
        {
          "authorId": "2058189793",
          "name": "N. Kijpaisalratana"
        },
        {
          "authorId": "2044878450",
          "name": "Abdel-Badih Ariss"
        },
        {
          "authorId": "2159753013",
          "name": "Byung-Jun Yoon"
        }
      ]
    },
    {
      "paperId": "b15fe9576c20d6ab757f14e57a9bd1d30c2172ce",
      "externalIds": {
        "ArXiv": "2412.13881",
        "DBLP": "journals/corr/abs-2412-13881",
        "DOI": "10.48550/arXiv.2412.13881",
        "CorpusId": 274822922
      },
      "url": "https://www.semanticscholar.org/paper/b15fe9576c20d6ab757f14e57a9bd1d30c2172ce",
      "title": "Understanding and Analyzing Model Robustness and Knowledge-Transfer in Multilingual Neural Machine Translation using TX-Ray",
      "venue": "arXiv.org",
      "year": 2024,
      "referenceCount": 0,
      "citationCount": 0,
      "authors": [
        {
          "authorId": "150333998",
          "name": "V. Saxena"
        },
        {
          "authorId": "2090613763",
          "name": "Sharid Lo'aiciga"
        },
        {
          "authorId": "2335868755",
          "name": "Nils Rethmeier"
        }
      ]
    },
    {
      "paperId": "9c6fe8eeab64c1e6841b35eddc600aecf2b4eeea",
      "externalIds": {
        "DBLP": "conf/eacl/KoneruHEN23",
        "ACL": "2023.eacl-main.179",
        "DOI": "10.18653/v1/2023.eacl-main.179",
        "CorpusId": 258378251
      },
      "url": "https://www.semanticscholar.org/paper/9c6fe8eeab64c1e6841b35eddc600aecf2b4eeea",
      "title": "Analyzing Challenges in Neural Machine Translation for Software Localization",
      "venue": "Conference of the European Chapter of the Association for Computational Linguistics",
      "year": 2023,
      "referenceCount": 55,
      "citationCount": 4,
      "authors": [
        {
          "authorId": "2061139721",
          "name": "Sai Koneru"
        },
        {
          "authorId": "1839533",
          "name": "Matthias Huck"
        },
        {
          "authorId": "70124681",
          "name": "Miriam Exel"
        },
        {
          "authorId": "2920247",
          "name": "J. Niehues"
        }
      ]
    }
  ]
}