{
  "total": 122598,
  "offset": 0,
  "next": 10,
  "data": [
    {
      "paperId": "153c13e33d387092b798127396874ef3f21edf8f",
      "externalIds": {
        "DBLP": "conf/icassp/LiYP22",
        "ArXiv": "2202.02951",
        "DOI": "10.1109/icassp43922.2022.9747372",
        "CorpusId": 246634617
      },
      "url": "https://www.semanticscholar.org/paper/153c13e33d387092b798127396874ef3f21edf8f",
      "title": "Deep Deterministic Independent Component Analysis for Hyperspectral Unmixing",
      "venue": "IEEE International Conference on Acoustics, Speech, and Signal Processing",
      "year": 2022,
      "referenceCount": 32,
      "citationCount": 8,
      "authors": [
        {
          "authorId": "2155674834",
          "name": "Hongming Li"
        },
        {
          "authorId": "2462771",
          "name": "Shujian Yu"
        },
        {
          "authorId": "143961030",
          "name": "J. Príncipe"
        }
      ]
    },
    {
      "paperId": "3e1327a0c44a96c2a55bd4d08acbeaca2f41d909",
      "externalIds": {
        "DBLP": "conf/icml/HuangGS15",
        "MAG": "571574196",
        "CorpusId": 7314279
      },
      "url": "https://www.semanticscholar.org/paper/3e1327a0c44a96c2a55bd4d08acbeaca2f41d909",
      "title": "Deterministic Independent Component Analysis",
      "venue": "International Conference on Machine Learning",
      "year": 2015,
      "referenceCount": 34,
      "citationCount": 4,
      "authors": [
        {
          "authorId": "2136577",
          "name": "Ruitong Huang"
        },
        {
          "authorId": "145350541",
          "name": "A. György"
        },
        {
          "authorId": "40868287",
          "name": "Csaba Szepesvari"
        }
      ]
    },
    {
      "paperId": "061da84c24ecb43295bc914e4d7dabda0422af69",
      "externalIds": {
        "MAG": "2955297366",
        "DOI": "10.1109/JSEN.2019.2909555",
        "CorpusId": 195832323
      },
      "url": "https://www.semanticscholar.org/paper/061da84c24ecb43295bc914e4d7dabda0422af69",
      "title": "Deterministic Sensor Signal Detection Technique for Static and Short-Ranged Channels Using Real-Valued Independent Component Analysis",
      "venue": "IEEE Sensors Journal",
      "year": 2019,
      "referenceCount": 50,
      "citationCount": 1,
      "authors": [
        {
          "authorId": "2294310035",
          "name": "Jong Kang Park"
        },
        {
          "authorId": "2110933332",
          "name": "Jong Tae Kim"
        }
      ]
    },
    {
      "paperId": "241083edff572026db88a922733571515be7d361",
      "externalIds": {
        "DBLP": "journals/corr/abs-2208-06406",
        "ArXiv": "2208.06406",
        "DOI": "10.48550/arXiv.2208.06406",
        "CorpusId": 251554566
      },
      "url": "https://www.semanticscholar.org/paper/241083edff572026db88a922733571515be7d361",
      "title": "Function Classes for Identifiable Nonlinear Independent Component Analysis",
      "venue": "Neural Information Processing Systems",
      "year": 2022,
      "referenceCount": 82,
      "citationCount": 51,
      "authors": [
        {
          "authorId": "28845390",
          "name": "Simon Buchholz"
        },
        {
          "authorId": "2599082",
          "name": "M. Besserve"
        },
        {
          "authorId": "1707625",
          "name": "B. Scholkopf"
        }
      ]
    },
    {
      "paperId": "93e2785de1c4008245ad184aaed42a92eef807b4",
      "externalIds": {
        "ArXiv": "2102.02876",
        "DBLP": "journals/corr/abs-2102-02876",
        "CorpusId": 231839801
      },
      "url": "https://www.semanticscholar.org/paper/93e2785de1c4008245ad184aaed42a92eef807b4",
      "title": "Nonlinear Independent Component Analysis for Continuous-Time Signals",
      "venue": "arXiv.org",
      "year": 2021,
      "referenceCount": 0,
      "citationCount": 7,
      "authors": [
        {
          "authorId": "2563982",
          "name": "Harald Oberhauser"
        },
        {
          "authorId": "2070824791",
          "name": "A. Schell"
        }
      ]
    },
    {
      "paperId": "ec6d88a2cf9cd60e7761c0b934678eed40890c7d",
      "externalIds": {
        "MAG": "1990489890",
        "DOI": "10.1587/COMEX.2.104",
        "CorpusId": 119887475
      },
      "url": "https://www.semanticscholar.org/paper/ec6d88a2cf9cd60e7761c0b934678eed40890c7d",
      "title": "Single channel blind source separation of deterministic sinusoidal signals with independent component analysis",
      "venue": "",
      "year": 2013,
      "referenceCount": 6,
      "citationCount": 10,
      "authors": [
        {
          "authorId": "2852893",
          "name": "A. Kawamura"
        },
        {
          "authorId": "2373052271",
          "name": "E.A. Nada"
        },
        {
          "authorId": "1789888",
          "name": "Y. Iiguni"
        }
      ]
    },
    {
      "paperId": "61bd42909558cfcb6d7c7ea093a4502ef54dbd9a",
      "externalIds": {
        "DBLP": "journals/tase/ZhuGS17",
        "MAG": "2314697109",
        "DOI": "10.1109/TASE.2016.2537373",
        "CorpusId": 16525141
      },
      "url": "https://www.semanticscholar.org/paper/61bd42909558cfcb6d7c7ea093a4502ef54dbd9a",
      "title": "Non-Gaussian Industrial Process Monitoring With Probabilistic Independent Component Analysis",
      "venue": "IEEE Transactions on Automation Science and Engineering",
      "year": 2017,
      "referenceCount": 44,
      "citationCount": 55,
      "authors": [
        {
          "authorId": "2201417",
          "name": "Jinlin Zhu"
        },
        {
          "authorId": "145619185",
          "name": "Zhiqiang Ge"
        },
        {
          "authorId": "2554622",
          "name": "Zhihuan Song"
        }
      ]
    },
    {
      "paperId": "f53fec409eb2463f736e3e69844d152d1a042457",
      "externalIds": {
        "MAG": "2086940509",
        "DOI": "10.1007/s11200-012-0718-1",
        "CorpusId": 123449909
      },
      "url": "https://www.semanticscholar.org/paper/f53fec409eb2463f736e3e69844d152d1a042457",
      "title": "Separation of deterministic signals using independent component analysis (ICA)",
      "venue": "Studia Geophysica et Geodaetica",
      "year": 2012,
      "referenceCount": 23,
      "citationCount": 58,
      "authors": [
        {
          "authorId": "2484078",
          "name": "E. Forootan"
        },
        {
          "authorId": "32571889",
          "name": "J. Kusche"
        }
      ]
    },
    {
      "paperId": "3ac35486b33b8c055e9956f4ff8cee23340c0f7a",
      "externalIds": {
        "MAG": "2995272249",
        "ArXiv": "1710.05384",
        "DBLP": "conf/nips/WangL17",
        "DOI": "10.1088/1742-5468/ab39d6",
        "CorpusId": 126633
      },
      "url": "https://www.semanticscholar.org/paper/3ac35486b33b8c055e9956f4ff8cee23340c0f7a",
      "title": "The scaling limit of high-dimensional online independent component analysis",
      "venue": "Neural Information Processing Systems",
      "year": 2017,
      "referenceCount": 37,
      "citationCount": 17,
      "authors": [
        {
          "authorId": "2109152408",
          "name": "Chuang Wang"
        },
        {
          "authorId": "1746369",
          "name": "Yue M. Lu"
        }
      ]
    },
    {
      "paperId": "2e121f55ae267624b47c56356c4e2ae51f7e7f21",
      "externalIds": {
        "MAG": "2949266237",
        "ArXiv": "1609.06942",
        "DBLP": "journals/corr/SelaK16",
        "DOI": "10.1109/ICSEE.2016.7806178",
        "CorpusId": 17609360
      },
      "url": "https://www.semanticscholar.org/paper/2e121f55ae267624b47c56356c4e2ae51f7e7f21",
      "title": "Randomized independent component analysis",
      "venue": "IEEE International Conference on Science of Electrical Engineering",
      "year": 2016,
      "referenceCount": 5,
      "citationCount": 3,
      "authors": [
        {
          "authorId": "39634127",
          "name": "Matan Sela"
        },
        {
          "authorId": "143923265",
          "name": "R. Kimmel"
        }
      ]
    }
  ]
}