{
  "total": 11967,
  "offset": 0,
  "next": 10,
  "data": [
    {
      "paperId": "4cef5476f9da50c1a8fefdcb7114863966f61d67",
      "externalIds": {
        "MAG": "1569892065",
        "DBLP": "journals/corr/LinSRH15",
        "ArXiv": "1504.01013",
        "DOI": "10.1109/CVPR.2016.348",
        "CorpusId": 14554538
      },
      "url": "https://www.semanticscholar.org/paper/4cef5476f9da50c1a8fefdcb7114863966f61d67",
      "title": "Efficient Piecewise Training of Deep Structured Models for Semantic Segmentation",
      "venue": "Computer Vision and Pattern Recognition",
      "year": 2015,
      "referenceCount": 55,
      "citationCount": 939,
      "authors": [
        {
          "authorId": "2604251",
          "name": "Guosheng Lin"
        },
        {
          "authorId": "12459603",
          "name": "Chunhua Shen"
        },
        {
          "authorId": "1388378062",
          "name": "Anton van dan Hengel"
        },
        {
          "authorId": "145950884",
          "name": "I. Reid"
        }
      ]
    },
    {
      "paperId": "3f25e17eb717e5894e0404ea634451332f85d287",
      "externalIds": {
        "MAG": "2188365844",
        "DBLP": "conf/nips/SohnLY15",
        "CorpusId": 13936837
      },
      "url": "https://www.semanticscholar.org/paper/3f25e17eb717e5894e0404ea634451332f85d287",
      "title": "Learning Structured Output Representation using Deep Conditional Generative Models",
      "venue": "Neural Information Processing Systems",
      "year": 2015,
      "referenceCount": 37,
      "citationCount": 3741,
      "authors": [
        {
          "authorId": "1729571",
          "name": "Kihyuk Sohn"
        },
        {
          "authorId": "1697141",
          "name": "Honglak Lee"
        },
        {
          "authorId": "3084614",
          "name": "Xinchen Yan"
        }
      ]
    },
    {
      "paperId": "491ade4981cd34f9924a072c90219656ea7f2e26",
      "externalIds": {
        "CorpusId": 265096360
      },
      "url": "https://www.semanticscholar.org/paper/491ade4981cd34f9924a072c90219656ea7f2e26",
      "title": "Deep Structured Models For Group Activity Recognition",
      "venue": "",
      "year": 2015,
      "referenceCount": 2,
      "citationCount": 1,
      "authors": [
        {
          "authorId": "2281918555",
          "name": "Zhiwei Deng"
        }
      ]
    },
    {
      "paperId": "4da9b26a465cae37c93c7c68b0208b8e116c2a05",
      "externalIds": {
        "MAG": "2466446175",
        "CorpusId": 8899626
      },
      "url": "https://www.semanticscholar.org/paper/4da9b26a465cae37c93c7c68b0208b8e116c2a05",
      "title": "Learning Bidirectional Intent Embeddings by Convolutional Deep Structured Semantic Models for Spoken Language Understanding",
      "venue": "",
      "year": 2015,
      "referenceCount": 26,
      "citationCount": 4,
      "authors": [
        {
          "authorId": "1725643",
          "name": "Yun-Nung (Vivian) Chen"
        },
        {
          "authorId": "1395813836",
          "name": "Dilek Z. Hakkani-Tür"
        },
        {
          "authorId": "144137069",
          "name": "Xiaodong He"
        }
      ]
    },
    {
      "paperId": "db76761d1b7563335b23f530d1154ee1b225074b",
      "externalIds": {
        "MAG": "2294590594",
        "DBLP": "conf/icip/NgoC15",
        "DOI": "10.1109/ICIP.2015.7351179",
        "CorpusId": 1062923
      },
      "url": "https://www.semanticscholar.org/paper/db76761d1b7563335b23f530d1154ee1b225074b",
      "title": "Lung segmentation in chest radiographs using distance regularized level set and deep-structured learning and inference",
      "venue": "International Conference on Information Photonics",
      "year": 2015,
      "referenceCount": 14,
      "citationCount": 32,
      "authors": [
        {
          "authorId": "2492243",
          "name": "T. Ngo"
        },
        {
          "authorId": "145575177",
          "name": "G. Carneiro"
        }
      ]
    },
    {
      "paperId": "bf76be8df2f2bc56edac98a5d0dfc19c85882eaa",
      "externalIds": {
        "DBLP": "conf/nips/SindhwaniSK15",
        "MAG": "2182629226",
        "ArXiv": "1510.01722",
        "CorpusId": 475539
      },
      "url": "https://www.semanticscholar.org/paper/bf76be8df2f2bc56edac98a5d0dfc19c85882eaa",
      "title": "Structured Transforms for Small-Footprint Deep Learning",
      "venue": "Neural Information Processing Systems",
      "year": 2015,
      "referenceCount": 28,
      "citationCount": 248,
      "authors": [
        {
          "authorId": "1808676",
          "name": "Vikas Sindhwani"
        },
        {
          "authorId": "1784851",
          "name": "Tara N. Sainath"
        },
        {
          "authorId": "152663162",
          "name": "Sanjiv Kumar"
        }
      ]
    },
    {
      "paperId": "437fdba28304a2ff03f7f9a6b93be2f4af561371",
      "externalIds": {
        "DBLP": "conf/miccai/DhungelCB15",
        "MAG": "2294923432",
        "DOI": "10.1007/978-3-319-24553-9_74",
        "CorpusId": 15068147
      },
      "url": "https://www.semanticscholar.org/paper/437fdba28304a2ff03f7f9a6b93be2f4af561371",
      "title": "Deep Learning and Structured Prediction for the Segmentation of Mass in Mammograms",
      "venue": "International Conference on Medical Image Computing and Computer-Assisted Intervention",
      "year": 2015,
      "referenceCount": 23,
      "citationCount": 161,
      "authors": [
        {
          "authorId": "3293652",
          "name": "Neeraj Dhungel"
        },
        {
          "authorId": "145575177",
          "name": "G. Carneiro"
        },
        {
          "authorId": "1720617",
          "name": "A. Bradley"
        }
      ]
    },
    {
      "paperId": "642448fcd01f9e80cadae7fe8fdf9fc226a56771",
      "externalIds": {
        "DBLP": "journals/corr/GuoZM15",
        "ArXiv": "1504.08022",
        "CorpusId": 9716408
      },
      "url": "https://www.semanticscholar.org/paper/642448fcd01f9e80cadae7fe8fdf9fc226a56771",
      "title": "A Deep Learning Model for Structured Outputs with High-order Interaction",
      "venue": "arXiv.org",
      "year": 2015,
      "referenceCount": 17,
      "citationCount": 6,
      "authors": [
        {
          "authorId": "1694050",
          "name": "Hongyu Guo"
        },
        {
          "authorId": "1854999",
          "name": "Xiao-Dan Zhu"
        },
        {
          "authorId": "2984407",
          "name": "Martin Renqiang Min"
        }
      ]
    },
    {
      "paperId": "7c6686fa4d8c990e931f1d16deabf647bf3b1986",
      "externalIds": {
        "ArXiv": "1504.07550",
        "DBLP": "journals/corr/BelharbiCHA15",
        "MAG": "2237661672",
        "CorpusId": 195347408
      },
      "url": "https://www.semanticscholar.org/paper/7c6686fa4d8c990e931f1d16deabf647bf3b1986",
      "title": "Input/Output Deep Architecture for Structured Output Problems",
      "venue": "arXiv.org",
      "year": 2015,
      "referenceCount": 42,
      "citationCount": 2,
      "authors": [
        {
          "authorId": "1802883",
          "name": "Soufiane Belharbi"
        },
        {
          "authorId": "1712446",
          "name": "Clément Chatelain"
        },
        {
          "authorId": "1782268",
          "name": "R. Hérault"
        },
        {
          "authorId": "143680806",
          "name": "S. Adam"
        }
      ]
    },
    {
      "paperId": "bc82b4f9f202062857958f0336fc28327a75563b",
      "externalIds": {
        "MAG": "2950835520",
        "DBLP": "journals/corr/BelangerM15",
        "ArXiv": "1511.06350",
        "CorpusId": 6366436
      },
      "url": "https://www.semanticscholar.org/paper/bc82b4f9f202062857958f0336fc28327a75563b",
      "title": "Structured Prediction Energy Networks",
      "venue": "International Conference on Machine Learning",
      "year": 2015,
      "referenceCount": 66,
      "citationCount": 228,
      "authors": [
        {
          "authorId": "2636941",
          "name": "David Belanger"
        },
        {
          "authorId": "143753639",
          "name": "A. McCallum"
        }
      ]
    }
  ]
}