{
  "total": 138290,
  "offset": 0,
  "next": 10,
  "data": [
    {
      "paperId": "06dfe0207cc4625c115ea1dc55145cde1c7034c0",
      "externalIds": {
        "MAG": "2952474411",
        "ArXiv": "1801.09819",
        "DBLP": "conf/icml/OlivaDZPSXS18",
        "CorpusId": 51882580
      },
      "url": "https://www.semanticscholar.org/paper/06dfe0207cc4625c115ea1dc55145cde1c7034c0",
      "title": "Transformation Autoregressive Networks",
      "venue": "International Conference on Machine Learning",
      "year": 2018,
      "referenceCount": 34,
      "citationCount": 88,
      "authors": [
        {
          "authorId": "143930995",
          "name": "Junier B. Oliva"
        },
        {
          "authorId": "89890133",
          "name": "Kumar Avinava Dubey"
        },
        {
          "authorId": "1771307",
          "name": "M. Zaheer"
        },
        {
          "authorId": "1719347",
          "name": "B. Póczos"
        },
        {
          "authorId": "145124475",
          "name": "R. Salakhutdinov"
        },
        {
          "authorId": "143977260",
          "name": "E. Xing"
        },
        {
          "authorId": "1753432",
          "name": "J. Schneider"
        }
      ]
    },
    {
      "paperId": "5991ec39dec5f1b28ac970d0c79f35d5f5fa42e7",
      "externalIds": {
        "CorpusId": 53331414
      },
      "url": "https://www.semanticscholar.org/paper/5991ec39dec5f1b28ac970d0c79f35d5f5fa42e7",
      "title": "Transformation Autoregressive Networks",
      "venue": "",
      "year": 2018,
      "referenceCount": 0,
      "citationCount": 0,
      "authors": [
        {
          "authorId": "83064111",
          "name": "A. Appendix"
        }
      ]
    },
    {
      "paperId": "b62de853dd5a69013867d29001d0b5f1887d0379",
      "externalIds": {
        "DOI": "10.2118/214442-ms",
        "CorpusId": 259825385
      },
      "url": "https://www.semanticscholar.org/paper/b62de853dd5a69013867d29001d0b5f1887d0379",
      "title": "Massive Geomodel Compression and Rapid Geomodel Generation Using Advanced Autoencoders and Autoregressive Neural Networks",
      "venue": "Day 3 Wed, June 07, 2023",
      "year": 2023,
      "referenceCount": 7,
      "citationCount": 5,
      "authors": [
        {
          "authorId": "9271050",
          "name": "S. Misra"
        },
        {
          "authorId": "2260824122",
          "name": "Jungang Chen"
        },
        {
          "authorId": "2042118271",
          "name": "Y. Falola"
        },
        {
          "authorId": "2182610730",
          "name": "Polina Churilova"
        },
        {
          "authorId": "30745625",
          "name": "Chung-Kan Huang"
        },
        {
          "authorId": "2182608424",
          "name": "Jose F. Delgado"
        }
      ]
    },
    {
      "paperId": "8df48a5e03e3291e6653b4c866435262b77494e5",
      "externalIds": {
        "CorpusId": 231620156
      },
      "url": "https://www.semanticscholar.org/paper/8df48a5e03e3291e6653b4c866435262b77494e5",
      "title": "Quantum Dynamics by Solving Probabilistic Differential Equations via Autoregressive Networks",
      "venue": "",
      "year": 2020,
      "referenceCount": 29,
      "citationCount": 0,
      "authors": [
        {
          "authorId": "49017316",
          "name": "Di Luo"
        },
        {
          "authorId": "2288091512",
          "name": "†. ZhuoChen"
        },
        {
          "authorId": "5048394",
          "name": "J. Carrasquilla"
        },
        {
          "authorId": "2612612",
          "name": "B. Clark"
        }
      ]
    },
    {
      "paperId": "8e9605f4b966dbd4bf55581f88147e0ce63a28bc",
      "externalIds": {
        "MAG": "3010238402",
        "DOI": "10.2495/ei-v3-n2-143-154",
        "CorpusId": 216439788
      },
      "url": "https://www.semanticscholar.org/paper/8e9605f4b966dbd4bf55581f88147e0ce63a28bc",
      "title": "Short- and long-term forecasting of ambient air pollution levels using wavelet-based non-linear autoregressive artificial neural networks with exogenous inputs",
      "venue": "International Journal of Environmental Impacts Management Mitigation and Recovery",
      "year": 2020,
      "referenceCount": 26,
      "citationCount": 5,
      "authors": [
        {
          "authorId": "102085859",
          "name": "S. Cabaneros"
        },
        {
          "authorId": "3287817",
          "name": "J. Calautit"
        },
        {
          "authorId": "40394807",
          "name": "B. Hughes"
        }
      ]
    },
    {
      "paperId": "e3f2069b239bf75dff6fb847981e0e01eb431929",
      "externalIds": {
        "CorpusId": 218484556
      },
      "url": "https://www.semanticscholar.org/paper/e3f2069b239bf75dff6fb847981e0e01eb431929",
      "title": "Investigation of the Optimum Minimum Input Data For the Forecasting of 3D Point Position Changing, Using Non-Linear Autoregressive Neural Networks",
      "venue": "",
      "year": 2019,
      "referenceCount": 23,
      "citationCount": 0,
      "authors": [
        {
          "authorId": "2078603784",
          "name": "Alevizakou Eleni-Georgia"
        },
        {
          "authorId": "19223473",
          "name": "E. Lambrou"
        }
      ]
    },
    {
      "paperId": "d4ffb3a9f9bb72982307567166f48f92c7c7456e",
      "externalIds": {
        "DOI": "10.1007/s10973-025-14401-7",
        "CorpusId": 279959772
      },
      "url": "https://www.semanticscholar.org/paper/d4ffb3a9f9bb72982307567166f48f92c7c7456e",
      "title": "Machine learning investigation with novel multi-layer neural networks for mono-hybrid nanofluid model conveying appliance of solar energy",
      "venue": "Journal of Thermal Analysis and Calorimetry",
      "year": 2025,
      "referenceCount": 53,
      "citationCount": 11,
      "authors": [
        {
          "authorId": "2052725765",
          "name": "Z. Shah"
        },
        {
          "authorId": "2332150077",
          "name": "Maryam Jawaid"
        },
        {
          "authorId": "2273357255",
          "name": "Waqar Azeem Khan"
        },
        {
          "authorId": "48228979",
          "name": "Mehboob Ali"
        },
        {
          "authorId": "2266655054",
          "name": "Taseer Muhammad"
        }
      ]
    },
    {
      "paperId": "3adcef3563f2ff12cfa87dfd89fbe8e00ac74127",
      "externalIds": {
        "MAG": "2308136845",
        "DOI": "10.2166/HYDRO.2016.145",
        "CorpusId": 62365532
      },
      "url": "https://www.semanticscholar.org/paper/3adcef3563f2ff12cfa87dfd89fbe8e00ac74127",
      "title": "Enhancing accuracy of autoregressive time series forecasting with input selection and wavelet transformation",
      "venue": "",
      "year": 2016,
      "referenceCount": 41,
      "citationCount": 8,
      "authors": [
        {
          "authorId": "16203453",
          "name": "H. Tran"
        },
        {
          "authorId": "2890504",
          "name": "N. Muttil"
        },
        {
          "authorId": "143664941",
          "name": "B. Perera"
        }
      ]
    },
    {
      "paperId": "ab017528234670db599d33f794b369c3049c17d7",
      "externalIds": {
        "DBLP": "journals/corr/abs-2507-01034",
        "ArXiv": "2507.01034",
        "DOI": "10.5815/ijisa.2025.03.05",
        "CorpusId": 279006086
      },
      "url": "https://www.semanticscholar.org/paper/ab017528234670db599d33f794b369c3049c17d7",
      "title": "Data-driven Insights for Informed Decision-Making: Applying LSTM Networks for Robust Electricity Forecasting in Libya",
      "venue": "International Journal of Intelligent Systems and Applications",
      "year": 2025,
      "referenceCount": 60,
      "citationCount": 2,
      "authors": [
        {
          "authorId": "2179509777",
          "name": "Asma Agaal"
        },
        {
          "authorId": "2105870190",
          "name": "Mansour Essgaer"
        },
        {
          "authorId": "1643885648",
          "name": "Hend M. Farkash"
        },
        {
          "authorId": "2070207",
          "name": "Z. Othman"
        }
      ]
    },
    {
      "paperId": "bc170e01e30afb23967cd7f18eb4699d1d39b648",
      "externalIds": {
        "DOI": "10.1029/2025WR040528",
        "CorpusId": 281488926
      },
      "url": "https://www.semanticscholar.org/paper/bc170e01e30afb23967cd7f18eb4699d1d39b648",
      "title": "Leveraging Spatiotemporal Redundancy for Sensor Data Imputation in Water Distribution Networks",
      "venue": "Water Resources Research",
      "year": 2025,
      "referenceCount": 49,
      "citationCount": 2,
      "authors": [
        {
          "authorId": "2381797360",
          "name": "Ang Xu"
        },
        {
          "authorId": "2360295",
          "name": "A. Ostfeld"
        },
        {
          "authorId": "2266361651",
          "name": "Yu Shao"
        },
        {
          "authorId": "2358285337",
          "name": "Tuqiao Zhang"
        },
        {
          "authorId": "28263257",
          "name": "Shipeng Chu"
        },
        {
          "authorId": "2302042168",
          "name": "Yu Tian"
        },
        {
          "authorId": "2382117874",
          "name": "Dewu Jian"
        }
      ]
    }
  ]
}