{
  "total": 46,
  "offset": 0,
  "next": 10,
  "data": [
    {
      "paperId": "a8431a600352d315f25a5ea5478e8b80fa60caed",
      "externalIds": {
        "DBLP": "journals/corr/WuZ16",
        "ArXiv": "1609.00288",
        "MAG": "2952216185",
        "CorpusId": 15209329
      },
      "url": "https://www.semanticscholar.org/paper/a8431a600352d315f25a5ea5478e8b80fa60caed",
      "title": "A Unified View of Multi-Label Performance Measures",
      "venue": "International Conference on Machine Learning",
      "year": 2016,
      "referenceCount": 26,
      "citationCount": 255,
      "authors": [
        {
          "authorId": "3468235",
          "name": "Xi-Zhu Wu"
        },
        {
          "authorId": "145624000",
          "name": "Zhi-Hua Zhou"
        }
      ]
    },
    {
      "paperId": "fb6e7bc90f66dabeaaf815cfc267c5eedf057d0d",
      "externalIds": {
        "DBLP": "journals/tjs/BangdeST26",
        "DOI": "10.1007/s11227-026-08290-2",
        "CorpusId": 285599265
      },
      "url": "https://www.semanticscholar.org/paper/fb6e7bc90f66dabeaaf815cfc267c5eedf057d0d",
      "title": "Towards unified multi-view ensemble models for multi-label podcast genre prediction",
      "venue": "Journal of Supercomputing",
      "year": 2026,
      "referenceCount": 45,
      "citationCount": 0,
      "authors": [
        {
          "authorId": "2334872250",
          "name": "Yashwant Pravinrao Bangde"
        },
        {
          "authorId": "2334874097",
          "name": "Naveen Saini"
        },
        {
          "authorId": "2337931494",
          "name": "V. Tiwari"
        }
      ]
    },
    {
      "paperId": "f8192dcc7c507c86d188289831f7b11807f43253",
      "externalIds": {
        "DOI": "10.1049/ell2.70329",
        "CorpusId": 279768684
      },
      "url": "https://www.semanticscholar.org/paper/f8192dcc7c507c86d188289831f7b11807f43253",
      "title": "Multi‐View Unsupervised Feature Selection With Soft Label Learning and Tensor Low Rank Approximation",
      "venue": "Electronics Letters",
      "year": 2025,
      "referenceCount": 23,
      "citationCount": 0,
      "authors": [
        {
          "authorId": "2272154163",
          "name": "Jian Zhao"
        },
        {
          "authorId": "2369422023",
          "name": "Yitong Wu"
        },
        {
          "authorId": "2242210034",
          "name": "Mingyu Wu"
        },
        {
          "authorId": "2369454931",
          "name": "Eileen Lee Ming Su"
        },
        {
          "authorId": "2241827966",
          "name": "William Holderbaum"
        },
        {
          "authorId": "2242134779",
          "name": "Chenguang Yang"
        }
      ]
    },
    {
      "paperId": "b7f4d96d753501c01138cbd2feb28b19e70643c1",
      "externalIds": {
        "MAG": "3151867486",
        "DBLP": "journals/tkde/HuangTXL22",
        "DOI": "10.1109/TKDE.2021.3068461",
        "CorpusId": 233704160
      },
      "url": "https://www.semanticscholar.org/paper/b7f4d96d753501c01138cbd2feb28b19e70643c1",
      "title": "Measuring Diversity in Graph Learning: A Unified Framework for Structured Multi-View Clustering",
      "venue": "IEEE Transactions on Knowledge and Data Engineering",
      "year": 2021,
      "referenceCount": 62,
      "citationCount": 170,
      "authors": [
        {
          "authorId": "2712233",
          "name": "Shudong Huang"
        },
        {
          "authorId": "1807998",
          "name": "I. Tsang"
        },
        {
          "authorId": "1683510",
          "name": "Zenglin Xu"
        },
        {
          "authorId": "2075420316",
          "name": "Jiancheng Lv"
        }
      ]
    },
    {
      "paperId": "17aa7c21b772a55db3ab22c0a2388c983267a726",
      "externalIds": {
        "DBLP": "journals/information/ZirakiBD24",
        "DOI": "10.3390/info15070421",
        "CorpusId": 271380268
      },
      "url": "https://www.semanticscholar.org/paper/17aa7c21b772a55db3ab22c0a2388c983267a726",
      "title": "Semi-Supervised Learning for Multi-View Data Classification and Visualization",
      "venue": "Inf.",
      "year": 2024,
      "referenceCount": 44,
      "citationCount": 2,
      "authors": [
        {
          "authorId": "2141396055",
          "name": "Najmeh Ziraki"
        },
        {
          "authorId": "2275431855",
          "name": "A. Bosaghzadeh"
        },
        {
          "authorId": "2254142473",
          "name": "Fadi Dornaika"
        }
      ]
    },
    {
      "paperId": "103c03cd590a0e444828eeb964edbf7136b41359",
      "externalIds": {
        "DBLP": "conf/cvpr/LowNSBI23a",
        "DOI": "10.1109/CVPRW59228.2023.00058",
        "CorpusId": 260908575
      },
      "url": "https://www.semanticscholar.org/paper/103c03cd590a0e444828eeb964edbf7136b41359",
      "title": "Multi-modal Aerial View Image Challenge: Translation from Synthetic Aperture Radar to Electro-Optical Domain Results - PBVS 2023",
      "venue": "2023 IEEE/CVF Conference on Computer Vision and Pattern Recognition Workshops (CVPRW)",
      "year": 2023,
      "referenceCount": 33,
      "citationCount": 14,
      "authors": [
        {
          "authorId": "41072706",
          "name": "Spencer Low"
        },
        {
          "authorId": "2662002",
          "name": "Oliver A. Nina"
        },
        {
          "authorId": "1782314",
          "name": "A. Sappa"
        },
        {
          "authorId": "1752475",
          "name": "Erik Blasch"
        },
        {
          "authorId": "52121635",
          "name": "Nathan Inkawhich"
        }
      ]
    },
    {
      "paperId": "4c08f8cc94a3186adbe6b52459a74b4d2257766f",
      "externalIds": {
        "MAG": "2965787265",
        "DBLP": "conf/ijcai/ZhugeHLTY19",
        "DOI": "10.24963/ijcai.2019/623",
        "CorpusId": 199466106
      },
      "url": "https://www.semanticscholar.org/paper/4c08f8cc94a3186adbe6b52459a74b4d2257766f",
      "title": "Simultaneous Representation Learning and Clustering for Incomplete Multi-view Data",
      "venue": "International Joint Conference on Artificial Intelligence",
      "year": 2019,
      "referenceCount": 28,
      "citationCount": 58,
      "authors": [
        {
          "authorId": "37722576",
          "name": "Wenzhang Zhuge"
        },
        {
          "authorId": "2705884",
          "name": "Chenping Hou"
        },
        {
          "authorId": "2108754292",
          "name": "Xinwang Liu"
        },
        {
          "authorId": "145882175",
          "name": "Hong Tao"
        },
        {
          "authorId": "34187920",
          "name": "Dong-yun Yi"
        }
      ]
    },
    {
      "paperId": "fd4ff5fc6e2950e71128920a7477ff0d23a661bf",
      "externalIds": {
        "DBLP": "journals/apin/HussainKS22",
        "DOI": "10.1007/s10489-021-03087-7",
        "CorpusId": 245995272
      },
      "url": "https://www.semanticscholar.org/paper/fd4ff5fc6e2950e71128920a7477ff0d23a661bf",
      "title": "Co-clustering based classification of multi-view data",
      "venue": "Applied intelligence (Boston)",
      "year": 2022,
      "referenceCount": 44,
      "citationCount": 4,
      "authors": [
        {
          "authorId": "34862799",
          "name": "Syed Fawad Hussain"
        },
        {
          "authorId": "2151704609",
          "name": "Mohsin A. Khan"
        },
        {
          "authorId": "145983675",
          "name": "Imran Siddiqi"
        }
      ]
    },
    {
      "paperId": "243e1a501595d475764a006c09de532a94693011",
      "externalIds": {
        "DBLP": "conf/cvpr/LowNSBI23",
        "DOI": "10.1109/CVPRW59228.2023.00047",
        "CorpusId": 260918957
      },
      "url": "https://www.semanticscholar.org/paper/243e1a501595d475764a006c09de532a94693011",
      "title": "Multi-modal Aerial View Object Classification Challenge Results - PBVS 2023",
      "venue": "2023 IEEE/CVF Conference on Computer Vision and Pattern Recognition Workshops (CVPRW)",
      "year": 2023,
      "referenceCount": 23,
      "citationCount": 10,
      "authors": [
        {
          "authorId": "41072706",
          "name": "Spencer Low"
        },
        {
          "authorId": "2662002",
          "name": "Oliver A. Nina"
        },
        {
          "authorId": "1782314",
          "name": "A. Sappa"
        },
        {
          "authorId": "46748462",
          "name": "Erik Blasch"
        },
        {
          "authorId": "52121635",
          "name": "Nathan Inkawhich"
        }
      ]
    },
    {
      "paperId": "b5a8e897c51bd37f990727a90f805d8f0c14bf30",
      "externalIds": {
        "MAG": "2963111805",
        "ArXiv": "1704.06378",
        "DBLP": "journals/corr/ChakrabortySWWK17",
        "DOI": "10.1117/12.2262439",
        "CorpusId": 17940255
      },
      "url": "https://www.semanticscholar.org/paper/b5a8e897c51bd37f990727a90f805d8f0c14bf30",
      "title": "A data set for evaluating the performance of multi-class multi-object video tracking",
      "venue": "Defense + Security",
      "year": 2017,
      "referenceCount": 14,
      "citationCount": 2,
      "authors": [
        {
          "authorId": "2917827",
          "name": "Avishek Chakraborty"
        },
        {
          "authorId": "2851301",
          "name": "V. Stamatescu"
        },
        {
          "authorId": "2442657",
          "name": "S. Wong"
        },
        {
          "authorId": "2237026",
          "name": "G. Wigley"
        },
        {
          "authorId": "1785586",
          "name": "D. Kearney"
        }
      ]
    }
  ]
}