{
  "total": 84,
  "offset": 0,
  "next": 10,
  "data": [
    {
      "paperId": "24db7dd58ab4968dcd4f026123153ba30c3c0701",
      "externalIds": {
        "MAG": "1858022548",
        "DBLP": "conf/icml/WangWLCW15",
        "CorpusId": 1371214
      },
      "url": "https://www.semanticscholar.org/paper/24db7dd58ab4968dcd4f026123153ba30c3c0701",
      "title": "Multi-Task Learning for Subspace Segmentation",
      "venue": "International Conference on Machine Learning",
      "year": 2015,
      "referenceCount": 18,
      "citationCount": 20,
      "authors": [
        {
          "authorId": "113310344",
          "name": "Yu Wang"
        },
        {
          "authorId": "2242717",
          "name": "D. Wipf"
        },
        {
          "authorId": "144474120",
          "name": "Qing Ling"
        },
        {
          "authorId": "38244645",
          "name": "Wei Chen"
        },
        {
          "authorId": "1808473",
          "name": "I. Wassell"
        }
      ]
    },
    {
      "paperId": "d13625a1533db82489401d4c6ffebca4e97a4219",
      "externalIds": {
        "CorpusId": 2549355
      },
      "url": "https://www.semanticscholar.org/paper/d13625a1533db82489401d4c6ffebca4e97a4219",
      "title": "Multi-Task Learning for Subspace Segmentation : Supplementary File",
      "venue": "",
      "year": 2015,
      "referenceCount": 5,
      "citationCount": 0,
      "authors": [
        {
          "authorId": "2153605980",
          "name": "Yu Wang"
        }
      ]
    },
    {
      "paperId": "a7933d4bb03e9f23b01ce4f7ef40ddc2f9b1aefa",
      "externalIds": {
        "MAG": "2294926087",
        "DBLP": "conf/iscide/YouW15",
        "DOI": "10.1007/978-3-319-23989-7_14",
        "CorpusId": 10594491
      },
      "url": "https://www.semanticscholar.org/paper/a7933d4bb03e9f23b01ce4f7ef40ddc2f9b1aefa",
      "title": "Graph Regularized Structured Sparse Subspace Clustering",
      "venue": "Sino-foreign-interchange Workshop on Intelligent Science and Intelligent Data Engineering",
      "year": 2015,
      "referenceCount": 12,
      "citationCount": 0,
      "authors": [
        {
          "authorId": "3077055",
          "name": "Cong-Zhe You"
        },
        {
          "authorId": "50171534",
          "name": "Xiaojun Wu"
        }
      ]
    },
    {
      "paperId": "2451c4f35c893057f937f005121cfb4e1940fb26",
      "externalIds": {
        "DBLP": "conf/icdm/ZhuangLJXLH15",
        "MAG": "2242427765",
        "DOI": "10.1109/ICDM.2015.22",
        "CorpusId": 6493746
      },
      "url": "https://www.semanticscholar.org/paper/2451c4f35c893057f937f005121cfb4e1940fb26",
      "title": "Representation Learning via Semi-Supervised Autoencoder for Multi-task Learning",
      "venue": "2015 IEEE International Conference on Data Mining",
      "year": 2015,
      "referenceCount": 22,
      "citationCount": 38,
      "authors": [
        {
          "authorId": "1799525",
          "name": "Fuzhen Zhuang"
        },
        {
          "authorId": "2061548489",
          "name": "Dan Luo"
        },
        {
          "authorId": "2149169969",
          "name": "Xin Jin"
        },
        {
          "authorId": "144467554",
          "name": "Hui Xiong"
        },
        {
          "authorId": "144389949",
          "name": "Ping Luo"
        },
        {
          "authorId": "144131275",
          "name": "Qing He"
        }
      ]
    },
    {
      "paperId": "493aeb7bc19445562b63516c0bd1e20021e0b6d5",
      "externalIds": {
        "MAG": "2397132841",
        "DBLP": "conf/sdm/GuptaRPV15",
        "DOI": "10.1137/1.9781611974010.79",
        "CorpusId": 35003919
      },
      "url": "https://www.semanticscholar.org/paper/493aeb7bc19445562b63516c0bd1e20021e0b6d5",
      "title": "What shall I share and with Whom? - A Multi-Task Learning Formulation using Multi-Faceted Task Relationships",
      "venue": "SDM",
      "year": 2015,
      "referenceCount": 29,
      "citationCount": 2,
      "authors": [
        {
          "authorId": "46415033",
          "name": "Sunil Gupta"
        },
        {
          "authorId": "2285720075",
          "name": "Santu Rana"
        },
        {
          "authorId": "1749657",
          "name": "Dinh Q. Phung"
        },
        {
          "authorId": "143761093",
          "name": "S. Venkatesh"
        }
      ]
    },
    {
      "paperId": "4b1d0dfc65f71ee9f6f06e1baba552ebf25577b2",
      "externalIds": {
        "DBLP": "conf/fg/NicolleBC15",
        "MAG": "1665222191",
        "DOI": "10.1109/FG.2015.7284868",
        "CorpusId": 3164216
      },
      "url": "https://www.semanticscholar.org/paper/4b1d0dfc65f71ee9f6f06e1baba552ebf25577b2",
      "title": "Facial Action Unit intensity prediction via Hard Multi-Task Metric Learning for Kernel Regression",
      "venue": "IEEE International Conference on Automatic Face & Gesture Recognition",
      "year": 2015,
      "referenceCount": 16,
      "citationCount": 52,
      "authors": [
        {
          "authorId": "14734258",
          "name": "J. Nicolle"
        },
        {
          "authorId": "2521061",
          "name": "Kévin Bailly"
        },
        {
          "authorId": "1680828",
          "name": "M. Chetouani"
        }
      ]
    },
    {
      "paperId": "13e5ef22d22c5a57ab1ab306f0175f0af87add3b",
      "externalIds": {
        "MAG": "807207105",
        "DBLP": "conf/pakdd/SahaGV15",
        "DOI": "10.1007/978-3-319-18038-0_18",
        "CorpusId": 7949496
      },
      "url": "https://www.semanticscholar.org/paper/13e5ef22d22c5a57ab1ab306f0175f0af87add3b",
      "title": "Prediciton of Emergency Events: A Multi-Task Multi-Label Learning Approach",
      "venue": "Pacific-Asia Conference on Knowledge Discovery and Data Mining",
      "year": 2015,
      "referenceCount": 27,
      "citationCount": 5,
      "authors": [
        {
          "authorId": "1735360",
          "name": "Budhaditya Saha"
        },
        {
          "authorId": "46415033",
          "name": "Sunil Gupta"
        },
        {
          "authorId": "143761093",
          "name": "S. Venkatesh"
        }
      ]
    },
    {
      "paperId": "877628547f227c874d20d28a36d6de11d9dadde2",
      "externalIds": {
        "MAG": "2147347517",
        "ArXiv": "1510.05484",
        "DBLP": "journals/tip/LiZWYWZLW16",
        "DOI": "10.1109/TIP.2016.2579306",
        "CorpusId": 99982,
        "PubMed": "27305676"
      },
      "url": "https://www.semanticscholar.org/paper/877628547f227c874d20d28a36d6de11d9dadde2",
      "title": "DeepSaliency: Multi-Task Deep Neural Network Model for Salient Object Detection",
      "venue": "IEEE Transactions on Image Processing",
      "year": 2015,
      "referenceCount": 73,
      "citationCount": 509,
      "authors": [
        {
          "authorId": "2116226546",
          "name": "Xi Li"
        },
        {
          "authorId": "46586815",
          "name": "Liming Zhao"
        },
        {
          "authorId": "50589478",
          "name": "Lina Wei"
        },
        {
          "authorId": "1715634",
          "name": "Ming-Hsuan Yang"
        },
        {
          "authorId": "144894849",
          "name": "Fei Wu"
        },
        {
          "authorId": "143749205",
          "name": "Yueting Zhuang"
        },
        {
          "authorId": "1805398",
          "name": "Haibin Ling"
        },
        {
          "authorId": "1688516",
          "name": "Jingdong Wang"
        }
      ]
    },
    {
      "paperId": "89b3b7a5e6a3926c22d23879d1e68bd144453720",
      "externalIds": {
        "DBLP": "journals/tip/DingXT15",
        "MAG": "1983474530",
        "DOI": "10.1109/TIP.2015.2390959",
        "CorpusId": 18510270,
        "PubMed": "25594967"
      },
      "url": "https://www.semanticscholar.org/paper/89b3b7a5e6a3926c22d23879d1e68bd144453720",
      "title": "Multi-Task Pose-Invariant Face Recognition",
      "venue": "IEEE Transactions on Image Processing",
      "year": 2015,
      "referenceCount": 69,
      "citationCount": 265,
      "authors": [
        {
          "authorId": "144116132",
          "name": "Changxing Ding"
        },
        {
          "authorId": "145371957",
          "name": "Chang Xu"
        },
        {
          "authorId": "143719920",
          "name": "D. Tao"
        }
      ]
    },
    {
      "paperId": "995c3114073534997f7bea6cd31bb1c50746132c",
      "externalIds": {
        "MAG": "2017615984",
        "DBLP": "journals/sigpro/DengLML15",
        "DOI": "10.1016/j.sigpro.2014.07.017",
        "CorpusId": 26186122
      },
      "url": "https://www.semanticscholar.org/paper/995c3114073534997f7bea6cd31bb1c50746132c",
      "title": "Large-scale multi-task image labeling with adaptive relevance discovery and feature hashing",
      "venue": "Signal Processing",
      "year": 2015,
      "referenceCount": 38,
      "citationCount": 29,
      "authors": [
        {
          "authorId": "145102437",
          "name": "Cheng Deng"
        },
        {
          "authorId": "6820648",
          "name": "Xianglong Liu"
        },
        {
          "authorId": "145353089",
          "name": "Yadong Mu"
        },
        {
          "authorId": "2149869567",
          "name": "Jie Li"
        }
      ]
    }
  ]
}