{
  "total": 11239,
  "offset": 0,
  "next": 10,
  "data": [
    {
      "paperId": "c5c3f64dea0971bd4babf017b6ce82115ea9e31e",
      "externalIds": {
        "MAG": "2421157170",
        "DBLP": "conf/icml/BornscheinSFB16",
        "ArXiv": "1506.03877",
        "CorpusId": 1897635
      },
      "url": "https://www.semanticscholar.org/paper/c5c3f64dea0971bd4babf017b6ce82115ea9e31e",
      "title": "Bidirectional Helmholtz Machines",
      "venue": "International Conference on Machine Learning",
      "year": 2015,
      "referenceCount": 106,
      "citationCount": 26,
      "authors": [
        {
          "authorId": "144908539",
          "name": "J. Bornschein"
        },
        {
          "authorId": "3197429",
          "name": "S. Shabanian"
        },
        {
          "authorId": "35988982",
          "name": "Asja Fischer"
        },
        {
          "authorId": "1751762",
          "name": "Yoshua Bengio"
        }
      ]
    },
    {
      "paperId": "52f8d2c2da77cf2701eee42a81ff881664b28db5",
      "externalIds": {
        "DBLP": "journals/corr/abs-1807-06054",
        "MAG": "2884453356",
        "ArXiv": "1807.06054",
        "CorpusId": 49862426
      },
      "url": "https://www.semanticscholar.org/paper/52f8d2c2da77cf2701eee42a81ff881664b28db5",
      "title": "On the Information Theoretic Distance Measures and Bidirectional Helmholtz Machines",
      "venue": "arXiv.org",
      "year": 2018,
      "referenceCount": 10,
      "citationCount": 0,
      "authors": [
        {
          "authorId": "2366188",
          "name": "Mahdi Azarafrooz"
        },
        {
          "authorId": "2118490125",
          "name": "Xuan Zhao"
        },
        {
          "authorId": "1414086813",
          "name": "Sepehr Akhavan-Masouleh"
        }
      ]
    },
    {
      "paperId": "f1e4903cea890a0edc725add3067dc9c7cec1efd",
      "externalIds": {
        "MAG": "2209787065",
        "CorpusId": 7376153
      },
      "url": "https://www.semanticscholar.org/paper/f1e4903cea890a0edc725add3067dc9c7cec1efd",
      "title": "Training Bidirectional Helmholtz Machines",
      "venue": "",
      "year": 2015,
      "referenceCount": 27,
      "citationCount": 2,
      "authors": [
        {
          "authorId": "144908539",
          "name": "J. Bornschein"
        },
        {
          "authorId": "3197429",
          "name": "S. Shabanian"
        },
        {
          "authorId": "35988982",
          "name": "Asja Fischer"
        },
        {
          "authorId": "1751762",
          "name": "Yoshua Bengio"
        }
      ]
    },
    {
      "paperId": "a02c698b50e8a8eaae484b86c0a98f6dc95368f4",
      "externalIds": {
        "DBLP": "journals/nn/VaradyVMA22",
        "ArXiv": "2008.06687",
        "MAG": "3111305368",
        "DOI": "10.1016/j.neunet.2022.09.006",
        "CorpusId": 230646606,
        "PubMed": "36208615"
      },
      "url": "https://www.semanticscholar.org/paper/a02c698b50e8a8eaae484b86c0a98f6dc95368f4",
      "title": "Natural Reweighted Wake-Sleep",
      "venue": "Neural Networks",
      "year": 2020,
      "referenceCount": 58,
      "citationCount": 0,
      "authors": [
        {
          "authorId": "121550743",
          "name": "Csongor Várady"
        },
        {
          "authorId": "39268286",
          "name": "Riccardo Volpi"
        },
        {
          "authorId": "3085319",
          "name": "Luigi Malagò"
        },
        {
          "authorId": "2850091",
          "name": "N. Ay"
        }
      ]
    },
    {
      "paperId": "207c0ba62b0ba4d03294074d2444367f78155a6d",
      "externalIds": {
        "DOI": "10.1109/TTE.2023.3348235",
        "CorpusId": 266684168
      },
      "url": "https://www.semanticscholar.org/paper/207c0ba62b0ba4d03294074d2444367f78155a6d",
      "title": "Analysis of Bidirectional Magnetic Field Modulation on Concentrated Winding Spoke-Type PM Machines",
      "venue": "IEEE Transactions on Transportation Electrification",
      "year": 2024,
      "referenceCount": 36,
      "citationCount": 36,
      "authors": [
        {
          "authorId": "2109115555",
          "name": "Chen Wang"
        },
        {
          "authorId": "2274797803",
          "name": "Jie Liu"
        },
        {
          "authorId": "2833605",
          "name": "Jianbin Han"
        },
        {
          "authorId": "2238905865",
          "name": "Zhuoran Zhang"
        },
        {
          "authorId": "2275974902",
          "name": "Mingyan Jiang"
        }
      ]
    },
    {
      "paperId": "adb561e7817318232f2ab32b0d69379571d8c638",
      "externalIds": {
        "MAG": "3103629952",
        "DBLP": "journals/corr/abs-1708-09784",
        "ArXiv": "1708.09784",
        "DOI": "10.1088/2058-9565/aabd98",
        "CorpusId": 3972773
      },
      "url": "https://www.semanticscholar.org/paper/adb561e7817318232f2ab32b0d69379571d8c638",
      "title": "Quantum-assisted Helmholtz machines: A quantum–classical deep learning framework for industrial datasets in near-term devices",
      "venue": "arXiv.org",
      "year": 2017,
      "referenceCount": 61,
      "citationCount": 92,
      "authors": [
        {
          "authorId": "3468759",
          "name": "Marcello Benedetti"
        },
        {
          "authorId": "1422181059",
          "name": "John Realpe-Gómez"
        },
        {
          "authorId": "1402938096",
          "name": "A. Perdomo-Ortiz"
        }
      ]
    },
    {
      "paperId": "8ec837c5c481fd64bf4ff4ed59148c38d9bff5a6",
      "externalIds": {
        "MAG": "3018203429",
        "DBLP": "journals/qip/DamNPB20",
        "DOI": "10.1007/s11128-020-02660-2",
        "CorpusId": 219073021
      },
      "url": "https://www.semanticscholar.org/paper/8ec837c5c481fd64bf4ff4ed59148c38d9bff5a6",
      "title": "Hybrid Helmholtz machines: a gate-based quantum circuit implementation",
      "venue": "Quantum Information Processing",
      "year": 2020,
      "referenceCount": 38,
      "citationCount": 6,
      "authors": [
        {
          "authorId": "2197810156",
          "name": "Teresa J. van Dam"
        },
        {
          "authorId": "47727259",
          "name": "N. Neumann"
        },
        {
          "authorId": "3189943",
          "name": "F. Phillipson"
        },
        {
          "authorId": "2062901101",
          "name": "Hans van den Berg"
        }
      ]
    },
    {
      "paperId": "4baa249fe1b1edd1506c198ff871538dd8b5ab7a",
      "externalIds": {
        "MAG": "3111654301",
        "DOI": "10.1016/j.tre.2020.102189",
        "CorpusId": 230556757
      },
      "url": "https://www.semanticscholar.org/paper/4baa249fe1b1edd1506c198ff871538dd8b5ab7a",
      "title": "Prediction of aircraft trajectory and the associated fuel consumption using covariance bidirectional extreme learning machines",
      "venue": "",
      "year": 2021,
      "referenceCount": 68,
      "citationCount": 43,
      "authors": [
        {
          "authorId": "48547248",
          "name": "WA Khan"
        },
        {
          "authorId": "79492166",
          "name": "Hoi-Lam Ma"
        },
        {
          "authorId": "2051265811",
          "name": "Xu Ouyang"
        },
        {
          "authorId": "143964815",
          "name": "D. Mo"
        }
      ]
    },
    {
      "paperId": "01a27c8e6b0fc8b67968d472fac7b8901eb61484",
      "externalIds": {
        "MAG": "2302747106",
        "DBLP": "journals/corr/XuO16",
        "ArXiv": "1603.06170",
        "CorpusId": 8563051
      },
      "url": "https://www.semanticscholar.org/paper/01a27c8e6b0fc8b67968d472fac7b8901eb61484",
      "title": "Joint Stochastic Approximation learning of Helmholtz Machines",
      "venue": "arXiv.org",
      "year": 2016,
      "referenceCount": 23,
      "citationCount": 10,
      "authors": [
        {
          "authorId": "2118498752",
          "name": "Haotian Xu"
        },
        {
          "authorId": "1717830",
          "name": "Zhijian Ou"
        }
      ]
    },
    {
      "paperId": "8a5363a08b489ca8befaf00ff39f62bca203ee2b",
      "externalIds": {
        "MAG": "1576773659",
        "DOI": "10.1016/S0092-8674(02)00971-6",
        "CorpusId": 30326350,
        "PubMed": "12297042"
      },
      "url": "https://www.semanticscholar.org/paper/8a5363a08b489ca8befaf00ff39f62bca203ee2b",
      "title": "Integrins: bidirectional, allosteric signaling machines.",
      "venue": "Cell",
      "year": 2002,
      "referenceCount": 115,
      "citationCount": 8640,
      "authors": [
        {
          "authorId": "3558056",
          "name": "R. Hynes"
        }
      ]
    }
  ]
}