{
  "total": 258,
  "offset": 0,
  "next": 10,
  "data": [
    {
      "paperId": "808cd4afd21103053393079e29e1e2f519f17e84",
      "externalIds": {
        "ArXiv": "1805.09476",
        "DBLP": "journals/corr/abs-1805-09476",
        "MAG": "2803831948",
        "CorpusId": 43967091
      },
      "url": "https://www.semanticscholar.org/paper/808cd4afd21103053393079e29e1e2f519f17e84",
      "title": "Hierarchical Clustering with Structural Constraints",
      "venue": "International Conference on Machine Learning",
      "year": 2018,
      "referenceCount": 33,
      "citationCount": 50,
      "authors": [
        {
          "authorId": "8769315",
          "name": "Vaggos Chatziafratis"
        },
        {
          "authorId": "2813157",
          "name": "Rad Niazadeh"
        },
        {
          "authorId": "1745732",
          "name": "M. Charikar"
        }
      ]
    },
    {
      "paperId": "2d01877ee1cb871fce4f711f8a35f6e0041ca658",
      "externalIds": {
        "CorpusId": 52248597
      },
      "url": "https://www.semanticscholar.org/paper/2d01877ee1cb871fce4f711f8a35f6e0041ca658",
      "title": "Hierarchical Clustering with Structural Constraints",
      "venue": "",
      "year": 2018,
      "referenceCount": 0,
      "citationCount": 1,
      "authors": [
        {
          "authorId": "2877654",
          "name": "L. Keselman"
        },
        {
          "authorId": "2300553159",
          "name": "A. Raghu"
        }
      ]
    },
    {
      "paperId": "fe66940d9652fd41a9af5f7d301d1484fbcd4540",
      "externalIds": {
        "DBLP": "journals/tkde/ZengPLWLY25",
        "DOI": "10.1109/TKDE.2024.3486530",
        "CorpusId": 273621318
      },
      "url": "https://www.semanticscholar.org/paper/fe66940d9652fd41a9af5f7d301d1484fbcd4540",
      "title": "Scalable Semi-Supervised Clustering via Structural Entropy With Different Constraints",
      "venue": "IEEE Transactions on Knowledge and Data Engineering",
      "year": 2025,
      "referenceCount": 56,
      "citationCount": 15,
      "authors": [
        {
          "authorId": "2061248533",
          "name": "Guangjie Zeng"
        },
        {
          "authorId": "2138444320",
          "name": "Hao Peng"
        },
        {
          "authorId": "2237960041",
          "name": "Angsheng Li"
        },
        {
          "authorId": "2109176690",
          "name": "Jia Wu"
        },
        {
          "authorId": "2212098398",
          "name": "Chunyang Liu"
        },
        {
          "authorId": "2200045681",
          "name": "Phillp S. Yu"
        }
      ]
    },
    {
      "paperId": "098b59b0ff44256c60e63eecea96ed545029296d",
      "externalIds": {
        "DBLP": "journals/fss/ChepoiD99",
        "MAG": "2064824839",
        "DOI": "10.1016/S0165-0114(97)00256-X",
        "CorpusId": 5873793
      },
      "url": "https://www.semanticscholar.org/paper/098b59b0ff44256c60e63eecea96ed545029296d",
      "title": "Fuzzy clustering with structural constraints",
      "venue": "Fuzzy Sets Syst.",
      "year": 1999,
      "referenceCount": 23,
      "citationCount": 10,
      "authors": [
        {
          "authorId": "1700220",
          "name": "V. Chepoi"
        },
        {
          "authorId": "11027559",
          "name": "D. Dumitrescu"
        }
      ]
    },
    {
      "paperId": "f496e9508b92a61353229b1ba6dd98d69009ace4",
      "externalIds": {
        "DBLP": "journals/corr/abs-2312-10917",
        "ArXiv": "2312.10917",
        "DOI": "10.48550/arXiv.2312.10917",
        "CorpusId": 266359583
      },
      "url": "https://www.semanticscholar.org/paper/f496e9508b92a61353229b1ba6dd98d69009ace4",
      "title": "Semi-Supervised Clustering via Structural Entropy with Different Constraints",
      "venue": "SDM",
      "year": 2023,
      "referenceCount": 33,
      "citationCount": 3,
      "authors": [
        {
          "authorId": "2061248533",
          "name": "Guangjie Zeng"
        },
        {
          "authorId": "2274919901",
          "name": "Hao Peng"
        },
        {
          "authorId": "2237960041",
          "name": "Angsheng Li"
        },
        {
          "authorId": "40448513",
          "name": "Zhiwei Liu"
        },
        {
          "authorId": "2275739287",
          "name": "Runze Yang"
        },
        {
          "authorId": "2212098398",
          "name": "Chunyang Liu"
        },
        {
          "authorId": "40901818",
          "name": "Lifang He"
        }
      ]
    },
    {
      "paperId": "cbdaa10baa0c28224715d9d51f6f2c23cd81df80",
      "externalIds": {
        "DBLP": "journals/corr/abs-2312-04209",
        "ArXiv": "2312.04209",
        "DOI": "10.1109/IEEECONF59524.2023.10476840",
        "CorpusId": 266044217
      },
      "url": "https://www.semanticscholar.org/paper/cbdaa10baa0c28224715d9d51f6f2c23cd81df80",
      "title": "Constrained Hierarchical Clustering via Graph Coarsening and Optimal Cuts",
      "venue": "Asilomar Conference on Signals, Systems and Computers",
      "year": 2023,
      "referenceCount": 30,
      "citationCount": 1,
      "authors": [
        {
          "authorId": "2272856759",
          "name": "Eliabelle Mauduit"
        },
        {
          "authorId": "2242892536",
          "name": "Andrea Simonetto"
        }
      ]
    },
    {
      "paperId": "b4a6be9cca9d83217caf56a87cd825b613b72cea",
      "externalIds": {
        "PubMedCentral": "12458692",
        "DBLP": "journals/jcisd/PiomponiCC25",
        "DOI": "10.1101/2025.04.08.647782",
        "CorpusId": 277855195,
        "PubMed": "40902999"
      },
      "url": "https://www.semanticscholar.org/paper/b4a6be9cca9d83217caf56a87cd825b613b72cea",
      "title": "Evolutionary Constraints Guide AlphaFold2 in Predicting Alternative Conformations and Inform Rational Mutation Design",
      "venue": "bioRxiv",
      "year": 2025,
      "referenceCount": 39,
      "citationCount": 4,
      "authors": [
        {
          "authorId": "2160630053",
          "name": "Valerio Piomponi"
        },
        {
          "authorId": "2269294135",
          "name": "Alberto Cazzaniga"
        },
        {
          "authorId": "52372424",
          "name": "F. Cuturello"
        }
      ]
    },
    {
      "paperId": "46362fbfd8f2c4612e7eae50d182d370be79c2ef",
      "externalIds": {
        "DOI": "10.3390/app16010540",
        "CorpusId": 284561083
      },
      "url": "https://www.semanticscholar.org/paper/46362fbfd8f2c4612e7eae50d182d370be79c2ef",
      "title": "Comparative Analysis of Clustering Algorithms for Unsupervised Segmentation of Dental Radiographs",
      "venue": "Applied Sciences",
      "year": 2026,
      "referenceCount": 28,
      "citationCount": 1,
      "authors": [
        {
          "authorId": "2403344591",
          "name": "Priscilla T. Awosina"
        },
        {
          "authorId": "31627181",
          "name": "Peter O. Olukanmi"
        },
        {
          "authorId": "31122837",
          "name": "P. Bokoro"
        }
      ]
    },
    {
      "paperId": "2e54983da9f62e5249c3a4290e3d28c060633398",
      "externalIds": {
        "MAG": "2012831081",
        "DBLP": "conf/ijcnn/WildieS12",
        "DOI": "10.1109/IJCNN.2012.6252393",
        "CorpusId": 1022940
      },
      "url": "https://www.semanticscholar.org/paper/2e54983da9f62e5249c3a4290e3d28c060633398",
      "title": "Hierarchical clustering identifies hub nodes in a model of resting-state brain activity",
      "venue": "IEEE International Joint Conference on Neural Network",
      "year": 2012,
      "referenceCount": 24,
      "citationCount": 5,
      "authors": [
        {
          "authorId": "2232489",
          "name": "Mark Wildie"
        },
        {
          "authorId": "1757629",
          "name": "M. Shanahan"
        }
      ]
    },
    {
      "paperId": "1c45a9369d00a5261a638ca39df6028ae49c8ad9",
      "externalIds": {
        "DBLP": "journals/tnn/MengSSJYS20",
        "MAG": "2978831816",
        "DOI": "10.1109/TNNLS.2019.2939637",
        "CorpusId": 204331371,
        "PubMed": "31603802"
      },
      "url": "https://www.semanticscholar.org/paper/1c45a9369d00a5261a638ca39df6028ae49c8ad9",
      "title": "Semi-Supervised Graph Regularized Deep NMF With Bi-Orthogonal Constraints for Data Representation",
      "venue": "IEEE Transactions on Neural Networks and Learning Systems",
      "year": 2020,
      "referenceCount": 46,
      "citationCount": 68,
      "authors": [
        {
          "authorId": "2114022253",
          "name": "Yang Meng"
        },
        {
          "authorId": "145762443",
          "name": "Ronghua Shang"
        },
        {
          "authorId": "3062185",
          "name": "Fanhua Shang"
        },
        {
          "authorId": "144125122",
          "name": "L. Jiao"
        },
        {
          "authorId": "1702138",
          "name": "Shuyuan Yang"
        },
        {
          "authorId": "102679833",
          "name": "R. Stolkin"
        }
      ]
    }
  ]
}