{
  "total": 2411,
  "offset": 0,
  "next": 10,
  "data": [
    {
      "paperId": "10a498003e9204f5fc1328e706510a37e514d8c7",
      "externalIds": {
        "MAG": "2963344330",
        "DBLP": "journals/corr/ZhaiCLZ16",
        "ArXiv": "1605.07717",
        "CorpusId": 173548
      },
      "url": "https://www.semanticscholar.org/paper/10a498003e9204f5fc1328e706510a37e514d8c7",
      "title": "Deep Structured Energy Based Models for Anomaly Detection",
      "venue": "International Conference on Machine Learning",
      "year": 2016,
      "referenceCount": 28,
      "citationCount": 457,
      "authors": [
        {
          "authorId": "2443456",
          "name": "Shuangfei Zhai"
        },
        {
          "authorId": "145215470",
          "name": "Yu Cheng"
        },
        {
          "authorId": "47116540",
          "name": "Weining Lu"
        },
        {
          "authorId": "1720488",
          "name": "Zhongfei Zhang"
        }
      ]
    },
    {
      "paperId": "f4a3b5d4b8ea54136bb231b13ba75fe8d02b2f5c",
      "externalIds": {
        "ArXiv": "2310.18677",
        "DBLP": "journals/corr/abs-2310-18677",
        "DOI": "10.48550/arXiv.2310.18677",
        "CorpusId": 264590705
      },
      "url": "https://www.semanticscholar.org/paper/f4a3b5d4b8ea54136bb231b13ba75fe8d02b2f5c",
      "title": "Energy-Based Models for Anomaly Detection: A Manifold Diffusion Recovery Approach",
      "venue": "Neural Information Processing Systems",
      "year": 2023,
      "referenceCount": 65,
      "citationCount": 23,
      "authors": [
        {
          "authorId": "2110590329",
          "name": "Sangwoong Yoon"
        },
        {
          "authorId": "2262510375",
          "name": "Young-Uk Jin"
        },
        {
          "authorId": "3001360",
          "name": "Yung-Kyun Noh"
        },
        {
          "authorId": "2137679287",
          "name": "F. Park"
        }
      ]
    },
    {
      "paperId": "ef091ac2d8125958e3a8c32244c941f618e24d18",
      "externalIds": {
        "DOI": "10.1109/ICAHN67688.2025.00028",
        "CorpusId": 282825229
      },
      "url": "https://www.semanticscholar.org/paper/ef091ac2d8125958e3a8c32244c941f618e24d18",
      "title": "Integrating Knowledge Graph Reasoning with Pretrained Language Models for Structured Anomaly Detection",
      "venue": "2025 International Conference on Artificial Intelligence, Human-Computer Interaction and Natural Language Processing (ICAHN)",
      "year": 2025,
      "referenceCount": 27,
      "citationCount": 10,
      "authors": [
        {
          "authorId": "2370958055",
          "name": "Xiqing Liu"
        },
        {
          "authorId": "2370960826",
          "name": "Ying Qin"
        },
        {
          "authorId": "2371409784",
          "name": "Qingqing Xu"
        },
        {
          "authorId": "2368569167",
          "name": "Zhengyi Liu"
        },
        {
          "authorId": "2350041619",
          "name": "Xiaojun Guo"
        },
        {
          "authorId": "2368871211",
          "name": "Weiyao Xu"
        }
      ]
    },
    {
      "paperId": "da1462264238e7d80572bee3773ed1294d212ea1",
      "externalIds": {
        "ArXiv": "2510.14462",
        "DBLP": "journals/corr/abs-2510-14462",
        "DOI": "10.48550/arXiv.2510.14462",
        "CorpusId": 282138962
      },
      "url": "https://www.semanticscholar.org/paper/da1462264238e7d80572bee3773ed1294d212ea1",
      "title": "Unsupervised Deep Generative Models for Anomaly Detection in Neuroimaging: A Systematic Scoping Review",
      "venue": "arXiv.org",
      "year": 2025,
      "referenceCount": 109,
      "citationCount": 1,
      "authors": [
        {
          "authorId": "2386015820",
          "name": "Youwan Mah'e"
        },
        {
          "authorId": "2313536639",
          "name": "E. Bannier"
        },
        {
          "authorId": "2332957657",
          "name": "St'ephanie Leplaideur"
        },
        {
          "authorId": "2386026409",
          "name": "Élisa Fromont"
        },
        {
          "authorId": "2332965612",
          "name": "Francesca Galassi"
        }
      ]
    },
    {
      "paperId": "895dde25c5e93c065392055e7ceca05fe4ae3b79",
      "externalIds": {
        "DOI": "10.1109/AMLDS63918.2025.11159342",
        "CorpusId": 281337799
      },
      "url": "https://www.semanticscholar.org/paper/895dde25c5e93c065392055e7ceca05fe4ae3b79",
      "title": "Deep Learning-Based Anomaly Detection in Energy Consumption Data of Buildings: A Comparative Study",
      "venue": "2025 International Conference on Advanced Machine Learning and Data Science (AMLDS)",
      "year": 2025,
      "referenceCount": 11,
      "citationCount": 0,
      "authors": [
        {
          "authorId": "2380723072",
          "name": "Lukas Schnittcher"
        },
        {
          "authorId": "2380723246",
          "name": "Marc Oyen"
        },
        {
          "authorId": "3376308",
          "name": "L. Altherr"
        }
      ]
    },
    {
      "paperId": "2ee11f2928e4e39d55d2badf383b966956a298d1",
      "externalIds": {
        "DOI": "10.1109/AIIT63112.2025.11082854",
        "CorpusId": 280164909
      },
      "url": "https://www.semanticscholar.org/paper/2ee11f2928e4e39d55d2badf383b966956a298d1",
      "title": "A Deep Learning-based Framework for Energy Consumption Prediction and Anomaly Detection in Residential Buildings",
      "venue": "International conference Applied Internet and Information Technologies",
      "year": 2025,
      "referenceCount": 22,
      "citationCount": 0,
      "authors": [
        {
          "authorId": "2187529510",
          "name": "Faizan Hamayat"
        },
        {
          "authorId": "2243087923",
          "name": "Muhammad Umer Farooq Mujahid"
        },
        {
          "authorId": "2337315124",
          "name": "Jawad Ahmad"
        },
        {
          "authorId": "2282981364",
          "name": "R. F. Ahmad"
        }
      ]
    },
    {
      "paperId": "e729c01c1cec0e2a5474e7077823cf58c0ad2a44",
      "externalIds": {
        "DOI": "10.5753/sbrc.2025.5887",
        "CorpusId": 279022113
      },
      "url": "https://www.semanticscholar.org/paper/e729c01c1cec0e2a5474e7077823cf58c0ad2a44",
      "title": "Analyzing Energy and Performance Trade-offs for Network Anomaly Detection based on Deep Learning",
      "venue": "Brazilian Symposium on Computer Networks and Distributed Systems",
      "year": 2025,
      "referenceCount": 10,
      "citationCount": 0,
      "authors": [
        {
          "authorId": "2364338480",
          "name": "T. Schmidt"
        },
        {
          "authorId": "1736224",
          "name": "L. Granville"
        },
        {
          "authorId": "2364249912",
          "name": "Alberto E. Schaeffer-Filho"
        }
      ]
    },
    {
      "paperId": "10531d445d71c96c93bcda479476d2102dc6ace0",
      "externalIds": {
        "DOI": "10.62760/iteecs.5.1.2026.186",
        "CorpusId": 286653312
      },
      "url": "https://www.semanticscholar.org/paper/10531d445d71c96c93bcda479476d2102dc6ace0",
      "title": "Accuracy of Machine Learning Models for Anomaly Detection in Online Proctored Examinations: A Review of the Potential of Haar Cascades for Mobile Based Proctoring",
      "venue": "International Transactions on Electrical Engineering and Computer Science",
      "year": 2026,
      "referenceCount": 0,
      "citationCount": 0,
      "authors": [
        {
          "authorId": "2424530174",
          "name": "Oganda Bartholomew Mogoi"
        },
        {
          "authorId": "2358366142",
          "name": "John Kamau"
        },
        {
          "authorId": "73733084",
          "name": "Raymond Ongus"
        }
      ]
    },
    {
      "paperId": "d866a77a0e6183c6c93c220fc6b33944302f0469",
      "externalIds": {
        "DOI": "10.1109/NMITCON65824.2025.11187534",
        "CorpusId": 281968153
      },
      "url": "https://www.semanticscholar.org/paper/d866a77a0e6183c6c93c220fc6b33944302f0469",
      "title": "A Real-Time Temporal Deep Learning Framework for Anomaly Detection in Autonomous Vehicles",
      "venue": "2025 Third International Conference on Networks, Multimedia and Information Technology (NMITCON)",
      "year": 2025,
      "referenceCount": 11,
      "citationCount": 0,
      "authors": [
        {
          "authorId": "2357304869",
          "name": "Raed Hameed"
        },
        {
          "authorId": "2196365871",
          "name": "P. Nagarathna"
        },
        {
          "authorId": "2384927498",
          "name": "Bhagyashree Kulkarni"
        },
        {
          "authorId": "2336526599",
          "name": "S. S. Kumar"
        },
        {
          "authorId": "2384927523",
          "name": "S. S. Polisetty"
        }
      ]
    },
    {
      "paperId": "6d224cc76de13aa04ccb0e1221cd5d5c57c64bc4",
      "externalIds": {
        "ArXiv": "2501.06099",
        "DBLP": "journals/corr/abs-2501-06099",
        "DOI": "10.1016/j.enbuild.2024.115177",
        "CorpusId": 274744634
      },
      "url": "https://www.semanticscholar.org/paper/6d224cc76de13aa04ccb0e1221cd5d5c57c64bc4",
      "title": "Explaining Deep Learning-based Anomaly Detection in Energy Consumption Data by Focusing on Contextually Relevant Data",
      "venue": "Energy and Buildings",
      "year": 2024,
      "referenceCount": 51,
      "citationCount": 17,
      "authors": [
        {
          "authorId": "2335349286",
          "name": "Mohammad Noorchenarboo"
        },
        {
          "authorId": "2257293214",
          "name": "Katarina Grolinger"
        }
      ]
    }
  ]
}