{
  "total": 591,
  "offset": 0,
  "next": 10,
  "data": [
    {
      "paperId": "6446167b04e0d9ae2693ddf5dfe874c42e46655d",
      "externalIds": {
        "MAG": "2963114873",
        "DBLP": "conf/iclr/DubeyAPEG18",
        "ArXiv": "1802.10217",
        "CorpusId": 3557557
      },
      "url": "https://www.semanticscholar.org/paper/6446167b04e0d9ae2693ddf5dfe874c42e46655d",
      "title": "Investigating Human Priors for Playing Video Games",
      "venue": "International Conference on Machine Learning",
      "year": 2018,
      "referenceCount": 31,
      "citationCount": 152,
      "authors": [
        {
          "authorId": "2811292",
          "name": "Rachit Dubey"
        },
        {
          "authorId": "33932184",
          "name": "Pulkit Agrawal"
        },
        {
          "authorId": "38236002",
          "name": "Deepak Pathak"
        },
        {
          "authorId": "1799860",
          "name": "T. Griffiths"
        },
        {
          "authorId": "1763086",
          "name": "Alexei A. Efros"
        }
      ]
    },
    {
      "paperId": "5521b184a229a6e22188634880f7fb272a1a597a",
      "externalIds": {
        "DBLP": "conf/cogsci/JaiswalS24",
        "ArXiv": "2409.13886",
        "DOI": "10.48550/arXiv.2409.13886",
        "CorpusId": 272827570
      },
      "url": "https://www.semanticscholar.org/paper/5521b184a229a6e22188634880f7fb272a1a597a",
      "title": "Learning to Play Video Games with Intuitive Physics Priors",
      "venue": "Annual Meeting of the Cognitive Science Society",
      "year": 2024,
      "referenceCount": 28,
      "citationCount": 1,
      "authors": [
        {
          "authorId": "2240541061",
          "name": "Abhishek Jaiswal"
        },
        {
          "authorId": "2294732510",
          "name": "Nisheeth Srivastava"
        }
      ]
    },
    {
      "paperId": "3c9be13d4e92570a202c6cb0ba484c85632e713a",
      "externalIds": {
        "DBLP": "conf/hci-si/MarkovskaS22",
        "CorpusId": 255442210
      },
      "url": "https://www.semanticscholar.org/paper/3c9be13d4e92570a202c6cb0ba484c85632e713a",
      "title": "Deep Reinforcement Learning Compared to Human Performance in Playing Video Games",
      "venue": "HCI-SI",
      "year": 2022,
      "referenceCount": 8,
      "citationCount": 0,
      "authors": [
        {
          "authorId": "2199326563",
          "name": "Jovana Markovska"
        },
        {
          "authorId": "2396232",
          "name": "Domen Šoberl"
        }
      ]
    },
    {
      "paperId": "fc1198200224249b4b26d14c060247b0a96a2996",
      "externalIds": {
        "DOI": "10.17645/mac.8733",
        "CorpusId": 274030878
      },
      "url": "https://www.semanticscholar.org/paper/fc1198200224249b4b26d14c060247b0a96a2996",
      "title": "Empowered by the Experience: Playing as Female Characters in Video Games",
      "venue": "Media and Communication",
      "year": 2024,
      "referenceCount": 32,
      "citationCount": 3,
      "authors": [
        {
          "authorId": "2319987830",
          "name": "Teresa Lynch"
        },
        {
          "authorId": "2323699161",
          "name": "Annie Dooley"
        },
        {
          "authorId": "2240072649",
          "name": "David M. Markowitz"
        }
      ]
    },
    {
      "paperId": "fdd4893156572ceb04ece72af212fd13f6751132",
      "externalIds": {
        "DOI": "10.1109/ICBATS57792.2023.10111229",
        "CorpusId": 258729442
      },
      "url": "https://www.semanticscholar.org/paper/fdd4893156572ceb04ece72af212fd13f6751132",
      "title": "Playing the video games during COVID-19 pandemic and its effects on player's well-being",
      "venue": "2023 International Conference on Business Analytics for Technology and Security (ICBATS)",
      "year": 2023,
      "referenceCount": 38,
      "citationCount": 17,
      "authors": [
        {
          "authorId": "122034110",
          "name": "S. Noaman"
        },
        {
          "authorId": "2199308468",
          "name": "Amer Ibrahim"
        },
        {
          "authorId": "2066224673",
          "name": "Liaqat Ali"
        },
        {
          "authorId": "39567934",
          "name": "M. W. Iqbal"
        },
        {
          "authorId": "2217485133",
          "name": "Asma Ashraf"
        },
        {
          "authorId": "2217486563",
          "name": "Usama Haseeb"
        },
        {
          "authorId": "2163593193",
          "name": "Salman Muneer"
        },
        {
          "authorId": "2217488078",
          "name": "Rasah Almajed"
        },
        {
          "authorId": "2217473924",
          "name": "K. Hamid"
        }
      ]
    },
    {
      "paperId": "9a0a9855bfe6e3443d08b2c507933433ca45a9a8",
      "externalIds": {
        "DBLP": "journals/cbsn/EwellHG25",
        "DOI": "10.1089/cyber.2024.0246",
        "CorpusId": 275417566,
        "PubMed": "39772923"
      },
      "url": "https://www.semanticscholar.org/paper/9a0a9855bfe6e3443d08b2c507933433ca45a9a8",
      "title": "The Spoilers of Virtual War: Experience and Performance Mediate the Relationship Between Violent Video Games and Hostility",
      "venue": "Cyberpsychology, Behavior, and Social Networking",
      "year": 2025,
      "referenceCount": 36,
      "citationCount": 2,
      "authors": [
        {
          "authorId": "3439132",
          "name": "Patrick J. Ewell"
        },
        {
          "authorId": "152994602",
          "name": "James C. Hamilton"
        },
        {
          "authorId": "1715525",
          "name": "R. Guadagno"
        }
      ]
    },
    {
      "paperId": "1d652f7fd4c42e272d43dc8f70d5435433941729",
      "externalIds": {
        "DOI": "10.1177/10468781251363251",
        "CorpusId": 280436873
      },
      "url": "https://www.semanticscholar.org/paper/1d652f7fd4c42e272d43dc8f70d5435433941729",
      "title": "Effect of Playing Digital Games on Reaction Time in Taekwondo Athletes",
      "venue": "Simulation &amp; Gaming",
      "year": 2025,
      "referenceCount": 23,
      "citationCount": 0,
      "authors": [
        {
          "authorId": "2374597155",
          "name": "Asli Dogan"
        },
        {
          "authorId": "1391575871",
          "name": "Nihan Ozunlu Pekyavas"
        }
      ]
    },
    {
      "paperId": "b13f372d084201dd6088c459243a81af033443be",
      "externalIds": {
        "DBLP": "journals/hhci/BoldiRT24",
        "DOI": "10.1080/07370024.2022.2050725",
        "CorpusId": 247888255
      },
      "url": "https://www.semanticscholar.org/paper/b13f372d084201dd6088c459243a81af033443be",
      "title": "Playing during a crisis: The impact of commercial video games on the reconfiguration of people’s life during the COVID-19 pandemic",
      "venue": "Hum. Comput. Interact.",
      "year": 2022,
      "referenceCount": 219,
      "citationCount": 41,
      "authors": [
        {
          "authorId": "66483439",
          "name": "Arianna Boldi"
        },
        {
          "authorId": "144760730",
          "name": "A. Rapp"
        },
        {
          "authorId": "2812412",
          "name": "Maurizio Tirassa"
        }
      ]
    },
    {
      "paperId": "cf68c91d609c7250ac5ef6e9401234c6e5cd41e8",
      "externalIds": {
        "DOI": "10.1163/22134808-bja10118",
        "CorpusId": 267669712,
        "PubMed": "38714311"
      },
      "url": "https://www.semanticscholar.org/paper/cf68c91d609c7250ac5ef6e9401234c6e5cd41e8",
      "title": "Addressing the Association Between Action Video Game Playing Experience and Visual Search in Naturalistic Multisensory Scenes.",
      "venue": "Multisensory Research",
      "year": 2024,
      "referenceCount": 89,
      "citationCount": 2,
      "authors": [
        {
          "authorId": "15191966",
          "name": "M. Hamzeloo"
        },
        {
          "authorId": "97911166",
          "name": "Daria Kvasova"
        },
        {
          "authorId": "2252668642",
          "name": "Salvador Soto-Faraco"
        }
      ]
    },
    {
      "paperId": "618038897dd515366ef018579a2f4a87c1d76b56",
      "externalIds": {
        "DOI": "10.1016/j.apergo.2022.103936",
        "CorpusId": 253533717,
        "PubMed": "36395549"
      },
      "url": "https://www.semanticscholar.org/paper/618038897dd515366ef018579a2f4a87c1d76b56",
      "title": "Presence in video games: A systematic review and meta-analysis of the effects of game design choices.",
      "venue": "Applied Ergonomics",
      "year": 2022,
      "referenceCount": 91,
      "citationCount": 40,
      "authors": [
        {
          "authorId": "3063512",
          "name": "Loïc Caroux"
        }
      ]
    }
  ]
}