{
  "total": 1097,
  "offset": 0,
  "next": 10,
  "data": [
    {
      "paperId": "389f57755023ec1cdfe15f057fcdc09a2ff551ff",
      "externalIds": {
        "DBLP": "conf/icml/RajanHSFJ15",
        "MAG": "636981986",
        "DOI": "10.7892/BORIS.69370",
        "CorpusId": 14667351
      },
      "url": "https://www.semanticscholar.org/paper/389f57755023ec1cdfe15f057fcdc09a2ff551ff",
      "title": "Bayesian Multiple Target Localization",
      "venue": "International Conference on Machine Learning",
      "year": 2015,
      "referenceCount": 26,
      "citationCount": 17,
      "authors": [
        {
          "authorId": "39130505",
          "name": "P. Rajan"
        },
        {
          "authorId": "48637191",
          "name": "Weidong Han"
        },
        {
          "authorId": "1824404",
          "name": "R. Sznitman"
        },
        {
          "authorId": "1922747",
          "name": "P. Frazier"
        },
        {
          "authorId": "2521020",
          "name": "B. Jedynak"
        }
      ]
    },
    {
      "paperId": "123af0f0334c63ba2842ed02c7d83fe7245fb859",
      "externalIds": {
        "CorpusId": 11342579
      },
      "url": "https://www.semanticscholar.org/paper/123af0f0334c63ba2842ed02c7d83fe7245fb859",
      "title": "Supplementary Materials for Bayesian Multiple Target Localization",
      "venue": "",
      "year": 2015,
      "referenceCount": 0,
      "citationCount": 0,
      "authors": []
    },
    {
      "paperId": "8db92107aa1af18541d9ff4f440b1366d60f1e70",
      "externalIds": {
        "MAG": "2291495589",
        "DBLP": "conf/cdc/BaiDM15",
        "DOI": "10.1109/CDC.2015.7402571",
        "CorpusId": 736844
      },
      "url": "https://www.semanticscholar.org/paper/8db92107aa1af18541d9ff4f440b1366d60f1e70",
      "title": "A bayesian approach to multiple target localization",
      "venue": "IEEE Conference on Decision and Control",
      "year": 2015,
      "referenceCount": 19,
      "citationCount": 1,
      "authors": [
        {
          "authorId": "88827438",
          "name": "E. Bai"
        },
        {
          "authorId": "1737530",
          "name": "S. Dasgupta"
        },
        {
          "authorId": "5801919",
          "name": "R. Mudumbai"
        }
      ]
    },
    {
      "paperId": "dab6b086473ef17600ac084497d629d992bf01e8",
      "externalIds": {
        "DBLP": "journals/taes/EsmailifarS15",
        "MAG": "2005552068",
        "DOI": "10.1109/TAES.2014.130168",
        "CorpusId": 41834510
      },
      "url": "https://www.semanticscholar.org/paper/dab6b086473ef17600ac084497d629d992bf01e8",
      "title": "Moving target localization by cooperation of multiple flying vehicles",
      "venue": "IEEE Transactions on Aerospace and Electronic Systems",
      "year": 2015,
      "referenceCount": 26,
      "citationCount": 16,
      "authors": [
        {
          "authorId": "2657461",
          "name": "S. Esmailifar"
        },
        {
          "authorId": "3165271",
          "name": "F. Saghafi"
        }
      ]
    },
    {
      "paperId": "5a9ecabf967d5fad99c595f594bad161e0b64388",
      "externalIds": {
        "MAG": "1481915281",
        "DOI": "10.1109/OCEANS-GENOVA.2015.7271437",
        "CorpusId": 3106493
      },
      "url": "https://www.semanticscholar.org/paper/5a9ecabf967d5fad99c595f594bad161e0b64388",
      "title": "Multi-target localization of underwater acoustic sources based on probabilistic estimation of direction angle",
      "venue": "Oceans",
      "year": 2015,
      "referenceCount": 14,
      "citationCount": 15,
      "authors": [
        {
          "authorId": "1767181",
          "name": "Jinwoo Choi"
        },
        {
          "authorId": "145174047",
          "name": "Hyun-Taek Choi"
        }
      ]
    },
    {
      "paperId": "d3d874e0d635df4ef96baa53d689afdcf6eaba5b",
      "externalIds": {
        "MAG": "1484432983",
        "DBLP": "conf/chinasip/QinZA15",
        "DOI": "10.1109/ChinaSIP.2015.7230418",
        "CorpusId": 922651
      },
      "url": "https://www.semanticscholar.org/paper/d3d874e0d635df4ef96baa53d689afdcf6eaba5b",
      "title": "Sparsity-based multi-target localization exploiting multi-frequency coprime array",
      "venue": "China Summit and International Conference on Signal and Information Processing",
      "year": 2015,
      "referenceCount": 28,
      "citationCount": 6,
      "authors": [
        {
          "authorId": "145585840",
          "name": "Si Qin"
        },
        {
          "authorId": "2108440432",
          "name": "Yimin D. Zhang"
        },
        {
          "authorId": "1742209",
          "name": "M. Amin"
        }
      ]
    },
    {
      "paperId": "54b4ca3d8e8d343d0961c49a38012c8ea180c4bc",
      "externalIds": {
        "DBLP": "conf/fskd/LiangCY15",
        "MAG": "2244952205",
        "DOI": "10.1109/FSKD.2015.7382286",
        "CorpusId": 869557
      },
      "url": "https://www.semanticscholar.org/paper/54b4ca3d8e8d343d0961c49a38012c8ea180c4bc",
      "title": "MIMO radar target localization via Markov Chain Monte Carlo optimization",
      "venue": "International Conference on Fuzzy Systems and Knowledge Discovery",
      "year": 2015,
      "referenceCount": 13,
      "citationCount": 0,
      "authors": [
        {
          "authorId": "1708643",
          "name": "Junli Liang"
        },
        {
          "authorId": "2145266765",
          "name": "Yajun Chen"
        },
        {
          "authorId": "1996186293",
          "name": "Zhonghua Ye"
        }
      ]
    },
    {
      "paperId": "53b26f75bcfb46009ec495955e705f7cd19f21e7",
      "externalIds": {
        "MAG": "2158701489",
        "DOI": "10.1155/2015/903902",
        "CorpusId": 54876612
      },
      "url": "https://www.semanticscholar.org/paper/53b26f75bcfb46009ec495955e705f7cd19f21e7",
      "title": "Multitarget Direct Localization Using Block Sparse Bayesian Learning in Distributed MIMO Radar",
      "venue": "",
      "year": 2015,
      "referenceCount": 31,
      "citationCount": 10,
      "authors": [
        {
          "authorId": "2153220102",
          "name": "Bin Sun"
        },
        {
          "authorId": "3242502",
          "name": "Haowen Chen"
        },
        {
          "authorId": "2784054",
          "name": "Xizhang Wei"
        },
        {
          "authorId": "40504721",
          "name": "Xiang Li"
        }
      ]
    },
    {
      "paperId": "450d41c49f169338b8e6277f5fc83b92a5a6d1dd",
      "externalIds": {
        "MAG": "2192698682",
        "DBLP": "journals/jstsp/SharagaTM15",
        "DOI": "10.1109/JSTSP.2015.2467354",
        "CorpusId": 15125431
      },
      "url": "https://www.semanticscholar.org/paper/450d41c49f169338b8e6277f5fc83b92a5a6d1dd",
      "title": "Optimal Cognitive Beamforming for Target Tracking in MIMO Radar/Sonar",
      "venue": "IEEE Journal on Selected Topics in Signal Processing",
      "year": 2015,
      "referenceCount": 57,
      "citationCount": 72,
      "authors": [
        {
          "authorId": "1730664",
          "name": "Nathan Sharaga"
        },
        {
          "authorId": "1745328",
          "name": "J. Tabrikian"
        },
        {
          "authorId": "1686092",
          "name": "H. Messer"
        }
      ]
    },
    {
      "paperId": "9f8763f86707cd1222833d160a4eb09d5b5a6382",
      "externalIds": {
        "MAG": "1559848503",
        "DBLP": "conf/fusion/MagnantGGRJ15",
        "CorpusId": 16549938
      },
      "url": "https://www.semanticscholar.org/paper/9f8763f86707cd1222833d160a4eb09d5b5a6382",
      "title": "Joint tracking and classification based on kinematic and target extent measurements",
      "venue": "Fusion",
      "year": 2015,
      "referenceCount": 21,
      "citationCount": 14,
      "authors": [
        {
          "authorId": "39442199",
          "name": "Clément Magnant"
        },
        {
          "authorId": "2887736",
          "name": "A. Giremus"
        },
        {
          "authorId": "1764899",
          "name": "É. Grivel"
        },
        {
          "authorId": "2225685",
          "name": "L. Ratton"
        },
        {
          "authorId": "144217260",
          "name": "Bernard Joseph"
        }
      ]
    }
  ]
}