{
  "total": 449411,
  "offset": 0,
  "next": 10,
  "data": [
    {
      "paperId": "80b2a89a3ca6e84c7a7fb863ff19443cc756c616",
      "externalIds": {
        "DBLP": "journals/iotj/ZhangHHCL25",
        "DOI": "10.1109/JIOT.2024.3477450",
        "CorpusId": 273273478
      },
      "url": "https://www.semanticscholar.org/paper/80b2a89a3ca6e84c7a7fb863ff19443cc756c616",
      "title": "Perception-Aware-Based UAV Trajectory Planner via Generative Adversarial Self-Imitation Learning From Demonstrations",
      "venue": "IEEE Internet of Things Journal",
      "year": 2025,
      "referenceCount": 39,
      "citationCount": 16,
      "authors": [
        {
          "authorId": "1742337825",
          "name": "Hanxuan Zhang"
        },
        {
          "authorId": "2144194810",
          "name": "Ju Huo"
        },
        {
          "authorId": "2315456889",
          "name": "Yulong Huang"
        },
        {
          "authorId": "2233494725",
          "name": "Jiajun Cheng"
        },
        {
          "authorId": "2325435063",
          "name": "Xiaofeng Li"
        }
      ]
    },
    {
      "paperId": "7ba44efa1a7c590b3be2f9bc61e5257485ac40de",
      "externalIds": {
        "DBLP": "journals/ral/FangCSJZL25",
        "DOI": "10.1109/LRA.2025.3550743",
        "CorpusId": 276981529
      },
      "url": "https://www.semanticscholar.org/paper/7ba44efa1a7c590b3be2f9bc61e5257485ac40de",
      "title": "Multi-Agent Generative Adversarial Interactive Self-Imitation Learning for AUV Formation Control and Obstacle Avoidance",
      "venue": "IEEE Robotics and Automation Letters",
      "year": 2025,
      "referenceCount": 39,
      "citationCount": 8,
      "authors": [
        {
          "authorId": "2180527299",
          "name": "Zheng Fang"
        },
        {
          "authorId": "2280307182",
          "name": "Tianhao Chen"
        },
        {
          "authorId": "2349840711",
          "name": "Tian Shen"
        },
        {
          "authorId": "114490652",
          "name": "Dongqian Jiang"
        },
        {
          "authorId": "2280865480",
          "name": "Zheng Zhang"
        },
        {
          "authorId": "2271680780",
          "name": "Guangliang Li"
        }
      ]
    },
    {
      "paperId": "d397f4cf400f6ffcb1b8e3db27bb75966a0513cf",
      "externalIds": {
        "DBLP": "conf/icml/OhGSL18",
        "MAG": "2964062135",
        "ArXiv": "1806.05635",
        "CorpusId": 260549591
      },
      "url": "https://www.semanticscholar.org/paper/d397f4cf400f6ffcb1b8e3db27bb75966a0513cf",
      "title": "Self-Imitation Learning",
      "venue": "International Conference on Machine Learning",
      "year": 2018,
      "referenceCount": 42,
      "citationCount": 292,
      "authors": [
        {
          "authorId": "2894414",
          "name": "Junhyuk Oh"
        },
        {
          "authorId": "1857914",
          "name": "Yijie Guo"
        },
        {
          "authorId": "2108384183",
          "name": "Satinder Singh"
        },
        {
          "authorId": "2118338545",
          "name": "Honglak Lee"
        }
      ]
    },
    {
      "paperId": "8b4faf263cebc2a05e0dd3efaf21b24572c615b2",
      "externalIds": {
        "DBLP": "conf/emnlp/XiaoLYZCH24",
        "ACL": "2024.emnlp-main.744",
        "ArXiv": "2410.10093",
        "DOI": "10.48550/arXiv.2410.10093",
        "CorpusId": 273345418
      },
      "url": "https://www.semanticscholar.org/paper/8b4faf263cebc2a05e0dd3efaf21b24572c615b2",
      "title": "How to Leverage Demonstration Data in Alignment for Large Language Model? A Self-Imitation Learning Perspective",
      "venue": "Conference on Empirical Methods in Natural Language Processing",
      "year": 2024,
      "referenceCount": 57,
      "citationCount": 17,
      "authors": [
        {
          "authorId": "2325904632",
          "name": "Teng Xiao"
        },
        {
          "authorId": "2325912099",
          "name": "Mingxiao Li"
        },
        {
          "authorId": "2191690098",
          "name": "Yige Yuan"
        },
        {
          "authorId": "2290912804",
          "name": "Huaisheng Zhu"
        },
        {
          "authorId": "2291070605",
          "name": "Chao Cui"
        },
        {
          "authorId": "2320465874",
          "name": "V.G. Honavar"
        }
      ]
    },
    {
      "paperId": "2d48c903c37cd0776e8b1defb8ec108ce3276aac",
      "externalIds": {
        "DBLP": "journals/corr/abs-2103-13834",
        "ArXiv": "2103.13834",
        "DOI": "10.1109/ICRA48506.2021.9561411",
        "CorpusId": 49211075
      },
      "url": "https://www.semanticscholar.org/paper/2d48c903c37cd0776e8b1defb8ec108ce3276aac",
      "title": "Self-Imitation Learning by Planning",
      "venue": "IEEE International Conference on Robotics and Automation",
      "year": 2021,
      "referenceCount": 37,
      "citationCount": 87,
      "authors": [
        {
          "authorId": "2894414",
          "name": "Junhyuk Oh"
        },
        {
          "authorId": "1857914",
          "name": "Yijie Guo"
        },
        {
          "authorId": "2108384183",
          "name": "Satinder Singh"
        },
        {
          "authorId": "1697141",
          "name": "Honglak Lee"
        }
      ]
    },
    {
      "paperId": "c9b9886c3c0f3cfa43b8431a4702a051f8b2b7cc",
      "externalIds": {
        "DBLP": "journals/corr/abs-2402-03357",
        "ArXiv": "2402.03357",
        "DOI": "10.48550/arXiv.2402.03357",
        "CorpusId": 267499773
      },
      "url": "https://www.semanticscholar.org/paper/c9b9886c3c0f3cfa43b8431a4702a051f8b2b7cc",
      "title": "Harnessing Network Effect for Fake News Mitigation: Selecting Debunkers via Self-Imitation Learning",
      "venue": "AAAI Conference on Artificial Intelligence",
      "year": 2024,
      "referenceCount": 48,
      "citationCount": 9,
      "authors": [
        {
          "authorId": "2155346103",
          "name": "Xiaofei Xu"
        },
        {
          "authorId": "2266466432",
          "name": "Ke Deng"
        },
        {
          "authorId": "143609015",
          "name": "Michael Dann"
        },
        {
          "authorId": "2266707488",
          "name": "Xiuzhen Zhang"
        }
      ]
    },
    {
      "paperId": "944190b69f08e2c9f363db64154689685777d0d9",
      "externalIds": {
        "DBLP": "journals/corr/abs-2401-11378",
        "ArXiv": "2401.11378",
        "DOI": "10.48550/arXiv.2401.11378",
        "CorpusId": 267068716
      },
      "url": "https://www.semanticscholar.org/paper/944190b69f08e2c9f363db64154689685777d0d9",
      "title": "Multi-Agent Generative Adversarial Interactive Self-Imitation Learning for AUV Formation Control and Obstacle Avoidance",
      "venue": "arXiv.org",
      "year": 2024,
      "referenceCount": 38,
      "citationCount": 8,
      "authors": [
        {
          "authorId": "2180527299",
          "name": "Zheng Fang"
        },
        {
          "authorId": "2280307182",
          "name": "Tianhao Chen"
        },
        {
          "authorId": "114490652",
          "name": "Dongqian Jiang"
        },
        {
          "authorId": "2280865480",
          "name": "Zheng Zhang"
        },
        {
          "authorId": "2271680780",
          "name": "Guangliang Li"
        }
      ]
    },
    {
      "paperId": "6205098f7f6103d76aca8358e1f6dd5d7fde029f",
      "externalIds": {
        "DBLP": "journals/corr/abs-2306-06754",
        "ArXiv": "2306.06754",
        "DOI": "10.48550/arXiv.2306.06754",
        "CorpusId": 259137688
      },
      "url": "https://www.semanticscholar.org/paper/6205098f7f6103d76aca8358e1f6dd5d7fde029f",
      "title": "Reinforcement Learning in Robotic Motion Planning by Combined Experience-based Planning and Self-Imitation Learning",
      "venue": "Robotics Auton. Syst.",
      "year": 2023,
      "referenceCount": 73,
      "citationCount": 20,
      "authors": [
        {
          "authorId": "145524951",
          "name": "Shan Luo"
        },
        {
          "authorId": "1799278",
          "name": "Lambert Schomaker"
        }
      ]
    },
    {
      "paperId": "9a47b85b97a12538605475e8b83bf71292ef435f",
      "externalIds": {
        "DBLP": "journals/ral/ShenWW22",
        "ArXiv": "2203.02107",
        "DOI": "10.1109/LRA.2022.3196122",
        "CorpusId": 247244785
      },
      "url": "https://www.semanticscholar.org/paper/9a47b85b97a12538605475e8b83bf71292ef435f",
      "title": "Learning Category-Level Generalizable Object Manipulation Policy Via Generative Adversarial Self-Imitation Learning From Demonstrations",
      "venue": "IEEE Robotics and Automation Letters",
      "year": 2022,
      "referenceCount": 33,
      "citationCount": 33,
      "authors": [
        {
          "authorId": "2110770857",
          "name": "Hao Shen"
        },
        {
          "authorId": "51451566",
          "name": "Weikang Wan"
        },
        {
          "authorId": "2149698689",
          "name": "He Wang"
        }
      ]
    },
    {
      "paperId": "6520e3613cac6c9a4cbb0a7cc3479ee9eba9a55d",
      "externalIds": {
        "DOI": "10.1109/YAC63405.2024.10598576",
        "CorpusId": 271405433
      },
      "url": "https://www.semanticscholar.org/paper/6520e3613cac6c9a4cbb0a7cc3479ee9eba9a55d",
      "title": "Improving Deep Reinforcement Learning with Intrinsic Rewards via Self-Imitation Learning",
      "venue": "Youth Academic Annual Conference of Chinese Association of Automation",
      "year": 2024,
      "referenceCount": 15,
      "citationCount": 1,
      "authors": [
        {
          "authorId": "2203904727",
          "name": "Mao Xu"
        },
        {
          "authorId": "2226502272",
          "name": "Qian Zhao"
        }
      ]
    }
  ]
}