{
  "total": 24,
  "offset": 0,
  "next": 10,
  "data": [
    {
      "paperId": "7d424fad26cf7ef419bfa509f36abae09e6a8089",
      "externalIds": {
        "MAG": "2740854171",
        "DBLP": "conf/icml/OsogamiKS17",
        "CorpusId": 931637
      },
      "url": "https://www.semanticscholar.org/paper/7d424fad26cf7ef419bfa509f36abae09e6a8089",
      "title": "Bidirectional Learning for Time-series Models with Hidden Units",
      "venue": "International Conference on Machine Learning",
      "year": 2017,
      "referenceCount": 26,
      "citationCount": 17,
      "authors": [
        {
          "authorId": "1708769",
          "name": "T. Osogami"
        },
        {
          "authorId": "34801644",
          "name": "Hiroshi Kajino"
        },
        {
          "authorId": "39388805",
          "name": "Taro Sekiyama"
        }
      ]
    },
    {
      "paperId": "808772efe6b57a6e9d190714c66dd4b1d5456827",
      "externalIds": {
        "DBLP": "conf/cikm/WangRXC21",
        "DOI": "10.1145/3459637.3482064",
        "CorpusId": 240230855
      },
      "url": "https://www.semanticscholar.org/paper/808772efe6b57a6e9d190714c66dd4b1d5456827",
      "title": "BiCMTS: Bidirectional Coupled Multivariate Learning of Irregular Time Series with Missing Values",
      "venue": "International Conference on Information and Knowledge Management",
      "year": 2021,
      "referenceCount": 18,
      "citationCount": 10,
      "authors": [
        {
          "authorId": "30785184",
          "name": "Qinfen Wang"
        },
        {
          "authorId": "3163074",
          "name": "Siyuan Ren"
        },
        {
          "authorId": "2111026697",
          "name": "Yong Xia"
        },
        {
          "authorId": "2148761004",
          "name": "Longbing Cao"
        }
      ]
    },
    {
      "paperId": "27eeeef502ff0467aca6bcc1eba1e420c093bbd8",
      "externalIds": {
        "DOI": "10.3390/eng7030112",
        "CorpusId": 286293880
      },
      "url": "https://www.semanticscholar.org/paper/27eeeef502ff0467aca6bcc1eba1e420c093bbd8",
      "title": "HPO-Optimized Bidirectional LSTM for Gas Concentration Prediction in Coal Mine Working Faces",
      "venue": "Engineer",
      "year": 2026,
      "referenceCount": 35,
      "citationCount": 0,
      "authors": [
        {
          "authorId": "2152196589",
          "name": "Xiaoliang Zheng"
        },
        {
          "authorId": "2260294246",
          "name": "Shilong Liu"
        },
        {
          "authorId": "2262151987",
          "name": "Lei Zhang"
        }
      ]
    },
    {
      "paperId": "9ecb849b13e28b3a3df725fba90b8aee7bba6456",
      "externalIds": {
        "PubMedCentral": "9779277",
        "DOI": "10.3390/ijerph192416798",
        "CorpusId": 254771611,
        "PubMed": "36554676"
      },
      "url": "https://www.semanticscholar.org/paper/9ecb849b13e28b3a3df725fba90b8aee7bba6456",
      "title": "Forecasting the Status of Municipal Waste in Smart Bins Using Deep Learning",
      "venue": "International Journal of Environmental Research and Public Health",
      "year": 2022,
      "referenceCount": 48,
      "citationCount": 34,
      "authors": [
        {
          "authorId": "2191717270",
          "name": "Sabbir Ahmed"
        },
        {
          "authorId": "34328468",
          "name": "Sameera Mubarak"
        },
        {
          "authorId": "2111144786",
          "name": "Jiaqing Du"
        },
        {
          "authorId": "49545238",
          "name": "S. Wibowo"
        }
      ]
    },
    {
      "paperId": "a0795439c43a673bda42524cd1b31ba511118b12",
      "externalIds": {
        "MAG": "3089140114",
        "DBLP": "journals/tim/ZollanvariKBB21",
        "DOI": "10.1109/TIM.2020.3026497",
        "CorpusId": 226689968
      },
      "url": "https://www.semanticscholar.org/paper/a0795439c43a673bda42524cd1b31ba511118b12",
      "title": "Transformer Fault Prognosis Using Deep Recurrent Neural Network Over Vibration Signals",
      "venue": "IEEE Transactions on Instrumentation and Measurement",
      "year": 2021,
      "referenceCount": 69,
      "citationCount": 116,
      "authors": [
        {
          "authorId": "2777006",
          "name": "A. Zollanvari"
        },
        {
          "authorId": "1629472245",
          "name": "Kassymzhomart Kunanbayev"
        },
        {
          "authorId": "3284433",
          "name": "Saeid Akhavan Bitaghsir"
        },
        {
          "authorId": "50255266",
          "name": "M. Bagheri"
        }
      ]
    },
    {
      "paperId": "fd2d6363a5d34ebbd5b02c3c45a24de0f64ea68d",
      "externalIds": {
        "DBLP": "journals/sncs/MonikaVK24",
        "DOI": "10.1007/s42979-023-02353-4",
        "CorpusId": 265310728
      },
      "url": "https://www.semanticscholar.org/paper/fd2d6363a5d34ebbd5b02c3c45a24de0f64ea68d",
      "title": "Generic Deep-Learning-Based Time Series Models for Aviation Accident Analysis and Forecasting",
      "venue": "SN Computer Science",
      "year": 2023,
      "referenceCount": 40,
      "citationCount": 6,
      "authors": [
        {
          "authorId": "2361652120",
          "name": "Seema Verma"
        },
        {
          "authorId": "2240670168",
          "name": "Pardeep Kumar"
        },
        {
          "authorId": "66986739",
          "name": "Pradeepika Verma"
        },
        {
          "authorId": "2267806160",
          "name": "Vivek Kumar Singh"
        },
        {
          "authorId": "2267532780",
          "name": "S. Karthikeyan"
        }
      ]
    },
    {
      "paperId": "932a7020966cc6f3456a6527285e7d8004d899a5",
      "externalIds": {
        "DOI": "10.51316/jst.182.ssad.2025.35.2.7",
        "CorpusId": 278807757
      },
      "url": "https://www.semanticscholar.org/paper/932a7020966cc6f3456a6527285e7d8004d899a5",
      "title": "\"A Comparative Study on the Operational Effectiveness of Machine Learning Models in Solar Power Forecasting\"",
      "venue": "JST: Smart Systems and Devices",
      "year": 2025,
      "referenceCount": 11,
      "citationCount": 0,
      "authors": [
        {
          "authorId": "119900974",
          "name": "Manh-Hai Pham"
        },
        {
          "authorId": "2240420081",
          "name": "Nguyen Tuan"
        },
        {
          "authorId": "2277134055",
          "name": "Anh"
        },
        {
          "authorId": "31056146",
          "name": "Vu Minh Phap"
        },
        {
          "authorId": "2376816496",
          "name": "Pham Van Duy"
        },
        {
          "authorId": "88820409",
          "name": "Le Thanh Doanh"
        },
        {
          "authorId": "2381768310",
          "name": "Vũ Thị"
        },
        {
          "authorId": "2180296672",
          "name": "Ánh Thơ"
        },
        {
          "authorId": "27382439",
          "name": "N. Dang"
        }
      ]
    },
    {
      "paperId": "d4b376022628459c5a805696415903bde5bd6698",
      "externalIds": {
        "DOI": "10.5194/hess-29-841-2025",
        "CorpusId": 269917689
      },
      "url": "https://www.semanticscholar.org/paper/d4b376022628459c5a805696415903bde5bd6698",
      "title": "Training deep learning models with a multi-station approach and static aquifer attributes for groundwater level simulation: what is the best way to leverage regionalised information?",
      "venue": "Hydrology and Earth System Sciences",
      "year": 2025,
      "referenceCount": 102,
      "citationCount": 10,
      "authors": [
        {
          "authorId": "2198846292",
          "name": "S. Chidepudi"
        },
        {
          "authorId": "2250817348",
          "name": "N. Massei"
        },
        {
          "authorId": "2185296",
          "name": "A. Jardani"
        },
        {
          "authorId": "87640609",
          "name": "B. Dieppois"
        },
        {
          "authorId": "104272628",
          "name": "Abel Henriot"
        },
        {
          "authorId": "48841109",
          "name": "M. Fournier"
        }
      ]
    },
    {
      "paperId": "75e90b7b2bb74f5626318db332d29be28f1233f5",
      "externalIds": {
        "DBLP": "journals/nca/MohebbanaazSK25",
        "DOI": "10.1007/s00521-025-11092-x",
        "CorpusId": 276876587
      },
      "url": "https://www.semanticscholar.org/paper/75e90b7b2bb74f5626318db332d29be28f1233f5",
      "title": "A novel inference system for detecting cardiac arrhythmia using deep learning framework",
      "venue": "Neural computing & applications (Print)",
      "year": 2025,
      "referenceCount": 30,
      "citationCount": 30,
      "authors": [
        {
          "authorId": "1391716853",
          "name": "Mohebbanaaz"
        },
        {
          "authorId": "35215280",
          "name": "Y. Sai"
        },
        {
          "authorId": "46539472",
          "name": "L. Kumari"
        }
      ]
    },
    {
      "paperId": "69167b8c026215acbf51222eba82310aaa28bc87",
      "externalIds": {
        "DOI": "10.1109/GCAT52182.2021.9587895",
        "CorpusId": 243946974
      },
      "url": "https://www.semanticscholar.org/paper/69167b8c026215acbf51222eba82310aaa28bc87",
      "title": "A Deep Learning-Based Approach for Stock Price Prediction Using Bidirectional Gated Recurrent Unit and Bidirectional Long Short Term Memory Model",
      "venue": "2021 2nd Global Conference for Advancement in Technology (GCAT)",
      "year": 2021,
      "referenceCount": 0,
      "citationCount": 8,
      "authors": [
        {
          "authorId": "9440102",
          "name": "Md. Ebtidaul Karim"
        },
        {
          "authorId": "2109248172",
          "name": "Sabrina Ahmed"
        }
      ]
    }
  ]
}