{
  "total": 224076,
  "offset": 0,
  "next": 10,
  "data": [
    {
      "paperId": "ee9aae0190c3ff177e7d1c9cdc977ce7d971bcc1",
      "externalIds": {
        "MAG": "2525954470",
        "DBLP": "conf/icml/AmosXK17",
        "ArXiv": "1609.07152",
        "CorpusId": 15898758
      },
      "url": "https://www.semanticscholar.org/paper/ee9aae0190c3ff177e7d1c9cdc977ce7d971bcc1",
      "title": "Input Convex Neural Networks",
      "venue": "International Conference on Machine Learning",
      "year": 2016,
      "referenceCount": 50,
      "citationCount": 796,
      "authors": [
        {
          "authorId": "1773498",
          "name": "Brandon Amos"
        },
        {
          "authorId": "2112281287",
          "name": "Lei Xu"
        },
        {
          "authorId": "145116464",
          "name": "J. Kolter"
        }
      ]
    },
    {
      "paperId": "00be7a48f5e44c53ac4898fdfbba5d6a9a500326",
      "externalIds": {
        "MAG": "2971222260",
        "ArXiv": "1908.10962",
        "DBLP": "journals/corr/abs-1908-10962",
        "CorpusId": 201668820
      },
      "url": "https://www.semanticscholar.org/paper/00be7a48f5e44c53ac4898fdfbba5d6a9a500326",
      "title": "Optimal transport mapping via input convex neural networks",
      "venue": "International Conference on Machine Learning",
      "year": 2019,
      "referenceCount": 49,
      "citationCount": 248,
      "authors": [
        {
          "authorId": "2970241",
          "name": "A. Makkuva"
        },
        {
          "authorId": "92338994",
          "name": "A. Taghvaei"
        },
        {
          "authorId": "47342457",
          "name": "Sewoong Oh"
        },
        {
          "authorId": "2421201",
          "name": "J. Lee"
        }
      ]
    },
    {
      "paperId": "5ec11d77eb51b9734f1c418ab53bd0688c386847",
      "externalIds": {
        "DBLP": "journals/corr/abs-2507-18102",
        "ArXiv": "2507.18102",
        "DOI": "10.1109/TSTE.2024.3524720",
        "CorpusId": 275221527
      },
      "url": "https://www.semanticscholar.org/paper/5ec11d77eb51b9734f1c418ab53bd0688c386847",
      "title": "Regional Frequency-Constrained Planning for the Optimal Sizing of Power Systems via Enhanced Input Convex Neural Networks",
      "venue": "IEEE Transactions on Sustainable Energy",
      "year": 2025,
      "referenceCount": 41,
      "citationCount": 10,
      "authors": [
        {
          "authorId": "2154460380",
          "name": "Yi Wang"
        },
        {
          "authorId": "2244468349",
          "name": "G. Strbac"
        }
      ]
    },
    {
      "paperId": "5c85e80653fc4b2cae40dce600dcfb54091c58b7",
      "externalIds": {
        "DBLP": "journals/tsg/LinWWF25",
        "DOI": "10.1109/TSG.2025.3548026",
        "CorpusId": 276881202
      },
      "url": "https://www.semanticscholar.org/paper/5c85e80653fc4b2cae40dce600dcfb54091c58b7",
      "title": "Model-Free Aggregation for Virtual Power Plants Using Input Convex Neural Networks",
      "venue": "IEEE Transactions on Smart Grid",
      "year": 2025,
      "referenceCount": 49,
      "citationCount": 8,
      "authors": [
        {
          "authorId": "2247433665",
          "name": "Wei Lin"
        },
        {
          "authorId": "2154459922",
          "name": "Yi Wang"
        },
        {
          "authorId": "2349201031",
          "name": "Jianghua Wu"
        },
        {
          "authorId": "2061129325",
          "name": "Fei Feng"
        }
      ]
    },
    {
      "paperId": "4c95332b06e101a25eec025252621872ffeb1dba",
      "externalIds": {
        "ArXiv": "2502.08534",
        "DBLP": "journals/corr/abs-2502-08534",
        "DOI": "10.48550/arXiv.2502.08534",
        "CorpusId": 276287366
      },
      "url": "https://www.semanticscholar.org/paper/4c95332b06e101a25eec025252621872ffeb1dba",
      "title": "Input convex neural networks: universal approximation theorem and implementation for isotropic polyconvex hyperelastic energies",
      "venue": "arXiv.org",
      "year": 2025,
      "referenceCount": 49,
      "citationCount": 4,
      "authors": [
        {
          "authorId": "2128352564",
          "name": "Gian-Luca Geuken"
        },
        {
          "authorId": "12895022",
          "name": "P. Kurzeja"
        },
        {
          "authorId": "2345004640",
          "name": "David Wiedemann"
        },
        {
          "authorId": "2238108355",
          "name": "Jörn Mosler"
        }
      ]
    },
    {
      "paperId": "69e7a24f7f6b7321013fe0af81f0dcde5115b241",
      "externalIds": {
        "ArXiv": "2505.05261",
        "DBLP": "journals/corr/abs-2505-05261",
        "DOI": "10.48550/arXiv.2505.05261",
        "CorpusId": 278394326
      },
      "url": "https://www.semanticscholar.org/paper/69e7a24f7f6b7321013fe0af81f0dcde5115b241",
      "title": "ICNN-enhanced 2SP: Leveraging input convex neural networks for solving two-stage stochastic programming",
      "venue": "arXiv.org",
      "year": 2025,
      "referenceCount": 47,
      "citationCount": 3,
      "authors": [
        {
          "authorId": "2359953362",
          "name": "Yu Liu"
        },
        {
          "authorId": "2360331200",
          "name": "Fabricio Oliveira"
        }
      ]
    },
    {
      "paperId": "1f517058d0ebb9695241f10c2d3eb86cfa654876",
      "externalIds": {
        "ArXiv": "2408.06580",
        "DOI": "10.1021/acs.iecr.4c02257",
        "CorpusId": 271860170
      },
      "url": "https://www.semanticscholar.org/paper/1f517058d0ebb9695241f10c2d3eb86cfa654876",
      "title": "Fast Explicit Machine Learning-Based Model Predictive Control of Nonlinear Processes Using Input Convex Neural Networks",
      "venue": "Industrial &amp; Engineering Chemistry Research",
      "year": 2024,
      "referenceCount": 44,
      "citationCount": 16,
      "authors": [
        {
          "authorId": "2297141415",
          "name": "Wenlong Wang"
        },
        {
          "authorId": "2316008335",
          "name": "Haohao Zhang"
        },
        {
          "authorId": "2312001438",
          "name": "Yujia Wang"
        },
        {
          "authorId": "2274824602",
          "name": "Yuhe Tian"
        },
        {
          "authorId": "2316007623",
          "name": "Zhe Wu"
        }
      ]
    },
    {
      "paperId": "32d2c3d0025073d7a9323d1dad62957141eef5d8",
      "externalIds": {
        "DOI": "10.1007/s12273-023-1093-2",
        "CorpusId": 267235185
      },
      "url": "https://www.semanticscholar.org/paper/32d2c3d0025073d7a9323d1dad62957141eef5d8",
      "title": "An optimization-oriented modeling approach using input convex neural networks and its application on optimal chiller loading",
      "venue": "Building Simulation",
      "year": 2024,
      "referenceCount": 51,
      "citationCount": 14,
      "authors": [
        {
          "authorId": "2152413660",
          "name": "Shanshuo Xing"
        },
        {
          "authorId": "2281241177",
          "name": "Jili Zhang"
        },
        {
          "authorId": "2164599023",
          "name": "Song Mu"
        }
      ]
    },
    {
      "paperId": "0582a45de86f1f46fa35bd1c3e1b2abc71336ef6",
      "externalIds": {
        "DOI": "10.1016/j.egyai.2025.100509",
        "CorpusId": 277836136
      },
      "url": "https://www.semanticscholar.org/paper/0582a45de86f1f46fa35bd1c3e1b2abc71336ef6",
      "title": "Advanced day-ahead scheduling of HVAC demand response control using novel strategy of Q-learning, model predictive control, and input convex neural networks",
      "venue": "Energy and AI",
      "year": 2025,
      "referenceCount": 45,
      "citationCount": 7,
      "authors": [
        {
          "authorId": "2199437091",
          "name": "Rahman Heidarykiany"
        },
        {
          "authorId": "47744538",
          "name": "Cristinel Ababei"
        }
      ]
    },
    {
      "paperId": "8232dd73ee92c22af5815b37c1e36a4f251684cc",
      "externalIds": {
        "DBLP": "journals/tmlr/AlvarezMelisSM22",
        "ArXiv": "2106.00774",
        "CorpusId": 235293719
      },
      "url": "https://www.semanticscholar.org/paper/8232dd73ee92c22af5815b37c1e36a4f251684cc",
      "title": "Optimizing Functionals on the Space of Probabilities with Input Convex Neural Networks",
      "venue": "Trans. Mach. Learn. Res.",
      "year": 2021,
      "referenceCount": 87,
      "citationCount": 64,
      "authors": [
        {
          "authorId": "1390096054",
          "name": "David Alvarez-Melis"
        },
        {
          "authorId": "1999174380",
          "name": "Yair Schiff"
        },
        {
          "authorId": "2211263",
          "name": "Youssef Mroueh"
        }
      ]
    }
  ]
}