{
  "total": 7741,
  "offset": 0,
  "next": 10,
  "data": [
    {
      "paperId": "a02ae42ff5c468244bbf40f215042e8bc96c3804",
      "externalIds": {
        "DBLP": "conf/icml/ZhangP15",
        "MAG": "1835150476",
        "CorpusId": 9706038
      },
      "url": "https://www.semanticscholar.org/paper/a02ae42ff5c468244bbf40f215042e8bc96c3804",
      "title": "Markov Mixed Membership Models",
      "venue": "International Conference on Machine Learning",
      "year": 2015,
      "referenceCount": 31,
      "citationCount": 10,
      "authors": [
        {
          "authorId": "2852051",
          "name": "Aonan Zhang"
        },
        {
          "authorId": "143855009",
          "name": "J. Paisley"
        }
      ]
    },
    {
      "paperId": "a85e420b60ef2a89e245a198e7f51447d8896d01",
      "externalIds": {
        "DOI": "10.1080/01621459.2023.2213466",
        "CorpusId": 258728695
      },
      "url": "https://www.semanticscholar.org/paper/a85e420b60ef2a89e245a198e7f51447d8896d01",
      "title": "Survival Mixed Membership Blockmodel",
      "venue": "Journal of the American Statistical Association",
      "year": 2023,
      "referenceCount": 30,
      "citationCount": 2,
      "authors": [
        {
          "authorId": "145024947",
          "name": "Fangda Song"
        },
        {
          "authorId": "2285452194",
          "name": "Jing-Yuan Chu"
        },
        {
          "authorId": "144072410",
          "name": "Shuangge Ma"
        },
        {
          "authorId": "2156252994",
          "name": "Yingying Wei"
        }
      ]
    },
    {
      "paperId": "9c51e6620482f8a1702e20418175ad23383e1761",
      "externalIds": {
        "MAG": "2962789900",
        "ArXiv": "1309.3533",
        "DBLP": "journals/corr/FoxJ13",
        "DOI": "10.1201/b17520-26",
        "CorpusId": 263269661
      },
      "url": "https://www.semanticscholar.org/paper/9c51e6620482f8a1702e20418175ad23383e1761",
      "title": "Mixed Membership Models for Time Series",
      "venue": "Handbook of Mixed Membership Models and Their Applications",
      "year": 2013,
      "referenceCount": 45,
      "citationCount": 6,
      "authors": [
        {
          "authorId": "2267518182",
          "name": "Emily B. Fox"
        },
        {
          "authorId": "2267861695",
          "name": "Michael I. Jordan"
        }
      ]
    },
    {
      "paperId": "e6636a4dd1320a1afc73d924e47b785b2b8acd3e",
      "externalIds": {
        "ACL": "D12-1009",
        "MAG": "2251183320",
        "DBLP": "conf/emnlp/Paul12",
        "CorpusId": 7537013
      },
      "url": "https://www.semanticscholar.org/paper/e6636a4dd1320a1afc73d924e47b785b2b8acd3e",
      "title": "Mixed Membership Markov Models for Unsupervised Conversation Modeling",
      "venue": "Conference on Empirical Methods in Natural Language Processing",
      "year": 2012,
      "referenceCount": 44,
      "citationCount": 40,
      "authors": [
        {
          "authorId": "143946641",
          "name": "Michael J. Paul"
        }
      ]
    },
    {
      "paperId": "d1fcd75757d8ffaee28b9a92f9da8c2a2f0a4f53",
      "externalIds": {
        "PubMedCentral": "8361277",
        "DOI": "10.1016/j.heliyon.2021.e07717",
        "CorpusId": 237193616,
        "PubMed": "34409182"
      },
      "url": "https://www.semanticscholar.org/paper/d1fcd75757d8ffaee28b9a92f9da8c2a2f0a4f53",
      "title": "Comparison of fuzzy semi-Markov models for one unit with mixed standby units with and without preventive maintenance using regenerative point method",
      "venue": "Heliyon",
      "year": 2021,
      "referenceCount": 26,
      "citationCount": 8,
      "authors": [
        {
          "authorId": "1740402",
          "name": "N. Temraz"
        }
      ]
    },
    {
      "paperId": "ff516a34a4e04c1221d7cee8e1d9a32f8f119ac1",
      "externalIds": {
        "PubMedCentral": "13020011",
        "DBLP": "journals/midm/MomenzadehO26",
        "DOI": "10.1186/s12911-026-03396-2",
        "CorpusId": 285796560,
        "PubMed": "41715072"
      },
      "url": "https://www.semanticscholar.org/paper/ff516a34a4e04c1221d7cee8e1d9a32f8f119ac1",
      "title": "Deep generative hidden Markov models for synthetic patient data generation: a novel approach for medical AI research",
      "venue": "BMC Medical Informatics Decis. Mak.",
      "year": 2026,
      "referenceCount": 47,
      "citationCount": 0,
      "authors": [
        {
          "authorId": "10740976",
          "name": "Mohammadreza Momenzadeh"
        },
        {
          "authorId": "2412892253",
          "name": "Atiyeh Oshaghi"
        }
      ]
    },
    {
      "paperId": "3250400791333697125b77aae218350bd183b0f7",
      "externalIds": {
        "MAG": "3021866355",
        "ArXiv": "1510.04815",
        "DBLP": "journals/corr/LiAW15",
        "CorpusId": 6059103
      },
      "url": "https://www.semanticscholar.org/paper/3250400791333697125b77aae218350bd183b0f7",
      "title": "Scalable MCMC for Mixed Membership Stochastic Blockmodels",
      "venue": "International Conference on Artificial Intelligence and Statistics",
      "year": 2015,
      "referenceCount": 27,
      "citationCount": 44,
      "authors": [
        {
          "authorId": "2135914554",
          "name": "Wenzhe Li"
        },
        {
          "authorId": "3103594",
          "name": "Sungjin Ahn"
        },
        {
          "authorId": "1678311",
          "name": "M. Welling"
        }
      ]
    },
    {
      "paperId": "3fa137c788d54de2301691bd2be6c23332414ab8",
      "externalIds": {
        "CorpusId": 155094083
      },
      "url": "https://www.semanticscholar.org/paper/3fa137c788d54de2301691bd2be6c23332414ab8",
      "title": "UvA-DARE ( Digital Academic Repository ) Scalable MCMC for Mixed Membership Stochastic",
      "venue": "",
      "year": 2016,
      "referenceCount": 16,
      "citationCount": 0,
      "authors": [
        {
          "authorId": "2087357855",
          "name": "Li"
        }
      ]
    },
    {
      "paperId": "550eb08d2ac39a60b487d7174aea35b04ba8d974",
      "externalIds": {
        "MAG": "3098748609",
        "PubMedCentral": "7304047",
        "DBLP": "journals/corr/abs-2005-09971",
        "ArXiv": "2005.09971",
        "DOI": "10.1007/978-3-030-50420-5_35",
        "CorpusId": 218719017
      },
      "url": "https://www.semanticscholar.org/paper/550eb08d2ac39a60b487d7174aea35b04ba8d974",
      "title": "Hidden Markov Models and Their Application for Predicting Failure Events",
      "venue": "International Conference on Conceptual Structures",
      "year": 2020,
      "referenceCount": 25,
      "citationCount": 13,
      "authors": [
        {
          "authorId": "144640097",
          "name": "P. Hofmann"
        },
        {
          "authorId": "3285491",
          "name": "Zaid Tashman"
        }
      ]
    },
    {
      "paperId": "fa97e4196e6e221b26218245a670e05a48280df7",
      "externalIds": {
        "DBLP": "journals/ijfs/KchaouAJAA24",
        "DOI": "10.1007/s40815-024-01711-5",
        "CorpusId": 269026288
      },
      "url": "https://www.semanticscholar.org/paper/fa97e4196e6e221b26218245a670e05a48280df7",
      "title": "An Adaptive Event-Triggered Filtering for Fuzzy Markov Switching Systems with Quantization and Deception Attacks: A Non-stationary Approach",
      "venue": "International Journal of Fuzzy Systems",
      "year": 2024,
      "referenceCount": 41,
      "citationCount": 19,
      "authors": [
        {
          "authorId": "3046711",
          "name": "M. Kchaou"
        },
        {
          "authorId": "1404334608",
          "name": "Obaid S. Alshammari"
        },
        {
          "authorId": "46764958",
          "name": "H. Jerbi"
        },
        {
          "authorId": "2197150577",
          "name": "Rabeh Abassi"
        },
        {
          "authorId": "16309193",
          "name": "S. B. Aoun"
        }
      ]
    }
  ]
}