{
  "total": 12,
  "offset": 0,
  "next": 10,
  "data": [
    {
      "paperId": "ae7619604821adce52c28daa2aed14f5a191d975",
      "externalIds": {
        "MAG": "2804175194",
        "DBLP": "journals/corr/abs-1805-06370",
        "ArXiv": "1805.06370",
        "CorpusId": 21718339
      },
      "url": "https://www.semanticscholar.org/paper/ae7619604821adce52c28daa2aed14f5a191d975",
      "title": "Progress & Compress: A scalable framework for continual learning",
      "venue": "International Conference on Machine Learning",
      "year": 2018,
      "referenceCount": 42,
      "citationCount": 1013,
      "authors": [
        {
          "authorId": "144735987",
          "name": "Jonathan Schwarz"
        },
        {
          "authorId": "144792148",
          "name": "Wojciech M. Czarnecki"
        },
        {
          "authorId": "1818756",
          "name": "Jelena Luketina"
        },
        {
          "authorId": "1398898827",
          "name": "A. Grabska-Barwinska"
        },
        {
          "authorId": "1725303",
          "name": "Y. Teh"
        },
        {
          "authorId": "1996134",
          "name": "Razvan Pascanu"
        },
        {
          "authorId": "2315504",
          "name": "R. Hadsell"
        }
      ]
    },
    {
      "paperId": "ff3678cc1a6fec2442c5917f55bc5375bc38a1e2",
      "externalIds": {
        "CorpusId": 260547030
      },
      "url": "https://www.semanticscholar.org/paper/ff3678cc1a6fec2442c5917f55bc5375bc38a1e2",
      "title": "Progress & Compress : A scalable framework for continual learning",
      "venue": "",
      "year": 2018,
      "referenceCount": 5,
      "citationCount": 8,
      "authors": []
    },
    {
      "paperId": "bd0e16fe2f26e000491632a1155e19ad7c15a1e0",
      "externalIds": {
        "DBLP": "journals/corr/abs-2512-03627",
        "ArXiv": "2512.03627",
        "DOI": "10.48550/arXiv.2512.03627",
        "CorpusId": 283466545
      },
      "url": "https://www.semanticscholar.org/paper/bd0e16fe2f26e000491632a1155e19ad7c15a1e0",
      "title": "MemVerse: Multimodal Memory for Lifelong Learning Agents",
      "venue": "arXiv.org",
      "year": 2025,
      "referenceCount": 62,
      "citationCount": 10,
      "authors": [
        {
          "authorId": "2350519685",
          "name": "Junming Liu"
        },
        {
          "authorId": "2363490802",
          "name": "Yifei Sun"
        },
        {
          "authorId": "2397576112",
          "name": "Weihua Cheng"
        },
        {
          "authorId": "2323028085",
          "name": "Haodong Lei"
        },
        {
          "authorId": "2350503701",
          "name": "Yirong Chen"
        },
        {
          "authorId": "153109152",
          "name": "Licheng Wen"
        },
        {
          "authorId": "2265828805",
          "name": "Xuemeng Yang"
        },
        {
          "authorId": "150967272",
          "name": "Daocheng Fu"
        },
        {
          "authorId": "26978261",
          "name": "Pinlong Cai"
        },
        {
          "authorId": "2282958636",
          "name": "Nianchen Deng"
        },
        {
          "authorId": "2376527185",
          "name": "Yi Yu"
        },
        {
          "authorId": "2344842211",
          "name": "Shuyue Hu"
        },
        {
          "authorId": "2278899936",
          "name": "Botian Shi"
        },
        {
          "authorId": "2355374855",
          "name": "Ding Wang"
        }
      ]
    },
    {
      "paperId": "d5df3249a372fcd7994fa43fa48a94d322b43161",
      "externalIds": {
        "DBLP": "journals/corr/abs-2508-10824",
        "ArXiv": "2508.10824",
        "DOI": "10.48550/arXiv.2508.10824",
        "CorpusId": 280676428
      },
      "url": "https://www.semanticscholar.org/paper/d5df3249a372fcd7994fa43fa48a94d322b43161",
      "title": "Memory-Augmented Transformers: A Systematic Review from Neuroscience Principles to Enhanced Model Architectures",
      "venue": "arXiv.org",
      "year": 2025,
      "referenceCount": 123,
      "citationCount": 7,
      "authors": [
        {
          "authorId": "2282534833",
          "name": "Parsa Omidi"
        },
        {
          "authorId": "2376033147",
          "name": "Xingshuai Huang"
        },
        {
          "authorId": "2375900264",
          "name": "Axel Laborieux"
        },
        {
          "authorId": "9292648",
          "name": "Bahareh Nikpour"
        },
        {
          "authorId": "2376193584",
          "name": "Tianyu Shi"
        },
        {
          "authorId": "2342176400",
          "name": "A. Eshaghi"
        }
      ]
    },
    {
      "paperId": "6f1829c5a32af1ff9c3ab39626bd085505c43f20",
      "externalIds": {
        "DOI": "10.1109/NPEC66512.2025.11450308",
        "CorpusId": 286875762
      },
      "url": "https://www.semanticscholar.org/paper/6f1829c5a32af1ff9c3ab39626bd085505c43f20",
      "title": "Adaptive Edge-AI and Digital Twin Coordination for Resilient Energy Management in Decentralized Microgrids",
      "venue": "2025 12th National Power Electronics Conference (NPEC)",
      "year": 2025,
      "referenceCount": 21,
      "citationCount": 0,
      "authors": [
        {
          "authorId": "2426087652",
          "name": "Vanitha. C.N"
        },
        {
          "authorId": "2332830812",
          "name": "A. P"
        }
      ]
    },
    {
      "paperId": "24197f018eee460e2b4000c7659994c8966a4e7f",
      "externalIds": {
        "DOI": "10.1109/ICIPCN63822.2024.00011",
        "CorpusId": 272569175
      },
      "url": "https://www.semanticscholar.org/paper/24197f018eee460e2b4000c7659994c8966a4e7f",
      "title": "Efficiency Across Datasets: Insights into Video Compression Techniques",
      "venue": "2024 5th International Conference on Image Processing and Capsule Networks (ICIPCN)",
      "year": 2024,
      "referenceCount": 14,
      "citationCount": 0,
      "authors": [
        {
          "authorId": "2327800932",
          "name": "A. Sreeram"
        },
        {
          "authorId": "2320587919",
          "name": "B. U. Chandra"
        },
        {
          "authorId": "2265034201",
          "name": "G. Swetha"
        },
        {
          "authorId": "1393154914",
          "name": "Shilpa Bagade"
        }
      ]
    },
    {
      "paperId": "66776d20e43f25b5f8b5cc303e02caa10271cd07",
      "externalIds": {
        "PubMedCentral": "7125440",
        "MAG": "2994761064",
        "DOI": "10.2196/16810",
        "CorpusId": 213194654,
        "PubMed": "32196460"
      },
      "url": "https://www.semanticscholar.org/paper/66776d20e43f25b5f8b5cc303e02caa10271cd07",
      "title": "Blockchain-Authenticated Sharing of Genomic and Clinical Outcomes Data of Patients With Cancer: A Prospective Cohort Study",
      "venue": "Journal of Medical Internet Research",
      "year": 2020,
      "referenceCount": 50,
      "citationCount": 37,
      "authors": [
        {
          "authorId": "2121562557",
          "name": "B. Glicksberg"
        },
        {
          "authorId": "1576486404",
          "name": "Shohei T. Burns"
        },
        {
          "authorId": "31488432",
          "name": "R. Currie"
        },
        {
          "authorId": "47209704",
          "name": "A. Griffin"
        },
        {
          "authorId": "2144787244",
          "name": "Z. Wang"
        },
        {
          "authorId": "1733689",
          "name": "D. Haussler"
        },
        {
          "authorId": "34971643",
          "name": "Theodore Goldstein"
        },
        {
          "authorId": "20991761",
          "name": "E. Collisson"
        }
      ]
    },
    {
      "paperId": "9e87ed5fdb2b8f6771a58ad7e934b17a555bdf96",
      "externalIds": {
        "DBLP": "journals/ieeejas/CuiLZLAS22",
        "DOI": "10.1109/JAS.2022.105425",
        "CorpusId": 248065980
      },
      "url": "https://www.semanticscholar.org/paper/9e87ed5fdb2b8f6771a58ad7e934b17a555bdf96",
      "title": "A Bi-population Cooperative Optimization Algorithm Assisted by an Autoencoder for Medium-scale Expensive Problems",
      "venue": "IEEE/CAA Journal of Automatica Sinica",
      "year": 2022,
      "referenceCount": 86,
      "citationCount": 50,
      "authors": [
        {
          "authorId": "41034726",
          "name": "Meiji Cui"
        },
        {
          "authorId": "2156055811",
          "name": "Li Li"
        },
        {
          "authorId": "2152967237",
          "name": "Mengchu Zhou"
        },
        {
          "authorId": "5840080",
          "name": "Jiankai Li"
        },
        {
          "authorId": "2648008",
          "name": "A. Abusorrah"
        },
        {
          "authorId": "15277898",
          "name": "K. Sedraoui"
        }
      ]
    },
    {
      "paperId": "aafc5c3cde2ca96815e6c40a52383f8c93b86f69",
      "externalIds": {
        "MAG": "3032832995",
        "DOI": "10.1200/jco.2020.38.15_suppl.e19358",
        "CorpusId": 219775754
      },
      "url": "https://www.semanticscholar.org/paper/aafc5c3cde2ca96815e6c40a52383f8c93b86f69",
      "title": "Blockchain-authenticated sharing of cancer patient genomic and clinical outcomes data.",
      "venue": "Journal of Clinical Oncology",
      "year": 2020,
      "referenceCount": 0,
      "citationCount": 2,
      "authors": [
        {
          "authorId": "1576486404",
          "name": "Shohei T. Burns"
        },
        {
          "authorId": "20991761",
          "name": "E. Collisson"
        }
      ]
    },
    {
      "paperId": "9548700b6ca2718c8d8a62935976fe7ead0a925a",
      "externalIds": {
        "DOI": "10.2196/preprints.16810",
        "CorpusId": 241413437
      },
      "url": "https://www.semanticscholar.org/paper/9548700b6ca2718c8d8a62935976fe7ead0a925a",
      "title": "Blockchain-Authenticated Sharing of Genomic and Clinical Outcomes Data of Patients With Cancer: A Prospective Cohort Study (Preprint)",
      "venue": "",
      "year": 2019,
      "referenceCount": 26,
      "citationCount": 1,
      "authors": [
        {
          "authorId": "2121562557",
          "name": "B. Glicksberg"
        },
        {
          "authorId": "1576486404",
          "name": "Shohei T. Burns"
        },
        {
          "authorId": "31488432",
          "name": "R. Currie"
        },
        {
          "authorId": "2064009270",
          "name": "A. Griffin"
        },
        {
          "authorId": "2144787244",
          "name": "Z. Wang"
        },
        {
          "authorId": "1733689",
          "name": "D. Haussler"
        },
        {
          "authorId": "2066530922",
          "name": "Theodore Goldstein"
        },
        {
          "authorId": "20991761",
          "name": "E. Collisson"
        }
      ]
    }
  ]
}