{
  "total": 17525,
  "offset": 0,
  "next": 10,
  "data": [
    {
      "paperId": "52ce57ccd25f30b9ff3b63eba8a78a430dff7a27",
      "externalIds": {
        "MAG": "2785619321",
        "DBLP": "conf/icml/Oymak18",
        "ArXiv": "1802.01223",
        "CorpusId": 3640547
      },
      "url": "https://www.semanticscholar.org/paper/52ce57ccd25f30b9ff3b63eba8a78a430dff7a27",
      "title": "Learning Compact Neural Networks with Regularization",
      "venue": "International Conference on Machine Learning",
      "year": 2018,
      "referenceCount": 69,
      "citationCount": 39,
      "authors": [
        {
          "authorId": "3103394",
          "name": "Samet Oymak"
        }
      ]
    },
    {
      "paperId": "77086598422ff23f289c5a57fca42929dc9444ff",
      "externalIds": {
        "MAG": "2914579316",
        "CorpusId": 53389864
      },
      "url": "https://www.semanticscholar.org/paper/77086598422ff23f289c5a57fca42929dc9444ff",
      "title": "Learning Compact Networks via Adaptive Network Regularization",
      "venue": "",
      "year": 2018,
      "referenceCount": 6,
      "citationCount": 0,
      "authors": [
        {
          "authorId": "115150553",
          "name": "Sivaramakrishnan Sankarapandian"
        },
        {
          "authorId": "35544303",
          "name": "Anil Kag"
        },
        {
          "authorId": "51016107",
          "name": "Rachel Manzelli"
        },
        {
          "authorId": "1692670",
          "name": "Brian Kulis"
        }
      ]
    },
    {
      "paperId": "7601b995303f953955004db7b9b8b206c0e02ff8",
      "externalIds": {
        "ArXiv": "1608.03665",
        "DBLP": "journals/corr/WenWWCL16",
        "MAG": "2513419314",
        "CorpusId": 2056019
      },
      "url": "https://www.semanticscholar.org/paper/7601b995303f953955004db7b9b8b206c0e02ff8",
      "title": "Learning Structured Sparsity in Deep Neural Networks",
      "venue": "Neural Information Processing Systems",
      "year": 2016,
      "referenceCount": 22,
      "citationCount": 2484,
      "authors": [
        {
          "authorId": "145225262",
          "name": "W. Wen"
        },
        {
          "authorId": "3207491",
          "name": "Chunpeng Wu"
        },
        {
          "authorId": "2108738288",
          "name": "Yandan Wang"
        },
        {
          "authorId": "5442167",
          "name": "Yiran Chen"
        },
        {
          "authorId": "40348219",
          "name": "Hai Helen Li"
        }
      ]
    },
    {
      "paperId": "5e2a11121ae530cd701048676ea944e738c9c0b6",
      "externalIds": {
        "ArXiv": "2503.08973",
        "DBLP": "journals/corr/abs-2503-08973",
        "DOI": "10.48550/arXiv.2503.08973",
        "CorpusId": 276938106
      },
      "url": "https://www.semanticscholar.org/paper/5e2a11121ae530cd701048676ea944e738c9c0b6",
      "title": "Quantitative Analysis of Deeply Quantized Tiny Neural Networks Robust to Adversarial Attacks",
      "venue": "arXiv.org",
      "year": 2025,
      "referenceCount": 65,
      "citationCount": 1,
      "authors": [
        {
          "authorId": "2316286341",
          "name": "Idris Zakariyya"
        },
        {
          "authorId": "3097241",
          "name": "Ferheen Ayaz"
        },
        {
          "authorId": "2349640462",
          "name": "Mounia Kharbouche-Harrari"
        },
        {
          "authorId": "2183362611",
          "name": "Jeremy Singer"
        },
        {
          "authorId": "1902994",
          "name": "S. Keoh"
        },
        {
          "authorId": "2332554685",
          "name": "Danilo Pau"
        },
        {
          "authorId": "2288216330",
          "name": "José Cano"
        }
      ]
    },
    {
      "paperId": "76cfd5ea9b382b64c4b182006ec87ec921699656",
      "externalIds": {
        "DBLP": "journals/corr/abs-2007-10022",
        "ArXiv": "2007.10022",
        "MAG": "3045354288",
        "DOI": "10.1007/978-3-030-68763-2_50",
        "CorpusId": 220646424
      },
      "url": "https://www.semanticscholar.org/paper/76cfd5ea9b382b64c4b182006ec87ec921699656",
      "title": "Learning Sparse Filters in Deep Convolutional Neural Networks with a l1/l2 Pseudo-Norm",
      "venue": "ICPR Workshops",
      "year": 2020,
      "referenceCount": 44,
      "citationCount": 11,
      "authors": [
        {
          "authorId": "114020161",
          "name": "Anthony Berthelier"
        },
        {
          "authorId": "113548445",
          "name": "Yongzhe Yan"
        },
        {
          "authorId": "144032408",
          "name": "T. Chateau"
        },
        {
          "authorId": "145833203",
          "name": "C. Blanc"
        },
        {
          "authorId": "1762557",
          "name": "S. Duffner"
        },
        {
          "authorId": "144723337",
          "name": "Christophe Garcia"
        }
      ]
    },
    {
      "paperId": "2af8ac2646128814089874f8e030764266a8f913",
      "externalIds": {
        "DBLP": "journals/corr/abs-2209-08723",
        "ArXiv": "2209.08723",
        "DOI": "10.1109/ICRA48891.2023.10160749",
        "CorpusId": 252367804
      },
      "url": "https://www.semanticscholar.org/paper/2af8ac2646128814089874f8e030764266a8f913",
      "title": "Ensembles of Compact, Region-specific & Regularized Spiking Neural Networks for Scalable Place Recognition",
      "venue": "IEEE International Conference on Robotics and Automation",
      "year": 2022,
      "referenceCount": 62,
      "citationCount": 12,
      "authors": [
        {
          "authorId": "2126864519",
          "name": "Somayeh Hussaini"
        },
        {
          "authorId": "1809144",
          "name": "Michael Milford"
        },
        {
          "authorId": "2144029151",
          "name": "Tobias Fischer"
        }
      ]
    },
    {
      "paperId": "04da7ef906550ddfeeddb394c8d0473ed2651c23",
      "externalIds": {
        "ArXiv": "2603.23854",
        "CorpusId": 286775398
      },
      "url": "https://www.semanticscholar.org/paper/04da7ef906550ddfeeddb394c8d0473ed2651c23",
      "title": "Symbolic--KAN: Kolmogorov-Arnold Networks with Discrete Symbolic Structure for Interpretable Learning",
      "venue": "",
      "year": 2026,
      "referenceCount": 61,
      "citationCount": 1,
      "authors": [
        {
          "authorId": "30101290",
          "name": "Salah A. Faroughi"
        },
        {
          "authorId": "2141300894",
          "name": "Farinaz Mostajeran"
        },
        {
          "authorId": "6059048",
          "name": "Amirhossein Arzani"
        },
        {
          "authorId": "7430470",
          "name": "S. Faroughi"
        }
      ]
    },
    {
      "paperId": "cc0056538a6463db02bfda86fae2371ee42738cd",
      "externalIds": {
        "DBLP": "journals/tcyb/LeiQMSN22",
        "MAG": "3026900506",
        "DOI": "10.1109/tcyb.2020.2988791",
        "CorpusId": 218893120,
        "PubMed": "32452792"
      },
      "url": "https://www.semanticscholar.org/paper/cc0056538a6463db02bfda86fae2371ee42738cd",
      "title": "DigGCN: Learning Compact Graph Convolutional Networks via Diffusion Aggregation",
      "venue": "IEEE Transactions on Cybernetics",
      "year": 2020,
      "referenceCount": 0,
      "citationCount": 16,
      "authors": [
        {
          "authorId": "46173756",
          "name": "Minglong Lei"
        },
        {
          "authorId": "46234628",
          "name": "Pei Quan"
        },
        {
          "authorId": "47375480",
          "name": "Rongrong Ma"
        },
        {
          "authorId": "2109346678",
          "name": "Yong Shi"
        },
        {
          "authorId": "33252551",
          "name": "Lingfeng Niu"
        }
      ]
    },
    {
      "paperId": "12a05d8ea1145c02244830f6e423d55c9bc0b106",
      "externalIds": {
        "DBLP": "journals/access/LiYLYLLSL24",
        "DOI": "10.1109/ACCESS.2024.3515481",
        "CorpusId": 274665694
      },
      "url": "https://www.semanticscholar.org/paper/12a05d8ea1145c02244830f6e423d55c9bc0b106",
      "title": "An Incremental Regularization Kernel Randomized Neural Network for Electrical Energy Output Prediction in Combined Cycle Power Plant",
      "venue": "IEEE Access",
      "year": 2024,
      "referenceCount": 0,
      "citationCount": 0,
      "authors": [
        {
          "authorId": "2391189128",
          "name": "Xinlei Li"
        },
        {
          "authorId": "2306640745",
          "name": "Henggong Yue"
        },
        {
          "authorId": "2335074778",
          "name": "Fei Li"
        },
        {
          "authorId": "2334943058",
          "name": "Zerui Yun"
        },
        {
          "authorId": "2306641286",
          "name": "Zhenzhou Li"
        },
        {
          "authorId": "2360067569",
          "name": "Yongjie Liu"
        },
        {
          "authorId": "2336892852",
          "name": "Wei Shi"
        },
        {
          "authorId": "2376140456",
          "name": "Yang Liu"
        }
      ]
    },
    {
      "paperId": "4c641f7409ed7f12ad43dad1649b80391e33fc0b",
      "externalIds": {
        "DBLP": "journals/access/Jurj26a",
        "DOI": "10.1109/ACCESS.2026.3662103",
        "CorpusId": 285416594
      },
      "url": "https://www.semanticscholar.org/paper/4c641f7409ed7f12ad43dad1649b80391e33fc0b",
      "title": "Ψ-HDL: Physics Structure-Informed Neural Networks for Hardware Description Language Generation",
      "venue": "IEEE Access",
      "year": 2026,
      "referenceCount": 30,
      "citationCount": 0,
      "authors": [
        {
          "authorId": "2114543318",
          "name": "Sorin Liviu Jurj"
        }
      ]
    }
  ]
}