{
  "total": 104,
  "offset": 0,
  "next": 10,
  "data": [
    {
      "paperId": "507bd6dbdd9231bb880fd5c7298d45d70577fc8b",
      "externalIds": {
        "ArXiv": "1502.02322",
        "DBLP": "journals/corr/NockPF15",
        "MAG": "2951079711",
        "CorpusId": 14127470
      },
      "url": "https://www.semanticscholar.org/paper/507bd6dbdd9231bb880fd5c7298d45d70577fc8b",
      "title": "Rademacher Observations, Private Data, and Boosting",
      "venue": "International Conference on Machine Learning",
      "year": 2015,
      "referenceCount": 31,
      "citationCount": 13,
      "authors": [
        {
          "authorId": "1718786",
          "name": "R. Nock"
        },
        {
          "authorId": "49047270",
          "name": "Giorgio Patrini"
        },
        {
          "authorId": "35090268",
          "name": "Arik Friedman"
        }
      ]
    },
    {
      "paperId": "44e3d6fe17776cb94dc3afc938004739d4231434",
      "externalIds": {
        "DOI": "10.59282/reincisol.v3(6)2363-2375",
        "CorpusId": 272873351
      },
      "url": "https://www.semanticscholar.org/paper/44e3d6fe17776cb94dc3afc938004739d4231434",
      "title": "Inside the Classroom: Observations on the Professional Context of an English Teacher",
      "venue": "Reincisol.",
      "year": 2024,
      "referenceCount": 0,
      "citationCount": 0,
      "authors": [
        {
          "authorId": "2297714469",
          "name": "Ximena Marilu Jaen Rigaud"
        }
      ]
    },
    {
      "paperId": "2bfdb2bd5c78f19a397a447273380aae933fd88b",
      "externalIds": {
        "DOI": "10.3126/ojes.v16i1.81549",
        "CorpusId": 280205631
      },
      "url": "https://www.semanticscholar.org/paper/2bfdb2bd5c78f19a397a447273380aae933fd88b",
      "title": "Students’ Perspectives on Translanguaging Practices in English History Classes at a Private University, Bangladesh",
      "venue": "The Outlook: Journal of English Studies",
      "year": 2025,
      "referenceCount": 26,
      "citationCount": 0,
      "authors": [
        {
          "authorId": "2366242142",
          "name": "MD.Mahadi Rahman"
        }
      ]
    },
    {
      "paperId": "061a5a969b1652a3073ecf899ba9e9b09b98e60d",
      "externalIds": {
        "DOI": "10.38035/dijemss.v6i5.4600",
        "CorpusId": 279300490
      },
      "url": "https://www.semanticscholar.org/paper/061a5a969b1652a3073ecf899ba9e9b09b98e60d",
      "title": "Knowledge Management as a Catalyst for Institutional Performance (Empirical Study at Private Universities in the Pantura Region of West Java)",
      "venue": "Dinasti International Journal of Education Management And Social Science",
      "year": 2025,
      "referenceCount": 43,
      "citationCount": 0,
      "authors": [
        {
          "authorId": "2382416571",
          "name": "Rita Sri Silvia Pamuji"
        },
        {
          "authorId": "115956696",
          "name": "Hilmiana Hilmiana"
        }
      ]
    },
    {
      "paperId": "72aeac4b15d400a872b30eba8d33e9ef3668e13c",
      "externalIds": {
        "DOI": "10.47772/ijriss.2026.10100365",
        "CorpusId": 285417710
      },
      "url": "https://www.semanticscholar.org/paper/72aeac4b15d400a872b30eba8d33e9ef3668e13c",
      "title": "The Implementation of AI-Enhanced Dialogic Writing Scaffolding (AI-DWS) In a Malaysian Private Secondary ESL Classroom in Johor",
      "venue": "International journal of research and innovation in social science",
      "year": 2026,
      "referenceCount": 0,
      "citationCount": 0,
      "authors": [
        {
          "authorId": "2409624280",
          "name": "Moganambigai Jayasankar"
        },
        {
          "authorId": "2062191254",
          "name": "J. Peter"
        },
        {
          "authorId": "2409621342",
          "name": "Dr Mohd Haniff bin Mohd Tahir"
        }
      ]
    },
    {
      "paperId": "40153cdedffb6d24eda581f8ba3ed0d168d2eb1a",
      "externalIds": {
        "CorpusId": 247087601
      },
      "url": "https://www.semanticscholar.org/paper/40153cdedffb6d24eda581f8ba3ed0d168d2eb1a",
      "title": "Private linear regression: Can we scale up with Big Data?",
      "venue": "",
      "year": 2021,
      "referenceCount": 5,
      "citationCount": 0,
      "authors": [
        {
          "authorId": "48948465",
          "name": "G. Bruno"
        }
      ]
    },
    {
      "paperId": "853e41e86c4c4409d247f242bec04d1c62f07c2f",
      "externalIds": {
        "DOI": "10.25236/ajcis.2023.061108",
        "CorpusId": 266102764
      },
      "url": "https://www.semanticscholar.org/paper/853e41e86c4c4409d247f242bec04d1c62f07c2f",
      "title": "Application and Security Analysis of Virtual Private Network (VPN) in Network Communication",
      "venue": "Academic Journal of Computing &amp; Information Science",
      "year": 2023,
      "referenceCount": 6,
      "citationCount": 2,
      "authors": [
        {
          "authorId": "2271661802",
          "name": "Zuhe Liu"
        }
      ]
    },
    {
      "paperId": "451d30e035493bd94e938f34c37e98272340176d",
      "externalIds": {
        "MAG": "2892815710",
        "DOI": "10.24815/siele.v5i2.9697",
        "CorpusId": 149948302
      },
      "url": "https://www.semanticscholar.org/paper/451d30e035493bd94e938f34c37e98272340176d",
      "title": "Boosting students’ speaking ability through Community Language Learning",
      "venue": "Studies in English language and education",
      "year": 2018,
      "referenceCount": 37,
      "citationCount": 21,
      "authors": [
        {
          "authorId": "2367898113",
          "name": "Halimah Halimah"
        }
      ]
    },
    {
      "paperId": "55cbf9a80a016eabf4a3fbc4887dca3ff82de240",
      "externalIds": {
        "DOI": "10.32795/v10czh24",
        "CorpusId": 284791911
      },
      "url": "https://www.semanticscholar.org/paper/55cbf9a80a016eabf4a3fbc4887dca3ff82de240",
      "title": "Peran Badan Usaha Milik Desa (BUMDes) Dalam Pengelolaan Potensi Desa Untuk Meningkatkan Pendapatan Asli Desas Maju Mandiri Desa Peguyangan Kaja Denpasar)",
      "venue": "Hita Akuntansi dan Keuangan",
      "year": 2025,
      "referenceCount": 0,
      "citationCount": 1,
      "authors": [
        {
          "authorId": "2284004352",
          "name": "I. K. Putrawan"
        },
        {
          "authorId": "104903111",
          "name": "I. W. Sudiana"
        },
        {
          "authorId": "119250190",
          "name": "Ni Wayan Yuniasih"
        }
      ]
    },
    {
      "paperId": "6ad39963a379fb990832b242d8e66aa17ed9bd54",
      "externalIds": {
        "DOI": "10.1504/ijbaaf.2025.10074556",
        "CorpusId": 282979484
      },
      "url": "https://www.semanticscholar.org/paper/6ad39963a379fb990832b242d8e66aa17ed9bd54",
      "title": "Influence of sampling methods on bankruptcy prediction: normal vs. abnormal economic conditions",
      "venue": "International Journal of Banking, Accounting and Finance",
      "year": 2025,
      "referenceCount": 58,
      "citationCount": 0,
      "authors": [
        {
          "authorId": "121418801",
          "name": "Asif M. Huq"
        },
        {
          "authorId": "2357822378",
          "name": "Wonder Mahembe"
        }
      ]
    }
  ]
}