{
  "total": 20,
  "offset": 0,
  "next": 10,
  "data": [
    {
      "paperId": "96f85119637938c20e274fea14763564a238b154",
      "externalIds": {
        "MAG": "1838330068",
        "DBLP": "conf/icml/PhamRFA15",
        "CorpusId": 1726536
      },
      "url": "https://www.semanticscholar.org/paper/96f85119637938c20e274fea14763564a238b154",
      "title": "Multi-instance multi-label learning in the presence of novel class instances",
      "venue": "International Conference on Machine Learning",
      "year": 2015,
      "referenceCount": 18,
      "citationCount": 46,
      "authors": [
        {
          "authorId": "145877861",
          "name": "A. Pham"
        },
        {
          "authorId": "1911921",
          "name": "R. Raich"
        },
        {
          "authorId": "1694273",
          "name": "Xiaoli Z. Fern"
        },
        {
          "authorId": "2060783501",
          "name": "Jesús Pérez Arriaga"
        }
      ]
    },
    {
      "paperId": "e095507dfc93ccbdd86a6a02521fd969fab95e12",
      "externalIds": {
        "ArXiv": "2604.09064",
        "CorpusId": 287351732
      },
      "url": "https://www.semanticscholar.org/paper/e095507dfc93ccbdd86a6a02521fd969fab95e12",
      "title": "Feature-Label Modal Alignment for Robust Partial Multi-Label Learning",
      "venue": "",
      "year": 2026,
      "referenceCount": 55,
      "citationCount": 0,
      "authors": [
        {
          "authorId": "2345916762",
          "name": "Yu Chen"
        },
        {
          "authorId": "2233497919",
          "name": "Weijun Lv"
        },
        {
          "authorId": "2108716197",
          "name": "Yue Huang"
        },
        {
          "authorId": "2386093702",
          "name": "Xiaozhao Fang"
        },
        {
          "authorId": "2378211531",
          "name": "Jie Wen"
        },
        {
          "authorId": "2319374078",
          "name": "Yong Xu"
        },
        {
          "authorId": "2293684407",
          "name": "Guanbin Li"
        }
      ]
    },
    {
      "paperId": "7377c8d069184c597083ff34dd414f2f5814f083",
      "externalIds": {
        "DBLP": "conf/wacv/GoswamiC24",
        "DOI": "10.1109/WACV57701.2024.00252",
        "CorpusId": 268498926
      },
      "url": "https://www.semanticscholar.org/paper/7377c8d069184c597083ff34dd414f2f5814f083",
      "title": "Active Batch Sampling for Multi-label Classification with Binary User Feedback",
      "venue": "IEEE Workshop/Winter Conference on Applications of Computer Vision",
      "year": 2024,
      "referenceCount": 47,
      "citationCount": 1,
      "authors": [
        {
          "authorId": "2291877521",
          "name": "Debanjan Goswami"
        },
        {
          "authorId": "2471253",
          "name": "Shayok Chakraborty"
        }
      ]
    },
    {
      "paperId": "b598fc0767ddd7bae16657004f0c26c28be05ae1",
      "externalIds": {
        "CorpusId": 15534630
      },
      "url": "https://www.semanticscholar.org/paper/b598fc0767ddd7bae16657004f0c26c28be05ae1",
      "title": "An Abstract of the Project Report of Title: Novelty Detection under the Multi-instance Multi-label Framework Novelty Detection under the Multi-instance Multi-label Framework",
      "venue": "",
      "year": 2014,
      "referenceCount": 32,
      "citationCount": 0,
      "authors": [
        {
          "authorId": "145553880",
          "name": "Qi Lou"
        },
        {
          "authorId": "1694273",
          "name": "Xiaoli Z. Fern"
        }
      ]
    },
    {
      "paperId": "10c6d604ed4d3b3d35674c06ddf1cb319cfa1a4f",
      "externalIds": {
        "MAG": "2967878674",
        "DBLP": "conf/cec/BidgoliER19",
        "DOI": "10.1109/CEC.2019.8790287",
        "CorpusId": 199509142
      },
      "url": "https://www.semanticscholar.org/paper/10c6d604ed4d3b3d35674c06ddf1cb319cfa1a4f",
      "title": "A Novel Multi-objective Binary Differential Evolution Algorithm for Multi-label Feature Selection",
      "venue": "IEEE Congress on Evolutionary Computation",
      "year": 2019,
      "referenceCount": 25,
      "citationCount": 20,
      "authors": [
        {
          "authorId": "30876880",
          "name": "Azam Asilian Bidgoli"
        },
        {
          "authorId": "1402318194",
          "name": "H. Ebrahimpour-Komleh"
        },
        {
          "authorId": "1752500",
          "name": "S. Rahnamayan"
        }
      ]
    },
    {
      "paperId": "1aa21c5e30bc19b265114be66b3a9275d3a25d78",
      "externalIds": {
        "MAG": "2069293554",
        "DBLP": "conf/mlsp/LouRBF13",
        "ArXiv": "1311.6211",
        "DOI": "10.1109/MLSP.2013.6661985",
        "CorpusId": 1367481
      },
      "url": "https://www.semanticscholar.org/paper/1aa21c5e30bc19b265114be66b3a9275d3a25d78",
      "title": "Novelty detection under multi-label multi-instance framework",
      "venue": "International Workshop on Machine Learning for Signal Processing",
      "year": 2013,
      "referenceCount": 15,
      "citationCount": 6,
      "authors": [
        {
          "authorId": "145553880",
          "name": "Qi Lou"
        },
        {
          "authorId": "1911921",
          "name": "R. Raich"
        },
        {
          "authorId": "40022482",
          "name": "Forrest Briggs"
        },
        {
          "authorId": "1694273",
          "name": "Xiaoli Z. Fern"
        }
      ]
    },
    {
      "paperId": "fc07bb97207ef331274b6aa94d202576e0efb52d",
      "externalIds": {
        "DOI": "10.1088/1361-6560/ad69f6",
        "CorpusId": 271598822,
        "PubMed": "39084643"
      },
      "url": "https://www.semanticscholar.org/paper/fc07bb97207ef331274b6aa94d202576e0efb52d",
      "title": "Turning the attention to time-resolved EPID-images: treatment error classification with transformer multiple instance learning",
      "venue": "Physics in Medicine and Biology",
      "year": 2024,
      "referenceCount": 28,
      "citationCount": 1,
      "authors": [
        {
          "authorId": "2314093486",
          "name": "Viacheslav Iarkin"
        },
        {
          "authorId": "29954528",
          "name": "E. D. de Jong"
        },
        {
          "authorId": "2314095083",
          "name": "Rutger Hendrix"
        },
        {
          "authorId": "2250926489",
          "name": "F. Verhaegen"
        },
        {
          "authorId": "34056066",
          "name": "C. Wolfs"
        }
      ]
    },
    {
      "paperId": "89769edd975a96e0dcd1da722f56ebdded5e6d7b",
      "externalIds": {
        "MAG": "1977830066",
        "DBLP": "conf/mm/ChakrabortyBP11",
        "DOI": "10.1145/2072298.2072028",
        "CorpusId": 16442503
      },
      "url": "https://www.semanticscholar.org/paper/89769edd975a96e0dcd1da722f56ebdded5e6d7b",
      "title": "Optimal batch selection for active learning in multi-label classification",
      "venue": "ACM Multimedia",
      "year": 2011,
      "referenceCount": 16,
      "citationCount": 25,
      "authors": [
        {
          "authorId": "2471253",
          "name": "Shayok Chakraborty"
        },
        {
          "authorId": "1699429",
          "name": "V. Balasubramanian"
        },
        {
          "authorId": "1743991",
          "name": "S. Panchanathan"
        }
      ]
    },
    {
      "paperId": "72d2db7113d74fcfbf10ad86c9e41f918403887f",
      "externalIds": {
        "DOI": "10.26686/wgtn.27800259",
        "CorpusId": 274137082
      },
      "url": "https://www.semanticscholar.org/paper/72d2db7113d74fcfbf10ad86c9e41f918403887f",
      "title": "Evolutionary Representation Learning of Structured Multi-label Data",
      "venue": "",
      "year": null,
      "referenceCount": 0,
      "citationCount": 0,
      "authors": [
        {
          "authorId": "2074118962",
          "name": "Kaan Demir"
        }
      ]
    },
    {
      "paperId": "559791bbde89309af99bc5bde4658f712df5823c",
      "externalIds": {
        "CorpusId": 286167679
      },
      "url": "https://www.semanticscholar.org/paper/559791bbde89309af99bc5bde4658f712df5823c",
      "title": "Boosting Class Representation via Semantically Related Instances for Robust Long-Tailed Learning with Noisy Labels",
      "venue": "",
      "year": null,
      "referenceCount": 47,
      "citationCount": 3,
      "authors": [
        {
          "authorId": "2323339555",
          "name": "Yuhang Li"
        },
        {
          "authorId": "2118389305",
          "name": "Zhuyin Li"
        },
        {
          "authorId": "2357856687",
          "name": "Yuheng Jia"
        }
      ]
    }
  ]
}