{
  "total": 117,
  "offset": 0,
  "next": 10,
  "data": [
    {
      "paperId": "d64aa4daca616d113e1279abc16158994503728c",
      "externalIds": {
        "MAG": "2790015441",
        "DBLP": "conf/icml/SunP18",
        "DOI": "10.1101/276253",
        "CorpusId": 13824135
      },
      "url": "https://www.semanticscholar.org/paper/d64aa4daca616d113e1279abc16158994503728c",
      "title": "Scalable approximate Bayesian inference for particle tracking data",
      "venue": "bioRxiv",
      "year": 2018,
      "referenceCount": 22,
      "citationCount": 8,
      "authors": [
        {
          "authorId": "2015991",
          "name": "Ruoxi Sun"
        },
        {
          "authorId": "1763504",
          "name": "L. Paninski"
        }
      ]
    },
    {
      "paperId": "769c54baff4cd92b74c7baf1fa293b5917300983",
      "externalIds": {
        "ArXiv": "2311.09446",
        "CorpusId": 265220719
      },
      "url": "https://www.semanticscholar.org/paper/769c54baff4cd92b74c7baf1fa293b5917300983",
      "title": "Scalable simulation-based inference for implicitly defined models using a metamodel for Monte Carlo log-likelihood estimator",
      "venue": "",
      "year": 2023,
      "referenceCount": 0,
      "citationCount": 1,
      "authors": [
        {
          "authorId": "2254865602",
          "name": "Joonha Park"
        }
      ]
    },
    {
      "paperId": "76a1602ac793f3034f33ffd87bfc2b43fa6a15b3",
      "externalIds": {
        "DOI": "10.1117/12.3060596",
        "CorpusId": 277482781
      },
      "url": "https://www.semanticscholar.org/paper/76a1602ac793f3034f33ffd87bfc2b43fa6a15b3",
      "title": "A particle belief propagation algorithm based on track-before-detect for tracking low-observable and maneuvering targets using multiple sensor",
      "venue": "International Conference on Signal Processing Systems",
      "year": 2025,
      "referenceCount": 20,
      "citationCount": 0,
      "authors": [
        {
          "authorId": "2064671038",
          "name": "Chenghu Cao"
        },
        {
          "authorId": "2332517382",
          "name": "Haisheng Huang"
        },
        {
          "authorId": "2305471551",
          "name": "Yongbo Zhao"
        },
        {
          "authorId": "2333401335",
          "name": "Xin Li"
        },
        {
          "authorId": "2353079825",
          "name": "Peiyuan Hui"
        }
      ]
    },
    {
      "paperId": "a637768e9fb082f0aec1747faeeb6cfe0d0cfc35",
      "externalIds": {
        "ArXiv": "2409.12173",
        "CorpusId": 272708195
      },
      "url": "https://www.semanticscholar.org/paper/a637768e9fb082f0aec1747faeeb6cfe0d0cfc35",
      "title": "Poisson approximate likelihood compared to the particle filter",
      "venue": "",
      "year": 2024,
      "referenceCount": 10,
      "citationCount": 2,
      "authors": [
        {
          "authorId": "2322460723",
          "name": "Yize Hao"
        },
        {
          "authorId": "2321583678",
          "name": "Aaron A. Abkemeier"
        },
        {
          "authorId": "3344471",
          "name": "E. Ionides"
        }
      ]
    },
    {
      "paperId": "d7a1e2b1e5b45b60b7120fe430e6380c6d3e2898",
      "externalIds": {
        "DBLP": "journals/corr/abs-2302-14796",
        "ArXiv": "2302.14796",
        "DOI": "10.48550/arXiv.2302.14796",
        "CorpusId": 257232350
      },
      "url": "https://www.semanticscholar.org/paper/d7a1e2b1e5b45b60b7120fe430e6380c6d3e2898",
      "title": "Particle-based Online Bayesian Sampling",
      "venue": "arXiv.org",
      "year": 2023,
      "referenceCount": 57,
      "citationCount": 9,
      "authors": [
        {
          "authorId": "2108989061",
          "name": "Yifan Yang"
        },
        {
          "authorId": "2118485516",
          "name": "Chang Liu"
        },
        {
          "authorId": "2148905344",
          "name": "Zhengze Zhang"
        }
      ]
    },
    {
      "paperId": "8b57efa88adc8890c19da702beb7fb3558d64cc8",
      "externalIds": {
        "ArXiv": "2010.13921",
        "MAG": "3094897120",
        "CorpusId": 225075613
      },
      "url": "https://www.semanticscholar.org/paper/8b57efa88adc8890c19da702beb7fb3558d64cc8",
      "title": "Bayesian Fusion of Data Partitioned Particle Estimates",
      "venue": "",
      "year": 2020,
      "referenceCount": 20,
      "citationCount": 1,
      "authors": [
        {
          "authorId": "2111447439",
          "name": "C. Miller"
        },
        {
          "authorId": "2087094463",
          "name": "M. Schneider"
        },
        {
          "authorId": "40023580",
          "name": "J. Corcoran"
        },
        {
          "authorId": "153435377",
          "name": "J. Bernstein"
        }
      ]
    },
    {
      "paperId": "64144a72b288cae9c12b9489ea6874b2e1d0762b",
      "externalIds": {
        "DBLP": "journals/tnn/ImaniG22a",
        "DOI": "10.1109/TNNLS.2021.3069172",
        "CorpusId": 233036028,
        "PubMed": "33819163"
      },
      "url": "https://www.semanticscholar.org/paper/64144a72b288cae9c12b9489ea6874b2e1d0762b",
      "title": "Two-Stage Bayesian Optimization for Scalable Inference in State-Space Models",
      "venue": "IEEE Transactions on Neural Networks and Learning Systems",
      "year": 2021,
      "referenceCount": 51,
      "citationCount": 20,
      "authors": [
        {
          "authorId": "3374270",
          "name": "Mahdi Imani"
        },
        {
          "authorId": "72385810",
          "name": "Seyede Fatemeh Ghoreishi"
        }
      ]
    },
    {
      "paperId": "274f12d1d072b540419ec725b6c307f2b3892bd8",
      "externalIds": {
        "ArXiv": "2601.15373",
        "CorpusId": 284935489
      },
      "url": "https://www.semanticscholar.org/paper/274f12d1d072b540419ec725b6c307f2b3892bd8",
      "title": "Hierarchical bayesian inference: constraining population distribution of dark matter halo shapes via stellar streams",
      "venue": "",
      "year": 2026,
      "referenceCount": 3,
      "citationCount": 0,
      "authors": [
        {
          "authorId": "2333423691",
          "name": "David Chemaly"
        },
        {
          "authorId": "2302795674",
          "name": "E. Sola"
        },
        {
          "authorId": "2300285206",
          "name": "Vasily Belokurov"
        },
        {
          "authorId": "3651157",
          "name": "Sergey E. Koposov"
        },
        {
          "authorId": "2406045771",
          "name": "GyuChul Meyong"
        },
        {
          "authorId": "2267057408",
          "name": "Hanyuan Zhang"
        },
        {
          "authorId": "102179770",
          "name": "D. Erkal"
        }
      ]
    },
    {
      "paperId": "ed5df47cdda35ff656a22bd854d69a19172829aa",
      "externalIds": {
        "ArXiv": "1506.03101",
        "DBLP": "conf/aistats/DaiHDS16",
        "MAG": "2953092021",
        "CorpusId": 6586619
      },
      "url": "https://www.semanticscholar.org/paper/ed5df47cdda35ff656a22bd854d69a19172829aa",
      "title": "Provable Bayesian Inference via Particle Mirror Descent",
      "venue": "International Conference on Artificial Intelligence and Statistics",
      "year": 2015,
      "referenceCount": 50,
      "citationCount": 77,
      "authors": [
        {
          "authorId": "144445933",
          "name": "Bo Dai"
        },
        {
          "authorId": "2903347",
          "name": "Niao He"
        },
        {
          "authorId": "2791430",
          "name": "H. Dai"
        },
        {
          "authorId": "1779453",
          "name": "Le Song"
        }
      ]
    },
    {
      "paperId": "1d4538bdf293e7973e9849fea5a6c16954e6adb9",
      "externalIds": {
        "CorpusId": 203649269
      },
      "url": "https://www.semanticscholar.org/paper/1d4538bdf293e7973e9849fea5a6c16954e6adb9",
      "title": "Black Box Variational Inference : Scalable , Generic Bayesian Computation and its Applications",
      "venue": "",
      "year": 2019,
      "referenceCount": 0,
      "citationCount": 0,
      "authors": [
        {
          "authorId": "102645858",
          "name": "K. Terao"
        }
      ]
    }
  ]
}