{
  "total": 90,
  "offset": 0,
  "next": 10,
  "data": [
    {
      "paperId": "be38b79a95a6ee200099a581dcc34750bc7a7b31",
      "externalIds": {
        "DBLP": "conf/icml/JawanpuriaM18",
        "MAG": "2781727191",
        "CorpusId": 44218327
      },
      "url": "https://www.semanticscholar.org/paper/be38b79a95a6ee200099a581dcc34750bc7a7b31",
      "title": "A Unified Framework for Structured Low-rank Matrix Learning",
      "venue": "International Conference on Machine Learning",
      "year": 2017,
      "referenceCount": 65,
      "citationCount": 29,
      "authors": [
        {
          "authorId": "1720974",
          "name": "Pratik Jawanpuria"
        },
        {
          "authorId": "37585320",
          "name": "Bamdev Mishra"
        }
      ]
    },
    {
      "paperId": "eb2ebcf3bccf5be3d2c0a9482421dbd22933f94a",
      "externalIds": {
        "ArXiv": "2502.00899",
        "DBLP": "journals/corr/abs-2502-00899",
        "DOI": "10.48550/arXiv.2502.00899",
        "CorpusId": 276094323
      },
      "url": "https://www.semanticscholar.org/paper/eb2ebcf3bccf5be3d2c0a9482421dbd22933f94a",
      "title": "HASSLE-free: A unified Framework for Sparse plus Low-Rank Matrix Decomposition for LLMs",
      "venue": "arXiv.org",
      "year": 2025,
      "referenceCount": 59,
      "citationCount": 1,
      "authors": [
        {
          "authorId": "2343633632",
          "name": "Mehdi Makni"
        },
        {
          "authorId": "10706882",
          "name": "Kayhan Behdin"
        },
        {
          "authorId": "2343776896",
          "name": "Zheng Xu"
        },
        {
          "authorId": "2282969107",
          "name": "N. Ponomareva"
        },
        {
          "authorId": "2285731917",
          "name": "Rahul Mazumder"
        }
      ]
    },
    {
      "paperId": "7f69c6313d6391b4dfe5021ef514cf407139e864",
      "externalIds": {
        "DBLP": "journals/apin/NtayeZLSIS25",
        "DOI": "10.1007/s10489-025-06879-3",
        "CorpusId": 281544065
      },
      "url": "https://www.semanticscholar.org/paper/7f69c6313d6391b4dfe5021ef514cf407139e864",
      "title": "Robust low-rank representation with structured similarity learning for multi-label classification",
      "venue": "Applied intelligence (Boston)",
      "year": 2025,
      "referenceCount": 67,
      "citationCount": 1,
      "authors": [
        {
          "authorId": "2379806112",
          "name": "Emmanuel Ntaye"
        },
        {
          "authorId": "2286718109",
          "name": "Conghua Zhou"
        },
        {
          "authorId": "2128696107",
          "name": "Zhifeng Liu"
        },
        {
          "authorId": "3309006",
          "name": "Heping Song"
        },
        {
          "authorId": "2174649634",
          "name": "Fadilul-lah Yassaanah Issahaku"
        },
        {
          "authorId": "2343017248",
          "name": "Xiang-Jun Shen"
        }
      ]
    },
    {
      "paperId": "53e737298782b1305f2f5ca3fb5b3eb5daaccfa5",
      "externalIds": {
        "MAG": "2981874448",
        "DBLP": "journals/tsmc/GuoSW21",
        "DOI": "10.1109/TSMC.2019.2946398",
        "CorpusId": 209951982
      },
      "url": "https://www.semanticscholar.org/paper/53e737298782b1305f2f5ca3fb5b3eb5daaccfa5",
      "title": "A Unified Scheme for Distance Metric Learning and Clustering via Rank-Reduced Regression",
      "venue": "IEEE Transactions on Systems, Man, and Cybernetics: Systems",
      "year": 2021,
      "referenceCount": 68,
      "citationCount": 14,
      "authors": [
        {
          "authorId": "144560801",
          "name": "Wenzhong Guo"
        },
        {
          "authorId": "21612260",
          "name": "Yiqing Shi"
        },
        {
          "authorId": "47672719",
          "name": "Shiping Wang"
        }
      ]
    },
    {
      "paperId": "d22e5a349d5cea83db8f2b84db1505159a9f018b",
      "externalIds": {
        "MAG": "1931947167",
        "DBLP": "conf/cvpr/LiV15",
        "DOI": "10.1109/CVPR.2015.7298624",
        "CorpusId": 10150030
      },
      "url": "https://www.semanticscholar.org/paper/d22e5a349d5cea83db8f2b84db1505159a9f018b",
      "title": "Structured Sparse Subspace Clustering: A unified optimization framework",
      "venue": "Computer Vision and Pattern Recognition",
      "year": 2015,
      "referenceCount": 49,
      "citationCount": 202,
      "authors": [
        {
          "authorId": "9171002",
          "name": "Chun-Guang Li"
        },
        {
          "authorId": "144020730",
          "name": "R. Vidal"
        }
      ]
    },
    {
      "paperId": "3ea7b67fd9d2081385bf06143274a23695dbe833",
      "externalIds": {
        "MAG": "2909502737",
        "DBLP": "journals/isci/XueDDL19",
        "DOI": "10.1016/j.ins.2019.01.018",
        "CorpusId": 67791818
      },
      "url": "https://www.semanticscholar.org/paper/3ea7b67fd9d2081385bf06143274a23695dbe833",
      "title": "Deep low-rank subspace ensemble for multi-view clustering",
      "venue": "Information Sciences",
      "year": 2019,
      "referenceCount": 48,
      "citationCount": 103,
      "authors": [
        {
          "authorId": "2052285030",
          "name": "Zhe Xue"
        },
        {
          "authorId": "8491162",
          "name": "Junping Du"
        },
        {
          "authorId": "1910738",
          "name": "Dawei Du"
        },
        {
          "authorId": "1794837",
          "name": "Siwei Lyu"
        }
      ]
    },
    {
      "paperId": "c334f47903ede18e285d28486c994eee0f061040",
      "externalIds": {
        "DBLP": "conf/ijcai/DengLLHTG15",
        "MAG": "2274787793",
        "CorpusId": 16167377
      },
      "url": "https://www.semanticscholar.org/paper/c334f47903ede18e285d28486c994eee0f061040",
      "title": "Multi-View Matrix Decomposition: A New Scheme for Exploring Discriminative Information",
      "venue": "International Joint Conference on Artificial Intelligence",
      "year": 2015,
      "referenceCount": 35,
      "citationCount": 31,
      "authors": [
        {
          "authorId": "145102437",
          "name": "Cheng Deng"
        },
        {
          "authorId": "1962917",
          "name": "Zongting Lv"
        },
        {
          "authorId": "46641573",
          "name": "W. Liu"
        },
        {
          "authorId": "1768190",
          "name": "Junzhou Huang"
        },
        {
          "authorId": "143719920",
          "name": "D. Tao"
        },
        {
          "authorId": "10699750",
          "name": "Xinbo Gao"
        }
      ]
    },
    {
      "paperId": "6d89d982b4362e72c8226c6e4df399cb5371cbcf",
      "externalIds": {
        "DBLP": "conf/ijcai/ZhangW16",
        "MAG": "2572190486",
        "CorpusId": 13534773
      },
      "url": "https://www.semanticscholar.org/paper/6d89d982b4362e72c8226c6e4df399cb5371cbcf",
      "title": "Collaborative Filtering with Generalized Laplacian Constraint via Overlapping Decomposition",
      "venue": "International Joint Conference on Artificial Intelligence",
      "year": 2016,
      "referenceCount": 35,
      "citationCount": 4,
      "authors": [
        {
          "authorId": "2112724532",
          "name": "Qing Zhang"
        },
        {
          "authorId": "1781885",
          "name": "Houfeng Wang"
        }
      ]
    },
    {
      "paperId": "aa2348f7b457b5a776a4dc21e43f969e817fcdd4",
      "externalIds": {
        "DBLP": "journals/inffus/ZhangYQGNZW24",
        "DOI": "10.1016/j.inffus.2024.102347",
        "CorpusId": 268435314
      },
      "url": "https://www.semanticscholar.org/paper/aa2348f7b457b5a776a4dc21e43f969e817fcdd4",
      "title": "Faster nonconvex low-rank matrix learning for image low-level and high-level vision: A unified framework",
      "venue": "Information Fusion",
      "year": 2024,
      "referenceCount": 85,
      "citationCount": 23,
      "authors": [
        {
          "authorId": "48212678",
          "name": "Hengmin Zhang"
        },
        {
          "authorId": "2163840024",
          "name": "Jian Yang"
        },
        {
          "authorId": "40074541",
          "name": "J. Qian"
        },
        {
          "authorId": "2335869137",
          "name": "Chen Gong"
        },
        {
          "authorId": "2309717558",
          "name": "Xin Ning"
        },
        {
          "authorId": "2216475514",
          "name": "Zhiyuan Zha"
        },
        {
          "authorId": "2291586473",
          "name": "Bihan Wen"
        }
      ]
    },
    {
      "paperId": "256463fe35be915e15a8f3af9536d672802756ad",
      "externalIds": {
        "ArXiv": "2601.00549",
        "DBLP": "journals/corr/abs-2601-00549",
        "DOI": "10.48550/arXiv.2601.00549",
        "CorpusId": 284475308
      },
      "url": "https://www.semanticscholar.org/paper/256463fe35be915e15a8f3af9536d672802756ad",
      "title": "CoCo-Fed: A Unified Framework for Memory- and Communication-Efficient Federated Learning at the Wireless Edge",
      "venue": "arXiv.org",
      "year": 2026,
      "referenceCount": 0,
      "citationCount": 1,
      "authors": [
        {
          "authorId": "2193872570",
          "name": "Zhiheng Guo"
        },
        {
          "authorId": "2274262382",
          "name": "Zhaoyang Liu"
        },
        {
          "authorId": "2402425981",
          "name": "Zihan Cen"
        },
        {
          "authorId": "2316834614",
          "name": "Chenyuan Feng"
        },
        {
          "authorId": "2275292878",
          "name": "Xinghua Sun"
        },
        {
          "authorId": "2379722043",
          "name": "Xiang Chen"
        },
        {
          "authorId": "2393123414",
          "name": "Tony Q. S. Quek"
        },
        {
          "authorId": "2348794809",
          "name": "Xijun Wang"
        }
      ]
    }
  ]
}