{
  "total": 16481,
  "offset": 0,
  "next": 10,
  "data": [
    {
      "paperId": "1ef81ba4c4b86d8c58d21f4cf955daf95478191c",
      "externalIds": {
        "MAG": "2804191540",
        "DBLP": "conf/icml/AgarwalPA18",
        "CorpusId": 51870108
      },
      "url": "https://www.semanticscholar.org/paper/1ef81ba4c4b86d8c58d21f4cf955daf95478191c",
      "title": "Accelerated Spectral Ranking",
      "venue": "International Conference on Machine Learning",
      "year": 2018,
      "referenceCount": 27,
      "citationCount": 49,
      "authors": [
        {
          "authorId": "2967743",
          "name": "Arpit Agarwal"
        },
        {
          "authorId": "51130783",
          "name": "Prathamesh Patil"
        },
        {
          "authorId": "2797063",
          "name": "S. Agarwal"
        }
      ]
    },
    {
      "paperId": "783fe904e5434b098526dcf4a7f8666bff41cc16",
      "externalIds": {
        "CorpusId": 53453165
      },
      "url": "https://www.semanticscholar.org/paper/783fe904e5434b098526dcf4a7f8666bff41cc16",
      "title": "Accelerated Spectral Ranking Supplemental Material A. Generalization of the ASR algorithm with Regularization",
      "venue": "",
      "year": 2018,
      "referenceCount": 0,
      "citationCount": 0,
      "authors": []
    },
    {
      "paperId": "393c5923b66169fd4f414f0d48f3a887dca494eb",
      "externalIds": {
        "MAG": "2187781204",
        "DOI": "10.1109/ITAB.2010.5687723",
        "CorpusId": 15639486
      },
      "url": "https://www.semanticscholar.org/paper/393c5923b66169fd4f414f0d48f3a887dca494eb",
      "title": "Towards fast and reliable candidate peptide indexing for Tandem Mass Spectrometry data",
      "venue": "Proceedings of the 10th IEEE International Conference on Information Technology and Applications in Biomedicine",
      "year": 2010,
      "referenceCount": 17,
      "citationCount": 0,
      "authors": [
        {
          "authorId": "1491572030",
          "name": "R. Kuzyakiv"
        },
        {
          "authorId": "50098432",
          "name": "Markus Müller"
        },
        {
          "authorId": "9448173",
          "name": "F. Beekkof"
        },
        {
          "authorId": "2508611",
          "name": "Frédéric Nikitin"
        },
        {
          "authorId": "2258235",
          "name": "F. Lisacek"
        },
        {
          "authorId": "8995309",
          "name": "S. Voloshynovskiy"
        }
      ]
    },
    {
      "paperId": "94e2800629f431d17ef28d4d3cb84c38ed132d27",
      "externalIds": {
        "DBLP": "journals/jcam/TangTZL25",
        "DOI": "10.1016/j.cam.2024.116482",
        "CorpusId": 275340065
      },
      "url": "https://www.semanticscholar.org/paper/94e2800629f431d17ef28d4d3cb84c38ed132d27",
      "title": "An accelerated spectral CG based algorithm for optimization techniques on Riemannian manifolds and its comparative evaluation",
      "venue": "Journal of Computational and Applied Mathematics",
      "year": 2025,
      "referenceCount": 46,
      "citationCount": 6,
      "authors": [
        {
          "authorId": "2247237731",
          "name": "Chunming Tang"
        },
        {
          "authorId": "2201044762",
          "name": "Wancheng Tan"
        },
        {
          "authorId": "2209760941",
          "name": "Yongshen Zhang"
        },
        {
          "authorId": "2386661018",
          "name": "Zhixian Liu"
        }
      ]
    },
    {
      "paperId": "a07ba54a3c63c8fc69958e0910f2a25e1e622206",
      "externalIds": {
        "DOI": "10.5194/gmd-17-6123-2024",
        "CorpusId": 268988407
      },
      "url": "https://www.semanticscholar.org/paper/a07ba54a3c63c8fc69958e0910f2a25e1e622206",
      "title": "Towards a real-time modeling of global ocean waves by the fully GPU-accelerated spectral wave model WAM6-GPU v1.0",
      "venue": "Geoscientific Model Development",
      "year": 2024,
      "referenceCount": 51,
      "citationCount": 9,
      "authors": [
        {
          "authorId": "2274548357",
          "name": "Ye Yuan"
        },
        {
          "authorId": "2274659214",
          "name": "Fujiang Yu"
        },
        {
          "authorId": "2378108098",
          "name": "Zhi Chen"
        },
        {
          "authorId": "2385119535",
          "name": "Xueding Li"
        },
        {
          "authorId": "2358662162",
          "name": "Fang Hou"
        },
        {
          "authorId": "2291382635",
          "name": "Yuanyong Gao"
        },
        {
          "authorId": "2268382549",
          "name": "Zhiyi Gao"
        },
        {
          "authorId": "2274524168",
          "name": "Renbo Pang"
        }
      ]
    },
    {
      "paperId": "e18bc5fd91027704997100d6aaab70c703b050f6",
      "externalIds": {
        "ArXiv": "2308.02918",
        "DBLP": "journals/corr/abs-2308-02918",
        "DOI": "10.2139/ssrn.4539661",
        "CorpusId": 260681360
      },
      "url": "https://www.semanticscholar.org/paper/e18bc5fd91027704997100d6aaab70c703b050f6",
      "title": "Spectral Ranking Inferences based on General Multiway Comparisons",
      "venue": "Social Science Research Network",
      "year": 2023,
      "referenceCount": 49,
      "citationCount": 12,
      "authors": [
        {
          "authorId": "144958605",
          "name": "Jianqing Fan"
        },
        {
          "authorId": "88826453",
          "name": "Zhipeng Lou"
        },
        {
          "authorId": "4974896",
          "name": "Weichen Wang"
        },
        {
          "authorId": "1605759982",
          "name": "Mengxin Yu"
        }
      ]
    },
    {
      "paperId": "639c1e599d66719a81bec9424090c76c08fb5bcd",
      "externalIds": {
        "DBLP": "journals/esticas/KorkmazZMYWCP23",
        "DOI": "10.1109/JETCAS.2023.3237836",
        "CorpusId": 256126141
      },
      "url": "https://www.semanticscholar.org/paper/639c1e599d66719a81bec9424090c76c08fb5bcd",
      "title": "Spectral Ranking in Complex Networks Using Memristor Crossbars",
      "venue": "IEEE Journal on Emerging and Selected Topics in Circuits and Systems",
      "year": 2023,
      "referenceCount": 52,
      "citationCount": 5,
      "authors": [
        {
          "authorId": "40862566",
          "name": "Anil Korkmaz"
        },
        {
          "authorId": "1392179209",
          "name": "Gianluca Zoppo"
        },
        {
          "authorId": "2083716057",
          "name": "Francesco Marrone"
        },
        {
          "authorId": "12489029",
          "name": "Su-in Yi"
        },
        {
          "authorId": "2209866892",
          "name": "R. S. Williams"
        },
        {
          "authorId": "1684325",
          "name": "F. Corinto"
        },
        {
          "authorId": "145451946",
          "name": "S. Palermo"
        }
      ]
    },
    {
      "paperId": "7efb99e4fa4ceb7c09d1c5a1a55fe028257667de",
      "externalIds": {
        "DBLP": "journals/corr/abs-2104-05829",
        "ArXiv": "2104.05829",
        "DOI": "10.1016/j.parco.2022.102982",
        "CorpusId": 233219502
      },
      "url": "https://www.semanticscholar.org/paper/7efb99e4fa4ceb7c09d1c5a1a55fe028257667de",
      "title": "NekRS, a GPU-Accelerated Spectral Element Navier-Stokes Solver",
      "venue": "Parallel Computing",
      "year": 2021,
      "referenceCount": 61,
      "citationCount": 191,
      "authors": [
        {
          "authorId": "144884205",
          "name": "P. Fischer"
        },
        {
          "authorId": "92361791",
          "name": "S. Kerkemeier"
        },
        {
          "authorId": "2063968",
          "name": "M. Min"
        },
        {
          "authorId": "1380730707",
          "name": "Yu-Hsiang Lan"
        },
        {
          "authorId": "14919098",
          "name": "Malachi Phillips"
        },
        {
          "authorId": "40552468",
          "name": "T. Rathnayake"
        },
        {
          "authorId": "4493244",
          "name": "E. Merzari"
        },
        {
          "authorId": "1835896",
          "name": "A. Tomboulides"
        },
        {
          "authorId": "49668392",
          "name": "A. Karakus"
        },
        {
          "authorId": "35894180",
          "name": "N. Chalmers"
        },
        {
          "authorId": "145034765",
          "name": "T. Warburton"
        }
      ]
    },
    {
      "paperId": "27b202e16a6140611a1ac59c37645a5d6d44a37d",
      "externalIds": {
        "DBLP": "journals/corr/abs-2211-07902",
        "ArXiv": "2211.07902",
        "DOI": "10.48550/arXiv.2211.07902",
        "CorpusId": 253522986
      },
      "url": "https://www.semanticscholar.org/paper/27b202e16a6140611a1ac59c37645a5d6d44a37d",
      "title": "Byzantine Spectral Ranking",
      "venue": "Neural Information Processing Systems",
      "year": 2022,
      "referenceCount": 26,
      "citationCount": 6,
      "authors": [
        {
          "authorId": "2029884149",
          "name": "Arnhav Datar"
        },
        {
          "authorId": "143952254",
          "name": "A. Rajkumar"
        },
        {
          "authorId": "50046604",
          "name": "Jonathan C. Augustine"
        }
      ]
    },
    {
      "paperId": "5c7b33470695dc34f2a9a84f4e2eb3c5dfac1ea1",
      "externalIds": {
        "DOI": "10.1039/d3em00295k",
        "CorpusId": 264366073,
        "PubMed": "37882078"
      },
      "url": "https://www.semanticscholar.org/paper/5c7b33470695dc34f2a9a84f4e2eb3c5dfac1ea1",
      "title": "Ranking the accelerated weathering of plastic polymers.",
      "venue": "Environmental Science: Processes & Impacts",
      "year": 2023,
      "referenceCount": 6,
      "citationCount": 29,
      "authors": [
        {
          "authorId": "2251400746",
          "name": "Maryam Hoseini"
        },
        {
          "authorId": "2261712716",
          "name": "Jess Stead"
        },
        {
          "authorId": "2250214555",
          "name": "Tom Bond"
        }
      ]
    }
  ]
}