{
  "total": 6133,
  "offset": 0,
  "next": 10,
  "data": [
    {
      "paperId": "43f2ace8ffd07595cb61ab996f49e187203e8f22",
      "externalIds": {
        "DBLP": "conf/icml/DingLHL16",
        "MAG": "2429995037",
        "CorpusId": 18001467
      },
      "url": "https://www.semanticscholar.org/paper/43f2ace8ffd07595cb61ab996f49e187203e8f22",
      "title": "K-Means Clustering with Distributed Dimensions",
      "venue": "International Conference on Machine Learning",
      "year": 2016,
      "referenceCount": 45,
      "citationCount": 31,
      "authors": [
        {
          "authorId": "144060957",
          "name": "Hu Ding"
        },
        {
          "authorId": "2146399594",
          "name": "Yu Liu"
        },
        {
          "authorId": "2002075",
          "name": "Lingxiao Huang"
        },
        {
          "authorId": "33406918",
          "name": "J. Li"
        }
      ]
    },
    {
      "paperId": "97939acb7edcb4e88b8550313854eb3a6a4ec8fc",
      "externalIds": {
        "CorpusId": 5140233
      },
      "url": "https://www.semanticscholar.org/paper/97939acb7edcb4e88b8550313854eb3a6a4ec8fc",
      "title": "K-Means Clustering with Distributed Dimensions ( Supplement )",
      "venue": "",
      "year": 2016,
      "referenceCount": 2,
      "citationCount": 0,
      "authors": [
        {
          "authorId": "144060957",
          "name": "Hu Ding"
        },
        {
          "authorId": "2146399594",
          "name": "Yu Liu"
        },
        {
          "authorId": "33406918",
          "name": "J. Li"
        }
      ]
    },
    {
      "paperId": "219a13ad0161c815a07afad8e3aba89b0c21f039",
      "externalIds": {
        "DBLP": "conf/cscwd/ZhuZCZ24",
        "DOI": "10.1109/CSCWD61410.2024.10580021",
        "CorpusId": 271090490
      },
      "url": "https://www.semanticscholar.org/paper/219a13ad0161c815a07afad8e3aba89b0c21f039",
      "title": "Differentially Private K-Means Publishing with Distributed Dimensions",
      "venue": "International Conference on Computer Supported Cooperative Work in Design",
      "year": 2024,
      "referenceCount": 16,
      "citationCount": 0,
      "authors": [
        {
          "authorId": "2271521532",
          "name": "Boyu Zhu"
        },
        {
          "authorId": "2259131077",
          "name": "Yuan Zhang"
        },
        {
          "authorId": "46619099",
          "name": "Tingting Chen"
        },
        {
          "authorId": "2310624190",
          "name": "Sheng Zhong"
        }
      ]
    },
    {
      "paperId": "0da7115d640ae91f8a136943d74c38114a130709",
      "externalIds": {
        "DOI": "10.24252/shift.v5i2.205",
        "CorpusId": 279920332
      },
      "url": "https://www.semanticscholar.org/paper/0da7115d640ae91f8a136943d74c38114a130709",
      "title": "Analisa Pola Penyebaran Pengguna Layanan Transjakarta dengan Metode K-Means Clustering",
      "venue": "Journal Software, Hardware and Information Technology",
      "year": 2025,
      "referenceCount": 0,
      "citationCount": 0,
      "authors": [
        {
          "authorId": "98774644",
          "name": "Reynaldi Reynaldi"
        },
        {
          "authorId": "2370325797",
          "name": "Raihan Jamal Faiz Djarot"
        },
        {
          "authorId": "2341407043",
          "name": "M. Wahyudi"
        },
        {
          "authorId": "66973411",
          "name": "Sumanto Sumanto"
        },
        {
          "authorId": "71123809",
          "name": "Ade Surya Budiman"
        }
      ]
    },
    {
      "paperId": "86407171629c0ab4a89b9362fcca4a98f7cbb5dd",
      "externalIds": {
        "PubMedCentral": "10252693",
        "DOI": "10.3390/diagnostics13111957",
        "CorpusId": 259126416,
        "PubMed": "37296809"
      },
      "url": "https://www.semanticscholar.org/paper/86407171629c0ab4a89b9362fcca4a98f7cbb5dd",
      "title": "Effective Early Detection of Epileptic Seizures through EEG Signals Using Classification Algorithms Based on t-Distributed Stochastic Neighbor Embedding and K-Means",
      "venue": "Diagnostics",
      "year": 2023,
      "referenceCount": 59,
      "citationCount": 50,
      "authors": [
        {
          "authorId": "8840812",
          "name": "Khaled M. Alalayah"
        },
        {
          "authorId": "2090708807",
          "name": "Ebrahim Mohammed Senan"
        },
        {
          "authorId": "17746180",
          "name": "Hany F. Atlam"
        },
        {
          "authorId": "144811656",
          "name": "I. Ahmed"
        },
        {
          "authorId": "2154256618",
          "name": "Hamzeh Salameh Ahmad Shatnawi"
        }
      ]
    },
    {
      "paperId": "4b1cc67b6ebaf83e9d00b0b2fafe981b15ea0b9d",
      "externalIds": {
        "DOI": "10.1145/3762249.3762279",
        "CorpusId": 283266055
      },
      "url": "https://www.semanticscholar.org/paper/4b1cc67b6ebaf83e9d00b0b2fafe981b15ea0b9d",
      "title": "Research on the Classification Method of Economic Big Data Based on the k-means Algorithm",
      "venue": "Proceedings of the 2025 2nd International Conference on Digital Economy, Blockchain and Artificial Intelligence",
      "year": 2025,
      "referenceCount": 14,
      "citationCount": 0,
      "authors": [
        {
          "authorId": "2368706820",
          "name": "Gemei Shi"
        }
      ]
    },
    {
      "paperId": "150fa5db4c2b81e33eab6b7934d8ef842085d6bf",
      "externalIds": {
        "DBLP": "journals/tpds/YuZLJYWFYT20",
        "MAG": "2990457403",
        "DOI": "10.1109/TPDS.2019.2955467",
        "CorpusId": 209379829
      },
      "url": "https://www.semanticscholar.org/paper/150fa5db4c2b81e33eab6b7934d8ef842085d6bf",
      "title": "Large-Scale Automatic K-Means Clustering for Heterogeneous Many-Core Supercomputer",
      "venue": "IEEE Transactions on Parallel and Distributed Systems",
      "year": 2020,
      "referenceCount": 44,
      "citationCount": 7,
      "authors": [
        {
          "authorId": "2148338487",
          "name": "Teng Yu"
        },
        {
          "authorId": "2694567",
          "name": "Wenlai Zhao"
        },
        {
          "authorId": "2329304592",
          "name": "Pan Liu"
        },
        {
          "authorId": "1742185116",
          "name": "V. Janjić"
        },
        {
          "authorId": "1492202331",
          "name": "Xiaohan Yan"
        },
        {
          "authorId": "2146440",
          "name": "Shicai Wang"
        },
        {
          "authorId": "1711877",
          "name": "H. Fu"
        },
        {
          "authorId": "145789924",
          "name": "Guangwen Yang"
        },
        {
          "authorId": "153031524",
          "name": "John Thomson"
        }
      ]
    },
    {
      "paperId": "c5cd6ec1c84ca3155c65649bdc05998a5edb0451",
      "externalIds": {
        "MAG": "2786331066",
        "DOI": "10.1109/ICOMICON.2017.8279080",
        "CorpusId": 46758239
      },
      "url": "https://www.semanticscholar.org/paper/c5cd6ec1c84ca3155c65649bdc05998a5edb0451",
      "title": "Kluster: Application of k-means clustering to multidimensional GEO-spatial data",
      "venue": "International Conference on Innovative Computing, Information and Control",
      "year": 2017,
      "referenceCount": 17,
      "citationCount": 6,
      "authors": [
        {
          "authorId": "6476050",
          "name": "Mazin Alkathiri"
        },
        {
          "authorId": "9297180",
          "name": "J. Abdul"
        },
        {
          "authorId": "73675850",
          "name": "Dr. M. B. Potdar"
        }
      ]
    },
    {
      "paperId": "0f7752e78ce446012643906d1397b4edf4d5d7f5",
      "externalIds": {
        "MAG": "2979244013",
        "DBLP": "conf/hpcc/ZengLDLL19",
        "DOI": "10.1109/HPCC/SmartCity/DSS.2019.00284",
        "CorpusId": 203654504
      },
      "url": "https://www.semanticscholar.org/paper/0f7752e78ce446012643906d1397b4edf4d5d7f5",
      "title": "K-Means Parallel Acceleration for Sparse Data Dimensions on Flink",
      "venue": "2019 IEEE 21st International Conference on High Performance Computing and Communications; IEEE 17th International Conference on Smart City; IEEE 5th International Conference on Data Science and Systems (HPCC/SmartCity/DSS)",
      "year": 2019,
      "referenceCount": 16,
      "citationCount": 1,
      "authors": [
        {
          "authorId": "1994554109",
          "name": "Zihao Zeng"
        },
        {
          "authorId": "145730774",
          "name": "Kenli Li"
        },
        {
          "authorId": "48664471",
          "name": "Mingxing Duan"
        },
        {
          "authorId": "2782087",
          "name": "Chubo Liu"
        },
        {
          "authorId": "144078016",
          "name": "Xiangke Liao"
        }
      ]
    },
    {
      "paperId": "2d3859bc390d3fa27dcfd396a69dc82741b7c794",
      "externalIds": {
        "DOI": "10.1109/SoutheastCon63549.2026.11476457",
        "CorpusId": 287641567
      },
      "url": "https://www.semanticscholar.org/paper/2d3859bc390d3fa27dcfd396a69dc82741b7c794",
      "title": "Q-SHaDe: Softwarized Hybrid and Decentralized Clustering for Controller Placement Using Q-Means Algorithm",
      "venue": "SoutheastCon",
      "year": 2026,
      "referenceCount": 13,
      "citationCount": 0,
      "authors": [
        {
          "authorId": "2380055222",
          "name": "Soumyapriya Goswami"
        },
        {
          "authorId": "1508824148",
          "name": "Deborsi Basu"
        },
        {
          "authorId": "2430816255",
          "name": "Bhumika Adhya"
        },
        {
          "authorId": "32643561",
          "name": "Samriddha Sanyal"
        },
        {
          "authorId": "2340531661",
          "name": "Uttam Ghosh"
        }
      ]
    }
  ]
}