{
  "total": 2710,
  "offset": 0,
  "next": 10,
  "data": [
    {
      "paperId": "049c6e5736313374c6e594c34b9be89a3a09dced",
      "externalIds": {
        "MAG": "2949267040",
        "ArXiv": "1703.01161",
        "DBLP": "journals/corr/VezhnevetsOSHJS17",
        "CorpusId": 6656096
      },
      "url": "https://www.semanticscholar.org/paper/049c6e5736313374c6e594c34b9be89a3a09dced",
      "title": "FeUdal Networks for Hierarchical Reinforcement Learning",
      "venue": "International Conference on Machine Learning",
      "year": 2017,
      "referenceCount": 34,
      "citationCount": 1026,
      "authors": [
        {
          "authorId": "9948791",
          "name": "A. Vezhnevets"
        },
        {
          "authorId": "2217144",
          "name": "Simon Osindero"
        },
        {
          "authorId": "1725157",
          "name": "T. Schaul"
        },
        {
          "authorId": "2801204",
          "name": "N. Heess"
        },
        {
          "authorId": "3093886",
          "name": "Max Jaderberg"
        },
        {
          "authorId": "145824029",
          "name": "David Silver"
        },
        {
          "authorId": "2645384",
          "name": "K. Kavukcuoglu"
        }
      ]
    },
    {
      "paperId": "c01b609957538fa6269df9f9d1bafc5b38ee8c11",
      "externalIds": {
        "MAG": "2969255517",
        "CorpusId": 201904113
      },
      "url": "https://www.semanticscholar.org/paper/c01b609957538fa6269df9f9d1bafc5b38ee8c11",
      "title": "Feudal Networks for Hierarchical Reinforcement Learning Revisited",
      "venue": "",
      "year": 2019,
      "referenceCount": 14,
      "citationCount": 0,
      "authors": [
        {
          "authorId": "117983122",
          "name": "A. Augenstein"
        }
      ]
    },
    {
      "paperId": "6c7c8c7222ede7066c28b30818256fe136a97a26",
      "externalIds": {
        "DBLP": "conf/icdl/ZademMN23",
        "ArXiv": "2309.07675",
        "DOI": "10.1109/ICDL55364.2023.10364473",
        "CorpusId": 261125930
      },
      "url": "https://www.semanticscholar.org/paper/6c7c8c7222ede7066c28b30818256fe136a97a26",
      "title": "Goal Space Abstraction in Hierarchical Reinforcement Learning via Set-Based Reachability Analysis",
      "venue": "International Conference on Development and Learning",
      "year": 2023,
      "referenceCount": 33,
      "citationCount": 7,
      "authors": [
        {
          "authorId": "2233495304",
          "name": "Mehdi Zadem"
        },
        {
          "authorId": "2830272",
          "name": "Sergio Mover"
        },
        {
          "authorId": "2709770",
          "name": "S. Nguyen"
        }
      ]
    },
    {
      "paperId": "4aa1228f679f6aebfb3526f8f5b34dbd401b456d",
      "externalIds": {
        "MAG": "2908187766",
        "CorpusId": 59347394
      },
      "url": "https://www.semanticscholar.org/paper/4aa1228f679f6aebfb3526f8f5b34dbd401b456d",
      "title": "Extending Reinforcement Learning FeUdal Networks",
      "venue": "",
      "year": 2018,
      "referenceCount": 0,
      "citationCount": 0,
      "authors": [
        {
          "authorId": "41154196",
          "name": "Nathan Martindale"
        }
      ]
    },
    {
      "paperId": "55ec24632ccfe9d65b0762c43eb5d57514a044cc",
      "externalIds": {
        "MAG": "3039310599",
        "DOI": "10.1007/978-981-15-4095-0_10",
        "CorpusId": 263360523
      },
      "url": "https://www.semanticscholar.org/paper/55ec24632ccfe9d65b0762c43eb5d57514a044cc",
      "title": "Hierarchical Reinforcement Learning",
      "venue": "Deep Reinforcement Learning",
      "year": 2020,
      "referenceCount": 39,
      "citationCount": 1,
      "authors": [
        {
          "authorId": "2145435155",
          "name": "Yanhua Huang"
        }
      ]
    },
    {
      "paperId": "3bd2352120f519130078481593af62cb093907f2",
      "externalIds": {
        "DBLP": "conf/flairs/LiuUK24",
        "DOI": "10.32473/flairs.37.1.135588",
        "CorpusId": 269839843
      },
      "url": "https://www.semanticscholar.org/paper/3bd2352120f519130078481593af62cb093907f2",
      "title": "Leveraging Organizational Hierarchy to Simplify Reward Design in Cooperative Multi-agent Reinforcement Learning",
      "venue": "The Florida AI Research Society",
      "year": 2024,
      "referenceCount": 15,
      "citationCount": 2,
      "authors": [
        {
          "authorId": "2109367034",
          "name": "Lixing Liu"
        },
        {
          "authorId": "2345304",
          "name": "Volkan Ustun"
        },
        {
          "authorId": "2145683612",
          "name": "Rajay Kumar"
        }
      ]
    },
    {
      "paperId": "34da1ee1aea9e7e0575a7dd7a065dd7ba1dd76f2",
      "externalIds": {
        "CorpusId": 113407021
      },
      "url": "https://www.semanticscholar.org/paper/34da1ee1aea9e7e0575a7dd7a065dd7ba1dd76f2",
      "title": "CS 234 Project Final Report : Approaches to Hierarchical Reinforcement Learning",
      "venue": "",
      "year": 2017,
      "referenceCount": 25,
      "citationCount": 0,
      "authors": [
        {
          "authorId": "9414028",
          "name": "Blake Wulfe"
        },
        {
          "authorId": "2073983339",
          "name": "David Hershey"
        }
      ]
    },
    {
      "paperId": "1f28d7a9137b6ca53be6093a872b67ea2578b9c2",
      "externalIds": {
        "MAG": "3034528941",
        "DBLP": "conf/cvpr/JohnsonD20",
        "ArXiv": "2006.06869",
        "DOI": "10.1109/CVPRW50498.2020.00509",
        "CorpusId": 219636429
      },
      "url": "https://www.semanticscholar.org/paper/1f28d7a9137b6ca53be6093a872b67ea2578b9c2",
      "title": "Feudal Steering: Hierarchical Learning for Steering Angle Prediction",
      "venue": "2020 IEEE/CVF Conference on Computer Vision and Pattern Recognition Workshops (CVPRW)",
      "year": 2020,
      "referenceCount": 33,
      "citationCount": 12,
      "authors": [
        {
          "authorId": "143672988",
          "name": "Faith Johnson"
        },
        {
          "authorId": "1710772",
          "name": "Kristin J. Dana"
        }
      ]
    },
    {
      "paperId": "3ea3631df5e992b601cc82d55b9efaebb62717d6",
      "externalIds": {
        "CorpusId": 235784110
      },
      "url": "https://www.semanticscholar.org/paper/3ea3631df5e992b601cc82d55b9efaebb62717d6",
      "title": "Deep Reinforcement Learning in Complex Structured Environments",
      "venue": "",
      "year": 2018,
      "referenceCount": 29,
      "citationCount": 0,
      "authors": [
        {
          "authorId": "2118677017",
          "name": "Bc. Adam Volný"
        }
      ]
    },
    {
      "paperId": "3deecaee4ec1a37de3cb10420eaabff067669e17",
      "externalIds": {
        "DBLP": "journals/corr/FlorensaDA17",
        "MAG": "2606433045",
        "ArXiv": "1704.03012",
        "CorpusId": 7774489
      },
      "url": "https://www.semanticscholar.org/paper/3deecaee4ec1a37de3cb10420eaabff067669e17",
      "title": "Stochastic Neural Networks for Hierarchical Reinforcement Learning",
      "venue": "International Conference on Learning Representations",
      "year": 2016,
      "referenceCount": 53,
      "citationCount": 378,
      "authors": [
        {
          "authorId": "10104623",
          "name": "Carlos Florensa"
        },
        {
          "authorId": "144581158",
          "name": "Yan Duan"
        },
        {
          "authorId": "1689992",
          "name": "P. Abbeel"
        }
      ]
    }
  ]
}