{
  "total": 2063,
  "offset": 0,
  "next": 10,
  "data": [
    {
      "paperId": "48ec33e5e8427804f00892112201659cf03065eb",
      "externalIds": {
        "DBLP": "conf/icml/BhattacharyaGKP16",
        "MAG": "2464779257",
        "CorpusId": 15729655
      },
      "url": "https://www.semanticscholar.org/paper/48ec33e5e8427804f00892112201659cf03065eb",
      "title": "Non-negative Matrix Factorization under Heavy Noise",
      "venue": "International Conference on Machine Learning",
      "year": 2016,
      "referenceCount": 18,
      "citationCount": 13,
      "authors": [
        {
          "authorId": "145880755",
          "name": "C. Bhattacharyya"
        },
        {
          "authorId": "144260125",
          "name": "Navin Goyal"
        },
        {
          "authorId": "144632403",
          "name": "R. Kannan"
        },
        {
          "authorId": "3429133",
          "name": "Jagdeep Pani"
        }
      ]
    },
    {
      "paperId": "75724afcbb3fb2a558e773b016bf2c046976daa5",
      "externalIds": {
        "CorpusId": 10893147
      },
      "url": "https://www.semanticscholar.org/paper/75724afcbb3fb2a558e773b016bf2c046976daa5",
      "title": "Supplement for “ Non-negative Matrix Factorization under Heavy Noise ”",
      "venue": "",
      "year": 2016,
      "referenceCount": 12,
      "citationCount": 0,
      "authors": [
        {
          "authorId": "145880755",
          "name": "C. Bhattacharyya"
        },
        {
          "authorId": "144260125",
          "name": "Navin Goyal"
        },
        {
          "authorId": "3429133",
          "name": "Jagdeep Pani"
        }
      ]
    },
    {
      "paperId": "1e4f0e0ca208615babd75522952bd004216d29ca",
      "externalIds": {
        "DOI": "10.3390/electronics13050829",
        "CorpusId": 267956312
      },
      "url": "https://www.semanticscholar.org/paper/1e4f0e0ca208615babd75522952bd004216d29ca",
      "title": "Influence of α-Stable Noise on the Effectiveness of Non-Negative Matrix Factorization—Simulations and Real Data Analysis",
      "venue": "Electronics",
      "year": 2024,
      "referenceCount": 57,
      "citationCount": 2,
      "authors": [
        {
          "authorId": "2287124396",
          "name": "Anna Michalak"
        },
        {
          "authorId": "1754153",
          "name": "R. Zdunek"
        },
        {
          "authorId": "2243089210",
          "name": "Radosław Zimroz"
        },
        {
          "authorId": "2468112",
          "name": "A. Wyłomańska"
        }
      ]
    },
    {
      "paperId": "91e9df2865a8fd316e9ea29afd6c4bf966eb80ab",
      "externalIds": {
        "PubMedCentral": "12656686",
        "DOI": "10.3390/s25227041",
        "CorpusId": 283180594,
        "PubMed": "41305248"
      },
      "url": "https://www.semanticscholar.org/paper/91e9df2865a8fd316e9ea29afd6c4bf966eb80ab",
      "title": "Robust Sparse Non-Negative Matrix Factorization for Identifying Signals of Interest in Bearing Fault Detection",
      "venue": "Italian National Conference on Sensors",
      "year": 2025,
      "referenceCount": 53,
      "citationCount": 0,
      "authors": [
        {
          "authorId": "1986317",
          "name": "Hamid Shiri"
        },
        {
          "authorId": "2287124396",
          "name": "Anna Michalak"
        }
      ]
    },
    {
      "paperId": "e931a8ecae2698cbcb5975807d051072d86a654c",
      "externalIds": {
        "CorpusId": 51745158
      },
      "url": "https://www.semanticscholar.org/paper/e931a8ecae2698cbcb5975807d051072d86a654c",
      "title": "On the Performance of Manhattan Non-negative Matrix Factorization",
      "venue": "",
      "year": 2016,
      "referenceCount": 56,
      "citationCount": 3,
      "authors": [
        {
          "authorId": "121698214",
          "name": "Tongliang Liu"
        },
        {
          "authorId": "143719920",
          "name": "D. Tao"
        }
      ]
    },
    {
      "paperId": "75bc50a6d4f871d13858f79a2363747f8cabb96a",
      "externalIds": {
        "MAG": "2964302221",
        "ArXiv": "1207.3438",
        "DBLP": "journals/corr/abs-1207-3438",
        "CorpusId": 15475648
      },
      "url": "https://www.semanticscholar.org/paper/75bc50a6d4f871d13858f79a2363747f8cabb96a",
      "title": "MahNMF: Manhattan Non-negative Matrix Factorization",
      "venue": "arXiv.org",
      "year": 2012,
      "referenceCount": 55,
      "citationCount": 161,
      "authors": [
        {
          "authorId": "145542203",
          "name": "Naiyang Guan"
        },
        {
          "authorId": "143719920",
          "name": "D. Tao"
        },
        {
          "authorId": "145254061",
          "name": "Zhigang Luo"
        },
        {
          "authorId": "1404459229",
          "name": "J. Shawe-Taylor"
        }
      ]
    },
    {
      "paperId": "846e2f10146f3c630a5ec2d4c43444cc302571b5",
      "externalIds": {
        "MAG": "2945803074",
        "DOI": "10.1016/J.YMSSP.2019.05.020",
        "CorpusId": 182842568
      },
      "url": "https://www.semanticscholar.org/paper/846e2f10146f3c630a5ec2d4c43444cc302571b5",
      "title": "Novel method of informative frequency band selection for vibration signal using Nonnegative Matrix Factorization of spectrogram matrix",
      "venue": "Mechanical systems and signal processing",
      "year": 2019,
      "referenceCount": 26,
      "citationCount": 46,
      "authors": [
        {
          "authorId": "14266742",
          "name": "J. Wodecki"
        },
        {
          "authorId": "46762312",
          "name": "P. Kruczek"
        },
        {
          "authorId": "2864659",
          "name": "A. Bartkowiak"
        },
        {
          "authorId": "51990970",
          "name": "R. Zimroz"
        },
        {
          "authorId": "2468112",
          "name": "A. Wyłomańska"
        }
      ]
    },
    {
      "paperId": "ef980703a3225d9ec91a918b8835d9c1f572b78f",
      "externalIds": {
        "MAG": "2761043791",
        "DOI": "10.1109/DEMPED.2017.8062345",
        "CorpusId": 2869051
      },
      "url": "https://www.semanticscholar.org/paper/ef980703a3225d9ec91a918b8835d9c1f572b78f",
      "title": "Novel method of informative frequency band selection for vibration signal using nonnegative matrix factorization of short-time fourier transform",
      "venue": "2017 IEEE 11th International Symposium on Diagnostics for Electrical Machines, Power Electronics and Drives (SDEMPED)",
      "year": 2017,
      "referenceCount": 21,
      "citationCount": 7,
      "authors": [
        {
          "authorId": "14266742",
          "name": "J. Wodecki"
        },
        {
          "authorId": "46762312",
          "name": "P. Kruczek"
        },
        {
          "authorId": "2468112",
          "name": "A. Wyłomańska"
        },
        {
          "authorId": "2864659",
          "name": "A. Bartkowiak"
        },
        {
          "authorId": "51990970",
          "name": "R. Zimroz"
        }
      ]
    },
    {
      "paperId": "bf452739df68027c8086913c9f211800e0aeb838",
      "externalIds": {
        "MAG": "2995714726",
        "DBLP": "journals/staeors/YangGWZZ19",
        "DOI": "10.1109/JSTARS.2019.2957017",
        "CorpusId": 211060108
      },
      "url": "https://www.semanticscholar.org/paper/bf452739df68027c8086913c9f211800e0aeb838",
      "title": "2-D Seismic Random Noise Attenuation via Self-Paced Nonnegative Dictionary Learning",
      "venue": "IEEE Journal of Selected Topics in Applied Earth Observations and Remote Sensing",
      "year": 2019,
      "referenceCount": 60,
      "citationCount": 13,
      "authors": [
        {
          "authorId": "2152915895",
          "name": "Yang Yang"
        },
        {
          "authorId": "2154294435",
          "name": "Jinghuai Gao"
        },
        {
          "authorId": "46226422",
          "name": "Zhiguo Wang"
        },
        {
          "authorId": "2116628169",
          "name": "Guowei Zhang"
        },
        {
          "authorId": "13592676",
          "name": "Xiangxiang Zhu"
        }
      ]
    },
    {
      "paperId": "b32fbe2e2634984fc96b2bfbcf3debed65e3233f",
      "externalIds": {
        "DBLP": "conf/interspeech/GermainSM13",
        "MAG": "2397741330",
        "DOI": "10.21437/Interspeech.2013-204",
        "CorpusId": 252577
      },
      "url": "https://www.semanticscholar.org/paper/b32fbe2e2634984fc96b2bfbcf3debed65e3233f",
      "title": "Speaker and noise independent voice activity detection",
      "venue": "Interspeech",
      "year": 2013,
      "referenceCount": 22,
      "citationCount": 48,
      "authors": [
        {
          "authorId": "2044212",
          "name": "François G. Germain"
        },
        {
          "authorId": "36293462",
          "name": "Dennis L. Sun"
        },
        {
          "authorId": "1781063",
          "name": "G. Mysore"
        }
      ]
    }
  ]
}