{
  "total": 484,
  "offset": 0,
  "next": 10,
  "data": [
    {
      "paperId": "f585a01a226c113aa26b636e26644e8d03247be6",
      "externalIds": {
        "DBLP": "conf/icml/NarasimhanRS015",
        "MAG": "1850680945",
        "CorpusId": 3137283
      },
      "url": "https://www.semanticscholar.org/paper/f585a01a226c113aa26b636e26644e8d03247be6",
      "title": "Consistent Multiclass Algorithms for Complex Performance Measures",
      "venue": "International Conference on Machine Learning",
      "year": 2015,
      "referenceCount": 46,
      "citationCount": 66,
      "authors": [
        {
          "authorId": "1727387",
          "name": "H. Narasimhan"
        },
        {
          "authorId": "2508897",
          "name": "H. G. Ramaswamy"
        },
        {
          "authorId": "2892691",
          "name": "Aadirupa Saha"
        },
        {
          "authorId": "2797063",
          "name": "S. Agarwal"
        }
      ]
    },
    {
      "paperId": "6b09db892b1e7899b51709235716ffa6134a42a1",
      "externalIds": {
        "CorpusId": 15416083
      },
      "url": "https://www.semanticscholar.org/paper/6b09db892b1e7899b51709235716ffa6134a42a1",
      "title": "Consistent Multiclass Algorithms for Complex Performance Measures Consistent Multiclass Algorithms for Complex Performance Measures Supplementary Material",
      "venue": "",
      "year": null,
      "referenceCount": 0,
      "citationCount": 0,
      "authors": []
    },
    {
      "paperId": "50df55ea48d9b7f3df66e3d835995bbbed6a79ee",
      "externalIds": {
        "ArXiv": "2210.09695",
        "DBLP": "journals/corr/abs-2210-09695",
        "DOI": "10.48550/arXiv.2210.09695",
        "CorpusId": 252968154
      },
      "url": "https://www.semanticscholar.org/paper/50df55ea48d9b7f3df66e3d835995bbbed6a79ee",
      "title": "Consistent Multiclass Algorithms for Complex Metrics and Constraints",
      "venue": "arXiv.org",
      "year": 2022,
      "referenceCount": 0,
      "citationCount": 11,
      "authors": [
        {
          "authorId": "2163722153",
          "name": "Harikrishna Narasimhan"
        },
        {
          "authorId": "2508897",
          "name": "H. G. Ramaswamy"
        },
        {
          "authorId": "2031410386",
          "name": "S. Tavker"
        },
        {
          "authorId": "1922932670",
          "name": "Drona Khurana"
        },
        {
          "authorId": "1751626",
          "name": "Praneeth Netrapalli"
        },
        {
          "authorId": "2797063",
          "name": "S. Agarwal"
        }
      ]
    },
    {
      "paperId": "2baaf138e2b950e25782c431f82e6bb401913a73",
      "externalIds": {
        "DBLP": "journals/corr/abs-2402-01055",
        "ArXiv": "2402.01055",
        "DOI": "10.48550/arXiv.2402.01055",
        "CorpusId": 267406658
      },
      "url": "https://www.semanticscholar.org/paper/2baaf138e2b950e25782c431f82e6bb401913a73",
      "title": "Multiclass Learning from Noisy Labels for Non-decomposable Performance Measures",
      "venue": "International Conference on Artificial Intelligence and Statistics",
      "year": 2024,
      "referenceCount": 60,
      "citationCount": 3,
      "authors": [
        {
          "authorId": "48984942",
          "name": "Mingyuan Zhang"
        },
        {
          "authorId": "2408850249",
          "name": "Shivani Agarwal"
        }
      ]
    },
    {
      "paperId": "b1da116fdef5b9ca98dab9b098e4a821999bc616",
      "externalIds": {
        "MAG": "2886015681",
        "CorpusId": 69354178
      },
      "url": "https://www.semanticscholar.org/paper/b1da116fdef5b9ca98dab9b098e4a821999bc616",
      "title": "Design and Analysis of Consistent Algorithms for Multiclass Learning Problems",
      "venue": "",
      "year": 2018,
      "referenceCount": 117,
      "citationCount": 2,
      "authors": [
        {
          "authorId": "46468557",
          "name": "G. Harish"
        }
      ]
    },
    {
      "paperId": "1e6806a6dc0bd3cf789ef9b7c0ed446e2d70bcb0",
      "externalIds": {
        "CorpusId": 252712530
      },
      "url": "https://www.semanticscholar.org/paper/1e6806a6dc0bd3cf789ef9b7c0ed446e2d70bcb0",
      "title": "Data-driven Partitioning of Training Data for Complex Multiclass Problems",
      "venue": "",
      "year": 2022,
      "referenceCount": 63,
      "citationCount": 0,
      "authors": [
        {
          "authorId": "31577637",
          "name": "T. R. Balihalli"
        }
      ]
    },
    {
      "paperId": "26b5286c2659658acc90e15759921beb022c6c84",
      "externalIds": {
        "DOI": "10.47794/jesica.v2i2.14",
        "CorpusId": 280770226
      },
      "url": "https://www.semanticscholar.org/paper/26b5286c2659658acc90e15759921beb022c6c84",
      "title": "Comparison of Breadth-First Search (BFS) and Depth-First Search (DFS) Algorithms for Shortest Search in Campus Labyrinth",
      "venue": "Journal of Enhanced Studies in Informatics and Computer Applications",
      "year": 2025,
      "referenceCount": 0,
      "citationCount": 1,
      "authors": [
        {
          "authorId": "2376912941",
          "name": "Ardhan Aghsal Dwi Putra"
        },
        {
          "authorId": "2376906705",
          "name": "Andhika Nur Maulana"
        },
        {
          "authorId": "2376906292",
          "name": "Shasha Billa Febrianti"
        },
        {
          "authorId": "2376908401",
          "name": "Nabila Camelia"
        },
        {
          "authorId": "2376908906",
          "name": "Sabastian Kaka Hutagalung"
        },
        {
          "authorId": "2317460575",
          "name": "Ahsanun Naseh Khudori"
        }
      ]
    },
    {
      "paperId": "03cce0f3923a09fe858a03c8738c3671f4fc99de",
      "externalIds": {
        "DBLP": "journals/cluster/NavyaPR25",
        "DOI": "10.1007/s10586-025-05222-2",
        "CorpusId": 280995641
      },
      "url": "https://www.semanticscholar.org/paper/03cce0f3923a09fe858a03c8738c3671f4fc99de",
      "title": "Quality of service-centric multi-attribute decision-making algorithms for handling unavailable performance data in cloud service selection",
      "venue": "Cluster Computing",
      "year": 2025,
      "referenceCount": 47,
      "citationCount": 2,
      "authors": [
        {
          "authorId": "2364663768",
          "name": "P. Navya"
        },
        {
          "authorId": "2703203",
          "name": "S. K. Panda"
        },
        {
          "authorId": "7387736",
          "name": "R. R. Rout"
        }
      ]
    },
    {
      "paperId": "af66acf7c00c09ede1a28b60bf65c34d8daa4f5f",
      "externalIds": {
        "DOI": "10.1109/AMATHE65477.2025.11081202",
        "CorpusId": 280192057
      },
      "url": "https://www.semanticscholar.org/paper/af66acf7c00c09ede1a28b60bf65c34d8daa4f5f",
      "title": "Feature-Optimized Multiclass Water Quality Detection in Kerala’s Medium Minor Rivers Using Siamese Networks",
      "venue": "2025 International Conference on Advances in Modern Age Technologies for Health and Engineering Science (AMATHE)",
      "year": 2025,
      "referenceCount": 25,
      "citationCount": 0,
      "authors": [
        {
          "authorId": "2372776254",
          "name": "Akash Pv"
        },
        {
          "authorId": "2090403966",
          "name": "N. V. Babu"
        }
      ]
    },
    {
      "paperId": "4402027f3d658424272fac5df7d8c8a2f7cacbfa",
      "externalIds": {
        "MAG": "3007370932",
        "DOI": "10.1109/ICSSD47982.2019.9003052",
        "CorpusId": 211244113
      },
      "url": "https://www.semanticscholar.org/paper/4402027f3d658424272fac5df7d8c8a2f7cacbfa",
      "title": "Performance Evaluation of Machine Learning Algorithms in Handwritten Digits Recognition",
      "venue": "2019 1st International Conference on Smart Systems and Data Science (ICSSD)",
      "year": 2019,
      "referenceCount": 19,
      "citationCount": 43,
      "authors": [
        {
          "authorId": "1500657601",
          "name": "S. Hamida"
        },
        {
          "authorId": "2851976",
          "name": "B. Cherradi"
        },
        {
          "authorId": "8623673",
          "name": "A. Raihani"
        },
        {
          "authorId": "3363705",
          "name": "H. Ouajji"
        }
      ]
    }
  ]
}