{
  "total": 61,
  "offset": 0,
  "next": 10,
  "data": [
    {
      "paperId": "2a6de51d86f13e9eb7efa85491682dad0ccd65e8",
      "externalIds": {
        "MAG": "2592318711",
        "DBLP": "conf/icml/DiakonikolasKK017",
        "ArXiv": "1703.00893",
        "CorpusId": 3849093
      },
      "url": "https://www.semanticscholar.org/paper/2a6de51d86f13e9eb7efa85491682dad0ccd65e8",
      "title": "Being Robust (in High Dimensions) Can Be Practical",
      "venue": "International Conference on Machine Learning",
      "year": 2017,
      "referenceCount": 37,
      "citationCount": 264,
      "authors": [
        {
          "authorId": "1808354",
          "name": "Ilias Diakonikolas"
        },
        {
          "authorId": "143835728",
          "name": "Gautam Kamath"
        },
        {
          "authorId": "2452522",
          "name": "D. Kane"
        },
        {
          "authorId": "2800851",
          "name": "Jerry Li"
        },
        {
          "authorId": "1690962",
          "name": "Ankur Moitra"
        },
        {
          "authorId": "144369932",
          "name": "Alistair Stewart"
        }
      ]
    },
    {
      "paperId": "9d71bf4f9625f59e9eebe3e44a728b196065d695",
      "externalIds": {
        "DOI": "10.1038/s44310-024-00026-5",
        "CorpusId": 270950936
      },
      "url": "https://www.semanticscholar.org/paper/9d71bf4f9625f59e9eebe3e44a728b196065d695",
      "title": "Semiconductor core fibres: a scalable platform for nonlinear photonics",
      "venue": "npj Nanophotonics",
      "year": 2024,
      "referenceCount": 148,
      "citationCount": 9,
      "authors": [
        {
          "authorId": "2284033982",
          "name": "Meng Huang"
        },
        {
          "authorId": "2291212872",
          "name": "J. Ballato"
        },
        {
          "authorId": "2237852336",
          "name": "A. Peacock"
        }
      ]
    },
    {
      "paperId": "69df57086921419a4f8cd43bec6770c9e7ff0b08",
      "externalIds": {
        "DBLP": "journals/access/LiST23",
        "DOI": "10.1109/ACCESS.2023.3336418",
        "CorpusId": 265422308
      },
      "url": "https://www.semanticscholar.org/paper/69df57086921419a4f8cd43bec6770c9e7ff0b08",
      "title": "Reward Distribution in Proof-of-Stake Protocols: A Trade-Off Between Inclusion and Fairness",
      "venue": "IEEE Access",
      "year": 2023,
      "referenceCount": 31,
      "citationCount": 19,
      "authors": [
        {
          "authorId": "1898737743",
          "name": "Sheng-Nan Li"
        },
        {
          "authorId": "52186812",
          "name": "Florian Spychiger"
        },
        {
          "authorId": "2316754566",
          "name": "C. Tessone"
        }
      ]
    },
    {
      "paperId": "729e0a3ebd9385aa60f3bf0dea6a06ef22afd088",
      "externalIds": {
        "PubMedCentral": "5674034",
        "ArXiv": "1609.08062",
        "MAG": "2525585454",
        "DOI": "10.1038/s41467-017-01418-2",
        "CorpusId": 3314476,
        "PubMed": "29109426"
      },
      "url": "https://www.semanticscholar.org/paper/729e0a3ebd9385aa60f3bf0dea6a06ef22afd088",
      "title": "Fault-tolerant interface between quantum memories and quantum processors",
      "venue": "Nature Communications",
      "year": 2016,
      "referenceCount": 51,
      "citationCount": 62,
      "authors": [
        {
          "authorId": "1398691059",
          "name": "Hendrik Poulsen Nautrup"
        },
        {
          "authorId": "50184217",
          "name": "N. Friis"
        },
        {
          "authorId": "32534184",
          "name": "H. Briegel"
        }
      ]
    },
    {
      "paperId": "2e694a2ce3a9adb8f4c8b1535bb0667869f7a7ac",
      "externalIds": {
        "DBLP": "journals/imwut/ZhangPZZWLBCJKF20",
        "MAG": "3083723044",
        "DOI": "10.1145/3411826",
        "CorpusId": 221589918
      },
      "url": "https://www.semanticscholar.org/paper/2e694a2ce3a9adb8f4c8b1535bb0667869f7a7ac",
      "title": "OptoSense",
      "venue": "Proceedings of the ACM on Interactive Mobile Wearable and Ubiquitous Technologies",
      "year": 2020,
      "referenceCount": 69,
      "citationCount": 27,
      "authors": [
        {
          "authorId": "2269068",
          "name": "Dingtian Zhang"
        },
        {
          "authorId": "10732992",
          "name": "Jung Wook Park"
        },
        {
          "authorId": "2145954788",
          "name": "Yang Zhang"
        },
        {
          "authorId": "2109815683",
          "name": "Yuhui Zhao"
        },
        {
          "authorId": "2307187280",
          "name": "Yiyang Wang"
        },
        {
          "authorId": "2110483779",
          "name": "Yunzhi Li"
        },
        {
          "authorId": "115113902",
          "name": "Tanvi Bhagwat"
        },
        {
          "authorId": "27018725",
          "name": "Wen-Fang Chou"
        },
        {
          "authorId": "14348603",
          "name": "Xiaojia Jia"
        },
        {
          "authorId": "46529529",
          "name": "B. Kippelen"
        },
        {
          "authorId": "1398175891",
          "name": "C. Fuentes-Hernandez"
        },
        {
          "authorId": "1738894",
          "name": "Thad Starner"
        },
        {
          "authorId": "9267108",
          "name": "G. Abowd"
        }
      ]
    },
    {
      "paperId": "c137927c65822316f90d54f7cafb25ae6062fcba",
      "externalIds": {
        "DBLP": "journals/corr/KarpukH13",
        "ArXiv": "1309.5247",
        "MAG": "2953044164",
        "DOI": "10.1109/ICC.2014.6884261",
        "CorpusId": 17679290
      },
      "url": "https://www.semanticscholar.org/paper/c137927c65822316f90d54f7cafb25ae6062fcba",
      "title": "Rotating non-uniform and high-dimensional constellations using geodesic flow on lie groups",
      "venue": "2014 IEEE International Conference on Communications (ICC)",
      "year": 2013,
      "referenceCount": 18,
      "citationCount": 3,
      "authors": [
        {
          "authorId": "1737509",
          "name": "David A. Karpuk"
        },
        {
          "authorId": "1709140",
          "name": "C. Hollanti"
        }
      ]
    },
    {
      "paperId": "4f5f2f80215b5df14e6e5ab7431a0dc7d97a30dd",
      "externalIds": {
        "DOI": "10.4218/etrij.2024-0253",
        "CorpusId": 281654600
      },
      "url": "https://www.semanticscholar.org/paper/4f5f2f80215b5df14e6e5ab7431a0dc7d97a30dd",
      "title": "Robust Mahalanobis distance‐based lazy learning method for fault detection in high‐dimensional processes",
      "venue": "ETRI Journal",
      "year": 2025,
      "referenceCount": 42,
      "citationCount": 4,
      "authors": [
        {
          "authorId": "2268728634",
          "name": "Jungwon Yu"
        },
        {
          "authorId": "2330146668",
          "name": "Kwangju Kim"
        },
        {
          "authorId": "2247611450",
          "name": "In-Su Jang"
        }
      ]
    },
    {
      "paperId": "0842bc711e51f59a5f9104801e5337bac983d0c6",
      "externalIds": {
        "DOI": "10.1108/jgoss-04-2023-0031",
        "CorpusId": 267555452
      },
      "url": "https://www.semanticscholar.org/paper/0842bc711e51f59a5f9104801e5337bac983d0c6",
      "title": "Redefining agile supply chain practices in the disruptive era: a case study identifying vital dimensions and factors",
      "venue": "Journal of Global Operations and Strategic Sourcing",
      "year": 2024,
      "referenceCount": 105,
      "citationCount": 30,
      "authors": [
        {
          "authorId": "2216442082",
          "name": "Neelesh Kumar Mishra"
        },
        {
          "authorId": "2283363852",
          "name": "Poorva Pande Sharma"
        },
        {
          "authorId": "2280025280",
          "name": "S. Chaudhary"
        }
      ]
    },
    {
      "paperId": "38393437fd254bc81e217e61ebe5151fff5b2109",
      "externalIds": {
        "DOI": "10.1108/ccij-03-2022-0037",
        "CorpusId": 250326826
      },
      "url": "https://www.semanticscholar.org/paper/38393437fd254bc81e217e61ebe5151fff5b2109",
      "title": "Mapping intrapreneurship through the dimensions of happiness at work and internal communication",
      "venue": "Corporate Communications. An International Journal",
      "year": 2022,
      "referenceCount": 82,
      "citationCount": 30,
      "authors": [
        {
          "authorId": "2273452478",
          "name": "Rafael Ravina-Ripoll"
        },
        {
          "authorId": "2087393287",
          "name": "Esthela Galván-Vela"
        },
        {
          "authorId": "2175200299",
          "name": "Deisy Milena Sorzano-Rodríguez"
        },
        {
          "authorId": "2165275970",
          "name": "Missael Ruíz-Corrales"
        }
      ]
    },
    {
      "paperId": "e550dbd79125ff96fa50c026b71c35ab204a028f",
      "externalIds": {
        "DOI": "10.1007/s44202-025-00554-x",
        "CorpusId": 283824601
      },
      "url": "https://www.semanticscholar.org/paper/e550dbd79125ff96fa50c026b71c35ab204a028f",
      "title": "Mental health quality of life in low- and middle-income countries: an assessment tool",
      "venue": "Discover Psychology",
      "year": 2025,
      "referenceCount": 84,
      "citationCount": 0,
      "authors": [
        {
          "authorId": "1414176331",
          "name": "Susana Castaños-Cervantes"
        },
        {
          "authorId": "2132267863",
          "name": "José Anibal Ojeda-Nuñez"
        },
        {
          "authorId": "2396909513",
          "name": "G. A. Marroquín-Fernández"
        }
      ]
    }
  ]
}