{
  "total": 71,
  "offset": 0,
  "next": 10,
  "data": [
    {
      "paperId": "29b3088eb732e24da810a45a293fdc64ae3230be",
      "externalIds": {
        "DBLP": "conf/icml/AmodioK18",
        "ArXiv": "1803.00385",
        "MAG": "2791457355",
        "CorpusId": 3303339
      },
      "url": "https://www.semanticscholar.org/paper/29b3088eb732e24da810a45a293fdc64ae3230be",
      "title": "MAGAN: Aligning Biological Manifolds",
      "venue": "International Conference on Machine Learning",
      "year": 2018,
      "referenceCount": 30,
      "citationCount": 74,
      "authors": [
        {
          "authorId": "11924907",
          "name": "Matthew Amodio"
        },
        {
          "authorId": "32911702",
          "name": "Smita Krishnaswamy"
        }
      ]
    },
    {
      "paperId": "1d97f2998fde848510c62c5a3a7e2387faed3be1",
      "externalIds": {
        "ArXiv": "2508.06539",
        "DBLP": "journals/corr/abs-2508-06539",
        "DOI": "10.48550/arXiv.2508.06539",
        "CorpusId": 280566117
      },
      "url": "https://www.semanticscholar.org/paper/1d97f2998fde848510c62c5a3a7e2387faed3be1",
      "title": "Self-Organizing Survival Manifolds: A Theory for Unsupervised Discovery of Prognostic Structures in Biological Systems",
      "venue": "arXiv.org",
      "year": 2025,
      "referenceCount": 23,
      "citationCount": 0,
      "authors": [
        {
          "authorId": "2358454877",
          "name": "Atahan Karagoz"
        }
      ]
    },
    {
      "paperId": "5d8198e7aa851035b79e38170f1a62b0ca59e986",
      "externalIds": {
        "DOI": "10.1101/2023.03.11.532146",
        "CorpusId": 257535737
      },
      "url": "https://www.semanticscholar.org/paper/5d8198e7aa851035b79e38170f1a62b0ca59e986",
      "title": "Neural manifolds and learning regimes in neural-interface tasks",
      "venue": "bioRxiv",
      "year": 2023,
      "referenceCount": 53,
      "citationCount": 7,
      "authors": [
        {
          "authorId": "8619718",
          "name": "A. Payeur"
        },
        {
          "authorId": "3078578",
          "name": "A. Orsborn"
        },
        {
          "authorId": "49921594",
          "name": "Guillaume Lajoie"
        }
      ]
    },
    {
      "paperId": "1daccd842e3be7c07b4dcb8e65f26f137ddda86b",
      "externalIds": {
        "CorpusId": 267308688
      },
      "url": "https://www.semanticscholar.org/paper/1daccd842e3be7c07b4dcb8e65f26f137ddda86b",
      "title": "NEURAL MANIFOLDS AND GRADIENT-BASED ADAPTATION IN NEURAL-INTERFACE TASKS",
      "venue": "",
      "year": 2023,
      "referenceCount": 43,
      "citationCount": 2,
      "authors": [
        {
          "authorId": "2281706205",
          "name": "Alexandre Payeur"
        },
        {
          "authorId": "3078578",
          "name": "A. Orsborn"
        },
        {
          "authorId": "2261390836",
          "name": "Guillaume Lajoie"
        }
      ]
    },
    {
      "paperId": "b4c80671196a517ad8c4c25897b4d93fc112c416",
      "externalIds": {
        "ArXiv": "2109.03879",
        "DOI": "10.1103/prxlife.3.023006",
        "CorpusId": 237452726
      },
      "url": "https://www.semanticscholar.org/paper/b4c80671196a517ad8c4c25897b4d93fc112c416",
      "title": "Emergence of Robust Memory Manifolds",
      "venue": "PRX Life",
      "year": 2021,
      "referenceCount": 38,
      "citationCount": 6,
      "authors": [
        {
          "authorId": "10085981",
          "name": "T. Can"
        },
        {
          "authorId": "144501774",
          "name": "K. Krishnamurthy"
        }
      ]
    },
    {
      "paperId": "830bd8a128319e30a606ad345e36fe185b149046",
      "externalIds": {
        "DBLP": "conf/aaai/Pi25",
        "DOI": "10.1609/aaai.v39i28.35338",
        "CorpusId": 277745716
      },
      "url": "https://www.semanticscholar.org/paper/830bd8a128319e30a606ad345e36fe185b149046",
      "title": "Exploring Topological Properties in Artificial Neural Networks",
      "venue": "AAAI Conference on Artificial Intelligence",
      "year": 2025,
      "referenceCount": 0,
      "citationCount": 0,
      "authors": [
        {
          "authorId": "2344249888",
          "name": "Sophia Pi"
        }
      ]
    },
    {
      "paperId": "d9f11a96e7f45d842bdbaccabd2d1c5b6823a22c",
      "externalIds": {
        "PubMedCentral": "12539234",
        "DOI": "10.1016/j.crmeth.2025.101172",
        "CorpusId": 281236548,
        "PubMed": "40925367"
      },
      "url": "https://www.semanticscholar.org/paper/d9f11a96e7f45d842bdbaccabd2d1c5b6823a22c",
      "title": "Toward universal immunofluorescence normalization for multiplex tissue imaging with UniFORM",
      "venue": "Cell Reports Methods",
      "year": 2025,
      "referenceCount": 35,
      "citationCount": 0,
      "authors": [
        {
          "authorId": "2295430650",
          "name": "Kunlun Wang"
        },
        {
          "authorId": "2320224816",
          "name": "Kaoutar Ait-Ahmad"
        },
        {
          "authorId": "2334575953",
          "name": "Samuel D Kupp"
        },
        {
          "authorId": "2300473864",
          "name": "Zachary Sims"
        },
        {
          "authorId": "2372158448",
          "name": "Eric Cramer"
        },
        {
          "authorId": "144071436",
          "name": "Zeynep Sayar"
        },
        {
          "authorId": "2334598516",
          "name": "Jessica Yu"
        },
        {
          "authorId": "2334821362",
          "name": "Melissa H. Wong"
        },
        {
          "authorId": "2349609635",
          "name": "Gordon B. Mills"
        },
        {
          "authorId": "40894458",
          "name": "S. E. Eksi"
        },
        {
          "authorId": "2258802873",
          "name": "Young Hwan Chang"
        }
      ]
    },
    {
      "paperId": "e655a98ec2b9827e4da5f89fc31d4559c5fde7b3",
      "externalIds": {
        "PubMedCentral": "12704003",
        "DOI": "10.1101/2025.11.23.689932",
        "CorpusId": 283290701,
        "PubMed": "41404607"
      },
      "url": "https://www.semanticscholar.org/paper/e655a98ec2b9827e4da5f89fc31d4559c5fde7b3",
      "title": "DiCoLo: Integration-free and cluster-free detection of localized differential gene co-expression in single-cell data",
      "venue": "bioRxiv",
      "year": 2025,
      "referenceCount": 34,
      "citationCount": 0,
      "authors": [
        {
          "authorId": "2267177011",
          "name": "Ruiqi Li"
        },
        {
          "authorId": "29946640",
          "name": "Junchen Yang"
        },
        {
          "authorId": "2365687988",
          "name": "Pei-Chun Su"
        },
        {
          "authorId": "2311113025",
          "name": "Ariel Jaffe"
        },
        {
          "authorId": "3088080",
          "name": "Ofir Lindenbaum"
        },
        {
          "authorId": "40021520",
          "name": "Y. Kluger"
        }
      ]
    },
    {
      "paperId": "f61c995c0011922d196a5f13a150924eb45b3a25",
      "externalIds": {
        "DBLP": "journals/corr/abs-2009-08326",
        "MAG": "3084821360",
        "CorpusId": 221761578
      },
      "url": "https://www.semanticscholar.org/paper/f61c995c0011922d196a5f13a150924eb45b3a25",
      "title": "LAAT: Locally Aligned Ant Technique for detecting manifolds of varying density",
      "venue": "arXiv.org",
      "year": 2020,
      "referenceCount": 42,
      "citationCount": 0,
      "authors": [
        {
          "authorId": "27020162",
          "name": "A. Taghribi"
        },
        {
          "authorId": "1721835",
          "name": "K. Bunte"
        },
        {
          "authorId": "1471674373",
          "name": "Rory J. E. Smith"
        },
        {
          "authorId": "46935690",
          "name": "Jihye Shin"
        },
        {
          "authorId": "94352457",
          "name": "Michele Mastropietro"
        },
        {
          "authorId": "3849051",
          "name": "R. Peletier"
        },
        {
          "authorId": "4023505",
          "name": "P. Tiňo"
        }
      ]
    },
    {
      "paperId": "b0094b21cb83186ce2e1490a037dc72afdf1e3f0",
      "externalIds": {
        "DBLP": "journals/corr/abs-2602-00974",
        "ArXiv": "2602.00974",
        "DOI": "10.48550/arXiv.2602.00974",
        "CorpusId": 285271082
      },
      "url": "https://www.semanticscholar.org/paper/b0094b21cb83186ce2e1490a037dc72afdf1e3f0",
      "title": "Forest-Guided Semantic Transport for Label-Supervised Manifold Alignment",
      "venue": "arXiv.org",
      "year": 2026,
      "referenceCount": 61,
      "citationCount": 0,
      "authors": [
        {
          "authorId": "2268392295",
          "name": "Adrien Aumon"
        },
        {
          "authorId": "2188738719",
          "name": "Myriam Lizotte"
        },
        {
          "authorId": "2264975452",
          "name": "Guy Wolf"
        },
        {
          "authorId": "2252043121",
          "name": "Kevin R. Moon"
        },
        {
          "authorId": "1750954290",
          "name": "Jake S. Rhodes"
        }
      ]
    }
  ]
}