{
  "total": 1123,
  "offset": 0,
  "next": 10,
  "data": [
    {
      "paperId": "0fc4f58406e27f4ab75b6ff8a155ba751926849b",
      "externalIds": {
        "DBLP": "journals/corr/abs-1807-01961",
        "MAG": "2952393066",
        "ArXiv": "1807.01961",
        "CorpusId": 49576770
      },
      "url": "https://www.semanticscholar.org/paper/0fc4f58406e27f4ab75b6ff8a155ba751926849b",
      "title": "A Boo(n) for Evaluating Architecture Performance",
      "venue": "International Conference on Machine Learning",
      "year": 2018,
      "referenceCount": 41,
      "citationCount": 4,
      "authors": [
        {
          "authorId": "3363139",
          "name": "Ondrej Bajgar"
        },
        {
          "authorId": "2100019",
          "name": "Rudolf Kadlec"
        },
        {
          "authorId": "1773749",
          "name": "Jan Kleindienst"
        }
      ]
    },
    {
      "paperId": "a430d6241ff7cdd9adf51347642f768a347dc151",
      "externalIds": {
        "DBLP": "journals/pe/FaustinoGPS24",
        "ArXiv": "2201.07226",
        "DOI": "10.1016/j.peva.2024.102411",
        "CorpusId": 246035729
      },
      "url": "https://www.semanticscholar.org/paper/a430d6241ff7cdd9adf51347642f768a347dc151",
      "title": "Stepwise Migration of a Monolith to a Microservices Architecture: Performance and Migration Effort Evaluation",
      "venue": "Performance evaluation (Print)",
      "year": 2022,
      "referenceCount": 34,
      "citationCount": 29,
      "authors": [
        {
          "authorId": "101054329",
          "name": "Diogo Faustino"
        },
        {
          "authorId": "30761872",
          "name": "N. Gonçalves"
        },
        {
          "authorId": "144174900",
          "name": "Manuel Portela"
        },
        {
          "authorId": "2110090254",
          "name": "A. R. Silva"
        }
      ]
    },
    {
      "paperId": "87e00ad8acdf7ddb5e01285c9a5ec2efe3c1a1de",
      "externalIds": {
        "DOI": "10.1109/ICIIET65921.2025.11378807",
        "CorpusId": 285803542
      },
      "url": "https://www.semanticscholar.org/paper/87e00ad8acdf7ddb5e01285c9a5ec2efe3c1a1de",
      "title": "A Deep Learning-Powered IoT Architecture for Student Performance Assessment Using RFID",
      "venue": "2025 International Conference on Intelligent Innovations in Engineering and Technology (ICIIET)",
      "year": 2025,
      "referenceCount": 23,
      "citationCount": 0,
      "authors": [
        {
          "authorId": "72443120",
          "name": "Jayanthi Muthuswamy"
        },
        {
          "authorId": "2413095733",
          "name": "A. Parvathy"
        },
        {
          "authorId": "16887312",
          "name": "C. Savithri"
        },
        {
          "authorId": "2213496704",
          "name": "C. V. Reddy"
        },
        {
          "authorId": "2262353793",
          "name": "P. Malathi"
        },
        {
          "authorId": "2413102148",
          "name": "D. Samuel"
        }
      ]
    },
    {
      "paperId": "d8f56b556df707775f1a8b8ec497ea3e9975811e",
      "externalIds": {
        "DBLP": "journals/robotics/MoutsisTKG23",
        "DOI": "10.3390/robotics12060167",
        "CorpusId": 266144634
      },
      "url": "https://www.semanticscholar.org/paper/d8f56b556df707775f1a8b8ec497ea3e9975811e",
      "title": "Evaluating the Performance of Mobile-Convolutional Neural Networks for Spatial and Temporal Human Action Recognition Analysis",
      "venue": "Robotics",
      "year": 2023,
      "referenceCount": 55,
      "citationCount": 12,
      "authors": [
        {
          "authorId": "2244512524",
          "name": "Stavros N. Moutsis"
        },
        {
          "authorId": "51304519",
          "name": "Konstantinos A. Tsintotas"
        },
        {
          "authorId": "1490631775",
          "name": "Ioannis Kansizoglou"
        },
        {
          "authorId": "2238341648",
          "name": "Antonios Gasteratos"
        }
      ]
    },
    {
      "paperId": "2ddef4301dc9f9ef0f36e111e83cf8428716c562",
      "externalIds": {
        "DBLP": "journals/corr/abs-2404-14779",
        "ArXiv": "2404.14779",
        "DOI": "10.48550/arXiv.2404.14779",
        "CorpusId": 269302939
      },
      "url": "https://www.semanticscholar.org/paper/2ddef4301dc9f9ef0f36e111e83cf8428716c562",
      "title": "Med42 - Evaluating Fine-Tuning Strategies for Medical LLMs: Full-Parameter vs. Parameter-Efficient Approaches",
      "venue": "arXiv.org",
      "year": 2024,
      "referenceCount": 36,
      "citationCount": 72,
      "authors": [
        {
          "authorId": "2297849088",
          "name": "Cl'ement Christophe"
        },
        {
          "authorId": "2297848890",
          "name": "P. Kanithi"
        },
        {
          "authorId": "102615578",
          "name": "Prateek Munjal"
        },
        {
          "authorId": "1840492875",
          "name": "Tathagata Raha"
        },
        {
          "authorId": "2297848425",
          "name": "Nasir Hayat"
        },
        {
          "authorId": "2297849270",
          "name": "Ronnie Rajan"
        },
        {
          "authorId": "2297848914",
          "name": "Ahmed Al-Mahrooqi"
        },
        {
          "authorId": "2298005616",
          "name": "Avani Gupta"
        },
        {
          "authorId": "2297848569",
          "name": "Muhammad Umar Salman"
        },
        {
          "authorId": "2238627171",
          "name": "Gurpreet Gosal"
        },
        {
          "authorId": "9645616",
          "name": "Bhargav Kanakiya"
        },
        {
          "authorId": "2182971260",
          "name": "Charlie Chen"
        },
        {
          "authorId": "2243228182",
          "name": "N. Vassilieva"
        },
        {
          "authorId": "2125606",
          "name": "B. Amor"
        },
        {
          "authorId": "2308995611",
          "name": "Marco A. F. Pimentel"
        },
        {
          "authorId": "2298728972",
          "name": "Shadab Khan"
        }
      ]
    },
    {
      "paperId": "5e87d06f7195a5708235082eccaa307897761550",
      "externalIds": {
        "DBLP": "conf/gecco/DushatskiyAB22",
        "ArXiv": "2202.02078",
        "DOI": "10.1145/3520304.3533995",
        "CorpusId": 246607806
      },
      "url": "https://www.semanticscholar.org/paper/5e87d06f7195a5708235082eccaa307897761550",
      "title": "Heed the noise in performance evaluations in neural architecture search",
      "venue": "GECCO Companion",
      "year": 2022,
      "referenceCount": 30,
      "citationCount": 2,
      "authors": [
        {
          "authorId": "150010730",
          "name": "A. Dushatskiy"
        },
        {
          "authorId": "3151583",
          "name": "T. Alderliesten"
        },
        {
          "authorId": "1704785",
          "name": "P. Bosman"
        }
      ]
    },
    {
      "paperId": "5d7e8e423dd1e7c2f5a2e070df13cc196ddbbc95",
      "externalIds": {
        "DOI": "10.14529/jsfi230208",
        "CorpusId": 261320157
      },
      "url": "https://www.semanticscholar.org/paper/5d7e8e423dd1e7c2f5a2e070df13cc196ddbbc95",
      "title": "The High Performance Interconnect Architecture for Supercomputers",
      "venue": "Supercomputing Frontiers and Innovations",
      "year": 2023,
      "referenceCount": 23,
      "citationCount": 0,
      "authors": [
        {
          "authorId": "2072075203",
          "name": "A. Simonov"
        },
        {
          "authorId": "2261556956",
          "name": "A. S. Semenov"
        },
        {
          "authorId": "2266866223",
          "name": "Andrey N. Shcherbak"
        },
        {
          "authorId": "2266864399",
          "name": "I. A. Zhabin"
        }
      ]
    },
    {
      "paperId": "998d16beb7c3edbaf5f8314d619ac8a4c89deb9b",
      "externalIds": {
        "DOI": "10.2478/aoas-2024-0018",
        "CorpusId": 268212444
      },
      "url": "https://www.semanticscholar.org/paper/998d16beb7c3edbaf5f8314d619ac8a4c89deb9b",
      "title": "Dietary Curcumin Nanoparticles Improve Growth Performance, Oxidative Status and Immune Response of European Seabass (Dicentrarchus Labrax)",
      "venue": "Annals of Animal Science",
      "year": 2024,
      "referenceCount": 44,
      "citationCount": 5,
      "authors": [
        {
          "authorId": "1422565382",
          "name": "Albandari Bin-ammar"
        },
        {
          "authorId": "2078174605",
          "name": "A. Ahmeda"
        },
        {
          "authorId": "2218331004",
          "name": "Mouadh Abdelkarim"
        },
        {
          "authorId": "2343659860",
          "name": "A. F. Fath El-Bab"
        },
        {
          "authorId": "103528894",
          "name": "A. Amer"
        },
        {
          "authorId": "46548580",
          "name": "S. Abdelnour"
        },
        {
          "authorId": "2223094890",
          "name": "Mohamed M. El-Nawsany"
        },
        {
          "authorId": "2303539938",
          "name": "Ayman M. Mahmoud"
        },
        {
          "authorId": "51975980",
          "name": "M. Naiel"
        }
      ]
    },
    {
      "paperId": "6c2e0b8284eb0986e6f6b7eed7bc49bc9ec3a401",
      "externalIds": {
        "ArXiv": "2402.12790",
        "PubMedCentral": "10975804",
        "DBLP": "journals/sensors/PellanoSI24",
        "DOI": "10.3390/s24061940",
        "CorpusId": 267760164,
        "PubMed": "38544204"
      },
      "url": "https://www.semanticscholar.org/paper/6c2e0b8284eb0986e6f6b7eed7bc49bc9ec3a401",
      "title": "From Movements to Metrics: Evaluating Explainable AI Methods in Skeleton-Based Human Activity Recognition",
      "venue": "Italian National Conference on Sensors",
      "year": 2024,
      "referenceCount": 24,
      "citationCount": 14,
      "authors": [
        {
          "authorId": "31039346",
          "name": "Kimji N. Pellano"
        },
        {
          "authorId": "2243968579",
          "name": "Inga Strümke"
        },
        {
          "authorId": "2282469675",
          "name": "E. A. F. Ihlen"
        }
      ]
    },
    {
      "paperId": "c6b24225b4d5205295349a8d1acc6c7ab8aef9cf",
      "externalIds": {
        "DOI": "10.14569/ijacsa.2025.01612114",
        "CorpusId": 284549278
      },
      "url": "https://www.semanticscholar.org/paper/c6b24225b4d5205295349a8d1acc6c7ab8aef9cf",
      "title": "A Framework Design and Solutions Taxonomy for Performance Optimization in Internet of Things Network",
      "venue": "International Journal of Advanced Computer Science and Applications",
      "year": 2025,
      "referenceCount": 100,
      "citationCount": 0,
      "authors": [
        {
          "authorId": "2340452063",
          "name": "Mariam A. Alotaibi"
        },
        {
          "authorId": "2211703214",
          "name": "Sami S Alwakeel"
        },
        {
          "authorId": "1878838",
          "name": "Aasem N. Alyahya"
        }
      ]
    }
  ]
}