{
  "total": 260,
  "offset": 0,
  "next": 10,
  "data": [
    {
      "paperId": "2db62ac8bc735133f746cc10439f419abf3b3a2c",
      "externalIds": {
        "DBLP": "journals/corr/YangKT17aa",
        "MAG": "2963704562",
        "ArXiv": "1707.01786",
        "CorpusId": 19757771
      },
      "url": "https://www.semanticscholar.org/paper/2db62ac8bc735133f746cc10439f419abf3b3a2c",
      "title": "Tensor-Train Recurrent Neural Networks for Video Classification",
      "venue": "International Conference on Machine Learning",
      "year": 2017,
      "referenceCount": 42,
      "citationCount": 270,
      "authors": [
        {
          "authorId": "3104845",
          "name": "Yinchong Yang"
        },
        {
          "authorId": "2614774",
          "name": "Denis Krompass"
        },
        {
          "authorId": "1700754",
          "name": "Volker Tresp"
        }
      ]
    },
    {
      "paperId": "b521cbedd03518a35ee83802fb2cab28c159d995",
      "externalIds": {
        "DBLP": "conf/icaif/Roa-VicensXSM22",
        "DOI": "10.1145/3533271.3561710",
        "CorpusId": 253022339
      },
      "url": "https://www.semanticscholar.org/paper/b521cbedd03518a35ee83802fb2cab28c159d995",
      "title": "Graph and tensor-train recurrent neural networks for high-dimensional models of limit order books",
      "venue": "International Conference on AI in Finance",
      "year": 2022,
      "referenceCount": 15,
      "citationCount": 0,
      "authors": [
        {
          "authorId": "1452683667",
          "name": "Jacobo Roa-Vicens"
        },
        {
          "authorId": "2110212590",
          "name": "Y. Xu"
        },
        {
          "authorId": "2110683156",
          "name": "Ricardo Silva"
        },
        {
          "authorId": "9368519",
          "name": "D. Mandic"
        }
      ]
    },
    {
      "paperId": "4dde024e470cd62269e68ccbbbefa49a2c42de6b",
      "externalIds": {
        "DOI": "10.1002/sta4.70116",
        "CorpusId": 282711075
      },
      "url": "https://www.semanticscholar.org/paper/4dde024e470cd62269e68ccbbbefa49a2c42de6b",
      "title": "Tensor Train Recurrent Network Language Model Prediction",
      "venue": "Stat",
      "year": 2025,
      "referenceCount": 49,
      "citationCount": 0,
      "authors": [
        {
          "authorId": "2215212997",
          "name": "Alejandro Murua-Sazo"
        },
        {
          "authorId": "31886837",
          "name": "R. Ramakrishnan"
        },
        {
          "authorId": "2108184905",
          "name": "Xinlin Li"
        },
        {
          "authorId": "2345807000",
          "name": "Rui Yang"
        },
        {
          "authorId": "2390137043",
          "name": "Vahid Partovi Nia"
        }
      ]
    },
    {
      "paperId": "bb9a51bfd7be0aeb061f318c3d9201e07aa8c7d6",
      "externalIds": {
        "DBLP": "conf/iwann/KiziltepeGE19",
        "MAG": "2948546066",
        "DOI": "10.1007/978-3-030-20518-8_67",
        "CorpusId": 174804588
      },
      "url": "https://www.semanticscholar.org/paper/bb9a51bfd7be0aeb061f318c3d9201e07aa8c7d6",
      "title": "Combining Very Deep Convolutional Neural Networks and Recurrent Neural Networks for Video Classification",
      "venue": "International Work-Conference on Artificial and Natural Neural Networks",
      "year": 2019,
      "referenceCount": 21,
      "citationCount": 5,
      "authors": [
        {
          "authorId": "134649559",
          "name": "R. Kiziltepe"
        },
        {
          "authorId": "3000774",
          "name": "J. Q. Gan"
        },
        {
          "authorId": "3361843",
          "name": "J. J. Escobar"
        }
      ]
    },
    {
      "paperId": "6035cc1ebfe0798ce05eb5376f1d1c5737eb182f",
      "externalIds": {
        "PubMedCentral": "12787980",
        "DOI": "10.3390/s26010027",
        "CorpusId": 284202311,
        "PubMed": "41516462"
      },
      "url": "https://www.semanticscholar.org/paper/6035cc1ebfe0798ce05eb5376f1d1c5737eb182f",
      "title": "Recurrent Neural Networks for Mexican Sign Language Interpretation in Healthcare Services",
      "venue": "Italian National Conference on Sensors",
      "year": 2025,
      "referenceCount": 32,
      "citationCount": 0,
      "authors": [
        {
          "authorId": "2400787324",
          "name": "Armando de Jesús Becerril-Carrillo"
        },
        {
          "authorId": "2400786046",
          "name": "Héctor Julián Selley-Rojas"
        },
        {
          "authorId": "2326182967",
          "name": "Elizabeth Guevara-Martínez"
        }
      ]
    },
    {
      "paperId": "46e240ec1bedb1ca4481ae7648f18201364f7573",
      "externalIds": {
        "DBLP": "journals/tie/ZhaoLL21",
        "MAG": "3010790568",
        "DOI": "10.1109/TIE.2020.2979573",
        "CorpusId": 216494451
      },
      "url": "https://www.semanticscholar.org/paper/46e240ec1bedb1ca4481ae7648f18201364f7573",
      "title": "TTH-RNN: Tensor-Train Hierarchical Recurrent Neural Network for Video Summarization",
      "venue": "IEEE transactions on industrial electronics (1982. Print)",
      "year": 2021,
      "referenceCount": 46,
      "citationCount": 83,
      "authors": [
        {
          "authorId": "2112632528",
          "name": "Bin Zhao"
        },
        {
          "authorId": "67180560",
          "name": "Xuelong Li"
        },
        {
          "authorId": "7828998",
          "name": "Xiaoqiang Lu"
        }
      ]
    },
    {
      "paperId": "46159a3dab89a3db3095acb9549636017584e072",
      "externalIds": {
        "DBLP": "journals/tnn/MaLZDP25",
        "DOI": "10.1109/TNNLS.2024.3511575",
        "CorpusId": 276750353,
        "PubMed": "40030676"
      },
      "url": "https://www.semanticscholar.org/paper/46159a3dab89a3db3095acb9549636017584e072",
      "title": "Fully Tensorized Lightweight ConvLSTM Neural Networks for Hyperspectral Image Classification",
      "venue": "IEEE Transactions on Neural Networks and Learning Systems",
      "year": 2024,
      "referenceCount": 73,
      "citationCount": 7,
      "authors": [
        {
          "authorId": "2147331309",
          "name": "T. Ma"
        },
        {
          "authorId": "2335478749",
          "name": "Heng Li"
        },
        {
          "authorId": "2237407070",
          "name": "Yu-Bang Zheng"
        },
        {
          "authorId": "2072520954",
          "name": "Q. Du"
        },
        {
          "authorId": "2348334659",
          "name": "Antonio Plaza"
        }
      ]
    },
    {
      "paperId": "ed1fe0b01c0e97fa840dc4d9f020e8ce1f7ea3c7",
      "externalIds": {
        "MAG": "2526449353",
        "DBLP": "conf/mm/YangMK16",
        "DOI": "10.1145/2964284.2964297",
        "CorpusId": 13885316
      },
      "url": "https://www.semanticscholar.org/paper/ed1fe0b01c0e97fa840dc4d9f020e8ce1f7ea3c7",
      "title": "Multilayer and Multimodal Fusion of Deep Neural Networks for Video Classification",
      "venue": "ACM Multimedia",
      "year": 2016,
      "referenceCount": 54,
      "citationCount": 113,
      "authors": [
        {
          "authorId": "38101706",
          "name": "Xiaodong Yang"
        },
        {
          "authorId": "2824500",
          "name": "Pavlo Molchanov"
        },
        {
          "authorId": "2376331450",
          "name": "Jan Kautz"
        }
      ]
    },
    {
      "paperId": "b0bb2de5b9bd7b350cba97adea5826226329ab5a",
      "externalIds": {
        "MAG": "2916145674",
        "DOI": "10.1109/ICSEE.2018.8646076",
        "CorpusId": 67875212
      },
      "url": "https://www.semanticscholar.org/paper/b0bb2de5b9bd7b350cba97adea5826226329ab5a",
      "title": "Low-Complexity Video Classification using Recurrent Neural Networks",
      "venue": "IEEE International Conference on Science of Electrical Engineering",
      "year": 2018,
      "referenceCount": 9,
      "citationCount": 4,
      "authors": [
        {
          "authorId": "2412771955",
          "name": "I. Abramovich"
        },
        {
          "authorId": "1411460100",
          "name": "Tomer Ben-Yehuda"
        },
        {
          "authorId": "144884114",
          "name": "Rami Cohen"
        }
      ]
    },
    {
      "paperId": "1def485dcca7b12fd088d12c5a9efa253cd2c816",
      "externalIds": {
        "DBLP": "conf/glvlsi/LiuHLPH0D021",
        "DOI": "10.1145/3453688.3461748",
        "CorpusId": 235474592
      },
      "url": "https://www.semanticscholar.org/paper/1def485dcca7b12fd088d12c5a9efa253cd2c816",
      "title": "An Efficient Video Prediction Recurrent Network using Focal Loss and Decomposed Tensor Train for Imbalance Dataset",
      "venue": "ACM Great Lakes Symposium on VLSI",
      "year": 2021,
      "referenceCount": 28,
      "citationCount": 4,
      "authors": [
        {
          "authorId": "2124497411",
          "name": "Mingshuo Liu"
        },
        {
          "authorId": "2114180942",
          "name": "Kevin Han"
        },
        {
          "authorId": "2114030010",
          "name": "Shiying Luo"
        },
        {
          "authorId": "2113622060",
          "name": "Mingze Pan"
        },
        {
          "authorId": "2350515235",
          "name": "Mousam Hossain"
        },
        {
          "authorId": "2055907757",
          "name": "Bo Yuan"
        },
        {
          "authorId": "1727179",
          "name": "R. Demara"
        },
        {
          "authorId": "2115834038",
          "name": "Y. Bai"
        }
      ]
    }
  ]
}