{
  "total": 1025,
  "offset": 0,
  "next": 10,
  "data": [
    {
      "paperId": "12f67fb182bc934fc95ce97acff553d83e2ca72e",
      "externalIds": {
        "DBLP": "conf/icml/OstrovskiBOM17",
        "ArXiv": "1703.01310",
        "MAG": "2963160877",
        "CorpusId": 2924063
      },
      "url": "https://www.semanticscholar.org/paper/12f67fb182bc934fc95ce97acff553d83e2ca72e",
      "title": "Count-Based Exploration with Neural Density Models",
      "venue": "International Conference on Machine Learning",
      "year": 2017,
      "referenceCount": 36,
      "citationCount": 679,
      "authors": [
        {
          "authorId": "2273072",
          "name": "Georg Ostrovski"
        },
        {
          "authorId": "1792298",
          "name": "Marc G. Bellemare"
        },
        {
          "authorId": "3422336",
          "name": "Aäron van den Oord"
        },
        {
          "authorId": "1708654",
          "name": "R. Munos"
        }
      ]
    },
    {
      "paperId": "c09f07b78b80bd0fff1a9011bda0f192b5d14599",
      "externalIds": {
        "CorpusId": 5746848
      },
      "url": "https://www.semanticscholar.org/paper/c09f07b78b80bd0fff1a9011bda0f192b5d14599",
      "title": "Count-Based Exploration with Neural Density Models",
      "venue": "",
      "year": 2017,
      "referenceCount": 0,
      "citationCount": 21,
      "authors": []
    },
    {
      "paperId": "6e90fd78e8a3b98af3954aae5209703aa966603e",
      "externalIds": {
        "MAG": "2951765831",
        "DBLP": "conf/nips/BellemareSOSSM16",
        "ArXiv": "1606.01868",
        "CorpusId": 8310565
      },
      "url": "https://www.semanticscholar.org/paper/6e90fd78e8a3b98af3954aae5209703aa966603e",
      "title": "Unifying Count-Based Exploration and Intrinsic Motivation",
      "venue": "Neural Information Processing Systems",
      "year": 2016,
      "referenceCount": 62,
      "citationCount": 1639,
      "authors": [
        {
          "authorId": "1792298",
          "name": "Marc G. Bellemare"
        },
        {
          "authorId": "40615554",
          "name": "S. Srinivasan"
        },
        {
          "authorId": "2273072",
          "name": "Georg Ostrovski"
        },
        {
          "authorId": "1725157",
          "name": "T. Schaul"
        },
        {
          "authorId": "143810408",
          "name": "D. Saxton"
        },
        {
          "authorId": "1708654",
          "name": "R. Munos"
        }
      ]
    },
    {
      "paperId": "4eb38b3460606a4042b04fc52d0044ab948b4a17",
      "externalIds": {
        "DBLP": "conf/nips/FuCL17",
        "ArXiv": "1703.01260",
        "MAG": "2604373826",
        "CorpusId": 1581015
      },
      "url": "https://www.semanticscholar.org/paper/4eb38b3460606a4042b04fc52d0044ab948b4a17",
      "title": "EX2: Exploration with Exemplar Models for Deep Reinforcement Learning",
      "venue": "Neural Information Processing Systems",
      "year": 2017,
      "referenceCount": 36,
      "citationCount": 162,
      "authors": [
        {
          "authorId": "2550764",
          "name": "Justin Fu"
        },
        {
          "authorId": "1388383230",
          "name": "John D. Co-Reyes"
        },
        {
          "authorId": "1736651",
          "name": "S. Levine"
        }
      ]
    },
    {
      "paperId": "7630bd57705d3aa7f38e27fd29fff65136c1cd46",
      "externalIds": {
        "PubMedCentral": "11833119",
        "DOI": "10.1038/s41598-025-90430-4",
        "CorpusId": 276420635,
        "PubMed": "39962323"
      },
      "url": "https://www.semanticscholar.org/paper/7630bd57705d3aa7f38e27fd29fff65136c1cd46",
      "title": "Deep convolutional neural network-based enhanced crowd density monitoring for intelligent urban planning on smart cities",
      "venue": "Scientific Reports",
      "year": 2025,
      "referenceCount": 29,
      "citationCount": 16,
      "authors": [
        {
          "authorId": "2326173707",
          "name": "Wahida Mansouri"
        },
        {
          "authorId": "2138747453",
          "name": "Manal Abdullah Alohali"
        },
        {
          "authorId": "2336068113",
          "name": "Hamed Alqahtani"
        },
        {
          "authorId": "101702411",
          "name": "N. Alruwais"
        },
        {
          "authorId": "2003457066",
          "name": "Menwa Alshammeri"
        },
        {
          "authorId": "2330313319",
          "name": "Ahmed Mahmud"
        }
      ]
    },
    {
      "paperId": "c0de982f05126715ed9b04480c44b9d7945d128b",
      "externalIds": {
        "DOI": "10.52562/injoes.2024.1021",
        "CorpusId": 272080575
      },
      "url": "https://www.semanticscholar.org/paper/c0de982f05126715ed9b04480c44b9d7945d128b",
      "title": "Density Well Log Prediction in X Field Niger Delta using Ensemble Learning Models and Artificial Neural Network",
      "venue": "Indonesian Journal of Earth Sciences",
      "year": 2024,
      "referenceCount": 26,
      "citationCount": 1,
      "authors": [
        {
          "authorId": "2317701215",
          "name": "Patient K. Mulekya"
        },
        {
          "authorId": "104397008",
          "name": "O. A. Boboye"
        },
        {
          "authorId": "29452005",
          "name": "M. Adabanija"
        },
        {
          "authorId": "2281132985",
          "name": "K. Numbi"
        },
        {
          "authorId": "2317162060",
          "name": "Tomisin B. Baba"
        }
      ]
    },
    {
      "paperId": "89ca48deb97a06fde89ad17f026759205160fdcf",
      "externalIds": {
        "DOI": "10.1063/5.0293419",
        "CorpusId": 282321762,
        "PubMed": "41133877"
      },
      "url": "https://www.semanticscholar.org/paper/89ca48deb97a06fde89ad17f026759205160fdcf",
      "title": "Machine learning prediction and experimental exploration of liquid-state density and viscosity for rare earth alloys.",
      "venue": "Journal of Chemical Physics",
      "year": 2025,
      "referenceCount": 23,
      "citationCount": 1,
      "authors": [
        {
          "authorId": "2363894694",
          "name": "Y. P. Zheng"
        },
        {
          "authorId": "2365275314",
          "name": "Y. Ma"
        },
        {
          "authorId": "2240882229",
          "name": "W. G. Kang"
        },
        {
          "authorId": "2381482571",
          "name": "W. Zhai"
        },
        {
          "authorId": "2387823959",
          "name": "F. X. Hu"
        },
        {
          "authorId": "2261869248",
          "name": "B. Shen"
        },
        {
          "authorId": "2240909586",
          "name": "B. Wei"
        }
      ]
    },
    {
      "paperId": "ed8841976bc7c5d122705d7cf03fce27f92219c8",
      "externalIds": {
        "ArXiv": "2405.10325",
        "CorpusId": 269899868
      },
      "url": "https://www.semanticscholar.org/paper/ed8841976bc7c5d122705d7cf03fce27f92219c8",
      "title": "Uncertainty and Exploration of Deep Learning-based Atomistic Models for Screening Molten Salt Properties and Compositions",
      "venue": "",
      "year": 2024,
      "referenceCount": 4,
      "citationCount": 0,
      "authors": [
        {
          "authorId": "2056429038",
          "name": "Stephen T Lam"
        },
        {
          "authorId": "2185751093",
          "name": "Shubhojit Banerjee"
        },
        {
          "authorId": "93103045",
          "name": "Rajni Chahal"
        }
      ]
    },
    {
      "paperId": "29c2c6ff2c454b2f9e21f16cddf1e3d1a4f21881",
      "externalIds": {
        "DOI": "10.1109/ECCE55643.2024.10860758",
        "CorpusId": 276272852
      },
      "url": "https://www.semanticscholar.org/paper/29c2c6ff2c454b2f9e21f16cddf1e3d1a4f21881",
      "title": "Neural Network Trained Cold-plate Models for Modular Converter Exploration",
      "venue": "European Conference on Cognitive Ergonomics",
      "year": 2024,
      "referenceCount": 18,
      "citationCount": 2,
      "authors": [
        {
          "authorId": "2309833512",
          "name": "Hamed Shabani"
        },
        {
          "authorId": "2268015853",
          "name": "R. Cuzner"
        },
        {
          "authorId": "2283029960",
          "name": "J. Ordonez"
        },
        {
          "authorId": "2128117775",
          "name": "C. Marques"
        }
      ]
    },
    {
      "paperId": "97e7495906ff9a6d62ee4a5031ed62f183e21fd6",
      "externalIds": {
        "DOI": "10.46717/igj.2025.58.1f.7",
        "CorpusId": 279786934
      },
      "url": "https://www.semanticscholar.org/paper/97e7495906ff9a6d62ee4a5031ed62f183e21fd6",
      "title": "From Vision to Validation: Artificial Neural Networks for Novel Compressional and Shear Wave Velocity Models in Iraqi Carbonate Formations",
      "venue": "Iraqi Geological Journal",
      "year": 2025,
      "referenceCount": 0,
      "citationCount": 0,
      "authors": [
        {
          "authorId": "2369516410",
          "name": "Hussein Ali Ayyed"
        },
        {
          "authorId": "2248340595",
          "name": "F. Hadi"
        }
      ]
    }
  ]
}