{
  "total": 2297,
  "offset": 0,
  "next": 10,
  "data": [
    {
      "paperId": "5b71a3a29499cfb0b7aa29f8468d63e9792a95e5",
      "externalIds": {
        "MAG": "2950230027",
        "ArXiv": "1802.04846",
        "DBLP": "conf/icml/NickischSG18",
        "CorpusId": 51881272
      },
      "url": "https://www.semanticscholar.org/paper/5b71a3a29499cfb0b7aa29f8468d63e9792a95e5",
      "title": "State Space Gaussian Processes with Non-Gaussian Likelihood",
      "venue": "International Conference on Machine Learning",
      "year": 2018,
      "referenceCount": 43,
      "citationCount": 32,
      "authors": [
        {
          "authorId": "1748758",
          "name": "H. Nickisch"
        },
        {
          "authorId": "145410662",
          "name": "Arno Solin"
        },
        {
          "authorId": "51135699",
          "name": "A. Grigorevskiy"
        }
      ]
    },
    {
      "paperId": "40cf4a1ea86c196b1be46a5c663c85cb6171ea30",
      "externalIds": {
        "MAG": "2155963040",
        "DBLP": "conf/amcc/TadicD04",
        "DOI": "10.23919/ACC.2004.1384713",
        "CorpusId": 1510149
      },
      "url": "https://www.semanticscholar.org/paper/40cf4a1ea86c196b1be46a5c663c85cb6171ea30",
      "title": "A simulation based algorithm for optimal quantization in non-linear/non-Gaussian state-space models",
      "venue": "Proceedings of the 2004 American Control Conference",
      "year": 2004,
      "referenceCount": 12,
      "citationCount": 0,
      "authors": [
        {
          "authorId": "2677761",
          "name": "V. Tadic"
        },
        {
          "authorId": "1701800",
          "name": "A. Doucet"
        }
      ]
    },
    {
      "paperId": "5f386bd65d4fed63c2bf2655b45d46c859adaaac",
      "externalIds": {
        "MAG": "2915289654",
        "CorpusId": 88517350
      },
      "url": "https://www.semanticscholar.org/paper/5f386bd65d4fed63c2bf2655b45d46c859adaaac",
      "title": "Efficient Bayesian inference for univariate and multivariate non linear state space models with univariate autoregressive state equation",
      "venue": "",
      "year": 2019,
      "referenceCount": 62,
      "citationCount": 3,
      "authors": [
        {
          "authorId": "145616362",
          "name": "A. Kreuzer"
        },
        {
          "authorId": "2531231",
          "name": "C. Czado"
        }
      ]
    },
    {
      "paperId": "fa3dad20b8deedf5f4ce27f266f8e05e73792163",
      "externalIds": {
        "CorpusId": 199479112
      },
      "url": "https://www.semanticscholar.org/paper/fa3dad20b8deedf5f4ce27f266f8e05e73792163",
      "title": "Bayesian Parameter Estimation of State-Space Models with Intractable Likelihood",
      "venue": "",
      "year": 2019,
      "referenceCount": 41,
      "citationCount": 0,
      "authors": [
        {
          "authorId": "2069592509",
          "name": "Bc. Tomáš Kala"
        }
      ]
    },
    {
      "paperId": "f680789ef7213a54a53931c3965169d698b276a3",
      "externalIds": {
        "CorpusId": 201084827
      },
      "url": "https://www.semanticscholar.org/paper/f680789ef7213a54a53931c3965169d698b276a3",
      "title": "D ec 2 01 1 CARMA Processes driven by Non-Gaussian Noise",
      "venue": "",
      "year": 2018,
      "referenceCount": 57,
      "citationCount": 0,
      "authors": [
        {
          "authorId": "47589253",
          "name": "R. Stelzer"
        }
      ]
    },
    {
      "paperId": "85e16ab96937ef45dadc2528ca97d33863db39c3",
      "externalIds": {
        "MAG": "2951234675",
        "DBLP": "journals/corr/abs-1811-06588",
        "ArXiv": "1811.06588",
        "CorpusId": 53670030
      },
      "url": "https://www.semanticscholar.org/paper/85e16ab96937ef45dadc2528ca97d33863db39c3",
      "title": "Infinite-Horizon Gaussian Processes",
      "venue": "Neural Information Processing Systems",
      "year": 2018,
      "referenceCount": 37,
      "citationCount": 28,
      "authors": [
        {
          "authorId": "145410662",
          "name": "Arno Solin"
        },
        {
          "authorId": "3166500",
          "name": "J. Hensman"
        },
        {
          "authorId": "145369890",
          "name": "Richard E. Turner"
        }
      ]
    },
    {
      "paperId": "894cd95846f7113c7c957fe6d6d14d85d3e72de1",
      "externalIds": {
        "MAG": "2015219190",
        "ArXiv": "1210.7447",
        "DOI": "10.1214/12-EJS743",
        "CorpusId": 19036555
      },
      "url": "https://www.semanticscholar.org/paper/894cd95846f7113c7c957fe6d6d14d85d3e72de1",
      "title": "Quasi maximum likelihood estimation for strongly mixing state space models and multivariate L\\'evy-driven CARMA processes",
      "venue": "",
      "year": 2012,
      "referenceCount": 110,
      "citationCount": 43,
      "authors": [
        {
          "authorId": "2078451",
          "name": "E. Schlemm"
        },
        {
          "authorId": "47589253",
          "name": "R. Stelzer"
        }
      ]
    },
    {
      "paperId": "0878cc0bdbef3a9aaede679d23cbe8504a3861b3",
      "externalIds": {
        "MAG": "2773852358",
        "DBLP": "conf/mlsp/HostettlerSG17",
        "DOI": "10.1109/MLSP.2017.8168171",
        "CorpusId": 41423910
      },
      "url": "https://www.semanticscholar.org/paper/0878cc0bdbef3a9aaede679d23cbe8504a3861b3",
      "title": "Rao-Blackwellized particle mcmc for parameter estimation in spatio-temporal Gaussian processes",
      "venue": "International Workshop on Machine Learning for Signal Processing",
      "year": 2017,
      "referenceCount": 22,
      "citationCount": 3,
      "authors": [
        {
          "authorId": "145804637",
          "name": "R. Hostettler"
        },
        {
          "authorId": "30443320",
          "name": "Simo Särkkä"
        },
        {
          "authorId": "1708961",
          "name": "S. Godsill"
        }
      ]
    },
    {
      "paperId": "0b7ab1076c435f5a5aee285ea8acaeb13cd28c00",
      "externalIds": {
        "MAG": "2461342787",
        "CorpusId": 59477602
      },
      "url": "https://www.semanticscholar.org/paper/0b7ab1076c435f5a5aee285ea8acaeb13cd28c00",
      "title": "Multivariate stochastic volatility models based on non-Gaussian Ornstein-Uhlenbeck processes : a quasi-likelihood approach",
      "venue": "",
      "year": 2010,
      "referenceCount": 30,
      "citationCount": 0,
      "authors": [
        {
          "authorId": "2768451",
          "name": "A. Raknerud"
        },
        {
          "authorId": "2844917",
          "name": "Ø. Skare"
        }
      ]
    },
    {
      "paperId": "ad671ccce4eaaac7e667fb2ad70d03249a0a59b3",
      "externalIds": {
        "MAG": "2052870242",
        "DBLP": "journals/csda/RaknerudS12",
        "DOI": "10.1016/j.csda.2011.01.014",
        "CorpusId": 16279574
      },
      "url": "https://www.semanticscholar.org/paper/ad671ccce4eaaac7e667fb2ad70d03249a0a59b3",
      "title": "Indirect inference methods for stochastic volatility models based on non-Gaussian Ornstein-Uhlenbeck processes",
      "venue": "Computational Statistics & Data Analysis",
      "year": 2012,
      "referenceCount": 50,
      "citationCount": 15,
      "authors": [
        {
          "authorId": "2768451",
          "name": "A. Raknerud"
        },
        {
          "authorId": "2844917",
          "name": "Ø. Skare"
        }
      ]
    }
  ]
}