{
  "total": 19,
  "offset": 0,
  "next": 10,
  "data": [
    {
      "paperId": "d274f7ccf34a9e21bdd6934b2c5dc229d5ec2911",
      "externalIds": {
        "MAG": "2294300199",
        "DBLP": "conf/icml/RamaswamyST16",
        "ArXiv": "1603.02501",
        "CorpusId": 7895536
      },
      "url": "https://www.semanticscholar.org/paper/d274f7ccf34a9e21bdd6934b2c5dc229d5ec2911",
      "title": "Mixture Proportion Estimation via Kernel Embeddings of Distributions",
      "venue": "International Conference on Machine Learning",
      "year": 2016,
      "referenceCount": 25,
      "citationCount": 222,
      "authors": [
        {
          "authorId": "2508897",
          "name": "H. G. Ramaswamy"
        },
        {
          "authorId": "2403412732",
          "name": "C. Scott"
        },
        {
          "authorId": "3064914",
          "name": "Ambuj Tewari"
        }
      ]
    },
    {
      "paperId": "ff7714416c9c269ff3b916b853db965b01d6991e",
      "externalIds": {
        "CorpusId": 265095142
      },
      "url": "https://www.semanticscholar.org/paper/ff7714416c9c269ff3b916b853db965b01d6991e",
      "title": "Mixture Proportion Estimation via Kernel Embedding of Distributions Mixture Proportion Estimation via Kernel Embeddings of Distributions",
      "venue": "",
      "year": 2016,
      "referenceCount": 0,
      "citationCount": 0,
      "authors": []
    },
    {
      "paperId": "dc5ff9fd66d9d6390d41f9bb9e6df3c79837384c",
      "externalIds": {
        "MAG": "2162798864",
        "DBLP": "conf/icml/SongZSGS08",
        "DOI": "10.1145/1390156.1390281",
        "CorpusId": 2052572
      },
      "url": "https://www.semanticscholar.org/paper/dc5ff9fd66d9d6390d41f9bb9e6df3c79837384c",
      "title": "Tailoring density estimation via reproducing kernel moment matching",
      "venue": "International Conference on Machine Learning",
      "year": 2008,
      "referenceCount": 22,
      "citationCount": 64,
      "authors": [
        {
          "authorId": "2143476916",
          "name": "Le Song"
        },
        {
          "authorId": "2108029096",
          "name": "Xinhua Zhang"
        },
        {
          "authorId": "46234526",
          "name": "Alex Smola"
        },
        {
          "authorId": "1708497",
          "name": "A. Gretton"
        },
        {
          "authorId": "1707625",
          "name": "B. Scholkopf"
        }
      ]
    },
    {
      "paperId": "d0130f2f85013716b87d45b4ddee2b31dc8d1ce5",
      "externalIds": {
        "ArXiv": "2505.05979",
        "CorpusId": 278481289
      },
      "url": "https://www.semanticscholar.org/paper/d0130f2f85013716b87d45b4ddee2b31dc8d1ce5",
      "title": "Mixtures of multivariate linear asymmetric Laplace regressions with multiple asymmetric Laplace covariates",
      "venue": "",
      "year": 2025,
      "referenceCount": 36,
      "citationCount": 0,
      "authors": [
        {
          "authorId": "2303599458",
          "name": "A. Otto"
        },
        {
          "authorId": "2259423876",
          "name": "Andriëtte Bekker"
        },
        {
          "authorId": "1712924",
          "name": "A. Punzo"
        },
        {
          "authorId": "2356627846",
          "name": "Johannes T. Ferreira"
        },
        {
          "authorId": "2356400768",
          "name": "Cristina Tortora Department of Statistics"
        },
        {
          "authorId": "1388347353",
          "name": "University of Pretoria"
        },
        {
          "authorId": "102769055",
          "name": "Pretoria"
        },
        {
          "authorId": "2263916806",
          "name": "South Africa"
        },
        {
          "authorId": "2322504426",
          "name": "Department of Economics"
        },
        {
          "authorId": "52447469",
          "name": "Business"
        },
        {
          "authorId": "103245602",
          "name": "U. Catania"
        },
        {
          "authorId": "83726194",
          "name": "Catania"
        },
        {
          "authorId": "2251847707",
          "name": "Italy"
        },
        {
          "authorId": "1729512385",
          "name": "School of Statistics"
        },
        {
          "authorId": "1741667748",
          "name": "Actuarial Science"
        },
        {
          "authorId": "68975478",
          "name": "University of the Witwatersrand"
        },
        {
          "authorId": "102544566",
          "name": "Johannesburg"
        },
        {
          "authorId": "2293170536",
          "name": "D. Mathematics"
        },
        {
          "authorId": "5061428",
          "name": "Statistics"
        },
        {
          "authorId": "102642867",
          "name": "San Diego State University"
        },
        {
          "authorId": "70197635",
          "name": "California"
        },
        {
          "authorId": "1661213511",
          "name": "United States of America"
        }
      ]
    },
    {
      "paperId": "b7307206b6ff64973528d342d670f6ad01196a76",
      "externalIds": {
        "ArXiv": "1701.03769",
        "MAG": "2576650027",
        "DOI": "10.1214/19-AOS1889",
        "CorpusId": 88522761
      },
      "url": "https://www.semanticscholar.org/paper/b7307206b6ff64973528d342d670f6ad01196a76",
      "title": "A general approach for cure models in survival analysis",
      "venue": "Annals of Statistics",
      "year": 2017,
      "referenceCount": 26,
      "citationCount": 45,
      "authors": [
        {
          "authorId": "2279321",
          "name": "V. Patilea"
        },
        {
          "authorId": "1695415",
          "name": "I. Keilegom"
        }
      ]
    },
    {
      "paperId": "1eba864fcdedb5a32229459d80df3d3212735fa4",
      "externalIds": {
        "MAG": "2338982856",
        "DOI": "10.1017/asb.2015.8",
        "CorpusId": 156674106
      },
      "url": "https://www.semanticscholar.org/paper/1eba864fcdedb5a32229459d80df3d3212735fa4",
      "title": "RISK MARGIN QUANTILE FUNCTION VIA PARAMETRIC AND NON-PARAMETRIC BAYESIAN APPROACHES",
      "venue": "ASTIN Bulletin: The Journal of the International Actuarial Association",
      "year": 2015,
      "referenceCount": 58,
      "citationCount": 17,
      "authors": [
        {
          "authorId": "4830961",
          "name": "A. Dong"
        },
        {
          "authorId": "1820743",
          "name": "J. Chan"
        },
        {
          "authorId": "144888991",
          "name": "G. Peters"
        }
      ]
    },
    {
      "paperId": "96e1e57f95aefdf1d6c2cb22299cd47e22a9877b",
      "externalIds": {
        "MAG": "2300908449",
        "CorpusId": 61725336
      },
      "url": "https://www.semanticscholar.org/paper/96e1e57f95aefdf1d6c2cb22299cd47e22a9877b",
      "title": "Extreme Value Mixture Modelling with Simulation Study and Applications in Finance and Insurance",
      "venue": "",
      "year": 2013,
      "referenceCount": 53,
      "citationCount": 14,
      "authors": [
        {
          "authorId": "2113665745",
          "name": "Yang Hu"
        }
      ]
    },
    {
      "paperId": "4709ce5c07563b99f2595083c9ed8c4aa41c7dd5",
      "externalIds": {
        "CorpusId": 251571925
      },
      "url": "https://www.semanticscholar.org/paper/4709ce5c07563b99f2595083c9ed8c4aa41c7dd5",
      "title": "A GENERAL APPROACH FOR CURE MODELS IN SURVIVAL ANALYSIS",
      "venue": "",
      "year": 2017,
      "referenceCount": 23,
      "citationCount": 0,
      "authors": [
        {
          "authorId": "2181541432",
          "name": "I. V. Keilegoms"
        }
      ]
    },
    {
      "paperId": "452533cab4f52add3628108f3785dfd2a6e8bf1b",
      "externalIds": {
        "MAG": "266186682",
        "DOI": "10.1201/9781420036084",
        "CorpusId": 118204440
      },
      "url": "https://www.semanticscholar.org/paper/452533cab4f52add3628108f3785dfd2a6e8bf1b",
      "title": "Probability and Statistical Models with Applications",
      "venue": "",
      "year": 2000,
      "referenceCount": 0,
      "citationCount": 44,
      "authors": [
        {
          "authorId": "102714382",
          "name": "C. Charalambides"
        },
        {
          "authorId": "2014202",
          "name": "M. Koutras"
        },
        {
          "authorId": "145893050",
          "name": "N. Balakrishnan"
        }
      ]
    },
    {
      "paperId": "5e6bfda0e72310049a2eeb095a77de0e73c94187",
      "externalIds": {
        "MAG": "1535499967",
        "CorpusId": 20773109
      },
      "url": "https://www.semanticscholar.org/paper/5e6bfda0e72310049a2eeb095a77de0e73c94187",
      "title": "Advances in image and video technology : Third Pacific Rim Symposium, PSIVT 2009, Tokyo, Japan, January 13-16, 2009 : proceedings",
      "venue": "Pacific-Rim Symposium on Image and Video Technology",
      "year": 2009,
      "referenceCount": 0,
      "citationCount": 8,
      "authors": [
        {
          "authorId": "1702631",
          "name": "T. Wada"
        },
        {
          "authorId": "1745831",
          "name": "F. Huang"
        },
        {
          "authorId": "145676588",
          "name": "Stephen Lin"
        }
      ]
    }
  ]
}