{
  "total": 14982965,
  "offset": 0,
  "next": 10,
  "data": [
    {
      "paperId": "cf54a57fefd6a7ceab2449b4a268a2251f579e03",
      "externalIds": {
        "DOI": "10.1542/9781610021494-part06-dietary_reference_int",
        "CorpusId": 27351419
      },
      "url": "https://www.semanticscholar.org/paper/cf54a57fefd6a7ceab2449b4a268a2251f579e03",
      "title": "Dietary Reference Intakes for Calcium and Vitamin D",
      "venue": "Pediatric Clinical Practice Guidelines & Policies",
      "year": 2016,
      "referenceCount": 3,
      "citationCount": 2338,
      "authors": []
    },
    {
      "paperId": "a47c35920b6f3f3391fd3bc27d198e45858fafcd",
      "externalIds": {
        "CorpusId": 6938603
      },
      "url": "https://www.semanticscholar.org/paper/a47c35920b6f3f3391fd3bc27d198e45858fafcd",
      "title": "research papers Acta Crystallographica Section D Biological",
      "venue": "",
      "year": 2003,
      "referenceCount": 15,
      "citationCount": 19799,
      "authors": []
    },
    {
      "paperId": "877a0ce8bc0457837e7c43dd0eb99e11ba4d84d6",
      "externalIds": {
        "MAG": "2535547924",
        "DBLP": "journals/trob/Mur-ArtalT17",
        "ArXiv": "1610.06475",
        "DOI": "10.1109/TRO.2017.2705103",
        "CorpusId": 206775640
      },
      "url": "https://www.semanticscholar.org/paper/877a0ce8bc0457837e7c43dd0eb99e11ba4d84d6",
      "title": "ORB-SLAM2: An Open-Source SLAM System for Monocular, Stereo, and RGB-D Cameras",
      "venue": "IEEE Transactions on robotics",
      "year": 2016,
      "referenceCount": 25,
      "citationCount": 6255,
      "authors": [
        {
          "authorId": "1397877487",
          "name": "Raul Mur-Artal"
        },
        {
          "authorId": "2642938",
          "name": "J. D. Tardós"
        }
      ]
    },
    {
      "paperId": "7b2c011061ca44b47a46c64469f8462952d42245",
      "externalIds": {
        "MAG": "2196906371",
        "DOI": "10.1161/CIR.0000000000000350",
        "CorpusId": 207748203,
        "PubMed": "26673558"
      },
      "url": "https://www.semanticscholar.org/paper/7b2c011061ca44b47a46c64469f8462952d42245",
      "title": "Heart Disease and Stroke Statistics—2016 Update: A Report From the American Heart Association",
      "venue": "Circulation",
      "year": 2016,
      "referenceCount": 1818,
      "citationCount": 6731,
      "authors": [
        {
          "authorId": "6096905",
          "name": "D. Mozaffarian"
        },
        {
          "authorId": "3794598",
          "name": "E. Benjamin"
        },
        {
          "authorId": "1765742",
          "name": "A. Go"
        },
        {
          "authorId": "4840932",
          "name": "D. Arnett"
        },
        {
          "authorId": "3455659",
          "name": "M. Blaha"
        },
        {
          "authorId": "144144000",
          "name": "M. Cushman"
        },
        {
          "authorId": "152220557",
          "name": "Sandeep R. Das"
        },
        {
          "authorId": "52228209",
          "name": "S. D. de Ferranti"
        },
        {
          "authorId": "144853843",
          "name": "J. Despres"
        },
        {
          "authorId": "5063327",
          "name": "H. Fullerton"
        },
        {
          "authorId": "6207318",
          "name": "V. Howard"
        },
        {
          "authorId": "4772883",
          "name": "Mark D. Huffman"
        },
        {
          "authorId": "2335836",
          "name": "C. Isasi"
        },
        {
          "authorId": "144907230",
          "name": "M. Jiménez"
        },
        {
          "authorId": "3699364",
          "name": "S. Judd"
        },
        {
          "authorId": "46757880",
          "name": "B. Kissela"
        },
        {
          "authorId": "4620210",
          "name": "J. Lichtman"
        },
        {
          "authorId": "144070536",
          "name": "L. Lisabeth"
        },
        {
          "authorId": "1390630980",
          "name": "Simin Liu"
        },
        {
          "authorId": "2052682",
          "name": "R. Mackey"
        },
        {
          "authorId": "2129877",
          "name": "D. Magid"
        },
        {
          "authorId": "145288590",
          "name": "Darren K Mcguire"
        },
        {
          "authorId": "50047958",
          "name": "E. Mohler"
        },
        {
          "authorId": "32538157",
          "name": "C. Moy"
        },
        {
          "authorId": "3937743",
          "name": "P. Muntner"
        },
        {
          "authorId": "4156153",
          "name": "M. Mussolino"
        },
        {
          "authorId": "2763802",
          "name": "K. Nasir"
        },
        {
          "authorId": "4657146",
          "name": "R. Neumar"
        },
        {
          "authorId": "4308219",
          "name": "G. Nichol"
        },
        {
          "authorId": "3103838",
          "name": "L. Palaniappan"
        },
        {
          "authorId": "3324149",
          "name": "D. Pandey"
        },
        {
          "authorId": "2845401",
          "name": "M. Reeves"
        },
        {
          "authorId": "144236309",
          "name": "C. Rodriguez"
        },
        {
          "authorId": "144418271",
          "name": "W. Rosamond"
        },
        {
          "authorId": "4243294",
          "name": "P. Sorlie"
        },
        {
          "authorId": "48693244",
          "name": "J. Stein"
        },
        {
          "authorId": "5143890",
          "name": "A. Towfighi"
        },
        {
          "authorId": "4788378",
          "name": "T. Turan"
        },
        {
          "authorId": "3571477",
          "name": "S. Virani"
        },
        {
          "authorId": "143874654",
          "name": "D. Woo"
        },
        {
          "authorId": "144223862",
          "name": "R. Yeh"
        },
        {
          "authorId": "46652879",
          "name": "M. B. Turner"
        }
      ]
    },
    {
      "paperId": "bd723bc768baa78b7bd3e6f28a401d6d5cfe87f8",
      "externalIds": {
        "MAG": "2411563882",
        "PubMedCentral": "5904216",
        "DBLP": "journals/corr/ChePCSL16",
        "ArXiv": "1606.01865",
        "DOI": "10.1038/s41598-018-24271-9",
        "CorpusId": 4900015,
        "PubMed": "29666385"
      },
      "url": "https://www.semanticscholar.org/paper/bd723bc768baa78b7bd3e6f28a401d6d5cfe87f8",
      "title": "Recurrent Neural Networks for Multivariate Time Series with Missing Values",
      "venue": "Scientific Reports",
      "year": 2016,
      "referenceCount": 61,
      "citationCount": 2323,
      "authors": [
        {
          "authorId": "1939695",
          "name": "Zhengping Che"
        },
        {
          "authorId": "144735626",
          "name": "S. Purushotham"
        },
        {
          "authorId": "1979489",
          "name": "Kyunghyun Cho"
        },
        {
          "authorId": "1746662",
          "name": "D. Sontag"
        },
        {
          "authorId": "47909587",
          "name": "Yan Liu"
        }
      ]
    },
    {
      "paperId": "b73e2d40da901ad3da3813670a51c52803d7af7e",
      "externalIds": {
        "DBLP": "conf/cvpr/SongLX15",
        "MAG": "1923184257",
        "DOI": "10.1109/CVPR.2015.7298655",
        "CorpusId": 6242669
      },
      "url": "https://www.semanticscholar.org/paper/b73e2d40da901ad3da3813670a51c52803d7af7e",
      "title": "SUN RGB-D: A RGB-D scene understanding benchmark suite",
      "venue": "Computer Vision and Pattern Recognition",
      "year": 2015,
      "referenceCount": 76,
      "citationCount": 2049,
      "authors": [
        {
          "authorId": "3340170",
          "name": "Shuran Song"
        },
        {
          "authorId": "39243526",
          "name": "Samuel P. Lichtenberg"
        },
        {
          "authorId": "40599257",
          "name": "Jianxiong Xiao"
        }
      ]
    },
    {
      "paperId": "d7ec1ff0d39c46699ef5fdb17890d1b2417d6819",
      "externalIds": {
        "MAG": "2981420978",
        "DOI": "10.1017/cbo9781107415324.018",
        "CorpusId": 210610368
      },
      "url": "https://www.semanticscholar.org/paper/d7ec1ff0d39c46699ef5fdb17890d1b2417d6819",
      "title": "Anthropogenic and Natural Radiative Forcing",
      "venue": "",
      "year": 2014,
      "referenceCount": 512,
      "citationCount": 4470,
      "authors": [
        {
          "authorId": "144703296",
          "name": "G. Myhre"
        },
        {
          "authorId": "3545195",
          "name": "D. Shindell"
        },
        {
          "authorId": "3820837",
          "name": "J. Pongratz"
        }
      ]
    },
    {
      "paperId": "0c264b93d4774e85b2c7ecc4566a89f514861428",
      "externalIds": {
        "MAG": "2170679590",
        "PubMedCentral": "4477726",
        "ArXiv": "1412.3989",
        "DOI": "10.1140/epjc/s10052-015-3397-6",
        "CorpusId": 18756197,
        "PubMed": "26120278"
      },
      "url": "https://www.semanticscholar.org/paper/0c264b93d4774e85b2c7ecc4566a89f514861428",
      "title": "Parton distributions in the LHC era: MMHT 2014 PDFs",
      "venue": "European Physical Journal C: Particles and Fields",
      "year": 2014,
      "referenceCount": 68,
      "citationCount": 1629,
      "authors": [
        {
          "authorId": "1380242945",
          "name": "L. Harland–Lang"
        },
        {
          "authorId": "41227775",
          "name": "Alan D. Martin"
        },
        {
          "authorId": "4177642",
          "name": "P. Motylinski"
        },
        {
          "authorId": "4259721",
          "name": "R. Thorne"
        }
      ]
    },
    {
      "paperId": "abbabc85d324273c55d36e355a8ff874d6fae2bf",
      "externalIds": {
        "MAG": "2100758014",
        "CorpusId": 201477552
      },
      "url": "https://www.semanticscholar.org/paper/abbabc85d324273c55d36e355a8ff874d6fae2bf",
      "title": "Metode Penelitian Kuantitatif Kualitatif dan R&D",
      "venue": "",
      "year": 2013,
      "referenceCount": 0,
      "citationCount": 44159,
      "authors": [
        {
          "authorId": "2068959474",
          "name": "Sugiyono"
        }
      ]
    },
    {
      "paperId": "68f2078491272bdd240e98cd85e02d34588d77be",
      "externalIds": {
        "MAG": "2031517139",
        "DOI": "10.1002/art.37715",
        "CorpusId": 20891451,
        "PubMed": "23045170"
      },
      "url": "https://www.semanticscholar.org/paper/68f2078491272bdd240e98cd85e02d34588d77be",
      "title": "2012 revised International Chapel Hill Consensus Conference Nomenclature of Vasculitides.",
      "venue": "Arthritis & Rheumatism",
      "year": 2013,
      "referenceCount": 21,
      "citationCount": 5487,
      "authors": [
        {
          "authorId": "3884802",
          "name": "J. Jennette"
        },
        {
          "authorId": "6714976",
          "name": "R. Falk"
        },
        {
          "authorId": "40571123",
          "name": "P. Bacon"
        },
        {
          "authorId": "152433719",
          "name": "N. Basu"
        },
        {
          "authorId": "145123722",
          "name": "M. Cid"
        },
        {
          "authorId": "2654463",
          "name": "F. Ferrario"
        },
        {
          "authorId": "1397580363",
          "name": "L. Flores-Suárez"
        },
        {
          "authorId": "1707871",
          "name": "W. Gross"
        },
        {
          "authorId": "144369068",
          "name": "L. Guillevin"
        },
        {
          "authorId": "1932174020",
          "name": "E. Hagen"
        },
        {
          "authorId": "2171818932",
          "name": "G. Hoffman"
        },
        {
          "authorId": "145549928",
          "name": "D. Jayne"
        },
        {
          "authorId": "143644993",
          "name": "C. Kallenberg"
        },
        {
          "authorId": "2070820714",
          "name": "P. Lamprecht"
        },
        {
          "authorId": "2172281175",
          "name": "C. Langford"
        },
        {
          "authorId": "3641593",
          "name": "R. Luqmani"
        },
        {
          "authorId": "4588364",
          "name": "A. Mahr"
        },
        {
          "authorId": "2710438",
          "name": "E. Matteson"
        },
        {
          "authorId": "2246686782",
          "name": "P. Merkel"
        },
        {
          "authorId": "2246686782",
          "name": "P. Merkel"
        },
        {
          "authorId": "144337057",
          "name": "S. Ozen"
        },
        {
          "authorId": "118283507",
          "name": "C. Pusey"
        },
        {
          "authorId": "143612817",
          "name": "N. Rasmussen"
        },
        {
          "authorId": "145110507",
          "name": "A. Rees"
        },
        {
          "authorId": "145817167",
          "name": "David Steven Scott"
        },
        {
          "authorId": "6198227",
          "name": "U. Specks"
        },
        {
          "authorId": "2065201272",
          "name": "J. Stone"
        },
        {
          "authorId": "2110126291",
          "name": "Kei Takahashi"
        },
        {
          "authorId": "144909977",
          "name": "R. Watts"
        }
      ]
    }
  ]
}