{
  "total": 106,
  "offset": 0,
  "next": 10,
  "data": [
    {
      "paperId": "d00f8ecf544f05c24955fbfb9376d0e8c8b66c4e",
      "externalIds": {
        "DBLP": "journals/corr/YiCP15",
        "ArXiv": "1502.05746",
        "MAG": "2951653993",
        "CorpusId": 7335676
      },
      "url": "https://www.semanticscholar.org/paper/d00f8ecf544f05c24955fbfb9376d0e8c8b66c4e",
      "title": "Binary Embedding: Fundamental Limits and Fast Algorithm",
      "venue": "International Conference on Machine Learning",
      "year": 2015,
      "referenceCount": 24,
      "citationCount": 42,
      "authors": [
        {
          "authorId": "2838461",
          "name": "Xinyang Yi"
        },
        {
          "authorId": "1764494",
          "name": "C. Caramanis"
        },
        {
          "authorId": "4989538",
          "name": "Eric Price"
        }
      ]
    },
    {
      "paperId": "bd98c700fdc245de427a49ea2e19a54672b1cd70",
      "externalIds": {
        "CorpusId": 73536527
      },
      "url": "https://www.semanticscholar.org/paper/bd98c700fdc245de427a49ea2e19a54672b1cd70",
      "title": "Fe b 20 15 Binary Embedding : Fundamental Limits and Fast Algorithm",
      "venue": "",
      "year": 2018,
      "referenceCount": 24,
      "citationCount": 0,
      "authors": [
        {
          "authorId": "2838461",
          "name": "Xinyang Yi"
        }
      ]
    },
    {
      "paperId": "22ac8820066486594799794cc33513f9817d5652",
      "externalIds": {
        "CorpusId": 14971005
      },
      "url": "https://www.semanticscholar.org/paper/22ac8820066486594799794cc33513f9817d5652",
      "title": "Supplement to “ Binary Embedding : Fundamental Limits and Fast Algorithm \"",
      "venue": "",
      "year": 2015,
      "referenceCount": 0,
      "citationCount": 0,
      "authors": [
        {
          "authorId": "2838461",
          "name": "Xinyang Yi"
        },
        {
          "authorId": "1764494",
          "name": "C. Caramanis"
        },
        {
          "authorId": "4989538",
          "name": "Eric Price"
        }
      ]
    },
    {
      "paperId": "d149c047f0b7794366dedc49dcaedd9a477bc2a6",
      "externalIds": {
        "DBLP": "conf/colt/ArecesCDR24",
        "CorpusId": 270963629
      },
      "url": "https://www.semanticscholar.org/paper/d149c047f0b7794366dedc49dcaedd9a477bc2a6",
      "title": "Two fundamental limits for uncertainty quantification in predictive inference",
      "venue": "Annual Conference Computational Learning Theory",
      "year": 2024,
      "referenceCount": 16,
      "citationCount": 2,
      "authors": [
        {
          "authorId": "2309720180",
          "name": "Felipe Areces"
        },
        {
          "authorId": "2407637664",
          "name": "Chen Cheng"
        },
        {
          "authorId": "1734693",
          "name": "John C. Duchi"
        },
        {
          "authorId": "2420900630",
          "name": "K. Rohith"
        }
      ]
    },
    {
      "paperId": "e8cfa6484025185c722000cc50e0de7c183dae62",
      "externalIds": {
        "DOI": "10.1093/gji/ggae184",
        "CorpusId": 269993193
      },
      "url": "https://www.semanticscholar.org/paper/e8cfa6484025185c722000cc50e0de7c183dae62",
      "title": "An Efficient Algorithm to Retrieve Multiple Fundamental Frequencies of Harmonic Interference in Surface-NMR Measurements",
      "venue": "Geophysical Journal International",
      "year": 2024,
      "referenceCount": 0,
      "citationCount": 1,
      "authors": [
        {
          "authorId": "71495851",
          "name": "R. Ghanati"
        },
        {
          "authorId": "2237354948",
          "name": "T. Irons"
        },
        {
          "authorId": "2302917472",
          "name": "Mohammad Reza Hatami"
        }
      ]
    },
    {
      "paperId": "399cd6262fb8f765e956b5aff01a659ea76c4425",
      "externalIds": {
        "DBLP": "journals/corr/abs-2601-03278",
        "ArXiv": "2601.03278",
        "DOI": "10.1007/s42484-025-00330-z",
        "CorpusId": 282892149
      },
      "url": "https://www.semanticscholar.org/paper/399cd6262fb8f765e956b5aff01a659ea76c4425",
      "title": "A quantum model for constrained Markowitz modern portfolio using slack variables to process mixed-binary optimization under QAOA",
      "venue": "Quantum Machine Intelligence",
      "year": 2025,
      "referenceCount": 41,
      "citationCount": 0,
      "authors": [
        {
          "authorId": "2391569495",
          "name": "Pablo Thomassin"
        },
        {
          "authorId": "2190192",
          "name": "G. Guérard"
        },
        {
          "authorId": "2936441",
          "name": "S. Djebali"
        },
        {
          "authorId": "2391568285",
          "name": "Vincent Marc Lambert"
        }
      ]
    },
    {
      "paperId": "ec75544176cbc5b5d50a172060a2c843ae19af61",
      "externalIds": {
        "DOI": "10.1109/ASENS64990.2025.11011273",
        "CorpusId": 278936589
      },
      "url": "https://www.semanticscholar.org/paper/ec75544176cbc5b5d50a172060a2c843ae19af61",
      "title": "A Stripped Binary Code Vulnerability Detection Method Based on Sensitive Function Identification",
      "venue": "2025 2nd International Conference on Algorithms, Software Engineering and Network Security (ASENS)",
      "year": 2025,
      "referenceCount": 16,
      "citationCount": 0,
      "authors": [
        {
          "authorId": "2321133687",
          "name": "Binghong Liu"
        },
        {
          "authorId": "2363793401",
          "name": "Wei Wang"
        },
        {
          "authorId": "2337459351",
          "name": "Yiming Zhang"
        },
        {
          "authorId": "2364469833",
          "name": "Xingyu Huang"
        },
        {
          "authorId": "2322022450",
          "name": "Jianhua Zhou"
        },
        {
          "authorId": "2253601668",
          "name": "Wei Huo"
        }
      ]
    },
    {
      "paperId": "5763bacc3ed174145a37c374aae85ac59cf12f3a",
      "externalIds": {
        "DBLP": "journals/tcas/YoonK20",
        "MAG": "2987027174",
        "DOI": "10.1109/TCSII.2019.2951412",
        "CorpusId": 209792187
      },
      "url": "https://www.semanticscholar.org/paper/5763bacc3ed174145a37c374aae85ac59cf12f3a",
      "title": "An Area-Efficient and Wide-Range Inter-Signal Skew Compensation Scheme With the Embedded Bypass Control Register Operating as a Binary Search Algorithm for DRAM Applications",
      "venue": "IEEE Transactions on Circuits and Systems - II - Express Briefs",
      "year": 2020,
      "referenceCount": 11,
      "citationCount": 1,
      "authors": [
        {
          "authorId": "1475709367",
          "name": "Youngbog Yoon"
        },
        {
          "authorId": "144488372",
          "name": "Chulwoo Kim"
        }
      ]
    },
    {
      "paperId": "9be1bedee4783f65dcf9fd62f1b95de19a3f221e",
      "externalIds": {
        "ArXiv": "2502.16292",
        "CorpusId": 276575569
      },
      "url": "https://www.semanticscholar.org/paper/9be1bedee4783f65dcf9fd62f1b95de19a3f221e",
      "title": "Generative diffusion for perceptron problems: statistical physics analysis and efficient algorithms",
      "venue": "",
      "year": 2025,
      "referenceCount": 57,
      "citationCount": 2,
      "authors": [
        {
          "authorId": "2064763760",
          "name": "E. Demyanenko"
        },
        {
          "authorId": "2346982510",
          "name": "Davide Straziota"
        },
        {
          "authorId": "2064292094",
          "name": "Carlo Baldassi"
        },
        {
          "authorId": "1975555",
          "name": "Carlo Lucibello"
        }
      ]
    },
    {
      "paperId": "a59315856d6e5f6d92a1da025941748984b2f4e5",
      "externalIds": {
        "DOI": "10.3390/electronics15051000",
        "CorpusId": 286273778
      },
      "url": "https://www.semanticscholar.org/paper/a59315856d6e5f6d92a1da025941748984b2f4e5",
      "title": "Weakly Supervised Optimization for Power Distribution Transformer Area Identification Based on Frequency-Domain Representation",
      "venue": "Electronics",
      "year": 2026,
      "referenceCount": 32,
      "citationCount": 0,
      "authors": [
        {
          "authorId": "2283806298",
          "name": "Suwei Zhai"
        },
        {
          "authorId": "2374178928",
          "name": "Junkai Liang"
        },
        {
          "authorId": "2219951879",
          "name": "Wan Yang"
        },
        {
          "authorId": "2325944623",
          "name": "Chao Zheng"
        },
        {
          "authorId": "2422287854",
          "name": "Dongdong Wang"
        },
        {
          "authorId": "2406220800",
          "name": "Xiaodong Xing"
        },
        {
          "authorId": "2364412848",
          "name": "Yanjun Feng"
        }
      ]
    }
  ]
}