{
  "total": 1722,
  "offset": 0,
  "next": 10,
  "data": [
    {
      "paperId": "b542d5f3973970902eab247154f74cc5abb5cbb4",
      "externalIds": {
        "MAG": "2963193690",
        "ArXiv": "1712.00378",
        "DBLP": "conf/icml/PardoTLK18",
        "CorpusId": 4005032
      },
      "url": "https://www.semanticscholar.org/paper/b542d5f3973970902eab247154f74cc5abb5cbb4",
      "title": "Time Limits in Reinforcement Learning",
      "venue": "International Conference on Machine Learning",
      "year": 2017,
      "referenceCount": 32,
      "citationCount": 185,
      "authors": [
        {
          "authorId": "34758368",
          "name": "Fabio Pardo"
        },
        {
          "authorId": "80675449",
          "name": "Arash Tavakoli"
        },
        {
          "authorId": "6495683",
          "name": "Vitaly Levdik"
        },
        {
          "authorId": "1686032",
          "name": "Petar Kormushev"
        }
      ]
    },
    {
      "paperId": "ef2555deee6ffc501995cd3b65b294f8fce14f1f",
      "externalIds": {
        "CorpusId": 259902828
      },
      "url": "https://www.semanticscholar.org/paper/ef2555deee6ffc501995cd3b65b294f8fce14f1f",
      "title": "Evaluation of time limits in reinforcement learning applied to robot soccer simulation",
      "venue": "",
      "year": 2021,
      "referenceCount": 10,
      "citationCount": 0,
      "authors": [
        {
          "authorId": "2286241632",
          "name": "Juliana Santos do Nascimento"
        },
        {
          "authorId": "2115879753",
          "name": "Da Silva"
        },
        {
          "authorId": "2054131278",
          "name": "J. de"
        }
      ]
    },
    {
      "paperId": "a1db383c4302ad5e7d233f4bc7d32a7d2d8c9e23",
      "externalIds": {
        "DBLP": "journals/candie/KimKL25",
        "DOI": "10.1016/j.cie.2025.111062",
        "CorpusId": 277242716
      },
      "url": "https://www.semanticscholar.org/paper/a1db383c4302ad5e7d233f4bc7d32a7d2d8c9e23",
      "title": "A genetic programming based reinforcement learning algorithm for dynamic hybrid flow shop scheduling with reworks under general queue time limits",
      "venue": "Computers & industrial engineering",
      "year": 2025,
      "referenceCount": 60,
      "citationCount": 5,
      "authors": [
        {
          "authorId": "2190324751",
          "name": "Hyeon-Il Kim"
        },
        {
          "authorId": "14490779",
          "name": "Y. Kim"
        },
        {
          "authorId": "2244581582",
          "name": "Dong-Ho Lee"
        }
      ]
    },
    {
      "paperId": "8493ff5e4952d5addf5553b5b5350d7445b383ee",
      "externalIds": {
        "DBLP": "journals/tist/ZongXZL24",
        "DOI": "10.1145/3625232",
        "CorpusId": 267265010
      },
      "url": "https://www.semanticscholar.org/paper/8493ff5e4952d5addf5553b5b5350d7445b383ee",
      "title": "Reinforcement Learning for Solving Multiple Vehicle Routing Problem with Time Window",
      "venue": "ACM Transactions on Intelligent Systems and Technology",
      "year": 2024,
      "referenceCount": 39,
      "citationCount": 31,
      "authors": [
        {
          "authorId": "48905977",
          "name": "Zefang Zong"
        },
        {
          "authorId": "153919866",
          "name": "Xialiang Tong"
        },
        {
          "authorId": "2174868724",
          "name": "Meng Zheng"
        },
        {
          "authorId": "2243157921",
          "name": "Yong Li"
        }
      ]
    },
    {
      "paperId": "b3e9ddca4b920dcb52a3504ca61df6d81ebfb84c",
      "externalIds": {
        "DOI": "10.1109/PowerTech59965.2025.11180322",
        "CorpusId": 281893177
      },
      "url": "https://www.semanticscholar.org/paper/b3e9ddca4b920dcb52a3504ca61df6d81ebfb84c",
      "title": "Model-free Approaches for Real-time Distribution System Operation: A Comparison of Feedback Optimization and Reinforcement Learning",
      "venue": "2025 IEEE Kiel PowerTech",
      "year": 2025,
      "referenceCount": 22,
      "citationCount": 2,
      "authors": [
        {
          "authorId": "2241864399",
          "name": "Sen Zhan"
        },
        {
          "authorId": "2281494051",
          "name": "Haoyang Zhang"
        },
        {
          "authorId": "2247549814",
          "name": "Koen Kok"
        },
        {
          "authorId": "1790542",
          "name": "N. Paterakis"
        }
      ]
    },
    {
      "paperId": "d8a2f6ced7cf7611b76883692b662f827af6adf6",
      "externalIds": {
        "DBLP": "journals/access/ChangP25",
        "DOI": "10.1109/ACCESS.2025.3561118",
        "CorpusId": 277986431
      },
      "url": "https://www.semanticscholar.org/paper/d8a2f6ced7cf7611b76883692b662f827af6adf6",
      "title": "Reinforcement Learning-Based Real-Time Contrasts Control Chart Using an Adaptive Window Size",
      "venue": "IEEE Access",
      "year": 2025,
      "referenceCount": 26,
      "citationCount": 2,
      "authors": [
        {
          "authorId": "2275302908",
          "name": "Kyuchang Chang"
        },
        {
          "authorId": "2275033550",
          "name": "Seung Hwan Park"
        }
      ]
    },
    {
      "paperId": "0d9e3f0f8c82e09ed683b4b4cae8362270ba176c",
      "externalIds": {
        "DOI": "10.1109/TPWRS.2023.3326121",
        "CorpusId": 264386725
      },
      "url": "https://www.semanticscholar.org/paper/0d9e3f0f8c82e09ed683b4b4cae8362270ba176c",
      "title": "Constrained Reinforcement Learning for Predictive Control in Real-Time Stochastic Dynamic Optimal Power Flow",
      "venue": "IEEE Transactions on Power Systems",
      "year": 2024,
      "referenceCount": 36,
      "citationCount": 18,
      "authors": [
        {
          "authorId": "153068261",
          "name": "Tong Wu"
        },
        {
          "authorId": "2260957486",
          "name": "Anna Scaglione"
        },
        {
          "authorId": "2260943132",
          "name": "Daniel B. Arnold"
        }
      ]
    },
    {
      "paperId": "a303fc35646054775bf4daee89642034dc2cc165",
      "externalIds": {
        "ArXiv": "2404.13068",
        "DBLP": "conf/iros/ImranW24",
        "DOI": "10.1109/IROS58592.2024.10801949",
        "CorpusId": 269293057
      },
      "url": "https://www.semanticscholar.org/paper/a303fc35646054775bf4daee89642034dc2cc165",
      "title": "SmartPathfinder: Pushing the Limits of Heuristic Solutions for Vehicle Routing Problem with Drones Using Reinforcement Learning",
      "venue": "IEEE/RJS International Conference on Intelligent RObots and Systems",
      "year": 2024,
      "referenceCount": 30,
      "citationCount": 3,
      "authors": [
        {
          "authorId": "1972419835",
          "name": "N. Imran"
        },
        {
          "authorId": "2296714382",
          "name": "Myounggyu Won"
        }
      ]
    },
    {
      "paperId": "cbe80ebe0e7ec6a69bad37ada94459db8d182ac5",
      "externalIds": {
        "ArXiv": "2411.07825",
        "CorpusId": 273969726
      },
      "url": "https://www.semanticscholar.org/paper/cbe80ebe0e7ec6a69bad37ada94459db8d182ac5",
      "title": "Scaling policy iteration based reinforcement learning for unknown discrete-time linear systems",
      "venue": "",
      "year": 2024,
      "referenceCount": 0,
      "citationCount": 2,
      "authors": [
        {
          "authorId": "2318477671",
          "name": "Zhen Pang"
        },
        {
          "authorId": "2319174611",
          "name": "Shengda Tang"
        },
        {
          "authorId": "2296565418",
          "name": "Jun Cheng"
        },
        {
          "authorId": "2330882424",
          "name": "Shuping He"
        }
      ]
    },
    {
      "paperId": "b09af63636092b477202c4603e5955efae1438df",
      "externalIds": {
        "DBLP": "conf/dsrt/PanceriMB24",
        "DOI": "10.1109/DS-RT62209.2024.00038",
        "CorpusId": 277382510
      },
      "url": "https://www.semanticscholar.org/paper/b09af63636092b477202c4603e5955efae1438df",
      "title": "Real-time and Energy-aware Scheduling for Edge-to-Cloud Continuum based on Reinforcement Learning",
      "venue": "IEEE International Symposium on Distributed Simulation and Real-Time Applications",
      "year": 2024,
      "referenceCount": 14,
      "citationCount": 1,
      "authors": [
        {
          "authorId": "2352464531",
          "name": "Andrea Panceri"
        },
        {
          "authorId": "1486437474",
          "name": "Gabriele Proietti Mattia"
        },
        {
          "authorId": "2949587",
          "name": "R. Beraldi"
        }
      ]
    }
  ]
}