{
  "total": 2313,
  "offset": 0,
  "next": 10,
  "data": [
    {
      "paperId": "d83dd7771e52bac386433657f1b06a26ef0e8d31",
      "externalIds": {
        "DBLP": "conf/icml/DanielyGS15",
        "MAG": "2097545189",
        "ArXiv": "1502.07073",
        "CorpusId": 8342240
      },
      "url": "https://www.semanticscholar.org/paper/d83dd7771e52bac386433657f1b06a26ef0e8d31",
      "title": "Strongly Adaptive Online Learning",
      "venue": "International Conference on Machine Learning",
      "year": 2015,
      "referenceCount": 16,
      "citationCount": 193,
      "authors": [
        {
          "authorId": "2898312",
          "name": "Amit Daniely"
        },
        {
          "authorId": "40048435",
          "name": "Alon Gonen"
        },
        {
          "authorId": "1389955537",
          "name": "S. Shalev-Shwartz"
        }
      ]
    },
    {
      "paperId": "196e47e95b7a62de0bffecdca2dadaa95ee17705",
      "externalIds": {
        "CorpusId": 11836093
      },
      "url": "https://www.semanticscholar.org/paper/196e47e95b7a62de0bffecdca2dadaa95ee17705",
      "title": "Supplement : Strongly Adaptive Online Learning",
      "venue": "",
      "year": 2015,
      "referenceCount": 0,
      "citationCount": 0,
      "authors": [
        {
          "authorId": "2898312",
          "name": "Amit Daniely"
        }
      ]
    },
    {
      "paperId": "39a70ca86ad49da6fbcaed5c3bca78f4581f694e",
      "externalIds": {
        "CorpusId": 221684252
      },
      "url": "https://www.semanticscholar.org/paper/39a70ca86ad49da6fbcaed5c3bca78f4581f694e",
      "title": "Drifting Gaussian Process Regression for Inverse Dynamics Learning",
      "venue": "",
      "year": 2015,
      "referenceCount": 15,
      "citationCount": 3,
      "authors": [
        {
          "authorId": "153145615",
          "name": "F. Meier"
        },
        {
          "authorId": "1745219",
          "name": "S. Schaal"
        }
      ]
    },
    {
      "paperId": "4a6b16d7ef43d6daf76a67951bfb9a12994b60ef",
      "externalIds": {
        "DBLP": "journals/corr/FosterRS15",
        "MAG": "2949670066",
        "ArXiv": "1508.05170",
        "CorpusId": 6867551
      },
      "url": "https://www.semanticscholar.org/paper/4a6b16d7ef43d6daf76a67951bfb9a12994b60ef",
      "title": "Adaptive Online Learning",
      "venue": "Neural Information Processing Systems",
      "year": 2015,
      "referenceCount": 29,
      "citationCount": 58,
      "authors": [
        {
          "authorId": "26198391",
          "name": "Dylan J. Foster"
        },
        {
          "authorId": "1680046",
          "name": "A. Rakhlin"
        },
        {
          "authorId": "37564609",
          "name": "Karthik Sridharan"
        }
      ]
    },
    {
      "paperId": "5f532b0ac7e02a7a4152757f77576b1c7a6ed308",
      "externalIds": {
        "MAG": "1666368625",
        "CorpusId": 60751579
      },
      "url": "https://www.semanticscholar.org/paper/5f532b0ac7e02a7a4152757f77576b1c7a6ed308",
      "title": "The Use Of Blended Teaching Model With Adaptive Online Learning Environment and Student Expectations",
      "venue": "",
      "year": 2015,
      "referenceCount": 10,
      "citationCount": 3,
      "authors": [
        {
          "authorId": "67281113",
          "name": "F. Baz"
        },
        {
          "authorId": "47663686",
          "name": "E. Tetik"
        }
      ]
    },
    {
      "paperId": "6a4a016299c8535dffa56ebfb7591f4b8483008b",
      "externalIds": {
        "MAG": "2070735307",
        "DOI": "10.1109/IEOM.2015.7093710",
        "CorpusId": 36294566
      },
      "url": "https://www.semanticscholar.org/paper/6a4a016299c8535dffa56ebfb7591f4b8483008b",
      "title": "New possibilities for adaptive online learning in engineering education",
      "venue": "International Conference on Industrial Engineering and Operations Management",
      "year": 2015,
      "referenceCount": 14,
      "citationCount": 5,
      "authors": [
        {
          "authorId": "48889835",
          "name": "P. Tóth"
        }
      ]
    },
    {
      "paperId": "ba850082e341f64b8031240bc150e24d446cf61f",
      "externalIds": {
        "MAG": "2039900281",
        "DOI": "10.1016/J.BUILDENV.2015.04.017",
        "CorpusId": 110435020
      },
      "url": "https://www.semanticscholar.org/paper/ba850082e341f64b8031240bc150e24d446cf61f",
      "title": "An online learning approach for quantifying personalized thermal comfort via adaptive stochastic modeling",
      "venue": "",
      "year": 2015,
      "referenceCount": 46,
      "citationCount": 191,
      "authors": [
        {
          "authorId": "50600616",
          "name": "A. Ghahramani"
        },
        {
          "authorId": "2118762915",
          "name": "Chao Tang"
        },
        {
          "authorId": "1403066874",
          "name": "B. Becerik-Gerber"
        }
      ]
    },
    {
      "paperId": "26940cb452c78ad4dd2b26ce8a89f4896017f1f4",
      "externalIds": {
        "MAG": "308789809",
        "DBLP": "journals/pr/BharadwajBSVN15",
        "DOI": "10.1016/j.patcog.2015.05.002",
        "CorpusId": 5586263
      },
      "url": "https://www.semanticscholar.org/paper/26940cb452c78ad4dd2b26ce8a89f4896017f1f4",
      "title": "QFuse: Online learning framework for adaptive biometric system",
      "venue": "Pattern Recognition",
      "year": 2015,
      "referenceCount": 47,
      "citationCount": 31,
      "authors": [
        {
          "authorId": "34173298",
          "name": "Samarth Bharadwaj"
        },
        {
          "authorId": "2559473",
          "name": "H. Bhatt"
        },
        {
          "authorId": "2041134713",
          "name": "Richa Singh"
        },
        {
          "authorId": "2338122",
          "name": "Mayank Vatsa"
        },
        {
          "authorId": "2487227",
          "name": "A. Noore"
        }
      ]
    },
    {
      "paperId": "70ee450dcafb6178aad05482e712a95fea2a6c2e",
      "externalIds": {
        "MAG": "2320541657",
        "DOI": "10.7236/IJASC.2015.4.2.20",
        "CorpusId": 53382434
      },
      "url": "https://www.semanticscholar.org/paper/70ee450dcafb6178aad05482e712a95fea2a6c2e",
      "title": "POSE-VIWEPOINT ADAPTIVE OBJECT TRACKING VIA ONLINE LEARNING APPROACH",
      "venue": "",
      "year": 2015,
      "referenceCount": 35,
      "citationCount": 3,
      "authors": [
        {
          "authorId": "50214904",
          "name": "V. Mariappan"
        },
        {
          "authorId": "1774816",
          "name": "Hyung-O Kim"
        },
        {
          "authorId": "2108667313",
          "name": "Minwoo Lee"
        },
        {
          "authorId": "144428566",
          "name": "Juphil Cho"
        },
        {
          "authorId": "3301573",
          "name": "J. Cha"
        }
      ]
    },
    {
      "paperId": "683acd9567be9bfff097bc2e9feae6e843030997",
      "externalIds": {
        "CorpusId": 1381228
      },
      "url": "https://www.semanticscholar.org/paper/683acd9567be9bfff097bc2e9feae6e843030997",
      "title": "Fuse: Online Learning Framework for an Adaptive Biometric System",
      "venue": "",
      "year": 2015,
      "referenceCount": 0,
      "citationCount": 0,
      "authors": []
    }
  ]
}