{
  "total": 14626,
  "offset": 0,
  "next": 10,
  "data": [
    {
      "paperId": "b0c5a226bf4e11a8e6094858ce791ac17f546d97",
      "externalIds": {
        "MAG": "2603093240",
        "DBLP": "conf/icml/SenSDS17",
        "ArXiv": "1701.02789",
        "CorpusId": 5495175
      },
      "url": "https://www.semanticscholar.org/paper/b0c5a226bf4e11a8e6094858ce791ac17f546d97",
      "title": "Identifying Best Interventions through Online Importance Sampling",
      "venue": "International Conference on Machine Learning",
      "year": 2017,
      "referenceCount": 49,
      "citationCount": 77,
      "authors": [
        {
          "authorId": "145897034",
          "name": "Rajat Sen"
        },
        {
          "authorId": "145455859",
          "name": "Karthikeyan Shanmugam"
        },
        {
          "authorId": "1718469",
          "name": "A. Dimakis"
        },
        {
          "authorId": "1688634",
          "name": "S. Shakkottai"
        }
      ]
    },
    {
      "paperId": "57d93cf975cb8f769b11ffb20fe5f643f450e066",
      "externalIds": {
        "CorpusId": 263268598
      },
      "url": "https://www.semanticscholar.org/paper/57d93cf975cb8f769b11ffb20fe5f643f450e066",
      "title": "Identifying Best Interventions through Online Importance Sampling",
      "venue": "",
      "year": 2017,
      "referenceCount": 0,
      "citationCount": 0,
      "authors": []
    },
    {
      "paperId": "fe95f75435d2be29be605070a6d5a5719fdd5951",
      "externalIds": {
        "MAG": "2577028576",
        "DBLP": "journals/corr/SenSDS17",
        "CorpusId": 17006905
      },
      "url": "https://www.semanticscholar.org/paper/fe95f75435d2be29be605070a6d5a5719fdd5951",
      "title": "Causal Best Intervention Identification via Importance Sampling",
      "venue": "arXiv.org",
      "year": 2017,
      "referenceCount": 25,
      "citationCount": 0,
      "authors": [
        {
          "authorId": "145897034",
          "name": "Rajat Sen"
        },
        {
          "authorId": "145455859",
          "name": "Karthikeyan Shanmugam"
        },
        {
          "authorId": "1718469",
          "name": "A. Dimakis"
        },
        {
          "authorId": "1688634",
          "name": "S. Shakkottai"
        }
      ]
    },
    {
      "paperId": "fca8fd2df8c6a37992d4fe98b34630a5710f7f7b",
      "externalIds": {
        "PubMedCentral": "8822743",
        "DOI": "10.1186/s13033-022-00515-0",
        "CorpusId": 246609522,
        "PubMed": "35130947"
      },
      "url": "https://www.semanticscholar.org/paper/fca8fd2df8c6a37992d4fe98b34630a5710f7f7b",
      "title": "Identifying best practice for the supervision of mental health and psychosocial support in humanitarian emergencies: a Delphi study",
      "venue": "International Journal of Mental Health Systems",
      "year": 2022,
      "referenceCount": 30,
      "citationCount": 15,
      "authors": [
        {
          "authorId": "35664516",
          "name": "Áine Travers"
        },
        {
          "authorId": "89308694",
          "name": "Nadeen Abujaber"
        },
        {
          "authorId": "152479917",
          "name": "Kelly A. McBride"
        },
        {
          "authorId": "2131139270",
          "name": "Pia Tingsted Blum"
        },
        {
          "authorId": "40659516",
          "name": "Nana Wiedemann"
        },
        {
          "authorId": "6328131",
          "name": "F. Vallières"
        }
      ]
    },
    {
      "paperId": "a6f788cec0458bf5e4c3f3c14e657c2149312104",
      "externalIds": {
        "MAG": "3025188677",
        "DOI": "10.1177/0886260520918588",
        "CorpusId": 218619453,
        "PubMed": "32401143"
      },
      "url": "https://www.semanticscholar.org/paper/a6f788cec0458bf5e4c3f3c14e657c2149312104",
      "title": "Identifying Invalid Responders in a Campus Climate Survey: Types, Impact on Data, and Best Indicators",
      "venue": "Journal of Interpersonal Violence",
      "year": 2020,
      "referenceCount": 43,
      "citationCount": 12,
      "authors": [
        {
          "authorId": "1490656479",
          "name": "Caihong R. Li"
        },
        {
          "authorId": "6826755",
          "name": "D. Follingstad"
        },
        {
          "authorId": "92667063",
          "name": "M. Campe"
        },
        {
          "authorId": "1490671859",
          "name": "Jaspreet K. Chahal"
        }
      ]
    },
    {
      "paperId": "5074772f66ddfe2493d09b08cc6882668cd25ab6",
      "externalIds": {
        "DOI": "10.1016/j.childyouth.2023.107385",
        "CorpusId": 266183046
      },
      "url": "https://www.semanticscholar.org/paper/5074772f66ddfe2493d09b08cc6882668cd25ab6",
      "title": "Parenting: There is an app for that. A systematic review of parenting interventions apps",
      "venue": "Children and youth services review",
      "year": 2024,
      "referenceCount": 59,
      "citationCount": 14,
      "authors": [
        {
          "authorId": "2274223592",
          "name": "O. David"
        },
        {
          "authorId": "2213262134",
          "name": "I. Iuga"
        },
        {
          "authorId": "2210375521",
          "name": "I. S. Miron"
        }
      ]
    },
    {
      "paperId": "f0958f481a673dad6144208d442e63f1ecbf0e6e",
      "externalIds": {
        "MAG": "2992590060",
        "DOI": "10.1093/tbm/ibz178",
        "CorpusId": 208608655,
        "PubMed": "31793635"
      },
      "url": "https://www.semanticscholar.org/paper/f0958f481a673dad6144208d442e63f1ecbf0e6e",
      "title": "A case study of a theory-based method for identifying and reporting core functions and forms of evidence-based interventions.",
      "venue": "Translational Behavioral Medicine",
      "year": 2019,
      "referenceCount": 44,
      "citationCount": 49,
      "authors": [
        {
          "authorId": "48540947",
          "name": "M. Kirk"
        },
        {
          "authorId": "15105369",
          "name": "Emily R. Haines"
        },
        {
          "authorId": "12367562",
          "name": "F. Rokoske"
        },
        {
          "authorId": "2052828973",
          "name": "Byron J. Powell"
        },
        {
          "authorId": "2467758",
          "name": "M. Weinberger"
        },
        {
          "authorId": "144942445",
          "name": "L. Hanson"
        },
        {
          "authorId": "39015143",
          "name": "S. Birken"
        }
      ]
    },
    {
      "paperId": "13ce813796933cadd7ae9356d56c714283cc7c75",
      "externalIds": {
        "ACL": "2022.acl-long.318",
        "DBLP": "journals/corr/abs-2205-05593",
        "ArXiv": "2205.05593",
        "DOI": "10.48550/arXiv.2205.05593",
        "CorpusId": 248693343
      },
      "url": "https://www.semanticscholar.org/paper/13ce813796933cadd7ae9356d56c714283cc7c75",
      "title": "Identifying Moments of Change from Longitudinal User Text",
      "venue": "Annual Meeting of the Association for Computational Linguistics",
      "year": 2022,
      "referenceCount": 65,
      "citationCount": 45,
      "authors": [
        {
          "authorId": "32728828",
          "name": "Adam Tsakalidis"
        },
        {
          "authorId": "3393380",
          "name": "F. Nanni"
        },
        {
          "authorId": "2164872172",
          "name": "Anthony Hills"
        },
        {
          "authorId": "2164872258",
          "name": "Jenny Chim"
        },
        {
          "authorId": "2165183029",
          "name": "Jiayu Song"
        },
        {
          "authorId": "48717312",
          "name": "M. Liakata"
        }
      ]
    },
    {
      "paperId": "477aea8fa5c08f9d03f59e6e2951127a7dc2b617",
      "externalIds": {
        "MAG": "2474187140",
        "DOI": "10.1016/j.amepre.2016.06.015",
        "CorpusId": 46207338,
        "PubMed": "27745683"
      },
      "url": "https://www.semanticscholar.org/paper/477aea8fa5c08f9d03f59e6e2951127a7dc2b617",
      "title": "Understanding and Promoting Effective Engagement With Digital Behavior Change Interventions.",
      "venue": "American Journal of Preventive Medicine",
      "year": 2016,
      "referenceCount": 73,
      "citationCount": 991,
      "authors": [
        {
          "authorId": "2688701",
          "name": "L. Yardley"
        },
        {
          "authorId": "144789964",
          "name": "B. Spring"
        },
        {
          "authorId": "3850886",
          "name": "H. Riper"
        },
        {
          "authorId": "144135845",
          "name": "L. Morrison"
        },
        {
          "authorId": "143799834",
          "name": "David Crane"
        },
        {
          "authorId": "2936322",
          "name": "K. Curtis"
        },
        {
          "authorId": "2840353",
          "name": "Gina Merchant"
        },
        {
          "authorId": "52002386",
          "name": "F. Naughton"
        },
        {
          "authorId": "67184210",
          "name": "A. Blandford"
        }
      ]
    },
    {
      "paperId": "d1650b68112d582a42eab85593936f48fb0b93a4",
      "externalIds": {
        "MAG": "3043202337",
        "DOI": "10.1016/j.jebdp.2020.101469",
        "CorpusId": 225644041,
        "PubMed": "33303098"
      },
      "url": "https://www.semanticscholar.org/paper/d1650b68112d582a42eab85593936f48fb0b93a4",
      "title": "Colocation Does Not Equal Integration: Identifying and Measuring Best Practices in Primary Care Integration of Children's Oral Health Services in Health Centers.",
      "venue": "Journal of Evidence-Based Dental Practice",
      "year": 2020,
      "referenceCount": 18,
      "citationCount": 6,
      "authors": [
        {
          "authorId": "6191432",
          "name": "N. Pourat"
        },
        {
          "authorId": "117159185",
          "name": "Ana E. Martinez"
        },
        {
          "authorId": "1620436979",
          "name": "L. A. Haley"
        },
        {
          "authorId": "2290147",
          "name": "J. Crall"
        }
      ]
    }
  ]
}