{
  "total": 29,
  "offset": 0,
  "next": 10,
  "data": [
    {
      "paperId": "ece6813a47460b5f17cec62966f54b2b6623d68e",
      "externalIds": {
        "MAG": "2950247548",
        "ArXiv": "1703.03478",
        "DBLP": "conf/icml/CortesDGMY18",
        "CorpusId": 3621102
      },
      "url": "https://www.semanticscholar.org/paper/ece6813a47460b5f17cec62966f54b2b6623d68e",
      "title": "Online Learning with Abstention",
      "venue": "International Conference on Machine Learning",
      "year": 2017,
      "referenceCount": 28,
      "citationCount": 52,
      "authors": [
        {
          "authorId": "145115014",
          "name": "Corinna Cortes"
        },
        {
          "authorId": "3186812",
          "name": "Giulia DeSalvo"
        },
        {
          "authorId": "1895207",
          "name": "C. Gentile"
        },
        {
          "authorId": "81080659",
          "name": "M. Mohri"
        },
        {
          "authorId": "2108926107",
          "name": "Scott Yang"
        }
      ]
    },
    {
      "paperId": "4f13c01188471eb5a4dd1cf0246fc48d67c22959",
      "externalIds": {
        "CorpusId": 260449399
      },
      "url": "https://www.semanticscholar.org/paper/4f13c01188471eb5a4dd1cf0246fc48d67c22959",
      "title": "Online Learning with Abstention",
      "venue": "",
      "year": 2018,
      "referenceCount": 0,
      "citationCount": 0,
      "authors": []
    },
    {
      "paperId": "c0c5ccde3bca0b71c5e101a1bd0693ae30aedddc",
      "externalIds": {
        "DBLP": "journals/corr/CortesDMY17",
        "CorpusId": 13070799
      },
      "url": "https://www.semanticscholar.org/paper/c0c5ccde3bca0b71c5e101a1bd0693ae30aedddc",
      "title": "On-line Learning with Abstention",
      "venue": "arXiv.org",
      "year": 2017,
      "referenceCount": 17,
      "citationCount": 5,
      "authors": [
        {
          "authorId": "145115014",
          "name": "Corinna Cortes"
        },
        {
          "authorId": "3186812",
          "name": "Giulia DeSalvo"
        },
        {
          "authorId": "81080659",
          "name": "M. Mohri"
        },
        {
          "authorId": "2108926107",
          "name": "Scott Yang"
        }
      ]
    },
    {
      "paperId": "6f58793f6902194513f932b194826fc92bc473ae",
      "externalIds": {
        "DBLP": "conf/icdm/LianH0024",
        "DOI": "10.1109/ICDM59182.2024.00031",
        "CorpusId": 276510257
      },
      "url": "https://www.semanticscholar.org/paper/6f58793f6902194513f932b194826fc92bc473ae",
      "title": "Utilitarian Online Learning from Open-World Soft Sensing",
      "venue": "Industrial Conference on Data Mining",
      "year": 2024,
      "referenceCount": 68,
      "citationCount": 1,
      "authors": [
        {
          "authorId": "2266517591",
          "name": "Heng Lian"
        },
        {
          "authorId": "2366038065",
          "name": "Yu Huang"
        },
        {
          "authorId": "2346660085",
          "name": "Xingquan Zhu"
        },
        {
          "authorId": "2293401307",
          "name": "Yi He"
        }
      ]
    },
    {
      "paperId": "dc80555d0fa723530cd4f5657daf49be9893d800",
      "externalIds": {
        "MAG": "2946380381",
        "DBLP": "conf/icml/CortesDGMY19",
        "CorpusId": 174799826
      },
      "url": "https://www.semanticscholar.org/paper/dc80555d0fa723530cd4f5657daf49be9893d800",
      "title": "Online Learning with Sleeping Experts and Feedback Graphs",
      "venue": "International Conference on Machine Learning",
      "year": 2019,
      "referenceCount": 23,
      "citationCount": 15,
      "authors": [
        {
          "authorId": "145115014",
          "name": "Corinna Cortes"
        },
        {
          "authorId": "3186812",
          "name": "Giulia DeSalvo"
        },
        {
          "authorId": "1895207",
          "name": "C. Gentile"
        },
        {
          "authorId": "81080659",
          "name": "M. Mohri"
        },
        {
          "authorId": "2108926107",
          "name": "Scott Yang"
        }
      ]
    },
    {
      "paperId": "f11e77ccb3196292263914053f30162e8c28b51b",
      "externalIds": {
        "CorpusId": 18326378
      },
      "url": "https://www.semanticscholar.org/paper/f11e77ccb3196292263914053f30162e8c28b51b",
      "title": "A Potential-based Framework for Online Learning with Mistakes and Abstentions",
      "venue": "",
      "year": 2016,
      "referenceCount": 19,
      "citationCount": 1,
      "authors": [
        {
          "authorId": "40201729",
          "name": "Chicheng Zhang"
        },
        {
          "authorId": "38120884",
          "name": "Kamalika Chaudhuri"
        },
        {
          "authorId": "7678785",
          "name": "U. Diego"
        }
      ]
    },
    {
      "paperId": "2f38aac6b859ae4ebd21de810ae772ad882e1894",
      "externalIds": {
        "DBLP": "journals/corr/abs-2602-20111",
        "ArXiv": "2602.20111",
        "DOI": "10.48550/arXiv.2602.20111",
        "CorpusId": 285974220
      },
      "url": "https://www.semanticscholar.org/paper/2f38aac6b859ae4ebd21de810ae772ad882e1894",
      "title": "Reliable Abstention under Adversarial Injections: Tight Lower Bounds and New Upper Bounds",
      "venue": "arXiv.org",
      "year": 2026,
      "referenceCount": 33,
      "citationCount": 0,
      "authors": [
        {
          "authorId": "2284694485",
          "name": "Ezra Edelman"
        },
        {
          "authorId": "9935792",
          "name": "Surbhi Goel"
        }
      ]
    },
    {
      "paperId": "321331b997b6cd718552b0df919aeae2afcf3a7f",
      "externalIds": {
        "MAG": "2341962243",
        "DBLP": "journals/corr/ZhangC16a",
        "ArXiv": "1604.06162",
        "CorpusId": 1177744
      },
      "url": "https://www.semanticscholar.org/paper/321331b997b6cd718552b0df919aeae2afcf3a7f",
      "title": "The Extended Littlestone's Dimension for Learning with Mistakes and Abstentions",
      "venue": "Annual Conference Computational Learning Theory",
      "year": 2016,
      "referenceCount": 44,
      "citationCount": 26,
      "authors": [
        {
          "authorId": "40201729",
          "name": "Chicheng Zhang"
        },
        {
          "authorId": "38120884",
          "name": "Kamalika Chaudhuri"
        }
      ]
    },
    {
      "paperId": "5947fd6ee72029a9e953f19410bf85c4e1f06ad3",
      "externalIds": {
        "DBLP": "conf/uai/KalraSM21",
        "ArXiv": "2107.03090",
        "CorpusId": 235804387
      },
      "url": "https://www.semanticscholar.org/paper/5947fd6ee72029a9e953f19410bf85c4e1f06ad3",
      "title": "RISAN: Robust Instance Specific Abstention Network",
      "venue": "Conference on Uncertainty in Artificial Intelligence",
      "year": 2021,
      "referenceCount": 35,
      "citationCount": 2,
      "authors": [
        {
          "authorId": "2088921101",
          "name": "B. Kalra"
        },
        {
          "authorId": "2053918106",
          "name": "Kulin Shah"
        },
        {
          "authorId": "3222980",
          "name": "Naresh Manwani"
        }
      ]
    },
    {
      "paperId": "2fa36ed085eed13a01f765b69cd824873aeec5b6",
      "externalIds": {
        "DBLP": "conf/nips/GangradeKCS21",
        "ArXiv": "2110.14243",
        "CorpusId": 239998544
      },
      "url": "https://www.semanticscholar.org/paper/2fa36ed085eed13a01f765b69cd824873aeec5b6",
      "title": "Online Selective Classification with Limited Feedback",
      "venue": "Neural Information Processing Systems",
      "year": 2021,
      "referenceCount": 49,
      "citationCount": 10,
      "authors": [
        {
          "authorId": "40417349",
          "name": "Aditya Gangrade"
        },
        {
          "authorId": "35544303",
          "name": "Anil Kag"
        },
        {
          "authorId": "9407860",
          "name": "Ashok Cutkosky"
        },
        {
          "authorId": "1699322",
          "name": "Venkatesh Saligrama"
        }
      ]
    }
  ]
}