{
  "total": 52,
  "offset": 0,
  "next": 10,
  "data": [
    {
      "paperId": "04541599accc47d8174f63345ce9c987ef21685b",
      "externalIds": {
        "ArXiv": "1802.05983",
        "DBLP": "conf/icml/KimM18",
        "MAG": "2949452211",
        "CorpusId": 3380833
      },
      "url": "https://www.semanticscholar.org/paper/04541599accc47d8174f63345ce9c987ef21685b",
      "title": "Disentangling by Factorising",
      "venue": "International Conference on Machine Learning",
      "year": 2018,
      "referenceCount": 61,
      "citationCount": 1516,
      "authors": [
        {
          "authorId": "3407176",
          "name": "Hyunjik Kim"
        },
        {
          "authorId": "1714004",
          "name": "A. Mnih"
        }
      ]
    },
    {
      "paperId": "7891398d63b760433ee80550de2fc9396fea4e46",
      "externalIds": {
        "CorpusId": 53135536
      },
      "url": "https://www.semanticscholar.org/paper/7891398d63b760433ee80550de2fc9396fea4e46",
      "title": "Disentangling by Factorising Appendix A. Experimental Details for FactorVAE and β-VAE",
      "venue": "",
      "year": 2018,
      "referenceCount": 0,
      "citationCount": 0,
      "authors": []
    },
    {
      "paperId": "0910da49f55e91237d4f763a8483941db5fa84f2",
      "externalIds": {
        "DBLP": "conf/acl/HoskingL20",
        "ACL": "2021.acl-long.112",
        "ArXiv": "2105.15053",
        "DOI": "10.18653/v1/2021.acl-long.112",
        "CorpusId": 235254009
      },
      "url": "https://www.semanticscholar.org/paper/0910da49f55e91237d4f763a8483941db5fa84f2",
      "title": "Factorising Meaning and Form for Intent-Preserving Paraphrasing",
      "venue": "Annual Meeting of the Association for Computational Linguistics",
      "year": 2021,
      "referenceCount": 46,
      "citationCount": 47,
      "authors": [
        {
          "authorId": "73767990",
          "name": "Tom Hosking"
        },
        {
          "authorId": "1747893",
          "name": "Mirella Lapata"
        }
      ]
    },
    {
      "paperId": "0f8e002a4e83c2c84e35a4d046d4c2cec215cef3",
      "externalIds": {
        "MAG": "3153370026",
        "DOI": "10.1007/JHEP04(2021)158",
        "CorpusId": 234891727
      },
      "url": "https://www.semanticscholar.org/paper/0f8e002a4e83c2c84e35a4d046d4c2cec215cef3",
      "title": "Disentangling QCD and new physics in D → πℓ+ℓ−",
      "venue": "Journal of High Energy Physics",
      "year": 2021,
      "referenceCount": 70,
      "citationCount": 17,
      "authors": [
        {
          "authorId": "144591700",
          "name": "A. Bharucha"
        },
        {
          "authorId": "12951152",
          "name": "D. Boito"
        },
        {
          "authorId": "14528713",
          "name": "C. Méaux"
        }
      ]
    },
    {
      "paperId": "1022dd5eeecc69c365404bc79130c3b1494f2aab",
      "externalIds": {
        "MAG": "3109684971",
        "ArXiv": "2011.12856",
        "CorpusId": 227162006
      },
      "url": "https://www.semanticscholar.org/paper/1022dd5eeecc69c365404bc79130c3b1494f2aab",
      "title": "Disentangling QCD and New Physics in $D^+\\to\\pi^+\\ell^+\\ell^-$",
      "venue": "",
      "year": 2020,
      "referenceCount": 64,
      "citationCount": 3,
      "authors": [
        {
          "authorId": "144591700",
          "name": "A. Bharucha"
        },
        {
          "authorId": "12951152",
          "name": "D. Boito"
        },
        {
          "authorId": "2081196738",
          "name": "C'edric M'eaux"
        }
      ]
    },
    {
      "paperId": "1b0943d0fc0e6c8055d645b36eb3dd35d35d4572",
      "externalIds": {
        "CorpusId": 249567863
      },
      "url": "https://www.semanticscholar.org/paper/1b0943d0fc0e6c8055d645b36eb3dd35d35d4572",
      "title": "Disentangling weak and strong interactions in B → K ∗ ( → K π )π Dalitz-plot analyses",
      "venue": "",
      "year": 2017,
      "referenceCount": 0,
      "citationCount": 10,
      "authors": [
        {
          "authorId": "40989396",
          "name": "J. Charles"
        },
        {
          "authorId": "1387806498",
          "name": "S. Descotes-Genon"
        },
        {
          "authorId": "104444641",
          "name": "J. Ocariz"
        },
        {
          "authorId": "2110387603",
          "name": "A. Pérez"
        }
      ]
    },
    {
      "paperId": "18624bbfabc8bab632f0b6467992cca70f52b5aa",
      "externalIds": {
        "ArXiv": "1704.01596",
        "MAG": "2609320820",
        "DOI": "10.1140/epjc/s10052-017-5133-x",
        "CorpusId": 119364738
      },
      "url": "https://www.semanticscholar.org/paper/18624bbfabc8bab632f0b6467992cca70f52b5aa",
      "title": "Disentangling weak and strong interactions in $$B\\rightarrow K^{*}(\\rightarrow K\\pi )\\pi $$B→K∗(→Kπ)π Dalitz-plot analyses",
      "venue": "",
      "year": 2017,
      "referenceCount": 63,
      "citationCount": 8,
      "authors": [
        {
          "authorId": "40989396",
          "name": "J. Charles"
        },
        {
          "authorId": "1387806498",
          "name": "S. Descotes-Genon"
        },
        {
          "authorId": "104444641",
          "name": "J. Ocariz"
        },
        {
          "authorId": "1399485159",
          "name": "Alejandro Pérez Pérez"
        },
        {
          "authorId": "1409668993",
          "name": "F. T. C. group"
        }
      ]
    },
    {
      "paperId": "1b0e48302d3078882009ae850953e70834ae15ad",
      "externalIds": {
        "MAG": "3100931955",
        "ArXiv": "1709.04935",
        "DOI": "10.21468/SciPostPhys.3.6.040",
        "CorpusId": 53996371
      },
      "url": "https://www.semanticscholar.org/paper/1b0e48302d3078882009ae850953e70834ae15ad",
      "title": "Colour unwound - disentangling colours for azimuthal asymmetries in Drell-Yan scattering",
      "venue": "",
      "year": 2017,
      "referenceCount": 75,
      "citationCount": 6,
      "authors": [
        {
          "authorId": "103367629",
          "name": "D. Boer"
        },
        {
          "authorId": "102280953",
          "name": "T. Daal"
        },
        {
          "authorId": "73235782",
          "name": "J. Gaunt"
        },
        {
          "authorId": "70210574",
          "name": "T. Kasemets"
        },
        {
          "authorId": "6357535",
          "name": "P. Mulders"
        }
      ]
    },
    {
      "paperId": "9da765e3a3f818c8c7643587eb358395d91b5ae8",
      "externalIds": {
        "PubMedCentral": "12709194",
        "DOI": "10.1093/nargab/lqaf181",
        "CorpusId": 283929256,
        "PubMed": "41415301"
      },
      "url": "https://www.semanticscholar.org/paper/9da765e3a3f818c8c7643587eb358395d91b5ae8",
      "title": "StarSignDNA: mutation-to-signature attribution for accurate representation of mutational processes in low-mutation contexts",
      "venue": "NAR Genomics and Bioinformatics",
      "year": 2025,
      "referenceCount": 37,
      "citationCount": 0,
      "authors": [
        {
          "authorId": "12062997",
          "name": "C. Bope"
        },
        {
          "authorId": "2223974609",
          "name": "Sumana Kalyanasundaram"
        },
        {
          "authorId": "2309718465",
          "name": "Knut D. Rand"
        },
        {
          "authorId": "7010256",
          "name": "S. Nakken"
        },
        {
          "authorId": "143759960",
          "name": "O. Lingjærde"
        },
        {
          "authorId": "2347337321",
          "name": "E. Hovig"
        }
      ]
    },
    {
      "paperId": "4633f05d3bc778e4f9224a66a4186bec075eba19",
      "externalIds": {
        "ArXiv": "2412.18743",
        "DBLP": "journals/corr/abs-2412-18743",
        "DOI": "10.48550/arXiv.2412.18743",
        "CorpusId": 275118501
      },
      "url": "https://www.semanticscholar.org/paper/4633f05d3bc778e4f9224a66a4186bec075eba19",
      "title": "Successes and Limitations of Object-centric Models at Compositional Generalisation",
      "venue": "arXiv.org",
      "year": 2024,
      "referenceCount": 24,
      "citationCount": 3,
      "authors": [
        {
          "authorId": "147542799",
          "name": "M. Montero"
        },
        {
          "authorId": "2238295394",
          "name": "Jeffrey S. Bowers"
        },
        {
          "authorId": "47580022",
          "name": "Gaurav Malhotra"
        }
      ]
    }
  ]
}