{
  "total": 23,
  "offset": 0,
  "next": 10,
  "data": [
    {
      "paperId": "59831fdf67d2a058575295d00aad89321e42938a",
      "externalIds": {
        "MAG": "2804917333",
        "DBLP": "conf/icml/MazharRFH18",
        "ArXiv": "1912.01308",
        "CorpusId": 51868776
      },
      "url": "https://www.semanticscholar.org/paper/59831fdf67d2a058575295d00aad89321e42938a",
      "title": "Bayesian Model Selection for Change Point Detection and Clustering",
      "venue": "International Conference on Machine Learning",
      "year": 2018,
      "referenceCount": 36,
      "citationCount": 5,
      "authors": [
        {
          "authorId": "51130486",
          "name": "Othmane Mazhar"
        },
        {
          "authorId": "144105548",
          "name": "C. Rojas"
        },
        {
          "authorId": "1709815",
          "name": "C. Fischione"
        },
        {
          "authorId": "2435274",
          "name": "M. Hesamzadeh"
        }
      ]
    },
    {
      "paperId": "c8fcd61b84da694c9d0893120f8fd119877848bb",
      "externalIds": {
        "DBLP": "journals/bioinformatics/XiaoMZ15",
        "MAG": "2122168521",
        "DOI": "10.1093/bioinformatics/btu850",
        "CorpusId": 22025149,
        "PubMed": "25542927"
      },
      "url": "https://www.semanticscholar.org/paper/c8fcd61b84da694c9d0893120f8fd119877848bb",
      "title": "Modified screening and ranking algorithm for copy number variation detection",
      "venue": "Bioinform.",
      "year": 2015,
      "referenceCount": 29,
      "citationCount": 24,
      "authors": [
        {
          "authorId": "3357942",
          "name": "Feifei Xiao"
        },
        {
          "authorId": "2055549625",
          "name": "Xiaoyi Min"
        },
        {
          "authorId": "48212763",
          "name": "Heping Zhang"
        }
      ]
    },
    {
      "paperId": "4b8308f701e10182ef9d7af0e40bc4b9b66cfa83",
      "externalIds": {
        "DBLP": "conf/ssp/DikmenC14",
        "MAG": "2155252601",
        "DOI": "10.1109/SSP.2014.6884629",
        "CorpusId": 14269486
      },
      "url": "https://www.semanticscholar.org/paper/4b8308f701e10182ef9d7af0e40bc4b9b66cfa83",
      "title": "Sequential Monte Carlo samplers for marginal likelihood computation in multiplicative exponential noise models",
      "venue": "Symposium on Software Performance",
      "year": 2014,
      "referenceCount": 11,
      "citationCount": 0,
      "authors": [
        {
          "authorId": "2904540",
          "name": "O. Dikmen"
        },
        {
          "authorId": "9235290",
          "name": "Ali Taylan Cemgil"
        }
      ]
    },
    {
      "paperId": "8ded69d1e73f286a50a0ea3fc2738cca7a5a127d",
      "externalIds": {
        "MAG": "2626499626",
        "CorpusId": 55583127
      },
      "url": "https://www.semanticscholar.org/paper/8ded69d1e73f286a50a0ea3fc2738cca7a5a127d",
      "title": "Recurrent-Event Models for Change-Points Detection",
      "venue": "",
      "year": 2015,
      "referenceCount": 69,
      "citationCount": 2,
      "authors": [
        {
          "authorId": "2146067977",
          "name": "Qing Li"
        }
      ]
    },
    {
      "paperId": "d49976c71e890508addac18ea7ead7a8222a40cc",
      "externalIds": {
        "DOI": "10.5194/esurf-2021-103",
        "CorpusId": 245899758
      },
      "url": "https://www.semanticscholar.org/paper/d49976c71e890508addac18ea7ead7a8222a40cc",
      "title": "Full 4D Change Analysis of Topographic Point Cloud Time Series using Kalman Filtering",
      "venue": "",
      "year": 2022,
      "referenceCount": 32,
      "citationCount": 5,
      "authors": [
        {
          "authorId": "104732770",
          "name": "L. Winiwarter"
        },
        {
          "authorId": "46176538",
          "name": "K. Anders"
        },
        {
          "authorId": "2144929119",
          "name": "Daniel Schröder"
        },
        {
          "authorId": "145794330",
          "name": "B. Höfle"
        }
      ]
    },
    {
      "paperId": "ab6412c5f408d54ca5a3720c4a477bcb31bbe408",
      "externalIds": {
        "MAG": "2243035638",
        "CorpusId": 192274144
      },
      "url": "https://www.semanticscholar.org/paper/ab6412c5f408d54ca5a3720c4a477bcb31bbe408",
      "title": "Community detection in dynamic networks",
      "venue": "",
      "year": 2013,
      "referenceCount": 104,
      "citationCount": 0,
      "authors": [
        {
          "authorId": "103950955",
          "name": "Niloufar Afsariardchi"
        }
      ]
    },
    {
      "paperId": "d0ad26b1445c342cf110bcfe7eb3685de0bb8867",
      "externalIds": {
        "MAG": "2506584907",
        "DBLP": "conf/ausai/2004",
        "DOI": "10.1007/b104336",
        "CorpusId": 38541125
      },
      "url": "https://www.semanticscholar.org/paper/d0ad26b1445c342cf110bcfe7eb3685de0bb8867",
      "title": "AI 2004: Advances in Artificial Intelligence, 17th Australian Joint Conference on Artificial Intelligence, Cairns, Australia, December 4-6, 2004, Proceedings",
      "venue": "Australian Conference on Artificial Intelligence",
      "year": 2004,
      "referenceCount": 0,
      "citationCount": 110,
      "authors": [
        {
          "authorId": "1726660",
          "name": "Geoffrey I. Webb"
        },
        {
          "authorId": "9305829",
          "name": "Xinghuo Yu"
        }
      ]
    },
    {
      "paperId": "db461e10f9914bf780c792e72e2a6f0a25e1d3d1",
      "externalIds": {
        "MAG": "1520787119",
        "DBLP": "conf/gfkl/2004",
        "DOI": "10.1007/3-540-28084-7",
        "CorpusId": 31543755
      },
      "url": "https://www.semanticscholar.org/paper/db461e10f9914bf780c792e72e2a6f0a25e1d3d1",
      "title": "Classification - the Ubiquitous Challenge, Proceedings of the 28th Annual Conference of the Gesellschaft für Klassifikation e.V., University of Dortmund, March 9-11, 2004",
      "venue": "Annual Conference of the Gesellschaft für Klassifikation",
      "year": 2005,
      "referenceCount": 0,
      "citationCount": 64,
      "authors": [
        {
          "authorId": "66181685",
          "name": "G. F. K. Jahrestagung"
        },
        {
          "authorId": "1684641",
          "name": "C. Weihs"
        },
        {
          "authorId": "144366978",
          "name": "W. Gaul"
        }
      ]
    },
    {
      "paperId": "0fdfb0c9a17ba30fddb09dcb1ebb6e0dd43c3d2e",
      "externalIds": {
        "MAG": "572655327",
        "CorpusId": 118770561
      },
      "url": "https://www.semanticscholar.org/paper/0fdfb0c9a17ba30fddb09dcb1ebb6e0dd43c3d2e",
      "title": "Some recent advances in mathematics and statistics : proceedings of statistics 2011 Canada/IMST 2011-FIM XX, Montreal, Canada, 1-4 July 2011",
      "venue": "",
      "year": 2013,
      "referenceCount": 0,
      "citationCount": 0,
      "authors": [
        {
          "authorId": "2559531",
          "name": "Y. Chaubey"
        }
      ]
    },
    {
      "paperId": "7e1c4ad36f10ce4073ff0b084b0b50b2aba1526d",
      "externalIds": {
        "MAG": "1541503310",
        "CorpusId": 60629341
      },
      "url": "https://www.semanticscholar.org/paper/7e1c4ad36f10ce4073ff0b084b0b50b2aba1526d",
      "title": "Medical data analysis : First International Symposium, ISMDA 2000, Frankfurt, Germany, September 29-30, 2000 : proceedings",
      "venue": "",
      "year": 2000,
      "referenceCount": 0,
      "citationCount": 1,
      "authors": [
        {
          "authorId": "1682400",
          "name": "R. Brause"
        },
        {
          "authorId": "1948229",
          "name": "E. Hanisch"
        }
      ]
    }
  ]
}