{
  "total": 9191,
  "offset": 0,
  "next": 10,
  "data": [
    {
      "paperId": "f05f8ad1465b14b6b5f9e5f4c6ea324c67a2a326",
      "externalIds": {
        "DBLP": "conf/icml/Luo17",
        "MAG": "2742021527",
        "CorpusId": 24239493
      },
      "url": "https://www.semanticscholar.org/paper/f05f8ad1465b14b6b5f9e5f4c6ea324c67a2a326",
      "title": "Learning Deep Architectures via Generalized Whitened Neural Networks",
      "venue": "International Conference on Machine Learning",
      "year": 2017,
      "referenceCount": 23,
      "citationCount": 46,
      "authors": [
        {
          "authorId": "47571885",
          "name": "Ping Luo"
        }
      ]
    },
    {
      "paperId": "c9970a80fc35ad7ca758903de9fbd424784c9816",
      "externalIds": {
        "DBLP": "journals/corr/abs-2003-02647",
        "MAG": "3009669482",
        "ArXiv": "2003.02647",
        "DOI": "10.1088/2632-2153/abc81b",
        "CorpusId": 212414918
      },
      "url": "https://www.semanticscholar.org/paper/c9970a80fc35ad7ca758903de9fbd424784c9816",
      "title": "Watch and learn—a generalized approach for transferrable learning in deep neural networks via physical principles",
      "venue": "Machine Learning: Science and Technology",
      "year": 2020,
      "referenceCount": 29,
      "citationCount": 6,
      "authors": [
        {
          "authorId": "1522053348",
          "name": "Kyle Sprague"
        },
        {
          "authorId": "5048394",
          "name": "J. Carrasquilla"
        },
        {
          "authorId": "2574566",
          "name": "S. Whitelam"
        },
        {
          "authorId": "47465696",
          "name": "Isaac Tamblyn"
        }
      ]
    },
    {
      "paperId": "a29b7a000e6e1a2907ce6ae24a03aba5d9ef873f",
      "externalIds": {
        "MAG": "2253429366",
        "DBLP": "journals/corr/ShinRGLXNYMS16",
        "PubMedCentral": "4890616",
        "ArXiv": "1602.03409",
        "DOI": "10.1109/TMI.2016.2528162",
        "CorpusId": 3333267,
        "PubMed": "26886976"
      },
      "url": "https://www.semanticscholar.org/paper/a29b7a000e6e1a2907ce6ae24a03aba5d9ef873f",
      "title": "Deep Convolutional Neural Networks for Computer-Aided Detection: CNN Architectures, Dataset Characteristics and Transfer Learning",
      "venue": "IEEE Transactions on Medical Imaging",
      "year": 2016,
      "referenceCount": 76,
      "citationCount": 4999,
      "authors": [
        {
          "authorId": "1797022",
          "name": "Hoo-Chang Shin"
        },
        {
          "authorId": "144531567",
          "name": "H. Roth"
        },
        {
          "authorId": "39703662",
          "name": "Mingchen Gao"
        },
        {
          "authorId": "50706692",
          "name": "Le Lu"
        },
        {
          "authorId": "1742135",
          "name": "Ziyue Xu"
        },
        {
          "authorId": "37754137",
          "name": "Isabella Nogues"
        },
        {
          "authorId": "1722252",
          "name": "Jianhua Yao"
        },
        {
          "authorId": "1691549",
          "name": "D. Mollura"
        },
        {
          "authorId": "2388128104",
          "name": "R. Summers"
        }
      ]
    },
    {
      "paperId": "cf955256bbc207f668e44be970712f6f92fa2c0d",
      "externalIds": {
        "DOI": "10.1109/PRML66062.2025.11159794",
        "CorpusId": 281334779
      },
      "url": "https://www.semanticscholar.org/paper/cf955256bbc207f668e44be970712f6f92fa2c0d",
      "title": "Deep Graph Wavelet Neural Networks Using Heat Kernel for Semi-supervised Node Classification",
      "venue": "2025 IEEE 6th International Conference on Pattern Recognition and Machine Learning (PRML)",
      "year": 2025,
      "referenceCount": 31,
      "citationCount": 0,
      "authors": [
        {
          "authorId": "3371274",
          "name": "Jinmiao Huang"
        },
        {
          "authorId": "1972160097",
          "name": "Xianchen Zhou"
        },
        {
          "authorId": "2351766500",
          "name": "Haoran Chen"
        },
        {
          "authorId": "2321040401",
          "name": "Hongxia Wang"
        }
      ]
    },
    {
      "paperId": "1b312cbe72d8790a9db613e0dce6091da1a6d778",
      "externalIds": {
        "DBLP": "journals/corr/abs-2410-06530",
        "ArXiv": "2410.06530",
        "DOI": "10.48550/arXiv.2410.06530",
        "CorpusId": 273228848
      },
      "url": "https://www.semanticscholar.org/paper/1b312cbe72d8790a9db613e0dce6091da1a6d778",
      "title": "TopoTune : A Framework for Generalized Combinatorial Complex Neural Networks",
      "venue": "International Conference on Machine Learning",
      "year": 2024,
      "referenceCount": 60,
      "citationCount": 13,
      "authors": [
        {
          "authorId": "2179109497",
          "name": "Mathilde Papillon"
        },
        {
          "authorId": "2230667354",
          "name": "Guillermo Bern'ardez"
        },
        {
          "authorId": "115032226",
          "name": "C. Battiloro"
        },
        {
          "authorId": "2219727218",
          "name": "N. Miolane"
        }
      ]
    },
    {
      "paperId": "0289d774bd0dc8025005110973d5b8e6439197d8",
      "externalIds": {
        "ArXiv": "2002.10085",
        "DBLP": "conf/nips/Zhang020",
        "MAG": "3099451594",
        "CorpusId": 211258776
      },
      "url": "https://www.semanticscholar.org/paper/0289d774bd0dc8025005110973d5b8e6439197d8",
      "title": "Temporal Spike Sequence Learning via Backpropagation for Deep Spiking Neural Networks",
      "venue": "Neural Information Processing Systems",
      "year": 2020,
      "referenceCount": 35,
      "citationCount": 253,
      "authors": [
        {
          "authorId": "49039404",
          "name": "Wenrui Zhang"
        },
        {
          "authorId": "2149247484",
          "name": "Peng Li"
        }
      ]
    },
    {
      "paperId": "c07715bd86e219597bf8c42b1d974b4316c9ebd8",
      "externalIds": {
        "ArXiv": "2404.17466",
        "DBLP": "journals/mlst/BaiWTOLW25",
        "DOI": "10.1088/2632-2153/adca83",
        "CorpusId": 269430378
      },
      "url": "https://www.semanticscholar.org/paper/c07715bd86e219597bf8c42b1d974b4316c9ebd8",
      "title": "Transfer learning nonlinear plasma dynamic transitions in low dimensional embeddings via deep neural networks",
      "venue": "Machine Learning: Science and Technology",
      "year": 2024,
      "referenceCount": 58,
      "citationCount": 2,
      "authors": [
        {
          "authorId": "2262215336",
          "name": "Zhe Bai"
        },
        {
          "authorId": "145552824",
          "name": "Xishuo Wei"
        },
        {
          "authorId": "11414146",
          "name": "William M. Tang"
        },
        {
          "authorId": "1757847",
          "name": "L. Oliker"
        },
        {
          "authorId": "2241607676",
          "name": "Zhihong Lin"
        },
        {
          "authorId": "2260292579",
          "name": "Samuel Williams"
        }
      ]
    },
    {
      "paperId": "adddbd051ab88035da2b0846bf5105636a74e809",
      "externalIds": {
        "DOI": "10.1109/NMITCON65824.2025.11187444",
        "CorpusId": 282001880
      },
      "url": "https://www.semanticscholar.org/paper/adddbd051ab88035da2b0846bf5105636a74e809",
      "title": "Real-Time Multimodal Driver Risk Assessment Through Integrated Facial, Physiological, and Vehicular Data Fusion Using Hybrid Deep Learning Architectures",
      "venue": "2025 Third International Conference on Networks, Multimedia and Information Technology (NMITCON)",
      "year": 2025,
      "referenceCount": 18,
      "citationCount": 1,
      "authors": [
        {
          "authorId": "2306086881",
          "name": "Arnav Kumar"
        },
        {
          "authorId": "2321671578",
          "name": "G. Karthik"
        }
      ]
    },
    {
      "paperId": "2099d040067bcd1a8ea88cf452f77d04097fbad3",
      "externalIds": {
        "DBLP": "journals/pr/LauriolaGA20",
        "MAG": "2996798951",
        "DOI": "10.1016/j.patcog.2020.107194",
        "CorpusId": 212667152
      },
      "url": "https://www.semanticscholar.org/paper/2099d040067bcd1a8ea88cf452f77d04097fbad3",
      "title": "Enhancing deep neural networks via multiple kernel learning",
      "venue": "Pattern Recognition",
      "year": 2020,
      "referenceCount": 36,
      "citationCount": 47,
      "authors": [
        {
          "authorId": "49548657",
          "name": "Ivano Lauriola"
        },
        {
          "authorId": "2158038",
          "name": "C. Gallicchio"
        },
        {
          "authorId": "1788286",
          "name": "F. Aiolli"
        }
      ]
    },
    {
      "paperId": "5bc9c75fd8a5060120e1bbd622cac8322cc623be",
      "externalIds": {
        "MAG": "2579348194",
        "DBLP": "journals/ijon/Mehdipour-Ghazi17",
        "DOI": "10.1016/J.NEUCOM.2017.01.018",
        "CorpusId": 207116764
      },
      "url": "https://www.semanticscholar.org/paper/5bc9c75fd8a5060120e1bbd622cac8322cc623be",
      "title": "Plant identification using deep neural networks via optimization of transfer learning parameters",
      "venue": "Neurocomputing",
      "year": 2017,
      "referenceCount": 39,
      "citationCount": 481,
      "authors": [
        {
          "authorId": "1399030182",
          "name": "Mostafa Mehdipour-Ghazi"
        },
        {
          "authorId": "1757030",
          "name": "B. Yanikoglu"
        },
        {
          "authorId": "3171826",
          "name": "E. Aptoula"
        }
      ]
    }
  ]
}