{
  "total": 22986,
  "offset": 0,
  "next": 10,
  "data": [
    {
      "paperId": "461201c852e33903c6e27c8d008aa00198b3de7b",
      "externalIds": {
        "MAG": "2949780593",
        "DBLP": "conf/icml/TripuraneniRGT17",
        "ArXiv": "1607.02738",
        "CorpusId": 32975029
      },
      "url": "https://www.semanticscholar.org/paper/461201c852e33903c6e27c8d008aa00198b3de7b",
      "title": "Magnetic Hamiltonian Monte Carlo",
      "venue": "International Conference on Machine Learning",
      "year": 2016,
      "referenceCount": 22,
      "citationCount": 38,
      "authors": [
        {
          "authorId": "1925801",
          "name": "Nilesh Tripuraneni"
        },
        {
          "authorId": "144845456",
          "name": "Mark Rowland"
        },
        {
          "authorId": "1744700",
          "name": "Zoubin Ghahramani"
        },
        {
          "authorId": "145369890",
          "name": "Richard E. Turner"
        }
      ]
    },
    {
      "paperId": "6b204a2a8cc4ee8e5836301afa237f50aa02551c",
      "externalIds": {
        "PubMedCentral": "8491946",
        "DOI": "10.1371/journal.pone.0258277",
        "CorpusId": 238409035,
        "PubMed": "34610053"
      },
      "url": "https://www.semanticscholar.org/paper/6b204a2a8cc4ee8e5836301afa237f50aa02551c",
      "title": "Quantum-Inspired Magnetic Hamiltonian Monte Carlo",
      "venue": "PLoS ONE",
      "year": 2021,
      "referenceCount": 31,
      "citationCount": 6,
      "authors": [
        {
          "authorId": "8608409",
          "name": "W. Mongwe"
        },
        {
          "authorId": "8803434",
          "name": "R. Mbuvha"
        },
        {
          "authorId": "1740675",
          "name": "T. Marwala"
        }
      ]
    },
    {
      "paperId": "99782c03ddb9cf89b85b6374979c35d46c1bbbbb",
      "externalIds": {
        "DBLP": "journals/access/MongweMM21a",
        "DOI": "10.1109/ACCESS.2021.3101810",
        "CorpusId": 236939004
      },
      "url": "https://www.semanticscholar.org/paper/99782c03ddb9cf89b85b6374979c35d46c1bbbbb",
      "title": "Magnetic Hamiltonian Monte Carlo With Partial Momentum Refreshment",
      "venue": "IEEE Access",
      "year": 2021,
      "referenceCount": 34,
      "citationCount": 8,
      "authors": [
        {
          "authorId": "8608409",
          "name": "W. Mongwe"
        },
        {
          "authorId": "8803434",
          "name": "R. Mbuvha"
        },
        {
          "authorId": "1740675",
          "name": "T. Marwala"
        }
      ]
    },
    {
      "paperId": "f0072968f17165e065135917483bbaf3d5081503",
      "externalIds": {
        "DBLP": "journals/access/MongweMM21d",
        "DOI": "10.1109/ACCESS.2021.3127931",
        "CorpusId": 244108242
      },
      "url": "https://www.semanticscholar.org/paper/f0072968f17165e065135917483bbaf3d5081503",
      "title": "Adaptive Magnetic Hamiltonian Monte Carlo",
      "venue": "IEEE Access",
      "year": 2021,
      "referenceCount": 43,
      "citationCount": 3,
      "authors": [
        {
          "authorId": "8608409",
          "name": "W. Mongwe"
        },
        {
          "authorId": "8803434",
          "name": "R. Mbuvha"
        },
        {
          "authorId": "1740675",
          "name": "T. Marwala"
        }
      ]
    },
    {
      "paperId": "0778e0bb035bc033f7c7b81b3d945de8db3b2635",
      "externalIds": {
        "DBLP": "journals/access/MongweMM22",
        "DOI": "10.1109/ACCESS.2022.3161443",
        "CorpusId": 247655494
      },
      "url": "https://www.semanticscholar.org/paper/0778e0bb035bc033f7c7b81b3d945de8db3b2635",
      "title": "Shadow Magnetic Hamiltonian Monte Carlo",
      "venue": "IEEE Access",
      "year": 2022,
      "referenceCount": 40,
      "citationCount": 1,
      "authors": [
        {
          "authorId": "8608409",
          "name": "W. Mongwe"
        },
        {
          "authorId": "8803434",
          "name": "R. Mbuvha"
        },
        {
          "authorId": "1740675",
          "name": "T. Marwala"
        }
      ]
    },
    {
      "paperId": "8558074b357841339f3e2480c1c884a9a8f81449",
      "externalIds": {
        "DBLP": "journals/tgrs/WanYMLL24",
        "DOI": "10.1109/TGRS.2024.3372599",
        "CorpusId": 268375795
      },
      "url": "https://www.semanticscholar.org/paper/8558074b357841339f3e2480c1c884a9a8f81449",
      "title": "Joint Inversion of UMRS-TEM Data and Its Application for Detection in the Tunnel Using Hamiltonian Monte Carlo Method",
      "venue": "IEEE Transactions on Geoscience and Remote Sensing",
      "year": 2024,
      "referenceCount": 29,
      "citationCount": 4,
      "authors": [
        {
          "authorId": "2053671064",
          "name": "Ling Wan"
        },
        {
          "authorId": "2291038553",
          "name": "Rui Ye"
        },
        {
          "authorId": "2291058535",
          "name": "Zenghan Ma"
        },
        {
          "authorId": "23604957",
          "name": "Xiaoxue Lin"
        },
        {
          "authorId": "2256772640",
          "name": "Tingting Lin"
        }
      ]
    },
    {
      "paperId": "526bfe3b66e38c4977b723b7c4f2d093b3489c5b",
      "externalIds": {
        "CorpusId": 39682766
      },
      "url": "https://www.semanticscholar.org/paper/526bfe3b66e38c4977b723b7c4f2d093b3489c5b",
      "title": "Supplementary Material for Magnetic Hamiltonian Monte Carlo",
      "venue": "",
      "year": 2017,
      "referenceCount": 4,
      "citationCount": 0,
      "authors": []
    },
    {
      "paperId": "ffcdda340b3aea57c394413b2bc6dc80cae9e95c",
      "externalIds": {
        "DOI": "10.1029/2022GL099789",
        "CorpusId": 252980271
      },
      "url": "https://www.semanticscholar.org/paper/ffcdda340b3aea57c394413b2bc6dc80cae9e95c",
      "title": "Hamiltonian Monte Carlo Probabilistic Joint Inversion of 2D (2.75D) Gravity and Magnetic Data",
      "venue": "Geophysical Research Letters",
      "year": 2022,
      "referenceCount": 56,
      "citationCount": 17,
      "authors": [
        {
          "authorId": "40063519",
          "name": "A. Zunino"
        },
        {
          "authorId": "1742426949",
          "name": "A. Ghirotto"
        },
        {
          "authorId": "11629759",
          "name": "E. Armadillo"
        },
        {
          "authorId": "2035560",
          "name": "A. Fichtner"
        }
      ]
    },
    {
      "paperId": "53378209448771ac42dda54397450f60c2c7fdb7",
      "externalIds": {
        "DOI": "10.3847/1538-4357/ad8b2b",
        "CorpusId": 274554937
      },
      "url": "https://www.semanticscholar.org/paper/53378209448771ac42dda54397450f60c2c7fdb7",
      "title": "NNHMC: An Efficient Stokes Inversion Method Using a Neural Network (NN) Model Combined with the Hamiltonian Monte Carlo (HMC) Algorithm",
      "venue": "Astrophysical Journal",
      "year": 2024,
      "referenceCount": 31,
      "citationCount": 0,
      "authors": [
        {
          "authorId": "2329714735",
          "name": "Chong Xu"
        },
        {
          "authorId": "2140196989",
          "name": "JinLiang Wang"
        },
        {
          "authorId": "2290240000",
          "name": "Hao Li"
        },
        {
          "authorId": "2268853609",
          "name": "Ziyao Hu"
        },
        {
          "authorId": "2244383560",
          "name": "Xianyong Bai"
        },
        {
          "authorId": "9183552",
          "name": "Jiaben Lin"
        },
        {
          "authorId": "2146673444",
          "name": "Hui Liu"
        },
        {
          "authorId": "2291129145",
          "name": "Zhenyu Jin"
        },
        {
          "authorId": "103342412",
          "name": "Kaifan Ji"
        }
      ]
    },
    {
      "paperId": "ba23089d76bbda42e8a61987c2a6c3b1b1b459e4",
      "externalIds": {
        "DBLP": "journals/tgrs/YeWLLW24",
        "DOI": "10.1109/TGRS.2024.3467131",
        "CorpusId": 272870466
      },
      "url": "https://www.semanticscholar.org/paper/ba23089d76bbda42e8a61987c2a6c3b1b1b459e4",
      "title": "UMRS Data Inversion Using Tempered Hamiltonian Monte Carlo Method and Its Application to Water Detection in the Tunnel",
      "venue": "IEEE Transactions on Geoscience and Remote Sensing",
      "year": 2024,
      "referenceCount": 24,
      "citationCount": 0,
      "authors": [
        {
          "authorId": "2291038553",
          "name": "Rui Ye"
        },
        {
          "authorId": "2247745096",
          "name": "Yao Wang"
        },
        {
          "authorId": "2266404525",
          "name": "Shihen Li"
        },
        {
          "authorId": "2256772640",
          "name": "Tingting Lin"
        },
        {
          "authorId": "2053671064",
          "name": "Ling Wan"
        }
      ]
    }
  ]
}