{
  "total": 19,
  "offset": 0,
  "next": 10,
  "data": [
    {
      "paperId": "d9ca2aeb00575b2f0fd6b247426af1785910fa94",
      "externalIds": {
        "DBLP": "conf/icml/JenattonHA16",
        "ArXiv": "1512.07422",
        "MAG": "2951966024",
        "CorpusId": 1405098
      },
      "url": "https://www.semanticscholar.org/paper/d9ca2aeb00575b2f0fd6b247426af1785910fa94",
      "title": "Adaptive Algorithms for Online Convex Optimization with Long-term Constraints",
      "venue": "International Conference on Machine Learning",
      "year": 2015,
      "referenceCount": 30,
      "citationCount": 171,
      "authors": [
        {
          "authorId": "2068720",
          "name": "Rodolphe Jenatton"
        },
        {
          "authorId": "2143510957",
          "name": "Jim C. Huang"
        },
        {
          "authorId": "2824663",
          "name": "C. Archambeau"
        }
      ]
    },
    {
      "paperId": "0b47bd8468a12bb491a399abbbac1a0d8d4eec19",
      "externalIds": {
        "DBLP": "journals/jmlr/0002N20",
        "MAG": "3008594870",
        "CorpusId": 15384428
      },
      "url": "https://www.semanticscholar.org/paper/0b47bd8468a12bb491a399abbbac1a0d8d4eec19",
      "title": "A Low Complexity Algorithm with O(√T) Regret and O(1) Constraint Violations for Online Convex Optimization with Long Term Constraints",
      "venue": "Journal of machine learning research",
      "year": 2020,
      "referenceCount": 9,
      "citationCount": 115,
      "authors": [
        {
          "authorId": "38713459",
          "name": "Hao Yu"
        },
        {
          "authorId": "1705088",
          "name": "M. Neely"
        }
      ]
    },
    {
      "paperId": "8b4ff6f5e8ef653a8c31d290c314997cac29168d",
      "externalIds": {
        "DBLP": "journals/corr/abs-2106-05135",
        "ArXiv": "2106.05135",
        "CorpusId": 235377351
      },
      "url": "https://www.semanticscholar.org/paper/8b4ff6f5e8ef653a8c31d290c314997cac29168d",
      "title": "Regret and Cumulative Constraint Violation Analysis for Online Convex Optimization with Long Term Constraints",
      "venue": "International Conference on Machine Learning",
      "year": 2021,
      "referenceCount": 44,
      "citationCount": 63,
      "authors": [
        {
          "authorId": "2116687",
          "name": "Xinlei Yi"
        },
        {
          "authorId": "34343394",
          "name": "Xiuxian Li"
        },
        {
          "authorId": "144954290",
          "name": "Tao Yang"
        },
        {
          "authorId": "145050702",
          "name": "Lihua Xie"
        },
        {
          "authorId": "71569758",
          "name": "Tianyou Chai"
        },
        {
          "authorId": "1679177",
          "name": "K. Johansson"
        }
      ]
    },
    {
      "paperId": "312ab08f404d85e38fede9dd862649b834cd8cda",
      "externalIds": {
        "CorpusId": 221804365
      },
      "url": "https://www.semanticscholar.org/paper/312ab08f404d85e38fede9dd862649b834cd8cda",
      "title": "A Low Complexity Algorithm with O ( √ T ) Regret and O (1) Constraint Violations for Online Convex Optimization with Long Term Constraints",
      "venue": "",
      "year": 2020,
      "referenceCount": 16,
      "citationCount": 22,
      "authors": [
        {
          "authorId": "38713459",
          "name": "Hao Yu"
        },
        {
          "authorId": "2267340061",
          "name": "Michael J. Neely"
        }
      ]
    },
    {
      "paperId": "e50cd33cd9e52fa6c0308007056d6987f10c7164",
      "externalIds": {
        "DBLP": "journals/corr/YuN16a",
        "ArXiv": "1604.02218",
        "MAG": "2339832372",
        "CorpusId": 4873031
      },
      "url": "https://www.semanticscholar.org/paper/e50cd33cd9e52fa6c0308007056d6987f10c7164",
      "title": "A Low Complexity Algorithm with $O(\\sqrt{T})$ Regret and Finite Constraint Violations for Online Convex Optimization with Long Term Constraints",
      "venue": "arXiv.org",
      "year": 2016,
      "referenceCount": 21,
      "citationCount": 19,
      "authors": [
        {
          "authorId": "38713459",
          "name": "Hao Yu"
        },
        {
          "authorId": "1705088",
          "name": "M. Neely"
        }
      ]
    },
    {
      "paperId": "005eae59e903afcc3234c60a2f4761517da67011",
      "externalIds": {
        "MAG": "3083583938",
        "DOI": "10.14288/1.0394070",
        "CorpusId": 226497486
      },
      "url": "https://www.semanticscholar.org/paper/005eae59e903afcc3234c60a2f4761517da67011",
      "title": "Energy management in wireless communications : from convex optimization to machine learning",
      "venue": "",
      "year": 2020,
      "referenceCount": 153,
      "citationCount": 0,
      "authors": [
        {
          "authorId": "2686829",
          "name": "Yanjie Dong"
        }
      ]
    },
    {
      "paperId": "654e64c6a790f09af68ba4dc5d531585d49fdb2d",
      "externalIds": {
        "MAG": "2840522244",
        "DBLP": "journals/tmc/CaoCHL19",
        "DOI": "10.1109/TMC.2018.2854772",
        "CorpusId": 65776582
      },
      "url": "https://www.semanticscholar.org/paper/654e64c6a790f09af68ba4dc5d531585d49fdb2d",
      "title": "Online Adaptive Transmission Strategy for Buffer-Aided Cooperative NOMA Systems",
      "venue": "IEEE Transactions on Mobile Computing",
      "year": 2019,
      "referenceCount": 24,
      "citationCount": 25,
      "authors": [
        {
          "authorId": "2129551",
          "name": "Huijin Cao"
        },
        {
          "authorId": "145718265",
          "name": "Jun Cai"
        },
        {
          "authorId": "2098719",
          "name": "Shiwei Huang"
        },
        {
          "authorId": "47006121",
          "name": "Yanhui Lu"
        }
      ]
    },
    {
      "paperId": "a8b945ad69bd729a2e72dfa9de9d27fbda2e2a35",
      "externalIds": {
        "MAG": "2964976500",
        "DBLP": "conf/colt/Cutkosky19",
        "CorpusId": 195769483
      },
      "url": "https://www.semanticscholar.org/paper/a8b945ad69bd729a2e72dfa9de9d27fbda2e2a35",
      "title": "Artificial Constraints and Hints for Unbounded Online Learning",
      "venue": "Annual Conference Computational Learning Theory",
      "year": 2019,
      "referenceCount": 22,
      "citationCount": 48,
      "authors": [
        {
          "authorId": "9407860",
          "name": "Ashok Cutkosky"
        }
      ]
    },
    {
      "paperId": "bd95aaef50bc6a20eaa8ae24f2a9c3d360034213",
      "externalIds": {
        "DBLP": "conf/kdd/ZhaoMWJK022",
        "ArXiv": "2205.11264",
        "DOI": "10.1145/3534678.3539420",
        "CorpusId": 248986388
      },
      "url": "https://www.semanticscholar.org/paper/bd95aaef50bc6a20eaa8ae24f2a9c3d360034213",
      "title": "Adaptive Fairness-Aware Online Meta-Learning for Changing Environments",
      "venue": "Knowledge Discovery and Data Mining",
      "year": 2022,
      "referenceCount": 29,
      "citationCount": 26,
      "authors": [
        {
          "authorId": "36681034",
          "name": "Chenxu Zhao"
        },
        {
          "authorId": "2058930366",
          "name": "Feng Mi"
        },
        {
          "authorId": "7916525",
          "name": "Xintao Wu"
        },
        {
          "authorId": "2052123325",
          "name": "Kai Jiang"
        },
        {
          "authorId": "145155297",
          "name": "L. Khan"
        },
        {
          "authorId": "2157325057",
          "name": "Feng Chen"
        }
      ]
    },
    {
      "paperId": "3ac5baa80bb4e8950cbe06235aa322bc029a4062",
      "externalIds": {
        "DBLP": "journals/tvt/LuoHL25",
        "DOI": "10.1109/TVT.2024.3510372",
        "CorpusId": 274488044
      },
      "url": "https://www.semanticscholar.org/paper/3ac5baa80bb4e8950cbe06235aa322bc029a4062",
      "title": "RISs-Enabled Separation of Multi-User Collided Signals in IQ Domain Based on Two-Stage Online Optimization",
      "venue": "IEEE Transactions on Vehicular Technology",
      "year": 2025,
      "referenceCount": 48,
      "citationCount": 1,
      "authors": [
        {
          "authorId": "2323010952",
          "name": "Weiran Luo"
        },
        {
          "authorId": "2309216479",
          "name": "Xiaoxia Huang"
        },
        {
          "authorId": "2111917947",
          "name": "Lanhua Li"
        }
      ]
    }
  ]
}