{
  "total": 3041,
  "offset": 0,
  "next": 10,
  "data": [
    {
      "paperId": "1b108f00ce3a537212eaca6627e854ac1d45986d",
      "externalIds": {
        "MAG": "2435502378",
        "DBLP": "conf/icml/CaragiannisPS16",
        "CorpusId": 15522992
      },
      "url": "https://www.semanticscholar.org/paper/1b108f00ce3a537212eaca6627e854ac1d45986d",
      "title": "Truthful Univariate Estimators",
      "venue": "International Conference on Machine Learning",
      "year": 2016,
      "referenceCount": 18,
      "citationCount": 40,
      "authors": [
        {
          "authorId": "1709029",
          "name": "I. Caragiannis"
        },
        {
          "authorId": "1689184",
          "name": "Ariel D. Procaccia"
        },
        {
          "authorId": "39195827",
          "name": "Nisarg Shah"
        }
      ]
    },
    {
      "paperId": "5ec39b8b996ad5ac28135550c748c58e6549d61e",
      "externalIds": {
        "MAG": "3191278913",
        "DOI": "10.1080/03610926.2021.1955384",
        "CorpusId": 238797023
      },
      "url": "https://www.semanticscholar.org/paper/5ec39b8b996ad5ac28135550c748c58e6549d61e",
      "title": "A class of general pretest estimators for the univariate normal mean",
      "venue": "Communications in Statistics - Theory and Methods",
      "year": 2021,
      "referenceCount": 34,
      "citationCount": 6,
      "authors": [
        {
          "authorId": "144967382",
          "name": "J. Shih"
        },
        {
          "authorId": "2547482",
          "name": "Yoshihiko Konno"
        },
        {
          "authorId": "3051149",
          "name": "Yuan-Tsung Chang"
        },
        {
          "authorId": "1808764",
          "name": "T. Emura"
        }
      ]
    },
    {
      "paperId": "ffadec2508a5af645511dd30421124ea06b3adf0",
      "externalIds": {
        "DBLP": "journals/corr/abs-2506-22911",
        "ArXiv": "2506.22911",
        "DOI": "10.48550/arXiv.2506.22911",
        "CorpusId": 280011220
      },
      "url": "https://www.semanticscholar.org/paper/ffadec2508a5af645511dd30421124ea06b3adf0",
      "title": "Learning Truthful Mechanisms without Discretization",
      "venue": "arXiv.org",
      "year": 2025,
      "referenceCount": 0,
      "citationCount": 1,
      "authors": [
        {
          "authorId": "1500428335",
          "name": "Yunxuan Ma"
        },
        {
          "authorId": "2284725253",
          "name": "Siqiang Wang"
        },
        {
          "authorId": "2054288646",
          "name": "Zhijian Duan"
        },
        {
          "authorId": "153655588",
          "name": "Yukun Cheng"
        },
        {
          "authorId": "2279875731",
          "name": "Xiaotie Deng"
        }
      ]
    },
    {
      "paperId": "53a9436396a75a10734c42bc4ad4edbd85b2334f",
      "externalIds": {
        "ArXiv": "2009.07178",
        "DBLP": "journals/corr/abs-2009-07178",
        "MAG": "3086706951",
        "DOI": "10.1007/s10957-022-02144-6",
        "CorpusId": 221703204
      },
      "url": "https://www.semanticscholar.org/paper/53a9436396a75a10734c42bc4ad4edbd85b2334f",
      "title": "Gaining or Losing Perspective for Piecewise-Linear Under-Estimators of Convex Univariate Functions",
      "venue": "Journal of Optimization Theory and Applications",
      "year": 2020,
      "referenceCount": 26,
      "citationCount": 5,
      "authors": [
        {
          "authorId": "38510381",
          "name": "Jon Lee"
        },
        {
          "authorId": "39942051",
          "name": "Daphne E. Skipper"
        },
        {
          "authorId": "40039159",
          "name": "Emily Speakman"
        },
        {
          "authorId": "12902084",
          "name": "Luze Xu"
        }
      ]
    },
    {
      "paperId": "3f20edc750a28eaea716b894ee7f96eca391178f",
      "externalIds": {
        "DBLP": "conf/icml/ClintonCZK25",
        "ArXiv": "2407.15881",
        "CorpusId": 271334661
      },
      "url": "https://www.semanticscholar.org/paper/3f20edc750a28eaea716b894ee7f96eca391178f",
      "title": "Collaborative Mean Estimation Among Heterogeneous Strategic Agents: Individual Rationality, Fairness, and Truthful Contribution",
      "venue": "International Conference on Machine Learning",
      "year": 2024,
      "referenceCount": 30,
      "citationCount": 6,
      "authors": [
        {
          "authorId": "2312402961",
          "name": "Alex Clinton"
        },
        {
          "authorId": "2109265721",
          "name": "Yiding Chen"
        },
        {
          "authorId": "47055088",
          "name": "Jerry Zhu"
        },
        {
          "authorId": "2286363493",
          "name": "Kirthevasan Kandasamy"
        }
      ]
    },
    {
      "paperId": "8c930e1c63c761920fec34988cf4587f42c9e5d5",
      "externalIds": {
        "DBLP": "journals/qre/MutluA19",
        "MAG": "2904146505",
        "DOI": "10.1002/qre.2441",
        "CorpusId": 115446025
      },
      "url": "https://www.semanticscholar.org/paper/8c930e1c63c761920fec34988cf4587f42c9e5d5",
      "title": "Revisiting reweighted robust standard deviation estimators for univariate Shewhart S‐charts",
      "venue": "Quality and Reliability Engineering International",
      "year": 2018,
      "referenceCount": 52,
      "citationCount": 10,
      "authors": [
        {
          "authorId": "119490237",
          "name": "Ecem Mutlu"
        },
        {
          "authorId": "2739296",
          "name": "Burak Alakent"
        }
      ]
    },
    {
      "paperId": "564dda91cb1ecfb5f75443a5f55d49a33bd97e37",
      "externalIds": {
        "DBLP": "journals/cssc/OzdemirW12",
        "MAG": "1995330687",
        "DOI": "10.1080/03610918.2011.611310",
        "CorpusId": 34602089
      },
      "url": "https://www.semanticscholar.org/paper/564dda91cb1ecfb5f75443a5f55d49a33bd97e37",
      "title": "New Results on the Small-Sample Properties of Some Robust Univariate Estimators of Location",
      "venue": "Communications in statistics. Simulation and computation",
      "year": 2012,
      "referenceCount": 28,
      "citationCount": 6,
      "authors": [
        {
          "authorId": "144671573",
          "name": "A. Özdemir"
        },
        {
          "authorId": "1777036",
          "name": "R. Wilcox"
        }
      ]
    },
    {
      "paperId": "2aaad71ac3c446b9cc931dfdba5d5be087c24ffb",
      "externalIds": {
        "MAG": "2265675299",
        "CorpusId": 124227792
      },
      "url": "https://www.semanticscholar.org/paper/2aaad71ac3c446b9cc931dfdba5d5be087c24ffb",
      "title": "Utilizing the Rao-Blackwellized Univariate Estimators to Improve Ratio Estimators in Adaptive Cluster Sampling",
      "venue": "",
      "year": 2010,
      "referenceCount": 0,
      "citationCount": 0,
      "authors": [
        {
          "authorId": "120807801",
          "name": "Chang‐Tai Chao"
        },
        {
          "authorId": "21564521",
          "name": "Arthur Dryver"
        },
        {
          "authorId": "2056694978",
          "name": "T. Chiang"
        }
      ]
    },
    {
      "paperId": "a8c83d33b18d6521a1b7b3e53651f43d5e0855dd",
      "externalIds": {
        "MAG": "2330924500",
        "DOI": "10.1080/10485252.2016.1163356",
        "CorpusId": 124923585
      },
      "url": "https://www.semanticscholar.org/paper/a8c83d33b18d6521a1b7b3e53651f43d5e0855dd",
      "title": "Some maximum-indifference estimators for the slope of a univariate linear model",
      "venue": "",
      "year": 2016,
      "referenceCount": 28,
      "citationCount": 4,
      "authors": [
        {
          "authorId": "39995035",
          "name": "C. Borroni"
        },
        {
          "authorId": "3493111",
          "name": "D. Cifarelli"
        }
      ]
    },
    {
      "paperId": "1b60f74ebf29d55d4739df3fb7f548269263b620",
      "externalIds": {
        "MAG": "2992481287",
        "CorpusId": 217750707
      },
      "url": "https://www.semanticscholar.org/paper/1b60f74ebf29d55d4739df3fb7f548269263b620",
      "title": "Particular Performance Between the Fuzzy Set and Univariate Balloon Estimators of the Density Function",
      "venue": "",
      "year": 2016,
      "referenceCount": 0,
      "citationCount": 1,
      "authors": [
        {
          "authorId": "102497503",
          "name": "Jesús A. Fajardo"
        }
      ]
    }
  ]
}