{
  "total": 182,
  "offset": 0,
  "next": 10,
  "data": [
    {
      "paperId": "8e29794241bcfb6c896ae170366911448423b341",
      "externalIds": {
        "MAG": "2741542621",
        "DBLP": "conf/icml/KearnsRW17",
        "CorpusId": 5152922
      },
      "url": "https://www.semanticscholar.org/paper/8e29794241bcfb6c896ae170366911448423b341",
      "title": "Meritocratic Fairness for Cross-Population Selection",
      "venue": "International Conference on Machine Learning",
      "year": 2017,
      "referenceCount": 10,
      "citationCount": 53,
      "authors": [
        {
          "authorId": "81338045",
          "name": "Michael Kearns"
        },
        {
          "authorId": "1682008",
          "name": "Aaron Roth"
        },
        {
          "authorId": "1768074",
          "name": "Zhiwei Steven Wu"
        }
      ]
    },
    {
      "paperId": "7024cc499ce5ef054f181a7a64dead07c238f2e5",
      "externalIds": {
        "DBLP": "conf/kdd/KaluzaTCBRJ25",
        "DOI": "10.1145/3711896.3736846",
        "CorpusId": 280477227
      },
      "url": "https://www.semanticscholar.org/paper/7024cc499ce5ef054f181a7a64dead07c238f2e5",
      "title": "Are Your Fairness Metrics Accurate? A Semi-Supervised Approach to Improving Fairness Estimates Under Sample Selection Bias",
      "venue": "Knowledge Discovery and Data Mining",
      "year": 2025,
      "referenceCount": 51,
      "citationCount": 1,
      "authors": [
        {
          "authorId": "8715496",
          "name": "M. C. De Paolis Kaluza"
        },
        {
          "authorId": "9397143",
          "name": "Thulasi Tholeti"
        },
        {
          "authorId": "2311578708",
          "name": "Yile Chen"
        },
        {
          "authorId": "2182067843",
          "name": "Ricardo Baeza-Yates"
        },
        {
          "authorId": "1693041",
          "name": "P. Radivojac"
        },
        {
          "authorId": "1886573",
          "name": "Shantanu Jain"
        }
      ]
    },
    {
      "paperId": "ecfa198e06b1eb685d1c4af0f8b7d3413c8cf199",
      "externalIds": {
        "DOI": "10.2478/mdke-2024-0014",
        "CorpusId": 273135198
      },
      "url": "https://www.semanticscholar.org/paper/ecfa198e06b1eb685d1c4af0f8b7d3413c8cf199",
      "title": "Fairness Reactions to Personnel Selection Techniques in Morocco",
      "venue": "Management Dynamics in the Knowledge Economy",
      "year": 2024,
      "referenceCount": 31,
      "citationCount": 0,
      "authors": [
        {
          "authorId": "2213581293",
          "name": "Hamza Aouam"
        },
        {
          "authorId": "2023302025",
          "name": "Bouchra Belmouffeq"
        }
      ]
    },
    {
      "paperId": "1f8666f485f562f93e91f0d8dad822de693214e3",
      "externalIds": {
        "DBLP": "journals/cmig/AkbariAAABH26",
        "DOI": "10.1016/j.compmedimag.2025.102687",
        "CorpusId": 283720776,
        "PubMed": "41365144"
      },
      "url": "https://www.semanticscholar.org/paper/1f8666f485f562f93e91f0d8dad822de693214e3",
      "title": "A novel virtual patient approach for cross-patient multimodal fusion in enhanced breast cancer detection",
      "venue": "Comput. Medical Imaging Graph.",
      "year": 2025,
      "referenceCount": 24,
      "citationCount": 2,
      "authors": [
        {
          "authorId": "40312005",
          "name": "Y. Akbari"
        },
        {
          "authorId": "100757988",
          "name": "F. Abdullakutty"
        },
        {
          "authorId": "2193510033",
          "name": "S. Al-maadeed"
        },
        {
          "authorId": "1405310685",
          "name": "Rafif Al-Saady"
        },
        {
          "authorId": "2267749302",
          "name": "A. Bouridane"
        },
        {
          "authorId": "2393130913",
          "name": "Rifat Hamoudi"
        }
      ]
    },
    {
      "paperId": "ea2567e8aceab89e66ed56a14b69eba6b892cd14",
      "externalIds": {
        "PubMedCentral": "12624999",
        "DOI": "10.1186/s41043-025-01146-0",
        "CorpusId": 283074605,
        "PubMed": "41254752"
      },
      "url": "https://www.semanticscholar.org/paper/ea2567e8aceab89e66ed56a14b69eba6b892cd14",
      "title": "Evaluating the relationship between primary care provider access and high blood pressure among Hispanic patients: a cross-sectional study",
      "venue": "Journal of Health, Population and Nutrition",
      "year": 2025,
      "referenceCount": 7,
      "citationCount": 0,
      "authors": [
        {
          "authorId": "2211845092",
          "name": "Catalina Yepez"
        },
        {
          "authorId": "4811699",
          "name": "Kimberly C. McKeirnan"
        },
        {
          "authorId": "2392884950",
          "name": "Megan R. Undeberg"
        },
        {
          "authorId": "49786509",
          "name": "Ryan G. Pett"
        }
      ]
    },
    {
      "paperId": "587b5876642249b17d466f9e9755664767ae8f46",
      "externalIds": {
        "DBLP": "journals/frai/ZhangDXY25",
        "PubMedCentral": "12738824",
        "DOI": "10.1101/2025.04.05.25325307",
        "CorpusId": 277622462,
        "PubMed": "41459572"
      },
      "url": "https://www.semanticscholar.org/paper/587b5876642249b17d466f9e9755664767ae8f46",
      "title": "Machine learning-based mortality prediction in critically ill patients with hypertension: comparative analysis, fairness, and interpretability",
      "venue": "medRxiv",
      "year": 2025,
      "referenceCount": 47,
      "citationCount": 4,
      "authors": [
        {
          "authorId": "2306445661",
          "name": "Shenghan Zhang"
        },
        {
          "authorId": "2325200631",
          "name": "Sirui Ding"
        },
        {
          "authorId": "2313265973",
          "name": "Zidu Xu"
        },
        {
          "authorId": "2354660567",
          "name": "Jiancheng Ye"
        }
      ]
    },
    {
      "paperId": "42c0a5dde4ebc66ea3aa1a8608409d5181448fbd",
      "externalIds": {
        "MAG": "2909488467",
        "DOI": "10.3329/JOM.V20I1.38816",
        "CorpusId": 81739250
      },
      "url": "https://www.semanticscholar.org/paper/42c0a5dde4ebc66ea3aa1a8608409d5181448fbd",
      "title": "Association of Functional Health Literacy with Glycemic Control: A Cross Sectional Study in Urban Population of Bangladesh",
      "venue": "Journal of medicine",
      "year": 2019,
      "referenceCount": 28,
      "citationCount": 14,
      "authors": [
        {
          "authorId": "87335775",
          "name": "Refat Mehzabin"
        },
        {
          "authorId": "32149140",
          "name": "K. Hossain"
        },
        {
          "authorId": "122572973",
          "name": "M. Moniruzzaman"
        },
        {
          "authorId": "6000751",
          "name": "S. Sayeed"
        }
      ]
    },
    {
      "paperId": "9ad831cca6ec11afd6ba758dfc31a80556b3038a",
      "externalIds": {
        "DOI": "10.64898/2025.12.16.25342408",
        "CorpusId": 283929065
      },
      "url": "https://www.semanticscholar.org/paper/9ad831cca6ec11afd6ba758dfc31a80556b3038a",
      "title": "Improving cross-ancestry generalizability of genetic risk prediction for short stature using a meta-polygenic risk score",
      "venue": "medRxiv",
      "year": 2025,
      "referenceCount": 0,
      "citationCount": 0,
      "authors": [
        {
          "authorId": "2403539988",
          "name": "S. Peng"
        },
        {
          "authorId": "2365912791",
          "name": "T. Lu"
        }
      ]
    },
    {
      "paperId": "6a5067e1cfbbc82129aa998c32aadce0e96870b1",
      "externalIds": {
        "DOI": "10.3233/WOR-230418",
        "CorpusId": 267850211,
        "PubMed": "38393873"
      },
      "url": "https://www.semanticscholar.org/paper/6a5067e1cfbbc82129aa998c32aadce0e96870b1",
      "title": "Work-related and non-work-related mild traumatic brain injury: Associations with mental health and substance use challenges in a Canadian population-level survey",
      "venue": "Work",
      "year": 2024,
      "referenceCount": 61,
      "citationCount": 2,
      "authors": [
        {
          "authorId": "32940845",
          "name": "Christine M. Wickens"
        },
        {
          "authorId": "2285734134",
          "name": "Robert E. Mann"
        },
        {
          "authorId": "3896396",
          "name": "G. Stoduto"
        },
        {
          "authorId": "49001372",
          "name": "Danielle Toccalino"
        },
        {
          "authorId": "2249519264",
          "name": "Angela Colantonio"
        },
        {
          "authorId": "6243164",
          "name": "Vincy Chan"
        }
      ]
    },
    {
      "paperId": "4a00dda8bff5cdd8d2f68a53b4f0f1aac1aa1cbc",
      "externalIds": {
        "DBLP": "journals/ewc/RheinHN24",
        "DOI": "10.1007/s00366-023-01809-8",
        "CorpusId": 257931369
      },
      "url": "https://www.semanticscholar.org/paper/4a00dda8bff5cdd8d2f68a53b4f0f1aac1aa1cbc",
      "title": "Hybrid modeling of hetero-agglomeration processes: a framework for model selection and arrangement",
      "venue": "Engineering computations",
      "year": 2023,
      "referenceCount": 98,
      "citationCount": 7,
      "authors": [
        {
          "authorId": "47564169",
          "name": "Frank Rhein"
        },
        {
          "authorId": "2213469967",
          "name": "Leonard Hibbe"
        },
        {
          "authorId": "2594768",
          "name": "H. Nirschl"
        }
      ]
    }
  ]
}