{
  "total": 342,
  "offset": 0,
  "next": 10,
  "data": [
    {
      "paperId": "e994a15a9476ca92c4bf9c12ad89625401939d57",
      "externalIds": {
        "MAG": "602128623",
        "DBLP": "conf/icml/Osogami15",
        "CorpusId": 16785975
      },
      "url": "https://www.semanticscholar.org/paper/e994a15a9476ca92c4bf9c12ad89625401939d57",
      "title": "Robust partially observable Markov decision process",
      "venue": "International Conference on Machine Learning",
      "year": 2015,
      "referenceCount": 29,
      "citationCount": 46,
      "authors": [
        {
          "authorId": "1708769",
          "name": "T. Osogami"
        }
      ]
    },
    {
      "paperId": "6d5bfd7ed0313296fbd1888b83fbaac7a162ad37",
      "externalIds": {
        "ArXiv": "1502.06030",
        "DBLP": "conf/cdc/AmatoCGUK13",
        "MAG": "1976195538",
        "DOI": "10.1109/CDC.2013.6760239",
        "CorpusId": 6962558
      },
      "url": "https://www.semanticscholar.org/paper/6d5bfd7ed0313296fbd1888b83fbaac7a162ad37",
      "title": "Decentralized control of Partially Observable Markov Decision Processes using belief space macro-actions",
      "venue": "IEEE International Conference on Robotics and Automation",
      "year": 2015,
      "referenceCount": 105,
      "citationCount": 99,
      "authors": [
        {
          "authorId": "34903901",
          "name": "Chris Amato"
        },
        {
          "authorId": "1733356",
          "name": "Girish V. Chowdhary"
        },
        {
          "authorId": "1979505",
          "name": "A. Geramifard"
        },
        {
          "authorId": "2877453",
          "name": "N. K. Ure"
        },
        {
          "authorId": "2275756",
          "name": "Mykel J. Kochenderfer"
        }
      ]
    },
    {
      "paperId": "481aa2882a5816686a5bea7db755862cded42081",
      "externalIds": {
        "MAG": "2620836468",
        "DBLP": "conf/icra/BaiCYHL15",
        "DOI": "10.1109/ICRA.2015.7139219",
        "CorpusId": 14693237
      },
      "url": "https://www.semanticscholar.org/paper/481aa2882a5816686a5bea7db755862cded42081",
      "title": "Intention-aware online POMDP planning for autonomous driving in a crowd",
      "venue": "IEEE International Conference on Robotics and Automation",
      "year": 2015,
      "referenceCount": 23,
      "citationCount": 339,
      "authors": [
        {
          "authorId": "2067571868",
          "name": "Haoyu Bai"
        },
        {
          "authorId": "47895324",
          "name": "Shaojun Cai"
        },
        {
          "authorId": "50699003",
          "name": "N. Ye"
        },
        {
          "authorId": "145463096",
          "name": "David Hsu"
        },
        {
          "authorId": "1740222",
          "name": "Wee Sun Lee"
        }
      ]
    },
    {
      "paperId": "a178e01d9b984ed801db98f346fcbb6f00b2ec33",
      "externalIds": {
        "MAG": "649541843",
        "DBLP": "conf/icvs/RheeSNBR15",
        "DOI": "10.1007/978-3-319-20904-3_37",
        "CorpusId": 30308569
      },
      "url": "https://www.semanticscholar.org/paper/a178e01d9b984ed801db98f346fcbb6f00b2ec33",
      "title": "An Efficient Eye Tracking Using POMDP for Robust Human Computer Interaction",
      "venue": "International Conference on Virtual Storytelling",
      "year": 2015,
      "referenceCount": 22,
      "citationCount": 0,
      "authors": [
        {
          "authorId": "1758559",
          "name": "Ji Hye Rhee"
        },
        {
          "authorId": "72035785",
          "name": "WonJun Sung"
        },
        {
          "authorId": "1757042",
          "name": "M. Nam"
        },
        {
          "authorId": "144036125",
          "name": "H. Byun"
        },
        {
          "authorId": "1762908",
          "name": "P. Rhee"
        }
      ]
    },
    {
      "paperId": "11506bde0c5dc516ca051d3428fa46a28eb0e0da",
      "externalIds": {
        "MAG": "2165488310",
        "DBLP": "journals/ijait/LinLM15",
        "DOI": "10.1142/s0218213015500141",
        "CorpusId": 1973803
      },
      "url": "https://www.semanticscholar.org/paper/11506bde0c5dc516ca051d3428fa46a28eb0e0da",
      "title": "Approximate Planning in POMDPs with Weighted Graph Models",
      "venue": "Int. J. Artif. Intell. Tools",
      "year": 2015,
      "referenceCount": 7,
      "citationCount": 0,
      "authors": [
        {
          "authorId": "2108138658",
          "name": "Yong Lin"
        },
        {
          "authorId": "1701481",
          "name": "Xingjia Lu"
        },
        {
          "authorId": "1728274",
          "name": "F. Makedon"
        }
      ]
    },
    {
      "paperId": "415a5d15953339bf9d72ed1575a27eac54bf0a09",
      "externalIds": {
        "CorpusId": 5799152
      },
      "url": "https://www.semanticscholar.org/paper/415a5d15953339bf9d72ed1575a27eac54bf0a09",
      "title": "Dynamic Decision Model using Partially Observable Markov Decision Process",
      "venue": "",
      "year": 2015,
      "referenceCount": 10,
      "citationCount": 1,
      "authors": [
        {
          "authorId": "34155164",
          "name": "Sunita S. Barve"
        }
      ]
    },
    {
      "paperId": "90417123b22ec833de51d2e20835b51ad29e54e1",
      "externalIds": {
        "MAG": "2379274023",
        "CorpusId": 64285061
      },
      "url": "https://www.semanticscholar.org/paper/90417123b22ec833de51d2e20835b51ad29e54e1",
      "title": "Medium access control protocol based on partially observable Markov decision process in underwater acoustic sensor networks",
      "venue": "",
      "year": 2015,
      "referenceCount": 0,
      "citationCount": 0,
      "authors": [
        {
          "authorId": "2055549631",
          "name": "Xu Min"
        }
      ]
    },
    {
      "paperId": "067088a52b20e58716a6c34068134e08d471fd57",
      "externalIds": {
        "MAG": "2392391120",
        "CorpusId": 201896769
      },
      "url": "https://www.semanticscholar.org/paper/067088a52b20e58716a6c34068134e08d471fd57",
      "title": "Self-repair method for autonomous underwater vehicle software based on micro-reboot and partially observable Markov decision process model",
      "venue": "",
      "year": 2015,
      "referenceCount": 0,
      "citationCount": 0,
      "authors": [
        {
          "authorId": "1414791148",
          "name": "Zhang Ru-b"
        }
      ]
    },
    {
      "paperId": "945ad6793c519d571888608973cfd20690bac89b",
      "externalIds": {
        "MAG": "1857382517",
        "CorpusId": 61054163
      },
      "url": "https://www.semanticscholar.org/paper/945ad6793c519d571888608973cfd20690bac89b",
      "title": "Combining Offline and Online Computation for Solving Partially Observable Markov Decision Process",
      "venue": "",
      "year": 2015,
      "referenceCount": 0,
      "citationCount": 0,
      "authors": [
        {
          "authorId": "46605464",
          "name": "W. S. Lee"
        }
      ]
    },
    {
      "paperId": "040ff2a22c4dfd43db35f65730d65b42ec307c86",
      "externalIds": {
        "MAG": "2563215647",
        "DOI": "10.11772/j.issn.1001-9081.2015.11.3047",
        "CorpusId": 113612403
      },
      "url": "https://www.semanticscholar.org/paper/040ff2a22c4dfd43db35f65730d65b42ec307c86",
      "title": "Medium access control protocol based on partially observable Markov decision process in underwater acoustic sensor networks",
      "venue": "",
      "year": 2015,
      "referenceCount": 0,
      "citationCount": 0,
      "authors": [
        {
          "authorId": "2076303252",
          "name": "刘广钟"
        },
        {
          "authorId": "2060892031",
          "name": "徐明"
        }
      ]
    }
  ]
}