{
  "total": 19,
  "offset": 0,
  "next": 10,
  "data": [
    {
      "paperId": "c889d6f98e6d79b89c3a6adf8a921f88fa6ba518",
      "externalIds": {
        "MAG": "2604763608",
        "DBLP": "journals/corr/FinnAL17",
        "ArXiv": "1703.03400",
        "CorpusId": 6719686
      },
      "url": "https://www.semanticscholar.org/paper/c889d6f98e6d79b89c3a6adf8a921f88fa6ba518",
      "title": "Model-Agnostic Meta-Learning for Fast Adaptation of Deep Networks",
      "venue": "International Conference on Machine Learning",
      "year": 2017,
      "referenceCount": 52,
      "citationCount": 14187,
      "authors": [
        {
          "authorId": "46881670",
          "name": "Chelsea Finn"
        },
        {
          "authorId": "1689992",
          "name": "P. Abbeel"
        },
        {
          "authorId": "1736651",
          "name": "S. Levine"
        }
      ]
    },
    {
      "paperId": "1b4995b61b60793866a59065f69f76f2f6571f09",
      "externalIds": {
        "CorpusId": 260456700
      },
      "url": "https://www.semanticscholar.org/paper/1b4995b61b60793866a59065f69f76f2f6571f09",
      "title": "Model-Agnostic Meta-Learning for Fast Adaptation of Deep Networks",
      "venue": "",
      "year": 2017,
      "referenceCount": 0,
      "citationCount": 62,
      "authors": []
    },
    {
      "paperId": "e198400b5de938471ae24a837ef4510bf3aa5a1d",
      "externalIds": {
        "ArXiv": "2507.10619",
        "DBLP": "journals/wcl/GiwaAMBJ26",
        "DOI": "10.1109/LWC.2026.3668310",
        "CorpusId": 280298750
      },
      "url": "https://www.semanticscholar.org/paper/e198400b5de938471ae24a837ef4510bf3aa5a1d",
      "title": "Meta-Reinforcement Learning for Fast and Data-Efficient Spectrum Allocation in Dynamic Wireless Networks",
      "venue": "IEEE Wireless Communications Letters",
      "year": 2025,
      "referenceCount": 16,
      "citationCount": 1,
      "authors": [
        {
          "authorId": "2320729678",
          "name": "Oluwaseyi Giwa"
        },
        {
          "authorId": "2373466998",
          "name": "Tobi Awodunmila"
        },
        {
          "authorId": "2340391104",
          "name": "M. Mohsin"
        },
        {
          "authorId": "2340393408",
          "name": "Ahsan Bilal"
        },
        {
          "authorId": "2054530",
          "name": "Muhammad Ali Jamshed"
        }
      ]
    },
    {
      "paperId": "3387a5e313b0881fcb149a4956ac2b145ae990a8",
      "externalIds": {
        "DBLP": "conf/icc/ZhangCXS25",
        "ArXiv": "2410.08318",
        "DOI": "10.1109/ICCWorkshops67674.2025.11162187",
        "CorpusId": 273323427
      },
      "url": "https://www.semanticscholar.org/paper/3387a5e313b0881fcb149a4956ac2b145ae990a8",
      "title": "Meta-Learning-Driven Adaptive Codebook Design for Near-Field Communications",
      "venue": "2025 IEEE International Conference on Communications Workshops (ICC Workshops)",
      "year": 2024,
      "referenceCount": 22,
      "citationCount": 2,
      "authors": [
        {
          "authorId": "2112176196",
          "name": "Mian Zhang"
        },
        {
          "authorId": "2293358192",
          "name": "Yunlong Cai"
        },
        {
          "authorId": "2325778031",
          "name": "Jiaqi Xu"
        },
        {
          "authorId": "2258050150",
          "name": "A. L. Swindlehurst"
        }
      ]
    },
    {
      "paperId": "f5ad161abc9d5b61daaec820c678bb479c87d2c9",
      "externalIds": {
        "DBLP": "conf/icnlsp/NamanD21",
        "ACL": "2021.icnlsp-1.25",
        "CorpusId": 245616872
      },
      "url": "https://www.semanticscholar.org/paper/f5ad161abc9d5b61daaec820c678bb479c87d2c9",
      "title": "Indic Languages Automatic Speech Recognition using Meta-Learning Approach",
      "venue": "International Conference on Natural Language and Speech Processing",
      "year": 2021,
      "referenceCount": 22,
      "citationCount": 6,
      "authors": [
        {
          "authorId": "2034017070",
          "name": "Anugunj Naman"
        },
        {
          "authorId": "2034014986",
          "name": "Kumari Deepshikha"
        }
      ]
    },
    {
      "paperId": "2140b914c25c6c89e81a3b8e30f2c87f5d4bcd5d",
      "externalIds": {
        "ArXiv": "2404.12097",
        "DBLP": "conf/case/YanCRL24",
        "DOI": "10.1109/CASE59546.2024.10711717",
        "CorpusId": 269214506
      },
      "url": "https://www.semanticscholar.org/paper/2140b914c25c6c89e81a3b8e30f2c87f5d4bcd5d",
      "title": "MPC of Uncertain Nonlinear Systems with Meta-Learning for Fast Adaptation of Neural Predictive Models",
      "venue": "2024 IEEE 20th International Conference on Automation Science and Engineering (CASE)",
      "year": 2024,
      "referenceCount": 26,
      "citationCount": 5,
      "authors": [
        {
          "authorId": "2297683728",
          "name": "Jiaqi Yan"
        },
        {
          "authorId": "2297188733",
          "name": "Ankush Chakrabarty"
        },
        {
          "authorId": "47355089",
          "name": "Alisa Rupenyan"
        },
        {
          "authorId": "2263734841",
          "name": "J. Lygeros"
        }
      ]
    },
    {
      "paperId": "b6bf19db98572ceec901c96392f2f65f98cd3be6",
      "externalIds": {
        "DBLP": "journals/tbe/ZhuLHG23",
        "DOI": "10.1109/TBME.2022.3187703",
        "CorpusId": 250218083,
        "PubMed": "35776825"
      },
      "url": "https://www.semanticscholar.org/paper/b6bf19db98572ceec901c96392f2f65f98cd3be6",
      "title": "Personalized Blood Glucose Prediction for Type 1 Diabetes Using Evidential Deep Learning and Meta-Learning",
      "venue": "IEEE Transactions on Biomedical Engineering",
      "year": 2022,
      "referenceCount": 72,
      "citationCount": 103,
      "authors": [
        {
          "authorId": "51169745",
          "name": "Taiyu Zhu"
        },
        {
          "authorId": "2974290",
          "name": "Kezhi Li"
        },
        {
          "authorId": "32043548",
          "name": "P. Herrero"
        },
        {
          "authorId": "145836472",
          "name": "P. Georgiou"
        }
      ]
    },
    {
      "paperId": "55236433709913357bd85aaf0eb427f2fdfc626c",
      "externalIds": {
        "DBLP": "journals/spl/YeCPLH25",
        "DOI": "10.1109/LSP.2025.3576666",
        "CorpusId": 279176086
      },
      "url": "https://www.semanticscholar.org/paper/55236433709913357bd85aaf0eb427f2fdfc626c",
      "title": "Learning Reference Signal (LRS): Learning Intelligent Radio Access With Meta-Learned Reference Signal",
      "venue": "IEEE Signal Processing Letters",
      "year": 2025,
      "referenceCount": 27,
      "citationCount": 0,
      "authors": [
        {
          "authorId": "2345025149",
          "name": "Neng Ye"
        },
        {
          "authorId": "2149215351",
          "name": "Xinyuan Cao"
        },
        {
          "authorId": "2122294484",
          "name": "Jianxiong Pan"
        },
        {
          "authorId": "2143739716",
          "name": "Wenjia Liu"
        },
        {
          "authorId": "2240356164",
          "name": "Xiaolin Hou"
        }
      ]
    },
    {
      "paperId": "fe392a89b6c9f691f8d2c92fcea8878e933d875f",
      "externalIds": {
        "DOI": "10.1109/AEEES56888.2023.10114329",
        "CorpusId": 258576365
      },
      "url": "https://www.semanticscholar.org/paper/fe392a89b6c9f691f8d2c92fcea8878e933d875f",
      "title": "A Meta-Learning Enabled Method for False Data Injection Attack Detection in Smart Grid",
      "venue": "2023 5th Asia Energy and Electrical Engineering Symposium (AEEES)",
      "year": 2023,
      "referenceCount": 30,
      "citationCount": 1,
      "authors": [
        {
          "authorId": "2160956883",
          "name": "Zihan Chen"
        },
        {
          "authorId": "39729530",
          "name": "Han Lin"
        },
        {
          "authorId": "2213148512",
          "name": "Wenxin Chen"
        },
        {
          "authorId": "2108216536",
          "name": "Jinyu Chen"
        },
        {
          "authorId": "2155744990",
          "name": "Han Chen"
        },
        {
          "authorId": "10699835",
          "name": "Wanqing Chen"
        },
        {
          "authorId": "50358000",
          "name": "Simin Chen"
        },
        {
          "authorId": "2154756916",
          "name": "Jinchun Chen"
        }
      ]
    },
    {
      "paperId": "44aed70aa0b72214b1eac149d93d468b6cfdbb12",
      "externalIds": {
        "CorpusId": 46963560
      },
      "url": "https://www.semanticscholar.org/paper/44aed70aa0b72214b1eac149d93d468b6cfdbb12",
      "title": "First-order Meta-Learned Initialization for Faster Adaptation in Deep Reinforcement Learning",
      "venue": "",
      "year": 2018,
      "referenceCount": 16,
      "citationCount": 7,
      "authors": [
        {
          "authorId": "28816112",
          "name": "Abhijat Biswas"
        }
      ]
    }
  ]
}