{
  "total": 166,
  "offset": 0,
  "next": 10,
  "data": [
    {
      "paperId": "073017b9c34c6896820312297f13297beccdc2ac",
      "externalIds": {
        "DBLP": "conf/icml/LiWZC16",
        "MAG": "2443763917",
        "CorpusId": 14028795
      },
      "url": "https://www.semanticscholar.org/paper/073017b9c34c6896820312297f13297beccdc2ac",
      "title": "Contextual Combinatorial Cascading Bandits",
      "venue": "International Conference on Machine Learning",
      "year": 2016,
      "referenceCount": 23,
      "citationCount": 146,
      "authors": [
        {
          "authorId": "1491648207",
          "name": "Shuai Li"
        },
        {
          "authorId": "7425437",
          "name": "Baoxiang Wang"
        },
        {
          "authorId": "47180076",
          "name": "Shengyu Zhang"
        },
        {
          "authorId": null,
          "name": "Wei Chen"
        }
      ]
    },
    {
      "paperId": "272a243650d3b35db81dcf7982d069b246d24515",
      "externalIds": {
        "ArXiv": "2508.13981",
        "DBLP": "journals/corr/abs-2508-13981",
        "DOI": "10.48550/arXiv.2508.13981",
        "CorpusId": 280686238
      },
      "url": "https://www.semanticscholar.org/paper/272a243650d3b35db81dcf7982d069b246d24515",
      "title": "Multi-User Contextual Cascading Bandits for Personalized Recommendation",
      "venue": "arXiv.org",
      "year": 2025,
      "referenceCount": 28,
      "citationCount": 1,
      "authors": [
        {
          "authorId": "2339972538",
          "name": "Jiho Park"
        },
        {
          "authorId": "2376424269",
          "name": "Huiwen Jia"
        }
      ]
    },
    {
      "paperId": "38f501f4602265b7fbdb6d0004a6f08ce8f2acaa",
      "externalIds": {
        "ArXiv": "2402.16312",
        "DBLP": "conf/aaai/YangLW0LLC24",
        "DOI": "10.48550/arXiv.2402.16312",
        "CorpusId": 267938279
      },
      "url": "https://www.semanticscholar.org/paper/38f501f4602265b7fbdb6d0004a6f08ce8f2acaa",
      "title": "Federated Contextual Cascading Bandits with Asynchronous Communication and Heterogeneous Users",
      "venue": "AAAI Conference on Artificial Intelligence",
      "year": 2024,
      "referenceCount": 24,
      "citationCount": 9,
      "authors": [
        {
          "authorId": "2287333355",
          "name": "Hantao Yang"
        },
        {
          "authorId": "2202278",
          "name": "Xutong Liu"
        },
        {
          "authorId": "2287469941",
          "name": "Zhiyong Wang"
        },
        {
          "authorId": "2237956399",
          "name": "Hong Xie"
        },
        {
          "authorId": "2253686436",
          "name": "John C. S. Lui"
        },
        {
          "authorId": "1862782",
          "name": "Defu Lian"
        },
        {
          "authorId": "2113754294",
          "name": "Enhong Chen"
        }
      ]
    },
    {
      "paperId": "be4f1cd735e6be396534e5748563fc5b855254ac",
      "externalIds": {
        "DBLP": "conf/icml/0002ZWLHW023",
        "ArXiv": "2303.17110",
        "DOI": "10.48550/arXiv.2303.17110",
        "CorpusId": 257833982
      },
      "url": "https://www.semanticscholar.org/paper/be4f1cd735e6be396534e5748563fc5b855254ac",
      "title": "Contextual Combinatorial Bandits with Probabilistically Triggered Arms",
      "venue": "International Conference on Machine Learning",
      "year": 2023,
      "referenceCount": 38,
      "citationCount": 26,
      "authors": [
        {
          "authorId": "2202278",
          "name": "Xutong Liu"
        },
        {
          "authorId": "3399139",
          "name": "Jinhang Zuo"
        },
        {
          "authorId": "103307910",
          "name": "Siwei Wang"
        },
        {
          "authorId": "145462046",
          "name": "John C.S. Lui"
        },
        {
          "authorId": "2358260511",
          "name": "Mohammad H. Hajiesmaili"
        },
        {
          "authorId": "1706859",
          "name": "A. Wierman"
        },
        {
          "authorId": "2283009",
          "name": "Wei Chen"
        }
      ]
    },
    {
      "paperId": "37b8838c83237279a0a37da4eefa0443546f8691",
      "externalIds": {
        "DBLP": "conf/nips/ChoiUO23",
        "DOI": "10.52202/075280-1015",
        "CorpusId": 268042130
      },
      "url": "https://www.semanticscholar.org/paper/37b8838c83237279a0a37da4eefa0443546f8691",
      "title": "Cascading Contextual Assortment Bandits",
      "venue": "Neural Information Processing Systems",
      "year": 2023,
      "referenceCount": 29,
      "citationCount": 3,
      "authors": [
        {
          "authorId": "2116402670",
          "name": "Hyun-Jun Choi"
        },
        {
          "authorId": "2207951",
          "name": "Rajan Udwani"
        },
        {
          "authorId": "2290486204",
          "name": "Min-hwan Oh"
        }
      ]
    },
    {
      "paperId": "9055ca0e41f02b34edacc1045b409e4d54c7931d",
      "externalIds": {
        "DBLP": "journals/access/Wang21k",
        "ArXiv": "2104.08615",
        "DOI": "10.1109/ACCESS.2021.3124416",
        "CorpusId": 233295973
      },
      "url": "https://www.semanticscholar.org/paper/9055ca0e41f02b34edacc1045b409e4d54c7931d",
      "title": "Conservative Contextual Combinatorial Cascading Bandit",
      "venue": "IEEE Access",
      "year": 2021,
      "referenceCount": 24,
      "citationCount": 6,
      "authors": [
        {
          "authorId": "48884840",
          "name": "Kun Wang"
        },
        {
          "authorId": "2145204134",
          "name": "Canzhe Zhao"
        },
        {
          "authorId": "1491648207",
          "name": "Shuai Li"
        },
        {
          "authorId": null,
          "name": "Shuo Shao"
        }
      ]
    },
    {
      "paperId": "71be31d0a28ccb5acf85b43132953943a9009074",
      "externalIds": {
        "MAG": "1630558870",
        "ArXiv": "1507.04208",
        "DBLP": "conf/nips/KvetonWAS15",
        "CorpusId": 1083153
      },
      "url": "https://www.semanticscholar.org/paper/71be31d0a28ccb5acf85b43132953943a9009074",
      "title": "Combinatorial Cascading Bandits",
      "venue": "Neural Information Processing Systems",
      "year": 2015,
      "referenceCount": 22,
      "citationCount": 114,
      "authors": [
        {
          "authorId": "1681967",
          "name": "B. Kveton"
        },
        {
          "authorId": "39761651",
          "name": "Zheng Wen"
        },
        {
          "authorId": "1715458",
          "name": "Azin Ashkan"
        },
        {
          "authorId": "40868287",
          "name": "Csaba Szepesvari"
        }
      ]
    },
    {
      "paperId": "93b41515d836312c0ddc7a148c1b8942a262194d",
      "externalIds": {
        "DBLP": "journals/tsc/LiZHWZ25",
        "DOI": "10.1109/TSC.2025.3618908",
        "CorpusId": 281920349
      },
      "url": "https://www.semanticscholar.org/paper/93b41515d836312c0ddc7a148c1b8942a262194d",
      "title": "W2CB: Online Data Acquisition Optimization With Wasserstein Contextual Combinatorial Bandits",
      "venue": "IEEE Transactions on Services Computing",
      "year": 2025,
      "referenceCount": 88,
      "citationCount": 1,
      "authors": [
        {
          "authorId": "2384768991",
          "name": "Yang Li"
        },
        {
          "authorId": "2108901524",
          "name": "Xianzhi Zhang"
        },
        {
          "authorId": "2090430131",
          "name": "Miao Hu"
        },
        {
          "authorId": "2302952017",
          "name": "Di Wu"
        },
        {
          "authorId": "2110340623",
          "name": "Yipeng Zhou"
        }
      ]
    },
    {
      "paperId": "6eaedd2e46d37f0e430fad4c8e744bbf5439c087",
      "externalIds": {
        "ArXiv": "2502.09257",
        "CorpusId": 276477141
      },
      "url": "https://www.semanticscholar.org/paper/6eaedd2e46d37f0e430fad4c8e744bbf5439c087",
      "title": "From Contextual Combinatorial Semi-Bandits to Bandit List Classification: Improved Sample Complexity with Sparse Rewards",
      "venue": "",
      "year": 2025,
      "referenceCount": 50,
      "citationCount": 1,
      "authors": [
        {
          "authorId": "2120142205",
          "name": "Liad Erez"
        },
        {
          "authorId": "1711492",
          "name": "Tomer Koren"
        }
      ]
    },
    {
      "paperId": "78f246ce3167849a4e852cb5637b75e245963024",
      "externalIds": {
        "DBLP": "journals/corr/abs-2508-18768",
        "ArXiv": "2508.18768",
        "DOI": "10.48550/arXiv.2508.18768",
        "CorpusId": 280870392
      },
      "url": "https://www.semanticscholar.org/paper/78f246ce3167849a4e852cb5637b75e245963024",
      "title": "Efficient Best-of-Both-Worlds Algorithms for Contextual Combinatorial Semi-Bandits",
      "venue": "arXiv.org",
      "year": 2025,
      "referenceCount": 42,
      "citationCount": 1,
      "authors": [
        {
          "authorId": "2266459236",
          "name": "Mengmeng Li"
        },
        {
          "authorId": "2377307517",
          "name": "Philipp J. Schneider"
        },
        {
          "authorId": "2377311253",
          "name": "Jelisaveta Aleksi'c"
        },
        {
          "authorId": "2266387016",
          "name": "Daniel Kuhn"
        }
      ]
    }
  ]
}