{
  "total": 144279,
  "offset": 0,
  "next": 10,
  "data": [
    {
      "paperId": "e69fef82c969a8c4799137271f3b0bc4fc6202fe",
      "externalIds": {
        "DOI": "10.36244/icj.2025.2.3",
        "CorpusId": 280877261
      },
      "url": "https://www.semanticscholar.org/paper/e69fef82c969a8c4799137271f3b0bc4fc6202fe",
      "title": "Monitoring the Semantic Change of COVID-19-related Expressions Using Dynamic Word Embeddings",
      "venue": "Infocommunications journal",
      "year": 2025,
      "referenceCount": 52,
      "citationCount": 1,
      "authors": [
        {
          "authorId": "2377369225",
          "name": "Bogdán Asztalos"
        },
        {
          "authorId": "2377359060",
          "name": "Péter Bányász"
        }
      ]
    },
    {
      "paperId": "623f82668f4dbf1043ba712b74394a1f9cbb1cd0",
      "externalIds": {
        "DBLP": "journals/taffco/XuXCLLLC24",
        "DOI": "10.1109/TAFFC.2023.3262941",
        "CorpusId": 257844788
      },
      "url": "https://www.semanticscholar.org/paper/623f82668f4dbf1043ba712b74394a1f9cbb1cd0",
      "title": "Context-Aware Dynamic Word Embeddings for Aspect Term Extraction",
      "venue": "IEEE Transactions on Affective Computing",
      "year": 2024,
      "referenceCount": 74,
      "citationCount": 13,
      "authors": [
        {
          "authorId": "1508210761",
          "name": "Jingyun Xu"
        },
        {
          "authorId": "1387837930",
          "name": "Jiayuan Xie"
        },
        {
          "authorId": "1752876325",
          "name": "Yi Cai"
        },
        {
          "authorId": "26316172",
          "name": "Zehang Lin"
        },
        {
          "authorId": "1701688",
          "name": "Ho-fung Leung"
        },
        {
          "authorId": "1930238",
          "name": "Qing Li"
        },
        {
          "authorId": "143779329",
          "name": "Tat-seng Chua"
        }
      ]
    },
    {
      "paperId": "803b21f5c183b8406a6da5b9e111501a0156e50c",
      "externalIds": {
        "DBLP": "journals/corr/abs-2411-06577",
        "ArXiv": "2411.06577",
        "DOI": "10.1088/2632-2153/adb00a",
        "CorpusId": 273963065
      },
      "url": "https://www.semanticscholar.org/paper/803b21f5c183b8406a6da5b9e111501a0156e50c",
      "title": "Discovering emergent connections in quantum physics research via dynamic word embeddings",
      "venue": "Machine Learning: Science and Technology",
      "year": 2024,
      "referenceCount": 42,
      "citationCount": 3,
      "authors": [
        {
          "authorId": "2175779931",
          "name": "Felix Frohnert"
        },
        {
          "authorId": "47019548",
          "name": "Xuemei Gu"
        },
        {
          "authorId": "2304551641",
          "name": "Mario Krenn"
        },
        {
          "authorId": "13113933",
          "name": "Evert P L van Nieuwenburg"
        }
      ]
    },
    {
      "paperId": "ffa952b637e03bcae13b38e13ce5cf73c6f24e59",
      "externalIds": {
        "DBLP": "conf/wsdm/YaoSDRX18",
        "MAG": "2782822144",
        "ArXiv": "1703.00607",
        "DOI": "10.1145/3159652.3159703",
        "CorpusId": 36748720
      },
      "url": "https://www.semanticscholar.org/paper/ffa952b637e03bcae13b38e13ce5cf73c6f24e59",
      "title": "Dynamic Word Embeddings for Evolving Semantic Discovery",
      "venue": "Web Search and Data Mining",
      "year": 2017,
      "referenceCount": 45,
      "citationCount": 229,
      "authors": [
        {
          "authorId": "2117803201",
          "name": "Zijun Yao"
        },
        {
          "authorId": "2213925",
          "name": "Yifan Sun"
        },
        {
          "authorId": "2365722",
          "name": "Weicong Ding"
        },
        {
          "authorId": "145850291",
          "name": "Nikhil S. Rao"
        },
        {
          "authorId": "144467554",
          "name": "Hui Xiong"
        }
      ]
    },
    {
      "paperId": "7c01553048a7cb56a712843736dc44f990adccef",
      "externalIds": {
        "DBLP": "journals/ijon/LanZXY23",
        "DOI": "10.1016/j.neucom.2023.126545",
        "CorpusId": 259872229
      },
      "url": "https://www.semanticscholar.org/paper/7c01553048a7cb56a712843736dc44f990adccef",
      "title": "Adaptive map matching based on dynamic word embeddings for indoor positioning",
      "venue": "Neurocomputing",
      "year": 2023,
      "referenceCount": 33,
      "citationCount": 2,
      "authors": [
        {
          "authorId": "2075286392",
          "name": "Xinyue Lan"
        },
        {
          "authorId": "2108876782",
          "name": "Lijia Zhang"
        },
        {
          "authorId": "2741851",
          "name": "Zhuoling Xiao"
        },
        {
          "authorId": "2075430774",
          "name": "Bo Yan"
        }
      ]
    },
    {
      "paperId": "b2535d2e7629f37571046f9abcb91feeced3b3c2",
      "externalIds": {
        "MAG": "2738734060",
        "DBLP": "conf/icml/BamlerM17",
        "ArXiv": "1702.08359",
        "CorpusId": 449844
      },
      "url": "https://www.semanticscholar.org/paper/b2535d2e7629f37571046f9abcb91feeced3b3c2",
      "title": "Dynamic Word Embeddings",
      "venue": "International Conference on Machine Learning",
      "year": 2017,
      "referenceCount": 44,
      "citationCount": 247,
      "authors": [
        {
          "authorId": "36347405",
          "name": "Robert Bamler"
        },
        {
          "authorId": "2266238615",
          "name": "Stephan Mandt"
        }
      ]
    },
    {
      "paperId": "c2f1fca17c1ff747d64650d342f2328db8445259",
      "externalIds": {
        "DBLP": "journals/ijon/LiuZZ20a",
        "MAG": "3022674777",
        "DOI": "10.1016/j.neucom.2020.04.084",
        "CorpusId": 219020810
      },
      "url": "https://www.semanticscholar.org/paper/c2f1fca17c1ff747d64650d342f2328db8445259",
      "title": "HieNN-DWE: A hierarchical neural network with dynamic word embeddings for document level sentiment classification",
      "venue": "Neurocomputing",
      "year": 2020,
      "referenceCount": 46,
      "citationCount": 26,
      "authors": [
        {
          "authorId": "2291371",
          "name": "Fagui Liu"
        },
        {
          "authorId": "2144643667",
          "name": "Lailei Zheng"
        },
        {
          "authorId": "2137178624",
          "name": "Jingzhong Zheng"
        }
      ]
    },
    {
      "paperId": "d9ba9ec7853283c5bc31acba85c6de3eb8d42239",
      "externalIds": {
        "DBLP": "conf/ijcai/LuCLR22",
        "DOI": "10.24963/ijcai.2022/594",
        "CorpusId": 250629212
      },
      "url": "https://www.semanticscholar.org/paper/d9ba9ec7853283c5bc31acba85c6de3eb8d42239",
      "title": "Graph-based Dynamic Word Embeddings",
      "venue": "International Joint Conference on Artificial Intelligence",
      "year": 2022,
      "referenceCount": 34,
      "citationCount": 0,
      "authors": [
        {
          "authorId": "2140021021",
          "name": "Yuyin Lu"
        },
        {
          "authorId": null,
          "name": "Xin Cheng"
        },
        {
          "authorId": "2176789957",
          "name": "Ziran Liang"
        },
        {
          "authorId": "36300013",
          "name": "Yanghui Rao"
        }
      ]
    },
    {
      "paperId": "c02e89a67a9d26fffa5b8269e638a8348f75f9c0",
      "externalIds": {
        "MAG": "2928636135",
        "ArXiv": "1904.03352",
        "ACL": "W19-2111",
        "DBLP": "journals/corr/abs-1904-03352",
        "DOI": "10.18653/v1/W19-2111",
        "CorpusId": 102351489
      },
      "url": "https://www.semanticscholar.org/paper/c02e89a67a9d26fffa5b8269e638a8348f75f9c0",
      "title": "Simple dynamic word embeddings for mapping perceptions in the public sphere",
      "venue": "Proceedings of the Third Workshop on Natural Language Processing and Computational Social Science",
      "year": 2019,
      "referenceCount": 18,
      "citationCount": 18,
      "authors": [
        {
          "authorId": "35689089",
          "name": "Nabeel Gillani"
        },
        {
          "authorId": "143643017",
          "name": "R. Levy"
        }
      ]
    },
    {
      "paperId": "f3cd15c9f7ee95786022751141228bad8ee75a7a",
      "externalIds": {
        "CorpusId": 218626540
      },
      "url": "https://www.semanticscholar.org/paper/f3cd15c9f7ee95786022751141228bad8ee75a7a",
      "title": "Quantifying Gender Bias Over Time Using Dynamic Word Embeddings",
      "venue": "",
      "year": 2020,
      "referenceCount": 15,
      "citationCount": 0,
      "authors": [
        {
          "authorId": "27541643",
          "name": "Aodong Li"
        },
        {
          "authorId": "36347405",
          "name": "Robert Bamler"
        }
      ]
    }
  ]
}