{
  "total": 407,
  "offset": 0,
  "next": 10,
  "data": [
    {
      "paperId": "9b510639c82fbbc8c7d883644d7d15f5901c8c73",
      "externalIds": {
        "MAG": "1826694107",
        "DBLP": "journals/corr/BelangerK15",
        "ArXiv": "1502.04081",
        "CorpusId": 570528
      },
      "url": "https://www.semanticscholar.org/paper/9b510639c82fbbc8c7d883644d7d15f5901c8c73",
      "title": "A Linear Dynamical System Model for Text",
      "venue": "International Conference on Machine Learning",
      "year": 2015,
      "referenceCount": 45,
      "citationCount": 35,
      "authors": [
        {
          "authorId": "2636941",
          "name": "David Belanger"
        },
        {
          "authorId": "144695232",
          "name": "S. Kakade"
        }
      ]
    },
    {
      "paperId": "32caf5db0c16be8a9a64a49e66135956a6b42d88",
      "externalIds": {
        "MAG": "2261141559",
        "ArXiv": "1509.03927",
        "CorpusId": 88521994
      },
      "url": "https://www.semanticscholar.org/paper/32caf5db0c16be8a9a64a49e66135956a6b42d88",
      "title": "An M-Estimator for Reduced-Rank High-Dimensional Linear Dynamical System Identification",
      "venue": "",
      "year": 2015,
      "referenceCount": 36,
      "citationCount": 1,
      "authors": [
        {
          "authorId": "40416156",
          "name": "Shaojie Chen"
        },
        {
          "authorId": "145482617",
          "name": "Kai Liu"
        },
        {
          "authorId": "2128674950",
          "name": "Yuguang Yang"
        },
        {
          "authorId": "2110175326",
          "name": "Yuting Xu"
        },
        {
          "authorId": "78191515",
          "name": "Seonjoo Lee"
        },
        {
          "authorId": "1754035",
          "name": "M. Lindquist"
        },
        {
          "authorId": "1886238",
          "name": "B. Caffo"
        },
        {
          "authorId": "1717958",
          "name": "J. Vogelstein"
        }
      ]
    },
    {
      "paperId": "bb1a17010254abfa5e1f2a17553582ce449f8e16",
      "externalIds": {
        "MAG": "2950564096",
        "DBLP": "conf/nips/WatterSBR15",
        "ArXiv": "1506.07365",
        "CorpusId": 1731857
      },
      "url": "https://www.semanticscholar.org/paper/bb1a17010254abfa5e1f2a17553582ce449f8e16",
      "title": "Embed to Control: A Locally Linear Latent Dynamics Model for Control from Raw Images",
      "venue": "Neural Information Processing Systems",
      "year": 2015,
      "referenceCount": 49,
      "citationCount": 895,
      "authors": [
        {
          "authorId": "2409233",
          "name": "Manuel Watter"
        },
        {
          "authorId": "2060551",
          "name": "Jost Tobias Springenberg"
        },
        {
          "authorId": "145581493",
          "name": "J. Boedecker"
        },
        {
          "authorId": "3137672",
          "name": "Martin A. Riedmiller"
        }
      ]
    },
    {
      "paperId": "ea954550a2fa60b938a3babd9c5944bc9ea74845",
      "externalIds": {
        "ArXiv": "1505.03785",
        "MAG": "3099360100",
        "DOI": "10.1088/1742-5468/2015/08/P08017",
        "CorpusId": 12803265
      },
      "url": "https://www.semanticscholar.org/paper/ea954550a2fa60b938a3babd9c5944bc9ea74845",
      "title": "A dynamical model of the adaptive immune system: effects of cells promiscuity, antigens and B–B interactions",
      "venue": "",
      "year": 2015,
      "referenceCount": 37,
      "citationCount": 8,
      "authors": [
        {
          "authorId": "29027031",
          "name": "Silvia Bartolucci"
        },
        {
          "authorId": "51004300",
          "name": "A. Annibale"
        }
      ]
    },
    {
      "paperId": "ffeeb0038af4302f0334f74552c30e67ebba7378",
      "externalIds": {
        "DBLP": "journals/sigpro/LeonovKYY15",
        "MAG": "1963794340",
        "DOI": "10.1016/j.sigpro.2014.08.033",
        "CorpusId": 14511111
      },
      "url": "https://www.semanticscholar.org/paper/ffeeb0038af4302f0334f74552c30e67ebba7378",
      "title": "Nonlinear dynamical model of Costas loop and an approach to the analysis of its stability in the large",
      "venue": "Signal Processing",
      "year": 2015,
      "referenceCount": 96,
      "citationCount": 58,
      "authors": [
        {
          "authorId": "39660178",
          "name": "G. Leonov"
        },
        {
          "authorId": "50737244",
          "name": "N. Kuznetsov"
        },
        {
          "authorId": "2234843",
          "name": "M. Yuldashev"
        },
        {
          "authorId": "2301184",
          "name": "R. Yuldashev"
        }
      ]
    },
    {
      "paperId": "5be1d583b1e6ad723d7713319e6410accfbb472f",
      "externalIds": {
        "MAG": "2478948476",
        "DBLP": "journals/qip/SchererVMABC17",
        "ArXiv": "1505.06552",
        "DOI": "10.1007/s11128-016-1495-5",
        "CorpusId": 19090974
      },
      "url": "https://www.semanticscholar.org/paper/5be1d583b1e6ad723d7713319e6410accfbb472f",
      "title": "Concrete resource analysis of the quantum linear-system algorithm used to compute the electromagnetic scattering cross section of a 2D target",
      "venue": "Quantum Information Processing",
      "year": 2015,
      "referenceCount": 53,
      "citationCount": 80,
      "authors": [
        {
          "authorId": "28276651",
          "name": "A. Scherer"
        },
        {
          "authorId": "2591230",
          "name": "Benoît Valiron"
        },
        {
          "authorId": "47303968",
          "name": "S. Mau"
        },
        {
          "authorId": "2066806888",
          "name": "S. Alexander"
        },
        {
          "authorId": "2064905348",
          "name": "E. D. Berg"
        },
        {
          "authorId": "34656012",
          "name": "T. Chapuran"
        }
      ]
    },
    {
      "paperId": "a97d293b469ac2c54cad5884efdd6b2551ec87e5",
      "externalIds": {
        "MAG": "1844404286",
        "DOI": "10.1007/978-3-319-16637-7_12",
        "CorpusId": 26273128
      },
      "url": "https://www.semanticscholar.org/paper/a97d293b469ac2c54cad5884efdd6b2551ec87e5",
      "title": "Dynamical Properties of a Cosmological Model with Diffusion",
      "venue": "",
      "year": 2015,
      "referenceCount": 7,
      "citationCount": 0,
      "authors": [
        {
          "authorId": "41210252",
          "name": "M. Ramos"
        },
        {
          "authorId": "51210380",
          "name": "A. J. Soares"
        }
      ]
    },
    {
      "paperId": "b8afaf7be7e88d8b3347d45e14672196a55d631e",
      "externalIds": {
        "DBLP": "journals/tcst/GuoMZ15",
        "MAG": "1976205722",
        "DOI": "10.1109/TCST.2015.2413497",
        "CorpusId": 11923264
      },
      "url": "https://www.semanticscholar.org/paper/b8afaf7be7e88d8b3347d45e14672196a55d631e",
      "title": "Rate-Dependent Modeling and  $\\text{H}_{\\mathrm {\\infty }}$  Robust Control of GMA Based on Hammerstein Model With Preisach Operator",
      "venue": "IEEE Transactions on Control Systems Technology",
      "year": 2015,
      "referenceCount": 28,
      "citationCount": 18,
      "authors": [
        {
          "authorId": "48302609",
          "name": "Yongxin Guo"
        },
        {
          "authorId": "1700441",
          "name": "J. Mao"
        },
        {
          "authorId": null,
          "name": "Kemin Zhou"
        }
      ]
    },
    {
      "paperId": "c423895e29ffda469a0b4295d5384f33cdae0a92",
      "externalIds": {
        "MAG": "2432604435",
        "DOI": "10.1109/INFOP.2015.7489370",
        "CorpusId": 17653742
      },
      "url": "https://www.semanticscholar.org/paper/c423895e29ffda469a0b4295d5384f33cdae0a92",
      "title": "Combining dynamic features with MFCC for text-independent speaker identification",
      "venue": "International Conference on Information Photonics",
      "year": 2015,
      "referenceCount": 16,
      "citationCount": 7,
      "authors": [
        {
          "authorId": "2063969048",
          "name": "Amol Chaudhari"
        },
        {
          "authorId": "1895315",
          "name": "A. Rahulkar"
        },
        {
          "authorId": "2840537",
          "name": "S. Dhonde"
        }
      ]
    },
    {
      "paperId": "496fd25381a4915daabf2c46a59e88ee0c9b35a9",
      "externalIds": {
        "MAG": "3006764267",
        "DBLP": "journals/asc/Al-HadithiJL15",
        "DOI": "10.1016/j.asoc.2015.01.063",
        "CorpusId": 205706025
      },
      "url": "https://www.semanticscholar.org/paper/496fd25381a4915daabf2c46a59e88ee0c9b35a9",
      "title": "Fuzzy optimal control using generalized Takagi-Sugeno model for multivariable nonlinear systems",
      "venue": "Applied Soft Computing",
      "year": 2015,
      "referenceCount": 31,
      "citationCount": 22,
      "authors": [
        {
          "authorId": "1398648547",
          "name": "B. M. Al-Hadithi"
        },
        {
          "authorId": "37157450",
          "name": "A. Jiménez"
        },
        {
          "authorId": "144396158",
          "name": "R. Galán"
        }
      ]
    }
  ]
}