{
  "total": 39,
  "offset": 0,
  "next": 10,
  "data": [
    {
      "paperId": "4abad02b210adb5e3b67922c6f38b4377f297bb0",
      "externalIds": {
        "MAG": "2963207653",
        "ArXiv": "1804.00795",
        "DBLP": "conf/icml/LiWZ18",
        "CorpusId": 4562184
      },
      "url": "https://www.semanticscholar.org/paper/4abad02b210adb5e3b67922c6f38b4377f297bb0",
      "title": "Estimation of Markov Chain via Rank-constrained Likelihood",
      "venue": "International Conference on Machine Learning",
      "year": 2018,
      "referenceCount": 54,
      "citationCount": 18,
      "authors": [
        {
          "authorId": "2145431154",
          "name": "Xudong Li"
        },
        {
          "authorId": "145731462",
          "name": "Mengdi Wang"
        },
        {
          "authorId": "40349493",
          "name": "Anru R. Zhang"
        }
      ]
    },
    {
      "paperId": "998cbe9413fed81e389794b21cc172c9e3491311",
      "externalIds": {
        "CorpusId": 260538595
      },
      "url": "https://www.semanticscholar.org/paper/998cbe9413fed81e389794b21cc172c9e3491311",
      "title": "Supplementary Materials for “ Estimation of Markov Chain via Rank-Constrained Likelihood ”",
      "venue": "",
      "year": 2018,
      "referenceCount": 7,
      "citationCount": 0,
      "authors": [
        {
          "authorId": "2145431154",
          "name": "Xudong Li"
        },
        {
          "authorId": "145731462",
          "name": "Mengdi Wang"
        },
        {
          "authorId": "40349493",
          "name": "Anru R. Zhang"
        }
      ]
    },
    {
      "paperId": "77f077d87fa441a087563e0a06ab6fdfb21ee638",
      "externalIds": {
        "DBLP": "conf/camsap/PetersLB11",
        "MAG": "2077019898",
        "DOI": "10.1109/CAMSAP.2011.6136040",
        "CorpusId": 9030343
      },
      "url": "https://www.semanticscholar.org/paper/77f077d87fa441a087563e0a06ab6fdfb21ee638",
      "title": "Rank estimation in Cointegrated Vector Auto-Regression models via automated Trans-dimensional Markov chain Monte Carlo",
      "venue": "IEEE International Workshop on Computational Advances in Multi-Sensor Adaptive Processing",
      "year": 2011,
      "referenceCount": 13,
      "citationCount": 1,
      "authors": [
        {
          "authorId": "144888991",
          "name": "G. Peters"
        },
        {
          "authorId": "2302801",
          "name": "B. Lasscock"
        },
        {
          "authorId": "35507167",
          "name": "K. Balakrishnan"
        }
      ]
    },
    {
      "paperId": "0ba38498551e1a1d3b222f24644a543a0ad84570",
      "externalIds": {
        "DBLP": "journals/ior/ZhuLWZ22",
        "ArXiv": "1907.00113",
        "MAG": "2954311290",
        "DOI": "10.1287/opre.2021.2115",
        "CorpusId": 195767257
      },
      "url": "https://www.semanticscholar.org/paper/0ba38498551e1a1d3b222f24644a543a0ad84570",
      "title": "Learning Markov Models Via Low-Rank Optimization",
      "venue": "Operational Research",
      "year": 2019,
      "referenceCount": 64,
      "citationCount": 20,
      "authors": [
        {
          "authorId": "2109438309",
          "name": "Ziwei Zhu"
        },
        {
          "authorId": "2145431154",
          "name": "Xudong Li"
        },
        {
          "authorId": "145731462",
          "name": "Mengdi Wang"
        },
        {
          "authorId": "40349493",
          "name": "Anru R. Zhang"
        }
      ]
    },
    {
      "paperId": "3df2b3b5560c7b103f91e75bc31a5894cb2a5569",
      "externalIds": {
        "DBLP": "journals/ol/BiYW23",
        "DOI": "10.1007/s11590-022-01882-w",
        "CorpusId": 248627500
      },
      "url": "https://www.semanticscholar.org/paper/3df2b3b5560c7b103f91e75bc31a5894cb2a5569",
      "title": "A low-rank spectral method for learning Markov models",
      "venue": "Optimization Letters",
      "year": 2022,
      "referenceCount": 30,
      "citationCount": 3,
      "authors": [
        {
          "authorId": "2376421",
          "name": "Shujun Bi"
        },
        {
          "authorId": "2365060940",
          "name": "Zhe Yin"
        },
        {
          "authorId": "2164499690",
          "name": "Yihong Weng"
        }
      ]
    },
    {
      "paperId": "275c13063032bd24c886c77a26ddfd29d04173d6",
      "externalIds": {
        "ArXiv": "2604.10792",
        "CorpusId": 287432326
      },
      "url": "https://www.semanticscholar.org/paper/275c13063032bd24c886c77a26ddfd29d04173d6",
      "title": "Variable-Length Markov Chains on Finite Quivers: Boundary-Window Identifiability, Exact Depth, and Local Rank Comparison",
      "venue": "",
      "year": 2026,
      "referenceCount": 12,
      "citationCount": 0,
      "authors": [
        {
          "authorId": "103328840",
          "name": "O. Kiriukhin"
        }
      ]
    },
    {
      "paperId": "58e598bf75adee44d2d5d18729c7594cfbdd7434",
      "externalIds": {
        "DBLP": "journals/corr/abs-2601-20571",
        "ArXiv": "2601.20571",
        "DOI": "10.48550/arXiv.2601.20571",
        "CorpusId": 285101724
      },
      "url": "https://www.semanticscholar.org/paper/58e598bf75adee44d2d5d18729c7594cfbdd7434",
      "title": "Robust Distributed Learning under Resource Constraints: Decentralized Quantile Estimation via (Asynchronous) ADMM",
      "venue": "arXiv.org",
      "year": 2026,
      "referenceCount": 31,
      "citationCount": 1,
      "authors": [
        {
          "authorId": "2333599650",
          "name": "Anna Van Elst"
        },
        {
          "authorId": "2363350174",
          "name": "Igor Colin"
        },
        {
          "authorId": "2366115070",
          "name": "Stéphan Clémençon"
        }
      ]
    },
    {
      "paperId": "5c89bb9c96394a450eafe9c9f584e569d5a7eecd",
      "externalIds": {
        "MAG": "3084325296",
        "DOI": "10.1155/2020/7362657",
        "CorpusId": 221879654
      },
      "url": "https://www.semanticscholar.org/paper/5c89bb9c96394a450eafe9c9f584e569d5a7eecd",
      "title": "Estimation of Generalized Gompertz Distribution Parameters under Ranked-Set Sampling",
      "venue": "",
      "year": 2020,
      "referenceCount": 28,
      "citationCount": 7,
      "authors": [
        {
          "authorId": "4553479",
          "name": "M. Obeidat"
        },
        {
          "authorId": "1394698539",
          "name": "Amjad D. Al-Nasser"
        },
        {
          "authorId": "1403037431",
          "name": "A. Al-Omari"
        }
      ]
    },
    {
      "paperId": "9c06eb99bab8c83cbecee9270518d3afe82c7d92",
      "externalIds": {
        "DBLP": "journals/axioms/AlotaibiNE25",
        "DOI": "10.3390/axioms14060437",
        "CorpusId": 279111950
      },
      "url": "https://www.semanticscholar.org/paper/9c06eb99bab8c83cbecee9270518d3afe82c7d92",
      "title": "Reliability Analysis of Improved Type-II Adaptive Progressively Inverse XLindley Censored Data",
      "venue": "Axioms",
      "year": 2025,
      "referenceCount": 0,
      "citationCount": 2,
      "authors": [
        {
          "authorId": "6146860",
          "name": "R. Alotaibi"
        },
        {
          "authorId": "40605426",
          "name": "M. Nassar"
        },
        {
          "authorId": "103007894",
          "name": "A. Elshahhat"
        }
      ]
    },
    {
      "paperId": "ae6e7f2daba6d923026932446941426f40bf83ed",
      "externalIds": {
        "MAG": "1499805410",
        "DOI": "10.1201/b13246",
        "CorpusId": 60601047
      },
      "url": "https://www.semanticscholar.org/paper/ae6e7f2daba6d923026932446941426f40bf83ed",
      "title": "Latent Markov Models for Longitudinal Data",
      "venue": "",
      "year": 2012,
      "referenceCount": 0,
      "citationCount": 256,
      "authors": [
        {
          "authorId": "1764140",
          "name": "F. Bartolucci"
        },
        {
          "authorId": "2474672",
          "name": "A. Farcomeni"
        },
        {
          "authorId": "46341029",
          "name": "F. Pennoni"
        }
      ]
    }
  ]
}