{
  "total": 177,
  "offset": 0,
  "next": 10,
  "data": [
    {
      "paperId": "ebc6ae9f41a8e3d96c81504914cf45c98268e539",
      "externalIds": {
        "DBLP": "conf/icml/ChengDH18",
        "MAG": "2803551793",
        "CorpusId": 51683826
      },
      "url": "https://www.semanticscholar.org/paper/ebc6ae9f41a8e3d96c81504914cf45c98268e539",
      "title": "Extreme Learning to Rank via Low Rank Assumption",
      "venue": "International Conference on Machine Learning",
      "year": 2018,
      "referenceCount": 34,
      "citationCount": 4,
      "authors": [
        {
          "authorId": "2424698",
          "name": "Minhao Cheng"
        },
        {
          "authorId": "143763341",
          "name": "I. Davidson"
        },
        {
          "authorId": "1793529",
          "name": "Cho-Jui Hsieh"
        }
      ]
    },
    {
      "paperId": "944bc2e629e948818f0c0b7c60b7b186f1773309",
      "externalIds": {
        "MAG": "2503375303",
        "DOI": "10.1007/978-3-319-28397-5_22",
        "CorpusId": 124666835
      },
      "url": "https://www.semanticscholar.org/paper/944bc2e629e948818f0c0b7c60b7b186f1773309",
      "title": "A Semi-supervised Low Rank Kernel Learning Algorithm via Extreme Learning Machine",
      "venue": "",
      "year": 2017,
      "referenceCount": 44,
      "citationCount": 18,
      "authors": [
        {
          "authorId": "2149123398",
          "name": "Bing Liu"
        },
        {
          "authorId": "49353948",
          "name": "Mingming Liu"
        },
        {
          "authorId": "2111572577",
          "name": "Chen Zhang"
        },
        {
          "authorId": "2108407218",
          "name": "Weidong Wang"
        }
      ]
    },
    {
      "paperId": "a0f2b63997e2de0a7911c08b2cd198992b572df6",
      "externalIds": {
        "DBLP": "journals/mlc/LiuLZWS17",
        "DOI": "10.1007/s13042-016-0592-1",
        "CorpusId": 37256750
      },
      "url": "https://www.semanticscholar.org/paper/a0f2b63997e2de0a7911c08b2cd198992b572df6",
      "title": "Semi-supervised low rank kernel learning algorithm via extreme learning machine",
      "venue": "International Journal of Machine Learning and Cybernetics",
      "year": 2016,
      "referenceCount": 38,
      "citationCount": 20,
      "authors": [
        {
          "authorId": "49353948",
          "name": "Mingming Liu"
        },
        {
          "authorId": "2149123398",
          "name": "Bing Liu"
        },
        {
          "authorId": "2111572577",
          "name": "Chen Zhang"
        },
        {
          "authorId": "2108407218",
          "name": "Weidong Wang"
        },
        {
          "authorId": "1648407023",
          "name": "Wei-Xiang Sun"
        }
      ]
    },
    {
      "paperId": "ebc2579ea14b03eac3123e2aa0d95020f2a3d539",
      "externalIds": {
        "DBLP": "journals/sivp/AbhadiomhenONEAA25",
        "DOI": "10.1007/s11760-025-03869-3",
        "CorpusId": 276415043
      },
      "url": "https://www.semanticscholar.org/paper/ebc2579ea14b03eac3123e2aa0d95020f2a3d539",
      "title": "Robust image representation learning via low-rank consistency regularization for subspace clustering",
      "venue": "Signal, Image and Video Processing",
      "year": 2025,
      "referenceCount": 32,
      "citationCount": 0,
      "authors": [
        {
          "authorId": "2222755814",
          "name": "Stanley Ebhohimhen Abhadiomhen"
        },
        {
          "authorId": "27692467",
          "name": "G. Okereke"
        },
        {
          "authorId": "2128849585",
          "name": "R. Nzeh"
        },
        {
          "authorId": "27032768",
          "name": "N. .. Ezeora"
        },
        {
          "authorId": "2224117151",
          "name": "Abel Onolunosen Abhadionmhen"
        },
        {
          "authorId": "2268861635",
          "name": "C. N. Asogwa"
        }
      ]
    },
    {
      "paperId": "848118f4896dce0bae3cdde19961167358238ace",
      "externalIds": {
        "DBLP": "journals/corr/abs-2512-09892",
        "ArXiv": "2512.09892",
        "DOI": "10.48550/arXiv.2512.09892",
        "CorpusId": 283721453
      },
      "url": "https://www.semanticscholar.org/paper/848118f4896dce0bae3cdde19961167358238ace",
      "title": "Provably Learning from Modern Language Models via Low Logit Rank",
      "venue": "arXiv.org",
      "year": 2025,
      "referenceCount": 47,
      "citationCount": 2,
      "authors": [
        {
          "authorId": "3348246",
          "name": "Noah Golowich"
        },
        {
          "authorId": "2391493970",
          "name": "A. Liu"
        },
        {
          "authorId": "2281640205",
          "name": "Abhishek Shetty"
        }
      ]
    },
    {
      "paperId": "2edab301935d1e1faa0859897b617862d4fede63",
      "externalIds": {
        "MAG": "2777155971",
        "DBLP": "journals/mta/0001GZQX18",
        "DOI": "10.1007/s11042-017-5475-2",
        "CorpusId": 13669244
      },
      "url": "https://www.semanticscholar.org/paper/2edab301935d1e1faa0859897b617862d4fede63",
      "title": "Robust and efficient face recognition via low-rank supported extreme learning machine",
      "venue": "Multimedia tools and applications",
      "year": 2018,
      "referenceCount": 45,
      "citationCount": 10,
      "authors": [
        {
          "authorId": "144530671",
          "name": "T. Lu"
        },
        {
          "authorId": "2069570374",
          "name": "Yingjie Guan"
        },
        {
          "authorId": "1691236",
          "name": "Yanduo Zhang"
        },
        {
          "authorId": "1728453",
          "name": "Shenming Qu"
        },
        {
          "authorId": "144723535",
          "name": "Zixiang Xiong"
        }
      ]
    },
    {
      "paperId": "522a4ca705c06a0436bbe62f46efe24d67a82422",
      "externalIds": {
        "DOI": "10.1007/s11042-017-5475-2",
        "CorpusId": 254834110
      },
      "url": "https://www.semanticscholar.org/paper/522a4ca705c06a0436bbe62f46efe24d67a82422",
      "title": "Robust and efficient face recognition via low-rank supported extreme learning machine",
      "venue": "Multimedia tools and applications",
      "year": 2017,
      "referenceCount": 0,
      "citationCount": 0,
      "authors": [
        {
          "authorId": "144530671",
          "name": "T. Lu"
        },
        {
          "authorId": "2069570374",
          "name": "Yingjie Guan"
        },
        {
          "authorId": "1691236",
          "name": "Yanduo Zhang"
        },
        {
          "authorId": "1728453",
          "name": "Shenming Qu"
        },
        {
          "authorId": "2061495299",
          "name": "Zixiang Xiong"
        }
      ]
    },
    {
      "paperId": "7e0ed523da82438e6491de17ee0f86be973465ce",
      "externalIds": {
        "DBLP": "journals/corr/abs-2111-14655",
        "ArXiv": "2111.14655",
        "DOI": "10.1016/j.artint.2025.104333",
        "CorpusId": 244715028
      },
      "url": "https://www.semanticscholar.org/paper/7e0ed523da82438e6491de17ee0f86be973465ce",
      "title": "FedHM: Efficient Federated Learning for Heterogeneous Models via Low-rank Factorization",
      "venue": "Artificial Intelligence",
      "year": 2021,
      "referenceCount": 49,
      "citationCount": 68,
      "authors": [
        {
          "authorId": "1711953",
          "name": "Dezhong Yao"
        },
        {
          "authorId": "2117256215",
          "name": "Wanning Pan"
        },
        {
          "authorId": "2147200564",
          "name": "Yao Wan"
        },
        {
          "authorId": "2109791075",
          "name": "Hai Jin"
        },
        {
          "authorId": "49755259",
          "name": "Lichao Sun"
        }
      ]
    },
    {
      "paperId": "3f08e3d02d729ded33df09c1a23b77ea960d1877",
      "externalIds": {
        "DBLP": "journals/ijon/Ouyang21",
        "MAG": "3149765555",
        "DOI": "10.1016/J.NEUCOM.2021.03.110",
        "CorpusId": 233610602
      },
      "url": "https://www.semanticscholar.org/paper/3f08e3d02d729ded33df09c1a23b77ea960d1877",
      "title": "Feature learning for stacked ELM via low-rank matrix factorization",
      "venue": "Neurocomputing",
      "year": 2021,
      "referenceCount": 32,
      "citationCount": 20,
      "authors": [
        {
          "authorId": "29893899",
          "name": "Tinghui Ouyang"
        }
      ]
    },
    {
      "paperId": "cae54ed92c40c0d73fd535d5c62df0a5b8f7be4a",
      "externalIds": {
        "MAG": "2888000811",
        "DBLP": "journals/kbs/RazzaghiRA19",
        "DOI": "10.1016/J.KNOSYS.2018.08.026",
        "CorpusId": 56481901
      },
      "url": "https://www.semanticscholar.org/paper/cae54ed92c40c0d73fd535d5c62df0a5b8f7be4a",
      "title": "Transfer subspace learning via low-rank and discriminative reconstruction matrix",
      "venue": "Knowledge-Based Systems",
      "year": 2019,
      "referenceCount": 41,
      "citationCount": 37,
      "authors": [
        {
          "authorId": "2671497",
          "name": "Parvin Razzaghi"
        },
        {
          "authorId": "51328635",
          "name": "Parisa Razzaghi"
        },
        {
          "authorId": "49956361",
          "name": "Karim Abbasi"
        }
      ]
    }
  ]
}