{
  "total": 103,
  "offset": 0,
  "next": 10,
  "data": [
    {
      "paperId": "d724d3ef294de82b63f0716884c7a5e0b5c8232c",
      "externalIds": {
        "ArXiv": "1612.03451",
        "DBLP": "conf/icml/ChenKB17",
        "MAG": "2740710710",
        "CorpusId": 8686876
      },
      "url": "https://www.semanticscholar.org/paper/d724d3ef294de82b63f0716884c7a5e0b5c8232c",
      "title": "Identification and Model Testing in Linear Structural Equation Models using Auxiliary Variables",
      "venue": "International Conference on Machine Learning",
      "year": 2016,
      "referenceCount": 44,
      "citationCount": 33,
      "authors": [
        {
          "authorId": "2108342666",
          "name": "Bryant Chen"
        },
        {
          "authorId": "6016304",
          "name": "D. Kumor"
        },
        {
          "authorId": "2778721",
          "name": "E. Bareinboim"
        }
      ]
    },
    {
      "paperId": "0fb3ee4554326b9edbaadc209024a6a5d1c4cf6b",
      "externalIds": {
        "MAG": "2563010382",
        "CorpusId": 125698183
      },
      "url": "https://www.semanticscholar.org/paper/0fb3ee4554326b9edbaadc209024a6a5d1c4cf6b",
      "title": "Identification of Causal Effects using Conditional Auxiliary Instruments",
      "venue": "",
      "year": 2016,
      "referenceCount": 14,
      "citationCount": 0,
      "authors": [
        {
          "authorId": "2108342666",
          "name": "Bryant Chen"
        }
      ]
    },
    {
      "paperId": "183cce92128f5b65681fee93693153446773aae3",
      "externalIds": {
        "MAG": "2953054729",
        "ArXiv": "1511.02995",
        "DBLP": "conf/ijcai/ChenPB16",
        "CorpusId": 5380374
      },
      "url": "https://www.semanticscholar.org/paper/183cce92128f5b65681fee93693153446773aae3",
      "title": "Incorporating Knowledge into Structural Equation Models Using Auxiliary Variables",
      "venue": "International Joint Conference on Artificial Intelligence",
      "year": 2015,
      "referenceCount": 26,
      "citationCount": 23,
      "authors": [
        {
          "authorId": "2108342666",
          "name": "Bryant Chen"
        },
        {
          "authorId": "145430701",
          "name": "J. Pearl"
        },
        {
          "authorId": "2778721",
          "name": "E. Bareinboim"
        }
      ]
    },
    {
      "paperId": "a467d3cd1ab10ce3f99375e902b8e4cd9fec1316",
      "externalIds": {
        "DBLP": "journals/corr/ChenPB15",
        "MAG": "2215690523",
        "CorpusId": 7730943
      },
      "url": "https://www.semanticscholar.org/paper/a467d3cd1ab10ce3f99375e902b8e4cd9fec1316",
      "title": "Identification by Auxiliary Instrumental Sets in Linear Structural Equation Models",
      "venue": "arXiv.org",
      "year": 2015,
      "referenceCount": 16,
      "citationCount": 0,
      "authors": [
        {
          "authorId": "2108342666",
          "name": "Bryant Chen"
        },
        {
          "authorId": "145430701",
          "name": "J. Pearl"
        },
        {
          "authorId": "2778721",
          "name": "E. Bareinboim"
        }
      ]
    },
    {
      "paperId": "9df29ea70d78a03ac469bb527e198a215b90cc40",
      "externalIds": {
        "DOI": "10.1016/j.jdent.2025.105982",
        "CorpusId": 280124691,
        "PubMed": "40669604"
      },
      "url": "https://www.semanticscholar.org/paper/9df29ea70d78a03ac469bb527e198a215b90cc40",
      "title": "Evaluation of self-perceived oral function among older adults using linear regression and structural equation modeling.",
      "venue": "E -journal of dentistry",
      "year": 2025,
      "referenceCount": 48,
      "citationCount": 1,
      "authors": [
        {
          "authorId": "2188660843",
          "name": "Linxin Jiang"
        },
        {
          "authorId": "2270682939",
          "name": "Simin Li"
        },
        {
          "authorId": "2357418058",
          "name": "Daniel R. Reissmann"
        },
        {
          "authorId": "2366260974",
          "name": "Gerhard Schmalz"
        },
        {
          "authorId": "2367793465",
          "name": "Xiangyu Huang"
        }
      ]
    },
    {
      "paperId": "8eabff4d9d85bc1c7e21fdb7ec88f3add3b670d7",
      "externalIds": {
        "CorpusId": 262121361
      },
      "url": "https://www.semanticscholar.org/paper/8eabff4d9d85bc1c7e21fdb7ec88f3add3b670d7",
      "title": "Identiﬁcation and Estimation of Causal Effects Using non-Gaussianity and Auxiliary Covariates",
      "venue": "",
      "year": 2023,
      "referenceCount": 38,
      "citationCount": 6,
      "authors": [
        {
          "authorId": "2237987270",
          "name": "Kang Shuai"
        },
        {
          "authorId": "2117956987",
          "name": "Shanshan Luo"
        },
        {
          "authorId": "2243792006",
          "name": "Yue Zhang"
        },
        {
          "authorId": "47060248",
          "name": "Feng Xie"
        },
        {
          "authorId": "9505736",
          "name": "Yan-peng He"
        }
      ]
    },
    {
      "paperId": "6c4a275c7b554cddb4511d6c091ead089aeff26f",
      "externalIds": {
        "MAG": "2799348295",
        "CorpusId": 126245439
      },
      "url": "https://www.semanticscholar.org/paper/6c4a275c7b554cddb4511d6c091ead089aeff26f",
      "title": "Linear Structural Equation Models with Non-Gaussian Errors: Estimation and Discovery",
      "venue": "",
      "year": 2018,
      "referenceCount": 84,
      "citationCount": 1,
      "authors": [
        {
          "authorId": "2152607207",
          "name": "Y. S. Wang"
        }
      ]
    },
    {
      "paperId": "9076ce12d6a5878dd0d946f964bc140905d3a606",
      "externalIds": {
        "ArXiv": "2408.06211",
        "CorpusId": 271855055
      },
      "url": "https://www.semanticscholar.org/paper/9076ce12d6a5878dd0d946f964bc140905d3a606",
      "title": "Causal Effect Identification and Inference with Endogenous Exposures and a Light-tailed Error",
      "venue": "",
      "year": 2024,
      "referenceCount": 0,
      "citationCount": 2,
      "authors": [
        {
          "authorId": "2316009069",
          "name": "Ruoyu Wang"
        },
        {
          "authorId": "2275054796",
          "name": "Wang Miao"
        }
      ]
    },
    {
      "paperId": "c629e9c8f9e1ecf9f3394ee52016699ce7367872",
      "externalIds": {
        "MAG": "271984625",
        "CorpusId": 60056870
      },
      "url": "https://www.semanticscholar.org/paper/c629e9c8f9e1ecf9f3394ee52016699ce7367872",
      "title": "Graphical Methods for Linear Structural Equation Models",
      "venue": "",
      "year": 2017,
      "referenceCount": 94,
      "citationCount": 6,
      "authors": [
        {
          "authorId": "2108342666",
          "name": "Bryant Chen"
        }
      ]
    },
    {
      "paperId": "412feb6877b8d13fe5b79b31ed7ec0c71c3e2ab8",
      "externalIds": {
        "DOI": "10.1017/S1092852923000858",
        "CorpusId": 257406121
      },
      "url": "https://www.semanticscholar.org/paper/412feb6877b8d13fe5b79b31ed7ec0c71c3e2ab8",
      "title": "The application of structural equation model in psychological research",
      "venue": "CNS Spectrums",
      "year": 2023,
      "referenceCount": 0,
      "citationCount": 19,
      "authors": [
        {
          "authorId": "2125517663",
          "name": "Xuefeng Cao"
        }
      ]
    }
  ]
}