{
  "total": 663,
  "offset": 0,
  "next": 10,
  "data": [
    {
      "paperId": "79815f31f42708fd59da345f8fa79f635a070730",
      "externalIds": {
        "DBLP": "conf/icml/OstrovskiDM18",
        "MAG": "2950388961",
        "ArXiv": "1806.05575",
        "CorpusId": 49212449
      },
      "url": "https://www.semanticscholar.org/paper/79815f31f42708fd59da345f8fa79f635a070730",
      "title": "Autoregressive Quantile Networks for Generative Modeling",
      "venue": "International Conference on Machine Learning",
      "year": 2018,
      "referenceCount": 47,
      "citationCount": 91,
      "authors": [
        {
          "authorId": "2273072",
          "name": "Georg Ostrovski"
        },
        {
          "authorId": "2605877",
          "name": "Will Dabney"
        },
        {
          "authorId": "1708654",
          "name": "R. Munos"
        }
      ]
    },
    {
      "paperId": "3d5a41c205d6754500c9c1a41f5af4bccdee16b6",
      "externalIds": {
        "DBLP": "journals/corr/abs-2507-23111",
        "ArXiv": "2507.23111",
        "DOI": "10.48550/arXiv.2507.23111",
        "CorpusId": 280401127
      },
      "url": "https://www.semanticscholar.org/paper/3d5a41c205d6754500c9c1a41f5af4bccdee16b6",
      "title": "Scalable Generative Modeling of Weighted Graphs",
      "venue": "Trans. Mach. Learn. Res.",
      "year": 2025,
      "referenceCount": 35,
      "citationCount": 0,
      "authors": [
        {
          "authorId": "2334833608",
          "name": "Richard Williams"
        },
        {
          "authorId": "2289611072",
          "name": "Eric T. Nalisnick"
        },
        {
          "authorId": "2334581978",
          "name": "Andrew Holbrook"
        }
      ]
    },
    {
      "paperId": "b7ae6b2650f73cd2b08829f83c30057e268b9e12",
      "externalIds": {
        "DBLP": "journals/corr/abs-2504-13233",
        "ArXiv": "2504.13233",
        "DOI": "10.48550/arXiv.2504.13233",
        "CorpusId": 277940603
      },
      "url": "https://www.semanticscholar.org/paper/b7ae6b2650f73cd2b08829f83c30057e268b9e12",
      "title": "Auto-FEDUS: Autoregressive Generative Modeling of Doppler Ultrasound Signals from Fetal Electrocardiograms",
      "venue": "arXiv.org",
      "year": 2025,
      "referenceCount": 31,
      "citationCount": 1,
      "authors": [
        {
          "authorId": "2349803566",
          "name": "Alireza Rafiei"
        },
        {
          "authorId": "2267434057",
          "name": "Gari D. Clifford"
        },
        {
          "authorId": "50847781",
          "name": "N. Katebi"
        }
      ]
    },
    {
      "paperId": "dbb24fe8ae3582f60e1f33b6498a60869d312305",
      "externalIds": {
        "DBLP": "journals/corr/abs-2508-00855",
        "ArXiv": "2508.00855",
        "DOI": "10.48550/arXiv.2508.00855",
        "CorpusId": 280422635
      },
      "url": "https://www.semanticscholar.org/paper/dbb24fe8ae3582f60e1f33b6498a60869d312305",
      "title": "A Residual Guided strategy with Generative Adversarial Networks in training Physics-Informed Transformer Networks",
      "venue": "arXiv.org",
      "year": 2025,
      "referenceCount": 57,
      "citationCount": 0,
      "authors": [
        {
          "authorId": "2325912905",
          "name": "Ziyang Zhang"
        },
        {
          "authorId": "2325702864",
          "name": "Feifan Zhang"
        },
        {
          "authorId": "2351619740",
          "name": "Weidong Tang"
        },
        {
          "authorId": "2319635696",
          "name": "Lei Shi"
        },
        {
          "authorId": "2325725645",
          "name": "Tailai Chen"
        }
      ]
    },
    {
      "paperId": "4e468d3da1797d791db8d514d695b183acb027ee",
      "externalIds": {
        "MAG": "3092028330",
        "ArXiv": "2010.05646",
        "DBLP": "journals/corr/abs-2010-05646",
        "CorpusId": 222291664
      },
      "url": "https://www.semanticscholar.org/paper/4e468d3da1797d791db8d514d695b183acb027ee",
      "title": "HiFi-GAN: Generative Adversarial Networks for Efficient and High Fidelity Speech Synthesis",
      "venue": "Neural Information Processing Systems",
      "year": 2020,
      "referenceCount": 28,
      "citationCount": 2610,
      "authors": [
        {
          "authorId": "1712238254",
          "name": "Jungil Kong"
        },
        {
          "authorId": "94862572",
          "name": "Jaehyeon Kim"
        },
        {
          "authorId": "1703883959",
          "name": "Jaekyoung Bae"
        }
      ]
    },
    {
      "paperId": "955fca1bce7a225e9d48f1b5050c4635ed5e29a7",
      "externalIds": {
        "ArXiv": "2304.05093",
        "DOI": "10.2139/ssrn.4412434",
        "CorpusId": 258059665
      },
      "url": "https://www.semanticscholar.org/paper/955fca1bce7a225e9d48f1b5050c4635ed5e29a7",
      "title": "Generative Modeling for Time Series Via Schrödinger Bridge",
      "venue": "Social Science Research Network",
      "year": 2023,
      "referenceCount": 27,
      "citationCount": 23,
      "authors": [
        {
          "authorId": "2137439609",
          "name": "Mohamed Hamdouche"
        },
        {
          "authorId": "1403080734",
          "name": "P. Henry-Labordère"
        },
        {
          "authorId": "145204321",
          "name": "H. Pham"
        }
      ]
    },
    {
      "paperId": "407af34a332b800a31f7ecd792e1755b02a7e576",
      "externalIds": {
        "DBLP": "journals/corr/abs-2312-14880",
        "ArXiv": "2312.14880",
        "DOI": "10.48550/arXiv.2312.14880",
        "CorpusId": 266521133
      },
      "url": "https://www.semanticscholar.org/paper/407af34a332b800a31f7ecd792e1755b02a7e576",
      "title": "SutraNets: Sub-series Autoregressive Networks for Long-Sequence, Probabilistic Forecasting",
      "venue": "Neural Information Processing Systems",
      "year": 2023,
      "referenceCount": 94,
      "citationCount": 11,
      "authors": [
        {
          "authorId": "2303254223",
          "name": "Shane Bergsma"
        },
        {
          "authorId": "3127734",
          "name": "Timothy J. Zeyl"
        },
        {
          "authorId": "2335611638",
          "name": "Lei Guo"
        }
      ]
    },
    {
      "paperId": "11316485371e3d7efb7cb448d6b38b1800727815",
      "externalIds": {
        "DOI": "10.23919/FRUCT65909.2025.11008228",
        "CorpusId": 278823997
      },
      "url": "https://www.semanticscholar.org/paper/11316485371e3d7efb7cb448d6b38b1800727815",
      "title": "Generative Adversarial Neural Networks for Random and Complex Chord Progression Generation",
      "venue": "Conference of the Open Innovations Association",
      "year": 2025,
      "referenceCount": 23,
      "citationCount": 2,
      "authors": [
        {
          "authorId": "2362930231",
          "name": "Alexander Melendez-Rios"
        },
        {
          "authorId": "2362929789",
          "name": "Roberto Vega-Berrocal"
        },
        {
          "authorId": "2247757265",
          "name": "Willy Ugarte"
        }
      ]
    },
    {
      "paperId": "3efbcfeeb0ea1051a71101d3318da4411081f0b8",
      "externalIds": {
        "DBLP": "journals/corr/abs-2010-14701",
        "ArXiv": "2010.14701",
        "MAG": "3095645723",
        "CorpusId": 225094178
      },
      "url": "https://www.semanticscholar.org/paper/3efbcfeeb0ea1051a71101d3318da4411081f0b8",
      "title": "Scaling Laws for Autoregressive Generative Modeling",
      "venue": "arXiv.org",
      "year": 2020,
      "referenceCount": 36,
      "citationCount": 592,
      "authors": [
        {
          "authorId": "103143311",
          "name": "T. Henighan"
        },
        {
          "authorId": "152724169",
          "name": "J. Kaplan"
        },
        {
          "authorId": "102493084",
          "name": "Mor Katz"
        },
        {
          "authorId": "2108828435",
          "name": "Mark Chen"
        },
        {
          "authorId": "144239765",
          "name": "Christopher Hesse"
        },
        {
          "authorId": "2119404536",
          "name": "Jacob Jackson"
        },
        {
          "authorId": "35450887",
          "name": "Heewoo Jun"
        },
        {
          "authorId": "31035595",
          "name": "Tom B. Brown"
        },
        {
          "authorId": "6515819",
          "name": "Prafulla Dhariwal"
        },
        {
          "authorId": "145565184",
          "name": "Scott Gray"
        },
        {
          "authorId": "2004021329",
          "name": "Chris Hallacy"
        },
        {
          "authorId": "2056658938",
          "name": "Benjamin Mann"
        },
        {
          "authorId": "38909097",
          "name": "Alec Radford"
        },
        {
          "authorId": "1992922591",
          "name": "A. Ramesh"
        },
        {
          "authorId": "39849748",
          "name": "Nick Ryder"
        },
        {
          "authorId": "2052152920",
          "name": "Daniel M. Ziegler"
        },
        {
          "authorId": "47971768",
          "name": "John Schulman"
        },
        {
          "authorId": "2698777",
          "name": "Dario Amodei"
        },
        {
          "authorId": "52238703",
          "name": "Sam McCandlish"
        }
      ]
    },
    {
      "paperId": "f99ba1af627cbaf3f3f790b5581856f2760ead0f",
      "externalIds": {
        "DOI": "10.1029/2025GL120122",
        "CorpusId": 285058064
      },
      "url": "https://www.semanticscholar.org/paper/f99ba1af627cbaf3f3f790b5581856f2760ead0f",
      "title": "Modeling Uncertainty With Engression: A Deep Generative Time‐Series Approach",
      "venue": "Geophysical Research Letters",
      "year": 2026,
      "referenceCount": 65,
      "citationCount": 2,
      "authors": [
        {
          "authorId": "2300400844",
          "name": "Basil Kraft"
        },
        {
          "authorId": "1438588012",
          "name": "Steven Stalder"
        },
        {
          "authorId": "7802419",
          "name": "William H. Aeberhard"
        },
        {
          "authorId": "2406886716",
          "name": "Nicolás Harrington Ruiz"
        },
        {
          "authorId": "1941834",
          "name": "N. Meinshausen"
        },
        {
          "authorId": "2297874578",
          "name": "Xinwei Shen"
        },
        {
          "authorId": "2399979527",
          "name": "Lukas Gudmundsson"
        }
      ]
    }
  ]
}