{
  "total": 81,
  "offset": 0,
  "next": 10,
  "data": [
    {
      "paperId": "257aeef7463eee895d3657823b1b9f0fe80df0fb",
      "externalIds": {
        "MAG": "2952840881",
        "ArXiv": "1502.02206",
        "DBLP": "conf/icml/ChangKADL15",
        "CorpusId": 16610517
      },
      "url": "https://www.semanticscholar.org/paper/257aeef7463eee895d3657823b1b9f0fe80df0fb",
      "title": "Learning to Search Better than Your Teacher",
      "venue": "International Conference on Machine Learning",
      "year": 2015,
      "referenceCount": 23,
      "citationCount": 233,
      "authors": [
        {
          "authorId": "2782886",
          "name": "Kai-Wei Chang"
        },
        {
          "authorId": "37019006",
          "name": "A. Krishnamurthy"
        },
        {
          "authorId": "40333747",
          "name": "Alekh Agarwal"
        },
        {
          "authorId": "1722360",
          "name": "Hal Daumé"
        },
        {
          "authorId": "144162125",
          "name": "J. Langford"
        }
      ]
    },
    {
      "paperId": "2c9ef8f5066028b969be5c1a748ab53cbada0f17",
      "externalIds": {
        "MAG": "2766923247",
        "CorpusId": 148744773
      },
      "url": "https://www.semanticscholar.org/paper/2c9ef8f5066028b969be5c1a748ab53cbada0f17",
      "title": "Nietzsche’s New Dawn / Nietzsches nieuwe dageraad : Educating students to strive for better in a dynamic professional world / studenten leren streven naar beter in een dynamische beroepspraktijk",
      "venue": "",
      "year": 2015,
      "referenceCount": 0,
      "citationCount": 0,
      "authors": [
        {
          "authorId": "69339642",
          "name": "H. Joosten"
        }
      ]
    },
    {
      "paperId": "11260e73a2a467f3212344cc7c5c30a24d02e63f",
      "externalIds": {
        "MAG": "2233720790",
        "DOI": "10.17265/2159-5313/2015.06.004",
        "CorpusId": 146696896
      },
      "url": "https://www.semanticscholar.org/paper/11260e73a2a467f3212344cc7c5c30a24d02e63f",
      "title": "The Nature of Philosophy for Children and Its Role in Teaching and Learning",
      "venue": "",
      "year": 2015,
      "referenceCount": 1,
      "citationCount": 5,
      "authors": [
        {
          "authorId": "2089450539",
          "name": "Yahya"
        },
        {
          "authorId": "113454939",
          "name": "Gaedi"
        }
      ]
    },
    {
      "paperId": "a81519655f6e0d17de83229e64728238c5cd1dfe",
      "externalIds": {
        "MAG": "2185643088",
        "CorpusId": 146328350
      },
      "url": "https://www.semanticscholar.org/paper/a81519655f6e0d17de83229e64728238c5cd1dfe",
      "title": "Nietzsche’s New Dawn",
      "venue": "",
      "year": 2015,
      "referenceCount": 0,
      "citationCount": 1,
      "authors": [
        {
          "authorId": "113202566",
          "name": "H. Joosten"
        }
      ]
    },
    {
      "paperId": "37680d918fcc25f3a216c442d9c4a11844aba3fe",
      "externalIds": {
        "MAG": "2591216472",
        "CorpusId": 151705104
      },
      "url": "https://www.semanticscholar.org/paper/37680d918fcc25f3a216c442d9c4a11844aba3fe",
      "title": "Nietzsche’s New Dawn : Educating students to strive for betterin a dynamic professional world",
      "venue": "",
      "year": 2015,
      "referenceCount": 68,
      "citationCount": 0,
      "authors": [
        {
          "authorId": "113202566",
          "name": "H. Joosten"
        }
      ]
    },
    {
      "paperId": "d1af11058a9319a49e1680a67786965f498bf5f8",
      "externalIds": {
        "CorpusId": 235236615
      },
      "url": "https://www.semanticscholar.org/paper/d1af11058a9319a49e1680a67786965f498bf5f8",
      "title": "105-THE TO BE A TEACHER AND BEING PROFESSIONAL: THE IDENTIFICATION WITH THE KNOWLEDGE AND THE COMMITMENT WITH THE LEARNING",
      "venue": "",
      "year": 2015,
      "referenceCount": 0,
      "citationCount": 0,
      "authors": []
    },
    {
      "paperId": "5015951b85df507a3bf8274b895f06050195121a",
      "externalIds": {
        "MAG": "2186357944",
        "CorpusId": 146306615
      },
      "url": "https://www.semanticscholar.org/paper/5015951b85df507a3bf8274b895f06050195121a",
      "title": "Emotional intelligence and teacher effectiveness- an analysis",
      "venue": "",
      "year": 2015,
      "referenceCount": 11,
      "citationCount": 2,
      "authors": [
        {
          "authorId": "116259699",
          "name": "Gulshan Miyagamwala"
        }
      ]
    },
    {
      "paperId": "ec671faed82fc62fce9abd334074a14b423cd14c",
      "externalIds": {
        "MAG": "2135292428",
        "DOI": "10.21071/EDMETIC.V4I1.2897",
        "CorpusId": 145285154
      },
      "url": "https://www.semanticscholar.org/paper/ec671faed82fc62fce9abd334074a14b423cd14c",
      "title": "Practicing your English writing skills in a community learning through an Edublog",
      "venue": "",
      "year": 2015,
      "referenceCount": 28,
      "citationCount": 1,
      "authors": [
        {
          "authorId": "114553371",
          "name": "Sarah Arseguet Crisol"
        },
        {
          "authorId": "13872801",
          "name": "M. L. Renau"
        }
      ]
    },
    {
      "paperId": "73acb767782e3a17150d4fccc8601dff27e3d82d",
      "externalIds": {
        "MAG": "2977097992",
        "CorpusId": 204089040
      },
      "url": "https://www.semanticscholar.org/paper/73acb767782e3a17150d4fccc8601dff27e3d82d",
      "title": "Learn Python In A DAY: The Ultimate Crash Course to Learning the Basics of Python In No Time",
      "venue": "",
      "year": 2015,
      "referenceCount": 0,
      "citationCount": 0,
      "authors": [
        {
          "authorId": "107635039",
          "name": "Acodemy"
        }
      ]
    },
    {
      "paperId": "9989a99f571c1fb5931d8b652b40ac477ae8cccb",
      "externalIds": {
        "MAG": "2935089959",
        "CorpusId": 133513123
      },
      "url": "https://www.semanticscholar.org/paper/9989a99f571c1fb5931d8b652b40ac477ae8cccb",
      "title": "Learn C In A Day: The Ultimate Crash Course to Learning the Basics of C In No Time",
      "venue": "",
      "year": 2015,
      "referenceCount": 0,
      "citationCount": 0,
      "authors": [
        {
          "authorId": "107635039",
          "name": "Acodemy"
        }
      ]
    }
  ]
}