{
  "total": 443,
  "offset": 0,
  "next": 10,
  "data": [
    {
      "paperId": "b8f9e19c52ad33dcbb766a0b016d58c89d8e48f1",
      "externalIds": {
        "MAG": "1859870454",
        "DBLP": "conf/icml/GornitzBK15",
        "CorpusId": 9397788
      },
      "url": "https://www.semanticscholar.org/paper/b8f9e19c52ad33dcbb766a0b016d58c89d8e48f1",
      "title": "Hidden Markov Anomaly Detection",
      "venue": "International Conference on Machine Learning",
      "year": 2015,
      "referenceCount": 44,
      "citationCount": 61,
      "authors": [
        {
          "authorId": "2948486",
          "name": "Nico Görnitz"
        },
        {
          "authorId": "2522031",
          "name": "Mikio L. Braun"
        },
        {
          "authorId": "2749512",
          "name": "M. Kloft"
        }
      ]
    },
    {
      "paperId": "ec33d7376e095f62184f7b4ef5ee23ae7c031e65",
      "externalIds": {
        "MAG": "1572771043",
        "DBLP": "journals/ida/FloresCAG15",
        "DOI": "10.3233/IDA-150722",
        "CorpusId": 6106940
      },
      "url": "https://www.semanticscholar.org/paper/ec33d7376e095f62184f7b4ef5ee23ae7c031e65",
      "title": "Network anomaly detection by continuous hidden markov models: An evolutionary programming approach",
      "venue": "Intelligent Data Analysis",
      "year": 2015,
      "referenceCount": 55,
      "citationCount": 4,
      "authors": [
        {
          "authorId": "144844256",
          "name": "J. Flores"
        },
        {
          "authorId": "144015462",
          "name": "F. Calderón"
        },
        {
          "authorId": "2757917",
          "name": "Anastacio Antolino"
        },
        {
          "authorId": "49099040",
          "name": "J. M. Garcia"
        }
      ]
    },
    {
      "paperId": "37f3e45d4ca19d0242bda2f470cc905181cd3a4a",
      "externalIds": {
        "MAG": "1640008912",
        "DBLP": "conf/compsac/CuzzocreaMC15",
        "DOI": "10.1109/COMPSAC.2015.89",
        "CorpusId": 14572513
      },
      "url": "https://www.semanticscholar.org/paper/37f3e45d4ca19d0242bda2f470cc905181cd3a4a",
      "title": "Runtime Anomaly Detection in Embedded Systems by Binary Tracing and Hidden Markov Models",
      "venue": "2015 IEEE 39th Annual Computer Software and Applications Conference",
      "year": 2015,
      "referenceCount": 22,
      "citationCount": 7,
      "authors": [
        {
          "authorId": "145046124",
          "name": "A. Cuzzocrea"
        },
        {
          "authorId": "1701337",
          "name": "E. Mumolo"
        },
        {
          "authorId": "2350364",
          "name": "Riccardo Cecolin"
        }
      ]
    },
    {
      "paperId": "a5946793d12a61b070989aa294cee860121aa67c",
      "externalIds": {
        "MAG": "2217051686",
        "DOI": "10.2991/ICMMCCE-15.2015.314",
        "CorpusId": 54736342
      },
      "url": "https://www.semanticscholar.org/paper/a5946793d12a61b070989aa294cee860121aa67c",
      "title": "A protocol anomaly detection method based on optimized hidden Markov model",
      "venue": "International Congress of Mathematicans",
      "year": 2015,
      "referenceCount": 20,
      "citationCount": 0,
      "authors": [
        {
          "authorId": "2057145460",
          "name": "Wei Qiu"
        },
        {
          "authorId": "2118771984",
          "name": "Yingjie Yang"
        },
        {
          "authorId": "2136895735",
          "name": "Yongwei Wang"
        },
        {
          "authorId": "1698828",
          "name": "Dexian Chang"
        },
        {
          "authorId": "2119611921",
          "name": "Jiang Liu"
        },
        {
          "authorId": "2118879210",
          "name": "Hao Hu"
        }
      ]
    },
    {
      "paperId": "25f70f8c2d6ee6d5517da883885da3b19d8f5c17",
      "externalIds": {
        "DBLP": "journals/tnn/CaoLCBM15",
        "MAG": "2011384856",
        "DOI": "10.1109/TNNLS.2014.2315042",
        "CorpusId": 7597272,
        "PubMed": "25608293"
      },
      "url": "https://www.semanticscholar.org/paper/25f70f8c2d6ee6d5517da883885da3b19d8f5c17",
      "title": "Adaptive Hidden Markov Model With Anomaly States for Price Manipulation Detection",
      "venue": "IEEE Transactions on Neural Networks and Learning Systems",
      "year": 2015,
      "referenceCount": 60,
      "citationCount": 93,
      "authors": [
        {
          "authorId": "2112866630",
          "name": "Yi Cao"
        },
        {
          "authorId": "47002621",
          "name": "Yuhua Li"
        },
        {
          "authorId": "1787344",
          "name": "S. Coleman"
        },
        {
          "authorId": "48393196",
          "name": "A. Belatreche"
        },
        {
          "authorId": "67319717",
          "name": "T. McGinnity"
        }
      ]
    },
    {
      "paperId": "3216b51ad832bdeb6fa16ec14210f3c3a9fb737a",
      "externalIds": {
        "MAG": "2109188716",
        "DBLP": "journals/concurrency/HongPDHW15",
        "DOI": "10.1002/cpe.3640",
        "CorpusId": 40846670
      },
      "url": "https://www.semanticscholar.org/paper/3216b51ad832bdeb6fa16ec14210f3c3a9fb737a",
      "title": "DAC‐Hmm: detecting anomaly in cloud systems with hidden Markov models",
      "venue": "Concurrency and Computation",
      "year": 2015,
      "referenceCount": 17,
      "citationCount": 16,
      "authors": [
        {
          "authorId": "2055308053",
          "name": "Bin Hong"
        },
        {
          "authorId": "2303799",
          "name": "Fuyang Peng"
        },
        {
          "authorId": "2070545361",
          "name": "Bo Deng"
        },
        {
          "authorId": "2711232",
          "name": "Yazhou Hu"
        },
        {
          "authorId": "2111236603",
          "name": "Dongxia Wang"
        }
      ]
    },
    {
      "paperId": "466034abd6ddeeb55248ac64b3b672cc9e0cf933",
      "externalIds": {
        "MAG": "2553036665",
        "DOI": "10.1109/IAEAC.2015.7428581",
        "CorpusId": 21893885
      },
      "url": "https://www.semanticscholar.org/paper/466034abd6ddeeb55248ac64b3b672cc9e0cf933",
      "title": "Spectrum anomalies autonomous detection in cognitive radio using Hidden Markov Models",
      "venue": "IEEE Advanced Information Technology, Electronic and Automation Control Conference",
      "year": 2015,
      "referenceCount": 10,
      "citationCount": 19,
      "authors": [
        {
          "authorId": "2115313276",
          "name": "Honghao Wei"
        },
        {
          "authorId": "152803547",
          "name": "Y. Jia"
        },
        {
          "authorId": "2072608275",
          "name": "Wang Lei"
        }
      ]
    },
    {
      "paperId": "e831c45b0ffc1c4e3d23115894c9c10a1b9f01f2",
      "externalIds": {
        "DBLP": "conf/cisda/MurtazaKHG15",
        "MAG": "1566884194",
        "DOI": "10.1109/CISDA.2015.7208644",
        "CorpusId": 9527169
      },
      "url": "https://www.semanticscholar.org/paper/e831c45b0ffc1c4e3d23115894c9c10a1b9f01f2",
      "title": "A trace abstraction approach for host-based anomaly detection",
      "venue": "IEEE Symposium on Computational Intelligence for Security and Defense Applications",
      "year": 2015,
      "referenceCount": 42,
      "citationCount": 21,
      "authors": [
        {
          "authorId": "2307843",
          "name": "S. Murtaza"
        },
        {
          "authorId": "1754731",
          "name": "Wael Khreich"
        },
        {
          "authorId": "1398138642",
          "name": "A. Hamou-lhadj"
        },
        {
          "authorId": "153694073",
          "name": "Stephane Gagnon"
        }
      ]
    },
    {
      "paperId": "39c20b228ef17d2f336a16e76232af27a5baaa03",
      "externalIds": {
        "MAG": "2103062037",
        "DOI": "10.1016/J.TECHFORE.2014.08.014",
        "CorpusId": 154567215
      },
      "url": "https://www.semanticscholar.org/paper/39c20b228ef17d2f336a16e76232af27a5baaa03",
      "title": "Forecasting the daily outbreak of topic-level political risk from social media using hidden Markov model-based techniques",
      "venue": "",
      "year": 2015,
      "referenceCount": 84,
      "citationCount": 16,
      "authors": [
        {
          "authorId": "2873715",
          "name": "J. Suh"
        }
      ]
    },
    {
      "paperId": "a5b71ede88d56d2fe3898892d33ed5ae45ceb63c",
      "externalIds": {
        "MAG": "2024493095",
        "DBLP": "journals/cluster/LiuYXGXL15",
        "DOI": "10.1007/s10586-015-0431-2",
        "CorpusId": 15956867
      },
      "url": "https://www.semanticscholar.org/paper/a5b71ede88d56d2fe3898892d33ed5ae45ceb63c",
      "title": "A behavioral anomaly detection strategy based on time series process portraits for desktop virtualization systems",
      "venue": "Cluster Computing",
      "year": 2015,
      "referenceCount": 23,
      "citationCount": 5,
      "authors": [
        {
          "authorId": "2108078194",
          "name": "Yan-bing Liu"
        },
        {
          "authorId": "2112340615",
          "name": "Zhong Yuan"
        },
        {
          "authorId": "40314725",
          "name": "Cong-Cong Xing"
        },
        {
          "authorId": "2057814821",
          "name": "Bo Gong"
        },
        {
          "authorId": "7986654",
          "name": "Yunpeng Xiao"
        },
        {
          "authorId": "2118903321",
          "name": "Hong Liu"
        }
      ]
    }
  ]
}