{
  "total": 191,
  "offset": 0,
  "next": 10,
  "data": [
    {
      "paperId": "094fc6d4bca6c3657739a9165c2d31de67a8569e",
      "externalIds": {
        "MAG": "1837490984",
        "DBLP": "conf/icml/RalaivolaA15",
        "CorpusId": 18131881
      },
      "url": "https://www.semanticscholar.org/paper/094fc6d4bca6c3657739a9165c2d31de67a8569e",
      "title": "Entropy-Based Concentration Inequalities for Dependent Variables",
      "venue": "International Conference on Machine Learning",
      "year": 2015,
      "referenceCount": 30,
      "citationCount": 20,
      "authors": [
        {
          "authorId": "1741364",
          "name": "L. Ralaivola"
        },
        {
          "authorId": "144444438",
          "name": "Massih-Reza Amini"
        }
      ]
    },
    {
      "paperId": "21921561734b3dd70428165be42e359c4573514f",
      "externalIds": {
        "DBLP": "journals/corr/RaginskyS15",
        "MAG": "2280690225",
        "ArXiv": "1510.02947",
        "CorpusId": 6883315
      },
      "url": "https://www.semanticscholar.org/paper/21921561734b3dd70428165be42e359c4573514f",
      "title": "Concentration of Measure Inequalities and Their Communication and Information-Theoretic Applications",
      "venue": "arXiv.org",
      "year": 2015,
      "referenceCount": 52,
      "citationCount": 4,
      "authors": [
        {
          "authorId": "1693598",
          "name": "M. Raginsky"
        },
        {
          "authorId": "1804112",
          "name": "I. Sason"
        }
      ]
    },
    {
      "paperId": "af80b00be4f7a3b3b89b3d3a61d3888a78256335",
      "externalIds": {
        "ArXiv": "2507.15196",
        "CorpusId": 280704425
      },
      "url": "https://www.semanticscholar.org/paper/af80b00be4f7a3b3b89b3d3a61d3888a78256335",
      "title": "Frostman random variables, entropy inequalities, and applications",
      "venue": "",
      "year": 2025,
      "referenceCount": 0,
      "citationCount": 1,
      "authors": [
        {
          "authorId": "144584500",
          "name": "A. Iosevich"
        },
        {
          "authorId": "2281660406",
          "name": "Thang Pham"
        },
        {
          "authorId": "2421620411",
          "name": "Nguyen Dac Quan"
        },
        {
          "authorId": "2300089471",
          "name": "Steven Senger"
        },
        {
          "authorId": "2301153788",
          "name": "Boqing Xue"
        }
      ]
    },
    {
      "paperId": "37db4a3d3fe214281463fa74f7ba5286dc6dc2bb",
      "externalIds": {
        "ArXiv": "2108.12636",
        "DOI": "10.30757/alea.v20-48",
        "CorpusId": 237353093
      },
      "url": "https://www.semanticscholar.org/paper/37db4a3d3fe214281463fa74f7ba5286dc6dc2bb",
      "title": "Concentration inequalities for some negatively dependent binary random variables",
      "venue": "Latin American Journal of Probability and Mathematical Statistics",
      "year": 2021,
      "referenceCount": 67,
      "citationCount": 2,
      "authors": [
        {
          "authorId": "101552795",
          "name": "Radosław Adamczak"
        },
        {
          "authorId": "102990084",
          "name": "Bartlomiej Polaczyk"
        }
      ]
    },
    {
      "paperId": "2bed841484015b433f0b7edc3b5354c3bd0c0471",
      "externalIds": {
        "ArXiv": "2502.08628",
        "CorpusId": 276287541
      },
      "url": "https://www.semanticscholar.org/paper/2bed841484015b433f0b7edc3b5354c3bd0c0471",
      "title": "Concentration Inequalities for Stochastic Optimization of Unbounded Objective Functions with Application to Denoising Score Matching",
      "venue": "",
      "year": 2025,
      "referenceCount": 34,
      "citationCount": 0,
      "authors": [
        {
          "authorId": "144568751",
          "name": "Jeremiah Birrell"
        }
      ]
    },
    {
      "paperId": "878a1290ae470005f7a496819febdce643588fac",
      "externalIds": {
        "DBLP": "journals/jap/AsgariA23",
        "DOI": "10.1017/jpr.2022.128",
        "CorpusId": 258126675
      },
      "url": "https://www.semanticscholar.org/paper/878a1290ae470005f7a496819febdce643588fac",
      "title": "Costa’s concavity inequality for dependent variables based on the multivariate Gaussian copula",
      "venue": "Journal of Applied Probability",
      "year": 2023,
      "referenceCount": 19,
      "citationCount": 0,
      "authors": [
        {
          "authorId": "2055777334",
          "name": "F. Asgari"
        },
        {
          "authorId": "29996041",
          "name": "M. H. Alamatsaz"
        }
      ]
    },
    {
      "paperId": "9e0bafc688e7e0a71e43367992dd5a3cf6b4911e",
      "externalIds": {
        "MAG": "2971223451",
        "ArXiv": "1909.02330",
        "DBLP": "conf/nips/ZhangL0W19",
        "CorpusId": 202539941
      },
      "url": "https://www.semanticscholar.org/paper/9e0bafc688e7e0a71e43367992dd5a3cf6b4911e",
      "title": "McDiarmid-Type Inequalities for Graph-Dependent Variables and Stability Bounds",
      "venue": "Neural Information Processing Systems",
      "year": 2019,
      "referenceCount": 51,
      "citationCount": 27,
      "authors": [
        {
          "authorId": "2118404539",
          "name": "Rui Zhang"
        },
        {
          "authorId": "8015774",
          "name": "Xingwu Liu"
        },
        {
          "authorId": "2115640193",
          "name": "Yuyi Wang"
        },
        {
          "authorId": "24952249",
          "name": "Liwei Wang"
        }
      ]
    },
    {
      "paperId": "ca902da0818ba801588f5bd1df5384719bdd7aef",
      "externalIds": {
        "ArXiv": "2205.08293",
        "CorpusId": 248834603
      },
      "url": "https://www.semanticscholar.org/paper/ca902da0818ba801588f5bd1df5384719bdd7aef",
      "title": "Concentration inequalities for log-concave sequences",
      "venue": "",
      "year": 2022,
      "referenceCount": 45,
      "citationCount": 11,
      "authors": [
        {
          "authorId": "1877491",
          "name": "Arnaud Marsiglietti"
        },
        {
          "authorId": "48090944",
          "name": "J. Melbourne"
        }
      ]
    },
    {
      "paperId": "0c2febb2797d66ca44c76cbe62c396be7da05c7d",
      "externalIds": {
        "CorpusId": 209442842
      },
      "url": "https://www.semanticscholar.org/paper/0c2febb2797d66ca44c76cbe62c396be7da05c7d",
      "title": "McDiarmid-Type Inequalities for Graph-Dependent Variables and Stability Bounds",
      "venue": "",
      "year": 2019,
      "referenceCount": 51,
      "citationCount": 0,
      "authors": [
        {
          "authorId": "2073220653",
          "name": "Rui"
        }
      ]
    },
    {
      "paperId": "3495e2de280f139119d9587a2e77381d288c5672",
      "externalIds": {
        "MAG": "2914399796",
        "DOI": "10.1017/S0269964818000487",
        "CorpusId": 127925624
      },
      "url": "https://www.semanticscholar.org/paper/3495e2de280f139119d9587a2e77381d288c5672",
      "title": "INEQUALITIES FOR THE DEPENDENT GAUSSIAN NOISE CHANNELS BASED ON FISHER INFORMATION AND COPULAS",
      "venue": "Probability in the engineering and informational sciences (Print)",
      "year": 2019,
      "referenceCount": 24,
      "citationCount": 2,
      "authors": [
        {
          "authorId": "2055777334",
          "name": "F. Asgari"
        },
        {
          "authorId": "29996041",
          "name": "M. H. Alamatsaz"
        },
        {
          "authorId": "3420422",
          "name": "N. B. Khoolenjani"
        }
      ]
    }
  ]
}