{
  "total": 24,
  "offset": 0,
  "next": 10,
  "data": [
    {
      "paperId": "c97150c064c0c2b7fbfc66f69f5ecf40a4f097d2",
      "externalIds": {
        "DBLP": "conf/icml/MatthewCYW15",
        "ArXiv": "1502.02312",
        "MAG": "2950380950",
        "CorpusId": 8628244
      },
      "url": "https://www.semanticscholar.org/paper/c97150c064c0c2b7fbfc66f69f5ecf40a4f097d2",
      "title": "Bayesian and Empirical Bayesian Forests",
      "venue": "International Conference on Machine Learning",
      "year": 2015,
      "referenceCount": 32,
      "citationCount": 35,
      "authors": [
        {
          "authorId": "32407682",
          "name": "Matt Taddy"
        },
        {
          "authorId": "2144629177",
          "name": "Chun-Sheng Chen"
        },
        {
          "authorId": "49402439",
          "name": "Jun Yu"
        },
        {
          "authorId": "2365458",
          "name": "Mitch Wyle"
        }
      ]
    },
    {
      "paperId": "30ba1e45d9ffb5c869a27e08cdb06285a7b52fe9",
      "externalIds": {
        "MAG": "2272187831",
        "DBLP": "conf/ismis/MauroVB15",
        "DOI": "10.1007/978-3-319-25252-0_13",
        "CorpusId": 534246
      },
      "url": "https://www.semanticscholar.org/paper/30ba1e45d9ffb5c869a27e08cdb06285a7b52fe9",
      "title": "Learning Bayesian Random Cutset Forests",
      "venue": "International Syposium on Methodologies for Intelligent Systems",
      "year": 2015,
      "referenceCount": 23,
      "citationCount": 16,
      "authors": [
        {
          "authorId": "1718594",
          "name": "Nicola Di Mauro"
        },
        {
          "authorId": "14341992",
          "name": "Antonio Vergari"
        },
        {
          "authorId": "1745663",
          "name": "T. Basile"
        }
      ]
    },
    {
      "paperId": "a52060433e411e42e5604b73af3631e25748ab58",
      "externalIds": {
        "MAG": "2056485682",
        "DOI": "10.1016/J.ECOLMODEL.2014.09.021",
        "CorpusId": 85371526
      },
      "url": "https://www.semanticscholar.org/paper/a52060433e411e42e5604b73af3631e25748ab58",
      "title": "Bayesian optimization of a light use efficiency model for the estimation of daily gross primary productivity in a range of Italian forest ecosystems",
      "venue": "",
      "year": 2015,
      "referenceCount": 54,
      "citationCount": 19,
      "authors": [
        {
          "authorId": "144211736",
          "name": "M. Bagnara"
        },
        {
          "authorId": "47448503",
          "name": "M. Sottocornola"
        },
        {
          "authorId": "3298473",
          "name": "A. Cescatti"
        },
        {
          "authorId": "6987314",
          "name": "S. Minerbi"
        },
        {
          "authorId": "6931417",
          "name": "Leonardo Montagnani"
        },
        {
          "authorId": "3001544",
          "name": "D. Gianelle"
        },
        {
          "authorId": "35161530",
          "name": "F. Magnani"
        }
      ]
    },
    {
      "paperId": "6d993b4e57a3251267d86a0dca94bacbdd62afb2",
      "externalIds": {
        "MAG": "1883934596",
        "DOI": "10.1139/CJFR-2015-0073",
        "CorpusId": 52993424
      },
      "url": "https://www.semanticscholar.org/paper/6d993b4e57a3251267d86a0dca94bacbdd62afb2",
      "title": "Modeling unobserved variables in dendrochronological age structures improves inferences about population dynamics",
      "venue": "",
      "year": 2015,
      "referenceCount": 39,
      "citationCount": 0,
      "authors": [
        {
          "authorId": "7500768",
          "name": "E. Aráoz"
        },
        {
          "authorId": "145413142",
          "name": "J. Morales"
        }
      ]
    },
    {
      "paperId": "14de09ca71a31f26016469b16944c3551893249b",
      "externalIds": {
        "CorpusId": 208878743
      },
      "url": "https://www.semanticscholar.org/paper/14de09ca71a31f26016469b16944c3551893249b",
      "title": "BAYESIAN AND CLASSICAL MODELS TO ESTIMATE ABOVEGROUND STAND BIOMASS IN AN OAK SILVOPASTORAL SYSTEM",
      "venue": "",
      "year": 2015,
      "referenceCount": 17,
      "citationCount": 2,
      "authors": []
    },
    {
      "paperId": "1308983966fa265e14f237eadf2e674d1f223a6f",
      "externalIds": {
        "MAG": "2139564957",
        "DBLP": "journals/pami/QuadriantoG15",
        "DOI": "10.1109/TPAMI.2014.2362751",
        "CorpusId": 1217685,
        "PubMed": "26357350"
      },
      "url": "https://www.semanticscholar.org/paper/1308983966fa265e14f237eadf2e674d1f223a6f",
      "title": "A Very Simple Safe-Bayesian Random Forest",
      "venue": "IEEE Transactions on Pattern Analysis and Machine Intelligence",
      "year": 2015,
      "referenceCount": 32,
      "citationCount": 60,
      "authors": [
        {
          "authorId": "1704531",
          "name": "Novi Quadrianto"
        },
        {
          "authorId": "1744700",
          "name": "Zoubin Ghahramani"
        }
      ]
    },
    {
      "paperId": "31f3f92a3d561864b23fcdbe0e4507895dfcc6f2",
      "externalIds": {
        "DBLP": "conf/sac/XuanLXT15",
        "MAG": "2075780741",
        "DOI": "10.1145/2695664.2695959",
        "CorpusId": 4318914
      },
      "url": "https://www.semanticscholar.org/paper/31f3f92a3d561864b23fcdbe0e4507895dfcc6f2",
      "title": "Evaluating defect prediction approaches using a massive set of metrics: an empirical study",
      "venue": "ACM Symposium on Applied Computing",
      "year": 2015,
      "referenceCount": 18,
      "citationCount": 37,
      "authors": [
        {
          "authorId": "2096351826",
          "name": "Xiao Xuan"
        },
        {
          "authorId": "143960553",
          "name": "D. Lo"
        },
        {
          "authorId": "144558659",
          "name": "Xin Xia"
        },
        {
          "authorId": "49902369",
          "name": "Yuan Tian"
        }
      ]
    },
    {
      "paperId": "4c43102c4b15851633b3678ab5d8b6e3e626abfb",
      "externalIds": {
        "MAG": "2086781995",
        "DOI": "10.1016/J.ECOLIND.2014.10.011",
        "CorpusId": 84859936
      },
      "url": "https://www.semanticscholar.org/paper/4c43102c4b15851633b3678ab5d8b6e3e626abfb",
      "title": "Empirical evaluation of the conceptual model underpinning a regional aquatic long-term monitoring program using causal modelling",
      "venue": "",
      "year": 2015,
      "referenceCount": 114,
      "citationCount": 33,
      "authors": [
        {
          "authorId": "5787115",
          "name": "K. Irvine"
        },
        {
          "authorId": "5546064",
          "name": "S. W. Miller"
        },
        {
          "authorId": "1401943714",
          "name": "R. Al‐Chokhachy"
        },
        {
          "authorId": "145907808",
          "name": "E. Archer"
        },
        {
          "authorId": "3737616",
          "name": "B. Roper"
        },
        {
          "authorId": "3544286",
          "name": "J. Kershner"
        }
      ]
    },
    {
      "paperId": "cdd98ed58ce26d823c1d547c2a7f84c9a0a0d204",
      "externalIds": {
        "MAG": "1678773451",
        "DOI": "10.1111/ejss.12282",
        "CorpusId": 94622552
      },
      "url": "https://www.semanticscholar.org/paper/cdd98ed58ce26d823c1d547c2a7f84c9a0a0d204",
      "title": "The application of expert knowledge in Bayesian networks to predict soil bulk density at the landscape scale",
      "venue": "",
      "year": 2015,
      "referenceCount": 42,
      "citationCount": 15,
      "authors": [
        {
          "authorId": "10222100",
          "name": "K. Taalab"
        },
        {
          "authorId": "2237559583",
          "name": "R. Corstanje"
        },
        {
          "authorId": "145941776",
          "name": "T. Mayr"
        },
        {
          "authorId": "2240797838",
          "name": "Mick J. Whelan"
        },
        {
          "authorId": "2256562611",
          "name": "Rachel Creamer"
        }
      ]
    },
    {
      "paperId": "9261aece9dd3b7e2b78dab3055a4b1b156f02c1f",
      "externalIds": {
        "MAG": "1923279426",
        "DOI": "10.5194/GMDD-8-5089-2015",
        "CorpusId": 55359384
      },
      "url": "https://www.semanticscholar.org/paper/9261aece9dd3b7e2b78dab3055a4b1b156f02c1f",
      "title": "A simplified gross primary production and evapotranspiration model for boreal coniferous forests – is a generic calibration sufficient?",
      "venue": "",
      "year": 2015,
      "referenceCount": 64,
      "citationCount": 3,
      "authors": [
        {
          "authorId": "47457240",
          "name": "F. Minunno"
        },
        {
          "authorId": "1911044",
          "name": "M. Peltoniemi"
        },
        {
          "authorId": "4092152",
          "name": "S. Launiainen"
        },
        {
          "authorId": "2946096",
          "name": "M. Aurela"
        },
        {
          "authorId": "49015301",
          "name": "A. Lindroth"
        },
        {
          "authorId": "3713938",
          "name": "A. Lohila"
        },
        {
          "authorId": "32656585",
          "name": "I. Mammarella"
        },
        {
          "authorId": "5501969",
          "name": "K. Minkkinen"
        },
        {
          "authorId": "145814603",
          "name": "A. Mäkelä"
        }
      ]
    }
  ]
}