{
  "total": 1386,
  "offset": 0,
  "next": 10,
  "data": [
    {
      "paperId": "013efe3ff541e518c51f08d1b62a62e0c57c0b14",
      "externalIds": {
        "DBLP": "conf/icml/CisseBGDU17",
        "MAG": "2610190180",
        "ArXiv": "1704.08847",
        "CorpusId": 26714567
      },
      "url": "https://www.semanticscholar.org/paper/013efe3ff541e518c51f08d1b62a62e0c57c0b14",
      "title": "Parseval Networks: Improving Robustness to Adversarial Examples",
      "venue": "International Conference on Machine Learning",
      "year": 2017,
      "referenceCount": 38,
      "citationCount": 870,
      "authors": [
        {
          "authorId": "5723508",
          "name": "Moustapha Cissé"
        },
        {
          "authorId": "2329288",
          "name": "Piotr Bojanowski"
        },
        {
          "authorId": "3024698",
          "name": "Edouard Grave"
        },
        {
          "authorId": "2921469",
          "name": "Yann Dauphin"
        },
        {
          "authorId": "1746841",
          "name": "Nicolas Usunier"
        }
      ]
    },
    {
      "paperId": "922ebba26448d1a070cf125accb2e8fba54952bc",
      "externalIds": {
        "ArXiv": "2412.16958",
        "DBLP": "journals/corr/abs-2412-16958",
        "DOI": "10.48550/arXiv.2412.16958",
        "CorpusId": 274981912
      },
      "url": "https://www.semanticscholar.org/paper/922ebba26448d1a070cf125accb2e8fba54952bc",
      "title": "Breaking Barriers in Physical-World Adversarial Examples: Improving Robustness and Transferability via Robust Feature",
      "venue": "AAAI Conference on Artificial Intelligence",
      "year": 2024,
      "referenceCount": 48,
      "citationCount": 18,
      "authors": [
        {
          "authorId": "2297072119",
          "name": "Yichen Wang"
        },
        {
          "authorId": "2261363332",
          "name": "Yu-Cheng Chou"
        },
        {
          "authorId": "2268806967",
          "name": "Ziqi Zhou"
        },
        {
          "authorId": null,
          "name": "Hangtao Zhang"
        },
        {
          "authorId": "2149237194",
          "name": "Wei Wan"
        },
        {
          "authorId": "2302793245",
          "name": "Shengshan Hu"
        },
        {
          "authorId": "2296397580",
          "name": "Minghui Li"
        }
      ]
    },
    {
      "paperId": "c9b3d51a9e853a22ef7e6b1262452bf876bb6d4f",
      "externalIds": {
        "MAG": "2970561365",
        "DBLP": "conf/icip/AgarwalNS19",
        "DOI": "10.1109/ICIP.2019.8803601",
        "CorpusId": 263863045
      },
      "url": "https://www.semanticscholar.org/paper/c9b3d51a9e853a22ef7e6b1262452bf876bb6d4f",
      "title": "Improving Robustness to Adversarial Examples by Encouraging Discriminative Features",
      "venue": "International Conference on Information Photonics",
      "year": 2019,
      "referenceCount": 21,
      "citationCount": 15,
      "authors": [
        {
          "authorId": "40228633",
          "name": "Chirag Agarwal"
        },
        {
          "authorId": "2257301414",
          "name": "Anh Nguyen"
        },
        {
          "authorId": "7584242",
          "name": "D. Schonfeld"
        }
      ]
    },
    {
      "paperId": "cff8a4041db18bdb4d6ad6c8e13f2a386eee0c0c",
      "externalIds": {
        "DBLP": "conf/www/0008LLYZ024",
        "DOI": "10.1145/3589335.3651524",
        "CorpusId": 269762560
      },
      "url": "https://www.semanticscholar.org/paper/cff8a4041db18bdb4d6ad6c8e13f2a386eee0c0c",
      "title": "Improving Model Robustness against Adversarial Examples with Redundant Fully Connected Layer",
      "venue": "The Web Conference",
      "year": 2024,
      "referenceCount": 17,
      "citationCount": 5,
      "authors": [
        {
          "authorId": "2237398591",
          "name": "Ziming Zhao"
        },
        {
          "authorId": "2237402337",
          "name": "Zhaoxuan Li"
        },
        {
          "authorId": "2204165097",
          "name": "Tingting Li"
        },
        {
          "authorId": "2223265293",
          "name": "Jiongchi Yu"
        },
        {
          "authorId": "2223178178",
          "name": "Fan Zhang"
        },
        {
          "authorId": "2267853062",
          "name": "Rui Zhang"
        }
      ]
    },
    {
      "paperId": "d2f96b15bfe861ea4dba9b83b9f5491e7fc52968",
      "externalIds": {
        "DBLP": "journals/tii/WangTBKZ23",
        "DOI": "10.1109/TII.2022.3168874",
        "CorpusId": 248359267
      },
      "url": "https://www.semanticscholar.org/paper/d2f96b15bfe861ea4dba9b83b9f5491e7fc52968",
      "title": "Deep Fusion: Crafting Transferable Adversarial Examples and Improving Robustness of Industrial Artificial Intelligence of Things",
      "venue": "IEEE Transactions on Industrial Informatics",
      "year": 2023,
      "referenceCount": 31,
      "citationCount": 10,
      "authors": [
        {
          "authorId": "2115647361",
          "name": "Yajie Wang"
        },
        {
          "authorId": "2182387",
          "name": "Yu-an Tan"
        },
        {
          "authorId": "37022396",
          "name": "T. Baker"
        },
        {
          "authorId": "2163374710",
          "name": "Neeraj Kumar"
        },
        {
          "authorId": "70119803",
          "name": "Quan-xin Zhang"
        }
      ]
    },
    {
      "paperId": "729d6616fa4bd2175f84ecf8e41eea4406f93810",
      "externalIds": {
        "DOI": "10.1109/ICAICA58456.2023.10405450",
        "CorpusId": 267337483
      },
      "url": "https://www.semanticscholar.org/paper/729d6616fa4bd2175f84ecf8e41eea4406f93810",
      "title": "Improving Robustness of Unsupervised Domain Adaptation with Adversarial Networks",
      "venue": "2023 5th International Conference on Artificial Intelligence and Computer Applications (ICAICA)",
      "year": 2023,
      "referenceCount": 19,
      "citationCount": 1,
      "authors": [
        {
          "authorId": "2362523922",
          "name": "Shuo Zhang"
        },
        {
          "authorId": "2281989142",
          "name": "Lize Gu"
        }
      ]
    },
    {
      "paperId": "9107657b55b2daea811cc1521eded6fa5cb4fe96",
      "externalIds": {
        "DOI": "10.52783/rlj.v11i9s.1644",
        "CorpusId": 259448971
      },
      "url": "https://www.semanticscholar.org/paper/9107657b55b2daea811cc1521eded6fa5cb4fe96",
      "title": "IMPROVING ROBUSTNESS OF DEEP NETWORKS USING CLUSTER-BASED ADVERSARIAL TRAINING",
      "venue": "Russian Law Journal",
      "year": 2023,
      "referenceCount": 12,
      "citationCount": 1,
      "authors": [
        {
          "authorId": "121971366",
          "name": "B. Rasheed"
        },
        {
          "authorId": "2255763063",
          "name": "Adil Khan"
        }
      ]
    },
    {
      "paperId": "972936a14e6c3eb620e52b747139bae21da1d16d",
      "externalIds": {
        "CorpusId": 218672778
      },
      "url": "https://www.semanticscholar.org/paper/972936a14e6c3eb620e52b747139bae21da1d16d",
      "title": "Improving robustness of neural networks against adversarial examples",
      "venue": "",
      "year": 2020,
      "referenceCount": 14,
      "citationCount": 0,
      "authors": [
        {
          "authorId": "2286833880",
          "name": "Martin Gaˇno"
        }
      ]
    },
    {
      "paperId": "67f10a0e2414b00bd5b73c41f24377e8ee8ed296",
      "externalIds": {
        "DBLP": "journals/nn/ZhuJYY25",
        "DOI": "10.1016/j.neunet.2025.107341",
        "CorpusId": 276914255,
        "PubMed": "40086136"
      },
      "url": "https://www.semanticscholar.org/paper/67f10a0e2414b00bd5b73c41f24377e8ee8ed296",
      "title": "Improving transferability of adversarial examples via statistical attribution-based attacks",
      "venue": "Neural Networks",
      "year": 2025,
      "referenceCount": 47,
      "citationCount": 3,
      "authors": [
        {
          "authorId": "2117693876",
          "name": "Hegui Zhu"
        },
        {
          "authorId": "2215838095",
          "name": "Yanmeng Jia"
        },
        {
          "authorId": "2292955817",
          "name": "Yue Yan"
        },
        {
          "authorId": "2384062017",
          "name": "Zeyu Yang"
        }
      ]
    },
    {
      "paperId": "eb48839c7f1bdee4118d41a1bef6d6d7186ac49d",
      "externalIds": {
        "DBLP": "journals/access/XueWA25",
        "DOI": "10.1109/ACCESS.2025.3623900",
        "CorpusId": 282256123
      },
      "url": "https://www.semanticscholar.org/paper/eb48839c7f1bdee4118d41a1bef6d6d7186ac49d",
      "title": "On the Adversarial Robustness of Hand-Crafted Features and Their Role in Defending Adversarial Examples",
      "venue": "IEEE Access",
      "year": 2025,
      "referenceCount": 74,
      "citationCount": 0,
      "authors": [
        {
          "authorId": "2118565389",
          "name": "Shuohan Xue"
        },
        {
          "authorId": "2386938710",
          "name": "Lihui Wu"
        },
        {
          "authorId": "74338570",
          "name": "Charith Abhayaratne"
        }
      ]
    }
  ]
}