{
  "total": 11,
  "offset": 0,
  "next": 10,
  "data": [
    {
      "paperId": "40b0813f34bce6a698d14a161b3c7145c1edd98e",
      "externalIds": {
        "MAG": "2950077794",
        "ArXiv": "1806.01619",
        "DBLP": "conf/icml/OhGW18",
        "CorpusId": 46937410
      },
      "url": "https://www.semanticscholar.org/paper/40b0813f34bce6a698d14a161b3c7145c1edd98e",
      "title": "BOCK : Bayesian Optimization with Cylindrical Kernels",
      "venue": "International Conference on Machine Learning",
      "year": 2018,
      "referenceCount": 39,
      "citationCount": 150,
      "authors": [
        {
          "authorId": "145915461",
          "name": "Changyong Oh"
        },
        {
          "authorId": "2304222",
          "name": "E. Gavves"
        },
        {
          "authorId": "1678311",
          "name": "M. Welling"
        }
      ]
    },
    {
      "paperId": "4fdd807b26d4e19c5b6d851610036fe00a0e10d9",
      "externalIds": {
        "DOI": "10.4271/2026-01-0506",
        "CorpusId": 287328747
      },
      "url": "https://www.semanticscholar.org/paper/4fdd807b26d4e19c5b6d851610036fe00a0e10d9",
      "title": "Leveraging Large Language Models for Natural Language-Driven CAD Automation and Multi-Objective Optimization in Thermal Component Design",
      "venue": "SAE technical paper series",
      "year": 2026,
      "referenceCount": 18,
      "citationCount": 0,
      "authors": [
        {
          "authorId": "2059257379",
          "name": "P. Chaudhari"
        },
        {
          "authorId": "2272566847",
          "name": "Andres Tovar"
        }
      ]
    },
    {
      "paperId": "981da77b4fc69559a915561fdd47e2d83c0e7e1f",
      "externalIds": {
        "CorpusId": 116968916
      },
      "url": "https://www.semanticscholar.org/paper/981da77b4fc69559a915561fdd47e2d83c0e7e1f",
      "title": "Classification, Clustering, and Data Analysis: Recent Advances and Applications",
      "venue": "",
      "year": 2002,
      "referenceCount": 0,
      "citationCount": 48,
      "authors": [
        {
          "authorId": "2285327484",
          "name": "Krzystof Jajuga"
        },
        {
          "authorId": "2285332149",
          "name": "Andrzej Sokołowski"
        },
        {
          "authorId": "2285327782",
          "name": "Hans-Hermann Bock"
        }
      ]
    },
    {
      "paperId": "5e6bfda0e72310049a2eeb095a77de0e73c94187",
      "externalIds": {
        "MAG": "1535499967",
        "CorpusId": 20773109
      },
      "url": "https://www.semanticscholar.org/paper/5e6bfda0e72310049a2eeb095a77de0e73c94187",
      "title": "Advances in image and video technology : Third Pacific Rim Symposium, PSIVT 2009, Tokyo, Japan, January 13-16, 2009 : proceedings",
      "venue": "Pacific-Rim Symposium on Image and Video Technology",
      "year": 2009,
      "referenceCount": 0,
      "citationCount": 8,
      "authors": [
        {
          "authorId": "1702631",
          "name": "T. Wada"
        },
        {
          "authorId": "1745831",
          "name": "F. Huang"
        },
        {
          "authorId": "145676588",
          "name": "Stephen Lin"
        }
      ]
    },
    {
      "paperId": "08ebe1d3f9dfd62ba870be8e9e6e0d949624e996",
      "externalIds": {
        "MAG": "629278618",
        "CorpusId": 267806703
      },
      "url": "https://www.semanticscholar.org/paper/08ebe1d3f9dfd62ba870be8e9e6e0d949624e996",
      "title": "Classification, Clustering, and Data Analysis: Recent Advances and Applications",
      "venue": "",
      "year": 2002,
      "referenceCount": 0,
      "citationCount": 42,
      "authors": [
        {
          "authorId": "2248681479",
          "name": "Krzysztof Jajuga"
        },
        {
          "authorId": "2285332149",
          "name": "Andrzej Sokołowski"
        },
        {
          "authorId": "2285327782",
          "name": "Hans-Hermann Bock"
        }
      ]
    },
    {
      "paperId": "570bda56fc37b5ef645060e6e295f6d0912a2761",
      "externalIds": {
        "MAG": "1526549561",
        "CorpusId": 260870206
      },
      "url": "https://www.semanticscholar.org/paper/570bda56fc37b5ef645060e6e295f6d0912a2761",
      "title": "Advanced concepts for intelligent vision systems : 9th International Conference, ACIVS 2007, Delft, The Netherlands, August 28-31, 2007 : proceedings",
      "venue": "",
      "year": 2007,
      "referenceCount": 0,
      "citationCount": 0,
      "authors": [
        {
          "authorId": "1402955152",
          "name": "J. Blanc-Talon"
        }
      ]
    },
    {
      "paperId": "2e9c9c22af98004fe15af33d98a166e13fd43544",
      "externalIds": {
        "DBLP": "conf/caip/1997",
        "MAG": "1536682884",
        "DOI": "10.1007/3-540-63460-6",
        "CorpusId": 1110800
      },
      "url": "https://www.semanticscholar.org/paper/2e9c9c22af98004fe15af33d98a166e13fd43544",
      "title": "Computer Analysis of Images and Patterns",
      "venue": "Lecture Notes in Computer Science",
      "year": 1997,
      "referenceCount": 0,
      "citationCount": 6,
      "authors": [
        {
          "authorId": "143921323",
          "name": "G. Sommer"
        },
        {
          "authorId": "1751586",
          "name": "Kostas Daniilidis"
        },
        {
          "authorId": "1760589",
          "name": "J. Pauli"
        }
      ]
    },
    {
      "paperId": "36768dd1a01dea84295e44926ec29ccdb24dc59a",
      "externalIds": {
        "MAG": "1601204653",
        "CorpusId": 117854620
      },
      "url": "https://www.semanticscholar.org/paper/36768dd1a01dea84295e44926ec29ccdb24dc59a",
      "title": "Data-based process monitoring, fault detection and diagnostics",
      "venue": "",
      "year": 2009,
      "referenceCount": 0,
      "citationCount": 0,
      "authors": [
        {
          "authorId": "34724843",
          "name": "Y. Shin"
        },
        {
          "authorId": "3304654",
          "name": "Niranjan A. Subrahmanya"
        }
      ]
    },
    {
      "paperId": "3995e43e9be494541baa5da385cf73b35919cc44",
      "externalIds": {
        "MAG": "1565416522",
        "CorpusId": 39108832
      },
      "url": "https://www.semanticscholar.org/paper/3995e43e9be494541baa5da385cf73b35919cc44",
      "title": "Computer recognition systems : proceedings of the 4th international conference on computer recognition systems CORES'05",
      "venue": "",
      "year": 2005,
      "referenceCount": 0,
      "citationCount": 2,
      "authors": [
        {
          "authorId": "3262354",
          "name": "M. Kurzynski"
        }
      ]
    },
    {
      "paperId": "9e5116fe53322a83ccfb7f8b4309b81286dfddeb",
      "externalIds": {
        "MAG": "2101045234",
        "CorpusId": 61991852
      },
      "url": "https://www.semanticscholar.org/paper/9e5116fe53322a83ccfb7f8b4309b81286dfddeb",
      "title": "Computer analysis of images and patterns : 10th International Conference, CAIP 2003, Groningen, the Netherlands, August 25-27, 2003 : proceedings",
      "venue": "",
      "year": 2003,
      "referenceCount": 1,
      "citationCount": 0,
      "authors": [
        {
          "authorId": "1730388",
          "name": "N. Petkov"
        },
        {
          "authorId": "114396066",
          "name": "Westenberg"
        }
      ]
    }
  ]
}