{
  "total": 17,
  "offset": 0,
  "next": 10,
  "data": [
    {
      "paperId": "f8c23baabb80694b07e07caf124390f7780a2352",
      "externalIds": {
        "DBLP": "conf/icml/CarriereCO17",
        "ArXiv": "1706.03358",
        "MAG": "2952072569",
        "CorpusId": 19807367
      },
      "url": "https://www.semanticscholar.org/paper/f8c23baabb80694b07e07caf124390f7780a2352",
      "title": "Sliced Wasserstein Kernel for Persistence Diagrams",
      "venue": "International Conference on Machine Learning",
      "year": 2017,
      "referenceCount": 46,
      "citationCount": 262,
      "authors": [
        {
          "authorId": "35193191",
          "name": "Mathieu Carrière"
        },
        {
          "authorId": "1711979",
          "name": "Marco Cuturi"
        },
        {
          "authorId": "2411934",
          "name": "S. Oudot"
        }
      ]
    },
    {
      "paperId": "fbb607339cd8b2908b82757e3b31660087009b3c",
      "externalIds": {
        "ArXiv": "2602.06539",
        "DBLP": "journals/corr/abs-2602-06539",
        "DOI": "10.48550/arXiv.2602.06539",
        "CorpusId": 285401258
      },
      "url": "https://www.semanticscholar.org/paper/fbb607339cd8b2908b82757e3b31660087009b3c",
      "title": "Revisiting the Sliced Wasserstein Kernel for persistence diagrams: a Figalli-Gigli approach",
      "venue": "arXiv.org",
      "year": 2026,
      "referenceCount": 55,
      "citationCount": 0,
      "authors": [
        {
          "authorId": "2409493141",
          "name": "Marc Janthial"
        },
        {
          "authorId": "47355977",
          "name": "Théo Lacombe"
        }
      ]
    },
    {
      "paperId": "052066013d5d4b32980498bb9c78490d35647940",
      "externalIds": {
        "DBLP": "journals/corr/abs-2509-16999",
        "ArXiv": "2509.16999",
        "DOI": "10.48550/arXiv.2509.16999",
        "CorpusId": 281420829
      },
      "url": "https://www.semanticscholar.org/paper/052066013d5d4b32980498bb9c78490d35647940",
      "title": "Persistence Spheres: Bi-continuous Representations of Persistence Diagrams",
      "venue": "arXiv.org",
      "year": 2025,
      "referenceCount": 40,
      "citationCount": 0,
      "authors": [
        {
          "authorId": "5854804",
          "name": "M. Pegoraro"
        }
      ]
    },
    {
      "paperId": "5229a7d7b91bdb65345794fb33722da6b3050f57",
      "externalIds": {
        "CorpusId": 13741041
      },
      "url": "https://www.semanticscholar.org/paper/5229a7d7b91bdb65345794fb33722da6b3050f57",
      "title": "Report for CSE 5339 2018 — ( OTMLSA ) Optimal Transport in Machine Learning and Shape Analysis Report on ” Sliced Wasserstein Distance for Persistence Diagram ”",
      "venue": "",
      "year": 2018,
      "referenceCount": 8,
      "citationCount": 0,
      "authors": [
        {
          "authorId": "2058944128",
          "name": "Xiaomin Zha"
        }
      ]
    },
    {
      "paperId": "d22222a69d2db1a6c3024894e3c9a21522d201fc",
      "externalIds": {
        "MAG": "2803171681",
        "DBLP": "conf/nips/LeY18",
        "ArXiv": "1802.03569",
        "CorpusId": 53043297
      },
      "url": "https://www.semanticscholar.org/paper/d22222a69d2db1a6c3024894e3c9a21522d201fc",
      "title": "Persistence Fisher Kernel: A Riemannian Manifold Kernel for Persistence Diagrams",
      "venue": "Neural Information Processing Systems",
      "year": 2018,
      "referenceCount": 59,
      "citationCount": 84,
      "authors": [
        {
          "authorId": "145437881",
          "name": "Tam Le"
        },
        {
          "authorId": "50142992",
          "name": "M. Yamada"
        }
      ]
    },
    {
      "paperId": "6a4cefcbfdb19ccbb3ced3b994f9fc75d394bce2",
      "externalIds": {
        "MAG": "2787871992",
        "DBLP": "journals/corr/abs-1802-03569",
        "CorpusId": 126144823
      },
      "url": "https://www.semanticscholar.org/paper/6a4cefcbfdb19ccbb3ced3b994f9fc75d394bce2",
      "title": "Riemannian Manifold Kernel for Persistence Diagrams",
      "venue": "arXiv.org",
      "year": 2018,
      "referenceCount": 42,
      "citationCount": 3,
      "authors": [
        {
          "authorId": "145437881",
          "name": "Tam Le"
        },
        {
          "authorId": "50142992",
          "name": "M. Yamada"
        }
      ]
    },
    {
      "paperId": "8cb0db7393250f33c20a77a0b3817c911a414a0c",
      "externalIds": {
        "DBLP": "journals/corr/abs-2402-14489",
        "ArXiv": "2402.14489",
        "DOI": "10.48550/arXiv.2402.14489",
        "CorpusId": 267783072
      },
      "url": "https://www.semanticscholar.org/paper/8cb0db7393250f33c20a77a0b3817c911a414a0c",
      "title": "A Class of Topological Pseudodistances for Fast Comparison of Persistence Diagrams",
      "venue": "AAAI Conference on Artificial Intelligence",
      "year": 2024,
      "referenceCount": 71,
      "citationCount": 1,
      "authors": [
        {
          "authorId": "2284992399",
          "name": "R. Nuñez"
        },
        {
          "authorId": "2287809433",
          "name": "Mircea Petrache"
        },
        {
          "authorId": "13609943",
          "name": "M. Cerda"
        },
        {
          "authorId": "1399448180",
          "name": "N. Hitschfeld-Kahler"
        }
      ]
    },
    {
      "paperId": "10c114add7762ec3dbc3e1203be88c7540466c42",
      "externalIds": {
        "ArXiv": "2512.07282",
        "CorpusId": 283694097
      },
      "url": "https://www.semanticscholar.org/paper/10c114add7762ec3dbc3e1203be88c7540466c42",
      "title": "Reproducing Kernel Hilbert Spaces for Virtual Persistence Diagrams",
      "venue": "",
      "year": 2025,
      "referenceCount": 20,
      "citationCount": 1,
      "authors": [
        {
          "authorId": "2397377756",
          "name": "Charles Fanning"
        },
        {
          "authorId": "2397379897",
          "name": "Mehmet Aktas"
        }
      ]
    },
    {
      "paperId": "0087f4bdb3f66978cd7124400d9f1f2d8bccd396",
      "externalIds": {
        "MAG": "3122545378",
        "DBLP": "journals/corr/abs-1910-13935",
        "ArXiv": "1910.13935",
        "DOI": "10.1090/PROC/15451",
        "CorpusId": 204960635
      },
      "url": "https://www.semanticscholar.org/paper/0087f4bdb3f66978cd7124400d9f1f2d8bccd396",
      "title": "Nonembeddability of Persistence Diagrams with p>2 Wasserstein Metric",
      "venue": "arXiv.org",
      "year": 2019,
      "referenceCount": 6,
      "citationCount": 26,
      "authors": [
        {
          "authorId": "2084605529",
          "name": "Alexander Wagner"
        }
      ]
    },
    {
      "paperId": "ebbeae1ee660a92dd8c635085dd7eeb9a8af3c8f",
      "externalIds": {
        "ArXiv": "2602.15153",
        "CorpusId": 285659935
      },
      "url": "https://www.semanticscholar.org/paper/ebbeae1ee660a92dd8c635085dd7eeb9a8af3c8f",
      "title": "Reproducing Kernel Hilbert Spaces on Banach Completions of Virtual Persistence Diagram Groups",
      "venue": "",
      "year": 2026,
      "referenceCount": 20,
      "citationCount": 0,
      "authors": [
        {
          "authorId": "2397377756",
          "name": "Charles Fanning"
        },
        {
          "authorId": "2257938360",
          "name": "M. Aktas"
        }
      ]
    }
  ]
}