{
  "total": 3085,
  "offset": 0,
  "next": 10,
  "data": [
    {
      "paperId": "409f5b8f5176c7dc9c2ffbea4fc4c0c9c37331c7",
      "externalIds": {
        "DBLP": "conf/icml/ItoYF18",
        "MAG": "2803752111",
        "CorpusId": 51876178
      },
      "url": "https://www.semanticscholar.org/paper/409f5b8f5176c7dc9c2ffbea4fc4c0c9c37331c7",
      "title": "Unbiased Objective Estimation in Predictive Optimization",
      "venue": "International Conference on Machine Learning",
      "year": 2018,
      "referenceCount": 29,
      "citationCount": 23,
      "authors": [
        {
          "authorId": "2087132957",
          "name": "Shinji Ito"
        },
        {
          "authorId": "1900961",
          "name": "Akihiro Yabe"
        },
        {
          "authorId": "1767586",
          "name": "R. Fujimaki"
        }
      ]
    },
    {
      "paperId": "775e75d615cba3e2ff7000d90ffac571fc4860cb",
      "externalIds": {
        "MAG": "3086476549",
        "DOI": "10.1016/J.MECHMACHTHEORY.2020.104100",
        "CorpusId": 224921812
      },
      "url": "https://www.semanticscholar.org/paper/775e75d615cba3e2ff7000d90ffac571fc4860cb",
      "title": "Unbiased-estimation-based and computation-efficient adaptive MPC for four-wheel-independently-actuated electric vehicles",
      "venue": "",
      "year": 2020,
      "referenceCount": 35,
      "citationCount": 38,
      "authors": [
        {
          "authorId": "32353920",
          "name": "Wu Jianyang"
        },
        {
          "authorId": "9314243",
          "name": "Zhenpo Wang"
        },
        {
          "authorId": "2152829562",
          "name": "Lei Zhang"
        }
      ]
    },
    {
      "paperId": "9255dd6e991221c4bea874af30db5db23a054599",
      "externalIds": {
        "DOI": "10.1007/s00158-026-04254-5",
        "CorpusId": 285403499
      },
      "url": "https://www.semanticscholar.org/paper/9255dd6e991221c4bea874af30db5db23a054599",
      "title": "State estimation-based model predictive control: a multi-objective optimization strategy for horizontal vibration in ultra-high-speed elevator",
      "venue": "Structural And Multidisciplinary Optimization",
      "year": 2026,
      "referenceCount": 43,
      "citationCount": 0,
      "authors": [
        {
          "authorId": "2348122000",
          "name": "Donghang Cai"
        },
        {
          "authorId": "2142574391",
          "name": "Dongsheng Cong"
        },
        {
          "authorId": "2318679266",
          "name": "Xilong Wang"
        },
        {
          "authorId": "2371103693",
          "name": "Limin Fan"
        },
        {
          "authorId": "2244385083",
          "name": "Ruijun Zhang"
        }
      ]
    },
    {
      "paperId": "2d04f3998b5a13095c6e8bbe195be5f9f411a312",
      "externalIds": {
        "DBLP": "journals/corr/abs-2306-06844",
        "DOI": "10.48550/arXiv.2306.06844",
        "CorpusId": 259137570
      },
      "url": "https://www.semanticscholar.org/paper/2d04f3998b5a13095c6e8bbe195be5f9f411a312",
      "title": "Provably Efficient Bayesian Optimization with Unbiased Gaussian Process Hyperparameter Estimation",
      "venue": "arXiv.org",
      "year": 2023,
      "referenceCount": 65,
      "citationCount": 1,
      "authors": [
        {
          "authorId": "145907442",
          "name": "Huong Ha"
        },
        {
          "authorId": "2075328660",
          "name": "Vu-Thanh Nguyen"
        },
        {
          "authorId": "2108881199",
          "name": "Hongyu Zhang"
        },
        {
          "authorId": "5546141",
          "name": "Anton van den Hengel"
        }
      ]
    },
    {
      "paperId": "78b18067c80dcb99da78cabfc829299900a42cd4",
      "externalIds": {
        "DBLP": "conf/recsys/LiuJSWDXTZL24",
        "DOI": "10.1145/3640457.3688152",
        "CorpusId": 273232788
      },
      "url": "https://www.semanticscholar.org/paper/78b18067c80dcb99da78cabfc829299900a42cd4",
      "title": "Ranking-Aware Unbiased Post-Click Conversion Rate Estimation via AUC Optimization on Entire Exposure Space",
      "venue": "ACM Conference on Recommender Systems",
      "year": 2024,
      "referenceCount": 53,
      "citationCount": 2,
      "authors": [
        {
          "authorId": "2325181047",
          "name": "Yu Liu"
        },
        {
          "authorId": "3789712",
          "name": "Qinglin Jia"
        },
        {
          "authorId": "2325767978",
          "name": "Shuting Shi"
        },
        {
          "authorId": "2287881587",
          "name": "Chuhan Wu"
        },
        {
          "authorId": "2294672261",
          "name": "Zhaocheng Du"
        },
        {
          "authorId": "2114115114",
          "name": "Zheng Xie"
        },
        {
          "authorId": "2240536007",
          "name": "Ruiming Tang"
        },
        {
          "authorId": "2287873067",
          "name": "Muyu Zhang"
        },
        {
          "authorId": "2320177618",
          "name": "Ming Li"
        }
      ]
    },
    {
      "paperId": "0ba6c26a9aa4e56ee1b745eba804759b91e5d7b0",
      "externalIds": {
        "ArXiv": "2110.11070",
        "DBLP": "journals/jcise/BiswasFH23",
        "DOI": "10.1115/1.4054480",
        "CorpusId": 239050211
      },
      "url": "https://www.semanticscholar.org/paper/0ba6c26a9aa4e56ee1b745eba804759b91e5d7b0",
      "title": "A Nested Weighted Tchebycheff Multi-Objective Bayesian Optimization Approach for Flexibility of Unknown Utopia Estimation in Expensive Black-box Design Problems",
      "venue": "Journal of Computing and Information Science in Engineering",
      "year": 2021,
      "referenceCount": 63,
      "citationCount": 4,
      "authors": [
        {
          "authorId": "2078503056",
          "name": "Arpan Biswas"
        },
        {
          "authorId": "145872437",
          "name": "Claudio Fuentes"
        },
        {
          "authorId": "48971144",
          "name": "C. Hoyle"
        }
      ]
    },
    {
      "paperId": "6b193b929a3b4a38d3f128538c5eca03b4df4fc2",
      "externalIds": {
        "ArXiv": "2603.04135",
        "CorpusId": 286238519
      },
      "url": "https://www.semanticscholar.org/paper/6b193b929a3b4a38d3f128538c5eca03b4df4fc2",
      "title": "Unbiased Dynamic Pruning for Efficient Group-Based Policy Optimization",
      "venue": "",
      "year": 2026,
      "referenceCount": 0,
      "citationCount": 0,
      "authors": [
        {
          "authorId": "2296745269",
          "name": "Haodong Zhu"
        },
        {
          "authorId": "2372153005",
          "name": "Yangyang Ren"
        },
        {
          "authorId": "2110500972",
          "name": "Yanjing Li"
        },
        {
          "authorId": "2261685141",
          "name": "Mingbao Lin"
        },
        {
          "authorId": "2293610506",
          "name": "Linlin Yang"
        },
        {
          "authorId": "2140615451",
          "name": "Xuhui Liu"
        },
        {
          "authorId": "2294611590",
          "name": "Xiantong Zhen"
        },
        {
          "authorId": "2289788184",
          "name": "Haiguang Liu"
        },
        {
          "authorId": "2257328341",
          "name": "Baochang Zhang"
        }
      ]
    },
    {
      "paperId": "7f88cf8c7c92d6ecda853255442274f9a9856adc",
      "externalIds": {
        "DOI": "10.1088/1361-6560/ae36e6",
        "CorpusId": 284702564,
        "PubMed": "41525733"
      },
      "url": "https://www.semanticscholar.org/paper/7f88cf8c7c92d6ecda853255442274f9a9856adc",
      "title": "Experimental validation of a Fisher information–based predictive framework for dose and time optimization in PET-guided online adaptive proton therapy",
      "venue": "Physics in Medicine and Biology",
      "year": 2026,
      "referenceCount": 45,
      "citationCount": 0,
      "authors": [
        {
          "authorId": "2395152917",
          "name": "Jun Nakao"
        },
        {
          "authorId": "46589916",
          "name": "T. Masuda"
        },
        {
          "authorId": "2404297315",
          "name": "Tsubasa Yamano"
        },
        {
          "authorId": "2279965784",
          "name": "Toshiyuki Toshito"
        },
        {
          "authorId": "2395138683",
          "name": "Teiji Nishio"
        }
      ]
    },
    {
      "paperId": "e1a9f8392a1b07c6ccbfe2e2851a5396a86b4bd3",
      "externalIds": {
        "DOI": "10.1007/s11709-025-1152-0",
        "CorpusId": 275421869
      },
      "url": "https://www.semanticscholar.org/paper/e1a9f8392a1b07c6ccbfe2e2851a5396a86b4bd3",
      "title": "Multi-objective optimization of ultra-high performance concrete based on life-cycle assessment and machine learning methods",
      "venue": "Frontiers of Structural and Civil Engineering",
      "year": 2025,
      "referenceCount": 66,
      "citationCount": 7,
      "authors": [
        {
          "authorId": "2295481048",
          "name": "Min Wang"
        },
        {
          "authorId": "2295442944",
          "name": "Mingfeng Du"
        },
        {
          "authorId": "2261348605",
          "name": "Xiaoying Zhuang"
        },
        {
          "authorId": "2309315217",
          "name": "Hui Lv"
        },
        {
          "authorId": "2279663514",
          "name": "Chong Wang"
        },
        {
          "authorId": "2223357255",
          "name": "Shuai Zhou"
        }
      ]
    },
    {
      "paperId": "039d04595b4734c35e8c02f8ab1f9d0ed76d2701",
      "externalIds": {
        "DOI": "10.1080/0305215X.2025.2456580",
        "CorpusId": 276377386
      },
      "url": "https://www.semanticscholar.org/paper/039d04595b4734c35e8c02f8ab1f9d0ed76d2701",
      "title": "Multi-objective design optimization of insulated gate bipolar transistor structures considering ultrasonic welding packaging",
      "venue": "Engineering optimization (Print)",
      "year": 2025,
      "referenceCount": 54,
      "citationCount": 0,
      "authors": [
        {
          "authorId": "2218767556",
          "name": "Feng Zhao"
        },
        {
          "authorId": "2289214113",
          "name": "Weifei Hu"
        },
        {
          "authorId": "2385098223",
          "name": "Lei Wang"
        },
        {
          "authorId": "2284300527",
          "name": "Hongwen Liu"
        },
        {
          "authorId": "145777002",
          "name": "Jin Cheng"
        },
        {
          "authorId": "2341661312",
          "name": "Xueguan Song"
        },
        {
          "authorId": "2240610784",
          "name": "Jianrong Tan"
        }
      ]
    }
  ]
}