{
  "total": 34035,
  "offset": 0,
  "next": 10,
  "data": [
    {
      "paperId": "bf9d62357fb1e8cdfd97b62546e424524cc92bb2",
      "externalIds": {
        "DBLP": "conf/icml/JewellSB15",
        "MAG": "1865403236",
        "CorpusId": 13635012
      },
      "url": "https://www.semanticscholar.org/paper/bf9d62357fb1e8cdfd97b62546e424524cc92bb2",
      "title": "Atomic Spatial Processes",
      "venue": "International Conference on Machine Learning",
      "year": 2015,
      "referenceCount": 24,
      "citationCount": 2,
      "authors": [
        {
          "authorId": "34547990",
          "name": "Sean W Jewell"
        },
        {
          "authorId": "90515151",
          "name": "Neil A. Spencer"
        },
        {
          "authorId": "1398531195",
          "name": "A. Bouchard-Côté"
        }
      ]
    },
    {
      "paperId": "610d5bb39b82fd3b87eca9662f07d6f6897a3b53",
      "externalIds": {
        "MAG": "2150650978",
        "DOI": "10.1116/1.4922588",
        "CorpusId": 34729570
      },
      "url": "https://www.semanticscholar.org/paper/610d5bb39b82fd3b87eca9662f07d6f6897a3b53",
      "title": "Low temperature temporal and spatial atomic layer deposition of TiO2 films",
      "venue": "",
      "year": 2015,
      "referenceCount": 68,
      "citationCount": 45,
      "authors": [
        {
          "authorId": "14031119",
          "name": "M. Aghaee"
        },
        {
          "authorId": "12145796",
          "name": "Philipp Maydannik"
        },
        {
          "authorId": "70605781",
          "name": "Petri Johansson"
        },
        {
          "authorId": "6633209",
          "name": "J. Kuusipalo"
        },
        {
          "authorId": "76978054",
          "name": "M. Creatore"
        },
        {
          "authorId": "2977492",
          "name": "T. Homoľa"
        },
        {
          "authorId": "47434187",
          "name": "D. Cameron"
        }
      ]
    },
    {
      "paperId": "69920030e94e515b6b1dbbd130cfdfb05dcaab08",
      "externalIds": {
        "MAG": "2090290617",
        "DOI": "10.1116/1.4914079",
        "CorpusId": 98629498
      },
      "url": "https://www.semanticscholar.org/paper/69920030e94e515b6b1dbbd130cfdfb05dcaab08",
      "title": "Spatial atomic layer deposition: Performance of low temperature H2O and O3 oxidant chemistry for flexible electronics encapsulation",
      "venue": "",
      "year": 2015,
      "referenceCount": 22,
      "citationCount": 34,
      "authors": [
        {
          "authorId": "12145796",
          "name": "Philipp Maydannik"
        },
        {
          "authorId": "90434266",
          "name": "A. Plyushch"
        },
        {
          "authorId": "3403125",
          "name": "M. Sillanpää"
        },
        {
          "authorId": "47434187",
          "name": "D. Cameron"
        }
      ]
    },
    {
      "paperId": "550f2a6ab8d2c54888e10b9ebfb373e1bc906d76",
      "externalIds": {
        "MAG": "2560823092",
        "DOI": "10.1017/S1431927615004055",
        "CorpusId": 51862790
      },
      "url": "https://www.semanticscholar.org/paper/550f2a6ab8d2c54888e10b9ebfb373e1bc906d76",
      "title": "Toward Ultrafast Electron Microscope with Femtosecond Temporal Resolution, Atomic-Level Spatial Resolution, and Single-Shot Imaging Capability",
      "venue": "Microscopy and Microanalysis",
      "year": 2015,
      "referenceCount": 5,
      "citationCount": 2,
      "authors": [
        {
          "authorId": "46489190",
          "name": "K. Tanimura"
        }
      ]
    },
    {
      "paperId": "d4d5426f26593613e9f38a8921b0148088fab620",
      "externalIds": {
        "MAG": "2804083550",
        "CorpusId": 232701356
      },
      "url": "https://www.semanticscholar.org/paper/d4d5426f26593613e9f38a8921b0148088fab620",
      "title": "4D ultrafast electron microscopy sheds light on dynamic processes from the micrometer to the atomic scale",
      "venue": "",
      "year": 2015,
      "referenceCount": 0,
      "citationCount": 0,
      "authors": [
        {
          "authorId": "73061141",
          "name": "Mark T. Anderson"
        }
      ]
    },
    {
      "paperId": "8541c8c13f83864e22af4b833390a640cd289df2",
      "externalIds": {
        "MAG": "2255367475",
        "PubMedCentral": "4484408",
        "DOI": "10.1038/srep11692",
        "CorpusId": 14103963,
        "PubMed": "26118423"
      },
      "url": "https://www.semanticscholar.org/paper/8541c8c13f83864e22af4b833390a640cd289df2",
      "title": "Fast, multi-frequency, and quantitative nanomechanical mapping of live cells using the atomic force microscope",
      "venue": "Scientific Reports",
      "year": 2015,
      "referenceCount": 70,
      "citationCount": 111,
      "authors": [
        {
          "authorId": "2412597692",
          "name": "A. X. Cartagena-Rivera"
        },
        {
          "authorId": "113019931",
          "name": "Wen‐Horng Wang"
        },
        {
          "authorId": "5130178",
          "name": "R. Geahlen"
        },
        {
          "authorId": "144824007",
          "name": "A. Raman"
        }
      ]
    },
    {
      "paperId": "8a30b0a33b5571fda049271d7bcd639ce844253f",
      "externalIds": {
        "MAG": "2082331570",
        "DOI": "10.1038/ncomms7399",
        "CorpusId": 26765130,
        "PubMed": "25744816"
      },
      "url": "https://www.semanticscholar.org/paper/8a30b0a33b5571fda049271d7bcd639ce844253f",
      "title": "Spatial extent of a Landauer residual-resistivity dipole in graphene quantified by scanning tunnelling potentiometry",
      "venue": "Nature Communications",
      "year": 2015,
      "referenceCount": 32,
      "citationCount": 33,
      "authors": [
        {
          "authorId": "9609862",
          "name": "P. Willke"
        },
        {
          "authorId": "15406570",
          "name": "T. Druga"
        },
        {
          "authorId": "47076807",
          "name": "R. Ulbrich"
        },
        {
          "authorId": "2107764268",
          "name": "M. A. Schneider"
        },
        {
          "authorId": "39347343",
          "name": "M. Wenderoth"
        }
      ]
    },
    {
      "paperId": "d0b7c074251d4f459719cf97b8c8beb7fa179464",
      "externalIds": {
        "MAG": "2053773383",
        "DOI": "10.1557/MRS.2014.283",
        "CorpusId": 135497805
      },
      "url": "https://www.semanticscholar.org/paper/d0b7c074251d4f459719cf97b8c8beb7fa179464",
      "title": "Observation of materials processes in liquids by electron microscopy",
      "venue": "",
      "year": 2015,
      "referenceCount": 75,
      "citationCount": 36,
      "authors": [
        {
          "authorId": "2185016797",
          "name": "Chongmin Wang"
        },
        {
          "authorId": "92610857",
          "name": "H. Liao"
        },
        {
          "authorId": "35178221",
          "name": "F. Ross"
        }
      ]
    },
    {
      "paperId": "7ac4f3f8df12b0d0ccae1d01219e9732061e9c4e",
      "externalIds": {
        "MAG": "1979037781",
        "DOI": "10.1016/j.micron.2014.05.010",
        "CorpusId": 4534812,
        "PubMed": "25043440"
      },
      "url": "https://www.semanticscholar.org/paper/7ac4f3f8df12b0d0ccae1d01219e9732061e9c4e",
      "title": "Damage behavior and atomic migration in MgAl2O4 under an 80 keV scanning focused probe in a STEM.",
      "venue": "Micron",
      "year": 2015,
      "referenceCount": 21,
      "citationCount": 6,
      "authors": [
        {
          "authorId": "1929199",
          "name": "G. Zhu"
        },
        {
          "authorId": "3637766",
          "name": "G. Botton"
        }
      ]
    },
    {
      "paperId": "1dc6edce9b606b35475096ac8257d8a502cc3b0f",
      "externalIds": {
        "MAG": "1516973958",
        "DOI": "10.5075/epfl-thesis-6733",
        "CorpusId": 93856543
      },
      "url": "https://www.semanticscholar.org/paper/1dc6edce9b606b35475096ac8257d8a502cc3b0f",
      "title": "Monitoring Charge Carrier Dynamics at Atomic Length Scales by STM-induced Luminescence",
      "venue": "",
      "year": 2015,
      "referenceCount": 244,
      "citationCount": 2,
      "authors": [
        {
          "authorId": "21464399",
          "name": "C. Große"
        }
      ]
    }
  ]
}