{
  "total": 1522,
  "offset": 0,
  "next": 10,
  "data": [
    {
      "paperId": "88a08035419fcb362f6f30c202d51920268f49d2",
      "externalIds": {
        "MAG": "3024460522",
        "DBLP": "conf/icml/GongZLTGS16",
        "CorpusId": 5807252,
        "PubMed": "28239433"
      },
      "url": "https://www.semanticscholar.org/paper/88a08035419fcb362f6f30c202d51920268f49d2",
      "title": "Domain Adaptation with Conditional Transferable Components",
      "venue": "International Conference on Machine Learning",
      "year": 2016,
      "referenceCount": 37,
      "citationCount": 368,
      "authors": [
        {
          "authorId": "29393235",
          "name": "Mingming Gong"
        },
        {
          "authorId": "37844380",
          "name": "Kun Zhang"
        },
        {
          "authorId": "121698214",
          "name": "Tongliang Liu"
        },
        {
          "authorId": "143719920",
          "name": "D. Tao"
        },
        {
          "authorId": "3058012",
          "name": "C. Glymour"
        },
        {
          "authorId": "1707625",
          "name": "B. Scholkopf"
        }
      ]
    },
    {
      "paperId": "b112ff202b24844c5df280c9a9c2e20f8ffa3a52",
      "externalIds": {
        "CorpusId": 268124482
      },
      "url": "https://www.semanticscholar.org/paper/b112ff202b24844c5df280c9a9c2e20f8ffa3a52",
      "title": "Domain Adaptation with Conditional Transferable Components",
      "venue": "",
      "year": null,
      "referenceCount": 0,
      "citationCount": 1,
      "authors": []
    },
    {
      "paperId": "58ca04d0ceeb16fed64c2e581c4bcfd3e44281c6",
      "externalIds": {
        "MAG": "3011198096",
        "DBLP": "journals/corr/abs-2003-04382",
        "ArXiv": "2003.04382",
        "CorpusId": 212644906
      },
      "url": "https://www.semanticscholar.org/paper/58ca04d0ceeb16fed64c2e581c4bcfd3e44281c6",
      "title": "Continuous Domain Adaptation with Variational Domain-Agnostic Feature Replay",
      "venue": "arXiv.org",
      "year": 2020,
      "referenceCount": 51,
      "citationCount": 34,
      "authors": [
        {
          "authorId": "40522277",
          "name": "Qicheng Lao"
        },
        {
          "authorId": "49835660",
          "name": "Xiang Jiang"
        },
        {
          "authorId": "2203743",
          "name": "Mohammad Havaei"
        },
        {
          "authorId": "1751762",
          "name": "Yoshua Bengio"
        }
      ]
    },
    {
      "paperId": "b2d2f6c8bd6fd16b982dd533151ea3fcd2eb9455",
      "externalIds": {
        "MAG": "3015386791",
        "DOI": "10.1142/s0219530520400035",
        "CorpusId": 216487940
      },
      "url": "https://www.semanticscholar.org/paper/b2d2f6c8bd6fd16b982dd533151ea3fcd2eb9455",
      "title": "Balanced joint maximum mean discrepancy for deep transfer learning",
      "venue": "Analysis and Applications",
      "year": 2020,
      "referenceCount": 33,
      "citationCount": 9,
      "authors": [
        {
          "authorId": "102825890",
          "name": "Chuangji Meng"
        },
        {
          "authorId": "48258843",
          "name": "Cunlu Xu"
        },
        {
          "authorId": "2066206150",
          "name": "Qin Lei"
        },
        {
          "authorId": "2113766786",
          "name": "W. Su"
        },
        {
          "authorId": "2110389738",
          "name": "Jinzhao Wu"
        }
      ]
    },
    {
      "paperId": "f7ca19be9c475631dea25ec2e272bcf60ea4b156",
      "externalIds": {
        "DOI": "10.3390/math13162602",
        "CorpusId": 280805994
      },
      "url": "https://www.semanticscholar.org/paper/f7ca19be9c475631dea25ec2e272bcf60ea4b156",
      "title": "Conditional Domain Adaptation with α-Rényi Entropy Regularization and Noise-Aware Label Weighting",
      "venue": "Mathematics",
      "year": 2025,
      "referenceCount": 44,
      "citationCount": 1,
      "authors": [
        {
          "authorId": "2312225376",
          "name": "Diego Armando Pérez-Rosero"
        },
        {
          "authorId": "1390049809",
          "name": "A. Álvarez-Meza"
        },
        {
          "authorId": "2328754354",
          "name": "G. Castellanos-Domínguez"
        }
      ]
    },
    {
      "paperId": "bb5caefc9fe0c944be9466311acb64dcf4c1a7e7",
      "externalIds": {
        "MAG": "3012148446",
        "DBLP": "journals/corr/abs-2003-04475",
        "ArXiv": "2003.04475",
        "CorpusId": 212644576
      },
      "url": "https://www.semanticscholar.org/paper/bb5caefc9fe0c944be9466311acb64dcf4c1a7e7",
      "title": "Domain Adaptation with Conditional Distribution Matching and Generalized Label Shift",
      "venue": "Neural Information Processing Systems",
      "year": 2020,
      "referenceCount": 70,
      "citationCount": 216,
      "authors": [
        {
          "authorId": "15032777",
          "name": "Rémi Tachet des Combes"
        },
        {
          "authorId": "1390716752",
          "name": "Han Zhao"
        },
        {
          "authorId": "2040617",
          "name": "Yu-Xiang Wang"
        },
        {
          "authorId": "21889436",
          "name": "Geoffrey J. Gordon"
        }
      ]
    },
    {
      "paperId": "8a0ee3231ea99829b9207845d43fed34f9e71bf2",
      "externalIds": {
        "DBLP": "journals/nn/DanJCDXCY23",
        "DOI": "10.1016/j.neunet.2023.10.002",
        "CorpusId": 263680952,
        "PubMed": "37832319"
      },
      "url": "https://www.semanticscholar.org/paper/8a0ee3231ea99829b9207845d43fed34f9e71bf2",
      "title": "Trust-aware conditional adversarial domain adaptation with feature norm alignment",
      "venue": "Neural Networks",
      "year": 2023,
      "referenceCount": 52,
      "citationCount": 19,
      "authors": [
        {
          "authorId": "38261340",
          "name": "Jun Dan"
        },
        {
          "authorId": "2254639370",
          "name": "Tao Jin"
        },
        {
          "authorId": "2180756387",
          "name": "Hao Chi"
        },
        {
          "authorId": "2254360708",
          "name": "Shunjie Dong"
        },
        {
          "authorId": "2256339453",
          "name": "Haoran Xie"
        },
        {
          "authorId": "2254468400",
          "name": "Keying Cao"
        },
        {
          "authorId": "2254866308",
          "name": "Xinjing Yang"
        }
      ]
    },
    {
      "paperId": "19f76b0b068cfbe0dff5c16ff81dd9c1d5720211",
      "externalIds": {
        "DOI": "10.1088/1361-6501/adf79f",
        "CorpusId": 280622191
      },
      "url": "https://www.semanticscholar.org/paper/19f76b0b068cfbe0dff5c16ff81dd9c1d5720211",
      "title": "Parallel multi-scale pooling dynamic domain adaptation discriminative network: a method for fault diagnosis of critical components in gearboxes",
      "venue": "Measurement science and technology",
      "year": 2025,
      "referenceCount": 44,
      "citationCount": 0,
      "authors": [
        {
          "authorId": "2360595012",
          "name": "Xiaoheng Hu"
        },
        {
          "authorId": "50089995",
          "name": "Hong Jiang"
        },
        {
          "authorId": "1708290526",
          "name": "Xiangfeng Zhang"
        },
        {
          "authorId": "2308989107",
          "name": "Rong Zhou"
        }
      ]
    },
    {
      "paperId": "9171e83fb98299e14cbb3673437a0495a213767a",
      "externalIds": {
        "MAG": "2949383447",
        "DBLP": "conf/nips/LongC0J18",
        "CorpusId": 46784066
      },
      "url": "https://www.semanticscholar.org/paper/9171e83fb98299e14cbb3673437a0495a213767a",
      "title": "Conditional Adversarial Domain Adaptation",
      "venue": "Neural Information Processing Systems",
      "year": 2017,
      "referenceCount": 64,
      "citationCount": 2745,
      "authors": [
        {
          "authorId": "35776445",
          "name": "Mingsheng Long"
        },
        {
          "authorId": "3451430",
          "name": "Zhangjie Cao"
        },
        {
          "authorId": "2144499343",
          "name": "Jianmin Wang"
        },
        {
          "authorId": "1694621",
          "name": "Michael I. Jordan"
        }
      ]
    },
    {
      "paperId": "7ef8276ef9fbe30826e2974b04aa7685a390bfff",
      "externalIds": {
        "DBLP": "journals/tnse/WangCWWlSGWC24",
        "DOI": "10.1109/TNSE.2023.3302574",
        "CorpusId": 260786865
      },
      "url": "https://www.semanticscholar.org/paper/7ef8276ef9fbe30826e2974b04aa7685a390bfff",
      "title": "Joint Adversarial Domain Adaptation With Structural Graph Alignment",
      "venue": "IEEE Transactions on Network Science and Engineering",
      "year": 2024,
      "referenceCount": 43,
      "citationCount": 4,
      "authors": [
        {
          "authorId": "66986539",
          "name": "Mengzhu Wang"
        },
        {
          "authorId": "2108169698",
          "name": "Junyang Chen"
        },
        {
          "authorId": "2115741053",
          "name": "Ye Wang"
        },
        {
          "authorId": "2117195003",
          "name": "Shanshan Wang"
        },
        {
          "authorId": "2155690649",
          "name": "Lin Li"
        },
        {
          "authorId": "49466406",
          "name": "Haoran Su"
        },
        {
          "authorId": "2156176763",
          "name": "Zhiguo Gong"
        },
        {
          "authorId": "2115598347",
          "name": "Kaishun Wu"
        },
        {
          "authorId": "2117202111",
          "name": "Zhenghan Chen"
        }
      ]
    }
  ]
}