{
  "total": 289,
  "offset": 0,
  "next": 10,
  "data": [
    {
      "paperId": "577d9bb32df3b9d9b327663ff91fd6805ced821b",
      "externalIds": {
        "DBLP": "conf/icml/WangSL18",
        "MAG": "2885568127",
        "CorpusId": 51871860
      },
      "url": "https://www.semanticscholar.org/paper/577d9bb32df3b9d9b327663ff91fd6805ced821b",
      "title": "Provable Variable Selection for Streaming Features",
      "venue": "International Conference on Machine Learning",
      "year": 2018,
      "referenceCount": 39,
      "citationCount": 15,
      "authors": [
        {
          "authorId": "70054478",
          "name": "Jing Wang"
        },
        {
          "authorId": "2109647005",
          "name": "Jie Shen"
        },
        {
          "authorId": "144785135",
          "name": "Ping Li"
        }
      ]
    },
    {
      "paperId": "ed828f5791421e1f78cb331b505e1cd01cd9f65b",
      "externalIds": {
        "ArXiv": "2101.08639",
        "DOI": "10.1080/00949655.2022.2107207",
        "CorpusId": 231662269
      },
      "url": "https://www.semanticscholar.org/paper/ed828f5791421e1f78cb331b505e1cd01cd9f65b",
      "title": "A general framework of online updating variable selection for generalized linear models with streaming datasets",
      "venue": "Journal of Statistical Computation and Simulation",
      "year": 2021,
      "referenceCount": 19,
      "citationCount": 21,
      "authors": [
        {
          "authorId": "2108518571",
          "name": "Xiaoyu Ma"
        },
        {
          "authorId": "9538465",
          "name": "Lu Lin"
        },
        {
          "authorId": "2851123",
          "name": "Yujie Gai"
        }
      ]
    },
    {
      "paperId": "61bd4e5c6bd42938e5dab81941b59d9bc5fdc344",
      "externalIds": {
        "DBLP": "journals/symmetry/KhanKBWY22",
        "DOI": "10.3390/sym14010149",
        "CorpusId": 245982007
      },
      "url": "https://www.semanticscholar.org/paper/61bd4e5c6bd42938e5dab81941b59d9bc5fdc344",
      "title": "Online Streaming Features Selection via Markov Blanket",
      "venue": "Symmetry",
      "year": 2022,
      "referenceCount": 34,
      "citationCount": 2,
      "authors": [
        {
          "authorId": "2150152405",
          "name": "Waqar Khan"
        },
        {
          "authorId": "2069278017",
          "name": "Lingfu Kong"
        },
        {
          "authorId": "1396439185",
          "name": "Brekhna Brekhna"
        },
        {
          "authorId": "2151979821",
          "name": "Ling Wang"
        },
        {
          "authorId": "2152581536",
          "name": "Huigui Yan"
        }
      ]
    },
    {
      "paperId": "14f22bd7083052f4129dd6dc7bb4e662e8740b7d",
      "externalIds": {
        "DOI": "10.1108/apjml-05-2024-0657",
        "CorpusId": 278675068
      },
      "url": "https://www.semanticscholar.org/paper/14f22bd7083052f4129dd6dc7bb4e662e8740b7d",
      "title": "Navigating the Chinese purchase intent in fresh agricultural product live streaming: anchor features, perceived risk and consumer confidence",
      "venue": "Asia Pacific Journal of Marketing and Logistics",
      "year": 2025,
      "referenceCount": 42,
      "citationCount": 3,
      "authors": [
        {
          "authorId": "2361797031",
          "name": "Jingnan Ju"
        },
        {
          "authorId": "145481815",
          "name": "Poh-Chuin Teo"
        },
        {
          "authorId": "72194164",
          "name": "H. Adnan"
        }
      ]
    },
    {
      "paperId": "35af77a4ff9fa981ef2240f90c6acee148cb2df4",
      "externalIds": {
        "DBLP": "journals/tmc/LiHSJW24",
        "DOI": "10.1109/TMC.2024.3448370",
        "CorpusId": 272092231
      },
      "url": "https://www.semanticscholar.org/paper/35af77a4ff9fa981ef2240f90c6acee148cb2df4",
      "title": "VASE: Enhancing Adaptive Bitrate Selection for VBR-Encoded Audio and Video Content With Deep Reinforcement Learning",
      "venue": "IEEE Transactions on Mobile Computing",
      "year": 2024,
      "referenceCount": 67,
      "citationCount": 3,
      "authors": [
        {
          "authorId": "2258781346",
          "name": "Weihe Li"
        },
        {
          "authorId": "2135963135",
          "name": "Jiawei Huang"
        },
        {
          "authorId": "1978167722",
          "name": "Qichen Su"
        },
        {
          "authorId": "3292019",
          "name": "Wanchun Jiang"
        },
        {
          "authorId": "2185631885",
          "name": "Jianxin Wang"
        }
      ]
    },
    {
      "paperId": "12b75f30278b26263d336c5c5486aeec3ff53d38",
      "externalIds": {
        "DOI": "10.1080/10485252.2025.2456767",
        "CorpusId": 276039119
      },
      "url": "https://www.semanticscholar.org/paper/12b75f30278b26263d336c5c5486aeec3ff53d38",
      "title": "Stochastic feature selection with annealing and its applications to streaming data",
      "venue": "Journal of nonparametric statistics (Print)",
      "year": 2025,
      "referenceCount": 29,
      "citationCount": 0,
      "authors": [
        {
          "authorId": "2110693329",
          "name": "Lizhe Sun"
        },
        {
          "authorId": "2285172483",
          "name": "A. Barbu"
        }
      ]
    },
    {
      "paperId": "02a4cb10909e2de021b266a5a8321c7a8d4a5920",
      "externalIds": {
        "DOI": "10.1109/SMC-IoT62253.2023.00033",
        "CorpusId": 270150477
      },
      "url": "https://www.semanticscholar.org/paper/02a4cb10909e2de021b266a5a8321c7a8d4a5920",
      "title": "TPMI:Accurate Throughput Prediction for Better Bitrate Selection in Adaptive Video Streaming",
      "venue": "2023 2nd International Conference on Sensing, Measurement, Communication and Internet of Things Technologies (SMC-IoT)",
      "year": 2023,
      "referenceCount": 16,
      "citationCount": 1,
      "authors": [
        {
          "authorId": "2304136569",
          "name": "Jiang Liu"
        },
        {
          "authorId": "2301795220",
          "name": "Jun Li"
        },
        {
          "authorId": "2304070295",
          "name": "Xiaohan Yang"
        },
        {
          "authorId": "2304378945",
          "name": "Mengting Sun"
        }
      ]
    },
    {
      "paperId": "731072d24981b1f0700ed2cf5858a30e6980beda",
      "externalIds": {
        "DBLP": "journals/tgrs/LiWZCZL25",
        "DOI": "10.1109/TGRS.2025.3566399",
        "CorpusId": 278290057
      },
      "url": "https://www.semanticscholar.org/paper/731072d24981b1f0700ed2cf5858a30e6980beda",
      "title": "CapUBS: Capsule Network-Based Band Selection for Underwater Hyperspectral Imagery",
      "venue": "IEEE Transactions on Geoscience and Remote Sensing",
      "year": 2025,
      "referenceCount": 61,
      "citationCount": 5,
      "authors": [
        {
          "authorId": "2322456979",
          "name": "Qi Li"
        },
        {
          "authorId": "2358976123",
          "name": "Junwen Wang"
        },
        {
          "authorId": "2340702085",
          "name": "Xingyuan Zu"
        },
        {
          "authorId": "2342745263",
          "name": "Danyang Chen"
        },
        {
          "authorId": "2334227819",
          "name": "Ke Zhang"
        },
        {
          "authorId": "2322455540",
          "name": "Jinghua Li"
        }
      ]
    },
    {
      "paperId": "44ffec4e7b7b008380504d8d911b9990ca8bba36",
      "externalIds": {
        "DBLP": "phd/basesearch/Blanco24",
        "DOI": "10.20868/upm.thesis.81507",
        "CorpusId": 270571645
      },
      "url": "https://www.semanticscholar.org/paper/44ffec4e7b7b008380504d8d911b9990ca8bba36",
      "title": "Feature Subset Selection and Multi-dimensional Continuous-Time Bayesian Network Classifiers for Streaming Data",
      "venue": "",
      "year": 2024,
      "referenceCount": 0,
      "citationCount": 0,
      "authors": [
        {
          "authorId": "2134924434",
          "name": "Carlos Villa-Blanco"
        }
      ]
    },
    {
      "paperId": "c5fa4d9f8f537d6dfef20b5067876ccb58d4eff9",
      "externalIds": {
        "MAG": "2622801057",
        "DOI": "10.1007/s10661-017-6025-0",
        "CorpusId": 24122243,
        "PubMed": "28589457"
      },
      "url": "https://www.semanticscholar.org/paper/c5fa4d9f8f537d6dfef20b5067876ccb58d4eff9",
      "title": "Assessing the accuracy and stability of variable selection methods for random forest modeling in ecology",
      "venue": "Environmental Monitoring & Assessment",
      "year": 2017,
      "referenceCount": 46,
      "citationCount": 204,
      "authors": [
        {
          "authorId": "37478591",
          "name": "E. Fox"
        },
        {
          "authorId": "48086860",
          "name": "R. Hill"
        },
        {
          "authorId": "6209893",
          "name": "S. Leibowitz"
        },
        {
          "authorId": "1711878",
          "name": "A. Olsen"
        },
        {
          "authorId": "10013121",
          "name": "D. Thornbrugh"
        },
        {
          "authorId": "2110604022",
          "name": "Marc H. Weber"
        }
      ]
    }
  ]
}