{
  "total": 282,
  "offset": 0,
  "next": 10,
  "data": [
    {
      "paperId": "754dbc09783980f383e16b8728fb9c21a39bfff0",
      "externalIds": {
        "DBLP": "journals/corr/WangALB16",
        "MAG": "1883346539",
        "ArXiv": "1602.01024",
        "CorpusId": 14269196
      },
      "url": "https://www.semanticscholar.org/paper/754dbc09783980f383e16b8728fb9c21a39bfff0",
      "title": "On Deep Multi-View Representation Learning",
      "venue": "International Conference on Machine Learning",
      "year": 2015,
      "referenceCount": 91,
      "citationCount": 1022,
      "authors": [
        {
          "authorId": "1702290",
          "name": "Weiran Wang"
        },
        {
          "authorId": "144365054",
          "name": "R. Arora"
        },
        {
          "authorId": "2924113",
          "name": "Karen Livescu"
        },
        {
          "authorId": "1748118",
          "name": "J. Bilmes"
        }
      ]
    },
    {
      "paperId": "f83642ff18cc69715e33eae8e161366c8dfad37c",
      "externalIds": {
        "DBLP": "conf/ism/SeoKR15",
        "MAG": "2308097916",
        "DOI": "10.1109/ISM.2015.93",
        "CorpusId": 8386629
      },
      "url": "https://www.semanticscholar.org/paper/f83642ff18cc69715e33eae8e161366c8dfad37c",
      "title": "Pose-Robust and Discriminative Feature Representation by Multi-task Deep Learning for Multi-view Face Recognition",
      "venue": "IEEE International Symposium on Multimedia",
      "year": 2015,
      "referenceCount": 21,
      "citationCount": 5,
      "authors": [
        {
          "authorId": "1799216",
          "name": "Jeong-Jik Seo"
        },
        {
          "authorId": "2109581766",
          "name": "Hyungil Kim"
        },
        {
          "authorId": "7251290",
          "name": "Yong Man Ro"
        }
      ]
    },
    {
      "paperId": "9844d9bad8d499cf1e6ebcb95744f424e03418db",
      "externalIds": {
        "MAG": "2114079787",
        "DBLP": "conf/www/ElkahkySH15",
        "DOI": "10.1145/2736277.2741667",
        "CorpusId": 14936990
      },
      "url": "https://www.semanticscholar.org/paper/9844d9bad8d499cf1e6ebcb95744f424e03418db",
      "title": "A Multi-View Deep Learning Approach for Cross Domain User Modeling in Recommendation Systems",
      "venue": "The Web Conference",
      "year": 2015,
      "referenceCount": 33,
      "citationCount": 727,
      "authors": [
        {
          "authorId": "35309245",
          "name": "A. Elkahky"
        },
        {
          "authorId": "2157996254",
          "name": "Yang Song"
        },
        {
          "authorId": "144137069",
          "name": "Xiaodong He"
        }
      ]
    },
    {
      "paperId": "c87b75eb198b809598b7505e8cfbe9eeb36b38fc",
      "externalIds": {
        "MAG": "2033446283",
        "DBLP": "conf/mm/GuoWXZL15",
        "DOI": "10.1145/2733373.2806349",
        "CorpusId": 9041849
      },
      "url": "https://www.semanticscholar.org/paper/c87b75eb198b809598b7505e8cfbe9eeb36b38fc",
      "title": "Learning Multi-view Deep Features for Small Object Retrieval in Surveillance Scenarios",
      "venue": "ACM Multimedia",
      "year": 2015,
      "referenceCount": 20,
      "citationCount": 21,
      "authors": [
        {
          "authorId": "2313045",
          "name": "Haiyun Guo"
        },
        {
          "authorId": "49606029",
          "name": "Jinqiao Wang"
        },
        {
          "authorId": "145093159",
          "name": "Min Xu"
        },
        {
          "authorId": "143962510",
          "name": "Zhengjun Zha"
        },
        {
          "authorId": "1694235",
          "name": "Hanqing Lu"
        }
      ]
    },
    {
      "paperId": "1276f48c869c3c12a2fa02102c6a2a723c97a2dd",
      "externalIds": {
        "MAG": "2173160820",
        "DBLP": "journals/cgf/Xie0SLX015",
        "DOI": "10.1111/cgf.12740",
        "CorpusId": 13861810
      },
      "url": "https://www.semanticscholar.org/paper/1276f48c869c3c12a2fa02102c6a2a723c97a2dd",
      "title": "Projective Feature Learning for 3D Shapes with Multi‐View Depth Images",
      "venue": "Computer graphics forum (Print)",
      "year": 2015,
      "referenceCount": 37,
      "citationCount": 75,
      "authors": [
        {
          "authorId": "2765535",
          "name": "Zhige Xie"
        },
        {
          "authorId": "145264199",
          "name": "Kai Xu"
        },
        {
          "authorId": "2056959466",
          "name": "Wen Shan"
        },
        {
          "authorId": "1724542",
          "name": "Ligang Liu"
        },
        {
          "authorId": "2992810",
          "name": "Yueshan Xiong"
        },
        {
          "authorId": "30605738",
          "name": "Hui Huang"
        }
      ]
    },
    {
      "paperId": "dd335cdfe926fa06e4a3f9d387902fc2035f2ce0",
      "externalIds": {
        "MAG": "2000810902",
        "DBLP": "journals/isci/XiaZXSL15",
        "DOI": "10.1016/j.ins.2015.01.038",
        "CorpusId": 38397847
      },
      "url": "https://www.semanticscholar.org/paper/dd335cdfe926fa06e4a3f9d387902fc2035f2ce0",
      "title": "Recognizing multi-view objects with occlusions using a deep architecture",
      "venue": "Information Sciences",
      "year": 2015,
      "referenceCount": 41,
      "citationCount": 13,
      "authors": [
        {
          "authorId": "1780668",
          "name": "Yingjie Xia"
        },
        {
          "authorId": "1763785",
          "name": "Luming Zhang"
        },
        {
          "authorId": "2382725665",
          "name": "Weiwei Xu"
        },
        {
          "authorId": "1799690",
          "name": "Zhenyu Shan"
        },
        {
          "authorId": "2117416965",
          "name": "Yuncai Liu"
        }
      ]
    },
    {
      "paperId": "43b19c7bd2379a98b4b5f4db900f4a3dcd76b59a",
      "externalIds": {
        "CorpusId": 197631968
      },
      "url": "https://www.semanticscholar.org/paper/43b19c7bd2379a98b4b5f4db900f4a3dcd76b59a",
      "title": "Survey of Multiview Representation Learning Techniques",
      "venue": "",
      "year": 2015,
      "referenceCount": 13,
      "citationCount": 0,
      "authors": [
        {
          "authorId": "31917388",
          "name": "Corbin Rosset"
        }
      ]
    },
    {
      "paperId": "23d2bbd4722840be8b9912225ba90c057fb9d21e",
      "externalIds": {
        "MAG": "2962843368",
        "ArXiv": "1508.01983",
        "DBLP": "journals/corr/BakryEEE15",
        "CorpusId": 492235
      },
      "url": "https://www.semanticscholar.org/paper/23d2bbd4722840be8b9912225ba90c057fb9d21e",
      "title": "Digging Deep into the Layers of CNNs: In Search of How CNNs Achieve View Invariance",
      "venue": "International Conference on Learning Representations",
      "year": 2015,
      "referenceCount": 32,
      "citationCount": 30,
      "authors": [
        {
          "authorId": "145823936",
          "name": "A. Bakry"
        },
        {
          "authorId": "2257193024",
          "name": "Mohamed Elhoseiny"
        },
        {
          "authorId": "1403837151",
          "name": "Tarek El-Gaaly"
        },
        {
          "authorId": "145159523",
          "name": "A. Elgammal"
        }
      ]
    },
    {
      "paperId": "28bd6898a9b28935d6db411e88a1bee3be5a2539",
      "externalIds": {
        "DBLP": "conf/mir/PangN15",
        "MAG": "2056907797",
        "DOI": "10.1145/2671188.2749400",
        "CorpusId": 17046669
      },
      "url": "https://www.semanticscholar.org/paper/28bd6898a9b28935d6db411e88a1bee3be5a2539",
      "title": "Mutlimodal Learning with Deep Boltzmann Machine for Emotion Prediction in User Generated Videos",
      "venue": "International Conference on Multimedia Retrieval",
      "year": 2015,
      "referenceCount": 15,
      "citationCount": 36,
      "authors": [
        {
          "authorId": "2065321326",
          "name": "Lei Pang"
        },
        {
          "authorId": "143977389",
          "name": "C. Ngo"
        }
      ]
    },
    {
      "paperId": "bfa8bda5679655200cf01ebf5423bf005ad173ef",
      "externalIds": {
        "MAG": "2951059559",
        "ArXiv": "1510.02054",
        "DBLP": "journals/corr/WangALS15",
        "DOI": "10.1109/ALLERTON.2015.7447071",
        "CorpusId": 6419793
      },
      "url": "https://www.semanticscholar.org/paper/bfa8bda5679655200cf01ebf5423bf005ad173ef",
      "title": "Stochastic optimization for deep CCA via nonlinear orthogonal iterations",
      "venue": "Allerton Conference on Communication, Control, and Computing",
      "year": 2015,
      "referenceCount": 61,
      "citationCount": 68,
      "authors": [
        {
          "authorId": "1702290",
          "name": "Weiran Wang"
        },
        {
          "authorId": "144365054",
          "name": "R. Arora"
        },
        {
          "authorId": "2924113",
          "name": "Karen Livescu"
        },
        {
          "authorId": "1706280",
          "name": "N. Srebro"
        }
      ]
    }
  ]
}