{
  "total": 50,
  "offset": 0,
  "next": 10,
  "data": [
    {
      "paperId": "584ac6bfd7632d26eb92f251238055ca20c067f3",
      "externalIds": {
        "DBLP": "conf/icml/LiWPA16",
        "MAG": "2415825185",
        "CorpusId": 9817813
      },
      "url": "https://www.semanticscholar.org/paper/584ac6bfd7632d26eb92f251238055ca20c067f3",
      "title": "Conditional Bernoulli Mixtures for Multi-label Classification",
      "venue": "International Conference on Machine Learning",
      "year": 2016,
      "referenceCount": 43,
      "citationCount": 53,
      "authors": [
        {
          "authorId": "145219645",
          "name": "Cheng Li"
        },
        {
          "authorId": "46270225",
          "name": "Bingyu Wang"
        },
        {
          "authorId": "1682491",
          "name": "Virgil Pavlu"
        },
        {
          "authorId": "1737902",
          "name": "J. Aslam"
        }
      ]
    },
    {
      "paperId": "110ff05dd20be8164acc7fb1ed4049b8b3906936",
      "externalIds": {
        "DBLP": "journals/mlc/ZhaoQS22",
        "DOI": "10.1007/s13042-021-01467-6",
        "CorpusId": 245773683
      },
      "url": "https://www.semanticscholar.org/paper/110ff05dd20be8164acc7fb1ed4049b8b3906936",
      "title": "Multi-view multi-label active learning with conditional Bernoulli mixtures",
      "venue": "International Journal of Machine Learning and Cybernetics",
      "year": 2022,
      "referenceCount": 23,
      "citationCount": 2,
      "authors": [
        {
          "authorId": "46509200",
          "name": "Jing Zhao"
        },
        {
          "authorId": "2150449933",
          "name": "Zengyu Qiu"
        },
        {
          "authorId": "20632291",
          "name": "Shiliang Sun"
        }
      ]
    },
    {
      "paperId": "8a069ee8ee36ab0b4ec3bce93d7febd6f52fb737",
      "externalIds": {
        "DBLP": "conf/pricai/ChenSZ18",
        "MAG": "2883455356",
        "DOI": "10.1007/978-3-319-97304-3_73",
        "CorpusId": 51881703
      },
      "url": "https://www.semanticscholar.org/paper/8a069ee8ee36ab0b4ec3bce93d7febd6f52fb737",
      "title": "Multi-label Active Learning with Conditional Bernoulli Mixtures",
      "venue": "Pacific Rim International Conference on Artificial Intelligence",
      "year": 2018,
      "referenceCount": 25,
      "citationCount": 6,
      "authors": [
        {
          "authorId": "2115297019",
          "name": "Junyu Chen"
        },
        {
          "authorId": "20632291",
          "name": "Shiliang Sun"
        },
        {
          "authorId": null,
          "name": "Jing Zhao"
        }
      ]
    },
    {
      "paperId": "825b154818dd8f60777af961fdc04ca6e7f5a72c",
      "externalIds": {
        "CorpusId": 212529810
      },
      "url": "https://www.semanticscholar.org/paper/825b154818dd8f60777af961fdc04ca6e7f5a72c",
      "title": "Multi Label Document classification approach using Machine Learning Techniques: A Survey",
      "venue": "",
      "year": 2018,
      "referenceCount": 10,
      "citationCount": 1,
      "authors": [
        {
          "authorId": "73002300",
          "name": "Priyanka Sonawane"
        },
        {
          "authorId": "2285912835",
          "name": "M. Prof.Pramila"
        },
        {
          "authorId": "2285913815",
          "name": "Chawan"
        }
      ]
    },
    {
      "paperId": "1faa3a78fcc54d63d7c55aa839d6ef83b7a2d833",
      "externalIds": {
        "MAG": "2802161563",
        "DOI": "10.5120/IJCA2018916892",
        "CorpusId": 53337194
      },
      "url": "https://www.semanticscholar.org/paper/1faa3a78fcc54d63d7c55aa839d6ef83b7a2d833",
      "title": "New Approach for Joint Multilabel Classification with Community-Aware Label Graph Learning Technique",
      "venue": "",
      "year": 2018,
      "referenceCount": 5,
      "citationCount": 0,
      "authors": [
        {
          "authorId": "2058305446",
          "name": "D. Rajan"
        }
      ]
    },
    {
      "paperId": "a82a13dd5a22e72649b1a98284e7b368af800200",
      "externalIds": {
        "CorpusId": 212516938
      },
      "url": "https://www.semanticscholar.org/paper/a82a13dd5a22e72649b1a98284e7b368af800200",
      "title": "To Study Statistical Interfacing using Knowledge Base and Knowledge Graph",
      "venue": "",
      "year": 2017,
      "referenceCount": 10,
      "citationCount": 0,
      "authors": [
        {
          "authorId": "2058305446",
          "name": "D. Rajan"
        },
        {
          "authorId": "2287197489",
          "name": "Prof. R. V. Argiddi"
        },
        {
          "authorId": "2286958253",
          "name": "P. Student"
        }
      ]
    },
    {
      "paperId": "30d8d41d5551031ba5f7d64b0fb9ae130913a94c",
      "externalIds": {
        "DBLP": "journals/corr/abs-2307-09066",
        "ArXiv": "2307.09066",
        "DOI": "10.1109/ICCV51070.2023.01408",
        "CorpusId": 259951109
      },
      "url": "https://www.semanticscholar.org/paper/30d8d41d5551031ba5f7d64b0fb9ae130913a94c",
      "title": "PatchCT: Aligning Patch Set and Label Set with Conditional Transport for Multi-Label Image Classification",
      "venue": "IEEE International Conference on Computer Vision",
      "year": 2023,
      "referenceCount": 67,
      "citationCount": 30,
      "authors": [
        {
          "authorId": null,
          "name": "Miaoge Li"
        },
        {
          "authorId": "2111243103",
          "name": "Dongsheng Wang"
        },
        {
          "authorId": "2155562050",
          "name": "Xinyang Liu"
        },
        {
          "authorId": "2090399851",
          "name": "Zequn Zeng"
        },
        {
          "authorId": "1450708782",
          "name": "Ruiying Lu"
        },
        {
          "authorId": "2152689066",
          "name": "Bo Chen"
        },
        {
          "authorId": "38026572",
          "name": "Mingyuan Zhou"
        }
      ]
    },
    {
      "paperId": "60c45d99882f4e7d3a994768c5973d00bbc24c87",
      "externalIds": {
        "DBLP": "journals/pami/SunZ21",
        "MAG": "3007788930",
        "DOI": "10.1109/tpami.2020.2974203",
        "CorpusId": 211229758,
        "PubMed": "32078533"
      },
      "url": "https://www.semanticscholar.org/paper/60c45d99882f4e7d3a994768c5973d00bbc24c87",
      "title": "LCBM: A Multi-View Probabilistic Model for Multi-Label Classification",
      "venue": "IEEE Transactions on Pattern Analysis and Machine Intelligence",
      "year": 2020,
      "referenceCount": 0,
      "citationCount": 37,
      "authors": [
        {
          "authorId": "20632291",
          "name": "Shiliang Sun"
        },
        {
          "authorId": "1500549159",
          "name": "Daoming Zong"
        }
      ]
    },
    {
      "paperId": "52e038f4e9604c0ddc82e196d732656bf5cd65f6",
      "externalIds": {
        "DBLP": "conf/nips/ShiYY21",
        "CorpusId": 247545970
      },
      "url": "https://www.semanticscholar.org/paper/52e038f4e9604c0ddc82e196d732656bf5cd65f6",
      "title": "A Gaussian Process-Bayesian Bernoulli Mixture Model for Multi-Label Active Learning",
      "venue": "Neural Information Processing Systems",
      "year": 2021,
      "referenceCount": 29,
      "citationCount": 10,
      "authors": [
        {
          "authorId": "19183348",
          "name": "Weishi Shi"
        },
        {
          "authorId": "48217829",
          "name": "Dayou Yu"
        },
        {
          "authorId": "2087411179",
          "name": "Qi Yu"
        }
      ]
    },
    {
      "paperId": "fdc6738d96511e114a60b0a2f95c142a3def086c",
      "externalIds": {
        "MAG": "2103166887",
        "DBLP": "conf/cikm/HongBH14",
        "DOI": "10.1145/2661829.2661989",
        "CorpusId": 7631131,
        "PubMed": "25927011"
      },
      "url": "https://www.semanticscholar.org/paper/fdc6738d96511e114a60b0a2f95c142a3def086c",
      "title": "A Mixtures-of-Trees Framework for Multi-Label Classification",
      "venue": "International Conference on Information and Knowledge Management",
      "year": 2014,
      "referenceCount": 45,
      "citationCount": 14,
      "authors": [
        {
          "authorId": "2889409",
          "name": "Charmgil Hong"
        },
        {
          "authorId": "2715262",
          "name": "Iyad Batal"
        },
        {
          "authorId": "1731761",
          "name": "M. Hauskrecht"
        }
      ]
    }
  ]
}