{
  "total": 10288,
  "offset": 0,
  "next": 10,
  "data": [
    {
      "paperId": "b3e628588c7be45776cbe72c5c2afe2fe386f8a7",
      "externalIds": {
        "MAG": "1837107809",
        "DBLP": "conf/icml/HuHDX15",
        "CorpusId": 17672767
      },
      "url": "https://www.semanticscholar.org/paper/b3e628588c7be45776cbe72c5c2afe2fe386f8a7",
      "title": "Large-scale Distributed Dependent Nonparametric Trees",
      "venue": "International Conference on Machine Learning",
      "year": 2015,
      "referenceCount": 29,
      "citationCount": 11,
      "authors": [
        {
          "authorId": "2749311",
          "name": "Zhiting Hu"
        },
        {
          "authorId": "1707357",
          "name": "Qirong Ho"
        },
        {
          "authorId": "89890133",
          "name": "Kumar Avinava Dubey"
        },
        {
          "authorId": "143977260",
          "name": "E. Xing"
        }
      ]
    },
    {
      "paperId": "d53bf390f997508c27789abd6dc121d9e9639994",
      "externalIds": {
        "CorpusId": 15141872
      },
      "url": "https://www.semanticscholar.org/paper/d53bf390f997508c27789abd6dc121d9e9639994",
      "title": "Large-scale Distributed Dependent Nonparametric Trees : Supplementary Material 1 Variational inference for Dependent Nonparametric Trees",
      "venue": "",
      "year": null,
      "referenceCount": 4,
      "citationCount": 0,
      "authors": []
    },
    {
      "paperId": "ec00a34af46dd3b37342677b7ecd5f078889b190",
      "externalIds": {
        "DBLP": "journals/access/UdayaprasadJSKPAA24",
        "DOI": "10.1109/ACCESS.2023.3346679",
        "CorpusId": 266737436
      },
      "url": "https://www.semanticscholar.org/paper/ec00a34af46dd3b37342677b7ecd5f078889b190",
      "title": "Energy Efficient Optimized Routing Technique With Distributed SDN-AI to Large Scale I-IoT Networks",
      "venue": "IEEE Access",
      "year": 2024,
      "referenceCount": 41,
      "citationCount": 49,
      "authors": [
        {
          "authorId": "2090301169",
          "name": "P. K. Udayaprasad"
        },
        {
          "authorId": "79874582",
          "name": "J. Shreyas"
        },
        {
          "authorId": "2265605043",
          "name": "N. N. Srinidhi"
        },
        {
          "authorId": "2267877725",
          "name": "S. M. D. Kumar"
        },
        {
          "authorId": "2265606165",
          "name": "P. Dayananda"
        },
        {
          "authorId": "2278961427",
          "name": "I. S. S. A. Senior Member"
        },
        {
          "authorId": "2238681518",
          "name": "M. Abouhawwash"
        }
      ]
    },
    {
      "paperId": "773c8dce9e1a9c19b12a507f9173579471b3163d",
      "externalIds": {
        "DOI": "10.1007/s10614-023-10541-w",
        "CorpusId": 267132448
      },
      "url": "https://www.semanticscholar.org/paper/773c8dce9e1a9c19b12a507f9173579471b3163d",
      "title": "Dynamic Return Scenario Generation Approach for Large-Scale Portfolio Optimisation Framework",
      "venue": "Computational Economics",
      "year": 2024,
      "referenceCount": 57,
      "citationCount": 7,
      "authors": [
        {
          "authorId": "2254084737",
          "name": "David Neděla"
        },
        {
          "authorId": "1696435063",
          "name": "Sergio Ortobelli Lozza"
        },
        {
          "authorId": "2279991706",
          "name": "Tomás Tichý"
        }
      ]
    },
    {
      "paperId": "a2138ba39640a97407180d3661786fd4e9f4dbcf",
      "externalIds": {
        "DBLP": "journals/jmlr/0016SW23",
        "ArXiv": "2106.02475",
        "CorpusId": 235352989
      },
      "url": "https://www.semanticscholar.org/paper/a2138ba39640a97407180d3661786fd4e9f4dbcf",
      "title": "Distributed Nonparametric Regression Imputation for Missing Response Problems with Large-scale Data",
      "venue": "Journal of machine learning research",
      "year": 2021,
      "referenceCount": 39,
      "citationCount": 5,
      "authors": [
        {
          "authorId": "144570917",
          "name": "Ruoyu Wang"
        },
        {
          "authorId": "94400598",
          "name": "Miaomiao Su"
        },
        {
          "authorId": "2243274046",
          "name": "Qihua Wang"
        }
      ]
    },
    {
      "paperId": "87e3aebef34466c443b39174fda4f10bd2d237bd",
      "externalIds": {
        "MAG": "3023270185",
        "DBLP": "journals/ijcomsys/YalcinE20",
        "DOI": "10.1002/dac.4449",
        "CorpusId": 218950500
      },
      "url": "https://www.semanticscholar.org/paper/87e3aebef34466c443b39174fda4f10bd2d237bd",
      "title": "A mobile sink path planning for wireless sensor networks based on priority‐ordered dependent nonparametric trees",
      "venue": "International Journal of Communication Systems",
      "year": 2020,
      "referenceCount": 40,
      "citationCount": 13,
      "authors": [
        {
          "authorId": "1410302996",
          "name": "S. Yalçın"
        },
        {
          "authorId": "9106474",
          "name": "E. Erdem"
        }
      ]
    },
    {
      "paperId": "9ed2a8d17c86addf32b6be9b818ae417360bcace",
      "externalIds": {
        "DBLP": "journals/tinstmc/BijamiF19",
        "MAG": "2803610836",
        "DOI": "10.1177/0142331218770493",
        "CorpusId": 125365882
      },
      "url": "https://www.semanticscholar.org/paper/9ed2a8d17c86addf32b6be9b818ae417360bcace",
      "title": "A distributed control framework and delay-dependent stability analysis for large-scale networked control systems with non-ideal communication network",
      "venue": "Transactions of the Institute of Measurement and Control",
      "year": 2019,
      "referenceCount": 35,
      "citationCount": 17,
      "authors": [
        {
          "authorId": "2983222",
          "name": "E. Bijami"
        },
        {
          "authorId": "2044289",
          "name": "M. Farsangi"
        }
      ]
    },
    {
      "paperId": "7ade5fa84ccf30b252237c905534415a00e689c6",
      "externalIds": {
        "DBLP": "conf/ldav/LiCRWW25",
        "ArXiv": "2508.08433",
        "DOI": "10.1109/LDAV68558.2025.00005",
        "CorpusId": 280635264
      },
      "url": "https://www.semanticscholar.org/paper/7ade5fa84ccf30b252237c905534415a00e689c6",
      "title": "Extremely Scalable Distributed Computation of Contour Trees via Pre-Simplification",
      "venue": "IEEE Symposium on Large Data Analysis and Visualization",
      "year": 2025,
      "referenceCount": 43,
      "citationCount": 0,
      "authors": [
        {
          "authorId": "2315849337",
          "name": "Mingzhe Li"
        },
        {
          "authorId": "2239150009",
          "name": "H. Carr"
        },
        {
          "authorId": "2411142",
          "name": "O. Rübel"
        },
        {
          "authorId": "2315864567",
          "name": "Bei Wang"
        },
        {
          "authorId": "2261379791",
          "name": "Gunther H. Weber"
        }
      ]
    },
    {
      "paperId": "6ac8e0915df41692bdceef7f18bc1c50271630fc",
      "externalIds": {
        "ArXiv": "2105.10305",
        "DBLP": "conf/cvpr/CollierMKJB21",
        "DOI": "10.1109/CVPR46437.2021.00160",
        "CorpusId": 235125640
      },
      "url": "https://www.semanticscholar.org/paper/6ac8e0915df41692bdceef7f18bc1c50271630fc",
      "title": "Correlated Input-Dependent Label Noise in Large-Scale Image Classification",
      "venue": "Computer Vision and Pattern Recognition",
      "year": 2021,
      "referenceCount": 49,
      "citationCount": 61,
      "authors": [
        {
          "authorId": "153247100",
          "name": "Mark Collier"
        },
        {
          "authorId": "40608942",
          "name": "Basil Mustafa"
        },
        {
          "authorId": "50733717",
          "name": "Efi Kokiopoulou"
        },
        {
          "authorId": "2068720",
          "name": "Rodolphe Jenatton"
        },
        {
          "authorId": "6367313",
          "name": "Jesse Berent"
        }
      ]
    },
    {
      "paperId": "cdabe5ae6d7227596980820dfd75da6cf678193b",
      "externalIds": {
        "MAG": "2803786335",
        "DOI": "10.20378/irbo-50998",
        "CorpusId": 196153168
      },
      "url": "https://www.semanticscholar.org/paper/cdabe5ae6d7227596980820dfd75da6cf678193b",
      "title": "The application of nonparametric data augmentation and imputation using classification and regression trees within a large-scale panel study",
      "venue": "",
      "year": 2017,
      "referenceCount": 117,
      "citationCount": 1,
      "authors": [
        {
          "authorId": "2876187",
          "name": "Solange Goßmann"
        }
      ]
    }
  ]
}