{
  "total": 345,
  "offset": 0,
  "next": 10,
  "data": [
    {
      "paperId": "933c2c0af85f54e24708c86ebb4120a0817ca115",
      "externalIds": {
        "MAG": "2131539061",
        "DBLP": "conf/icml/LibbrechtHBN15",
        "CorpusId": 14566160,
        "PubMed": "39483441"
      },
      "url": "https://www.semanticscholar.org/paper/933c2c0af85f54e24708c86ebb4120a0817ca115",
      "title": "Entropic Graph-based Posterior Regularization",
      "venue": "International Conference on Machine Learning",
      "year": 2015,
      "referenceCount": 32,
      "citationCount": 7,
      "authors": [
        {
          "authorId": "2342524",
          "name": "Maxwell W. Libbrecht"
        },
        {
          "authorId": "35290352",
          "name": "M. M. Hoffman"
        },
        {
          "authorId": "1748118",
          "name": "J. Bilmes"
        },
        {
          "authorId": "144458655",
          "name": "William Stafford Noble"
        }
      ]
    },
    {
      "paperId": "f884f902861e7df05d54bf6c83fda108b0acf11a",
      "externalIds": {
        "CorpusId": 35746666
      },
      "url": "https://www.semanticscholar.org/paper/f884f902861e7df05d54bf6c83fda108b0acf11a",
      "title": "Entropic Graph-based Posterior Regularization for Learning Probabilistic Models",
      "venue": "",
      "year": 2013,
      "referenceCount": 15,
      "citationCount": 0,
      "authors": [
        {
          "authorId": "2342524",
          "name": "Maxwell W. Libbrecht"
        }
      ]
    },
    {
      "paperId": "8fcc0b53e68f19d96ec7df1ec48ba3a92ff6c04e",
      "externalIds": {
        "DBLP": "phd/us/Libbrecht16",
        "MAG": "2590141933",
        "CorpusId": 125323626
      },
      "url": "https://www.semanticscholar.org/paper/8fcc0b53e68f19d96ec7df1ec48ba3a92ff6c04e",
      "title": "Understanding human genome regulation through entropic graph-based regularization and submodular optimization",
      "venue": "",
      "year": 2016,
      "referenceCount": 185,
      "citationCount": 2,
      "authors": [
        {
          "authorId": "2342524",
          "name": "Maxwell W. Libbrecht"
        }
      ]
    },
    {
      "paperId": "01fa67ac73e0e1de98b5ad22cb88c48bc9d8cc9f",
      "externalIds": {
        "DBLP": "conf/conll/HeGT13",
        "ACL": "W13-3505",
        "MAG": "2099048402",
        "CorpusId": 905283
      },
      "url": "https://www.semanticscholar.org/paper/01fa67ac73e0e1de98b5ad22cb88c48bc9d8cc9f",
      "title": "Graph-Based Posterior Regularization for Semi-Supervised Structured Prediction",
      "venue": "Conference on Computational Natural Language Learning",
      "year": 2013,
      "referenceCount": 25,
      "citationCount": 18,
      "authors": [
        {
          "authorId": "2265599",
          "name": "Luheng He"
        },
        {
          "authorId": "144340937",
          "name": "Jennifer Gillenwater"
        },
        {
          "authorId": "1685978",
          "name": "B. Taskar"
        }
      ]
    },
    {
      "paperId": "2fad52eb691624c68cc70464b20537f2e0bf1f9a",
      "externalIds": {
        "DBLP": "journals/corr/ThulasidasanB16",
        "ArXiv": "1612.04899",
        "MAG": "2564801728",
        "CorpusId": 14906056
      },
      "url": "https://www.semanticscholar.org/paper/2fad52eb691624c68cc70464b20537f2e0bf1f9a",
      "title": "Semi-Supervised Phone Classification using Deep Neural Networks and Stochastic Graph-Based Entropic Regularization",
      "venue": "arXiv.org",
      "year": 2016,
      "referenceCount": 32,
      "citationCount": 4,
      "authors": [
        {
          "authorId": "1780360",
          "name": "S. Thulasidasan"
        },
        {
          "authorId": "1748118",
          "name": "J. Bilmes"
        }
      ]
    },
    {
      "paperId": "69236f6c7a160e35d709126f8e40f76fe756e63c",
      "externalIds": {
        "DBLP": "conf/aaai/LiYL25",
        "DOI": "10.1609/aaai.v39i11.33319",
        "CorpusId": 277756041
      },
      "url": "https://www.semanticscholar.org/paper/69236f6c7a160e35d709126f8e40f76fe756e63c",
      "title": "Context-aware Graph Neural Network for Graph-based Fraud Detection with Extremely Limited Labels",
      "venue": "AAAI Conference on Artificial Intelligence",
      "year": 2025,
      "referenceCount": 0,
      "citationCount": 14,
      "authors": [
        {
          "authorId": "2308998502",
          "name": "Pengbo Li"
        },
        {
          "authorId": "2178722796",
          "name": "Hang Yu"
        },
        {
          "authorId": "2289801877",
          "name": "Xiangfeng Luo"
        }
      ]
    },
    {
      "paperId": "0353721e3e085eb04e40762a7f6051927f56eb54",
      "externalIds": {
        "DBLP": "journals/staeors/GeFYQRWG25",
        "DOI": "10.1109/JSTARS.2025.3582647",
        "CorpusId": 279638281
      },
      "url": "https://www.semanticscholar.org/paper/0353721e3e085eb04e40762a7f6051927f56eb54",
      "title": "Infrared Small Target Detection Based on Approximate Background Regularization and Bimodal Slice Based Graph Constraints",
      "venue": "IEEE Journal of Selected Topics in Applied Earth Observations and Remote Sensing",
      "year": 2025,
      "referenceCount": 68,
      "citationCount": 0,
      "authors": [
        {
          "authorId": "2331906859",
          "name": "Xiaoling Ge"
        },
        {
          "authorId": "2332046199",
          "name": "Zipeng Fu"
        },
        {
          "authorId": "2370149089",
          "name": "Xuelian Yu"
        },
        {
          "authorId": "2292453411",
          "name": "Weixian Qian"
        },
        {
          "authorId": "2275196793",
          "name": "Kan Ren"
        },
        {
          "authorId": "23670363",
          "name": "Minjie Wan"
        },
        {
          "authorId": "2363961280",
          "name": "Guohua Gu"
        }
      ]
    },
    {
      "paperId": "4f428d766cbdb7c8c3278655eb10065f0e285344",
      "externalIds": {
        "DOI": "10.1109/JSEN.2024.3523323",
        "CorpusId": 275497448
      },
      "url": "https://www.semanticscholar.org/paper/4f428d766cbdb7c8c3278655eb10065f0e285344",
      "title": "A Novel Compound Fault Diagnosis Method for Rotating Machinery Based on Dynamic Adaptive MWPE and Dual-Graph Regularization Strategy",
      "venue": "IEEE Sensors Journal",
      "year": 2025,
      "referenceCount": 48,
      "citationCount": 1,
      "authors": [
        {
          "authorId": "2256597189",
          "name": "Wei Zhang"
        },
        {
          "authorId": "2276136881",
          "name": "Jialong He"
        },
        {
          "authorId": "2136061844",
          "name": "Guofa Li"
        },
        {
          "authorId": "2254839345",
          "name": "Jin-xing Wei"
        }
      ]
    },
    {
      "paperId": "b5cc810822000d8cb189b5b4b347011181ea82ed",
      "externalIds": {
        "DOI": "10.1109/icassp55912.2026.11460961",
        "CorpusId": 287695109
      },
      "url": "https://www.semanticscholar.org/paper/b5cc810822000d8cb189b5b4b347011181ea82ed",
      "title": "A Multi-Prototypes Graph-Based Clustering Algorithm with Entropy Regularization",
      "venue": "IEEE International Conference on Acoustics, Speech, and Signal Processing",
      "year": 2026,
      "referenceCount": 12,
      "citationCount": 0,
      "authors": [
        {
          "authorId": "2302413922",
          "name": "Liaoyuan Tang"
        },
        {
          "authorId": "2279280167",
          "name": "Yu Duan"
        },
        {
          "authorId": null,
          "name": "Wenjie Zheng"
        },
        {
          "authorId": "2273637102",
          "name": "Xianglong Jin"
        },
        {
          "authorId": "2350023117",
          "name": "Rong Wang"
        },
        {
          "authorId": "2255353370",
          "name": "Zheng Wang"
        },
        {
          "authorId": "2376692964",
          "name": "Feiping Nie"
        }
      ]
    },
    {
      "paperId": "ddbb59f5a972a953448f7d6feb8fd27a3915e4a0",
      "externalIds": {
        "ArXiv": "2502.09889",
        "DBLP": "conf/ifaamas/KailasJR25",
        "DOI": "10.48550/arXiv.2502.09889",
        "CorpusId": 276394821
      },
      "url": "https://www.semanticscholar.org/paper/ddbb59f5a972a953448f7d6feb8fd27a3915e4a0",
      "title": "Evaluating and Improving Graph-based Explanation Methods for Multi-Agent Coordination",
      "venue": "Adaptive Agents and Multi-Agent Systems",
      "year": 2025,
      "referenceCount": 0,
      "citationCount": 1,
      "authors": [
        {
          "authorId": "116646048",
          "name": "Siva Kailas"
        },
        {
          "authorId": "2339727283",
          "name": "Shalin Jain"
        },
        {
          "authorId": "2138933",
          "name": "H. Ravichandar"
        }
      ]
    }
  ]
}