{
  "total": 11,
  "offset": 0,
  "next": 10,
  "data": [
    {
      "paperId": "94cd3445ba69b80253de533a76c4de8ed7bc19c3",
      "externalIds": {
        "MAG": "1956916606",
        "DBLP": "conf/icml/LiuHW15",
        "CorpusId": 355132
      },
      "url": "https://www.semanticscholar.org/paper/94cd3445ba69b80253de533a76c4de8ed7bc19c3",
      "title": "Non-Linear Cross-Domain Collaborative Filtering via Hyper-Structure Transfer",
      "venue": "International Conference on Machine Learning",
      "year": 2015,
      "referenceCount": 27,
      "citationCount": 28,
      "authors": [
        {
          "authorId": "46399869",
          "name": "Yan-Fu Liu"
        },
        {
          "authorId": "2916141",
          "name": "Cheng-Yu Hsu"
        },
        {
          "authorId": "1743036",
          "name": "Shan-Hung Wu"
        }
      ]
    },
    {
      "paperId": "07ba59aa82b263008541dee954cb3c857787b3a4",
      "externalIds": {
        "ArXiv": "1908.06169",
        "DBLP": "journals/corr/abs-1908-06169",
        "MAG": "2966986717",
        "CorpusId": 201070469
      },
      "url": "https://www.semanticscholar.org/paper/07ba59aa82b263008541dee954cb3c857787b3a4",
      "title": "Cross-Domain Collaborative Filtering via Translation-based Learning",
      "venue": "arXiv.org",
      "year": 2019,
      "referenceCount": 19,
      "citationCount": 0,
      "authors": [
        {
          "authorId": "3120333",
          "name": "Dimitrios Rafailidis"
        }
      ]
    },
    {
      "paperId": "fb5ea055893679a6f1ae575383a954e5dbf9e65e",
      "externalIds": {
        "MAG": "2955434714",
        "DBLP": "journals/corr/abs-1907-01645",
        "ArXiv": "1907.01645",
        "CorpusId": 195791556
      },
      "url": "https://www.semanticscholar.org/paper/fb5ea055893679a6f1ae575383a954e5dbf9e65e",
      "title": "Adaptive Deep Learning of Cross-Domain Loss in Collaborative Filtering",
      "venue": "arXiv.org",
      "year": 2019,
      "referenceCount": 40,
      "citationCount": 1,
      "authors": [
        {
          "authorId": "3120333",
          "name": "Dimitrios Rafailidis"
        },
        {
          "authorId": "50284247",
          "name": "Gerhard Weiss"
        }
      ]
    },
    {
      "paperId": "1a82ba5ccd88ed4658e2818fb9bd6f07688d1a2b",
      "externalIds": {
        "DBLP": "journals/access/KhanILJ23",
        "DOI": "10.1109/ACCESS.2023.3307015",
        "CorpusId": 261136849
      },
      "url": "https://www.semanticscholar.org/paper/1a82ba5ccd88ed4658e2818fb9bd6f07688d1a2b",
      "title": "CrossDomain Recommendation Based on MetaData Using Graph Convolution Networks",
      "venue": "IEEE Access",
      "year": 2023,
      "referenceCount": 44,
      "citationCount": 4,
      "authors": [
        {
          "authorId": "2106334719",
          "name": "R. Khan"
        },
        {
          "authorId": "2740595",
          "name": "N. Iltaf"
        },
        {
          "authorId": "2692781",
          "name": "R. Latif"
        },
        {
          "authorId": "3186993",
          "name": "Nor Shahida Mohd Jamail"
        }
      ]
    },
    {
      "paperId": "a7437d5429446f137b39ca3d3e0d145d9a162535",
      "externalIds": {
        "MAG": "2766870845",
        "CorpusId": 130309587
      },
      "url": "https://www.semanticscholar.org/paper/a7437d5429446f137b39ca3d3e0d145d9a162535",
      "title": "Hyper-Resolution Global Land Surface Model at Regional-to-Local Scales with observed Groundwater data assimilation",
      "venue": "",
      "year": 2014,
      "referenceCount": 0,
      "citationCount": 0,
      "authors": [
        {
          "authorId": "2115743880",
          "name": "R. Singh"
        }
      ]
    },
    {
      "paperId": "c61d74519290ab66ad76b28b7d67da2808419bfa",
      "externalIds": {
        "MAG": "1605957057",
        "DBLP": "conf/pricai/2008",
        "DOI": "10.1007/978-3-540-89197-0",
        "CorpusId": 21281289
      },
      "url": "https://www.semanticscholar.org/paper/c61d74519290ab66ad76b28b7d67da2808419bfa",
      "title": "PRICAI 2008: Trends in Artificial Intelligence, 10th Pacific Rim International Conference on Artificial Intelligence, Hanoi, Vietnam, December 15-19, 2008. Proceedings",
      "venue": "Pacific Rim International Conference on Artificial Intelligence",
      "year": 2008,
      "referenceCount": 0,
      "citationCount": 48,
      "authors": [
        {
          "authorId": "1719940",
          "name": "T. Ho"
        },
        {
          "authorId": "145624000",
          "name": "Zhi-Hua Zhou"
        }
      ]
    },
    {
      "paperId": "3763d060ba093d442b4372c2de79c8f474176acb",
      "externalIds": {
        "MAG": "2496923075",
        "DOI": "10.1007/978-1-4614-6546-1",
        "CorpusId": 124319519
      },
      "url": "https://www.semanticscholar.org/paper/3763d060ba093d442b4372c2de79c8f474176acb",
      "title": "Special topics in structural dynamics, volume 6 : proceedings of the 31st IMAC, a conference on structural dynamics, 2013",
      "venue": "",
      "year": 2013,
      "referenceCount": 0,
      "citationCount": 12,
      "authors": [
        {
          "authorId": "50818932",
          "name": "R. Allemang"
        },
        {
          "authorId": "66889470",
          "name": "J. D. Clerck"
        },
        {
          "authorId": "2472276",
          "name": "C. Niezrecki"
        },
        {
          "authorId": "101265329",
          "name": "A. Wicks"
        }
      ]
    },
    {
      "paperId": "c44282277216bf05e4912c8cc260d044795b9d4c",
      "externalIds": {
        "MAG": "1551570298",
        "CorpusId": 262218137
      },
      "url": "https://www.semanticscholar.org/paper/c44282277216bf05e4912c8cc260d044795b9d4c",
      "title": "Advances in information retrieval : 31th European Conference on IR Research, ECIR 2009, Toulouse, France, April 6-9, 2009 : proceedings",
      "venue": "",
      "year": 2009,
      "referenceCount": 0,
      "citationCount": 1,
      "authors": [
        {
          "authorId": "47506168",
          "name": "M. Boughanem"
        },
        {
          "authorId": "2244635319",
          "name": "Catherine Berrut"
        },
        {
          "authorId": "2244925223",
          "name": "J. Mothe"
        },
        {
          "authorId": "1390026099",
          "name": "C. Soulé-Dupuy"
        }
      ]
    },
    {
      "paperId": "310ed7386b3fcb1318106ee60e5e567d31d68aca",
      "externalIds": {
        "MAG": "2182124494",
        "CorpusId": 124627485
      },
      "url": "https://www.semanticscholar.org/paper/310ed7386b3fcb1318106ee60e5e567d31d68aca",
      "title": "The Carotid Bifurcation As A Blood Flow Pulsatility Low-Pass Filter Characterized by Magnetic Resonance Phase Contrast Flow Quantitation Methods",
      "venue": "",
      "year": 2001,
      "referenceCount": 0,
      "citationCount": 0,
      "authors": [
        {
          "authorId": "4191291",
          "name": "C. Hisley"
        },
        {
          "authorId": "2253037",
          "name": "M. NessAiver"
        }
      ]
    },
    {
      "paperId": "841a96cfb6def89925642fb892220cfdc8970559",
      "externalIds": {
        "MAG": "1512719150",
        "DBLP": "conf/pakdd/2009",
        "CorpusId": 261088182
      },
      "url": "https://www.semanticscholar.org/paper/841a96cfb6def89925642fb892220cfdc8970559",
      "title": "Advances in Knowledge Discovery and Data Mining, 13th Pacific-Asia Conference, PAKDD 2009, Bangkok, Thailand, April 27-30, 2009, Proceedings",
      "venue": "Pacific-Asia Conference on Knowledge Discovery and Data Mining",
      "year": 2009,
      "referenceCount": 0,
      "citationCount": 1,
      "authors": [
        {
          "authorId": "1751558",
          "name": "T. Theeramunkong"
        },
        {
          "authorId": "1683540",
          "name": "B. Kijsirikul"
        },
        {
          "authorId": "2245554487",
          "name": "Nick Cercone"
        },
        {
          "authorId": "2245007266",
          "name": "T. Ho"
        }
      ]
    }
  ]
}