{
  "total": 28,
  "offset": 0,
  "next": 10,
  "data": [
    {
      "paperId": "d01c557e5eec19ca5a730dc2b635dd7d2d6edd0c",
      "externalIds": {
        "MAG": "2951975570",
        "DBLP": "conf/icml/AsterisKDYC15",
        "ArXiv": "1506.02344",
        "CorpusId": 802764
      },
      "url": "https://www.semanticscholar.org/paper/d01c557e5eec19ca5a730dc2b635dd7d2d6edd0c",
      "title": "Stay on path: PCA along graph paths",
      "venue": "International Conference on Machine Learning",
      "year": 2015,
      "referenceCount": 22,
      "citationCount": 7,
      "authors": [
        {
          "authorId": "1813447",
          "name": "Megasthenis Asteris"
        },
        {
          "authorId": "3393746",
          "name": "Anastasios Kyrillidis"
        },
        {
          "authorId": "1718469",
          "name": "A. Dimakis"
        },
        {
          "authorId": "2821280",
          "name": "Han-Gyol Yi"
        },
        {
          "authorId": "1921912",
          "name": "B. Chandrasekaran"
        }
      ]
    },
    {
      "paperId": "c580587157da426c1324319962604d8b4525446e",
      "externalIds": {
        "ArXiv": "2201.01926",
        "DOI": "10.1088/1751-8121/acd735",
        "CorpusId": 245769811
      },
      "url": "https://www.semanticscholar.org/paper/c580587157da426c1324319962604d8b4525446e",
      "title": "A comfortable graph structure for Grover walk",
      "venue": "Journal of Physics A: Mathematical and Theoretical",
      "year": 2022,
      "referenceCount": 24,
      "citationCount": 4,
      "authors": [
        {
          "authorId": "2766490",
          "name": "Y. Higuchi"
        },
        {
          "authorId": "2132808",
          "name": "Mohamed Sabri"
        },
        {
          "authorId": "3035826",
          "name": "E. Segawa"
        }
      ]
    },
    {
      "paperId": "c433a0e2c264f783857792a8f330e004d584068d",
      "externalIds": {
        "DBLP": "conf/cikm/ZhangY021",
        "DOI": "10.1145/3459637.3482329",
        "CorpusId": 240230904
      },
      "url": "https://www.semanticscholar.org/paper/c433a0e2c264f783857792a8f330e004d584068d",
      "title": "Comprehensively Computing Link-based Similarities by Building A Random Surfer Graph",
      "venue": "International Conference on Information and Knowledge Management",
      "year": 2021,
      "referenceCount": 55,
      "citationCount": 2,
      "authors": [
        {
          "authorId": "2215372987",
          "name": "Mingxi Zhang"
        },
        {
          "authorId": "1740249",
          "name": "Xifeng Yan"
        },
        {
          "authorId": null,
          "name": "Wei Wang"
        }
      ]
    },
    {
      "paperId": "5995bf316659f22702bff7d7399bab1c14cb3706",
      "externalIds": {
        "DOI": "10.1007/s12555-022-0505-x",
        "CorpusId": 267610669
      },
      "url": "https://www.semanticscholar.org/paper/5995bf316659f22702bff7d7399bab1c14cb3706",
      "title": "Suboptimal Relational Tree Configuration and Robust Control Based on the Leader-follower Model for Self-organizing Systems Without GPS Support",
      "venue": "International Journal of Control, Automation and Systems",
      "year": 2024,
      "referenceCount": 47,
      "citationCount": 2,
      "authors": [
        {
          "authorId": "2378100546",
          "name": "Z. Xiong"
        },
        {
          "authorId": "2864301",
          "name": "Ya-song Luo"
        },
        {
          "authorId": "2145285566",
          "name": "Zhong Liu"
        },
        {
          "authorId": "119568742",
          "name": "Zhi-kun Liu"
        }
      ]
    },
    {
      "paperId": "19cf720c2da53b189af08bd2aa5775d9ff5e2e3d",
      "externalIds": {
        "MAG": "2913092739",
        "DBLP": "conf/www/YuenSGRB19",
        "DOI": "10.1145/3308558.3313465",
        "CorpusId": 86758928
      },
      "url": "https://www.semanticscholar.org/paper/19cf720c2da53b189af08bd2aa5775d9ff5e2e3d",
      "title": "Beyond Shortest Paths: Route Recommendations for Ride-sharing",
      "venue": "The Web Conference",
      "year": 2019,
      "referenceCount": 40,
      "citationCount": 46,
      "authors": [
        {
          "authorId": "34996843",
          "name": "Chak Fai Yuen"
        },
        {
          "authorId": "2110052813",
          "name": "A. Singh"
        },
        {
          "authorId": "2067928162",
          "name": "Sagar Goyal"
        },
        {
          "authorId": "1699732",
          "name": "Sayan Ranu"
        },
        {
          "authorId": "1799402",
          "name": "A. Bagchi"
        }
      ]
    },
    {
      "paperId": "afdaf000de2d04e28591da57d308ba5c85f7689c",
      "externalIds": {
        "MAG": "2896514094",
        "DBLP": "journals/tcyb/GaoZYW20",
        "DOI": "10.1109/TCYB.2018.2872808",
        "CorpusId": 52983627,
        "PubMed": "30334812"
      },
      "url": "https://www.semanticscholar.org/paper/afdaf000de2d04e28591da57d308ba5c85f7689c",
      "title": "An Accelerated Physarum Solver for Network Optimization",
      "venue": "IEEE Transactions on Cybernetics",
      "year": 2020,
      "referenceCount": 45,
      "citationCount": 18,
      "authors": [
        {
          "authorId": "145218981",
          "name": "Cai Gao"
        },
        {
          "authorId": "49470548",
          "name": "Xiaoge Zhang"
        },
        {
          "authorId": "49514391",
          "name": "Zhiying Yue"
        },
        {
          "authorId": "3023297",
          "name": "Daijun Wei"
        }
      ]
    },
    {
      "paperId": "f498925210f003f89d392a5588f665b917dcb0d9",
      "externalIds": {
        "DBLP": "journals/comgeo/ArkinFM00",
        "MAG": "2941176527",
        "DOI": "10.1016/S0925-7721(00)00015-8",
        "CorpusId": 8038412
      },
      "url": "https://www.semanticscholar.org/paper/f498925210f003f89d392a5588f665b917dcb0d9",
      "title": "Approximation algorithms for lawn mowing and milling",
      "venue": "Computational geometry",
      "year": 2000,
      "referenceCount": 28,
      "citationCount": 292,
      "authors": [
        {
          "authorId": "1795183",
          "name": "E. Arkin"
        },
        {
          "authorId": "2240174198",
          "name": "Sándor P. Fekete"
        },
        {
          "authorId": "41227416",
          "name": "Joseph B. M. Mitchell"
        }
      ]
    },
    {
      "paperId": "de6944938ef21ed6ac30f5bca6c1843102ea6b9c",
      "externalIds": {
        "MAG": "2985664868",
        "DBLP": "journals/grid/BarakiJJSFG19",
        "DOI": "10.1007/s10723-019-09492-0",
        "CorpusId": 207810419
      },
      "url": "https://www.semanticscholar.org/paper/de6944938ef21ed6ac30f5bca6c1843102ea6b9c",
      "title": "Optimizing Applications for Mobile Cloud Computing Through MOCCAA",
      "venue": "Journal of Grid Computing",
      "year": 2019,
      "referenceCount": 50,
      "citationCount": 8,
      "authors": [
        {
          "authorId": "26783038",
          "name": "Harun Baraki"
        },
        {
          "authorId": "14453872",
          "name": "Alexander Jahl"
        },
        {
          "authorId": "47366468",
          "name": "Stefan Jakob"
        },
        {
          "authorId": "40995451",
          "name": "Corvin Schwarzbach"
        },
        {
          "authorId": "40986656",
          "name": "Malte Fax"
        },
        {
          "authorId": "1747922",
          "name": "K. Geihs"
        }
      ]
    },
    {
      "paperId": "eb4017f3ca28357b6cae84a75064328d3beed287",
      "externalIds": {
        "DBLP": "journals/jvca/NinomiyaKSGB15",
        "MAG": "2106803229",
        "DOI": "10.1002/cav.1622",
        "CorpusId": 14598806
      },
      "url": "https://www.semanticscholar.org/paper/eb4017f3ca28357b6cae84a75064328d3beed287",
      "title": "Planning approaches to constraint‐aware navigation in dynamic environments",
      "venue": "Comput. Animat. Virtual Worlds",
      "year": 2015,
      "referenceCount": 55,
      "citationCount": 28,
      "authors": [
        {
          "authorId": "2060559954",
          "name": "Kai Ninomiya"
        },
        {
          "authorId": "143980996",
          "name": "Mubbasir Kapadia"
        },
        {
          "authorId": "2483632",
          "name": "Alexander Shoulson"
        },
        {
          "authorId": "2110890327",
          "name": "Francisco M. Garcia"
        },
        {
          "authorId": "1699200",
          "name": "N. Badler"
        }
      ]
    },
    {
      "paperId": "bb9b71265c91c7f118d21768bbd812b69f07de46",
      "externalIds": {
        "DBLP": "conf/mig/KapadiaNSGB13",
        "MAG": "2001541414",
        "DOI": "10.1145/2522628.2522654",
        "CorpusId": 2940761
      },
      "url": "https://www.semanticscholar.org/paper/bb9b71265c91c7f118d21768bbd812b69f07de46",
      "title": "Constraint-Aware Navigation in Dynamic Environments",
      "venue": "Motion in Games",
      "year": 2013,
      "referenceCount": 40,
      "citationCount": 21,
      "authors": [
        {
          "authorId": "143980996",
          "name": "Mubbasir Kapadia"
        },
        {
          "authorId": "2060559954",
          "name": "Kai Ninomiya"
        },
        {
          "authorId": "2483632",
          "name": "Alexander Shoulson"
        },
        {
          "authorId": "2110890327",
          "name": "Francisco M. Garcia"
        },
        {
          "authorId": "1699200",
          "name": "N. Badler"
        }
      ]
    }
  ]
}