{
  "total": 119,
  "offset": 0,
  "next": 10,
  "data": [
    {
      "paperId": "07c0fcb60625841d01563b03f9b44749b1404186",
      "externalIds": {
        "MAG": "1837062119",
        "DBLP": "conf/icml/LesnerS15",
        "CorpusId": 18384883
      },
      "url": "https://www.semanticscholar.org/paper/07c0fcb60625841d01563b03f9b44749b1404186",
      "title": "Non-Stationary Approximate Modified Policy Iteration",
      "venue": "International Conference on Machine Learning",
      "year": 2015,
      "referenceCount": 15,
      "citationCount": 12,
      "authors": [
        {
          "authorId": "2961471",
          "name": "Boris Lesner"
        },
        {
          "authorId": "1689774",
          "name": "B. Scherrer"
        }
      ]
    },
    {
      "paperId": "a6ee4ae5344033fee613898841e2b9894bbfe4b7",
      "externalIds": {
        "MAG": "1889629917",
        "DBLP": "journals/jmlr/ScherrerGGLG15",
        "DOI": "10.5555/2789272.2886802",
        "CorpusId": 2686060
      },
      "url": "https://www.semanticscholar.org/paper/a6ee4ae5344033fee613898841e2b9894bbfe4b7",
      "title": "Approximate modified policy iteration and its application to the game of Tetris",
      "venue": "Journal of machine learning research",
      "year": 2015,
      "referenceCount": 52,
      "citationCount": 139,
      "authors": [
        {
          "authorId": "1689774",
          "name": "B. Scherrer"
        },
        {
          "authorId": "1678622",
          "name": "M. Ghavamzadeh"
        },
        {
          "authorId": "3038127",
          "name": "Victor Gabillon"
        },
        {
          "authorId": "2961471",
          "name": "Boris Lesner"
        },
        {
          "authorId": "1737555",
          "name": "M. Geist"
        }
      ]
    },
    {
      "paperId": "732b087e1a96bea9c4e37d353aaa68202fc61472",
      "externalIds": {
        "MAG": "1980427163",
        "DOI": "10.1109/IEOM.2015.7093707",
        "CorpusId": 22964186
      },
      "url": "https://www.semanticscholar.org/paper/732b087e1a96bea9c4e37d353aaa68202fc61472",
      "title": "The impact of non-stationary demand and forecasting on a failure-prone manufacturing system",
      "venue": "International Conference on Industrial Engineering and Operations Management",
      "year": 2015,
      "referenceCount": 19,
      "citationCount": 2,
      "authors": [
        {
          "authorId": "2157948936",
          "name": "Nan Li"
        },
        {
          "authorId": "145550318",
          "name": "F. Chan"
        },
        {
          "authorId": "2107353756",
          "name": "S. Chung"
        },
        {
          "authorId": "150938180",
          "name": "B. Niu"
        }
      ]
    },
    {
      "paperId": "af7c29bb91f4dcde2a1bffe488ff9537d461cfb2",
      "externalIds": {
        "MAG": "2233410783",
        "DBLP": "phd/es/Esposito15",
        "DOI": "10.5821/dissertation-2117-95729",
        "CorpusId": 123798250
      },
      "url": "https://www.semanticscholar.org/paper/af7c29bb91f4dcde2a1bffe488ff9537d461cfb2",
      "title": "Regularized approximate policy iteration using kernel for on-line reinforcement learning",
      "venue": "",
      "year": 2015,
      "referenceCount": 95,
      "citationCount": 1,
      "authors": [
        {
          "authorId": "46952903",
          "name": "G. Esposito"
        }
      ]
    },
    {
      "paperId": "a19317cb9d5d4c2c1151ac70b992ff7cb0b83b11",
      "externalIds": {
        "MAG": "2245501338",
        "DBLP": "journals/chinaf/WeiL15",
        "DOI": "10.1007/s11432-015-5462-z",
        "CorpusId": 13443753
      },
      "url": "https://www.semanticscholar.org/paper/a19317cb9d5d4c2c1151ac70b992ff7cb0b83b11",
      "title": "A novel policy iteration based deterministic Q-learning for discrete-time nonlinear systems",
      "venue": "Science China Information Sciences",
      "year": 2015,
      "referenceCount": 66,
      "citationCount": 66,
      "authors": [
        {
          "authorId": "1717781",
          "name": "Qinglai Wei"
        },
        {
          "authorId": "1927205",
          "name": "Derong Liu"
        }
      ]
    },
    {
      "paperId": "2e9e285719bcd1f717ab53d7f4782ba2efa69dd5",
      "externalIds": {
        "MAG": "1950765844",
        "DOI": "10.1016/J.PROBENGMECH.2015.09.006",
        "CorpusId": 119851185
      },
      "url": "https://www.semanticscholar.org/paper/2e9e285719bcd1f717ab53d7f4782ba2efa69dd5",
      "title": "Efficient stationary multivariate non-Gaussian simulation based on a Hermite PDF model",
      "venue": "",
      "year": 2015,
      "referenceCount": 22,
      "citationCount": 54,
      "authors": [
        {
          "authorId": "4203006",
          "name": "Luping Yang"
        },
        {
          "authorId": "38832828",
          "name": "K. Gurley"
        }
      ]
    },
    {
      "paperId": "040797d4322175b30df35d2312f5f0b34f699c9e",
      "externalIds": {
        "DOI": "10.1007/s11432-015-5462-z",
        "CorpusId": 255200241
      },
      "url": "https://www.semanticscholar.org/paper/040797d4322175b30df35d2312f5f0b34f699c9e",
      "title": "A novel policy iteration based deterministic Q-learning for discrete-time nonlinear systems",
      "venue": "Science China Information Sciences",
      "year": 2015,
      "referenceCount": 0,
      "citationCount": 1,
      "authors": [
        {
          "authorId": "1717781",
          "name": "Qinglai Wei"
        },
        {
          "authorId": "7282558",
          "name": "Ruizhuo Song"
        },
        {
          "authorId": "2112237949",
          "name": "Benkai Li"
        },
        {
          "authorId": "2286106834",
          "name": "Xiaofeng Lin"
        }
      ]
    },
    {
      "paperId": "91eadb14c7ffd69824b2cc01724f3371b1d269de",
      "externalIds": {
        "MAG": "1040330144",
        "DOI": "10.1016/j.chroma.2015.07.082",
        "CorpusId": 24912755,
        "PubMed": "26278360"
      },
      "url": "https://www.semanticscholar.org/paper/91eadb14c7ffd69824b2cc01724f3371b1d269de",
      "title": "Gas chromatographic separation of stereoisomers of non-protein amino acids on modified γ-cyclodextrin stationary phase.",
      "venue": "Journal of Chromatography A",
      "year": 2015,
      "referenceCount": 47,
      "citationCount": 24,
      "authors": [
        {
          "authorId": "11108935",
          "name": "S. Fox"
        },
        {
          "authorId": "48371794",
          "name": "H. Strasdeit"
        },
        {
          "authorId": "12753115",
          "name": "S. Haasmann"
        },
        {
          "authorId": "88275026",
          "name": "H. Brückner"
        }
      ]
    },
    {
      "paperId": "f13a4996036016beadddd2683b817a8a4c53a9a2",
      "externalIds": {
        "MAG": "1788877992",
        "DBLP": "conf/icml/PerolatSPP15",
        "CorpusId": 6326099
      },
      "url": "https://www.semanticscholar.org/paper/f13a4996036016beadddd2683b817a8a4c53a9a2",
      "title": "Approximate Dynamic Programming for Two-Player Zero-Sum Markov Games",
      "venue": "International Conference on Machine Learning",
      "year": 2015,
      "referenceCount": 28,
      "citationCount": 128,
      "authors": [
        {
          "authorId": "3422031",
          "name": "J. Pérolat"
        },
        {
          "authorId": "1689774",
          "name": "B. Scherrer"
        },
        {
          "authorId": "1808897",
          "name": "Bilal Piot"
        },
        {
          "authorId": "1721354",
          "name": "O. Pietquin"
        }
      ]
    },
    {
      "paperId": "971bdee3b40218b906f58d710995469f67db0053",
      "externalIds": {
        "MAG": "2782757827",
        "DOI": "10.2139/SSRN.2620937",
        "CorpusId": 67162528
      },
      "url": "https://www.semanticscholar.org/paper/971bdee3b40218b906f58d710995469f67db0053",
      "title": "Computing the Cross-Sectional Distribution to Approximate Stationary Markov Equilibria with Heterogeneous Agents and Incomplete Markets",
      "venue": "",
      "year": 2015,
      "referenceCount": 48,
      "citationCount": 2,
      "authors": [
        {
          "authorId": "72338420",
          "name": "Elisabeth Pröhl"
        }
      ]
    }
  ]
}