{
  "total": 67,
  "offset": 0,
  "next": 10,
  "data": [
    {
      "paperId": "054175bf8244d19f6ff72c95a3571867c3b442c8",
      "externalIds": {
        "MAG": "1844343792",
        "DBLP": "conf/icml/JiangKS15",
        "CorpusId": 10050824
      },
      "url": "https://www.semanticscholar.org/paper/054175bf8244d19f6ff72c95a3571867c3b442c8",
      "title": "Abstraction Selection in Model-based Reinforcement Learning",
      "venue": "International Conference on Machine Learning",
      "year": 2015,
      "referenceCount": 26,
      "citationCount": 85,
      "authors": [
        {
          "authorId": "48272707",
          "name": "Nan Jiang"
        },
        {
          "authorId": "145500336",
          "name": "Alex Kulesza"
        },
        {
          "authorId": "1699868",
          "name": "Satinder Singh"
        }
      ]
    },
    {
      "paperId": "979a68d5b98f972d2abdf52a1551d6201fbe688d",
      "externalIds": {
        "MAG": "2588436768",
        "DBLP": "phd/ethos/Abramova15",
        "DOI": "10.25560/39968",
        "CorpusId": 3229409
      },
      "url": "https://www.semanticscholar.org/paper/979a68d5b98f972d2abdf52a1551d6201fbe688d",
      "title": "Combining reinforcement learning and optimal control for the control of nonlinear dynamical systems",
      "venue": "",
      "year": 2015,
      "referenceCount": 286,
      "citationCount": 2,
      "authors": [
        {
          "authorId": "152712107",
          "name": "E. Abramova"
        }
      ]
    },
    {
      "paperId": "d5bafcca78d9f2c78e95efbba4a63c148d74ff6a",
      "externalIds": {
        "MAG": "2371348583",
        "CorpusId": 156846979
      },
      "url": "https://www.semanticscholar.org/paper/d5bafcca78d9f2c78e95efbba4a63c148d74ff6a",
      "title": "Game analysis of hazardous chemicals transport route selection based on reinforcement learning-model",
      "venue": "",
      "year": 2015,
      "referenceCount": 0,
      "citationCount": 4,
      "authors": [
        {
          "authorId": "2054725163",
          "name": "Wu Ju"
        }
      ]
    },
    {
      "paperId": "0ec5ddc92506ef1fc82b030408a52094f0d8f8d9",
      "externalIds": {
        "MAG": "2408113697",
        "DBLP": "conf/cogsci/DonGOL15",
        "CorpusId": 4693535
      },
      "url": "https://www.semanticscholar.org/paper/0ec5ddc92506ef1fc82b030408a52094f0d8f8d9",
      "title": "Connecting rule-abstraction and model-based choice across disparate learning tasks",
      "venue": "Annual Meeting of the Cognitive Science Society",
      "year": 2015,
      "referenceCount": 18,
      "citationCount": 4,
      "authors": [
        {
          "authorId": "1998315",
          "name": "Hilary J Don"
        },
        {
          "authorId": "3339566",
          "name": "Micah B. Goldwater"
        },
        {
          "authorId": "1862009",
          "name": "E. Livesey"
        },
        {
          "authorId": "2253592968",
          "name": "Ross Otto"
        }
      ]
    },
    {
      "paperId": "f47a4afeec02fe34675ebd992ce24aaa49b03891",
      "externalIds": {
        "DOI": "10.1007/s11042-015-3003-9",
        "CorpusId": 254838794
      },
      "url": "https://www.semanticscholar.org/paper/f47a4afeec02fe34675ebd992ce24aaa49b03891",
      "title": "Dynamic node selection in camera networks based on approximate reinforcement learning",
      "venue": "Multimedia tools and applications",
      "year": 2015,
      "referenceCount": 0,
      "citationCount": 0,
      "authors": [
        {
          "authorId": "2117124982",
          "name": "Qian Li"
        },
        {
          "authorId": "2474099",
          "name": "Zhengyan Sun"
        },
        {
          "authorId": "1993259",
          "name": "Song-Le Chen"
        },
        {
          "authorId": "2055483745",
          "name": "Shi-ming Xia"
        }
      ]
    },
    {
      "paperId": "7922d51bc971f58ec59d3fe5842f8cc5edbab41d",
      "externalIds": {
        "MAG": "1980648727",
        "DBLP": "journals/tcyb/CildenP15",
        "DOI": "10.1109/TCYB.2014.2352038",
        "CorpusId": 12694220,
        "PubMed": "25216494"
      },
      "url": "https://www.semanticscholar.org/paper/7922d51bc971f58ec59d3fe5842f8cc5edbab41d",
      "title": "Toward Generalization of Automated Temporal Abstraction to Partially Observable Reinforcement Learning",
      "venue": "IEEE Transactions on Cybernetics",
      "year": 2015,
      "referenceCount": 36,
      "citationCount": 9,
      "authors": [
        {
          "authorId": "1875304",
          "name": "Erkin Çilden"
        },
        {
          "authorId": "1761620",
          "name": "Faruk Polat"
        }
      ]
    },
    {
      "paperId": "423884b03133f376958a2814039b75d8fc12f3f7",
      "externalIds": {
        "DBLP": "conf/cybconf/SahinCP15",
        "MAG": "1490762369",
        "DOI": "10.1109/CYBConf.2015.7175900",
        "CorpusId": 31759753
      },
      "url": "https://www.semanticscholar.org/paper/423884b03133f376958a2814039b75d8fc12f3f7",
      "title": "Memory efficient factored abstraction for reinforcement learning",
      "venue": "International Conference on Cybernetics",
      "year": 2015,
      "referenceCount": 10,
      "citationCount": 0,
      "authors": [
        {
          "authorId": "2056581517",
          "name": "Coskun Sahin"
        },
        {
          "authorId": "1875304",
          "name": "Erkin Çilden"
        },
        {
          "authorId": "1761620",
          "name": "Faruk Polat"
        }
      ]
    },
    {
      "paperId": "452b015f9e8c9185ca892b1ae1d56a29c07ad062",
      "externalIds": {
        "MAG": "2046555694",
        "DOI": "10.1016/J.ANBEHAV.2015.01.037",
        "CorpusId": 10160690
      },
      "url": "https://www.semanticscholar.org/paper/452b015f9e8c9185ca892b1ae1d56a29c07ad062",
      "title": "A model for the evolution of reinforcement learning in fluctuating games",
      "venue": "",
      "year": 2015,
      "referenceCount": 106,
      "citationCount": 20,
      "authors": [
        {
          "authorId": "9164958",
          "name": "Slimane Dridi"
        },
        {
          "authorId": "34608708",
          "name": "L. Lehmann"
        }
      ]
    },
    {
      "paperId": "ea6d73a33ac2109ed095963e25b857a9350449bd",
      "externalIds": {
        "MAG": "2963007315",
        "DBLP": "journals/ftml/GhavamzadehMPT15",
        "ArXiv": "1609.04436",
        "DOI": "10.1561/2200000049",
        "CorpusId": 207179119
      },
      "url": "https://www.semanticscholar.org/paper/ea6d73a33ac2109ed095963e25b857a9350449bd",
      "title": "Bayesian Reinforcement Learning: A Survey",
      "venue": "Found. Trends Mach. Learn.",
      "year": 2015,
      "referenceCount": 180,
      "citationCount": 706,
      "authors": [
        {
          "authorId": "1678622",
          "name": "M. Ghavamzadeh"
        },
        {
          "authorId": "1712535",
          "name": "Shie Mannor"
        },
        {
          "authorId": "145134886",
          "name": "Joelle Pineau"
        },
        {
          "authorId": "3025260",
          "name": "Aviv Tamar"
        }
      ]
    },
    {
      "paperId": "9e18b3c3d920c5ed737910a779957f166db410e0",
      "externalIds": {
        "MAG": "1771697193",
        "DBLP": "journals/eaai/ChuKMGC15",
        "DOI": "10.1016/j.engappai.2015.08.004",
        "CorpusId": 5177929
      },
      "url": "https://www.semanticscholar.org/paper/9e18b3c3d920c5ed737910a779957f166db410e0",
      "title": "Application of reinforcement learning to medium access control for wireless sensor networks",
      "venue": "Engineering applications of artificial intelligence",
      "year": 2015,
      "referenceCount": 33,
      "citationCount": 68,
      "authors": [
        {
          "authorId": "90178632",
          "name": "Y. Chu"
        },
        {
          "authorId": "2600869",
          "name": "S. Kosunalp"
        },
        {
          "authorId": "48360502",
          "name": "P. Mitchell"
        },
        {
          "authorId": "145612652",
          "name": "D. Grace"
        },
        {
          "authorId": "145655459",
          "name": "T. Clarke"
        }
      ]
    }
  ]
}