{
  "total": 11759,
  "offset": 0,
  "next": 10,
  "data": [
    {
      "paperId": "4c4b942cb9933920c065eb0287409698f645ba85",
      "externalIds": {
        "DBLP": "journals/tcsv/JinJWXC25",
        "DOI": "10.1109/TCSVT.2024.3491907",
        "CorpusId": 273862714
      },
      "url": "https://www.semanticscholar.org/paper/4c4b942cb9933920c065eb0287409698f645ba85",
      "title": "Underwater Salient Object Detection via Dual-Stage Self-Paced Learning and Depth Emphasis",
      "venue": "IEEE transactions on circuits and systems for video technology (Print)",
      "year": 2025,
      "referenceCount": 63,
      "citationCount": 41,
      "authors": [
        {
          "authorId": "2358646036",
          "name": "Jianhui Jin"
        },
        {
          "authorId": "2238896888",
          "name": "Qiuping Jiang"
        },
        {
          "authorId": "2337979124",
          "name": "Qingyuan Wu"
        },
        {
          "authorId": "2005474404",
          "name": "Binwei Xu"
        },
        {
          "authorId": "2258230512",
          "name": "Runmin Cong"
        }
      ]
    },
    {
      "paperId": "3530bad3a4311fc06d298ce1580f745afce3761b",
      "externalIds": {
        "DOI": "10.1080/17582024.2024.2404385",
        "CorpusId": 273530289,
        "PubMed": "39439238"
      },
      "url": "https://www.semanticscholar.org/paper/3530bad3a4311fc06d298ce1580f745afce3761b",
      "title": "Benefits of self-paced concurrent training on lung function, cardiopulmonary fitness and fatigue perception in patients with multiple sclerosis.",
      "venue": "Neurodegenerative Disease Management",
      "year": 2024,
      "referenceCount": 63,
      "citationCount": 3,
      "authors": [
        {
          "authorId": "2170521904",
          "name": "Sonda Jallouli"
        },
        {
          "authorId": "1959501208",
          "name": "R. Maaloul"
        },
        {
          "authorId": "6700910",
          "name": "S. Ghroubi"
        },
        {
          "authorId": "2095611895",
          "name": "R. Kammoun"
        },
        {
          "authorId": "2327191189",
          "name": "Mariem Damak"
        },
        {
          "authorId": "2327192821",
          "name": "Salma Sakka"
        },
        {
          "authorId": "47175573",
          "name": "T. Driss"
        },
        {
          "authorId": "2315241565",
          "name": "Giovanni de Marco"
        },
        {
          "authorId": "6233148",
          "name": "C. Mhiri"
        },
        {
          "authorId": "74561527",
          "name": "M. Elleuch"
        },
        {
          "authorId": "2310006154",
          "name": "Walid Feki"
        },
        {
          "authorId": "2314308910",
          "name": "O. Hammouda"
        }
      ]
    },
    {
      "paperId": "38df51c28de7101d4705b61fbb2f3075f3149a79",
      "externalIds": {
        "DBLP": "journals/access/HeimHHNSRGW25",
        "DOI": "10.1109/ACCESS.2025.3569932",
        "CorpusId": 278642144
      },
      "url": "https://www.semanticscholar.org/paper/38df51c28de7101d4705b61fbb2f3075f3149a79",
      "title": "Real-Time EEG-Based BCI for Self-Paced Motor Imagery and Motor Execution Using Functional Neural Networks",
      "venue": "IEEE Access",
      "year": 2025,
      "referenceCount": 69,
      "citationCount": 4,
      "authors": [
        {
          "authorId": "2201322921",
          "name": "Mavin Heim"
        },
        {
          "authorId": "2361570523",
          "name": "Florian Heinrichs"
        },
        {
          "authorId": "2361558178",
          "name": "Michael Hueppe"
        },
        {
          "authorId": "2361569051",
          "name": "Fran Nunez"
        },
        {
          "authorId": "2361558165",
          "name": "Alexander Szameitat"
        },
        {
          "authorId": "2361570864",
          "name": "Muriel Reuter"
        },
        {
          "authorId": "2237860433",
          "name": "Stefan M. Goetz"
        },
        {
          "authorId": "2064776323",
          "name": "Corinna Weber"
        }
      ]
    },
    {
      "paperId": "038cabbc84125d68c323ffda3b3b2a1eb22dce0a",
      "externalIds": {
        "DOI": "10.1123/ijspp.2022-0021",
        "CorpusId": 250033846,
        "PubMed": "35894995"
      },
      "url": "https://www.semanticscholar.org/paper/038cabbc84125d68c323ffda3b3b2a1eb22dce0a",
      "title": "Self-Paced Cycling at the Highest Sustainable Intensity With Blood Flow Restriction Reduces External but Not Internal Training Loads.",
      "venue": "International Journal of Sports Physiology and Performance",
      "year": 2022,
      "referenceCount": 36,
      "citationCount": 6,
      "authors": [
        {
          "authorId": "2116829557",
          "name": "Nathan D. W. Smith"
        },
        {
          "authorId": "20191654",
          "name": "J. Peiffer"
        },
        {
          "authorId": "144365209",
          "name": "O. Girard"
        },
        {
          "authorId": "5601452",
          "name": "B. Scott"
        }
      ]
    },
    {
      "paperId": "f0a1ed3aad34420e799b32b5e420b71b8f753c56",
      "externalIds": {
        "ArXiv": "2303.06242",
        "DBLP": "conf/iclr/FrancoMMG23",
        "DOI": "10.48550/arXiv.2303.06242",
        "CorpusId": 257496643
      },
      "url": "https://www.semanticscholar.org/paper/f0a1ed3aad34420e799b32b5e420b71b8f753c56",
      "title": "HYperbolic Self-Paced Learning for Self-Supervised Skeleton-based Action Representations",
      "venue": "International Conference on Learning Representations",
      "year": 2023,
      "referenceCount": 63,
      "citationCount": 59,
      "authors": [
        {
          "authorId": "2055268823",
          "name": "Luca Franco"
        },
        {
          "authorId": "2211424326",
          "name": "Paolo Mandica"
        },
        {
          "authorId": "113898027",
          "name": "Bharti Munjal"
        },
        {
          "authorId": "1787725",
          "name": "Fabio Galasso"
        }
      ]
    },
    {
      "paperId": "2edf3cf563dd8514d97ab2d38d47eec289691a66",
      "externalIds": {
        "PubMedCentral": "7866478",
        "DOI": "10.1186/s12984-021-00825-3",
        "CorpusId": 231822483,
        "PubMed": "33546729"
      },
      "url": "https://www.semanticscholar.org/paper/2edf3cf563dd8514d97ab2d38d47eec289691a66",
      "title": "Novel velocity estimation for symmetric and asymmetric self-paced treadmill training",
      "venue": "Journal of NeuroEngineering and Rehabilitation",
      "year": 2021,
      "referenceCount": 45,
      "citationCount": 9,
      "authors": [
        {
          "authorId": "2047931465",
          "name": "Santiago Canete"
        },
        {
          "authorId": "31773401",
          "name": "Daniel A. Jacobs"
        }
      ]
    },
    {
      "paperId": "341c74afcd8d93fa1402e624ff691332c9553b25",
      "externalIds": {
        "PubMedCentral": "5640747",
        "MAG": "2756003343",
        "DOI": "10.1007/s00421-017-3715-9",
        "CorpusId": 20306294,
        "PubMed": "28932907"
      },
      "url": "https://www.semanticscholar.org/paper/341c74afcd8d93fa1402e624ff691332c9553b25",
      "title": "Effects of self-paced interval and continuous training on health markers in women",
      "venue": "European Journal of Applied Physiology",
      "year": 2017,
      "referenceCount": 43,
      "citationCount": 38,
      "authors": [
        {
          "authorId": "8551904",
          "name": "Luke J. Connolly"
        },
        {
          "authorId": "2043046",
          "name": "S. Bailey"
        },
        {
          "authorId": "145107641",
          "name": "P. Krustrup"
        },
        {
          "authorId": "3826932",
          "name": "J. Fulford"
        },
        {
          "authorId": "25082566",
          "name": "Chris Smietanka"
        },
        {
          "authorId": "145245787",
          "name": "A. Jones"
        }
      ]
    },
    {
      "paperId": "0a2c7e582094372cdb77d5f92a15a8cbfde5ea39",
      "externalIds": {
        "MAG": "2887396083",
        "DOI": "10.3138/ptc.2016-97",
        "CorpusId": 52903951,
        "PubMed": "30275647"
      },
      "url": "https://www.semanticscholar.org/paper/0a2c7e582094372cdb77d5f92a15a8cbfde5ea39",
      "title": "Gait Training after Stroke on a Self-Paced Treadmill with and without Virtual Environment Scenarios: A Proof-of-Principle Study.",
      "venue": "Physiotherapy Canada. Physiothérapie Canada",
      "year": 2018,
      "referenceCount": 40,
      "citationCount": 17,
      "authors": [
        {
          "authorId": "1852074",
          "name": "C. Richards"
        },
        {
          "authorId": "2789570",
          "name": "F. Malouin"
        },
        {
          "authorId": "3457693",
          "name": "A. Lamontagne"
        },
        {
          "authorId": "1862105",
          "name": "B. McFadyen"
        },
        {
          "authorId": "47425022",
          "name": "F. Dumas"
        },
        {
          "authorId": "3481693",
          "name": "F. Comeau"
        },
        {
          "authorId": "40417599",
          "name": "N. Robitaille"
        },
        {
          "authorId": "40228054",
          "name": "J. Fung"
        }
      ]
    },
    {
      "paperId": "4c2e4d406cbd0a59b2dee136689f5b5d19615738",
      "externalIds": {
        "CorpusId": 3312196
      },
      "url": "https://www.semanticscholar.org/paper/4c2e4d406cbd0a59b2dee136689f5b5d19615738",
      "title": "‘Prescribing 6 -wk of running training using parameters from a self-paced maximal oxygen uptake protocol’",
      "venue": "",
      "year": 2020,
      "referenceCount": 32,
      "citationCount": 3,
      "authors": [
        {
          "authorId": "2059792657",
          "name": "James S. Hogg"
        },
        {
          "authorId": "6239901",
          "name": "J. Hopker"
        },
        {
          "authorId": "4333575",
          "name": "Sarah L Coakley"
        },
        {
          "authorId": "5460774",
          "name": "A. Mauger"
        }
      ]
    },
    {
      "paperId": "51eed04b2f3a2a7415cd96a3e6e8e00d37434f60",
      "externalIds": {
        "DBLP": "conf/nips/PengWDP21",
        "ArXiv": "2107.13741",
        "CorpusId": 236493246
      },
      "url": "https://www.semanticscholar.org/paper/51eed04b2f3a2a7415cd96a3e6e8e00d37434f60",
      "title": "Self-Paced Contrastive Learning for Semi-supervisedMedical Image Segmentation with Meta-labels",
      "venue": "Neural Information Processing Systems",
      "year": 2021,
      "referenceCount": 62,
      "citationCount": 77,
      "authors": [
        {
          "authorId": "2122806449",
          "name": "Jizong Peng"
        },
        {
          "authorId": "2152209342",
          "name": "Ping Wang"
        },
        {
          "authorId": "2121383646",
          "name": "Chrisitian Desrosiers"
        },
        {
          "authorId": "2352279682",
          "name": "Marco Pedersoli"
        }
      ]
    }
  ]
}