{
  "total": 47059,
  "offset": 0,
  "next": 10,
  "data": [
    {
      "paperId": "80760ee2869959c08cf8547ad82f77bc2bf1cc2c",
      "externalIds": {
        "ArXiv": "1502.05925",
        "DBLP": "conf/icml/NanWS15",
        "MAG": "2951307592",
        "CorpusId": 7165143
      },
      "url": "https://www.semanticscholar.org/paper/80760ee2869959c08cf8547ad82f77bc2bf1cc2c",
      "title": "Feature-Budgeted Random Forest",
      "venue": "International Conference on Machine Learning",
      "year": 2015,
      "referenceCount": 30,
      "citationCount": 63,
      "authors": [
        {
          "authorId": "144647318",
          "name": "Feng Nan"
        },
        {
          "authorId": "2110240143",
          "name": "Joseph Wang"
        },
        {
          "authorId": "1699322",
          "name": "Venkatesh Saligrama"
        }
      ]
    },
    {
      "paperId": "4dc6bc8f5c78497470cc2e427a9bda1d49ba50a0",
      "externalIds": {
        "DBLP": "journals/ijdsa/IranzadL25",
        "DOI": "10.1007/s41060-024-00509-w",
        "CorpusId": 267446099
      },
      "url": "https://www.semanticscholar.org/paper/4dc6bc8f5c78497470cc2e427a9bda1d49ba50a0",
      "title": "A review of random forest-based feature selection methods for data science education and applications",
      "venue": "International Journal of Data Science and Analysis",
      "year": 2024,
      "referenceCount": 44,
      "citationCount": 206,
      "authors": [
        {
          "authorId": "2047398586",
          "name": "Reza Iranzad"
        },
        {
          "authorId": "2283259864",
          "name": "Xiao Liu"
        }
      ]
    },
    {
      "paperId": "be4b274976ddff7eff5f6c2bb54beaa7af66a4ca",
      "externalIds": {
        "DBLP": "journals/access/BakroKHAAYAP24",
        "DOI": "10.1109/ACCESS.2024.3353055",
        "CorpusId": 267043938
      },
      "url": "https://www.semanticscholar.org/paper/be4b274976ddff7eff5f6c2bb54beaa7af66a4ca",
      "title": "Building a Cloud-IDS by Hybrid Bio-Inspired Feature Selection Algorithms Along With Random Forest Model",
      "venue": "IEEE Access",
      "year": 2024,
      "referenceCount": 103,
      "citationCount": 65,
      "authors": [
        {
          "authorId": "2060982387",
          "name": "Mhamad Bakro"
        },
        {
          "authorId": "2280047426",
          "name": "Rakesh Ranjan Kumar"
        },
        {
          "authorId": "2264482059",
          "name": "Mohammad Husain"
        },
        {
          "authorId": "2183438135",
          "name": "Zubair Ashraf"
        },
        {
          "authorId": "2264371460",
          "name": "Arshad Ali"
        },
        {
          "authorId": "71793924",
          "name": "Syed Irfan Yaqoob"
        },
        {
          "authorId": "2243912222",
          "name": "Mohammad Nadeem Ahmed"
        },
        {
          "authorId": "1809575312",
          "name": "Nikhat Parveen"
        }
      ]
    },
    {
      "paperId": "f025aeeba37afa923bcefc1613138490b68ccfc0",
      "externalIds": {
        "DOI": "10.3390/en17081926",
        "CorpusId": 269253674
      },
      "url": "https://www.semanticscholar.org/paper/f025aeeba37afa923bcefc1613138490b68ccfc0",
      "title": "Short-Term Load Forecasting Based on Optimized Random Forest and Optimal Feature Selection",
      "venue": "Energies",
      "year": 2024,
      "referenceCount": 40,
      "citationCount": 39,
      "authors": [
        {
          "authorId": "2238113277",
          "name": "Bianca G. Magalhães"
        },
        {
          "authorId": "2044606491",
          "name": "P. Bento"
        },
        {
          "authorId": "120702745",
          "name": "J. Pombo"
        },
        {
          "authorId": "2261592363",
          "name": "M. Calado"
        },
        {
          "authorId": "96526083",
          "name": "S. Mariano"
        }
      ]
    },
    {
      "paperId": "4360ae67e3e79b584ba5a97e7c6b6e13563eb365",
      "externalIds": {
        "PubMedCentral": "11276884",
        "DOI": "10.3390/ijerph21070867",
        "CorpusId": 271006386,
        "PubMed": "39063444"
      },
      "url": "https://www.semanticscholar.org/paper/4360ae67e3e79b584ba5a97e7c6b6e13563eb365",
      "title": "Random Forest and Feature Importance Measures for Discriminating the Most Influential Environmental Factors in Predicting Cardiovascular and Respiratory Diseases",
      "venue": "International Journal of Environmental Research and Public Health",
      "year": 2024,
      "referenceCount": 65,
      "citationCount": 37,
      "authors": [
        {
          "authorId": "2191491049",
          "name": "Francesco Cappelli"
        },
        {
          "authorId": "2210143426",
          "name": "Gianfranco Castronuovo"
        },
        {
          "authorId": "2244987673",
          "name": "Salvatore Grimaldi"
        },
        {
          "authorId": "2268243659",
          "name": "Vito Telesca"
        }
      ]
    },
    {
      "paperId": "cf156c99e43cc894fb6d95103400a920af5bb9c1",
      "externalIds": {
        "DOI": "10.35882/jeeemi.v6i2.375",
        "CorpusId": 269668522
      },
      "url": "https://www.semanticscholar.org/paper/cf156c99e43cc894fb6d95103400a920af5bb9c1",
      "title": "Comparative Study of Various Hyperparameter Tuning on Random Forest Classification With SMOTE and Feature Selection Using Genetic Algorithm in Software Defect Prediction",
      "venue": "Journal of Electronics Electromedical Engineering and Medical Informatics",
      "year": 2024,
      "referenceCount": 0,
      "citationCount": 25,
      "authors": [
        {
          "authorId": "2300617324",
          "name": "Mulia Kevin Suryadi"
        },
        {
          "authorId": "151185589",
          "name": "R. Herteno"
        },
        {
          "authorId": "2300622264",
          "name": "Setyo Wahyu Saputro"
        },
        {
          "authorId": "145020752",
          "name": "M. Faisal"
        },
        {
          "authorId": "2074001942",
          "name": "Radityo Adi Nugroho"
        }
      ]
    },
    {
      "paperId": "f85622559bbf950d3aad1150c648584cf5654b6b",
      "externalIds": {
        "PubMedCentral": "10043839",
        "DBLP": "journals/mta/Gundogdu23",
        "DOI": "10.1007/s11042-023-15165-8",
        "CorpusId": 257802592,
        "PubMed": "37362660"
      },
      "url": "https://www.semanticscholar.org/paper/f85622559bbf950d3aad1150c648584cf5654b6b",
      "title": "Efficient prediction of early-stage diabetes using XGBoost classifier with random forest feature selection technique",
      "venue": "Multimedia tools and applications",
      "year": 2023,
      "referenceCount": 60,
      "citationCount": 79,
      "authors": [
        {
          "authorId": "1403645588",
          "name": "S. Gündoğdu"
        }
      ]
    },
    {
      "paperId": "d9eb34a30e297eafc2bbccfc46e6766e04a39f2a",
      "externalIds": {
        "DBLP": "journals/remotesensing/YuanLFD23",
        "DOI": "10.3390/rs15215203",
        "CorpusId": 264943962
      },
      "url": "https://www.semanticscholar.org/paper/d9eb34a30e297eafc2bbccfc46e6766e04a39f2a",
      "title": "Feature Importance Ranking of Random Forest-Based End-to-End Learning Algorithm",
      "venue": "Remote Sensing",
      "year": 2023,
      "referenceCount": 25,
      "citationCount": 58,
      "authors": [
        {
          "authorId": "2183076466",
          "name": "Xiaoguang Yuan"
        },
        {
          "authorId": "2212067195",
          "name": "Shiruo Liu"
        },
        {
          "authorId": "2260859187",
          "name": "Wei Feng"
        },
        {
          "authorId": "3165079",
          "name": "G. Dauphin"
        }
      ]
    },
    {
      "paperId": "97875c5215d9af4efb80629f912dabb79d58a13b",
      "externalIds": {
        "PubMedCentral": "9909674",
        "DBLP": "journals/apin/MafarjaTATADT23",
        "DOI": "10.1007/s10489-022-04427-x",
        "CorpusId": 256737259,
        "PubMed": "36785593"
      },
      "url": "https://www.semanticscholar.org/paper/97875c5215d9af4efb80629f912dabb79d58a13b",
      "title": "Classification framework for faulty-software using enhanced exploratory whale optimizer-based feature selection scheme and random forest ensemble learning",
      "venue": "Applied intelligence (Boston)",
      "year": 2023,
      "referenceCount": 119,
      "citationCount": 87,
      "authors": [
        {
          "authorId": "2162250",
          "name": "Majdi M. Mafarja"
        },
        {
          "authorId": "1486453062",
          "name": "Thaer Thaher"
        },
        {
          "authorId": "1396704271",
          "name": "M. Al-Betar"
        },
        {
          "authorId": "68973497",
          "name": "J. Too"
        },
        {
          "authorId": "2987268",
          "name": "Mohammed A. Awadallah"
        },
        {
          "authorId": "31117138",
          "name": "Iyad Abu Doush"
        },
        {
          "authorId": "1872544",
          "name": "H. Turabieh"
        }
      ]
    },
    {
      "paperId": "42fad3310a69f78c4aebbfb6b47e86f9ea4e0203",
      "externalIds": {
        "DOI": "10.3390/app13127186",
        "CorpusId": 259440093
      },
      "url": "https://www.semanticscholar.org/paper/42fad3310a69f78c4aebbfb6b47e86f9ea4e0203",
      "title": "Remaining Useful Life Prediction of Aircraft Turbofan Engine Based on Random Forest Feature Selection and Multi-Layer Perceptron",
      "venue": "Applied Sciences",
      "year": 2023,
      "referenceCount": 27,
      "citationCount": 41,
      "authors": [
        {
          "authorId": "2195337296",
          "name": "Hairui Wang"
        },
        {
          "authorId": "2115627000",
          "name": "Dongwen Li"
        },
        {
          "authorId": "2319517415",
          "name": "Dongjun Li"
        },
        {
          "authorId": "2155371803",
          "name": "Cuiqin Liu"
        },
        {
          "authorId": "2211875892",
          "name": "Xiuqi Yang"
        },
        {
          "authorId": "2181805784",
          "name": "Guifu Zhu"
        }
      ]
    }
  ]
}