{
  "total": 198,
  "offset": 0,
  "next": 10,
  "data": [
    {
      "paperId": "e9bb3df284fa01f39d35f56fe5e7991c4479223c",
      "externalIds": {
        "MAG": "1544480053",
        "DBLP": "conf/icml/BoutsidisKG15",
        "CorpusId": 265101232
      },
      "url": "https://www.semanticscholar.org/paper/e9bb3df284fa01f39d35f56fe5e7991c4479223c",
      "title": "Spectral Clustering via the Power Method - Provably",
      "venue": "International Conference on Machine Learning",
      "year": 2013,
      "referenceCount": 61,
      "citationCount": 32,
      "authors": [
        {
          "authorId": "2265996180",
          "name": "Christos Boutsidis"
        },
        {
          "authorId": "2071549",
          "name": "P. Kambadur"
        },
        {
          "authorId": "9545803",
          "name": "Alex Gittens"
        }
      ]
    },
    {
      "paperId": "0ec316df414722ecaf2f6fea13fc5301bc8635c3",
      "externalIds": {
        "ArXiv": "2505.11169",
        "DBLP": "journals/corr/abs-2505-11169",
        "DOI": "10.48550/arXiv.2505.11169",
        "CorpusId": 278715182
      },
      "url": "https://www.semanticscholar.org/paper/0ec316df414722ecaf2f6fea13fc5301bc8635c3",
      "title": "Locally Differentially Private Graph Clustering via the Power Iteration Method",
      "venue": "arXiv.org",
      "year": 2025,
      "referenceCount": 46,
      "citationCount": 1,
      "authors": [
        {
          "authorId": "1896546",
          "name": "Vorapong Suppakitpaisarn"
        },
        {
          "authorId": "2239200309",
          "name": "Sayan Mukherjee"
        }
      ]
    },
    {
      "paperId": "cb0a879733f10e67305ea93278060dada6f47bce",
      "externalIds": {
        "DBLP": "journals/corr/abs-2509-11981",
        "ArXiv": "2509.11981",
        "DOI": "10.48550/arXiv.2509.11981",
        "CorpusId": 281316198
      },
      "url": "https://www.semanticscholar.org/paper/cb0a879733f10e67305ea93278060dada6f47bce",
      "title": "RJD-BASE: Multi-Modal Spectral Clustering via Randomized Joint Diagonalization",
      "venue": "arXiv.org",
      "year": 2025,
      "referenceCount": 36,
      "citationCount": 0,
      "authors": [
        {
          "authorId": "2287812653",
          "name": "Haoze He"
        },
        {
          "authorId": "2164140186",
          "name": "Artemis Pados"
        },
        {
          "authorId": "2253612399",
          "name": "Daniel Kressner"
        }
      ]
    },
    {
      "paperId": "a4fd13e07339524a66f4126739950377badf52bd",
      "externalIds": {
        "MAG": "2775317516",
        "DBLP": "conf/icdm/ZhiQD17",
        "DOI": "10.1109/ICDM.2017.162",
        "CorpusId": 575154
      },
      "url": "https://www.semanticscholar.org/paper/a4fd13e07339524a66f4126739950377badf52bd",
      "title": "Scalable Constrained Spectral Clustering via the Randomized Projected Power Method",
      "venue": "Industrial Conference on Data Mining",
      "year": 2017,
      "referenceCount": 23,
      "citationCount": 3,
      "authors": [
        {
          "authorId": "1838782",
          "name": "Weifeng Zhi"
        },
        {
          "authorId": "39835284",
          "name": "B. Qian"
        },
        {
          "authorId": "143763341",
          "name": "I. Davidson"
        }
      ]
    },
    {
      "paperId": "00231c9a48812296c6aa4c509aeafa35d2642598",
      "externalIds": {
        "ArXiv": "2412.11080",
        "DBLP": "journals/corr/abs-2412-11080",
        "DOI": "10.1109/SMC54092.2024.10831693",
        "CorpusId": 274776219
      },
      "url": "https://www.semanticscholar.org/paper/00231c9a48812296c6aa4c509aeafa35d2642598",
      "title": "Deep Spectral Clustering via Joint Spectral Embedding and Kmeans",
      "venue": "IEEE International Conference on Systems, Man and Cybernetics",
      "year": 2024,
      "referenceCount": 38,
      "citationCount": 6,
      "authors": [
        {
          "authorId": "2275171707",
          "name": "Wengang Guo"
        },
        {
          "authorId": "2335561815",
          "name": "Wei Ye"
        }
      ]
    },
    {
      "paperId": "5386d7edac89c0547fbe3f9f17ce8d426c41aef9",
      "externalIds": {
        "DOI": "10.1049/stg2.70007",
        "CorpusId": 277525950
      },
      "url": "https://www.semanticscholar.org/paper/5386d7edac89c0547fbe3f9f17ce8d426c41aef9",
      "title": "Power System Controlled Islanding Using Directed Motif‐Based Spectral Clustering: A Novel Complex Network Perspective",
      "venue": "IET Smart Grid",
      "year": 2025,
      "referenceCount": 9,
      "citationCount": 1,
      "authors": [
        {
          "authorId": "2353484322",
          "name": "Mohsen Safarzadeh"
        },
        {
          "authorId": "2259090764",
          "name": "G. Yousefi"
        },
        {
          "authorId": "16916522",
          "name": "M. A. Latify"
        },
        {
          "authorId": "2266130650",
          "name": "Zeinab Maleki"
        }
      ]
    },
    {
      "paperId": "41e0827769ab5ac5b47031976fef79c9776d6291",
      "externalIds": {
        "DOI": "10.3389/fenrg.2022.909611",
        "CorpusId": 250497733
      },
      "url": "https://www.semanticscholar.org/paper/41e0827769ab5ac5b47031976fef79c9776d6291",
      "title": "Probabilistic Optimal Power Flow-Based Spectral Clustering Method Considering Variable Renewable Energy Sources",
      "venue": "Frontiers in Energy Research",
      "year": 2022,
      "referenceCount": 29,
      "citationCount": 7,
      "authors": [
        {
          "authorId": "120086151",
          "name": "Juhwan Kim"
        },
        {
          "authorId": "2127384404",
          "name": "Jaehyeong Lee"
        },
        {
          "authorId": "2115515748",
          "name": "Sungwoo Kang"
        },
        {
          "authorId": "98219074",
          "name": "Sungchul Hwang"
        },
        {
          "authorId": "50736147",
          "name": "M. Yoon"
        },
        {
          "authorId": "49415382",
          "name": "G. Jang"
        }
      ]
    },
    {
      "paperId": "139eb7c84c99311a039d38c25ef146b721a6b25a",
      "externalIds": {
        "DOI": "10.1109/OAJPE.2025.3531240",
        "CorpusId": 275675485
      },
      "url": "https://www.semanticscholar.org/paper/139eb7c84c99311a039d38c25ef146b721a6b25a",
      "title": "Proactive Frequency Stability Scheme Based on Bayesian Filters and Spectral Clustering",
      "venue": "IEEE Open Access Journal of Power and Energy",
      "year": 2025,
      "referenceCount": 32,
      "citationCount": 2,
      "authors": [
        {
          "authorId": "2146590170",
          "name": "Gian Paramo"
        },
        {
          "authorId": "1450593330",
          "name": "M. D. Baquedano-Aguilar"
        },
        {
          "authorId": "2244523116",
          "name": "Arturo S. Bretas"
        },
        {
          "authorId": "2267752730",
          "name": "Sean P. Meyn"
        }
      ]
    },
    {
      "paperId": "b3d746928c7454c81184e249b1fa659dabc58592",
      "externalIds": {
        "DBLP": "journals/apin/PeiHHZ25",
        "DOI": "10.1007/s10489-025-06255-1",
        "CorpusId": 275807822
      },
      "url": "https://www.semanticscholar.org/paper/b3d746928c7454c81184e249b1fa659dabc58592",
      "title": "Deep subspace clustering via latent representation learning",
      "venue": "Applied intelligence (Boston)",
      "year": 2025,
      "referenceCount": 52,
      "citationCount": 3,
      "authors": [
        {
          "authorId": "2321203104",
          "name": "Shenglei Pei"
        },
        {
          "authorId": "2321415994",
          "name": "Qinghao Han"
        },
        {
          "authorId": "2322101094",
          "name": "Zepu Hao"
        },
        {
          "authorId": "2342158734",
          "name": "Hong Zhao"
        }
      ]
    },
    {
      "paperId": "8625c3a2c6f7015cb79cd739da170aca712323da",
      "externalIds": {
        "DBLP": "conf/nips/Macgregor23",
        "ArXiv": "2310.10939",
        "DOI": "10.48550/arXiv.2310.10939",
        "CorpusId": 264172883
      },
      "url": "https://www.semanticscholar.org/paper/8625c3a2c6f7015cb79cd739da170aca712323da",
      "title": "Fast and Simple Spectral Clustering in Theory and Practice",
      "venue": "Neural Information Processing Systems",
      "year": 2023,
      "referenceCount": 35,
      "citationCount": 11,
      "authors": [
        {
          "authorId": "70245320",
          "name": "Peter Macgregor"
        }
      ]
    }
  ]
}