{
  "total": 27,
  "offset": 0,
  "next": 10,
  "data": [
    {
      "paperId": "6c4e068c2e4b8f5cdc18bcf61cd7f66f6d22f8a7",
      "externalIds": {
        "MAG": "2952756565",
        "DBLP": "journals/corr/abs-1802-05399",
        "ArXiv": "1802.05399",
        "DOI": "10.1145/3447579",
        "CorpusId": 3625405
      },
      "url": "https://www.semanticscholar.org/paper/6c4e068c2e4b8f5cdc18bcf61cd7f66f6d22f8a7",
      "title": "Competitive caching with machine learned advice",
      "venue": "International Conference on Machine Learning",
      "year": 2018,
      "referenceCount": 41,
      "citationCount": 469,
      "authors": [
        {
          "authorId": "2558458",
          "name": "Thodoris Lykouris"
        },
        {
          "authorId": "1749789",
          "name": "Sergei Vassilvitskii"
        }
      ]
    },
    {
      "paperId": "ae090c618017d4e9872e27fe6798b5d8ce4a94f2",
      "externalIds": {
        "ArXiv": "1910.12172",
        "DBLP": "journals/corr/abs-1910-12172",
        "MAG": "3001957700",
        "DOI": "10.1137/1.9781611975994.112",
        "CorpusId": 204904529
      },
      "url": "https://www.semanticscholar.org/paper/ae090c618017d4e9872e27fe6798b5d8ce4a94f2",
      "title": "Near-Optimal Bounds for Online Caching with Machine Learned Advice",
      "venue": "ACM-SIAM Symposium on Discrete Algorithms",
      "year": 2019,
      "referenceCount": 16,
      "citationCount": 169,
      "authors": [
        {
          "authorId": "51062464",
          "name": "Dhruv Rohatgi"
        }
      ]
    },
    {
      "paperId": "da87921e9a7fc1851a0be8754b0565b5f43a3265",
      "externalIds": {
        "MAG": "3082669297",
        "ArXiv": "2005.13716",
        "DBLP": "conf/approx/Wei20",
        "DOI": "10.4230/LIPIcs.APPROX/RANDOM.2020.60",
        "CorpusId": 218971697
      },
      "url": "https://www.semanticscholar.org/paper/da87921e9a7fc1851a0be8754b0565b5f43a3265",
      "title": "Better and Simpler Learning-Augmented Online Caching",
      "venue": "International Workshop and International Workshop on Approximation, Randomization, and Combinatorial Optimization. Algorithms and Techniques",
      "year": 2020,
      "referenceCount": 28,
      "citationCount": 74,
      "authors": [
        {
          "authorId": "143797846",
          "name": "Alexander Wei"
        }
      ]
    },
    {
      "paperId": "7393b4d1e31d78d23f8f50024263ea27dc9b7b3b",
      "externalIds": {
        "CorpusId": 219952343
      },
      "url": "https://www.semanticscholar.org/paper/7393b4d1e31d78d23f8f50024263ea27dc9b7b3b",
      "title": "Better Caching with Machine Learned Advice",
      "venue": "",
      "year": 2018,
      "referenceCount": 13,
      "citationCount": 2,
      "authors": [
        {
          "authorId": "2558458",
          "name": "Thodoris Lykouris"
        },
        {
          "authorId": "1749789",
          "name": "Sergei Vassilvitskii"
        }
      ]
    },
    {
      "paperId": "9d2f31fe2c026f3039b108982822c3c82af94b12",
      "externalIds": {
        "DOI": "10.1049/dgt2.12012",
        "CorpusId": 272375782
      },
      "url": "https://www.semanticscholar.org/paper/9d2f31fe2c026f3039b108982822c3c82af94b12",
      "title": "Online demand peak shaving with machine‐learned advice in digital twins",
      "venue": "Digital Twins and Applications",
      "year": 2024,
      "referenceCount": 29,
      "citationCount": 5,
      "authors": [
        {
          "authorId": "2319604099",
          "name": "M. Feng"
        },
        {
          "authorId": "47777798",
          "name": "Wei Li"
        },
        {
          "authorId": "2067528279",
          "name": "Bo Qin"
        },
        {
          "authorId": "2276535845",
          "name": "Albert Y. Zomaya"
        }
      ]
    },
    {
      "paperId": "0d4bbb5387bbec48f272f6981c35144a1b4b1fe7",
      "externalIds": {
        "MAG": "3031442975",
        "DBLP": "conf/nips/AntoniadisGKK20",
        "ArXiv": "2006.01026",
        "DOI": "10.1016/j.disopt.2023.100778",
        "CorpusId": 219177304
      },
      "url": "https://www.semanticscholar.org/paper/0d4bbb5387bbec48f272f6981c35144a1b4b1fe7",
      "title": "Secretary and Online Matching Problems with Machine Learned Advice",
      "venue": "Neural Information Processing Systems",
      "year": 2020,
      "referenceCount": 50,
      "citationCount": 152,
      "authors": [
        {
          "authorId": "34595599",
          "name": "A. Antoniadis"
        },
        {
          "authorId": "2927590",
          "name": "Themis Gouleakis"
        },
        {
          "authorId": "3407062",
          "name": "P. Kleer"
        },
        {
          "authorId": "2662064",
          "name": "Pavel Kolev"
        }
      ]
    },
    {
      "paperId": "e001a0ce38165a0a996a5a04b44040cc7913bcf1",
      "externalIds": {
        "DBLP": "conf/dasc/FenglLQZ23",
        "DOI": "10.1109/DASC/PiCom/CBDCom/Cy59711.2023.10361461",
        "CorpusId": 266564527
      },
      "url": "https://www.semanticscholar.org/paper/e001a0ce38165a0a996a5a04b44040cc7913bcf1",
      "title": "Online Demand Peak Shaving with Machine-Learned Advice in Cyber-Physical Energy Systems",
      "venue": "2023 IEEE Intl Conf on Dependable, Autonomic and Secure Computing, Intl Conf on Pervasive Intelligence and Computing, Intl Conf on Cloud and Big Data Computing, Intl Conf on Cyber Science and Technology Congress (DASC/PiCom/CBDCom/CyberSciTech)",
      "year": 2023,
      "referenceCount": 25,
      "citationCount": 0,
      "authors": [
        {
          "authorId": "2276534861",
          "name": "Minxi Fengl"
        },
        {
          "authorId": "47777798",
          "name": "Wei Li"
        },
        {
          "authorId": "2067528279",
          "name": "Bo Qin"
        },
        {
          "authorId": "2276535845",
          "name": "Albert Y. Zomaya"
        }
      ]
    },
    {
      "paperId": "59afe59ff20b39a06546bb53779598ab0a0ed27d",
      "externalIds": {
        "DBLP": "conf/innovations/LindermayrMS22",
        "ArXiv": "2103.01640",
        "DOI": "10.4230/LIPIcs.ITCS.2022.99",
        "CorpusId": 232092543
      },
      "url": "https://www.semanticscholar.org/paper/59afe59ff20b39a06546bb53779598ab0a0ed27d",
      "title": "Double Coverage with Machine-Learned Advice",
      "venue": "Information Technology Convergence and Services",
      "year": 2021,
      "referenceCount": 58,
      "citationCount": 19,
      "authors": [
        {
          "authorId": "133621186",
          "name": "Alexander Lindermayr"
        },
        {
          "authorId": "1797907",
          "name": "Nicole Megow"
        },
        {
          "authorId": "38462988",
          "name": "B. Simon"
        }
      ]
    },
    {
      "paperId": "2ec8df30387d47a755e62d92b695c6e547b34ffa",
      "externalIds": {
        "DBLP": "journals/corr/abs-2208-04016",
        "ArXiv": "2208.04016",
        "DOI": "10.48550/arXiv.2208.04016",
        "CorpusId": 251402820
      },
      "url": "https://www.semanticscholar.org/paper/2ec8df30387d47a755e62d92b695c6e547b34ffa",
      "title": "Solving the Online Assignment Problem with Machine Learned Advice",
      "venue": "arXiv.org",
      "year": 2022,
      "referenceCount": 19,
      "citationCount": 1,
      "authors": [
        {
          "authorId": "2180792739",
          "name": "Clarence Gabriel R. Kasilag"
        },
        {
          "authorId": "2350518161",
          "name": "P. Rey"
        },
        {
          "authorId": "1813999",
          "name": "Jhoirene B. Clemente"
        }
      ]
    },
    {
      "paperId": "0c53b39a99fea45f2c1d5420627917431248e27d",
      "externalIds": {
        "DBLP": "journals/corr/abs-2012-09394",
        "MAG": "3112702193",
        "ArXiv": "2012.09394",
        "CorpusId": 229297864
      },
      "url": "https://www.semanticscholar.org/paper/0c53b39a99fea45f2c1d5420627917431248e27d",
      "title": "Metrical Task Systems with Online Machine Learned Advice",
      "venue": "arXiv.org",
      "year": 2020,
      "referenceCount": 7,
      "citationCount": 0,
      "authors": [
        {
          "authorId": "2107738221",
          "name": "K. Rao"
        }
      ]
    }
  ]
}