{
  "total": 16,
  "offset": 0,
  "next": 10,
  "data": [
    {
      "paperId": "89c935ac2a3efdb10d306e3e1a657efa30f90408",
      "externalIds": {
        "DBLP": "conf/icml/PanS16",
        "MAG": "2950986804",
        "ArXiv": "1511.05678",
        "CorpusId": 6332770
      },
      "url": "https://www.semanticscholar.org/paper/89c935ac2a3efdb10d306e3e1a657efa30f90408",
      "title": "Expressiveness of Rectifier Networks",
      "venue": "International Conference on Machine Learning",
      "year": 2015,
      "referenceCount": 23,
      "citationCount": 46,
      "authors": [
        {
          "authorId": "3265780",
          "name": "Xingyuan Pan"
        },
        {
          "authorId": "3052879",
          "name": "Vivek Srikumar"
        }
      ]
    },
    {
      "paperId": "87e7ecb228364ff664fccbf3367855910f811a35",
      "externalIds": {
        "MAG": "2894792212",
        "ArXiv": "1810.03370",
        "DBLP": "conf/isaim/SerraR20",
        "DOI": "10.1609/AAAI.V34I04.6016",
        "CorpusId": 52939421
      },
      "url": "https://www.semanticscholar.org/paper/87e7ecb228364ff664fccbf3367855910f811a35",
      "title": "Empirical Bounds on Linear Regions of Deep Rectifier Networks",
      "venue": "International Symposium on Artificial Intelligence and Mathematics",
      "year": 2018,
      "referenceCount": 71,
      "citationCount": 46,
      "authors": [
        {
          "authorId": "13394773",
          "name": "Thiago Serra"
        },
        {
          "authorId": "145686644",
          "name": "Srikumar Ramalingam"
        }
      ]
    },
    {
      "paperId": "4509acaea29990884ed8d95752e6e38ea915066d",
      "externalIds": {
        "DBLP": "journals/corr/abs-2012-04428",
        "MAG": "3111589247",
        "ArXiv": "2012.04428",
        "CorpusId": 227744959
      },
      "url": "https://www.semanticscholar.org/paper/4509acaea29990884ed8d95752e6e38ea915066d",
      "title": "A General Computational Framework to Measure the Expressiveness of Complex Networks Using a Tighter Upper Bound of Linear Regions",
      "venue": "arXiv.org",
      "year": 2020,
      "referenceCount": 23,
      "citationCount": 3,
      "authors": [
        {
          "authorId": null,
          "name": "Yutong Xie"
        },
        {
          "authorId": "151496559",
          "name": "Gaoxiang Chen"
        },
        {
          "authorId": "1762919",
          "name": "Quanzheng Li"
        }
      ]
    },
    {
      "paperId": "6359c49dd9e9553ec2e4f117e7735bd16fe18dba",
      "externalIds": {
        "CorpusId": 276648240
      },
      "url": "https://www.semanticscholar.org/paper/6359c49dd9e9553ec2e4f117e7735bd16fe18dba",
      "title": "Convolutional Rectifier Networks as Generalized Tensor Decompositions",
      "venue": "",
      "year": 2016,
      "referenceCount": 0,
      "citationCount": 1,
      "authors": []
    },
    {
      "paperId": "d73d4222ce28a24fbf18b81973dcdfcf1db44058",
      "externalIds": {
        "DBLP": "journals/corr/abs-1807-06302",
        "MAG": "2884938415",
        "ArXiv": "1807.06302",
        "CorpusId": 49862552
      },
      "url": "https://www.semanticscholar.org/paper/d73d4222ce28a24fbf18b81973dcdfcf1db44058",
      "title": "Learning Neuron Non-Linearities with Kernel-Based Deep Neural Networks",
      "venue": "arXiv.org",
      "year": 2018,
      "referenceCount": 16,
      "citationCount": 2,
      "authors": [
        {
          "authorId": "2065039297",
          "name": "G. Marra"
        },
        {
          "authorId": "9952297",
          "name": "Dario Zanca"
        },
        {
          "authorId": "3409251",
          "name": "Alessandro Betti"
        },
        {
          "authorId": "145467467",
          "name": "M. Gori"
        }
      ]
    },
    {
      "paperId": "7db73b56ca014d44b925ed6ad6d1fe18a774ecd1",
      "externalIds": {
        "MAG": "2290854557",
        "DBLP": "conf/icml/CohenS16",
        "ArXiv": "1603.00162",
        "CorpusId": 7369238
      },
      "url": "https://www.semanticscholar.org/paper/7db73b56ca014d44b925ed6ad6d1fe18a774ecd1",
      "title": "Convolutional Rectifier Networks as Generalized Tensor Decompositions",
      "venue": "International Conference on Machine Learning",
      "year": 2016,
      "referenceCount": 33,
      "citationCount": 158,
      "authors": [
        {
          "authorId": "32289606",
          "name": "Nadav Cohen"
        },
        {
          "authorId": "3140335",
          "name": "A. Shashua"
        }
      ]
    },
    {
      "paperId": "4af613d995fc393b3c15c1318b0de96a8d420405",
      "externalIds": {
        "MAG": "2999529246",
        "DBLP": "conf/iccvw/GambaACB19",
        "DOI": "10.1109/ICCVW.2019.00106",
        "CorpusId": 207909748
      },
      "url": "https://www.semanticscholar.org/paper/4af613d995fc393b3c15c1318b0de96a8d420405",
      "title": "On the Geometry of Rectifier Convolutional Neural Networks",
      "venue": "2019 IEEE/CVF International Conference on Computer Vision Workshop (ICCVW)",
      "year": 2019,
      "referenceCount": 25,
      "citationCount": 2,
      "authors": [
        {
          "authorId": "35777915",
          "name": "Matteo Gamba"
        },
        {
          "authorId": "2622491",
          "name": "Hossein Azizpour"
        },
        {
          "authorId": "153120475",
          "name": "S. Carlsson"
        },
        {
          "authorId": "7347502",
          "name": "Mårten Björkman"
        }
      ]
    },
    {
      "paperId": "323a683e799a6da395b0489ebb73e801666dbea5",
      "externalIds": {
        "DBLP": "journals/corr/abs-2403-17236",
        "ArXiv": "2403.17236",
        "DOI": "10.48550/arXiv.2403.17236",
        "CorpusId": 268692207
      },
      "url": "https://www.semanticscholar.org/paper/323a683e799a6da395b0489ebb73e801666dbea5",
      "title": "Neural Image Compression with Quantization Rectifier",
      "venue": "arXiv.org",
      "year": 2024,
      "referenceCount": 27,
      "citationCount": 2,
      "authors": [
        {
          "authorId": "2114375566",
          "name": "W. Luo"
        },
        {
          "authorId": "2323693827",
          "name": "Bowei Chen"
        }
      ]
    },
    {
      "paperId": "0e278b1756abf9266bdc7823c844d92d3189e0c6",
      "externalIds": {
        "MAG": "2964520230",
        "DOI": "10.1109/YAC.2019.8787645",
        "CorpusId": 199489932
      },
      "url": "https://www.semanticscholar.org/paper/0e278b1756abf9266bdc7823c844d92d3189e0c6",
      "title": "On Theoretical Analysis of Single Hidden Layer Feedforward Neural Networks with Relu Activations",
      "venue": "Youth Academic Annual Conference of Chinese Association of Automation",
      "year": 2019,
      "referenceCount": 23,
      "citationCount": 9,
      "authors": [
        {
          "authorId": "151492533",
          "name": "Guorui Shen"
        },
        {
          "authorId": "2112460630",
          "name": "Ye Yuan"
        }
      ]
    },
    {
      "paperId": "520c5f8e1224d9d4995a2efe16a17f7d27996d3e",
      "externalIds": {
        "MAG": "3035865126",
        "ArXiv": "2006.13026",
        "DBLP": "journals/corr/abs-2006-13026",
        "DOI": "10.1109/TPAMI.2021.3058891",
        "CorpusId": 219980501,
        "PubMed": "33571091"
      },
      "url": "https://www.semanticscholar.org/paper/520c5f8e1224d9d4995a2efe16a17f7d27996d3e",
      "title": "Deep Polynomial Neural Networks",
      "venue": "IEEE Transactions on Pattern Analysis and Machine Intelligence",
      "year": 2020,
      "referenceCount": 100,
      "citationCount": 123,
      "authors": [
        {
          "authorId": "2140285545",
          "name": "Grigorios G. Chrysos"
        },
        {
          "authorId": "24278037",
          "name": "Stylianos Moschoglou"
        },
        {
          "authorId": "7311172",
          "name": "Giorgos Bouritsas"
        },
        {
          "authorId": "3234063",
          "name": "Jiankang Deng"
        },
        {
          "authorId": "1780393",
          "name": "Yannis Panagakis"
        },
        {
          "authorId": "1776444",
          "name": "S. Zafeiriou"
        }
      ]
    }
  ]
}