{
  "total": 1948,
  "offset": 0,
  "next": 10,
  "data": [
    {
      "paperId": "f0f5e63ca2b8ee32d33c2489225445419364ea99",
      "externalIds": {
        "DBLP": "conf/icml/BerlindU15",
        "MAG": "1870462933",
        "CorpusId": 14404795
      },
      "url": "https://www.semanticscholar.org/paper/f0f5e63ca2b8ee32d33c2489225445419364ea99",
      "title": "Active Nearest Neighbors in Changing Environments",
      "venue": "International Conference on Machine Learning",
      "year": 2015,
      "referenceCount": 32,
      "citationCount": 36,
      "authors": [
        {
          "authorId": "49153699",
          "name": "C. Berlind"
        },
        {
          "authorId": "2224151",
          "name": "Ruth Urner"
        }
      ]
    },
    {
      "paperId": "28a0848f1120290269c01abee3179ec9ab440b00",
      "externalIds": {
        "CorpusId": 18132018
      },
      "url": "https://www.semanticscholar.org/paper/28a0848f1120290269c01abee3179ec9ab440b00",
      "title": "Active Nearest Neighbors in Changing Environments : Supplementary Material",
      "venue": "",
      "year": 2015,
      "referenceCount": 0,
      "citationCount": 0,
      "authors": [
        {
          "authorId": "49153699",
          "name": "C. Berlind"
        },
        {
          "authorId": "2224151",
          "name": "Ruth Urner"
        }
      ]
    },
    {
      "paperId": "604c3f59cfaf42712a79bee1fe768f2c30971146",
      "externalIds": {
        "ArXiv": "2506.21705",
        "DOI": "10.1051/0004-6361/202555295",
        "CorpusId": 280291906
      },
      "url": "https://www.semanticscholar.org/paper/604c3f59cfaf42712a79bee1fe768f2c30971146",
      "title": "Active galactic nuclei with massive black holes have closer galactic neighbors. k-nearest-neighbor statistics of an unbiased sample at z∼ 0.03",
      "venue": "Astronomy &amp; Astrophysics",
      "year": 2025,
      "referenceCount": 0,
      "citationCount": 1,
      "authors": [
        {
          "authorId": "2090675829",
          "name": "A. Mhatre"
        },
        {
          "authorId": "49363826",
          "name": "M. Powell"
        },
        {
          "authorId": "2380437575",
          "name": "S. Yuan"
        },
        {
          "authorId": "2248196919",
          "name": "S. Allen"
        },
        {
          "authorId": "90838321",
          "name": "T. Caglar"
        },
        {
          "authorId": "2246057557",
          "name": "M. Koss"
        },
        {
          "authorId": "1422602868",
          "name": "I. D. Moral-Castro"
        },
        {
          "authorId": "101790660",
          "name": "K. Oh"
        },
        {
          "authorId": "1389530884",
          "name": "A. Peca"
        },
        {
          "authorId": "2372657048",
          "name": "C. Ricci"
        },
        {
          "authorId": "2249532104",
          "name": "F. Ricci"
        },
        {
          "authorId": "2228035642",
          "name": "A. Rojas"
        },
        {
          "authorId": "2209881905",
          "name": "M. Signorini"
        }
      ]
    },
    {
      "paperId": "6d82e9cf615a0b55e7faafeb81c1e19c8e7d1282",
      "externalIds": {
        "DBLP": "journals/corr/abs-2508-19771",
        "ArXiv": "2508.19771",
        "DOI": "10.1109/IROS58592.2024.10802280",
        "CorpusId": 275018836
      },
      "url": "https://www.semanticscholar.org/paper/6d82e9cf615a0b55e7faafeb81c1e19c8e7d1282",
      "title": "Elliptical K-Nearest Neighbors - Path Optimization via Coulomb’s Law and Invalid Vertices in C-space Obstacles",
      "venue": "IEEE/RJS International Conference on Intelligent RObots and Systems",
      "year": 2024,
      "referenceCount": 28,
      "citationCount": 10,
      "authors": [
        {
          "authorId": "2260452970",
          "name": "Liding Zhang"
        },
        {
          "authorId": "13974169",
          "name": "Zhenshan Bing"
        },
        {
          "authorId": "2287926238",
          "name": "Yu Zhang"
        },
        {
          "authorId": "2337107020",
          "name": "Kuanqi Cai"
        },
        {
          "authorId": "2260649930",
          "name": "Lingyun Chen"
        },
        {
          "authorId": "2260876739",
          "name": "Fan Wu"
        },
        {
          "authorId": "2260341041",
          "name": "Sami Haddadin"
        },
        {
          "authorId": "2199865233",
          "name": "A. Knoll"
        }
      ]
    },
    {
      "paperId": "6202e95a742d194314c0300079dce45058b13c22",
      "externalIds": {
        "DOI": "10.1109/ICICT60155.2024.10544531",
        "CorpusId": 270314692
      },
      "url": "https://www.semanticscholar.org/paper/6202e95a742d194314c0300079dce45058b13c22",
      "title": "Next-Gen HVAC Technologies with K-Nearest Neighbors for Cloud-Optimized Allergen Filtration for Healthier Living Spaces",
      "venue": "International Congress on Information and Communication Technology",
      "year": 2024,
      "referenceCount": 17,
      "citationCount": 1,
      "authors": [
        {
          "authorId": "2260371798",
          "name": "Ramakrishnan Raman"
        },
        {
          "authorId": "2305174495",
          "name": "Raj A. Varma"
        }
      ]
    },
    {
      "paperId": "b2d977458a4b8c3712342f8271e3522db9547de4",
      "externalIds": {
        "DOI": "10.1177/14759217261433258",
        "CorpusId": 286911542
      },
      "url": "https://www.semanticscholar.org/paper/b2d977458a4b8c3712342f8271e3522db9547de4",
      "title": "Unsupervised anomaly detection via local standard distance metric-aided exponential slow feature analysis under changing environments",
      "venue": "Structural Health Monitoring",
      "year": 2026,
      "referenceCount": 40,
      "citationCount": 0,
      "authors": [
        {
          "authorId": "2180552723",
          "name": "Zhen Wang"
        },
        {
          "authorId": "2109888241",
          "name": "Xin Tang"
        },
        {
          "authorId": "1753680033",
          "name": "Dong‐Hui Yang"
        },
        {
          "authorId": "2357969881",
          "name": "Guo-Hong Liu"
        },
        {
          "authorId": "2357538738",
          "name": "Hong-Lei Xie"
        },
        {
          "authorId": "2280471529",
          "name": "Peng He"
        }
      ]
    },
    {
      "paperId": "7c2527b8d1762686b05e3a3072346f819cabe85f",
      "externalIds": {
        "DOI": "10.1109/ICEMPS60684.2024.10559349",
        "CorpusId": 270639765
      },
      "url": "https://www.semanticscholar.org/paper/7c2527b8d1762686b05e3a3072346f819cabe85f",
      "title": "Data-Driven Drive Safety with Cloud-based Adaptive Cruise Control using K-Nearest Neighbors Algorithm",
      "venue": "2024 International Conference on E-mobility, Power Control and Smart Systems (ICEMPS)",
      "year": 2024,
      "referenceCount": 17,
      "citationCount": 3,
      "authors": [
        {
          "authorId": "2279940680",
          "name": "Dr.Subramani Roy Choudri"
        },
        {
          "authorId": "2307614865",
          "name": "Dr. K. Balasubadra"
        },
        {
          "authorId": "2286577709",
          "name": "Dr. T. J. Nagalakshmi"
        },
        {
          "authorId": "2307616255",
          "name": "Dr. S K Mouleeswaran"
        },
        {
          "authorId": "81432613",
          "name": "P. Sai"
        },
        {
          "authorId": "2307609606",
          "name": "S. P. Maniraj"
        }
      ]
    },
    {
      "paperId": "9a0a17436a51ef71445aa2b394c270a98bf75d34",
      "externalIds": {
        "ArXiv": "2406.02807",
        "DBLP": "journals/corr/abs-2406-02807",
        "DOI": "10.48550/arXiv.2406.02807",
        "CorpusId": 270257944
      },
      "url": "https://www.semanticscholar.org/paper/9a0a17436a51ef71445aa2b394c270a98bf75d34",
      "title": "Collision-Affording Point Trees: SIMD-Amenable Nearest Neighbors for Fast Collision Checking",
      "venue": "arXiv.org",
      "year": 2024,
      "referenceCount": 73,
      "citationCount": 15,
      "authors": [
        {
          "authorId": "2304751141",
          "name": "Clayton W. Ramsey"
        },
        {
          "authorId": "2710105",
          "name": "Zachary K. Kingston"
        },
        {
          "authorId": "46849642",
          "name": "Wil B. Thomason"
        },
        {
          "authorId": "2289406121",
          "name": "L. Kavraki"
        }
      ]
    },
    {
      "paperId": "48ee55c2baf96cd96fb4342a3f2c44baafa1ef76",
      "externalIds": {
        "DBLP": "journals/corr/abs-2211-10773",
        "ArXiv": "2211.10773",
        "DOI": "10.48550/arXiv.2211.10773",
        "CorpusId": 253734960
      },
      "url": "https://www.semanticscholar.org/paper/48ee55c2baf96cd96fb4342a3f2c44baafa1ef76",
      "title": "A Two-Stage Active Learning Algorithm for k-Nearest Neighbors",
      "venue": "International Conference on Machine Learning",
      "year": 2022,
      "referenceCount": 26,
      "citationCount": 3,
      "authors": [
        {
          "authorId": "2159675439",
          "name": "Nick Rittler"
        },
        {
          "authorId": "38120884",
          "name": "Kamalika Chaudhuri"
        }
      ]
    },
    {
      "paperId": "fff1fc7bd22ca406490e57f0b59c9157341f052a",
      "externalIds": {
        "DOI": "10.1007/s12008-023-01701-1",
        "CorpusId": 267063436
      },
      "url": "https://www.semanticscholar.org/paper/fff1fc7bd22ca406490e57f0b59c9157341f052a",
      "title": "Development of rapidly exploring random tree based autonomous mobile robot navigation and velocity predictions using K-nearest neighbors with fuzzy logic analysis",
      "venue": "International Journal on Interactive Design and Manufacturing (IJIDeM)",
      "year": 2024,
      "referenceCount": 32,
      "citationCount": 6,
      "authors": [
        {
          "authorId": "2323610793",
          "name": "C. Vignesh"
        },
        {
          "authorId": "2089895797",
          "name": "M. Uma"
        },
        {
          "authorId": "9075264",
          "name": "P. Sethuramalingam"
        }
      ]
    }
  ]
}