{
  "total": 134,
  "offset": 0,
  "next": 10,
  "data": [
    {
      "paperId": "f230cacc511b17b491bf3d90015bbbf85b9ef6af",
      "externalIds": {
        "DBLP": "conf/icml/VillegasYZSLL17",
        "MAG": "2952315244",
        "ArXiv": "1704.05831",
        "CorpusId": 15117981
      },
      "url": "https://www.semanticscholar.org/paper/f230cacc511b17b491bf3d90015bbbf85b9ef6af",
      "title": "Learning to Generate Long-term Future via Hierarchical Prediction",
      "venue": "International Conference on Machine Learning",
      "year": 2017,
      "referenceCount": 34,
      "citationCount": 396,
      "authors": [
        {
          "authorId": "144543406",
          "name": "Ruben Villegas"
        },
        {
          "authorId": "1768964",
          "name": "Jimei Yang"
        },
        {
          "authorId": "8299168",
          "name": "Yuliang Zou"
        },
        {
          "authorId": "144832576",
          "name": "Sungryull Sohn"
        },
        {
          "authorId": "10668384",
          "name": "Xunyu Lin"
        },
        {
          "authorId": "1697141",
          "name": "Honglak Lee"
        }
      ]
    },
    {
      "paperId": "0ba0b8f9386d1e5db69540a90a805b64deaccac6",
      "externalIds": {
        "CorpusId": 260556589
      },
      "url": "https://www.semanticscholar.org/paper/0ba0b8f9386d1e5db69540a90a805b64deaccac6",
      "title": "Learning to Generate Long-term Future via Hierarchical Prediction",
      "venue": "",
      "year": 2017,
      "referenceCount": 0,
      "citationCount": 4,
      "authors": []
    },
    {
      "paperId": "5e865f421b11c88f53b599c091c2972ae659b8f9",
      "externalIds": {
        "DBLP": "conf/iros/ZhangLLC24",
        "ArXiv": "2405.19528",
        "DOI": "10.1109/IROS58592.2024.10802068",
        "CorpusId": 270123749
      },
      "url": "https://www.semanticscholar.org/paper/5e865f421b11c88f53b599c091c2972ae659b8f9",
      "title": "Predicting Long-Term Human Behaviors in Discrete Representations via Physics-Guided Diffusion",
      "venue": "IEEE/RJS International Conference on Intelligent RObots and Systems",
      "year": 2024,
      "referenceCount": 68,
      "citationCount": 5,
      "authors": [
        {
          "authorId": "2301019679",
          "name": "Zhitian Zhang"
        },
        {
          "authorId": "2291290651",
          "name": "Anjian Li"
        },
        {
          "authorId": "2249530397",
          "name": "Angelica Lim"
        },
        {
          "authorId": "2144423918",
          "name": "Mo Chen"
        }
      ]
    },
    {
      "paperId": "8e9f455548d6f5088647c504cbe675a78971622c",
      "externalIds": {
        "DBLP": "journals/corr/abs-2104-06697",
        "ArXiv": "2104.06697",
        "CorpusId": 233231739
      },
      "url": "https://www.semanticscholar.org/paper/8e9f455548d6f5088647c504cbe675a78971622c",
      "title": "Revisiting Hierarchical Approach for Persistent Long-Term Video Prediction",
      "venue": "International Conference on Learning Representations",
      "year": 2021,
      "referenceCount": 52,
      "citationCount": 29,
      "authors": [
        {
          "authorId": "79837092",
          "name": "Wonkwang Lee"
        },
        {
          "authorId": "20919735",
          "name": "Whie Jung"
        },
        {
          "authorId": "2119079641",
          "name": "Han Zhang"
        },
        {
          "authorId": "2117180415",
          "name": "Ting Chen"
        },
        {
          "authorId": "23978705",
          "name": "Jing Yu Koh"
        },
        {
          "authorId": "1564426583",
          "name": "Thomas E. Huang"
        },
        {
          "authorId": "2090465556",
          "name": "Hyungsuk Yoon"
        },
        {
          "authorId": "2118338545",
          "name": "Honglak Lee"
        },
        {
          "authorId": "2241528",
          "name": "Seunghoon Hong"
        }
      ]
    },
    {
      "paperId": "7cc1f1912fa042dbf7e87174d2d51b7d8256d794",
      "externalIds": {
        "DOI": "10.1088/1748-9326/ade9e0",
        "CorpusId": 279780573
      },
      "url": "https://www.semanticscholar.org/paper/7cc1f1912fa042dbf7e87174d2d51b7d8256d794",
      "title": "Improved storm surge prediction and extreme sea level future projections in the Indian Ocean using deep learning",
      "venue": "Environmental Research Letters",
      "year": 2025,
      "referenceCount": 89,
      "citationCount": 2,
      "authors": [
        {
          "authorId": "2328244415",
          "name": "P. Sreeraj"
        },
        {
          "authorId": "2160014148",
          "name": "P. Swapna"
        },
        {
          "authorId": "2299771124",
          "name": "Manmeet Singh"
        },
        {
          "authorId": "36526854",
          "name": "R. Krishnan"
        }
      ]
    },
    {
      "paperId": "e0d166d00ef75becf96955018fd6ea613e9f88f1",
      "externalIds": {
        "DOI": "10.22194/jgias/25.1694",
        "CorpusId": 280162466
      },
      "url": "https://www.semanticscholar.org/paper/e0d166d00ef75becf96955018fd6ea613e9f88f1",
      "title": "Interpretable Machine Learning for Multi-Crop Yield Prediction in Semi-Arid Regions: A Hierarchical Approach to Handle Climate Data Sparsity",
      "venue": "Journal of Global Innovations in Agricultural Sciences",
      "year": 2025,
      "referenceCount": 0,
      "citationCount": 2,
      "authors": [
        {
          "authorId": "2373083855",
          "name": "Rachid Ed-daoudi"
        },
        {
          "authorId": "2373074876",
          "name": "M’barek El Haloui"
        }
      ]
    },
    {
      "paperId": "1a55eab39610fdb8244bd138f11ffc628c9d6b04",
      "externalIds": {
        "DOI": "10.5194/hess-30-371-2026",
        "CorpusId": 274652306
      },
      "url": "https://www.semanticscholar.org/paper/1a55eab39610fdb8244bd138f11ffc628c9d6b04",
      "title": "Probabilistic hierarchical interpolation and interpretable neural network configurations for flood prediction",
      "venue": "Hydrology and Earth System Sciences",
      "year": 2026,
      "referenceCount": 63,
      "citationCount": 5,
      "authors": [
        {
          "authorId": "2334823423",
          "name": "Mostafa Saberian"
        },
        {
          "authorId": "2257984945",
          "name": "Vidya Samadi"
        },
        {
          "authorId": "2334784591",
          "name": "Ioana Popescu"
        }
      ]
    },
    {
      "paperId": "295b9f7b80a8655a2f0eb76f1a978a6d0b035330",
      "externalIds": {
        "ArXiv": "2410.12206",
        "DBLP": "journals/corr/abs-2410-12206",
        "DOI": "10.48550/arXiv.2410.12206",
        "CorpusId": 273375343
      },
      "url": "https://www.semanticscholar.org/paper/295b9f7b80a8655a2f0eb76f1a978a6d0b035330",
      "title": "Abnormality Forecasting: Time Series Anomaly Prediction via Future Context Modeling",
      "venue": "arXiv.org",
      "year": 2024,
      "referenceCount": 31,
      "citationCount": 4,
      "authors": [
        {
          "authorId": "2192231179",
          "name": "Sinong Zhao"
        },
        {
          "authorId": "2226660205",
          "name": "Wenrui Wang"
        },
        {
          "authorId": "2146235009",
          "name": "Hongzuo Xu"
        },
        {
          "authorId": "3921561",
          "name": "Zhaoyang Yu"
        },
        {
          "authorId": "2242692407",
          "name": "Qingsong Wen"
        },
        {
          "authorId": "50248801",
          "name": "Gang Wang"
        },
        {
          "authorId": "2326247171",
          "name": "Xiaoguang Liu"
        },
        {
          "authorId": "2262443854",
          "name": "Guansong Pang"
        }
      ]
    },
    {
      "paperId": "be52f590dc72f373bf3b64b6612b9585bec73e8d",
      "externalIds": {
        "DOI": "10.1101/2022.10.20.22280926",
        "CorpusId": 253043125
      },
      "url": "https://www.semanticscholar.org/paper/be52f590dc72f373bf3b64b6612b9585bec73e8d",
      "title": "Long-Term Forecasting of a Motor Outcome Following Rehabilitation in Chronic Stroke via a Hierarchical Bayesian Model of Motor Learning",
      "venue": "medRxiv",
      "year": 2022,
      "referenceCount": 31,
      "citationCount": 1,
      "authors": [
        {
          "authorId": "2340534",
          "name": "N. Schweighofer"
        },
        {
          "authorId": "2050236965",
          "name": "D. Ye"
        },
        {
          "authorId": "2148311557",
          "name": "H. Luo"
        },
        {
          "authorId": "1400482645",
          "name": "D. Z. D 'argenio"
        },
        {
          "authorId": "70251129",
          "name": "C. Winstein"
        }
      ]
    },
    {
      "paperId": "f0265e236514a00b8b2e9e571a506a9744fe29c7",
      "externalIds": {
        "DBLP": "journals/tai/ZhaoZTWZ26",
        "DOI": "10.1109/TAI.2025.3571377",
        "CorpusId": 278801418
      },
      "url": "https://www.semanticscholar.org/paper/f0265e236514a00b8b2e9e571a506a9744fe29c7",
      "title": "SRLinear: Lightweight Long-Term Time Series Forecasting via Symbolic Regression",
      "venue": "IEEE Transactions on Artificial Intelligence",
      "year": 2026,
      "referenceCount": 51,
      "citationCount": 0,
      "authors": [
        {
          "authorId": "2337656028",
          "name": "Hongbo Zhao"
        },
        {
          "authorId": "1672323248",
          "name": "Hengzhe Zhang"
        },
        {
          "authorId": "2363402191",
          "name": "Chutian Tian"
        },
        {
          "authorId": "2315639814",
          "name": "Zhi Wei"
        },
        {
          "authorId": "2258140188",
          "name": "Aimin Zhou"
        }
      ]
    }
  ]
}