{
  "total": 5067,
  "offset": 0,
  "next": 10,
  "data": [
    {
      "paperId": "f44ff4fc0ed0142cb18472a5ba421bb538aa837e",
      "externalIds": {
        "ArXiv": "1511.06335",
        "MAG": "2173649752",
        "DBLP": "journals/corr/XieGF15",
        "CorpusId": 6779105
      },
      "url": "https://www.semanticscholar.org/paper/f44ff4fc0ed0142cb18472a5ba421bb538aa837e",
      "title": "Unsupervised Deep Embedding for Clustering Analysis",
      "venue": "International Conference on Machine Learning",
      "year": 2015,
      "referenceCount": 42,
      "citationCount": 3376,
      "authors": [
        {
          "authorId": "2369548",
          "name": "Junyuan Xie"
        },
        {
          "authorId": "2983898",
          "name": "Ross B. Girshick"
        },
        {
          "authorId": "143787583",
          "name": "Ali Farhadi"
        }
      ]
    },
    {
      "paperId": "198a76286ee813395f23320f5e8b4795d7aaffb3",
      "externalIds": {
        "DBLP": "journals/bib/ZhongJW26",
        "PubMedCentral": "12951082",
        "DOI": "10.1093/bib/bbag082",
        "CorpusId": 286211983,
        "PubMed": "41766647"
      },
      "url": "https://www.semanticscholar.org/paper/198a76286ee813395f23320f5e8b4795d7aaffb3",
      "title": "Integrating feature selection with unsupervised deep embedding for clustering single-cell RNA-seq data",
      "venue": "Briefings Bioinform.",
      "year": 2026,
      "referenceCount": 38,
      "citationCount": 0,
      "authors": [
        {
          "authorId": "2046752978",
          "name": "Cheng Zhong"
        },
        {
          "authorId": "2268379734",
          "name": "Siqi Jiang"
        },
        {
          "authorId": "2266140719",
          "name": "Zhi Wei"
        }
      ]
    },
    {
      "paperId": "af762e2e254501db7ed821b74d6de9a5fbb3851c",
      "externalIds": {
        "DBLP": "journals/lgrs/HuaQZYH23",
        "DOI": "10.1109/LGRS.2023.3328847",
        "CorpusId": 264903966
      },
      "url": "https://www.semanticscholar.org/paper/af762e2e254501db7ed821b74d6de9a5fbb3851c",
      "title": "Unsupervised Seismic Facies Analysis via Class-Imbalanced Deep Embedding Clustering",
      "venue": "IEEE Geoscience and Remote Sensing Letters",
      "year": 2023,
      "referenceCount": 22,
      "citationCount": 3,
      "authors": [
        {
          "authorId": "2260698480",
          "name": "Haowei Hua"
        },
        {
          "authorId": "2137843967",
          "name": "Feng Qian"
        },
        {
          "authorId": "50974632",
          "name": "Gulan Zhang"
        },
        {
          "authorId": "2146491413",
          "name": "Yuehua Yue"
        },
        {
          "authorId": "2090465185",
          "name": "Guang Hu"
        }
      ]
    },
    {
      "paperId": "97fc13bc7028ad17c5cf8ceee687bff6d45b5309",
      "externalIds": {
        "PubMedCentral": "7994574",
        "DOI": "10.1038/s41467-021-22008-3",
        "CorpusId": 232365973,
        "PubMed": "33767149"
      },
      "url": "https://www.semanticscholar.org/paper/97fc13bc7028ad17c5cf8ceee687bff6d45b5309",
      "title": "Model-based deep embedding for constrained clustering analysis of single cell RNA-seq data",
      "venue": "Nature Communications",
      "year": 2021,
      "referenceCount": 72,
      "citationCount": 128,
      "authors": [
        {
          "authorId": "47440750",
          "name": "Tian Tian"
        },
        {
          "authorId": "2155862628",
          "name": "Jie Zhang"
        },
        {
          "authorId": "144366152",
          "name": "Xiang Lin"
        },
        {
          "authorId": "145312585",
          "name": "Zhi Wei"
        },
        {
          "authorId": "48391237",
          "name": "H. Hakonarson"
        }
      ]
    },
    {
      "paperId": "00ac7a89f2866cee87e5a55e197cd0d95f3cf29a",
      "externalIds": {
        "DBLP": "conf/igarss/XiongXZC22",
        "DOI": "10.1109/IGARSS46834.2022.9884800",
        "CorpusId": 252588671
      },
      "url": "https://www.semanticscholar.org/paper/00ac7a89f2866cee87e5a55e197cd0d95f3cf29a",
      "title": "Unsupervised Deep Embedding Clustering for AIS Trajectory",
      "venue": "IEEE International Geoscience and Remote Sensing Symposium",
      "year": 2022,
      "referenceCount": 9,
      "citationCount": 4,
      "authors": [
        {
          "authorId": "50630113",
          "name": "Lian Xiong"
        },
        {
          "authorId": "48511969",
          "name": "Xuanrui Xiong"
        },
        {
          "authorId": "2352931249",
          "name": "Fan Zhang"
        },
        {
          "authorId": "47666681",
          "name": "Huaixin Chen"
        }
      ]
    },
    {
      "paperId": "e30b7019294dea8433f5d2a3e67f577bced7b6f4",
      "externalIds": {
        "DOI": "10.1039/d2ay01184k",
        "CorpusId": 252426353,
        "PubMed": "36169059"
      },
      "url": "https://www.semanticscholar.org/paper/e30b7019294dea8433f5d2a3e67f577bced7b6f4",
      "title": "Unsupervised convolutional variational autoencoder deep embedding clustering for Raman spectra.",
      "venue": "Analytical Methods",
      "year": 2022,
      "referenceCount": 0,
      "citationCount": 11,
      "authors": [
        {
          "authorId": "145875086",
          "name": "Yixin Guo"
        },
        {
          "authorId": "2029712441",
          "name": "Wei-kui Jin"
        },
        {
          "authorId": "2116115109",
          "name": "Weilin Wang"
        },
        {
          "authorId": "151268589",
          "name": "Zongyu Guo"
        },
        {
          "authorId": "2275226811",
          "name": "Yuqing He"
        }
      ]
    },
    {
      "paperId": "6e74791c97c24861a3ce52271c63d9a1454ff6f9",
      "externalIds": {
        "DOI": "10.1111/jfpe.14519",
        "CorpusId": 266968433
      },
      "url": "https://www.semanticscholar.org/paper/6e74791c97c24861a3ce52271c63d9a1454ff6f9",
      "title": "The pistachio quality detection based on deep features plus unsupervised clustering",
      "venue": "Journal of food process engineering",
      "year": 2024,
      "referenceCount": 30,
      "citationCount": 6,
      "authors": [
        {
          "authorId": "2261938080",
          "name": "Xingyu Liu"
        },
        {
          "authorId": "2261794669",
          "name": "Lianhe Yang"
        },
        {
          "authorId": "2149671269",
          "name": "Hongfei Zhu"
        },
        {
          "authorId": "2279238407",
          "name": "Liqi Zhang"
        },
        {
          "authorId": "2282940767",
          "name": "Yanying An"
        },
        {
          "authorId": "2110688081",
          "name": "Linna Wei"
        },
        {
          "authorId": "2279500594",
          "name": "Zhongzhi Han"
        }
      ]
    },
    {
      "paperId": "99d9aab2c3450cf5cc31782f83b50c3a944ddd4c",
      "externalIds": {
        "DBLP": "conf/cacml/Jing24",
        "DOI": "10.1145/3654823.3654881",
        "CorpusId": 270138277
      },
      "url": "https://www.semanticscholar.org/paper/99d9aab2c3450cf5cc31782f83b50c3a944ddd4c",
      "title": "Unsupervised Deep Topology Embedded Characterization of Single-Cell Chromatin Accessibility Profiles",
      "venue": "CACML",
      "year": 2024,
      "referenceCount": 26,
      "citationCount": 0,
      "authors": [
        {
          "authorId": "2303941534",
          "name": "Tairan Jing"
        }
      ]
    },
    {
      "paperId": "5584e2a9e36f001667a6f883dd187b310d6e03d7",
      "externalIds": {
        "DOI": "10.1109/ICRERA66237.2025.11284138",
        "CorpusId": 284020693
      },
      "url": "https://www.semanticscholar.org/paper/5584e2a9e36f001667a6f883dd187b310d6e03d7",
      "title": "Identifying Realistic Fleet Charging Patterns Through Unsupervised Learning and Density-Based Clustering",
      "venue": "IEEE International Conference on Renewable Energy Research and Applications",
      "year": 2025,
      "referenceCount": 24,
      "citationCount": 0,
      "authors": [
        {
          "authorId": "2206021255",
          "name": "E. Avdevicius"
        },
        {
          "authorId": "2092482697",
          "name": "Maik Plenz"
        },
        {
          "authorId": "2335208820",
          "name": "Andreas Stadler"
        },
        {
          "authorId": "2335208558",
          "name": "Detlef Schulz"
        }
      ]
    },
    {
      "paperId": "1c6f756686dd48aa5b4cb9e4524dc403b8da1ca8",
      "externalIds": {
        "DBLP": "journals/tnn/YangFB23",
        "DOI": "10.1109/TNNLS.2021.3135460",
        "CorpusId": 245454168,
        "PubMed": "34941534"
      },
      "url": "https://www.semanticscholar.org/paper/1c6f756686dd48aa5b4cb9e4524dc403b8da1ca8",
      "title": "Deep Clustering Analysis via Dual Variational Autoencoder With Spherical Latent Embeddings",
      "venue": "IEEE Transactions on Neural Networks and Learning Systems",
      "year": 2021,
      "referenceCount": 51,
      "citationCount": 34,
      "authors": [
        {
          "authorId": "2155558174",
          "name": "Lin Yang"
        },
        {
          "authorId": "2038786",
          "name": "Wentao Fan"
        },
        {
          "authorId": "1729109",
          "name": "N. Bouguila"
        }
      ]
    }
  ]
}