{
  "total": 1070,
  "offset": 0,
  "next": 10,
  "data": [
    {
      "paperId": "5634469ad355e69e92a4967b4663ed9ec4c42751",
      "externalIds": {
        "MAG": "2964251366",
        "DBLP": "journals/corr/abs-1802-09640",
        "ArXiv": "1802.09640",
        "CorpusId": 3622509
      },
      "url": "https://www.semanticscholar.org/paper/5634469ad355e69e92a4967b4663ed9ec4c42751",
      "title": "Modeling Others using Oneself in Multi-Agent Reinforcement Learning",
      "venue": "International Conference on Machine Learning",
      "year": 2018,
      "referenceCount": 39,
      "citationCount": 229,
      "authors": [
        {
          "authorId": "48647153",
          "name": "R. Raileanu"
        },
        {
          "authorId": "40081727",
          "name": "Emily L. Denton"
        },
        {
          "authorId": "3149531",
          "name": "Arthur Szlam"
        },
        {
          "authorId": "2276554",
          "name": "R. Fergus"
        }
      ]
    },
    {
      "paperId": "fa67cdf3cbad4ad45c714fa5739c5a10760dcd01",
      "externalIds": {
        "DOI": "10.1002/rnc.7991",
        "CorpusId": 277860509
      },
      "url": "https://www.semanticscholar.org/paper/fa67cdf3cbad4ad45c714fa5739c5a10760dcd01",
      "title": "Consistent Cooperative Control of Multi‐Support Systems Using Multi‐Agent Reinforcement Learning With Attention Mechanism",
      "venue": "International Journal of Robust and Nonlinear Control",
      "year": 2025,
      "referenceCount": 39,
      "citationCount": 1,
      "authors": [
        {
          "authorId": "2346430272",
          "name": "Zihang Zhang"
        },
        {
          "authorId": "2238144579",
          "name": "Yang Liu"
        },
        {
          "authorId": "2238122405",
          "name": "Shangqing Yang"
        }
      ]
    },
    {
      "paperId": "ea18b07e9a510e22e5ec4d03bef545a4edd5ce42",
      "externalIds": {
        "DBLP": "journals/corr/abs-2508-04652",
        "ArXiv": "2508.04652",
        "DOI": "10.48550/arXiv.2508.04652",
        "CorpusId": 280536220
      },
      "url": "https://www.semanticscholar.org/paper/ea18b07e9a510e22e5ec4d03bef545a4edd5ce42",
      "title": "LLM Collaboration With Multi-Agent Reinforcement Learning",
      "venue": "arXiv.org",
      "year": 2025,
      "referenceCount": 0,
      "citationCount": 20,
      "authors": [
        {
          "authorId": "2361664827",
          "name": "Shuo Liu"
        },
        {
          "authorId": "2296944447",
          "name": "Zeyu Liang"
        },
        {
          "authorId": "1676903907",
          "name": "Xueguang Lyu"
        },
        {
          "authorId": "2301014213",
          "name": "Christopher Amato"
        }
      ]
    },
    {
      "paperId": "2c18e52f2eab72c2844e7f1fe955371b45d88821",
      "externalIds": {
        "DBLP": "conf/itsc/KonstantinidisS23",
        "DOI": "10.1109/ITSC57777.2023.10422230",
        "CorpusId": 267661552
      },
      "url": "https://www.semanticscholar.org/paper/2c18e52f2eab72c2844e7f1fe955371b45d88821",
      "title": "Modeling Interaction-Aware Driving Behavior using Graph-Based Representations and Multi-Agent Reinforcement Learning",
      "venue": "2023 IEEE 26th International Conference on Intelligent Transportation Systems (ITSC)",
      "year": 2023,
      "referenceCount": 35,
      "citationCount": 4,
      "authors": [
        {
          "authorId": "2135712782",
          "name": "Fabian Konstantinidis"
        },
        {
          "authorId": "1739390020",
          "name": "Moritz Sackmann"
        },
        {
          "authorId": "2284082764",
          "name": "Ulrich Hofmann"
        },
        {
          "authorId": "2262214692",
          "name": "Christoph Stiller"
        }
      ]
    },
    {
      "paperId": "36cae33f3c1fc0fd2c09ec7c5f54b20e250b184c",
      "externalIds": {
        "DBLP": "journals/corr/abs-2410-14916",
        "ArXiv": "2410.14916",
        "DOI": "10.1145/3702012",
        "CorpusId": 273502538
      },
      "url": "https://www.semanticscholar.org/paper/36cae33f3c1fc0fd2c09ec7c5f54b20e250b184c",
      "title": "Cooperation and Fairness in Multi-Agent Reinforcement Learning",
      "venue": "ACM Journal on Autonomous Transportation Systems",
      "year": 2024,
      "referenceCount": 61,
      "citationCount": 11,
      "authors": [
        {
          "authorId": "2136189186",
          "name": "J. J. Aloor"
        },
        {
          "authorId": "116152625",
          "name": "Siddharth Nayak"
        },
        {
          "authorId": "2266854698",
          "name": "Sydney Dolan"
        },
        {
          "authorId": "2266855348",
          "name": "Hamsa Balakrishnan"
        }
      ]
    },
    {
      "paperId": "2925e89470753d110d0f6acdf7c9f6ad3d5254b7",
      "externalIds": {
        "DBLP": "journals/corr/abs-2409-11852",
        "ArXiv": "2409.11852",
        "DOI": "10.48550/arXiv.2409.11852",
        "CorpusId": 272707872
      },
      "url": "https://www.semanticscholar.org/paper/2925e89470753d110d0f6acdf7c9f6ad3d5254b7",
      "title": "XP-MARL: Auxiliary Prioritization in Multi-Agent Reinforcement Learning to Address Non-Stationarity",
      "venue": "arXiv.org",
      "year": 2024,
      "referenceCount": 43,
      "citationCount": 2,
      "authors": [
        {
          "authorId": "2308366221",
          "name": "Jianye Xu"
        },
        {
          "authorId": "2321577919",
          "name": "Omar Sobhy"
        },
        {
          "authorId": "2837135",
          "name": "Bassam Alrifaee"
        }
      ]
    },
    {
      "paperId": "5dce3f2cfe018ada4bebeaa15aac6fe1d01b18ba",
      "externalIds": {
        "DBLP": "conf/aaai/LiuWYCCL24",
        "ArXiv": "2402.17978",
        "DOI": "10.48550/arXiv.2402.17978",
        "CorpusId": 268041208
      },
      "url": "https://www.semanticscholar.org/paper/5dce3f2cfe018ada4bebeaa15aac6fe1d01b18ba",
      "title": "Imagine, Initialize, and Explore: An Effective Exploration Method in Multi-Agent Reinforcement Learning",
      "venue": "AAAI Conference on Artificial Intelligence",
      "year": 2024,
      "referenceCount": 39,
      "citationCount": 7,
      "authors": [
        {
          "authorId": "2226668201",
          "name": "Zeyang Liu"
        },
        {
          "authorId": "143692584",
          "name": "Lipeng Wan"
        },
        {
          "authorId": "2288479253",
          "name": "Xinrui Yang"
        },
        {
          "authorId": "2288053307",
          "name": "Zhuoran Chen"
        },
        {
          "authorId": "49794169",
          "name": "Xingyu Chen"
        },
        {
          "authorId": "2287922954",
          "name": "Xuguang Lan"
        }
      ]
    },
    {
      "paperId": "ebb05897fd1a98b6554446ef0f01f7b9df0cc59e",
      "externalIds": {
        "DOI": "10.5220/0014309000004052",
        "CorpusId": 286471527
      },
      "url": "https://www.semanticscholar.org/paper/ebb05897fd1a98b6554446ef0f01f7b9df0cc59e",
      "title": "Transformer-Based Action Prediction for Efficient Mutual Modeling in Multi-Agent Reinforcement Learning",
      "venue": "Proceedings of the 18th International Conference on Agents and Artificial Intelligence",
      "year": 2026,
      "referenceCount": 26,
      "citationCount": 0,
      "authors": [
        {
          "authorId": "2373397578",
          "name": "Kohei Suzuki"
        },
        {
          "authorId": "2270998172",
          "name": "Toshiharu Sugawara"
        }
      ]
    },
    {
      "paperId": "b519cc20771f207f28db94aecff28c708b924c42",
      "externalIds": {
        "DOI": "10.1007/s40042-024-01009-7",
        "CorpusId": 267974072
      },
      "url": "https://www.semanticscholar.org/paper/b519cc20771f207f28db94aecff28c708b924c42",
      "title": "Effect of network architectures in multi-agent reinforcement learning for denoising digital tomosynthesis images",
      "venue": "Journal of the Korean Physical Society",
      "year": 2024,
      "referenceCount": 10,
      "citationCount": 0,
      "authors": [
        {
          "authorId": "72321946",
          "name": "K. Nam"
        },
        {
          "authorId": "2266224797",
          "name": "Seungwan Lee"
        }
      ]
    },
    {
      "paperId": "5a1f5bfa1f251b8f030661609b7c714d938cec65",
      "externalIds": {
        "DBLP": "conf/vtc/YozaMitsuishiMC25",
        "DOI": "10.1109/VTC2025-Fall65116.2025.11310705",
        "CorpusId": 284534600
      },
      "url": "https://www.semanticscholar.org/paper/5a1f5bfa1f251b8f030661609b7c714d938cec65",
      "title": "Optimized Power Allocation in Multi-cell 4G/5G Systems using Multi-Agent Deep Reinforcement Learning",
      "venue": "2025 IEEE 102nd Vehicular Technology Conference (VTC2025-Fall)",
      "year": 2025,
      "referenceCount": 25,
      "citationCount": 0,
      "authors": [
        {
          "authorId": "1404348846",
          "name": "Nadia P. Yoza-Mitsuishi"
        },
        {
          "authorId": "2316781101",
          "name": "Yao Ma"
        },
        {
          "authorId": "12675662",
          "name": "J. Coder"
        }
      ]
    }
  ]
}