{
  "total": 30214,
  "offset": 0,
  "next": 10,
  "data": [
    {
      "paperId": "69e76e16740ed69f4dc55361a3d319ac2f1293dd",
      "externalIds": {
        "MAG": "2964043796",
        "DBLP": "journals/corr/MnihBMGLHSK16",
        "ArXiv": "1602.01783",
        "CorpusId": 6875312
      },
      "url": "https://www.semanticscholar.org/paper/69e76e16740ed69f4dc55361a3d319ac2f1293dd",
      "title": "Asynchronous Methods for Deep Reinforcement Learning",
      "venue": "International Conference on Machine Learning",
      "year": 2016,
      "referenceCount": 43,
      "citationCount": 9890,
      "authors": [
        {
          "authorId": "3255983",
          "name": "Volodymyr Mnih"
        },
        {
          "authorId": "36045539",
          "name": "Adrià Puigdomènech Badia"
        },
        {
          "authorId": "153583218",
          "name": "Mehdi Mirza"
        },
        {
          "authorId": "1753223",
          "name": "Alex Graves"
        },
        {
          "authorId": "2542999",
          "name": "T. Lillicrap"
        },
        {
          "authorId": "3367786",
          "name": "Tim Harley"
        },
        {
          "authorId": "145824029",
          "name": "David Silver"
        },
        {
          "authorId": "2645384",
          "name": "K. Kavukcuoglu"
        }
      ]
    },
    {
      "paperId": "ee638036826cef13f3d4c455cc11538cc5642a73",
      "externalIds": {
        "CorpusId": 216086866
      },
      "url": "https://www.semanticscholar.org/paper/ee638036826cef13f3d4c455cc11538cc5642a73",
      "title": "Tackling Transfer Learning and Catastrophic Forgetting Using Asynchronous Methods for Deep Reinforcement Learning",
      "venue": "",
      "year": 2018,
      "referenceCount": 31,
      "citationCount": 0,
      "authors": [
        {
          "authorId": "1621060002",
          "name": "Joao G. Ribeiro"
        }
      ]
    },
    {
      "paperId": "fd7d0c82b7da11a034846f6848d146feb01016e7",
      "externalIds": {
        "CorpusId": 211261797
      },
      "url": "https://www.semanticscholar.org/paper/fd7d0c82b7da11a034846f6848d146feb01016e7",
      "title": "Using Deep Learning to create a Universal Game Player Tackling Transfer Learning and Catastrophic Forgetting Using Asynchronous Methods for Deep Reinforcement Learning",
      "venue": "",
      "year": 2018,
      "referenceCount": 36,
      "citationCount": 0,
      "authors": [
        {
          "authorId": "1621060002",
          "name": "Joao G. Ribeiro"
        }
      ]
    },
    {
      "paperId": "7108be7cefe6e025d3a0d289dc5204683243d6a6",
      "externalIds": {
        "CorpusId": 15766867
      },
      "url": "https://www.semanticscholar.org/paper/7108be7cefe6e025d3a0d289dc5204683243d6a6",
      "title": "Supplementary Material for \" Asynchronous Methods for Deep Reinforcement Learning \"",
      "venue": "",
      "year": null,
      "referenceCount": 9,
      "citationCount": 0,
      "authors": []
    },
    {
      "paperId": "67ee02edb5d969c0657314ed6c1a6ed62121ac29",
      "externalIds": {
        "DBLP": "journals/corr/abs-1803-02811",
        "ArXiv": "1803.02811",
        "MAG": "2793035934",
        "CorpusId": 3719116
      },
      "url": "https://www.semanticscholar.org/paper/67ee02edb5d969c0657314ed6c1a6ed62121ac29",
      "title": "Accelerated Methods for Deep Reinforcement Learning",
      "venue": "arXiv.org",
      "year": 2018,
      "referenceCount": 21,
      "citationCount": 140,
      "authors": [
        {
          "authorId": "47541311",
          "name": "Adam Stooke"
        },
        {
          "authorId": "1689992",
          "name": "P. Abbeel"
        }
      ]
    },
    {
      "paperId": "38e79e2814b783016138bac5a46bb12da2403775",
      "externalIds": {
        "DBLP": "journals/iotj/WangDDT25",
        "DOI": "10.1109/JIOT.2025.3552058",
        "CorpusId": 277135099
      },
      "url": "https://www.semanticscholar.org/paper/38e79e2814b783016138bac5a46bb12da2403775",
      "title": "Solving the Vehicle Cooperation Problem at Signal-Free Intersection via an Asynchronous Deep Reinforcement Learning Approach",
      "venue": "IEEE Internet of Things Journal",
      "year": 2025,
      "referenceCount": 52,
      "citationCount": 4,
      "authors": [
        {
          "authorId": "2161728400",
          "name": "Shuai Wang"
        },
        {
          "authorId": "2111069722",
          "name": "Yuhao Ding"
        },
        {
          "authorId": "2339734173",
          "name": "Xiao-Long Ding"
        },
        {
          "authorId": "49902262",
          "name": "Xiaojun Tan"
        }
      ]
    },
    {
      "paperId": "ce756c11e4e161778ee18123897542725d7cd612",
      "externalIds": {
        "DBLP": "journals/ijrr/XiaoTHXA25",
        "DOI": "10.1177/02783649241306124",
        "CorpusId": 276221577
      },
      "url": "https://www.semanticscholar.org/paper/ce756c11e4e161778ee18123897542725d7cd612",
      "title": "Asynchronous multi-agent deep reinforcement learning under partial observability",
      "venue": "Int. J. Robotics Res.",
      "year": 2025,
      "referenceCount": 87,
      "citationCount": 5,
      "authors": [
        {
          "authorId": "152130115",
          "name": "Yuchen Xiao"
        },
        {
          "authorId": "2390592529",
          "name": "Weihao Tan"
        },
        {
          "authorId": "2055095397",
          "name": "Joshua Hoffman"
        },
        {
          "authorId": "2143749749",
          "name": "Tian Xia"
        },
        {
          "authorId": "2301014213",
          "name": "Christopher Amato"
        }
      ]
    },
    {
      "paperId": "6bc7dee7b5dbed31e56025b465bc5a4cc8fc8bea",
      "externalIds": {
        "DOI": "10.54254/2755-2721/2025.tj23321",
        "CorpusId": 278841841
      },
      "url": "https://www.semanticscholar.org/paper/6bc7dee7b5dbed31e56025b465bc5a4cc8fc8bea",
      "title": "Policy Gradient Methods in Deep Reinforcement Learning",
      "venue": "Applied and Computational Engineering",
      "year": 2025,
      "referenceCount": 19,
      "citationCount": 1,
      "authors": [
        {
          "authorId": "2317612595",
          "name": "Yuhan Gao"
        }
      ]
    },
    {
      "paperId": "e1c801f07af47c02bc6672b4f71b13eb0d001b70",
      "externalIds": {
        "DBLP": "journals/corr/abs-2405-19982",
        "ArXiv": "2405.19982",
        "DOI": "10.48550/arXiv.2405.19982",
        "CorpusId": 270123894
      },
      "url": "https://www.semanticscholar.org/paper/e1c801f07af47c02bc6672b4f71b13eb0d001b70",
      "title": "A Deep Reinforcement Learning Approach for Trading Optimization in the Forex Market with Multi-Agent Asynchronous Distribution",
      "venue": "arXiv.org",
      "year": 2024,
      "referenceCount": 14,
      "citationCount": 1,
      "authors": [
        {
          "authorId": "2303850569",
          "name": "Davoud Sarani"
        },
        {
          "authorId": "9409915",
          "name": "Parviz Rashidi Khazaee"
        }
      ]
    },
    {
      "paperId": "590b764a0875c331174f749bb8ed90ec5e42c406",
      "externalIds": {
        "DBLP": "journals/iotj/ZhouLZZDL24",
        "DOI": "10.1109/JIOT.2023.3324392",
        "CorpusId": 264114255
      },
      "url": "https://www.semanticscholar.org/paper/590b764a0875c331174f749bb8ed90ec5e42c406",
      "title": "Asynchronous Localization for Underwater Acoustic Sensor Networks: A Continuous Control Deep Reinforcement Learning Approach",
      "venue": "IEEE Internet of Things Journal",
      "year": 2024,
      "referenceCount": 54,
      "citationCount": 5,
      "authors": [
        {
          "authorId": "2258535284",
          "name": "Chengyi Zhou"
        },
        {
          "authorId": "2152974845",
          "name": "Mei-qin Liu"
        },
        {
          "authorId": "152389749",
          "name": "Senlin Zhang"
        },
        {
          "authorId": "2199132924",
          "name": "Ronghao Zheng"
        },
        {
          "authorId": "2244042423",
          "name": "Shanling Dong"
        },
        {
          "authorId": "2144264532",
          "name": "Zhun-ga Liu"
        }
      ]
    }
  ]
}