{
  "total": 810627,
  "offset": 0,
  "next": 10,
  "data": [
    {
      "paperId": "568374ac9433e29b812008b2a01f81e657bdbd34",
      "externalIds": {
        "DBLP": "conf/icml/GulcehreMDB16",
        "ArXiv": "1603.00391",
        "MAG": "2292877769",
        "CorpusId": 9198110
      },
      "url": "https://www.semanticscholar.org/paper/568374ac9433e29b812008b2a01f81e657bdbd34",
      "title": "Noisy Activation Functions",
      "venue": "International Conference on Machine Learning",
      "year": 2016,
      "referenceCount": 27,
      "citationCount": 304,
      "authors": [
        {
          "authorId": "1854385",
          "name": "Çaglar Gülçehre"
        },
        {
          "authorId": "3009779",
          "name": "Marcin Moczulski"
        },
        {
          "authorId": "1715051",
          "name": "Misha Denil"
        },
        {
          "authorId": "1751762",
          "name": "Yoshua Bengio"
        }
      ]
    },
    {
      "paperId": "1cd69dcc931ae1f551f344ca8d9775ce60267627",
      "externalIds": {
        "DOI": "10.28991/esj-2024-08-02-014",
        "CorpusId": 269315041
      },
      "url": "https://www.semanticscholar.org/paper/1cd69dcc931ae1f551f344ca8d9775ce60267627",
      "title": "Comparison of Activation Functions in Convolutional Neural Network for Poisson Noisy Image Classification",
      "venue": "Emerging Science Journal",
      "year": 2024,
      "referenceCount": 35,
      "citationCount": 23,
      "authors": [
        {
          "authorId": "48428851",
          "name": "K. Goh"
        },
        {
          "authorId": "103966247",
          "name": "S. Surono"
        },
        {
          "authorId": "2297954484",
          "name": "M. Y. F. Afiatin"
        },
        {
          "authorId": "2297946537",
          "name": "K. Mahmudah"
        },
        {
          "authorId": "9653586",
          "name": "Nursyiva Irsalinda"
        },
        {
          "authorId": "2099386393",
          "name": "Mesith Chaimanee"
        },
        {
          "authorId": "9161030",
          "name": "C. W. Onn"
        }
      ]
    },
    {
      "paperId": "bd28bbf180345063685f697d47bd20a2c4345fab",
      "externalIds": {
        "DBLP": "journals/corr/abs-2402-02593",
        "ArXiv": "2402.02593",
        "DOI": "10.48550/arXiv.2402.02593",
        "CorpusId": 267411881
      },
      "url": "https://www.semanticscholar.org/paper/bd28bbf180345063685f697d47bd20a2c4345fab",
      "title": "Leveraging Continuously Differentiable Activation Functions for Learning in Quantized Noisy Environments",
      "venue": "arXiv.org",
      "year": 2024,
      "referenceCount": 38,
      "citationCount": 3,
      "authors": [
        {
          "authorId": "2188243752",
          "name": "Vivswan Shah"
        },
        {
          "authorId": "2282533462",
          "name": "Nathan Youngblood"
        }
      ]
    },
    {
      "paperId": "4928bb905719409455ecb6feb8ab47eeb6c40c10",
      "externalIds": {
        "DBLP": "journals/jcam/LuoWX24",
        "DOI": "10.1016/j.cam.2024.115884",
        "CorpusId": 269003547
      },
      "url": "https://www.semanticscholar.org/paper/4928bb905719409455ecb6feb8ab47eeb6c40c10",
      "title": "New zeroing NN models with nonconvex saturated activation functions in noisy environments for quadratic minimization dynamics and control",
      "venue": "Journal of Computational and Applied Mathematics",
      "year": 2024,
      "referenceCount": 30,
      "citationCount": 3,
      "authors": [
        {
          "authorId": "2295660508",
          "name": "Tangtao Luo"
        },
        {
          "authorId": "9655556",
          "name": "G. Wang"
        },
        {
          "authorId": "2336250107",
          "name": "Xiuchun Xiao"
        }
      ]
    },
    {
      "paperId": "46d14982436947e6978398e68e775648b3925446",
      "externalIds": {
        "PubMedCentral": "12402075",
        "DOI": "10.1038/s41598-025-16798-5",
        "CorpusId": 281067086,
        "PubMed": "40890265"
      },
      "url": "https://www.semanticscholar.org/paper/46d14982436947e6978398e68e775648b3925446",
      "title": "M-estimation activation functions for high-performance extreme learning machine ensemble classification",
      "venue": "Scientific Reports",
      "year": 2025,
      "referenceCount": 32,
      "citationCount": 4,
      "authors": [
        {
          "authorId": "47381766",
          "name": "F. Alimi"
        },
        {
          "authorId": "2342562751",
          "name": "Adnan Khan"
        },
        {
          "authorId": "2379308080",
          "name": "Hameed Ali"
        },
        {
          "authorId": "2368941039",
          "name": "Mohamed Bouzidi"
        },
        {
          "authorId": "1481063331",
          "name": "Abdulrahman Obaid Alshammari"
        },
        {
          "authorId": "2267110607",
          "name": "Bakhtiyar Ahmad"
        }
      ]
    },
    {
      "paperId": "02d0a22a121f372b1b3db457034d32c44784e820",
      "externalIds": {
        "MAG": "3087926371",
        "DBLP": "journals/cms/Messner21",
        "DOI": "10.1007/s10287-020-00377-2",
        "CorpusId": 224987540
      },
      "url": "https://www.semanticscholar.org/paper/02d0a22a121f372b1b3db457034d32c44784e820",
      "title": "Empirically assessing noisy necessary conditions with activation functions",
      "venue": "Computational Management Science",
      "year": 2020,
      "referenceCount": 60,
      "citationCount": 2,
      "authors": [
        {
          "authorId": "35501408",
          "name": "W. Messner"
        }
      ]
    },
    {
      "paperId": "6e8bfe58a437a7c87fbadccff1c4bb5b992b68a3",
      "externalIds": {
        "DOI": "10.1109/JSTQE.2025.3534636",
        "CorpusId": 275963059
      },
      "url": "https://www.semanticscholar.org/paper/6e8bfe58a437a7c87fbadccff1c4bb5b992b68a3",
      "title": "Leveraging Continuously Differentiable Activation for Learning in Analog and Quantized Noisy Environments",
      "venue": "IEEE Journal of Selected Topics in Quantum Electronics",
      "year": 2025,
      "referenceCount": 33,
      "citationCount": 5,
      "authors": [
        {
          "authorId": "2188243752",
          "name": "Vivswan Shah"
        },
        {
          "authorId": "2282533462",
          "name": "Nathan Youngblood"
        }
      ]
    },
    {
      "paperId": "2aaab65cd8d563d6c51599e81c3d066537a1e8e9",
      "externalIds": {
        "DBLP": "journals/tcad/ZhanPJWL24",
        "DOI": "10.1109/TCAD.2024.3437331",
        "CorpusId": 272831545
      },
      "url": "https://www.semanticscholar.org/paper/2aaab65cd8d563d6c51599e81c3d066537a1e8e9",
      "title": "Detecting Spoofed Noisy Speeches via Activation-Based Residual Blocks for Embedded Systems",
      "venue": "IEEE Transactions on Computer-Aided Design of Integrated Circuits and Systems",
      "year": 2024,
      "referenceCount": 39,
      "citationCount": 0,
      "authors": [
        {
          "authorId": "1754812",
          "name": "Jinyu Zhan"
        },
        {
          "authorId": "2322663021",
          "name": "Suidi Peng"
        },
        {
          "authorId": "2152122601",
          "name": "Wei Jiang"
        },
        {
          "authorId": "2322783034",
          "name": "Xiang Wang"
        },
        {
          "authorId": "2351102283",
          "name": "Jiarui Liu"
        }
      ]
    },
    {
      "paperId": "ae2efa2b9ecad2587c026ad840a19505fd0d17d9",
      "externalIds": {
        "DOI": "10.34104/ajeit.023.063071",
        "CorpusId": 258118745
      },
      "url": "https://www.semanticscholar.org/paper/ae2efa2b9ecad2587c026ad840a19505fd0d17d9",
      "title": "Determining the Best Activation Functions for Predicting Stock Prices in Different (Stock Exchanges) Through Multivariable Time Series Forecasting of LSTM",
      "venue": "Australian Journal of Engineering and Innovative Technology",
      "year": 2023,
      "referenceCount": 22,
      "citationCount": 4,
      "authors": []
    },
    {
      "paperId": "7768b01f5136a086593adfe0369947ff860eef86",
      "externalIds": {
        "DBLP": "journals/nca/MD23",
        "DOI": "10.1007/s00521-023-08565-2",
        "CorpusId": 258323828
      },
      "url": "https://www.semanticscholar.org/paper/7768b01f5136a086593adfe0369947ff860eef86",
      "title": "Stacked autoencoder with novel integrated activation functions for the diagnosis of autism spectrum disorder",
      "venue": "Neural computing & applications (Print)",
      "year": 2023,
      "referenceCount": 91,
      "citationCount": 2,
      "authors": [
        {
          "authorId": "2215318963",
          "name": "K. M."
        },
        {
          "authorId": "3044185",
          "name": "Dejey"
        }
      ]
    }
  ]
}