{
  "total": 26,
  "offset": 0,
  "next": 10,
  "data": [
    {
      "paperId": "b4b26327fb7bdd404eaf5fbdc36286fcd3bd2557",
      "externalIds": {
        "MAG": "2964079807",
        "DBLP": "journals/corr/CaiDK17",
        "ArXiv": "1703.10127",
        "CorpusId": 7077315
      },
      "url": "https://www.semanticscholar.org/paper/b4b26327fb7bdd404eaf5fbdc36286fcd3bd2557",
      "title": "Priv'IT: Private and Sample Efficient Identity Testing",
      "venue": "International Conference on Machine Learning",
      "year": 2017,
      "referenceCount": 36,
      "citationCount": 55,
      "authors": [
        {
          "authorId": "9798165",
          "name": "Bryan Cai"
        },
        {
          "authorId": "3806712",
          "name": "C. Daskalakis"
        },
        {
          "authorId": "143835728",
          "name": "Gautam Kamath"
        }
      ]
    },
    {
      "paperId": "529a27c2af325ccca22e3e33d4062b8d11691671",
      "externalIds": {
        "MAG": "2803770758",
        "DBLP": "conf/icml/AliakbarpourDR18",
        "CorpusId": 51874666
      },
      "url": "https://www.semanticscholar.org/paper/529a27c2af325ccca22e3e33d4062b8d11691671",
      "title": "Differentially Private Identity and Equivalence Testing of Discrete Distributions",
      "venue": "International Conference on Machine Learning",
      "year": 2018,
      "referenceCount": 30,
      "citationCount": 32,
      "authors": [
        {
          "authorId": "2246889",
          "name": "M. Aliakbarpour"
        },
        {
          "authorId": "1808354",
          "name": "Ilias Diakonikolas"
        },
        {
          "authorId": "145109224",
          "name": "R. Rubinfeld"
        }
      ]
    },
    {
      "paperId": "76e7b0c4f4c1250489af107628bf5132688607a4",
      "externalIds": {
        "DBLP": "journals/corr/abs-2203-01537",
        "ArXiv": "2203.01537",
        "DOI": "10.48550/arXiv.2203.01537",
        "CorpusId": 247223134
      },
      "url": "https://www.semanticscholar.org/paper/76e7b0c4f4c1250489af107628bf5132688607a4",
      "title": "Private High-Dimensional Hypothesis Testing",
      "venue": "Annual Conference Computational Learning Theory",
      "year": 2022,
      "referenceCount": 64,
      "citationCount": 17,
      "authors": [
        {
          "authorId": "50812086",
          "name": "Shyam Narayanan"
        }
      ]
    },
    {
      "paperId": "6067e03bfd53ffa825afd0304730149efbf8690d",
      "externalIds": {
        "MAG": "2736413691",
        "DBLP": "journals/corr/AliakbarpourDR17",
        "ArXiv": "1707.05497",
        "CorpusId": 19076499
      },
      "url": "https://www.semanticscholar.org/paper/6067e03bfd53ffa825afd0304730149efbf8690d",
      "title": "Differentially Private Identity and Closeness Testing of Discrete Distributions",
      "venue": "arXiv.org",
      "year": 2017,
      "referenceCount": 28,
      "citationCount": 15,
      "authors": [
        {
          "authorId": "2246889",
          "name": "M. Aliakbarpour"
        },
        {
          "authorId": "1808354",
          "name": "Ilias Diakonikolas"
        },
        {
          "authorId": "145109224",
          "name": "R. Rubinfeld"
        }
      ]
    },
    {
      "paperId": "2a6dfd5d9a716647cccba8935fe0d1a58fef577f",
      "externalIds": {
        "DOI": "10.1109/ISCAIT69154.2026.11477459",
        "CorpusId": 287657240
      },
      "url": "https://www.semanticscholar.org/paper/2a6dfd5d9a716647cccba8935fe0d1a58fef577f",
      "title": "Design and Application of a Multi-Modal Continuous Identity Authentication System for Complex Sports Scenarios",
      "venue": "2026 5th International Symposium on Computer Applications and Information Technology (ISCAIT)",
      "year": 2026,
      "referenceCount": 18,
      "citationCount": 0,
      "authors": [
        {
          "authorId": "2260362705",
          "name": "Zhijie Han"
        },
        {
          "authorId": "2339528799",
          "name": "Yaru Li"
        },
        {
          "authorId": "2311306502",
          "name": "Yanxiang Zhao"
        }
      ]
    },
    {
      "paperId": "817ceeca35b9baa3f90acb99c19caaeea9fb942b",
      "externalIds": {
        "DOI": "10.60027/iarj.2024.274839",
        "CorpusId": 269003596
      },
      "url": "https://www.semanticscholar.org/paper/817ceeca35b9baa3f90acb99c19caaeea9fb942b",
      "title": "The Development of Branding Building Indicators of Private Vocational Colleges in The Northeast",
      "venue": "Interdisciplinary Academic and Research Journal",
      "year": 2024,
      "referenceCount": 0,
      "citationCount": 0,
      "authors": [
        {
          "authorId": "2295653803",
          "name": "Chetphong Chaikanarakkul"
        },
        {
          "authorId": "2295655009",
          "name": "Kritkanok Duangchatom"
        },
        {
          "authorId": "2295657864",
          "name": "Chayakan Ruangsuwan"
        }
      ]
    },
    {
      "paperId": "79eb4a88180720c3fb6dd2b8520e6984f374af9a",
      "externalIds": {
        "DOI": "10.1186/s42409-022-00041-2",
        "CorpusId": 252783858
      },
      "url": "https://www.semanticscholar.org/paper/79eb4a88180720c3fb6dd2b8520e6984f374af9a",
      "title": "Religiousness worldwide: translation of the Duke University Religion Index into 20 languages and validation across 27 nations",
      "venue": "Measurement Instruments for the Social Sciences",
      "year": 2022,
      "referenceCount": 85,
      "citationCount": 10,
      "authors": [
        {
          "authorId": "120487997",
          "name": "Cecilia Toscanelli"
        },
        {
          "authorId": "65999055",
          "name": "Elizabeth N Shino"
        },
        {
          "authorId": "2088650482",
          "name": "Sarah L. Robinson"
        },
        {
          "authorId": "7912260",
          "name": "A. Thalmayer"
        }
      ]
    },
    {
      "paperId": "e1c267ff892d91ea9639bcdd0f6aa6df63ea469c",
      "externalIds": {
        "DOI": "10.34142/2709-7986.2024.29.2.18",
        "CorpusId": 273572245
      },
      "url": "https://www.semanticscholar.org/paper/e1c267ff892d91ea9639bcdd0f6aa6df63ea469c",
      "title": "School as a Safe Space through Gender-Responsive Basic Education Policy",
      "venue": "Educational Challenges",
      "year": 2024,
      "referenceCount": 28,
      "citationCount": 1,
      "authors": [
        {
          "authorId": "2201244513",
          "name": "Gemar Mori"
        }
      ]
    },
    {
      "paperId": "37d303b8bd81daaac8d4460f1fca44d73c51ef10",
      "externalIds": {
        "PubMedCentral": "9090348",
        "DOI": "10.1080/23144599.2022.2070346",
        "CorpusId": 248646637,
        "PubMed": "35573137"
      },
      "url": "https://www.semanticscholar.org/paper/37d303b8bd81daaac8d4460f1fca44d73c51ef10",
      "title": "Mass kills in hatchery-reared European seabass (Dicentrarchus labrax) triggered by concomitant infections of Amyloodinium ocellatum and Vibrio alginolyticus",
      "venue": "International Journal of Veterinary Science and Medicine",
      "year": 2022,
      "referenceCount": 59,
      "citationCount": 29,
      "authors": [
        {
          "authorId": "40014609",
          "name": "Reham Ragab"
        },
        {
          "authorId": "12634329",
          "name": "M. Elgendy"
        },
        {
          "authorId": "88897871",
          "name": "Nader M. Sabry"
        },
        {
          "authorId": "1870524484",
          "name": "M. Sharaf"
        },
        {
          "authorId": "39831475",
          "name": "M. Attia"
        },
        {
          "authorId": "89088880",
          "name": "Reda M. S. Korany"
        },
        {
          "authorId": "2072699447",
          "name": "M. Abdelsalam"
        },
        {
          "authorId": "13732143",
          "name": "A. Eltahan"
        },
        {
          "authorId": "2140690456",
          "name": "Elsayed A. A. Eldessouki"
        },
        {
          "authorId": "2118979671",
          "name": "Ghada O. El-Demerdash"
        },
        {
          "authorId": "3142210",
          "name": "R. Khalil"
        },
        {
          "authorId": "1576012256",
          "name": "Abeer E. Mahmoud"
        },
        {
          "authorId": "34593128",
          "name": "A. Eissa"
        }
      ]
    },
    {
      "paperId": "75c07db445e7d459ccc21cdb2cd80952a2aa0bce",
      "externalIds": {
        "PubMedCentral": "10658518",
        "DOI": "10.1111/jvim.16906",
        "CorpusId": 264378102,
        "PubMed": "37864426"
      },
      "url": "https://www.semanticscholar.org/paper/75c07db445e7d459ccc21cdb2cd80952a2aa0bce",
      "title": "Short‐term effects of canagliflozin on glucose and insulin responses in insulin dysregulated horses: A randomized, placebo‐controlled, double‐blind, study",
      "venue": "Journal of Veterinary Internal Medicine",
      "year": 2023,
      "referenceCount": 32,
      "citationCount": 11,
      "authors": [
        {
          "authorId": "145343417",
          "name": "S. Lindåse"
        },
        {
          "authorId": "3820377",
          "name": "K. Nostell"
        },
        {
          "authorId": "2238938944",
          "name": "Anders Forslund"
        },
        {
          "authorId": "2238942933",
          "name": "Peter Bergsten"
        },
        {
          "authorId": "4402088",
          "name": "J. Bröjer"
        }
      ]
    }
  ]
}