{
  "total": 31,
  "offset": 0,
  "next": 10,
  "data": [
    {
      "paperId": "dfd18b71f5c53ec2a95fcbe327cf7710da3b4851",
      "externalIds": {
        "MAG": "2951667883",
        "DBLP": "journals/corr/BogunovicMSC17",
        "ArXiv": "1706.04918",
        "CorpusId": 10381970
      },
      "url": "https://www.semanticscholar.org/paper/dfd18b71f5c53ec2a95fcbe327cf7710da3b4851",
      "title": "Robust Submodular Maximization: A Non-Uniform Partitioning Approach",
      "venue": "International Conference on Machine Learning",
      "year": 2017,
      "referenceCount": 24,
      "citationCount": 68,
      "authors": [
        {
          "authorId": "1764328",
          "name": "Ilija Bogunovic"
        },
        {
          "authorId": "47619126",
          "name": "Slobodan Mitrovic"
        },
        {
          "authorId": "1784491",
          "name": "J. Scarlett"
        },
        {
          "authorId": "1678641",
          "name": "V. Cevher"
        }
      ]
    },
    {
      "paperId": "1c20b354c5f52db2f50c8d70e5eab811882df340",
      "externalIds": {
        "DBLP": "journals/twc/PalaiologosGKSC24",
        "DOI": "10.1109/TWC.2024.3399452",
        "CorpusId": 269889831
      },
      "url": "https://www.semanticscholar.org/paper/1c20b354c5f52db2f50c8d70e5eab811882df340",
      "title": "Robust Non-Uniform LoS MIMO Array Design",
      "venue": "IEEE Transactions on Wireless Communications",
      "year": 2024,
      "referenceCount": 45,
      "citationCount": 7,
      "authors": [
        {
          "authorId": "2046833650",
          "name": "Michail Palaiologos"
        },
        {
          "authorId": "51903465",
          "name": "Mario H. Castañeda García"
        },
        {
          "authorId": "8938917",
          "name": "Anastasios Kakkavas"
        },
        {
          "authorId": "1403191648",
          "name": "R. Stirling-Gallacher"
        },
        {
          "authorId": "2257305105",
          "name": "Giuseppe Caire"
        }
      ]
    },
    {
      "paperId": "4ec62870fe38373d9de6d8b8e7abfb927fb1ec9c",
      "externalIds": {
        "DBLP": "conf/pimrc/PalaiologosGKSC23",
        "ArXiv": "2302.07218",
        "DOI": "10.1109/PIMRC56721.2023.10293813",
        "CorpusId": 256846416
      },
      "url": "https://www.semanticscholar.org/paper/4ec62870fe38373d9de6d8b8e7abfb927fb1ec9c",
      "title": "Non-uniform array design for robust LoS MIMO via convex optimization",
      "venue": "IEEE International Symposium on Personal, Indoor and Mobile Radio Communications",
      "year": 2023,
      "referenceCount": 22,
      "citationCount": 6,
      "authors": [
        {
          "authorId": "2046833650",
          "name": "Michail Palaiologos"
        },
        {
          "authorId": "2206146612",
          "name": "Mario H. Castaneda Garc'ia"
        },
        {
          "authorId": "8938917",
          "name": "Anastasios Kakkavas"
        },
        {
          "authorId": "1403191648",
          "name": "R. Stirling-Gallacher"
        },
        {
          "authorId": "1684771",
          "name": "G. Caire"
        }
      ]
    },
    {
      "paperId": "a56f0e69fdd9cb976849896ada7ce75165c758a1",
      "externalIds": {
        "DBLP": "journals/algorithms/AbdelHakimIBDH24",
        "DOI": "10.3390/a17120551",
        "CorpusId": 274500832
      },
      "url": "https://www.semanticscholar.org/paper/a56f0e69fdd9cb976849896ada7ce75165c758a1",
      "title": "Ellipsoidal K-Means: An Automatic Clustering Approach for Non-Uniform Data Distributions",
      "venue": "Algorithms",
      "year": 2024,
      "referenceCount": 46,
      "citationCount": 4,
      "authors": [
        {
          "authorId": "1402256256",
          "name": "Alaa E. Abdel-Hakim"
        },
        {
          "authorId": "2145127375",
          "name": "Abdel-Monem M. Ibrahim"
        },
        {
          "authorId": "7791621",
          "name": "K. Bouazza"
        },
        {
          "authorId": "35158262",
          "name": "Wael A. Deabes"
        },
        {
          "authorId": "1699530",
          "name": "Abdel-Rahman Hedar"
        }
      ]
    },
    {
      "paperId": "3d8885b60d3beb32cc85cf9e4327f07bca608d2b",
      "externalIds": {
        "PubMedCentral": "10653829",
        "DOI": "10.1128/mbio.02207-23",
        "CorpusId": 263671274,
        "PubMed": "37796005"
      },
      "url": "https://www.semanticscholar.org/paper/3d8885b60d3beb32cc85cf9e4327f07bca608d2b",
      "title": "Mycobacteriales taxonomy using network analysis-aided, context-uniform phylogenomic approach for non-subjective genus demarcation",
      "venue": "mBio",
      "year": 2023,
      "referenceCount": 85,
      "citationCount": 27,
      "authors": [
        {
          "authorId": "2254246774",
          "name": "Jorge Val-Calvo"
        },
        {
          "authorId": "1400038052",
          "name": "J. Vázquez-Boland"
        }
      ]
    },
    {
      "paperId": "370699a41b17b66c5855fdc6c25bfdd0e21937f4",
      "externalIds": {
        "MAG": "2409958836",
        "DBLP": "conf/icde/PavlovicHTKA16",
        "DOI": "10.1109/ICDE.2016.7498280",
        "CorpusId": 858207
      },
      "url": "https://www.semanticscholar.org/paper/370699a41b17b66c5855fdc6c25bfdd0e21937f4",
      "title": "TRANSFORMERS: Robust spatial joins on non-uniform data distributions",
      "venue": "IEEE International Conference on Data Engineering",
      "year": 2016,
      "referenceCount": 31,
      "citationCount": 10,
      "authors": [
        {
          "authorId": "2065876141",
          "name": "Mirjana Pavlovic"
        },
        {
          "authorId": "2323893",
          "name": "T. Heinis"
        },
        {
          "authorId": "3302598",
          "name": "Farhan Tauheed"
        },
        {
          "authorId": "1731655",
          "name": "Panagiotis Karras"
        },
        {
          "authorId": "1728318",
          "name": "A. Ailamaki"
        }
      ]
    },
    {
      "paperId": "2eefe23f768197a4846e6e387a17129234223114",
      "externalIds": {
        "DBLP": "journals/wcl/ZengLCWC26",
        "DOI": "10.1109/LWC.2025.3634437",
        "CorpusId": 283195202
      },
      "url": "https://www.semanticscholar.org/paper/2eefe23f768197a4846e6e387a17129234223114",
      "title": "Clustering-Greedy Adaptive Modulation With Non-Uniform Subbands for Filter Bank Multi-Carrier Spread Spectrum System",
      "venue": "IEEE Wireless Communications Letters",
      "year": 2026,
      "referenceCount": 16,
      "citationCount": 0,
      "authors": [
        {
          "authorId": "2326637580",
          "name": "Jiulin Zeng"
        },
        {
          "authorId": "2324213422",
          "name": "Baoguo Li"
        },
        {
          "authorId": "2340689632",
          "name": "Xuan Cui"
        },
        {
          "authorId": "2332311696",
          "name": "Zhimei Wang"
        },
        {
          "authorId": "2144172489",
          "name": "Zhong Chen"
        }
      ]
    },
    {
      "paperId": "826f00d1e303f09ee0b9e033e99774436ec51865",
      "externalIds": {
        "DBLP": "journals/corr/abs-2406-04914",
        "ArXiv": "2406.04914",
        "DOI": "10.48550/arXiv.2406.04914",
        "CorpusId": 270357494
      },
      "url": "https://www.semanticscholar.org/paper/826f00d1e303f09ee0b9e033e99774436ec51865",
      "title": "Submodular Framework for Structured-Sparse Optimal Transport",
      "venue": "International Conference on Machine Learning",
      "year": 2024,
      "referenceCount": 58,
      "citationCount": 1,
      "authors": [
        {
          "authorId": "40959579",
          "name": "Piyushi Manupriya"
        },
        {
          "authorId": "1720974",
          "name": "Pratik Jawanpuria"
        },
        {
          "authorId": "2305482901",
          "name": "Karthik S. Gurumoorthy"
        },
        {
          "authorId": "70198677",
          "name": "S. Jagarlapudi"
        },
        {
          "authorId": "2282961950",
          "name": "Bamdev Mishra"
        }
      ]
    },
    {
      "paperId": "82ae5cdf69190480c3d639137f6f594f913a0372",
      "externalIds": {
        "MAG": "2890692662",
        "DBLP": "journals/talg/ChanHJKT18",
        "DOI": "10.1145/3242770",
        "CorpusId": 52305363
      },
      "url": "https://www.semanticscholar.org/paper/82ae5cdf69190480c3d639137f6f594f913a0372",
      "title": "Online Submodular Maximization with Free Disposal",
      "venue": "ACM Trans. Algorithms",
      "year": 2018,
      "referenceCount": 50,
      "citationCount": 15,
      "authors": [
        {
          "authorId": "2172722926",
          "name": "T-H. Hubert Chan"
        },
        {
          "authorId": "1780515",
          "name": "Zhiyi Huang"
        },
        {
          "authorId": "31360486",
          "name": "S. Jiang"
        },
        {
          "authorId": "2052131996",
          "name": "N. Kang"
        },
        {
          "authorId": "15855105",
          "name": "Z. Tang"
        }
      ]
    },
    {
      "paperId": "6801217f39e6260753e34a6ba029677a089df64f",
      "externalIds": {
        "MAG": "2952790532",
        "DBLP": "conf/soda/Chan0JKT17",
        "ArXiv": "1610.07770",
        "DOI": "10.1137/1.9781611974782.78",
        "CorpusId": 5647804
      },
      "url": "https://www.semanticscholar.org/paper/6801217f39e6260753e34a6ba029677a089df64f",
      "title": "Online Submodular Maximization with Free Disposal: Randomization Beats ¼ for Partition Matroids",
      "venue": "ACM-SIAM Symposium on Discrete Algorithms",
      "year": 2016,
      "referenceCount": 58,
      "citationCount": 34,
      "authors": [
        {
          "authorId": "2172722926",
          "name": "T-H. Hubert Chan"
        },
        {
          "authorId": "1780515",
          "name": "Zhiyi Huang"
        },
        {
          "authorId": "31360486",
          "name": "S. Jiang"
        },
        {
          "authorId": "2052131996",
          "name": "N. Kang"
        },
        {
          "authorId": "15855105",
          "name": "Z. Tang"
        }
      ]
    }
  ]
}