{
  "total": 88,
  "offset": 0,
  "next": 10,
  "data": [
    {
      "paperId": "3548baab3e5e6abc278cefdd33f3b58efb924554",
      "externalIds": {
        "MAG": "2786691175",
        "DBLP": "journals/corr/abs-1802-02664",
        "ArXiv": "1802.02664",
        "CorpusId": 3619830
      },
      "url": "https://www.semanticscholar.org/paper/3548baab3e5e6abc278cefdd33f3b58efb924554",
      "title": "Geometry Score: A Method For Comparing Generative Adversarial Networks",
      "venue": "International Conference on Machine Learning",
      "year": 2018,
      "referenceCount": 27,
      "citationCount": 133,
      "authors": [
        {
          "authorId": "10662951",
          "name": "V. Khrulkov"
        },
        {
          "authorId": "1738205",
          "name": "I. Oseledets"
        }
      ]
    },
    {
      "paperId": "b1c8f078c147f840265c439e319fb01c5d9e1cc6",
      "externalIds": {
        "DOI": "10.3390/app15115933",
        "CorpusId": 278919600
      },
      "url": "https://www.semanticscholar.org/paper/b1c8f078c147f840265c439e319fb01c5d9e1cc6",
      "title": "An Unsupervised Anomaly Detection Method for Railway Fasteners Based on Knowledge-Distilled Generative Adversarial Networks",
      "venue": "Applied Sciences",
      "year": 2025,
      "referenceCount": 46,
      "citationCount": 1,
      "authors": [
        {
          "authorId": "2323324153",
          "name": "Hongyang Chen"
        },
        {
          "authorId": "2301884635",
          "name": "Zhiwei Li"
        },
        {
          "authorId": "2153020418",
          "name": "Xinjie Xiao"
        }
      ]
    },
    {
      "paperId": "a58b3bd2632a08246f86d45bb1cb6eb462e20ab0",
      "externalIds": {
        "DBLP": "journals/cluster/DarwichB25",
        "DOI": "10.1007/s10586-025-05538-z",
        "CorpusId": 281414506
      },
      "url": "https://www.semanticscholar.org/paper/a58b3bd2632a08246f86d45bb1cb6eb462e20ab0",
      "title": "Utilizing generative adversarial networks (GANs) for realistic video stream augmentation and enhancement",
      "venue": "Cluster Computing",
      "year": 2025,
      "referenceCount": 41,
      "citationCount": 2,
      "authors": [
        {
          "authorId": "35188800",
          "name": "Mahmoud Darwich"
        },
        {
          "authorId": "2149930651",
          "name": "Magdy A. Bayoumi"
        }
      ]
    },
    {
      "paperId": "c4df9e85d79effcdb171260ae075fcfc188b6caa",
      "externalIds": {
        "DOI": "10.3390/math13010007",
        "CorpusId": 275027469
      },
      "url": "https://www.semanticscholar.org/paper/c4df9e85d79effcdb171260ae075fcfc188b6caa",
      "title": "Reconstruction of Random Structures Based on Generative Adversarial Networks: Statistical Variability of Mechanical and Morphological Properties",
      "venue": "Mathematics",
      "year": 2024,
      "referenceCount": 43,
      "citationCount": 5,
      "authors": [
        {
          "authorId": "2313373975",
          "name": "M. Tashkinov"
        },
        {
          "authorId": "2244709219",
          "name": "Yulia Pirogova"
        },
        {
          "authorId": "91886057",
          "name": "E. Kononov"
        },
        {
          "authorId": "2073975442",
          "name": "A. Shalimov"
        },
        {
          "authorId": "2249363761",
          "name": "Vadim V. Silberschmidt"
        }
      ]
    },
    {
      "paperId": "74900fb94e609cee3e1cef35dfa8e846767bc588",
      "externalIds": {
        "DOI": "10.1111/2041-210X.70148",
        "CorpusId": 281128791
      },
      "url": "https://www.semanticscholar.org/paper/74900fb94e609cee3e1cef35dfa8e846767bc588",
      "title": "Animal acoustic identification, denoising and source separation using generative adversarial networks",
      "venue": "Methods in Ecology and Evolution",
      "year": 2025,
      "referenceCount": 49,
      "citationCount": 2,
      "authors": [
        {
          "authorId": "2155806029",
          "name": "Mei Wang"
        },
        {
          "authorId": "2266928794",
          "name": "Kevin F. A. Darras"
        },
        {
          "authorId": "116418813",
          "name": "Renjie Xue"
        },
        {
          "authorId": "5886100",
          "name": "Fanglin Liu"
        }
      ]
    },
    {
      "paperId": "bde4b90e3792fd1e6c11cc63d5f37a7e6de3efbe",
      "externalIds": {
        "DBLP": "journals/air/ShawlyA24",
        "DOI": "10.1007/s10462-024-10848-6",
        "CorpusId": 271252651
      },
      "url": "https://www.semanticscholar.org/paper/bde4b90e3792fd1e6c11cc63d5f37a7e6de3efbe",
      "title": "Fire Identification Based on Novel Dense Generative Adversarial Networks",
      "venue": "Artificial Intelligence Review",
      "year": 2024,
      "referenceCount": 28,
      "citationCount": 7,
      "authors": [
        {
          "authorId": "2060348",
          "name": "T. Shawly"
        },
        {
          "authorId": "2487422",
          "name": "A. Alsheikhy"
        }
      ]
    },
    {
      "paperId": "fc85a3481d1ca04bd23c7070bfe8cea4e0b7676f",
      "externalIds": {
        "DOI": "10.1148/radiol.233529",
        "CorpusId": 277996079,
        "PubMed": "40261176"
      },
      "url": "https://www.semanticscholar.org/paper/fc85a3481d1ca04bd23c7070bfe8cea4e0b7676f",
      "title": "Multisequence 3-T Image Synthesis from 64-mT Low-Field-Strength MRI Using Generative Adversarial Networks in Multiple Sclerosis.",
      "venue": "Radiology",
      "year": 2025,
      "referenceCount": 22,
      "citationCount": 5,
      "authors": [
        {
          "authorId": "2121334363",
          "name": "Alfredo Lucas"
        },
        {
          "authorId": "2053868037",
          "name": "T. Arnold"
        },
        {
          "authorId": "15911837",
          "name": "S. Okar"
        },
        {
          "authorId": "2276743093",
          "name": "Chetan Vadali"
        },
        {
          "authorId": "2173827198",
          "name": "Karan D. Kawatra"
        },
        {
          "authorId": "2276757542",
          "name": "Zheng Ren"
        },
        {
          "authorId": "2266294113",
          "name": "Quy Cao"
        },
        {
          "authorId": "2290169257",
          "name": "Russell T. Shinohara"
        },
        {
          "authorId": "2267330364",
          "name": "M. K. Schindler"
        },
        {
          "authorId": "2250383416",
          "name": "K. Davis"
        },
        {
          "authorId": "2318160695",
          "name": "Brian Litt"
        },
        {
          "authorId": "2276743162",
          "name": "D. Reich"
        },
        {
          "authorId": "2318423064",
          "name": "Joel M Stein"
        }
      ]
    },
    {
      "paperId": "f63d145a55a9e4654fed8142f38d9be650d2d630",
      "externalIds": {
        "DOI": "10.5220/0013598100004664",
        "CorpusId": 281631501
      },
      "url": "https://www.semanticscholar.org/paper/f63d145a55a9e4654fed8142f38d9be650d2d630",
      "title": "Screw Anomaly Detection Comparison of YoloV8 with Variational Auto Encoders and Generative Adversarial Networks",
      "venue": "Proceedings of the 3rd International Conference on Futuristic Technology",
      "year": 2025,
      "referenceCount": 30,
      "citationCount": 0,
      "authors": [
        {
          "authorId": "2116253",
          "name": "Manoj Hudnurkar"
        },
        {
          "authorId": "2179950755",
          "name": "G. Sahu"
        },
        {
          "authorId": "2354017880",
          "name": "Suhas A. Ambekar"
        },
        {
          "authorId": "2382613916",
          "name": "Janhavi Vadke"
        },
        {
          "authorId": "2308745748",
          "name": "K. Singh"
        }
      ]
    },
    {
      "paperId": "e7ec1eb57e0e6d537faaf20b87a69a2f93bcf910",
      "externalIds": {
        "MAG": "3151848073",
        "DBLP": "journals/corr/abs-2104-02373",
        "ArXiv": "2104.02373",
        "DOI": "10.1007/978-3-030-95470-3_35",
        "CorpusId": 233033821
      },
      "url": "https://www.semanticscholar.org/paper/e7ec1eb57e0e6d537faaf20b87a69a2f93bcf910",
      "title": "Leverage Score Sampling for Complete Mode Coverage in Generative Adversarial Networks",
      "venue": "International Conference on Machine Learning, Optimization, and Data Science",
      "year": 2021,
      "referenceCount": 28,
      "citationCount": 0,
      "authors": [
        {
          "authorId": "51940192",
          "name": "J. Schreurs"
        },
        {
          "authorId": "1751159552",
          "name": "Hannes De Meulemeester"
        },
        {
          "authorId": "103101969",
          "name": "M. Fanuel"
        },
        {
          "authorId": "143750713",
          "name": "B. Moor"
        },
        {
          "authorId": "1744439",
          "name": "J. Suykens"
        }
      ]
    },
    {
      "paperId": "542e760a6e6eec604bdcf33bf86b0f51dd110160",
      "externalIds": {
        "DBLP": "journals/computing/DarwishE26",
        "DOI": "10.1007/s00607-026-01622-3",
        "CorpusId": 285975543
      },
      "url": "https://www.semanticscholar.org/paper/542e760a6e6eec604bdcf33bf86b0f51dd110160",
      "title": "CT-TabGAN: enhanced tabular data modeling through conditional generative adversarial networks for imbalance mitigation",
      "venue": "Computing",
      "year": 2026,
      "referenceCount": 49,
      "citationCount": 0,
      "authors": [
        {
          "authorId": "2292807840",
          "name": "Saad M. Darwish"
        },
        {
          "authorId": "2383681680",
          "name": "Noha A. El-Shoafy"
        }
      ]
    }
  ]
}