{
  "total": 11,
  "offset": 0,
  "next": 10,
  "data": [
    {
      "paperId": "777ef1da21dba9920258a34eb2c5f1c038ea6d54",
      "externalIds": {
        "DBLP": "conf/icml/WuW18",
        "MAG": "2787436538",
        "CorpusId": 51873468,
        "PubMed": "32789292"
      },
      "url": "https://www.semanticscholar.org/paper/777ef1da21dba9920258a34eb2c5f1c038ea6d54",
      "title": "Variance Regularized Counterfactual Risk Minimization via Variational Divergence Minimization",
      "venue": "International Conference on Machine Learning",
      "year": 2018,
      "referenceCount": 42,
      "citationCount": 20,
      "authors": [
        {
          "authorId": "2240109",
          "name": "Hang Wu"
        },
        {
          "authorId": "2247066187",
          "name": "May D. Wang"
        }
      ]
    },
    {
      "paperId": "d416754ea0d310f7cab5803798d5b121122c3ff5",
      "externalIds": {
        "DBLP": "journals/corr/abs-2409-09819",
        "ArXiv": "2409.09819",
        "DOI": "10.48550/arXiv.2409.09819",
        "CorpusId": 272689678
      },
      "url": "https://www.semanticscholar.org/paper/d416754ea0d310f7cab5803798d5b121122c3ff5",
      "title": "A Simpler Alternative to Variational Regularized Counterfactual Risk Minimization",
      "venue": "arXiv.org",
      "year": 2024,
      "referenceCount": 15,
      "citationCount": 0,
      "authors": [
        {
          "authorId": "2321406763",
          "name": "Hua Chang Bakker"
        },
        {
          "authorId": "2284033734",
          "name": "Shashank Gupta"
        },
        {
          "authorId": "143624743",
          "name": "Harrie Oosterhuis"
        }
      ]
    },
    {
      "paperId": "6b59f3641aa464ec52f4b5e70e4cd53b6d22517f",
      "externalIds": {
        "DBLP": "journals/corr/abs-2510-15479",
        "ArXiv": "2510.15479",
        "DOI": "10.48550/arXiv.2510.15479",
        "CorpusId": 282203590
      },
      "url": "https://www.semanticscholar.org/paper/6b59f3641aa464ec52f4b5e70e4cd53b6d22517f",
      "title": "Adversary-Free Counterfactual Prediction via Information-Regularized Representations",
      "venue": "arXiv.org",
      "year": 2025,
      "referenceCount": 23,
      "citationCount": 0,
      "authors": [
        {
          "authorId": "2377998316",
          "name": "Shiqin Tang"
        },
        {
          "authorId": "2386525269",
          "name": "Rong Feng"
        },
        {
          "authorId": "2342685105",
          "name": "Shuxin Zhuang"
        },
        {
          "authorId": "2386551588",
          "name": "Hongzong Li"
        },
        {
          "authorId": "2386649729",
          "name": "Youzhi Zhang"
        }
      ]
    },
    {
      "paperId": "20c1312ab5648fc9542b0d81f0aba511f699d5f8",
      "externalIds": {
        "DBLP": "journals/corr/abs-2506-23208",
        "ArXiv": "2506.23208",
        "DOI": "10.1109/ICCVW69036.2025.00758",
        "CorpusId": 280016135
      },
      "url": "https://www.semanticscholar.org/paper/20c1312ab5648fc9542b0d81f0aba511f699d5f8",
      "title": "Multi-Source Covid-19 Detection via Variance Risk Extrapolation",
      "venue": "2025 IEEE/CVF International Conference on Computer Vision Workshops (ICCVW)",
      "year": 2025,
      "referenceCount": 38,
      "citationCount": 6,
      "authors": [
        {
          "authorId": "2199212517",
          "name": "Runtian Yuan"
        },
        {
          "authorId": "2108110694",
          "name": "Qingqiu Li"
        },
        {
          "authorId": "50308950",
          "name": "Junlin Hou"
        },
        {
          "authorId": "3259789",
          "name": "Jilan Xu"
        },
        {
          "authorId": "2265458995",
          "name": "Yue Zhang"
        },
        {
          "authorId": "2290664956",
          "name": "Rui Feng"
        },
        {
          "authorId": "2292645430",
          "name": "Hao Chen"
        }
      ]
    },
    {
      "paperId": "a935da97a9e2f787b3ce23c9e6de441ead4d0b36",
      "externalIds": {
        "DBLP": "journals/access/MSAKNRBR25",
        "DOI": "10.1109/ACCESS.2025.3639179",
        "CorpusId": 283499028
      },
      "url": "https://www.semanticscholar.org/paper/a935da97a9e2f787b3ce23c9e6de441ead4d0b36",
      "title": "Quantum-Optimized Probabilistic U-Net With Quantum Entropy Calibration and Active Annotation for Reliable Sparse-Label MRI Brain Lesion Segmentations",
      "venue": "IEEE Access",
      "year": 2025,
      "referenceCount": 49,
      "citationCount": 0,
      "authors": [
        {
          "authorId": "2138668263",
          "name": "R. T M"
        },
        {
          "authorId": "2399050692",
          "name": "Tanvir Habib Sardar"
        },
        {
          "authorId": "2211662664",
          "name": "A. Ayesha"
        },
        {
          "authorId": "2319464829",
          "name": "Praveen Kulkarni"
        },
        {
          "authorId": "2341382729",
          "name": "Pannangi Naresh"
        },
        {
          "authorId": "2175177180",
          "name": "P. Rajyalakshmi"
        },
        {
          "authorId": "2400571755",
          "name": "Dara Rajesh Babu"
        },
        {
          "authorId": "2396104772",
          "name": "Y. Rajyalaxmi"
        }
      ]
    },
    {
      "paperId": "2c075a663c008fed538ffdfa6b11910af6f46dfd",
      "externalIds": {
        "MAG": "2941256933",
        "DBLP": "journals/tip/LiXFXHSM19",
        "DOI": "10.1109/TIP.2019.2912292",
        "CorpusId": 195661114,
        "PubMed": "31034412"
      },
      "url": "https://www.semanticscholar.org/paper/2c075a663c008fed538ffdfa6b11910af6f46dfd",
      "title": "Image Denoising Based on Nonlocal Bayesian Singular Value Thresholding and Stein’s Unbiased Risk Estimator",
      "venue": "IEEE Transactions on Image Processing",
      "year": 2019,
      "referenceCount": 57,
      "citationCount": 14,
      "authors": [
        {
          "authorId": "2118036134",
          "name": "Caoyuan Li"
        },
        {
          "authorId": "6547450",
          "name": "Hong-Bo Xie"
        },
        {
          "authorId": "2157773",
          "name": "Xuhui Fan"
        },
        {
          "authorId": "2154865",
          "name": "R. Xu"
        },
        {
          "authorId": "118918015",
          "name": "S. Van Huffel"
        },
        {
          "authorId": "144540527",
          "name": "S. Sisson"
        },
        {
          "authorId": "3069617",
          "name": "K. Mengersen"
        }
      ]
    },
    {
      "paperId": "33c4b71e93d6a1e19e147c8a54441580a3128c19",
      "externalIds": {
        "MAG": "1518865768",
        "DOI": "10.1002/9781118827253.CH8",
        "CorpusId": 118556746
      },
      "url": "https://www.semanticscholar.org/paper/33c4b71e93d6a1e19e147c8a54441580a3128c19",
      "title": "MCMC and Variational Approaches for Bayesian Inversion in Diffraction Imaging",
      "venue": "",
      "year": 2015,
      "referenceCount": 47,
      "citationCount": 2,
      "authors": [
        {
          "authorId": "2321840",
          "name": "H. Ayasso"
        },
        {
          "authorId": "2739638",
          "name": "B. Duchêne"
        },
        {
          "authorId": "102082140",
          "name": "A. Mohammad-Djafari"
        }
      ]
    },
    {
      "paperId": "dee85ad9319a5b48a4413dd9d459e09f6b2fe5c0",
      "externalIds": {
        "MAG": "1483952878",
        "CorpusId": 261067660
      },
      "url": "https://www.semanticscholar.org/paper/dee85ad9319a5b48a4413dd9d459e09f6b2fe5c0",
      "title": "Learning Theory: 19th Annual Conference on Learning Theory, COLT 2006, Pittsburgh, PA, USA, June 22-25, 2006, Proceedings",
      "venue": "Annual Conference Computational Learning Theory",
      "year": 2006,
      "referenceCount": 0,
      "citationCount": 0,
      "authors": [
        {
          "authorId": "1755694",
          "name": "G. Lugosi"
        },
        {
          "authorId": "1723095",
          "name": "H. Simon"
        }
      ]
    },
    {
      "paperId": "f4216db4918b22b94cfa4b36a1736ede2e1c956e",
      "externalIds": {
        "CorpusId": 249515893
      },
      "url": "https://www.semanticscholar.org/paper/f4216db4918b22b94cfa4b36a1736ede2e1c956e",
      "title": "Structure-adaptive CBCT reconstruction using weighted total variation and Hessian penalties",
      "venue": "",
      "year": 2016,
      "referenceCount": 47,
      "citationCount": 0,
      "authors": [
        {
          "authorId": "2085831678",
          "name": "Ing"
        },
        {
          "authorId": "2079218465",
          "name": "Ang"
        }
      ]
    },
    {
      "paperId": "a5c33b6be6e3b575609570ce2e7fbc33b8f974ee",
      "externalIds": {
        "MAG": "2030734645",
        "PubMedCentral": "2762242",
        "DOI": "10.1155/2009/582697",
        "CorpusId": 18212768,
        "PubMed": "19841677"
      },
      "url": "https://www.semanticscholar.org/paper/a5c33b6be6e3b575609570ce2e7fbc33b8f974ee",
      "title": "Computational Data Mining in Cancer Bioinformatics and Cancer Epidemiology",
      "venue": "Journal of Biomedicine and Biotechnology",
      "year": 2009,
      "referenceCount": 0,
      "citationCount": 4,
      "authors": [
        {
          "authorId": "2109105959",
          "name": "Zhenqiu Liu"
        },
        {
          "authorId": "1750203",
          "name": "Dechang Chen"
        },
        {
          "authorId": "2410994",
          "name": "Xue-wen Chen"
        },
        {
          "authorId": "5730548",
          "name": "Haomiao Jia"
        }
      ]
    }
  ]
}