{
  "total": 11,
  "offset": 0,
  "next": 10,
  "data": [
    {
      "paperId": "0a3863a0915256082aee613ba6dab6ede962cdcd",
      "externalIds": {
        "MAG": "2466938731",
        "DBLP": "conf/icml/SangnierGR16",
        "CorpusId": 15194020
      },
      "url": "https://www.semanticscholar.org/paper/0a3863a0915256082aee613ba6dab6ede962cdcd",
      "title": "Early and Reliable Event Detection Using Proximity Space Representation",
      "venue": "International Conference on Machine Learning",
      "year": 2016,
      "referenceCount": 28,
      "citationCount": 5,
      "authors": [
        {
          "authorId": "2527457",
          "name": "Maxime Sangnier"
        },
        {
          "authorId": "36148467",
          "name": "Jérôme Gauthier"
        },
        {
          "authorId": "1792962",
          "name": "A. Rakotomamonjy"
        }
      ]
    },
    {
      "paperId": "549056d65c92a8e2a61a7cdbc25620ad965ed011",
      "externalIds": {
        "CorpusId": 201864307
      },
      "url": "https://www.semanticscholar.org/paper/549056d65c92a8e2a61a7cdbc25620ad965ed011",
      "title": "Damage Detection using Stochastic Subspace Identification",
      "venue": "",
      "year": 2010,
      "referenceCount": 15,
      "citationCount": 0,
      "authors": [
        {
          "authorId": "50327623",
          "name": "S. Sim"
        },
        {
          "authorId": "145453775",
          "name": "B. Spencer"
        }
      ]
    },
    {
      "paperId": "c56f32390db446adc70525cb4c4e7f5d381022e6",
      "externalIds": {
        "CorpusId": 253122163
      },
      "url": "https://www.semanticscholar.org/paper/c56f32390db446adc70525cb4c4e7f5d381022e6",
      "title": "94 st Annual Meeting of the Eastern Society of the Seismological Society of America",
      "venue": "",
      "year": 2022,
      "referenceCount": 0,
      "citationCount": 0,
      "authors": [
        {
          "authorId": "48527219",
          "name": "Zhigang Peng"
        },
        {
          "authorId": "11725682",
          "name": "S. Jaumé"
        }
      ]
    },
    {
      "paperId": "9f22e8223b3b270648ddf6a0c0c0ff551beb5647",
      "externalIds": {
        "MAG": "2481054309",
        "DBLP": "conf/micai/2006",
        "DOI": "10.1007/11925231",
        "CorpusId": 6791367
      },
      "url": "https://www.semanticscholar.org/paper/9f22e8223b3b270648ddf6a0c0c0ff551beb5647",
      "title": "MICAI 2006: Advances in Artificial Intelligence, 5th Mexican International Conference on Artificial Intelligence, Apizaco, Mexico, November 13-17, 2006, Proceedings",
      "venue": "Mexican International Conference on Artificial Intelligence",
      "year": 2006,
      "referenceCount": 0,
      "citationCount": 64,
      "authors": [
        {
          "authorId": "1747784",
          "name": "Alexander Gelbukh"
        },
        {
          "authorId": "1401951104",
          "name": "C. Reyes-García"
        }
      ]
    },
    {
      "paperId": "2104c0348ddb571d6e368f90ad65a684aba82b29",
      "externalIds": {
        "MAG": "2120027042",
        "DOI": "10.1016/j.bpj.2013.01.060",
        "CorpusId": 39839961,
        "PubMed": "23601307"
      },
      "url": "https://www.semanticscholar.org/paper/2104c0348ddb571d6e368f90ad65a684aba82b29",
      "title": "Generating accurate contact maps of transient long-range interactions in intrinsically disordered proteins by paramagnetic relaxation enhancement.",
      "venue": "Biophysical Journal",
      "year": 2013,
      "referenceCount": 25,
      "citationCount": 6,
      "authors": [
        {
          "authorId": "2240735754",
          "name": "G. Clore"
        }
      ]
    },
    {
      "paperId": "c1f75dbf60622cfb79a6ea518af9ef76d02528b4",
      "externalIds": {
        "DOI": "10.26686/wgtn.21300411",
        "CorpusId": 252856530
      },
      "url": "https://www.semanticscholar.org/paper/c1f75dbf60622cfb79a6ea518af9ef76d02528b4",
      "title": "Investigation of Hikurangi subduction zone slow slip events using onshore and offshore geodetic data",
      "venue": "",
      "year": null,
      "referenceCount": 0,
      "citationCount": 1,
      "authors": [
        {
          "authorId": "95429109",
          "name": "K. Woods"
        }
      ]
    },
    {
      "paperId": "3c8d18cef4bd936fee9ee33875e2e5fb4e454529",
      "externalIds": {
        "CorpusId": 262483980
      },
      "url": "https://www.semanticscholar.org/paper/3c8d18cef4bd936fee9ee33875e2e5fb4e454529",
      "title": "Managing Sensor Data Uncertainty : A Data Quality Approach",
      "venue": "",
      "year": 2015,
      "referenceCount": 4,
      "citationCount": 0,
      "authors": [
        {
          "authorId": "36226461",
          "name": "C. G. Rodriguez"
        }
      ]
    },
    {
      "paperId": "df644fa19fec1e9b34a140963f6bc4cfe9c55e69",
      "externalIds": {
        "CorpusId": 17068658
      },
      "url": "https://www.semanticscholar.org/paper/df644fa19fec1e9b34a140963f6bc4cfe9c55e69",
      "title": "QUANTAL TIMING AS A CONSEQUENCE OF THE ANTICIPATORY ACTIVITY OF THE NERVOUS SYSTEM",
      "venue": "",
      "year": 2001,
      "referenceCount": 33,
      "citationCount": 3,
      "authors": [
        {
          "authorId": "5961486",
          "name": "V. Vanagas"
        }
      ]
    },
    {
      "paperId": "ab2a62152ff4c16232f3cb14e7b67b46fd7f65ab",
      "externalIds": {
        "CorpusId": 195059074
      },
      "url": "https://www.semanticscholar.org/paper/ab2a62152ff4c16232f3cb14e7b67b46fd7f65ab",
      "title": "AFTER THE REVOLUTIONS OF GESTALT AND ACTION CONTROL THEORIES: IS THERE A PSYCHOPHYSICS OF TASK-RELATED STRUCTURAL REPRESENTATIONS? A DISCUSSION BASED UPON EVIDENCE FROM VISUAL CATEGORIZATION",
      "venue": "",
      "year": 2001,
      "referenceCount": 34,
      "citationCount": 2,
      "authors": [
        {
          "authorId": "97810770",
          "name": "H. Geissler"
        }
      ]
    },
    {
      "paperId": "9b2363d88c11bca0e8948b2b1f8aea69a04cf88a",
      "externalIds": {
        "MAG": "2422427592",
        "PubMedCentral": "4905956",
        "DOI": "10.3389/fgene.2016.00111",
        "CorpusId": 8667904,
        "PubMed": "27379161"
      },
      "url": "https://www.semanticscholar.org/paper/9b2363d88c11bca0e8948b2b1f8aea69a04cf88a",
      "title": "Editorial: Protein Interaction Networks in Health and Disease",
      "venue": "Frontiers in Genetics",
      "year": 2016,
      "referenceCount": 0,
      "citationCount": 11,
      "authors": [
        {
          "authorId": "40630241",
          "name": "S. Petrakis"
        },
        {
          "authorId": "1398412796",
          "name": "Miguel Andrade"
        }
      ]
    }
  ]
}