{
  "total": 5572,
  "offset": 0,
  "next": 10,
  "data": [
    {
      "paperId": "e5bb7068e7d74fd30f253124e5d3dfc3544bde83",
      "externalIds": {
        "MAG": "643635367",
        "DBLP": "conf/icml/SunQW15",
        "CorpusId": 10281921
      },
      "url": "https://www.semanticscholar.org/paper/e5bb7068e7d74fd30f253124e5d3dfc3544bde83",
      "title": "Complete Dictionary Recovery Using Nonconvex Optimization",
      "venue": "International Conference on Machine Learning",
      "year": 2015,
      "referenceCount": 48,
      "citationCount": 37,
      "authors": [
        {
          "authorId": "144706338",
          "name": "Ju Sun"
        },
        {
          "authorId": "144403436",
          "name": "Qing Qu"
        },
        {
          "authorId": "143607492",
          "name": "John Wright"
        }
      ]
    },
    {
      "paperId": "dc7bd0c76e6cbbfd9ec0c30c101ba55d3a457de7",
      "externalIds": {
        "MAG": "2497667527",
        "DOI": "10.1109/TNNLS.2015.2512563",
        "CorpusId": 13901378,
        "PubMed": "26766382"
      },
      "url": "https://www.semanticscholar.org/paper/dc7bd0c76e6cbbfd9ec0c30c101ba55d3a457de7",
      "title": "Image Super-Resolution via Adaptive  $\\ell _{p} (0<p<1)$  Regularization and Sparse Representation",
      "venue": "IEEE Transactions on Neural Networks and Learning Systems",
      "year": 2016,
      "referenceCount": 47,
      "citationCount": 35,
      "authors": [
        {
          "authorId": "1819180",
          "name": "F. Cao"
        },
        {
          "authorId": "2244439",
          "name": "MiaoMiao Cai"
        },
        {
          "authorId": "2110732364",
          "name": "Yuanpeng Tan"
        },
        {
          "authorId": "48019076",
          "name": "Jianwei Zhao"
        }
      ]
    },
    {
      "paperId": "8054e024ecd74066bca990c8cdd4e8354ef750fe",
      "externalIds": {
        "DOI": "10.1109/ICEEE62185.2024.10779322",
        "CorpusId": 274641753
      },
      "url": "https://www.semanticscholar.org/paper/8054e024ecd74066bca990c8cdd4e8354ef750fe",
      "title": "Sparse Recovery Using SL0 Algorithm by Dictionary Optimization and Application to ISAR Imaging with Low SNR",
      "venue": "2024 11th International Conference on Electrical and Electronics Engineering (ICEEE)",
      "year": 2024,
      "referenceCount": 15,
      "citationCount": 1,
      "authors": [
        {
          "authorId": "2292344368",
          "name": "Kun Liu"
        },
        {
          "authorId": "2292518568",
          "name": "Jing Yang"
        },
        {
          "authorId": "2322619062",
          "name": "Xin Wang"
        },
        {
          "authorId": "2220770530",
          "name": "Jiabin Qi"
        },
        {
          "authorId": "2292524478",
          "name": "Qingqing Liu"
        },
        {
          "authorId": "2293215318",
          "name": "Li Wang"
        },
        {
          "authorId": "2292349490",
          "name": "Yong Luo"
        }
      ]
    },
    {
      "paperId": "1ef68840e963e6168a9d22785bc14cede6b54b2a",
      "externalIds": {
        "DBLP": "journals/corr/SunQW15",
        "MAG": "2107122056",
        "ArXiv": "1504.06785",
        "DOI": "10.1109/SAMPTA.2015.7148922",
        "CorpusId": 2111606
      },
      "url": "https://www.semanticscholar.org/paper/1ef68840e963e6168a9d22785bc14cede6b54b2a",
      "title": "Complete dictionary recovery over the sphere",
      "venue": "International Conference on Sampling Theory and Applications",
      "year": 2015,
      "referenceCount": 128,
      "citationCount": 200,
      "authors": [
        {
          "authorId": "144706338",
          "name": "Ju Sun"
        },
        {
          "authorId": "144403436",
          "name": "Qing Qu"
        },
        {
          "authorId": "143607492",
          "name": "John Wright"
        }
      ]
    },
    {
      "paperId": "9ac0cb4c09ab25b19166f5d482b3867a8a55e60a",
      "externalIds": {
        "DBLP": "journals/tgrs/HuLGJ20",
        "MAG": "2973402815",
        "DOI": "10.1109/TGRS.2019.2937901",
        "CorpusId": 204210155
      },
      "url": "https://www.semanticscholar.org/paper/9ac0cb4c09ab25b19166f5d482b3867a8a55e60a",
      "title": "Hyperspectral Image Recovery Using Nonconvex Sparsity and Low-Rank Regularizations",
      "venue": "IEEE Transactions on Geoscience and Remote Sensing",
      "year": 2020,
      "referenceCount": 51,
      "citationCount": 13,
      "authors": [
        {
          "authorId": "144985889",
          "name": "Yue Hu"
        },
        {
          "authorId": "2118899748",
          "name": "Xiaodi Li"
        },
        {
          "authorId": "1906550",
          "name": "Yanfeng Gu"
        },
        {
          "authorId": "145004655",
          "name": "M. Jacob"
        }
      ]
    },
    {
      "paperId": "78a48f20b54157ab3adc83fa424f7f724a28f866",
      "externalIds": {
        "ArXiv": "2407.13407",
        "DOI": "10.1093/imaiai/iaaf012",
        "CorpusId": 278300689
      },
      "url": "https://www.semanticscholar.org/paper/78a48f20b54157ab3adc83fa424f7f724a28f866",
      "title": "Nonconvex landscapes for Z2 synchronization and graph clustering are benign near exact recovery thresholds",
      "venue": "Information and Inference A Journal of the IMA",
      "year": 2024,
      "referenceCount": 39,
      "citationCount": 6,
      "authors": [
        {
          "authorId": "2303467638",
          "name": "Andrew D. McRae"
        },
        {
          "authorId": "144609123",
          "name": "Pedro Abdalla"
        },
        {
          "authorId": "2256985447",
          "name": "Afonso S. Bandeira"
        },
        {
          "authorId": "2271561221",
          "name": "Nicolas Boumal"
        }
      ]
    },
    {
      "paperId": "0e5d5a20a8e09320d2a5b8fe380757eb58b9f33b",
      "externalIds": {
        "PubMedCentral": "10651510",
        "DOI": "10.1016/j.heliyon.2023.e21797",
        "CorpusId": 264946751,
        "PubMed": "38027580"
      },
      "url": "https://www.semanticscholar.org/paper/0e5d5a20a8e09320d2a5b8fe380757eb58b9f33b",
      "title": "Optimization of enhanced oil recovery using ASP solution",
      "venue": "Heliyon",
      "year": 2023,
      "referenceCount": 69,
      "citationCount": 4,
      "authors": [
        {
          "authorId": "2265042594",
          "name": "L. S. Marques"
        },
        {
          "authorId": "2265039215",
          "name": "Pamela Dias Rodrigues"
        },
        {
          "authorId": "92721676",
          "name": "G. Simonelli"
        },
        {
          "authorId": "4512723",
          "name": "D. Assis"
        },
        {
          "authorId": "2181004",
          "name": "C. Quintella"
        },
        {
          "authorId": "2265007170",
          "name": "Ana Katerine de Carvalho Lima Lobato"
        },
        {
          "authorId": "2264996881",
          "name": "Olívia Maria Cordeiro de Oliveira"
        },
        {
          "authorId": "2265012055",
          "name": "Luiz Carlos Lobato dos Santos"
        }
      ]
    },
    {
      "paperId": "2291ba55268bed4ae9556dc19502c331ae0ecda0",
      "externalIds": {
        "DBLP": "journals/tcsv/QiuYZ24",
        "DOI": "10.1109/TCSVT.2024.3413992",
        "CorpusId": 270497799
      },
      "url": "https://www.semanticscholar.org/paper/2291ba55268bed4ae9556dc19502c331ae0ecda0",
      "title": "Robust Tensor Completion via Dictionary Learning and Generalized Nonconvex Regularization for Visual Data Recovery",
      "venue": "IEEE transactions on circuits and systems for video technology (Print)",
      "year": 2024,
      "referenceCount": 0,
      "citationCount": 15,
      "authors": [
        {
          "authorId": "2053957130",
          "name": "Duo Qiu"
        },
        {
          "authorId": "2306435163",
          "name": "Bei Yang"
        },
        {
          "authorId": "3490317",
          "name": "Xiongjun Zhang"
        }
      ]
    },
    {
      "paperId": "a72ac0dc6aa51a2a07d581a27c452e904d4804f2",
      "externalIds": {
        "DBLP": "journals/tsmc/WangXQ23",
        "DOI": "10.1109/TSMC.2023.3287237",
        "CorpusId": 259697809
      },
      "url": "https://www.semanticscholar.org/paper/a72ac0dc6aa51a2a07d581a27c452e904d4804f2",
      "title": "An Adaptive Memristor-Programming Neurodynamic Approach to Nonsmooth Nonconvex Optimization Problems",
      "venue": "IEEE Transactions on Systems, Man, and Cybernetics: Systems",
      "year": 2023,
      "referenceCount": 39,
      "citationCount": 32,
      "authors": [
        {
          "authorId": "47446922",
          "name": "Mengxin Wang"
        },
        {
          "authorId": "2315648439",
          "name": "Y. Xie"
        },
        {
          "authorId": "2768705",
          "name": "Sitian Qin"
        }
      ]
    },
    {
      "paperId": "09f0a7f6127d0b5161919b631b1a66e6ba17a9f5",
      "externalIds": {
        "ArXiv": "2503.10732",
        "DBLP": "journals/corr/abs-2503-10732",
        "DOI": "10.48550/arXiv.2503.10732",
        "CorpusId": 277043569
      },
      "url": "https://www.semanticscholar.org/paper/09f0a7f6127d0b5161919b631b1a66e6ba17a9f5",
      "title": "Sparse Dictionary Learning for Image Recovery by Iterative Shrinkage",
      "venue": "arXiv.org",
      "year": 2025,
      "referenceCount": 32,
      "citationCount": 1,
      "authors": [
        {
          "authorId": "104258817",
          "name": "Shima Shabani"
        },
        {
          "authorId": "2350348164",
          "name": "Mohammadsadegh Khoshghiaferezaee"
        },
        {
          "authorId": "2350347041",
          "name": "Michael Breuß"
        }
      ]
    }
  ]
}