{
  "total": 36022,
  "offset": 0,
  "next": 10,
  "data": [
    {
      "paperId": "d796681dcd12a27a23097d53e79a89dc2c3fee74",
      "externalIds": {
        "DBLP": "conf/nips/RamponiMCR21",
        "CorpusId": 245122286
      },
      "url": "https://www.semanticscholar.org/paper/d796681dcd12a27a23097d53e79a89dc2c3fee74",
      "title": "Learning in Non-Cooperative Configurable Markov Decision Processes",
      "venue": "Neural Information Processing Systems",
      "year": 2021,
      "referenceCount": 57,
      "citationCount": 11,
      "authors": [
        {
          "authorId": "144763838",
          "name": "G. Ramponi"
        },
        {
          "authorId": "2141401054",
          "name": "A. Metelli"
        },
        {
          "authorId": "2078456445",
          "name": "A. Concetti"
        },
        {
          "authorId": "1792167",
          "name": "Marcello Restelli"
        }
      ]
    },
    {
      "paperId": "ab1206116d97d4be02dea07b636c5b5d6e66eda0",
      "externalIds": {
        "ArXiv": "1806.05415",
        "MAG": "2952215230",
        "DBLP": "conf/icml/MetelliMR18",
        "CorpusId": 49210038
      },
      "url": "https://www.semanticscholar.org/paper/ab1206116d97d4be02dea07b636c5b5d6e66eda0",
      "title": "Configurable Markov Decision Processes",
      "venue": "International Conference on Machine Learning",
      "year": 2018,
      "referenceCount": 35,
      "citationCount": 37,
      "authors": [
        {
          "authorId": "24717227",
          "name": "Alberto Maria Metelli"
        },
        {
          "authorId": "51004138",
          "name": "Mirco Mutti"
        },
        {
          "authorId": "1792167",
          "name": "Marcello Restelli"
        }
      ]
    },
    {
      "paperId": "e0f81bf33a34a52a9edb07a7f74a2edb6b25fb1c",
      "externalIds": {
        "ArXiv": "2402.13821",
        "DBLP": "journals/corr/abs-2402-13821",
        "DOI": "10.48550/arXiv.2402.13821",
        "CorpusId": 267770678
      },
      "url": "https://www.semanticscholar.org/paper/e0f81bf33a34a52a9edb07a7f74a2edb6b25fb1c",
      "title": "Performance Improvement Bounds for Lipschitz Configurable Markov Decision Processes",
      "venue": "arXiv.org",
      "year": 2024,
      "referenceCount": 17,
      "citationCount": 0,
      "authors": [
        {
          "authorId": "24717227",
          "name": "Alberto Maria Metelli"
        }
      ]
    },
    {
      "paperId": "969b2b81c140cc66a98cfad4d22e04c4e947c8ea",
      "externalIds": {
        "DBLP": "journals/ia/Metelli22",
        "DOI": "10.3233/IA-220140",
        "CorpusId": 255213070
      },
      "url": "https://www.semanticscholar.org/paper/969b2b81c140cc66a98cfad4d22e04c4e947c8ea",
      "title": "A unified view of configurable Markov Decision Processes: Solution concepts, value functions, and operators",
      "venue": "Intelligenza Artificiale",
      "year": 2022,
      "referenceCount": 47,
      "citationCount": 0,
      "authors": [
        {
          "authorId": "2141401054",
          "name": "A. Metelli"
        }
      ]
    },
    {
      "paperId": "2df047d06a1bfd77ff1d9880ee81aa4f0947f6ec",
      "externalIds": {
        "CorpusId": 199455051
      },
      "url": "https://www.semanticscholar.org/paper/2df047d06a1bfd77ff1d9880ee81aa4f0947f6ec",
      "title": "State of the Art on : Configurable Markov Decision Processes",
      "venue": "",
      "year": 2019,
      "referenceCount": 15,
      "citationCount": 0,
      "authors": [
        {
          "authorId": "1388734517",
          "name": "G. Manneschi"
        }
      ]
    },
    {
      "paperId": "477606bb1febf8b42fa0b651c367d572b3686f3c",
      "externalIds": {
        "CorpusId": 252925008
      },
      "url": "https://www.semanticscholar.org/paper/477606bb1febf8b42fa0b651c367d572b3686f3c",
      "title": "Online Learning in Non-Cooperative Conﬁgurable Markov Decision Process",
      "venue": "",
      "year": 2021,
      "referenceCount": 41,
      "citationCount": 4,
      "authors": [
        {
          "authorId": "144763838",
          "name": "G. Ramponi"
        },
        {
          "authorId": "2141401054",
          "name": "A. Metelli"
        },
        {
          "authorId": "2078456445",
          "name": "A. Concetti"
        },
        {
          "authorId": "1792167",
          "name": "Marcello Restelli"
        }
      ]
    },
    {
      "paperId": "6eb32e5655b383cb59327191c58ee60a07cbc333",
      "externalIds": {
        "MAG": "2910384659",
        "DBLP": "journals/corr/abs-1901-03571",
        "ArXiv": "1901.03571",
        "DOI": "10.23638/LMCS-16(4:13)2020",
        "CorpusId": 57825770
      },
      "url": "https://www.semanticscholar.org/paper/6eb32e5655b383cb59327191c58ee60a07cbc333",
      "title": "Life is Random, Time is Not: Markov Decision Processes with Window Objectives",
      "venue": "International Conference on Concurrency Theory",
      "year": 2019,
      "referenceCount": 49,
      "citationCount": 13,
      "authors": [
        {
          "authorId": "1685173",
          "name": "Thomas Brihaye"
        },
        {
          "authorId": "2333659701",
          "name": "Florent Delgrange"
        },
        {
          "authorId": "2770100",
          "name": "Y. Oualhadj"
        },
        {
          "authorId": "1832722",
          "name": "Mickael Randour"
        }
      ]
    },
    {
      "paperId": "017a857269a3db87cc95481e5e66ef46c7ee4d71",
      "externalIds": {
        "DBLP": "conf/itsc/WangKA21",
        "DOI": "10.1109/itsc48978.2021.9564898",
        "CorpusId": 236773777
      },
      "url": "https://www.semanticscholar.org/paper/017a857269a3db87cc95481e5e66ef46c7ee4d71",
      "title": "CommonRoad-RL: A Configurable Reinforcement Learning Environment for Motion Planning of Autonomous Vehicles",
      "venue": "International Conference on Intelligent Transportation Systems",
      "year": 2021,
      "referenceCount": 31,
      "citationCount": 40,
      "authors": [
        {
          "authorId": "2118448448",
          "name": "Xiao Wang"
        },
        {
          "authorId": "2042798834",
          "name": "Hanna Krasowski"
        },
        {
          "authorId": "3280431",
          "name": "M. Althoff"
        }
      ]
    },
    {
      "paperId": "c1b44d86846a8c47d649903842abf9a1c90819e3",
      "externalIds": {
        "DOI": "10.1007/978-3-030-85918-3_9",
        "CorpusId": 245647096
      },
      "url": "https://www.semanticscholar.org/paper/c1b44d86846a8c47d649903842abf9a1c90819e3",
      "title": "Configurable Environments in Reinforcement Learning: An Overview",
      "venue": "Special Topics in Information Technology",
      "year": 2022,
      "referenceCount": 39,
      "citationCount": 3,
      "authors": [
        {
          "authorId": "24717227",
          "name": "Alberto Maria Metelli"
        }
      ]
    },
    {
      "paperId": "68375145b33a314f270164d6f9c2090b03eae8f6",
      "externalIds": {
        "MAG": "2946467679",
        "DBLP": "conf/icml/MetelliGR19",
        "CorpusId": 174800885
      },
      "url": "https://www.semanticscholar.org/paper/68375145b33a314f270164d6f9c2090b03eae8f6",
      "title": "Reinforcement Learning in Configurable Continuous Environments",
      "venue": "International Conference on Machine Learning",
      "year": 2019,
      "referenceCount": 33,
      "citationCount": 13,
      "authors": [
        {
          "authorId": "24717227",
          "name": "Alberto Maria Metelli"
        },
        {
          "authorId": "133892518",
          "name": "Emanuele Ghelfi"
        },
        {
          "authorId": "1792167",
          "name": "Marcello Restelli"
        }
      ]
    }
  ]
}