{
  "total": 14,
  "offset": 0,
  "next": 10,
  "data": [
    {
      "paperId": "bd950c39fbe0a2583a173ef05badd6674bf3369c",
      "externalIds": {
        "MAG": "1847142364",
        "DBLP": "conf/icml/BahadoriKFL15",
        "CorpusId": 6580083
      },
      "url": "https://www.semanticscholar.org/paper/bd950c39fbe0a2583a173ef05badd6674bf3369c",
      "title": "Functional Subspace Clustering with Application to Time Series",
      "venue": "International Conference on Machine Learning",
      "year": 2015,
      "referenceCount": 46,
      "citationCount": 38,
      "authors": [
        {
          "authorId": "2342604",
          "name": "M. T. Bahadori"
        },
        {
          "authorId": "2107807",
          "name": "David C. Kale"
        },
        {
          "authorId": "40348704",
          "name": "Yingying Fan"
        },
        {
          "authorId": "2157170466",
          "name": "Yan Liu"
        }
      ]
    },
    {
      "paperId": "0a344e7904567a94255ba4b80cf999c73cd8dd85",
      "externalIds": {
        "MAG": "2578202961",
        "CorpusId": 88503646
      },
      "url": "https://www.semanticscholar.org/paper/0a344e7904567a94255ba4b80cf999c73cd8dd85",
      "title": "The Discriminative Functional Mixture Model for the Analysis of Bike Sharing Systems",
      "venue": "",
      "year": 2014,
      "referenceCount": 37,
      "citationCount": 12,
      "authors": [
        {
          "authorId": "2901250",
          "name": "C. Bouveyron"
        },
        {
          "authorId": "3202810",
          "name": "É. Côme"
        },
        {
          "authorId": "33851054",
          "name": "J. Jacques"
        }
      ]
    },
    {
      "paperId": "a96ebcd12e5c05bedc87531003c14c470a8496fa",
      "externalIds": {
        "PubMedCentral": "4589114",
        "DBLP": "journals/jcb/WallaceSW15",
        "MAG": "1514764738",
        "DOI": "10.1089/cmb.2015.0084",
        "CorpusId": 9285361,
        "PubMed": "26162018"
      },
      "url": "https://www.semanticscholar.org/paper/a96ebcd12e5c05bedc87531003c14c470a8496fa",
      "title": "Application of Subspace Clustering in DNA Sequence Analysis",
      "venue": "J. Comput. Biol.",
      "year": 2015,
      "referenceCount": 33,
      "citationCount": 8,
      "authors": [
        {
          "authorId": "2069065990",
          "name": "T. Wallace"
        },
        {
          "authorId": "1696871",
          "name": "A. Sekmen"
        },
        {
          "authorId": "2108503771",
          "name": "Xiaofei Wang"
        }
      ]
    },
    {
      "paperId": "3fc17413a8dc6fa1f39c4d554ac2afc6056f1aa2",
      "externalIds": {
        "ArXiv": "1601.07999",
        "MAG": "1607071244",
        "DOI": "10.1214/15-AOAS861",
        "CorpusId": 7093594
      },
      "url": "https://www.semanticscholar.org/paper/3fc17413a8dc6fa1f39c4d554ac2afc6056f1aa2",
      "title": "The discriminative functional mixture model for a comparative analysis of bike sharing systems",
      "venue": "",
      "year": 2016,
      "referenceCount": 44,
      "citationCount": 133,
      "authors": [
        {
          "authorId": "2901250",
          "name": "C. Bouveyron"
        },
        {
          "authorId": "3202810",
          "name": "É. Côme"
        },
        {
          "authorId": "33851054",
          "name": "J. Jacques"
        }
      ]
    },
    {
      "paperId": "c6b91a232f10ce996a6c015cc7487287b4bac391",
      "externalIds": {
        "CorpusId": 271839927
      },
      "url": "https://www.semanticscholar.org/paper/c6b91a232f10ce996a6c015cc7487287b4bac391",
      "title": "THE DISCRIMINATIVE FUNCTIONAL MIXTURE MODEL FOR A COMPARATIVE ANALYSIS OF BIKE SHARING SYSTEMS",
      "venue": "",
      "year": 2016,
      "referenceCount": 44,
      "citationCount": 0,
      "authors": [
        {
          "authorId": "3202810",
          "name": "É. Côme"
        },
        {
          "authorId": "2286102198",
          "name": "Julien Jacques"
        }
      ]
    },
    {
      "paperId": "ad58f74c83919c91a3cd9669b3e241fc51a02a38",
      "externalIds": {
        "MAG": "1504082075",
        "PubMedCentral": "1804277",
        "DOI": "10.1186/1471-2164-8-49",
        "CorpusId": 887416,
        "PubMed": "17298664"
      },
      "url": "https://www.semanticscholar.org/paper/ad58f74c83919c91a3cd9669b3e241fc51a02a38",
      "title": "A parallel genetic algorithm for single class pattern classification and its application for gene expression profiling in Streptomyces coelicolor",
      "venue": "BMC Genomics",
      "year": 2007,
      "referenceCount": 33,
      "citationCount": 24,
      "authors": [
        {
          "authorId": "40371986",
          "name": "Cuong To"
        },
        {
          "authorId": "2031450",
          "name": "J. Vohradský"
        }
      ]
    },
    {
      "paperId": "2ae8aba4a1df8244cca9f47945c038d94b05b3c2",
      "externalIds": {
        "DBLP": "journals/tcas/Theis10",
        "MAG": "2101955124",
        "DOI": "10.1109/TCSI.2010.2052485",
        "CorpusId": 6083898
      },
      "url": "https://www.semanticscholar.org/paper/2ae8aba4a1df8244cca9f47945c038d94b05b3c2",
      "title": "Colored Subspace Analysis: Dimension Reduction Based on a Signal's Autocorrelation Structure",
      "venue": "IEEE Transactions on Circuits and Systems Part 1: Regular Papers",
      "year": 2010,
      "referenceCount": 43,
      "citationCount": 12,
      "authors": [
        {
          "authorId": "2958299",
          "name": "Fabian J Theis"
        }
      ]
    },
    {
      "paperId": "d2171f938965e42bfc0ccc4159e69434f071dad0",
      "externalIds": {
        "MAG": "2725750705",
        "CorpusId": 67232820
      },
      "url": "https://www.semanticscholar.org/paper/d2171f938965e42bfc0ccc4159e69434f071dad0",
      "title": "Le modèle DFM pour une analyse comparative des systèmes de vélos en libre service",
      "venue": "",
      "year": 2016,
      "referenceCount": 1,
      "citationCount": 0,
      "authors": [
        {
          "authorId": "2049748020",
          "name": "C. Bouveyron"
        },
        {
          "authorId": "2060505601",
          "name": "Etienne Côme"
        },
        {
          "authorId": "1987638",
          "name": "J. Jacques"
        }
      ]
    },
    {
      "paperId": "daebd699499da69a92a85813f1bc7801a23c27d9",
      "externalIds": {
        "MAG": "2475645889",
        "DBLP": "conf/pkdd/2006",
        "DOI": "10.1007/11871637",
        "CorpusId": 34004106
      },
      "url": "https://www.semanticscholar.org/paper/daebd699499da69a92a85813f1bc7801a23c27d9",
      "title": "Knowledge Discovery in Databases: PKDD 2006, 10th European Conference on Principles and Practice of Knowledge Discovery in Databases, Berlin, Germany, September 18-22, 2006, Proceedings",
      "venue": "European Conference on Principles of Data Mining and Knowledge Discovery",
      "year": 2006,
      "referenceCount": 0,
      "citationCount": 178,
      "authors": [
        {
          "authorId": "1747752",
          "name": "Johannes Fürnkranz"
        },
        {
          "authorId": "1751348",
          "name": "T. Scheffer"
        },
        {
          "authorId": "1685612",
          "name": "M. Spiliopoulou"
        }
      ]
    },
    {
      "paperId": "5ff5b8f32b4bfb64a13f2815fa4947f61315575c",
      "externalIds": {
        "DBLP": "journals/cmmm/FaesADK12",
        "MAG": "2048326728",
        "PubMedCentral": "3443973",
        "DOI": "10.1155/2012/492902",
        "CorpusId": 18011276,
        "PubMed": "22991577"
      },
      "url": "https://www.semanticscholar.org/paper/5ff5b8f32b4bfb64a13f2815fa4947f61315575c",
      "title": "Methodological Advances in Brain Connectivity",
      "venue": "Comput. Math. Methods Medicine",
      "year": 2012,
      "referenceCount": 0,
      "citationCount": 6,
      "authors": [
        {
          "authorId": "2249557",
          "name": "L. Faes"
        },
        {
          "authorId": "9867654",
          "name": "R. Andrzejak"
        },
        {
          "authorId": "3338101",
          "name": "M. Ding"
        },
        {
          "authorId": "2514696",
          "name": "D. Kugiumtzis"
        }
      ]
    }
  ]
}