{
  "total": 78164,
  "offset": 0,
  "next": 10,
  "data": [
    {
      "paperId": "f07d6814c33cd3384354a29d1d413b10540b10b3",
      "externalIds": {
        "MAG": "2953052534",
        "DBLP": "journals/corr/abs-1804-00779",
        "ArXiv": "1804.00779",
        "CorpusId": 4622742
      },
      "url": "https://www.semanticscholar.org/paper/f07d6814c33cd3384354a29d1d413b10540b10b3",
      "title": "Neural Autoregressive Flows",
      "venue": "International Conference on Machine Learning",
      "year": 2018,
      "referenceCount": 46,
      "citationCount": 487,
      "authors": [
        {
          "authorId": "2144639252",
          "name": "Chin-Wei Huang"
        },
        {
          "authorId": "145055042",
          "name": "David Krueger"
        },
        {
          "authorId": "8651990",
          "name": "Alexandre Lacoste"
        },
        {
          "authorId": "1760871",
          "name": "Aaron C. Courville"
        }
      ]
    },
    {
      "paperId": "3c8b8ea2798279a2a2a0e49e0450542464121b97",
      "externalIds": {
        "DBLP": "journals/corr/abs-2401-01855",
        "ArXiv": "2401.01855",
        "DOI": "10.48550/arXiv.2401.01855",
        "CorpusId": 266741811
      },
      "url": "https://www.semanticscholar.org/paper/3c8b8ea2798279a2a2a0e49e0450542464121b97",
      "title": "Transformer Neural Autoregressive Flows",
      "venue": "arXiv.org",
      "year": 2024,
      "referenceCount": 29,
      "citationCount": 7,
      "authors": [
        {
          "authorId": "3366919",
          "name": "Massimiliano Patacchiola"
        },
        {
          "authorId": "123830349",
          "name": "Aliaksandra Shysheya"
        },
        {
          "authorId": "2061495725",
          "name": "K. Hofmann"
        },
        {
          "authorId": "2263492291",
          "name": "Richard E. Turner"
        }
      ]
    },
    {
      "paperId": "2ef6fa15d7423002859a8f381f21889b2eb0fd18",
      "externalIds": {
        "DBLP": "conf/icdm/NguyenDHN25",
        "ArXiv": "2603.20791",
        "DOI": "10.1109/ICDM65498.2025.00071",
        "CorpusId": 286014407
      },
      "url": "https://www.semanticscholar.org/paper/2ef6fa15d7423002859a8f381f21889b2eb0fd18",
      "title": "Neural Autoregressive Flows for Markov Boundary Learning",
      "venue": "Industrial Conference on Data Mining",
      "year": 2025,
      "referenceCount": 45,
      "citationCount": 0,
      "authors": [
        {
          "authorId": "2391117159",
          "name": "K. Nguyen"
        },
        {
          "authorId": "2159149299",
          "name": "Bao Duong"
        },
        {
          "authorId": "143650225",
          "name": "Viet Huynh"
        },
        {
          "authorId": "2275273902",
          "name": "Thin Nguyen"
        }
      ]
    },
    {
      "paperId": "d0697fb970ba92e970bf39ebf25561a8fee61cd6",
      "externalIds": {
        "CorpusId": 245904835
      },
      "url": "https://www.semanticscholar.org/paper/d0697fb970ba92e970bf39ebf25561a8fee61cd6",
      "title": "Self-Supervised Anomaly Detection via Neural Autoregressive Flows with Active Learning",
      "venue": "",
      "year": 2021,
      "referenceCount": 59,
      "citationCount": 10,
      "authors": [
        {
          "authorId": "2144129676",
          "name": "Jiaxin Zhang"
        },
        {
          "authorId": "114640131",
          "name": "K. Saleeby"
        },
        {
          "authorId": "101950368",
          "name": "T. Feldhausen"
        },
        {
          "authorId": "151201428",
          "name": "Sirui Bi"
        },
        {
          "authorId": "46589603",
          "name": "A. Plotkowski"
        },
        {
          "authorId": "2285409980",
          "name": "David Womble"
        }
      ]
    },
    {
      "paperId": "a36d620230a6bf78f7e9a99676629528327a3b6a",
      "externalIds": {
        "MAG": "3048134165",
        "ArXiv": "2008.03636",
        "CorpusId": 221090232
      },
      "url": "https://www.semanticscholar.org/paper/a36d620230a6bf78f7e9a99676629528327a3b6a",
      "title": "Data-driven Estimation of Background Distribution through Neural Autoregressive Flows",
      "venue": "",
      "year": 2020,
      "referenceCount": 26,
      "citationCount": 20,
      "authors": [
        {
          "authorId": "96747554",
          "name": "Suyong Choi"
        },
        {
          "authorId": "30829512",
          "name": "Jaehoon Lim"
        },
        {
          "authorId": "2105615307",
          "name": "Hayoung Oh"
        }
      ]
    },
    {
      "paperId": "a4192cf620623d8b12ee03b258baee69652b15a4",
      "externalIds": {
        "DOI": "10.1080/00031305.2026.2654767",
        "CorpusId": 287242377
      },
      "url": "https://www.semanticscholar.org/paper/a4192cf620623d8b12ee03b258baee69652b15a4",
      "title": "Neural Autoregressive Flows based Variational Bayes Model Averaging",
      "venue": "American Statistician",
      "year": 2026,
      "referenceCount": 14,
      "citationCount": 0,
      "authors": [
        {
          "authorId": "2205254333",
          "name": "Jiefu Zhou"
        },
        {
          "authorId": "2950168",
          "name": "Shrijita Bhattacharya"
        }
      ]
    },
    {
      "paperId": "af73d10a65f092f6530ad70e34a13ca0ccef03fa",
      "externalIds": {
        "MAG": "2963822196",
        "DBLP": "journals/corr/abs-1805-07226",
        "ArXiv": "1805.07226",
        "CorpusId": 29166658
      },
      "url": "https://www.semanticscholar.org/paper/af73d10a65f092f6530ad70e34a13ca0ccef03fa",
      "title": "Sequential Neural Likelihood: Fast Likelihood-free Inference with Autoregressive Flows",
      "venue": "International Conference on Artificial Intelligence and Statistics",
      "year": 2018,
      "referenceCount": 93,
      "citationCount": 450,
      "authors": [
        {
          "authorId": "3065681",
          "name": "G. Papamakarios"
        },
        {
          "authorId": "3001384",
          "name": "D. Sterratt"
        },
        {
          "authorId": "145797336",
          "name": "Iain Murray"
        }
      ]
    },
    {
      "paperId": "ed56c3931cc4c427703e6a313f6de05f741823bb",
      "externalIds": {
        "DBLP": "journals/entropy/WeiX25",
        "PubMedCentral": "12468320",
        "DOI": "10.3390/e27090952",
        "CorpusId": 281358849,
        "PubMed": "41008078"
      },
      "url": "https://www.semanticscholar.org/paper/ed56c3931cc4c427703e6a313f6de05f741823bb",
      "title": "A Quasi-Monte Carlo Method Based on Neural Autoregressive Flow",
      "venue": "Entropy",
      "year": 2025,
      "referenceCount": 38,
      "citationCount": 0,
      "authors": [
        {
          "authorId": "2381109484",
          "name": "Yunfan Wei"
        },
        {
          "authorId": "2406592060",
          "name": "Wei Xi"
        }
      ]
    },
    {
      "paperId": "a0ab362dede5c351567efc5f7d2c1357ddb1d73e",
      "externalIds": {
        "PubMedCentral": "11228464",
        "ArXiv": "2308.14085",
        "DBLP": "journals/corr/abs-2308-14085",
        "DOI": "10.1073/pnas.2311810121",
        "CorpusId": 261242608,
        "PubMed": "38913892"
      },
      "url": "https://www.semanticscholar.org/paper/a0ab362dede5c351567efc5f7d2c1357ddb1d73e",
      "title": "Sampling with flows, diffusion, and autoregressive neural networks from a spin-glass perspective",
      "venue": "Proceedings of the National Academy of Sciences of the United States of America",
      "year": 2023,
      "referenceCount": 127,
      "citationCount": 42,
      "authors": [
        {
          "authorId": "3446050",
          "name": "Davide Ghio"
        },
        {
          "authorId": "1469066868",
          "name": "Yatin Dandi"
        },
        {
          "authorId": "2909402",
          "name": "Florent Krzakala"
        },
        {
          "authorId": "2203928003",
          "name": "L. Zdeborov'a"
        }
      ]
    },
    {
      "paperId": "97b36960fe2cf294a1d3d4f5edd5a68c76115d1d",
      "externalIds": {
        "DOI": "10.1007/s10661-021-09135-6",
        "CorpusId": 235077277,
        "PubMed": "34021408"
      },
      "url": "https://www.semanticscholar.org/paper/97b36960fe2cf294a1d3d4f5edd5a68c76115d1d",
      "title": "Prediction of spring flows using nonlinear autoregressive exogenous (NARX) neural network models",
      "venue": "Environmental Monitoring & Assessment",
      "year": 2021,
      "referenceCount": 57,
      "citationCount": 47,
      "authors": [
        {
          "authorId": "2068189111",
          "name": "F. Di Nunno"
        },
        {
          "authorId": "35414267",
          "name": "F. Granata"
        },
        {
          "authorId": "41128473",
          "name": "R. Gargano"
        },
        {
          "authorId": "1432801964",
          "name": "G. de Marinis"
        }
      ]
    }
  ]
}