{
  "total": 78,
  "offset": 0,
  "next": 10,
  "data": [
    {
      "paperId": "1d1c92017d595ca0af15205b2016c542fb3fa182",
      "externalIds": {
        "DBLP": "conf/icml/CotterFYGB18",
        "MAG": "2803146086",
        "CorpusId": 51879449
      },
      "url": "https://www.semanticscholar.org/paper/1d1c92017d595ca0af15205b2016c542fb3fa182",
      "title": "Constrained Interacting Submodular Groupings",
      "venue": "International Conference on Machine Learning",
      "year": 2018,
      "referenceCount": 33,
      "citationCount": 5,
      "authors": [
        {
          "authorId": "145658292",
          "name": "Andrew Cotter"
        },
        {
          "authorId": "2852410",
          "name": "M. M. Fard"
        },
        {
          "authorId": "2303316",
          "name": "Seungil You"
        },
        {
          "authorId": "2109834931",
          "name": "Maya R. Gupta"
        },
        {
          "authorId": "1748118",
          "name": "J. Bilmes"
        }
      ]
    },
    {
      "paperId": "2a725f6366285189c49d155c607217de4e133ff4",
      "externalIds": {
        "MAG": "2751737521",
        "DOI": "10.1002/eap.1630",
        "CorpusId": 19403459,
        "PubMed": "28940452"
      },
      "url": "https://www.semanticscholar.org/paper/2a725f6366285189c49d155c607217de4e133ff4",
      "title": "Template for using biological trait groupings when exploring large-scale variation in seafloor multifunctionality.",
      "venue": "Ecological Applications",
      "year": 2018,
      "referenceCount": 79,
      "citationCount": 37,
      "authors": [
        {
          "authorId": "5809530",
          "name": "Anna Villnäs"
        },
        {
          "authorId": "50688318",
          "name": "J. Hewitt"
        },
        {
          "authorId": "4508761",
          "name": "M. Snickars"
        },
        {
          "authorId": "15852080",
          "name": "M. Westerbom"
        },
        {
          "authorId": "4030150",
          "name": "A. Norkko"
        }
      ]
    },
    {
      "paperId": "4c4254c30e9ddb6dbaea57ad285529101bb55ccc",
      "externalIds": {
        "DBLP": "journals/apjor/DuYG23",
        "DOI": "10.1142/s0217595922400061",
        "CorpusId": 245458020
      },
      "url": "https://www.semanticscholar.org/paper/4c4254c30e9ddb6dbaea57ad285529101bb55ccc",
      "title": "Nonsubmodular Constrained Profit Maximization in Attribute Networks",
      "venue": "Asia Pac. J. Oper. Res.",
      "year": 2021,
      "referenceCount": 0,
      "citationCount": 0,
      "authors": [
        {
          "authorId": "2045279935",
          "name": "Liman Du"
        },
        {
          "authorId": "1765501",
          "name": "Wenguo Yang"
        },
        {
          "authorId": "1788458",
          "name": "Suixiang Gao"
        }
      ]
    },
    {
      "paperId": "d6e5b3ec60ea61b6c12578327c5742735b15f247",
      "externalIds": {
        "DOI": "10.1007/s10592-025-01723-0",
        "CorpusId": 281381301
      },
      "url": "https://www.semanticscholar.org/paper/d6e5b3ec60ea61b6c12578327c5742735b15f247",
      "title": "Beyond dispersal limitation: drivers of fine-scale population structure in two common solitary wild bees",
      "venue": "Conservation Genetics",
      "year": 2025,
      "referenceCount": 95,
      "citationCount": 0,
      "authors": [
        {
          "authorId": "2223114280",
          "name": "Maxi Tomowski"
        },
        {
          "authorId": "2128799715",
          "name": "Tiemo von Steimker"
        },
        {
          "authorId": "2380908982",
          "name": "Valentine Mewis"
        },
        {
          "authorId": "31853504",
          "name": "Anja Ernst"
        },
        {
          "authorId": "1422475761",
          "name": "Sissi Lozada-Gobilard"
        },
        {
          "authorId": "144787854",
          "name": "J. Joshi"
        },
        {
          "authorId": "2308459516",
          "name": "F. Jeltsch"
        },
        {
          "authorId": "2380909062",
          "name": "Ralph Tiedemann"
        }
      ]
    },
    {
      "paperId": "78ed300642366f20b73e99bcb6b9797e66e43441",
      "externalIds": {
        "DBLP": "journals/corr/abs-2602-21130",
        "ArXiv": "2602.21130",
        "DOI": "10.48550/arXiv.2602.21130",
        "CorpusId": 286000521
      },
      "url": "https://www.semanticscholar.org/paper/78ed300642366f20b73e99bcb6b9797e66e43441",
      "title": "An Enhanced Projection Pursuit Tree Classifier with Visual Methods for Assessing Algorithmic Improvements",
      "venue": "arXiv.org",
      "year": 2026,
      "referenceCount": 13,
      "citationCount": 0,
      "authors": [
        {
          "authorId": "2072269771",
          "name": "N. Silva"
        },
        {
          "authorId": "2329152132",
          "name": "Dianne Cook"
        },
        {
          "authorId": "47266200",
          "name": "Eun-Kyung Lee"
        }
      ]
    },
    {
      "paperId": "56dd3b4eb6aab2824919295a1a31451b5bccac71",
      "externalIds": {
        "DOI": "10.3390/mca27020023",
        "CorpusId": 247282408
      },
      "url": "https://www.semanticscholar.org/paper/56dd3b4eb6aab2824919295a1a31451b5bccac71",
      "title": "Variable Decomposition for Large-Scale Constrained Optimization Problems Using a Grouping Genetic Algorithm",
      "venue": "Mathematical and Computational Applications",
      "year": 2022,
      "referenceCount": 42,
      "citationCount": 6,
      "authors": [
        {
          "authorId": "1414589092",
          "name": "Guadalupe Carmona-Arroyo"
        },
        {
          "authorId": "1403190792",
          "name": "Marcela Quiroz-Castellanos"
        },
        {
          "authorId": "1393623476",
          "name": "E. Mezura-Montes"
        }
      ]
    },
    {
      "paperId": "472daa6b7b31741377b394f643fde3361c13c0af",
      "externalIds": {
        "DBLP": "journals/corr/abs-2412-13690",
        "ArXiv": "2412.13690",
        "DOI": "10.1609/aaai.v39i16.33845",
        "CorpusId": 274822668
      },
      "url": "https://www.semanticscholar.org/paper/472daa6b7b31741377b394f643fde3361c13c0af",
      "title": "Personalized Clustering via Targeted Representation Learning",
      "venue": "AAAI Conference on Artificial Intelligence",
      "year": 2024,
      "referenceCount": 41,
      "citationCount": 6,
      "authors": [
        {
          "authorId": "2357574004",
          "name": "Xiwen Geng"
        },
        {
          "authorId": "2282913526",
          "name": "Suyun Zhao"
        },
        {
          "authorId": "2203752501",
          "name": "Yixin Yu"
        },
        {
          "authorId": "2306998257",
          "name": "Bo Peng"
        },
        {
          "authorId": "2335869561",
          "name": "Pan Du"
        },
        {
          "authorId": "2273086226",
          "name": "Hong Chen"
        },
        {
          "authorId": "1625473962",
          "name": "Cuiping Li"
        },
        {
          "authorId": "2336732106",
          "name": "Mengdie Wang"
        }
      ]
    },
    {
      "paperId": "3eb7100aef5606defb0d0edd52181bbde111187b",
      "externalIds": {
        "DBLP": "journals/corr/abs-2507-21199",
        "ArXiv": "2507.21199",
        "DOI": "10.1109/JSAC.2025.3623191",
        "CorpusId": 280338133
      },
      "url": "https://www.semanticscholar.org/paper/3eb7100aef5606defb0d0edd52181bbde111187b",
      "title": "Advancing Compositional LLM Reasoning With Structured Task Relations in Interactive Multimodal Communications",
      "venue": "IEEE Journal on Selected Areas in Communications",
      "year": 2025,
      "referenceCount": 63,
      "citationCount": 1,
      "authors": [
        {
          "authorId": "2355281522",
          "name": "Xinye Cao"
        },
        {
          "authorId": "2355274982",
          "name": "Hongcan Guo"
        },
        {
          "authorId": "2131053516",
          "name": "Gu Nan"
        },
        {
          "authorId": "2308428343",
          "name": "Jiaoyang Cui"
        },
        {
          "authorId": "2336096684",
          "name": "Haoting Qian"
        },
        {
          "authorId": "2355402491",
          "name": "Yihan Lin"
        },
        {
          "authorId": "2339143390",
          "name": "Yilin Peng"
        },
        {
          "authorId": "2364624131",
          "name": "Diyang Zhang"
        },
        {
          "authorId": "2238400529",
          "name": "Yanzhao Hou"
        },
        {
          "authorId": "3105468",
          "name": "Huici Wu"
        },
        {
          "authorId": "2334656054",
          "name": "Xiaofeng Tao"
        },
        {
          "authorId": "2359255521",
          "name": "Tony Q. S. Quek"
        }
      ]
    },
    {
      "paperId": "767d683b337b94ad74d7099f158b65c7e249cae9",
      "externalIds": {
        "DBLP": "journals/corr/abs-2601-11583",
        "ArXiv": "2601.11583",
        "DOI": "10.48550/arXiv.2601.11583",
        "CorpusId": 284911553
      },
      "url": "https://www.semanticscholar.org/paper/767d683b337b94ad74d7099f158b65c7e249cae9",
      "title": "Bit-politeia: An AI Agent Community in Blockchain",
      "venue": "arXiv.org",
      "year": 2026,
      "referenceCount": 0,
      "citationCount": 0,
      "authors": [
        {
          "authorId": "2423980934",
          "name": "Xingye Yang"
        }
      ]
    },
    {
      "paperId": "8b33fefdb71491b69fd886a4e97ba86042667530",
      "externalIds": {
        "DOI": "10.1109/TGRS.2026.3661973",
        "CorpusId": 285420446
      },
      "url": "https://www.semanticscholar.org/paper/8b33fefdb71491b69fd886a4e97ba86042667530",
      "title": "GPR 3-D Data Volume Inversion Method Based on Interactive Tracking and 2-D Multiview Inversion Network",
      "venue": "IEEE Transactions on Geoscience and Remote Sensing",
      "year": 2026,
      "referenceCount": 58,
      "citationCount": 0,
      "authors": [
        {
          "authorId": "2160115196",
          "name": "Qiguo Xu"
        },
        {
          "authorId": "2239019020",
          "name": "Tao Zhang"
        },
        {
          "authorId": "2326804245",
          "name": "Hang Gao"
        },
        {
          "authorId": "2199197828",
          "name": "Wentai Lei"
        }
      ]
    }
  ]
}