{
  "total": 1914,
  "offset": 0,
  "next": 10,
  "data": [
    {
      "paperId": "55837737b08af4c51066f019848c1ab2263f993b",
      "externalIds": {
        "MAG": "2949241659",
        "DBLP": "conf/icml/GroverAGBE18",
        "ArXiv": "1806.06464",
        "CorpusId": 49293891
      },
      "url": "https://www.semanticscholar.org/paper/55837737b08af4c51066f019848c1ab2263f993b",
      "title": "Learning Policy Representations in Multiagent Systems",
      "venue": "International Conference on Machine Learning",
      "year": 2018,
      "referenceCount": 30,
      "citationCount": 134,
      "authors": [
        {
          "authorId": "1954250",
          "name": "Aditya Grover"
        },
        {
          "authorId": "1401178735",
          "name": "Maruan Al-Shedivat"
        },
        {
          "authorId": "38303675",
          "name": "Jayesh K. Gupta"
        },
        {
          "authorId": "3080409",
          "name": "Yuri Burda"
        },
        {
          "authorId": "144632352",
          "name": "Harrison Edwards"
        }
      ]
    },
    {
      "paperId": "128172c6014d4962c75812b047d6d780338c9964",
      "externalIds": {
        "DBLP": "journals/tsmc/LiYWHYG24",
        "DOI": "10.1109/TSMC.2024.3429467",
        "CorpusId": 271591423
      },
      "url": "https://www.semanticscholar.org/paper/128172c6014d4962c75812b047d6d780338c9964",
      "title": "Distributed Pursuit-Evasion Game of Limited Perception USV Swarm Based on Multiagent Proximal Policy Optimization",
      "venue": "IEEE Transactions on Systems, Man, and Cybernetics: Systems",
      "year": 2024,
      "referenceCount": 31,
      "citationCount": 33,
      "authors": [
        {
          "authorId": "1853479",
          "name": "Fanbiao Li"
        },
        {
          "authorId": "2233339964",
          "name": "Mengmeng Yin"
        },
        {
          "authorId": "2142956682",
          "name": "Teng Wang"
        },
        {
          "authorId": "2152129231",
          "name": "Tingwen Huang"
        },
        {
          "authorId": "2249764485",
          "name": "Chunhua Yang"
        },
        {
          "authorId": "2289227147",
          "name": "Weihua Gui"
        }
      ]
    },
    {
      "paperId": "de42f3d039208400be09cde124dbfcaaff6ede9e",
      "externalIds": {
        "DBLP": "journals/ijis/DuanWWWW25",
        "DOI": "10.1155/int/4810561",
        "CorpusId": 278748312
      },
      "url": "https://www.semanticscholar.org/paper/de42f3d039208400be09cde124dbfcaaff6ede9e",
      "title": "Graph Learning of Semantic Relations (GLSR) for Cooperative Multiagent Reinforcement Learning",
      "venue": "International Journal of Intelligent Systems",
      "year": 2025,
      "referenceCount": 55,
      "citationCount": 0,
      "authors": [
        {
          "authorId": "11445989",
          "name": "Pengting Duan"
        },
        {
          "authorId": "2350336323",
          "name": "Chao Wen"
        },
        {
          "authorId": "30820543",
          "name": "Baoping Wang"
        },
        {
          "authorId": "2362506290",
          "name": "Zhenni Wang"
        },
        {
          "authorId": "52541464",
          "name": "Zhifang Wei"
        }
      ]
    },
    {
      "paperId": "189ff47c7185da7b6c55464317c4aa64221a3f43",
      "externalIds": {
        "DBLP": "journals/tii/LiHCHCB25",
        "DOI": "10.1109/TII.2024.3452192",
        "CorpusId": 273447573
      },
      "url": "https://www.semanticscholar.org/paper/189ff47c7185da7b6c55464317c4aa64221a3f43",
      "title": "Coordinated Operation of Multiple Microgrids With Heat–Electricity Energy Based on Graph Surrogate Model-Enabled Robust Multiagent Deep Reinforcement Learning",
      "venue": "IEEE Transactions on Industrial Informatics",
      "year": 2025,
      "referenceCount": 26,
      "citationCount": 6,
      "authors": [
        {
          "authorId": "2118156251",
          "name": "Sicheng Li"
        },
        {
          "authorId": "2218328",
          "name": "Weihao Hu"
        },
        {
          "authorId": "2278094513",
          "name": "Di Cao"
        },
        {
          "authorId": "2266758779",
          "name": "Jiaxiang Hu"
        },
        {
          "authorId": "2275189006",
          "name": "Zhe Chen"
        },
        {
          "authorId": "2156186261",
          "name": "F. Blaabjerg"
        }
      ]
    },
    {
      "paperId": "d9cc003f8a49539e05c637b1401e79650241e937",
      "externalIds": {
        "DBLP": "journals/ijis/ShenYZR25",
        "DOI": "10.1155/int/8496354",
        "CorpusId": 282711023
      },
      "url": "https://www.semanticscholar.org/paper/d9cc003f8a49539e05c637b1401e79650241e937",
      "title": "Towards Smarter and Safer Traffic Signal Control via Multiagent Deep Reinforcement Learning",
      "venue": "International Journal of Intelligent Systems",
      "year": 2025,
      "referenceCount": 34,
      "citationCount": 0,
      "authors": [
        {
          "authorId": "2224569559",
          "name": "Jiajing Shen"
        },
        {
          "authorId": "1998938897",
          "name": "Bingquan Yu"
        },
        {
          "authorId": "2337220057",
          "name": "Qinpei Zhao"
        },
        {
          "authorId": "2290187465",
          "name": "Weixiong Rao"
        }
      ]
    },
    {
      "paperId": "85bc567a72e0ba7713f65402dc04dba25a06079b",
      "externalIds": {
        "DBLP": "journals/tciaig/PuWLY23",
        "DOI": "10.1109/TG.2022.3186386",
        "CorpusId": 261899997
      },
      "url": "https://www.semanticscholar.org/paper/85bc567a72e0ba7713f65402dc04dba25a06079b",
      "title": "Cognition-Driven Multiagent Policy Learning Framework for Promoting Cooperation",
      "venue": "IEEE Transactions on Games",
      "year": 2023,
      "referenceCount": 44,
      "citationCount": 7,
      "authors": [
        {
          "authorId": "2242771",
          "name": "Z. Pu"
        },
        {
          "authorId": "1500662504",
          "name": "Huimu Wang"
        },
        {
          "authorId": "40107085",
          "name": "Bo Liu"
        },
        {
          "authorId": "2114335013",
          "name": "Jianqiang Yi"
        }
      ]
    },
    {
      "paperId": "26edd9dbf5a90af9a0172e107fd9333845a12cbe",
      "externalIds": {
        "ArXiv": "2302.09605",
        "DBLP": "journals/tnn/GuanCYZY25",
        "DOI": "10.1109/TNNLS.2024.3420791",
        "CorpusId": 257038891,
        "PubMed": "39283788"
      },
      "url": "https://www.semanticscholar.org/paper/26edd9dbf5a90af9a0172e107fd9333845a12cbe",
      "title": "Efficient Communication via Self-Supervised Information Aggregation for Online and Offline Multiagent Reinforcement Learning",
      "venue": "IEEE Transactions on Neural Networks and Learning Systems",
      "year": 2023,
      "referenceCount": 92,
      "citationCount": 9,
      "authors": [
        {
          "authorId": "2174870366",
          "name": "Cong Guan"
        },
        {
          "authorId": "2650184",
          "name": "F. Chen"
        },
        {
          "authorId": "49785134",
          "name": "Lei Yuan"
        },
        {
          "authorId": "2079174",
          "name": "Zongzhang Zhang"
        },
        {
          "authorId": "2152850415",
          "name": "Yang Yu"
        }
      ]
    },
    {
      "paperId": "cb6007ad913abacbd1b2f4663ec249e97b22f93a",
      "externalIds": {
        "DBLP": "journals/algorithms/WangLYP21",
        "DOI": "10.3390/a14030098",
        "CorpusId": 233261151
      },
      "url": "https://www.semanticscholar.org/paper/cb6007ad913abacbd1b2f4663ec249e97b22f93a",
      "title": "Multiagent Hierarchical Cognition Difference Policy for Multiagent Cooperation",
      "venue": "Algorithms",
      "year": 2021,
      "referenceCount": 32,
      "citationCount": 0,
      "authors": [
        {
          "authorId": "2113219209",
          "name": "Huimu Wang"
        },
        {
          "authorId": "2109341976",
          "name": "Zhen Liu"
        },
        {
          "authorId": "1723294",
          "name": "J. Yi"
        },
        {
          "authorId": "2242771",
          "name": "Z. Pu"
        }
      ]
    },
    {
      "paperId": "0debec877210ece112da2ede80681605c77d1887",
      "externalIds": {
        "ArXiv": "2106.01901",
        "DBLP": "conf/iclr/SmithAW21",
        "CorpusId": 235313931
      },
      "url": "https://www.semanticscholar.org/paper/0debec877210ece112da2ede80681605c77d1887",
      "title": "Iterative Empirical Game Solving via Single Policy Best Response",
      "venue": "International Conference on Learning Representations",
      "year": 2021,
      "referenceCount": 21,
      "citationCount": 23,
      "authors": [
        {
          "authorId": "2110001904",
          "name": "Max O. Smith"
        },
        {
          "authorId": "2072366312",
          "name": "Thomas W. Anthony"
        },
        {
          "authorId": "1796536",
          "name": "Michael P. Wellman"
        }
      ]
    },
    {
      "paperId": "b60d6bcd60c875d9ccfcf0ac3b11308307b3506a",
      "externalIds": {
        "MAG": "1608906778",
        "CorpusId": 60839186
      },
      "url": "https://www.semanticscholar.org/paper/b60d6bcd60c875d9ccfcf0ac3b11308307b3506a",
      "title": "Multi-agent-based simulation III : 4th International Workshop, MABS 2003, Melbourne, Australia, July 14, 2003 : revised papers",
      "venue": "",
      "year": 2003,
      "referenceCount": 0,
      "citationCount": 3,
      "authors": [
        {
          "authorId": "1778928",
          "name": "David Hales"
        },
        {
          "authorId": "1703124",
          "name": "B. Edmonds"
        },
        {
          "authorId": "1697269",
          "name": "Emma Norling"
        },
        {
          "authorId": "3082867",
          "name": "J. Rouchier"
        }
      ]
    }
  ]
}