{
  "total": 223,
  "offset": 0,
  "next": 10,
  "data": [
    {
      "paperId": "97e5b98168c1cb784806b70ca70db8c9635d5dca",
      "externalIds": {
        "MAG": "2962708459",
        "DBLP": "conf/icml/BarmanBG18",
        "ArXiv": "1608.01275",
        "CorpusId": 51881133
      },
      "url": "https://www.semanticscholar.org/paper/97e5b98168c1cb784806b70ca70db8c9635d5dca",
      "title": "Testing Sparsity over Known and Unknown Bases",
      "venue": "International Conference on Machine Learning",
      "year": 2016,
      "referenceCount": 52,
      "citationCount": 5,
      "authors": [
        {
          "authorId": "2826254",
          "name": "Siddharth Barman"
        },
        {
          "authorId": "1751082",
          "name": "Arnab Bhattacharyya"
        },
        {
          "authorId": "33522856",
          "name": "Suprovat Ghoshal"
        }
      ]
    },
    {
      "paperId": "febfa6c05ebd0f841d92be631dced9b1e493f9ee",
      "externalIds": {
        "CorpusId": 265100319
      },
      "url": "https://www.semanticscholar.org/paper/febfa6c05ebd0f841d92be631dced9b1e493f9ee",
      "title": "Testing Sparsity over Known and Unknown Bases",
      "venue": "",
      "year": 2018,
      "referenceCount": 0,
      "citationCount": 0,
      "authors": []
    },
    {
      "paperId": "1c5a4669ea3ee155c78dc2dc027444db203d09d2",
      "externalIds": {
        "DBLP": "journals/tit/LiLM26",
        "ArXiv": "2503.03020",
        "DOI": "10.1109/TIT.2025.3646887",
        "CorpusId": 276782459
      },
      "url": "https://www.semanticscholar.org/paper/1c5a4669ea3ee155c78dc2dc027444db203d09d2",
      "title": "Adaptive Monotonicity Testing in Sublinear Time",
      "venue": "IEEE Transactions on Information Theory",
      "year": 2025,
      "referenceCount": 57,
      "citationCount": 0,
      "authors": [
        {
          "authorId": "2289901033",
          "name": "Housen Li"
        },
        {
          "authorId": "2292058618",
          "name": "Zhi Liu"
        },
        {
          "authorId": "2292259233",
          "name": "Axel Munk"
        }
      ]
    },
    {
      "paperId": "88e9c7e66434ed91eeff8e2e0cf54573c62e3e5f",
      "externalIds": {
        "ArXiv": "2602.20442",
        "DBLP": "journals/corr/abs-2602-20442",
        "DOI": "10.48550/arXiv.2602.20442",
        "CorpusId": 286000507
      },
      "url": "https://www.semanticscholar.org/paper/88e9c7e66434ed91eeff8e2e0cf54573c62e3e5f",
      "title": "Imputation of Unknown Missingness in Sparse Electronic Health Records",
      "venue": "arXiv.org",
      "year": 2026,
      "referenceCount": 54,
      "citationCount": 0,
      "authors": [
        {
          "authorId": "2319469771",
          "name": "Junying Han"
        },
        {
          "authorId": "49350812",
          "name": "Josue Nassar"
        },
        {
          "authorId": "2265310",
          "name": "S. Batra"
        },
        {
          "authorId": "2241558168",
          "name": "A. Córdova-Palomera"
        },
        {
          "authorId": "1835352",
          "name": "V. Nori"
        },
        {
          "authorId": "2408466108",
          "name": "Robert E. Tillman"
        }
      ]
    },
    {
      "paperId": "f5b003540ea1b8de08bc1c8388b6ae30cf7b5ec5",
      "externalIds": {
        "MAG": "2949506273",
        "ArXiv": "math/0505374",
        "DOI": "10.1214/009053606000000074",
        "CorpusId": 7581060
      },
      "url": "https://www.semanticscholar.org/paper/f5b003540ea1b8de08bc1c8388b6ae30cf7b5ec5",
      "title": "Adapting to unknown sparsity by controlling the false discovery rate",
      "venue": "",
      "year": 2005,
      "referenceCount": 64,
      "citationCount": 507,
      "authors": [
        {
          "authorId": "2025123",
          "name": "F. Abramovich"
        },
        {
          "authorId": "1808156",
          "name": "Y. Benjamini"
        },
        {
          "authorId": "1709392",
          "name": "D. Donoho"
        },
        {
          "authorId": "2364792",
          "name": "I. Johnstone"
        }
      ]
    },
    {
      "paperId": "fc4e4cb4bddefc2a41ef30fd523e403d73f13a27",
      "externalIds": {
        "DOI": "10.1177/10406387251410557",
        "CorpusId": 285174233,
        "PubMed": "41612678"
      },
      "url": "https://www.semanticscholar.org/paper/fc4e4cb4bddefc2a41ef30fd523e403d73f13a27",
      "title": "Interstitial pneumonia and lymphocytic bronchiolitis with interstitial emphysema of unknown cause in Western Canadian fetal and neonatal beef calves.",
      "venue": "Journal of Veterinary Diagnostic Investigation",
      "year": 2026,
      "referenceCount": 19,
      "citationCount": 1,
      "authors": [
        {
          "authorId": "2298585012",
          "name": "Dayna Goldsmith"
        },
        {
          "authorId": "2301184577",
          "name": "Katie Waine"
        },
        {
          "authorId": "2243866358",
          "name": "Carolyn Legge"
        },
        {
          "authorId": "2301185272",
          "name": "Erin Zachar"
        },
        {
          "authorId": "2379919935",
          "name": "Beverly Morrison"
        },
        {
          "authorId": "2363909458",
          "name": "Maria Bravo Araya"
        },
        {
          "authorId": "2407721338",
          "name": "Vanessa Boone"
        },
        {
          "authorId": "2301184766",
          "name": "Lindsay Rogers"
        },
        {
          "authorId": "2301191392",
          "name": "Jennifer L. Davies"
        }
      ]
    },
    {
      "paperId": "9359217f1fdc05fd9bb883ef1b2fd260f532921b",
      "externalIds": {
        "ArXiv": "2401.14582",
        "DOI": "10.1017/nie.2024.1",
        "CorpusId": 267301228
      },
      "url": "https://www.semanticscholar.org/paper/9359217f1fdc05fd9bb883ef1b2fd260f532921b",
      "title": "High-Dimensional Forecasting with Known Knowns and Known Unknowns",
      "venue": "Social Science Research Network",
      "year": 2024,
      "referenceCount": 24,
      "citationCount": 0,
      "authors": [
        {
          "authorId": "97898187",
          "name": "M. Pesaran"
        },
        {
          "authorId": "2240583699",
          "name": "Ron P. Smith"
        }
      ]
    },
    {
      "paperId": "620ff49453a82ebfc8eeaf772120b8ec416e7894",
      "externalIds": {
        "DOI": "10.1038/s41587-025-02965-6",
        "CorpusId": 284511430,
        "PubMed": "41491254"
      },
      "url": "https://www.semanticscholar.org/paper/620ff49453a82ebfc8eeaf772120b8ec416e7894",
      "title": "Mapping isoforms and regulatory mechanisms from spatial transcriptomics data with SPLISOSM.",
      "venue": "Nature Biotechnology",
      "year": 2026,
      "referenceCount": 71,
      "citationCount": 2,
      "authors": [
        {
          "authorId": "2187187544",
          "name": "Jiayu Su"
        },
        {
          "authorId": "2248757279",
          "name": "Yiming Qu"
        },
        {
          "authorId": "2360310215",
          "name": "Megan D. Schertzer"
        },
        {
          "authorId": "2360716977",
          "name": "Haochen Yang"
        },
        {
          "authorId": "2243411854",
          "name": "Jiahao Jiang"
        },
        {
          "authorId": "6545190",
          "name": "Tenzin W. Lhakhang"
        },
        {
          "authorId": "2195920421",
          "name": "Theodore M. Nelson"
        },
        {
          "authorId": "2242405419",
          "name": "Stella H. Park"
        },
        {
          "authorId": "2300373510",
          "name": "Qiliang Lai"
        },
        {
          "authorId": "2189286658",
          "name": "Xi Fu"
        },
        {
          "authorId": "2260731433",
          "name": "Seung-won Choi"
        },
        {
          "authorId": "2260653688",
          "name": "David A. Knowles"
        },
        {
          "authorId": "2189229724",
          "name": "Raúl Rabadán"
        }
      ]
    },
    {
      "paperId": "6f3ca4069372ae8b876ee815eed1d511e2acd191",
      "externalIds": {
        "PubMedCentral": "12988603",
        "DOI": "10.1186/s12882-026-04796-2",
        "CorpusId": 285769063,
        "PubMed": "41709175"
      },
      "url": "https://www.semanticscholar.org/paper/6f3ca4069372ae8b876ee815eed1d511e2acd191",
      "title": "Chronic kidney disease in Norwegian primary care: underdiagnosis and undertreatment — findings from the VISTAKID (Vestfold Investigation of Stage 3–5 Kidney Disease) study",
      "venue": "BMC Nephrology",
      "year": 2026,
      "referenceCount": 21,
      "citationCount": 0,
      "authors": [
        {
          "authorId": "2335024792",
          "name": "Sadollah Abedini"
        },
        {
          "authorId": "48919897",
          "name": "M. Lindberg"
        },
        {
          "authorId": "8676968",
          "name": "Thea Bjune"
        },
        {
          "authorId": "2185906436",
          "name": "T. Bøe"
        },
        {
          "authorId": "2250405033",
          "name": "Anders Hartmann"
        },
        {
          "authorId": "2352799504",
          "name": "T. Jenssen"
        }
      ]
    },
    {
      "paperId": "b29c330b4fc57c79e6ba5883aa70efbd293716e5",
      "externalIds": {
        "DBLP": "journals/sigpro/ZayyaniKM18",
        "MAG": "2781578353",
        "DOI": "10.1016/j.sigpro.2018.01.002",
        "CorpusId": 46870692
      },
      "url": "https://www.semanticscholar.org/paper/b29c330b4fc57c79e6ba5883aa70efbd293716e5",
      "title": "Bayesian hypothesis testing detector for one bit diffusion LMS with blind missing samples",
      "venue": "Signal Processing",
      "year": 2018,
      "referenceCount": 29,
      "citationCount": 9,
      "authors": [
        {
          "authorId": "1680792",
          "name": "Hadi Zayyani"
        },
        {
          "authorId": "2618214",
          "name": "Mehdi Korki"
        },
        {
          "authorId": "1745757",
          "name": "F. Marvasti"
        }
      ]
    }
  ]
}