{
  "total": 83,
  "offset": 0,
  "next": 10,
  "data": [
    {
      "paperId": "04162cb8cfaa0f7e37586823ff4ad0bff09ed21d",
      "externalIds": {
        "MAG": "2963590100",
        "DBLP": "journals/corr/FinnLA16",
        "ArXiv": "1603.00448",
        "CorpusId": 8121626
      },
      "url": "https://www.semanticscholar.org/paper/04162cb8cfaa0f7e37586823ff4ad0bff09ed21d",
      "title": "Guided Cost Learning: Deep Inverse Optimal Control via Policy Optimization",
      "venue": "International Conference on Machine Learning",
      "year": 2016,
      "referenceCount": 33,
      "citationCount": 1034,
      "authors": [
        {
          "authorId": "46881670",
          "name": "Chelsea Finn"
        },
        {
          "authorId": "1736651",
          "name": "S. Levine"
        },
        {
          "authorId": "1689992",
          "name": "P. Abbeel"
        }
      ]
    },
    {
      "paperId": "5cc9228f0028ee13d3b634001c216190d7d53516",
      "externalIds": {
        "DBLP": "journals/csysl/WuXLL25",
        "DOI": "10.1109/LCSYS.2025.3584907",
        "CorpusId": 279809106
      },
      "url": "https://www.semanticscholar.org/paper/5cc9228f0028ee13d3b634001c216190d7d53516",
      "title": "Data-Driven Optimization-Based Cost and Optimal Control Inference",
      "venue": "IEEE Control Systems Letters",
      "year": 2025,
      "referenceCount": 24,
      "citationCount": 0,
      "authors": [
        {
          "authorId": "2317142650",
          "name": "Jiacheng Wu"
        },
        {
          "authorId": "2052307839",
          "name": "Wenqian Xue"
        },
        {
          "authorId": "2240336431",
          "name": "Frank L. Lewis"
        },
        {
          "authorId": "51217134",
          "name": "Bosen Lian"
        }
      ]
    },
    {
      "paperId": "2940f14cc4ecf1280edc58a131b290bfc61dccda",
      "externalIds": {
        "DBLP": "journals/iotj/BaoTYLWZ25",
        "DOI": "10.1109/JIOT.2025.3552823",
        "CorpusId": 277156789
      },
      "url": "https://www.semanticscholar.org/paper/2940f14cc4ecf1280edc58a131b290bfc61dccda",
      "title": "Cost-Effective Power Delivery via Deep Reinforcement Learning-Based Dynamic Electric Vehicle Transportation",
      "venue": "IEEE Internet of Things Journal",
      "year": 2025,
      "referenceCount": 32,
      "citationCount": 18,
      "authors": [
        {
          "authorId": "2111842156",
          "name": "Zheng Bao"
        },
        {
          "authorId": "2118763468",
          "name": "Changbing Tang"
        },
        {
          "authorId": "2156506994",
          "name": "Xinghuo Yu"
        },
        {
          "authorId": "3094785",
          "name": "Feilong Lin"
        },
        {
          "authorId": "2241893996",
          "name": "Guanghui Wen"
        },
        {
          "authorId": "2278244261",
          "name": "Zhonglong Zheng"
        }
      ]
    },
    {
      "paperId": "ba7ec68e9994b0acc828f6ef468c27c8c494f923",
      "externalIds": {
        "DOI": "10.1109/ICIRT66379.2025.11216748",
        "CorpusId": 282823486
      },
      "url": "https://www.semanticscholar.org/paper/ba7ec68e9994b0acc828f6ef468c27c8c494f923",
      "title": "Optimal Yaw Attitude Tracking Control of Maglev Cars Via Reinforcement Learning-Based Model Predictive Control",
      "venue": "2025 IEEE International Conference on Intelligent Rail Transportation (ICIRT)",
      "year": 2025,
      "referenceCount": 22,
      "citationCount": 0,
      "authors": [
        {
          "authorId": "2299142160",
          "name": "Jiaheng Shi"
        },
        {
          "authorId": "2391316171",
          "name": "Jialin Li"
        },
        {
          "authorId": "102739011",
          "name": "Zhihao Ke"
        },
        {
          "authorId": "2266772877",
          "name": "Yining Chen"
        },
        {
          "authorId": "2192191076",
          "name": "Zhengyan Li"
        },
        {
          "authorId": "2298211545",
          "name": "Zigang Deng"
        }
      ]
    },
    {
      "paperId": "ae7a83e4489022a53ff2331d8f687049d64c0fd4",
      "externalIds": {
        "DBLP": "conf/robio/NingjingLYZ25",
        "DOI": "10.1109/ROBIO66223.2025.11377316",
        "CorpusId": 286013562
      },
      "url": "https://www.semanticscholar.org/paper/ae7a83e4489022a53ff2331d8f687049d64c0fd4",
      "title": "Humanoid Robot Grasping via Deep and Inverse Reinforcement Learning: Research and Implementation",
      "venue": "IEEE International Conference on Robotics and Biomimetics",
      "year": 2025,
      "referenceCount": 13,
      "citationCount": 0,
      "authors": [
        {
          "authorId": "2419162679",
          "name": "Ningjing Kang"
        },
        {
          "authorId": "2275917113",
          "name": "Mingshuo Liu"
        },
        {
          "authorId": "2056566632",
          "name": "Li Yue"
        },
        {
          "authorId": "2276187858",
          "name": "Guodong Zhao"
        }
      ]
    },
    {
      "paperId": "4741133bf37f9d83e52a2e70a7b38561e2bfed27",
      "externalIds": {
        "MAG": "2804016305",
        "DBLP": "journals/corr/abs-1805-08395",
        "ArXiv": "1805.08395",
        "CorpusId": 46894820
      },
      "url": "https://www.semanticscholar.org/paper/4741133bf37f9d83e52a2e70a7b38561e2bfed27",
      "title": "Learning to Optimize via Wasserstein Deep Inverse Optimal Control",
      "venue": "arXiv.org",
      "year": 2018,
      "referenceCount": 33,
      "citationCount": 1,
      "authors": [
        {
          "authorId": "2116640426",
          "name": "Yichen Wang"
        },
        {
          "authorId": "1779453",
          "name": "Le Song"
        },
        {
          "authorId": "145203884",
          "name": "H. Zha"
        }
      ]
    },
    {
      "paperId": "984beef1e3c012bd84645486242f0a61a74aca61",
      "externalIds": {
        "DBLP": "journals/corr/abs-2308-13140",
        "ArXiv": "2308.13140",
        "DOI": "10.48550/arXiv.2308.13140",
        "CorpusId": 261214735
      },
      "url": "https://www.semanticscholar.org/paper/984beef1e3c012bd84645486242f0a61a74aca61",
      "title": "Learn With Imagination: Safe Set Guided State-wise Constrained Policy Optimization",
      "venue": "Conference on Learning for Dynamics & Control",
      "year": 2023,
      "referenceCount": 38,
      "citationCount": 7,
      "authors": [
        {
          "authorId": "123903496",
          "name": "Weiye Zhao"
        },
        {
          "authorId": "2108935699",
          "name": "Yifan Sun"
        },
        {
          "authorId": "46493888",
          "name": "Fei Li"
        },
        {
          "authorId": "2118230590",
          "name": "Rui Chen"
        },
        {
          "authorId": "51045762",
          "name": "Tianhao Wei"
        },
        {
          "authorId": "3164672",
          "name": "Changliu Liu"
        }
      ]
    },
    {
      "paperId": "73c6599d9a30c51242e02664e8c5b1b0e2b2e9d1",
      "externalIds": {
        "DOI": "10.1109/TASE.2026.3682500",
        "CorpusId": 287380198
      },
      "url": "https://www.semanticscholar.org/paper/73c6599d9a30c51242e02664e8c5b1b0e2b2e9d1",
      "title": "Deep Reinforcement Learning for Near-Optimal Control Sequence in Discrete Event Systems",
      "venue": "IEEE Transactions on Automation Science and Engineering",
      "year": 2026,
      "referenceCount": 36,
      "citationCount": 0,
      "authors": [
        {
          "authorId": "2268081821",
          "name": "Ruotian Liu"
        },
        {
          "authorId": "1780171",
          "name": "A. M. Mangini"
        },
        {
          "authorId": "145223101",
          "name": "M. Fanti"
        }
      ]
    },
    {
      "paperId": "76f4ad6ffef8d1c55a899865c02e30395dd64c7e",
      "externalIds": {
        "DOI": "10.1109/RCAE66389.2025.11355233",
        "CorpusId": 285107037
      },
      "url": "https://www.semanticscholar.org/paper/76f4ad6ffef8d1c55a899865c02e30395dd64c7e",
      "title": "Multi-Agent Distributed V2G Scheduling Optimization via Double Deep Q-Networks",
      "venue": "2025 8th International Conference on Robotics, Control and Automation Engineering (RCAE)",
      "year": 2025,
      "referenceCount": 14,
      "citationCount": 0,
      "authors": [
        {
          "authorId": "2287096767",
          "name": "Jinfeng Li"
        },
        {
          "authorId": "2407420672",
          "name": "Qingliao Feng"
        },
        {
          "authorId": "2350346617",
          "name": "Ying Zhao"
        },
        {
          "authorId": "2377960507",
          "name": "Run Tang"
        },
        {
          "authorId": "2337398971",
          "name": "Yu Yao"
        },
        {
          "authorId": "2338995601",
          "name": "Yishun Zhu"
        },
        {
          "authorId": "2296579446",
          "name": "Fengwei Liu"
        },
        {
          "authorId": "2407270520",
          "name": "Lamei Wang"
        },
        {
          "authorId": "2401667794",
          "name": "Chunyan Chen"
        },
        {
          "authorId": "2280855013",
          "name": "Jie Ren"
        }
      ]
    },
    {
      "paperId": "cac15b3207d8db257a06fc106341f957acf79a7a",
      "externalIds": {
        "DOI": "10.1117/12.3073254",
        "CorpusId": 280262047
      },
      "url": "https://www.semanticscholar.org/paper/cac15b3207d8db257a06fc106341f957acf79a7a",
      "title": "Real-time scheduling optimization of smart grid based on deep reinforcement learning",
      "venue": "Other Conferences",
      "year": 2025,
      "referenceCount": 15,
      "citationCount": 0,
      "authors": [
        {
          "authorId": "2256848824",
          "name": "Qiujia Fu"
        },
        {
          "authorId": "2277239880",
          "name": "Huifang Guo"
        },
        {
          "authorId": "2373574270",
          "name": "Chongde Chen"
        }
      ]
    }
  ]
}