{
  "total": 3689,
  "offset": 0,
  "next": 10,
  "data": [
    {
      "paperId": "5dc2a215bd7cd5bdd3a0baa8c967575632696fac",
      "externalIds": {
        "MAG": "2787658090",
        "DBLP": "conf/icml/SchaulHGS15",
        "CorpusId": 15897963
      },
      "url": "https://www.semanticscholar.org/paper/5dc2a215bd7cd5bdd3a0baa8c967575632696fac",
      "title": "Universal Value Function Approximators",
      "venue": "International Conference on Machine Learning",
      "year": 2015,
      "referenceCount": 26,
      "citationCount": 1178,
      "authors": [
        {
          "authorId": "1725157",
          "name": "T. Schaul"
        },
        {
          "authorId": "48257711",
          "name": "Dan Horgan"
        },
        {
          "authorId": "144717963",
          "name": "Karol Gregor"
        },
        {
          "authorId": "145824029",
          "name": "David Silver"
        }
      ]
    },
    {
      "paperId": "1a2c8879ee7ba51753c6ccd31437ed7ba12d4bb3",
      "externalIds": {
        "MAG": "2244758634",
        "CorpusId": 62032846
      },
      "url": "https://www.semanticscholar.org/paper/1a2c8879ee7ba51753c6ccd31437ed7ba12d4bb3",
      "title": "Comparative Study of Universal Function Approximators (Neural Network, Fuzzy Logic, ANFIS) for Non-Linear Systems",
      "venue": "",
      "year": 2015,
      "referenceCount": 9,
      "citationCount": 3,
      "authors": [
        {
          "authorId": "40344877",
          "name": "H. Erdem"
        },
        {
          "authorId": "1711490",
          "name": "Ali Berkol"
        },
        {
          "authorId": "1700011",
          "name": "M. Sert"
        }
      ]
    },
    {
      "paperId": "ce3a4092e69af26dae79ebf8f7ec7aa77f60e776",
      "externalIds": {
        "MAG": "315493968",
        "DOI": "10.1007/s10596-015-9488-5",
        "CorpusId": 118066779
      },
      "url": "https://www.semanticscholar.org/paper/ce3a4092e69af26dae79ebf8f7ec7aa77f60e776",
      "title": "Multilayer perceptrons as function approximators for analytical solutions of the diffusion equation",
      "venue": "Computational Geosciences",
      "year": 2015,
      "referenceCount": 48,
      "citationCount": 3,
      "authors": [
        {
          "authorId": "3512518",
          "name": "L. Campisi"
        }
      ]
    },
    {
      "paperId": "0c052f757b2185f538f3c3cbf6899f2c671bc73b",
      "externalIds": {
        "MAG": "1923174876",
        "DBLP": "journals/jifs/Ying15",
        "DOI": "10.3233/IFS-151730",
        "CorpusId": 15088420
      },
      "url": "https://www.semanticscholar.org/paper/0c052f757b2185f538f3c3cbf6899f2c671bc73b",
      "title": "A sufficient condition on a general class of interval type-2 Takagi-Sugeno fuzzy systems with linear rule consequent as universal approximators",
      "venue": "Journal of Intelligent & Fuzzy Systems",
      "year": 2015,
      "referenceCount": 41,
      "citationCount": 9,
      "authors": [
        {
          "authorId": "145225976",
          "name": "H. Ying"
        }
      ]
    },
    {
      "paperId": "6cd0bc851bc1b646f316b3b464cc95ee0a64930d",
      "externalIds": {
        "DBLP": "conf/iconip/FardZ14",
        "MAG": "2403201118",
        "DOI": "10.1007/978-3-319-12637-1_17",
        "CorpusId": 7861594
      },
      "url": "https://www.semanticscholar.org/paper/6cd0bc851bc1b646f316b3b464cc95ee0a64930d",
      "title": "Toroidal Approximate Identity Neural Networks Are Universal Approximators",
      "venue": "International Conference on Neural Information Processing",
      "year": 2015,
      "referenceCount": 27,
      "citationCount": 7,
      "authors": [
        {
          "authorId": "2960229",
          "name": "Saeed Panahian Fard"
        },
        {
          "authorId": "3346343",
          "name": "Z. Zainuddin"
        }
      ]
    },
    {
      "paperId": "c1ee061043d54dcb0e2b6d7b09a1a00be458c663",
      "externalIds": {
        "DBLP": "conf/ijcci/FardZ15",
        "CorpusId": 15815711
      },
      "url": "https://www.semanticscholar.org/paper/c1ee061043d54dcb0e2b6d7b09a1a00be458c663",
      "title": "SO(2) approximate identity neural networks are universal approximators",
      "venue": "International Joint Conference on Computational Intelligence",
      "year": 2015,
      "referenceCount": 17,
      "citationCount": 1,
      "authors": [
        {
          "authorId": "2960229",
          "name": "Saeed Panahian Fard"
        },
        {
          "authorId": "3346343",
          "name": "Z. Zainuddin"
        }
      ]
    },
    {
      "paperId": "66a19e6bafe8c3725f573a6fed945e29ab897ecd",
      "externalIds": {
        "MAG": "2081967060",
        "DBLP": "journals/jgo/DempeM15",
        "DOI": "10.1007/s10898-014-0169-z",
        "CorpusId": 207193692
      },
      "url": "https://www.semanticscholar.org/paper/66a19e6bafe8c3725f573a6fed945e29ab897ecd",
      "title": "Lipschitz continuity of the optimal value function in parametric optimization",
      "venue": "Journal of Global Optimization",
      "year": 2015,
      "referenceCount": 17,
      "citationCount": 12,
      "authors": [
        {
          "authorId": "145583318",
          "name": "S. Dempe"
        },
        {
          "authorId": "32303583",
          "name": "P. Mehlitz"
        }
      ]
    },
    {
      "paperId": "682811a999f95f831ccedf321c3cce6d72ce9d4f",
      "externalIds": {
        "MAG": "2375637226",
        "CorpusId": 124208529
      },
      "url": "https://www.semanticscholar.org/paper/682811a999f95f831ccedf321c3cce6d72ce9d4f",
      "title": "Uniform Smooth Approximating Functions for Absolute Value Function",
      "venue": "",
      "year": 2015,
      "referenceCount": 0,
      "citationCount": 3,
      "authors": [
        {
          "authorId": "1466720521",
          "name": "Yong Long-qua"
        }
      ]
    },
    {
      "paperId": "af4f403fe84289c4d9b379959e8f13e28b55f6e2",
      "externalIds": {
        "MAG": "2361747351",
        "CorpusId": 113070498
      },
      "url": "https://www.semanticscholar.org/paper/af4f403fe84289c4d9b379959e8f13e28b55f6e2",
      "title": "A Method of Value Function Approximate Dynamic Programming for Medium/Long Term Generation Scheduling",
      "venue": "",
      "year": 2015,
      "referenceCount": 0,
      "citationCount": 0,
      "authors": [
        {
          "authorId": "101290037",
          "name": "Liang Zhenchen"
        }
      ]
    },
    {
      "paperId": "ed68b1d5f44af6dbf416e6c35779b164628e8c5e",
      "externalIds": {
        "MAG": "2183810053",
        "DOI": "10.1260/1748-3018.9.4.449",
        "CorpusId": 123365661
      },
      "url": "https://www.semanticscholar.org/paper/ed68b1d5f44af6dbf416e6c35779b164628e8c5e",
      "title": "Sarsa(Λ)-Based Logistics Planning Approximated by Value Function with Policy Iteration",
      "venue": "",
      "year": 2015,
      "referenceCount": 20,
      "citationCount": 2,
      "authors": [
        {
          "authorId": "120383855",
          "name": "Y. Tang"
        }
      ]
    }
  ]
}