{
  "total": 152421,
  "offset": 0,
  "next": 10,
  "data": [
    {
      "paperId": "57fbd1841a7cf8582682da399d2811655f020c0a",
      "externalIds": {
        "CorpusId": 3537028
      },
      "url": "https://www.semanticscholar.org/paper/57fbd1841a7cf8582682da399d2811655f020c0a",
      "title": "UvA-DARE (Digital Academic Repository) Attention-based Deep Multiple Instance Learning Attention-based Deep Multiple Instance Learning",
      "venue": "",
      "year": null,
      "referenceCount": 47,
      "citationCount": 2448,
      "authors": [
        {
          "authorId": "35186565",
          "name": "Maximilian Ilse"
        },
        {
          "authorId": "1849327",
          "name": "J. Tomczak"
        },
        {
          "authorId": "1678311",
          "name": "M. Welling"
        }
      ]
    },
    {
      "paperId": "c1dcf9ac27d593d12c0f5eb6394ba1b7e941be89",
      "externalIds": {
        "PubMedCentral": "11988156",
        "DOI": "10.3390/cancers17071245",
        "CorpusId": 277683925,
        "PubMed": "40227783"
      },
      "url": "https://www.semanticscholar.org/paper/c1dcf9ac27d593d12c0f5eb6394ba1b7e941be89",
      "title": "Tumor Bud Classification in Colorectal Cancer Using Attention-Based Deep Multiple Instance Learning and Domain-Specific Foundation Models",
      "venue": "Cancers",
      "year": 2025,
      "referenceCount": 47,
      "citationCount": 9,
      "authors": [
        {
          "authorId": "145814229",
          "name": "Mesut Şeker"
        },
        {
          "authorId": "2354752453",
          "name": "M. K. K. Niazi"
        },
        {
          "authorId": "2258611267",
          "name": "Wei Chen"
        },
        {
          "authorId": "2258410952",
          "name": "Wendy L. Frankel"
        },
        {
          "authorId": "2288108150",
          "name": "Metin N. Gurcan"
        }
      ]
    },
    {
      "paperId": "033890329c0a6d2d37f080c299e66bd792137d9f",
      "externalIds": {
        "DBLP": "conf/compay/KeshvarikhojastehPV24",
        "ArXiv": "2404.05362",
        "DOI": "10.48550/arXiv.2404.05362",
        "CorpusId": 269005127
      },
      "url": "https://www.semanticscholar.org/paper/033890329c0a6d2d37f080c299e66bd792137d9f",
      "title": "Multi-head Attention-based Deep Multiple Instance Learning",
      "venue": "COMPAY@MICCAI",
      "year": 2024,
      "referenceCount": 0,
      "citationCount": 13,
      "authors": [
        {
          "authorId": "2290490776",
          "name": "H. Keshvarikhojasteh"
        },
        {
          "authorId": "48811334",
          "name": "J. Pluim"
        },
        {
          "authorId": "50028365",
          "name": "M. Veta"
        }
      ]
    },
    {
      "paperId": "0433714952e755f6324830745239c958e594a63d",
      "externalIds": {
        "DBLP": "journals/mia/XiangSYXSZ23",
        "DOI": "10.1016/j.media.2023.102890",
        "CorpusId": 259577749,
        "PubMed": "37467642"
      },
      "url": "https://www.semanticscholar.org/paper/0433714952e755f6324830745239c958e594a63d",
      "title": "Multi-scale representation attention based deep multiple instance learning for gigapixel whole slide image analysis",
      "venue": "Medical Image Anal.",
      "year": 2023,
      "referenceCount": 41,
      "citationCount": 50,
      "authors": [
        {
          "authorId": "2221902339",
          "name": "Hangchen Xiang"
        },
        {
          "authorId": "33424396",
          "name": "Junyi Shen"
        },
        {
          "authorId": "2251138368",
          "name": "Qingguo Yan"
        },
        {
          "authorId": "2496789",
          "name": "Meilian Xu"
        },
        {
          "authorId": "2766473",
          "name": "Xiaoshuang Shi"
        },
        {
          "authorId": "46875503",
          "name": "Xiaofeng Zhu"
        }
      ]
    },
    {
      "paperId": "f897243fe4cd7b21bf578546df912b48854d0629",
      "externalIds": {
        "DBLP": "journals/ijon/Karaoglan24",
        "DOI": "10.1016/j.neucom.2024.128263",
        "CorpusId": 271525577
      },
      "url": "https://www.semanticscholar.org/paper/f897243fe4cd7b21bf578546df912b48854d0629",
      "title": "Novel approaches for fake news detection based on attention-based deep multiple-instance learning using contextualized neural language models",
      "venue": "Neurocomputing",
      "year": 2024,
      "referenceCount": 100,
      "citationCount": 28,
      "authors": [
        {
          "authorId": "2152419879",
          "name": "Kürşat Mustafa Karaoğlan"
        }
      ]
    },
    {
      "paperId": "ae30b3c15e9bef5ccc044a859eb856f7bf0df972",
      "externalIds": {
        "DBLP": "journals/tomccap/TangLZJLX21",
        "DOI": "10.1145/3454009",
        "CorpusId": 235494875
      },
      "url": "https://www.semanticscholar.org/paper/ae30b3c15e9bef5ccc044a859eb856f7bf0df972",
      "title": "MILL: Channel Attention–based Deep Multiple Instance Learning for Landslide Recognition",
      "venue": "ACM Trans. Multim. Comput. Commun. Appl.",
      "year": 2021,
      "referenceCount": 46,
      "citationCount": 25,
      "authors": [
        {
          "authorId": "2220677689",
          "name": "Xiaochuan Tang"
        },
        {
          "authorId": "47842373",
          "name": "Mingzhe Liu"
        },
        {
          "authorId": "2064919929",
          "name": "Hao Zhong"
        },
        {
          "authorId": "144983498",
          "name": "Yuanzhen Ju"
        },
        {
          "authorId": "2108746718",
          "name": "Wei-le Li"
        },
        {
          "authorId": "2149106802",
          "name": "Qiang Xu"
        }
      ]
    },
    {
      "paperId": "5b1fb2289543d298ac3f834d5a26b4d2c441d7b6",
      "externalIds": {
        "DBLP": "conf/embc/MoranguinhoPRMC21",
        "DOI": "10.1109/EMBC46164.2021.9631000",
        "CorpusId": 244839937,
        "PubMed": "34891842"
      },
      "url": "https://www.semanticscholar.org/paper/5b1fb2289543d298ac3f834d5a26b4d2c441d7b6",
      "title": "Attention Based Deep Multiple Instance Learning Approach for Lung Cancer Prediction using Histopathological Images",
      "venue": "Annual International Conference of the IEEE Engineering in Medicine and Biology Society",
      "year": 2021,
      "referenceCount": 16,
      "citationCount": 15,
      "authors": [
        {
          "authorId": "2139765252",
          "name": "João Moranguinho"
        },
        {
          "authorId": "90208098",
          "name": "Tânia Pereira"
        },
        {
          "authorId": "2139570712",
          "name": "Bernardo Ramos"
        },
        {
          "authorId": "144759342",
          "name": "J. Morgado"
        },
        {
          "authorId": "145003366",
          "name": "J. L. Costa"
        },
        {
          "authorId": "2440795",
          "name": "H. P. Oliveira"
        }
      ]
    },
    {
      "paperId": "c3ea4c4493473627fb7c1ede1596b87d36d4a454",
      "externalIds": {
        "DBLP": "conf/isbi/TarkhanNSBOD22",
        "DOI": "10.1109/ISBI52829.2022.9761661",
        "CorpusId": 248406793
      },
      "url": "https://www.semanticscholar.org/paper/c3ea4c4493473627fb7c1ede1596b87d36d4a454",
      "title": "Attention-Based Deep Multiple Instance Learning with Adaptive Instance Sampling",
      "venue": "IEEE International Symposium on Biomedical Imaging",
      "year": 2022,
      "referenceCount": 0,
      "citationCount": 8,
      "authors": [
        {
          "authorId": "1389976081",
          "name": "A. Tarkhan"
        },
        {
          "authorId": null,
          "name": "Trung Kien Nguyen"
        },
        {
          "authorId": "2799698",
          "name": "N. Simon"
        },
        {
          "authorId": "47668021",
          "name": "T. Bengtsson"
        },
        {
          "authorId": "2052403813",
          "name": "Paolo Ocampo"
        },
        {
          "authorId": "2118794763",
          "name": "Jian Dai"
        }
      ]
    },
    {
      "paperId": "8b6efa6a86aa04ea076e6dcd349b8eef9a072aa4",
      "externalIds": {
        "PubMedCentral": "8701965",
        "DOI": "10.3390/genes12122018",
        "CorpusId": 237403721,
        "PubMed": "34946967"
      },
      "url": "https://www.semanticscholar.org/paper/8b6efa6a86aa04ea076e6dcd349b8eef9a072aa4",
      "title": "Attention-Based Deep Multiple-Instance Learning for Classifying Circular RNA and Other Long Non-Coding RNA",
      "venue": "Genes",
      "year": 2021,
      "referenceCount": 36,
      "citationCount": 3,
      "authors": [
        {
          "authorId": "1604961561",
          "name": "Yunhe Liu"
        },
        {
          "authorId": "2153259690",
          "name": "Qiqing Fu"
        },
        {
          "authorId": "66443850",
          "name": "Xueqing Peng"
        },
        {
          "authorId": "2118508558",
          "name": "Chaoyu Zhu"
        },
        {
          "authorId": "2118538602",
          "name": "Gang Liu"
        },
        {
          "authorId": "2150801408",
          "name": "Lei Liu"
        }
      ]
    },
    {
      "paperId": "a29936e5a0c4b386e408eb9df9c3c8a8ca9d3c15",
      "externalIds": {
        "MAG": "3109183670",
        "DBLP": "journals/corr/abs-2012-01189",
        "CorpusId": 227247502
      },
      "url": "https://www.semanticscholar.org/paper/a29936e5a0c4b386e408eb9df9c3c8a8ca9d3c15",
      "title": "Classifying bacteria clones using attention-based deep multiple instance learning interpreted by persistence homology",
      "venue": "arXiv.org",
      "year": 2020,
      "referenceCount": 22,
      "citationCount": 5,
      "authors": [
        {
          "authorId": "2030526020",
          "name": "Adriana Borowa"
        },
        {
          "authorId": "146543800",
          "name": "Dawid Rymarczyk"
        },
        {
          "authorId": "7265090",
          "name": "Dorota Ochońska"
        },
        {
          "authorId": "1382505011",
          "name": "M. Brzychczy-Włoch"
        },
        {
          "authorId": "2064445681",
          "name": "Bartosz Zieli'nski"
        }
      ]
    }
  ]
}