{
  "total": 260,
  "offset": 0,
  "next": 10,
  "data": [
    {
      "paperId": "e5bb7068e7d74fd30f253124e5d3dfc3544bde83",
      "externalIds": {
        "MAG": "643635367",
        "DBLP": "conf/icml/SunQW15",
        "CorpusId": 10281921
      },
      "url": "https://www.semanticscholar.org/paper/e5bb7068e7d74fd30f253124e5d3dfc3544bde83",
      "title": "Complete Dictionary Recovery Using Nonconvex Optimization",
      "venue": "International Conference on Machine Learning",
      "year": 2015,
      "referenceCount": 48,
      "citationCount": 37,
      "authors": [
        {
          "authorId": "144706338",
          "name": "Ju Sun"
        },
        {
          "authorId": "144403436",
          "name": "Qing Qu"
        },
        {
          "authorId": "143607492",
          "name": "John Wright"
        }
      ]
    },
    {
      "paperId": "1ef68840e963e6168a9d22785bc14cede6b54b2a",
      "externalIds": {
        "DBLP": "journals/corr/SunQW15",
        "MAG": "2107122056",
        "ArXiv": "1504.06785",
        "DOI": "10.1109/SAMPTA.2015.7148922",
        "CorpusId": 2111606
      },
      "url": "https://www.semanticscholar.org/paper/1ef68840e963e6168a9d22785bc14cede6b54b2a",
      "title": "Complete dictionary recovery over the sphere",
      "venue": "International Conference on Sampling Theory and Applications",
      "year": 2015,
      "referenceCount": 128,
      "citationCount": 200,
      "authors": [
        {
          "authorId": "144706338",
          "name": "Ju Sun"
        },
        {
          "authorId": "144403436",
          "name": "Qing Qu"
        },
        {
          "authorId": "143607492",
          "name": "John Wright"
        }
      ]
    },
    {
      "paperId": "4a44cc7f1ceadc1dea5a9d64f6ead50134b49fa9",
      "externalIds": {
        "DBLP": "journals/tit/SunQW17",
        "ArXiv": "1511.03607",
        "MAG": "2601846890",
        "DOI": "10.1109/TIT.2016.2632162",
        "CorpusId": 261280955
      },
      "url": "https://www.semanticscholar.org/paper/4a44cc7f1ceadc1dea5a9d64f6ead50134b49fa9",
      "title": "Complete Dictionary Recovery Over the Sphere I: Overview and the Geometric Picture",
      "venue": "IEEE Transactions on Information Theory",
      "year": 2015,
      "referenceCount": 143,
      "citationCount": 174,
      "authors": [
        {
          "authorId": "144706338",
          "name": "Ju Sun"
        },
        {
          "authorId": "144403436",
          "name": "Qing Qu"
        },
        {
          "authorId": "47583523",
          "name": "John Wright"
        }
      ]
    },
    {
      "paperId": "c0db8a1ef5a1471d0caf43161154e25be4ad7e26",
      "externalIds": {
        "DBLP": "journals/tit/SunQW17a",
        "MAG": "2255205876",
        "ArXiv": "1511.04777",
        "DOI": "10.1109/TIT.2016.2632149",
        "CorpusId": 2401232
      },
      "url": "https://www.semanticscholar.org/paper/c0db8a1ef5a1471d0caf43161154e25be4ad7e26",
      "title": "Complete Dictionary Recovery Over the Sphere II: Recovery by Riemannian Trust-Region Method",
      "venue": "IEEE Transactions on Information Theory",
      "year": 2015,
      "referenceCount": 100,
      "citationCount": 153,
      "authors": [
        {
          "authorId": "144706338",
          "name": "Ju Sun"
        },
        {
          "authorId": "144403436",
          "name": "Qing Qu"
        },
        {
          "authorId": "143607492",
          "name": "John Wright"
        }
      ]
    },
    {
      "paperId": "9a6c0929bcaa9cdff164859c5e300b8435df7a3b",
      "externalIds": {
        "MAG": "2001390832",
        "DOI": "10.1109/ICCSP.2015.7322792",
        "CorpusId": 2939927
      },
      "url": "https://www.semanticscholar.org/paper/9a6c0929bcaa9cdff164859c5e300b8435df7a3b",
      "title": "ADMM based algorithm for spike and smooth signal separation using over-complete dictionary",
      "venue": "International Conference on Cryptography, Security and Privacy",
      "year": 2015,
      "referenceCount": 31,
      "citationCount": 4,
      "authors": [
        {
          "authorId": "144958247",
          "name": "K. HariKumar"
        },
        {
          "authorId": "9283977",
          "name": "S. Athira"
        },
        {
          "authorId": "9218099",
          "name": "Yedu C. Nair"
        },
        {
          "authorId": "145629760",
          "name": "V. Sowmya"
        },
        {
          "authorId": "144456263",
          "name": "K. Soman"
        }
      ]
    },
    {
      "paperId": "6f41774b8e943c13dda85184245bec2c56fb5c1b",
      "externalIds": {
        "MAG": "2104865733",
        "DOI": "10.1016/j.jht.2015.04.001",
        "CorpusId": 206159928,
        "PubMed": "26210903"
      },
      "url": "https://www.semanticscholar.org/paper/6f41774b8e943c13dda85184245bec2c56fb5c1b",
      "title": "The optimization of peripheral nerve recovery using cortical reorganization techniques: A retrospective study of wrist level nerve repairs.",
      "venue": "Journal of Hand Therapy",
      "year": 2015,
      "referenceCount": 17,
      "citationCount": 8,
      "authors": [
        {
          "authorId": "1402695471",
          "name": "Bonnie Walbruch"
        },
        {
          "authorId": "5572863",
          "name": "L. Kalliainen"
        }
      ]
    },
    {
      "paperId": "f93a9abb4899460e81aa7c8764d9c3de24677f5b",
      "externalIds": {
        "DBLP": "journals/tcyb/LiuLJLYHMYX15",
        "MAG": "2036473294",
        "DOI": "10.1109/TCYB.2014.2343618",
        "CorpusId": 5091294,
        "PubMed": "25148677"
      },
      "url": "https://www.semanticscholar.org/paper/f93a9abb4899460e81aa7c8764d9c3de24677f5b",
      "title": "Nonconvex Compressed Sensing by Nature-Inspired Optimization Algorithms",
      "venue": "IEEE Transactions on Cybernetics",
      "year": 2015,
      "referenceCount": 44,
      "citationCount": 32,
      "authors": [
        {
          "authorId": "47185625",
          "name": "Fang Liu"
        },
        {
          "authorId": "1690546",
          "name": "Leping Lin"
        },
        {
          "authorId": "144125122",
          "name": "L. Jiao"
        },
        {
          "authorId": "47681424",
          "name": "Lingling Li"
        },
        {
          "authorId": "1702138",
          "name": "Shuyuan Yang"
        },
        {
          "authorId": "1940528",
          "name": "B. Hou"
        },
        {
          "authorId": "2153231157",
          "name": "Hongmei Ma"
        },
        {
          "authorId": null,
          "name": "Li Yang"
        },
        {
          "authorId": "3256577",
          "name": "Jinghuan Xu"
        }
      ]
    },
    {
      "paperId": "343c4d1d713bb06ffd3604ea14d0d3cab7acccfb",
      "externalIds": {
        "MAG": "2552780617",
        "CorpusId": 99794135
      },
      "url": "https://www.semanticscholar.org/paper/343c4d1d713bb06ffd3604ea14d0d3cab7acccfb",
      "title": "MULTI-OBJECTIVE OPTIMIZATION OF A COMBINED CRYOGENIC AND MEMBRANE PROCESS FOR HELIUM RECOVERY FROM NATURAL GAS USING GENETIC ALGORITHM",
      "venue": "",
      "year": 2015,
      "referenceCount": 19,
      "citationCount": 3,
      "authors": [
        {
          "authorId": "143603389",
          "name": "M. Heidari"
        },
        {
          "authorId": "67130927",
          "name": "A. Tavasoli"
        },
        {
          "authorId": "92838120",
          "name": "A. Karimi"
        }
      ]
    },
    {
      "paperId": "2a940a3e252b50e5677b7268cb63f2c3c294f71a",
      "externalIds": {
        "DBLP": "conf/dsp-spe/HayesMS15",
        "MAG": "2217003086",
        "DOI": "10.1109/DSP-SPE.2015.7369553",
        "CorpusId": 14802765
      },
      "url": "https://www.semanticscholar.org/paper/2a940a3e252b50e5677b7268cb63f2c3c294f71a",
      "title": "Sparse recovery using an SVD approach to interference removal and parameter estimation",
      "venue": "2015 IEEE Signal Processing and Signal Processing Education Workshop (SP/SPE)",
      "year": 2015,
      "referenceCount": 5,
      "citationCount": 5,
      "authors": [
        {
          "authorId": "40255597",
          "name": "C. Hayes"
        },
        {
          "authorId": "1731853",
          "name": "J. McClellan"
        },
        {
          "authorId": "1749582",
          "name": "W. Scott"
        }
      ]
    },
    {
      "paperId": "a971faa474316c2f388cea29b73d398c5675b7d7",
      "externalIds": {
        "MAG": "1940437058",
        "DBLP": "journals/corr/AghagolzadehR15",
        "ArXiv": "1508.00278",
        "CorpusId": 18610451
      },
      "url": "https://www.semanticscholar.org/paper/a971faa474316c2f388cea29b73d398c5675b7d7",
      "title": "Dictionary and Image Recovery from Incomplete and Random Measurements",
      "venue": "arXiv.org",
      "year": 2015,
      "referenceCount": 34,
      "citationCount": 2,
      "authors": [
        {
          "authorId": "153317497",
          "name": "Mohammad Aghagolzadeh"
        },
        {
          "authorId": "1687782",
          "name": "H. Radha"
        }
      ]
    }
  ]
}