{
  "total": 34,
  "offset": 0,
  "next": 10,
  "data": [
    {
      "paperId": "b3413d06931cf76b70aa83929b00e63738fc5d4c",
      "externalIds": {
        "MAG": "2472402982",
        "DBLP": "conf/icml/Fan16",
        "CorpusId": 17782799
      },
      "url": "https://www.semanticscholar.org/paper/b3413d06931cf76b70aa83929b00e63738fc5d4c",
      "title": "Accurate Robust and Efficient Error Estimation for Decision Trees",
      "venue": "International Conference on Machine Learning",
      "year": 2016,
      "referenceCount": 17,
      "citationCount": 4,
      "authors": [
        {
          "authorId": "2034793",
          "name": "Lixin Fan"
        }
      ]
    },
    {
      "paperId": "e86486a31a1cba991c20ea65f619ec6fee75a520",
      "externalIds": {
        "DBLP": "journals/dai/ChalermpanGKMJNBSPNST25",
        "DOI": "10.1007/s44163-025-00619-9",
        "CorpusId": 283740557
      },
      "url": "https://www.semanticscholar.org/paper/e86486a31a1cba991c20ea65f619ec6fee75a520",
      "title": "Robust and efficient blood loss estimation using color features and gradient boosting trees",
      "venue": "Discover Artificial Intelligence",
      "year": 2025,
      "referenceCount": 31,
      "citationCount": 0,
      "authors": [
        {
          "authorId": "2397799174",
          "name": "Tanaanan Chalermpan"
        },
        {
          "authorId": "2397798018",
          "name": "Duangrat Gansawat"
        },
        {
          "authorId": "2566607",
          "name": "Kantip Kiratiratanapruk"
        },
        {
          "authorId": "2721096",
          "name": "S. Marukatat"
        },
        {
          "authorId": "84032805",
          "name": "Natatikarn Jareonrattanadaechakul"
        },
        {
          "authorId": "83493756",
          "name": "Wannipa Nusupa"
        },
        {
          "authorId": "2397796284",
          "name": "Urai Boonta"
        },
        {
          "authorId": "14047083",
          "name": "Wariya Sukhupragarn"
        },
        {
          "authorId": "6128216",
          "name": "Tanyong Pipanmekaporn"
        },
        {
          "authorId": "6050813",
          "name": "S. Namwongprom"
        },
        {
          "authorId": "2397796282",
          "name": "Visit Siripuwanan"
        },
        {
          "authorId": "97907222",
          "name": "Sarach Tuomchomtam"
        }
      ]
    },
    {
      "paperId": "4581a9956cb2691873f71983b4248f698600bb44",
      "externalIds": {
        "DOI": "10.1007/s13202-025-02043-2",
        "CorpusId": 280587804
      },
      "url": "https://www.semanticscholar.org/paper/4581a9956cb2691873f71983b4248f698600bb44",
      "title": "Accurate estimation of permeability reduction resulted from low salinity water flooding in clay-rich sandstones",
      "venue": "Journal of Petroleum Exploration and Production Technology",
      "year": 2025,
      "referenceCount": 88,
      "citationCount": 1,
      "authors": [
        {
          "authorId": "2144585193",
          "name": "Xiaojuan Zhang"
        },
        {
          "authorId": "2325372679",
          "name": "Muntadher Abed Hussein"
        },
        {
          "authorId": "2365807447",
          "name": "Tarak Vora"
        },
        {
          "authorId": "2340494694",
          "name": "Anupam Yadav"
        },
        {
          "authorId": "121267004",
          "name": "Asha Rajiv"
        },
        {
          "authorId": "2335599430",
          "name": "A. Shankhyan"
        },
        {
          "authorId": "2334071409",
          "name": "Sachin Jaidka"
        },
        {
          "authorId": "2279920126",
          "name": "Mehul Manu"
        },
        {
          "authorId": "2363602730",
          "name": "Farzona Alimova"
        },
        {
          "authorId": "2342813139",
          "name": "Issa Mohammed Kadhim"
        },
        {
          "authorId": "2241202290",
          "name": "Z. Hamoodah"
        },
        {
          "authorId": "2355213286",
          "name": "Fadhil Faez"
        },
        {
          "authorId": "2375496054",
          "name": "Ahmad Khalid"
        }
      ]
    },
    {
      "paperId": "cd51b070665750b2f2a5946ceec5bf8f179fb7fe",
      "externalIds": {
        "PubMedCentral": "12586539",
        "DOI": "10.1038/s41598-025-23166-w",
        "CorpusId": 282737820,
        "PubMed": "41188446"
      },
      "url": "https://www.semanticscholar.org/paper/cd51b070665750b2f2a5946ceec5bf8f179fb7fe",
      "title": "Machine learning approaches for enhanced estimation of reference evapotranspiration (ETo): a comparative evaluation",
      "venue": "Scientific Reports",
      "year": 2025,
      "referenceCount": 47,
      "citationCount": 2,
      "authors": [
        {
          "authorId": "2339105018",
          "name": "Abousrie A. Farag"
        }
      ]
    },
    {
      "paperId": "bf360d4b613268fe7dceb1352eba0dbe64a9b6b9",
      "externalIds": {
        "PubMedCentral": "11636804",
        "DOI": "10.1016/j.heliyon.2024.e25949",
        "CorpusId": 267594039,
        "PubMed": "39670065"
      },
      "url": "https://www.semanticscholar.org/paper/bf360d4b613268fe7dceb1352eba0dbe64a9b6b9",
      "title": "Efficient state of charge estimation in electric vehicles batteries based on the extra tree regressor: A data-driven approach",
      "venue": "Heliyon",
      "year": 2024,
      "referenceCount": 32,
      "citationCount": 41,
      "authors": [
        {
          "authorId": "2119418644",
          "name": "Sadiqa Jafari"
        },
        {
          "authorId": "2243624305",
          "name": "Y. Byun"
        }
      ]
    },
    {
      "paperId": "2504720ba0a0f2091b0f529687ab64248cc7b49f",
      "externalIds": {
        "DOI": "10.1007/s40808-025-02521-w",
        "CorpusId": 280132448
      },
      "url": "https://www.semanticscholar.org/paper/2504720ba0a0f2091b0f529687ab64248cc7b49f",
      "title": "Lower and upper bound estimation (LUBE) for predicting the surface water quality in the lower Mun river basin using machine learning algorithms",
      "venue": "Modeling Earth Systems and Environment",
      "year": 2025,
      "referenceCount": 103,
      "citationCount": 2,
      "authors": [
        {
          "authorId": "2237708880",
          "name": "Chawisa Chawishborwornworng"
        },
        {
          "authorId": "98820750",
          "name": "Monchai Chansiri"
        },
        {
          "authorId": "12539341",
          "name": "Santamon Luanwuthi"
        },
        {
          "authorId": "91223404",
          "name": "C. Umpuch"
        },
        {
          "authorId": "13928563",
          "name": "C. Puchongkawarin"
        }
      ]
    },
    {
      "paperId": "caea7eb82fdc11ceffc082a1542976d350f9cb5c",
      "externalIds": {
        "DOI": "10.22564/19cisbgf2025.144",
        "CorpusId": 285084318
      },
      "url": "https://www.semanticscholar.org/paper/caea7eb82fdc11ceffc082a1542976d350f9cb5c",
      "title": "Estimation of Petrophysical Properties in Oil Reservoirs using Supervised Machine Learning Models.",
      "venue": "Proceedings",
      "year": 2025,
      "referenceCount": 0,
      "citationCount": 0,
      "authors": [
        {
          "authorId": "2407029130",
          "name": "V. Campos"
        },
        {
          "authorId": "2407038990",
          "name": "Leonardo Miquelutti"
        },
        {
          "authorId": "2407249868",
          "name": "Larissa Carla de Oliveira"
        },
        {
          "authorId": "2407211223",
          "name": "Mario Martins Ramos"
        }
      ]
    },
    {
      "paperId": "c2720d5de7decdcb9287b0c77f7ef3e65b9a1fed",
      "externalIds": {
        "DOI": "10.1109/PESGRE58662.2023.10404715",
        "CorpusId": 267338504
      },
      "url": "https://www.semanticscholar.org/paper/c2720d5de7decdcb9287b0c77f7ef3e65b9a1fed",
      "title": "Random Forest Regressor Based SoC Estimation of Li-ion Battery for Electric Vehicle Applications",
      "venue": "2023 IEEE International Conference on Power Electronics, Smart Grid, and Renewable Energy (PESGRE)",
      "year": 2023,
      "referenceCount": 19,
      "citationCount": 3,
      "authors": [
        {
          "authorId": "2107503268",
          "name": "A. Johnson"
        },
        {
          "authorId": "2307422266",
          "name": "Neha A Varghese"
        },
        {
          "authorId": "2281986030",
          "name": "Rahul Raj Thomas"
        },
        {
          "authorId": "2281984345",
          "name": "Soumya Mathews"
        },
        {
          "authorId": "2281985045",
          "name": "Rinu Alice Koshy"
        }
      ]
    },
    {
      "paperId": "8357d8f18213db8750f53968f37652718b3f43a8",
      "externalIds": {
        "DBLP": "journals/smr/NhungHSPS24",
        "DOI": "10.1002/smr.2611",
        "CorpusId": 261487001
      },
      "url": "https://www.semanticscholar.org/paper/8357d8f18213db8750f53968f37652718b3f43a8",
      "title": "Incorporating statistical and machine learning techniques into the optimization of correction factors for software development effort estimation",
      "venue": "J. Softw. Evol. Process.",
      "year": 2023,
      "referenceCount": 83,
      "citationCount": 7,
      "authors": [
        {
          "authorId": "52420654",
          "name": "Ho Le Thi Kim Nhung"
        },
        {
          "authorId": "1392647266",
          "name": "Vo Van Hai"
        },
        {
          "authorId": "3121603",
          "name": "P. Silhavy"
        },
        {
          "authorId": "2935312",
          "name": "Z. Prokopova"
        },
        {
          "authorId": "2579837",
          "name": "R. Silhavy"
        }
      ]
    },
    {
      "paperId": "12871658c31666d5cf781780a5d827582504313b",
      "externalIds": {
        "DOI": "10.1007/s12665-025-12191-7",
        "CorpusId": 277142255
      },
      "url": "https://www.semanticscholar.org/paper/12871658c31666d5cf781780a5d827582504313b",
      "title": "Machine learning-based estimation of chlorophyll-a in the Mississippi Sound using Landsat and ocean optics data",
      "venue": "Environmental Earth Sciences",
      "year": 2025,
      "referenceCount": 134,
      "citationCount": 5,
      "authors": [
        {
          "authorId": "2335224667",
          "name": "Hafez Ahmad"
        },
        {
          "authorId": "2253476066",
          "name": "Felix Jose"
        },
        {
          "authorId": "2265191629",
          "name": "Padmanava Dash"
        },
        {
          "authorId": "2253931371",
          "name": "D. J. Shoemaker"
        },
        {
          "authorId": "2145245410",
          "name": "Shakila Islam Jhara"
        }
      ]
    }
  ]
}