{
  "total": 2772,
  "offset": 0,
  "next": 10,
  "data": [
    {
      "paperId": "2904a9932f4cd0f0886121dc1f2d4aaac0455176",
      "externalIds": {
        "ArXiv": "1502.02761",
        "DBLP": "journals/corr/LiSZ15",
        "MAG": "1487641199",
        "CorpusId": 536962
      },
      "url": "https://www.semanticscholar.org/paper/2904a9932f4cd0f0886121dc1f2d4aaac0455176",
      "title": "Generative Moment Matching Networks",
      "venue": "International Conference on Machine Learning",
      "year": 2015,
      "referenceCount": 50,
      "citationCount": 909,
      "authors": [
        {
          "authorId": "47002813",
          "name": "Yujia Li"
        },
        {
          "authorId": "1754860",
          "name": "Kevin Swersky"
        },
        {
          "authorId": "1804104",
          "name": "R. Zemel"
        }
      ]
    },
    {
      "paperId": "c61d9104eb53b205dc7fb9992f426ca87d2a83ba",
      "externalIds": {
        "DBLP": "journals/tai/LiaoYCL22",
        "DOI": "10.1109/TAI.2021.3128368",
        "CorpusId": 244296888
      },
      "url": "https://www.semanticscholar.org/paper/c61d9104eb53b205dc7fb9992f426ca87d2a83ba",
      "title": "WindGMMN: Scenario Forecasting for Wind Power Using Generative Moment Matching Networks",
      "venue": "IEEE Transactions on Artificial Intelligence",
      "year": 2022,
      "referenceCount": 24,
      "citationCount": 27,
      "authors": [
        {
          "authorId": "48739844",
          "name": "Wenlong Liao"
        },
        {
          "authorId": "2153532526",
          "name": "Zhe Yang"
        },
        {
          "authorId": "2167588700",
          "name": "Xinxin Chen"
        },
        {
          "authorId": "2296667916",
          "name": "Yaqi Li"
        }
      ]
    },
    {
      "paperId": "928eb84fd73c13b4fa0852bd7585bd1f46ad2283",
      "externalIds": {
        "DBLP": "conf/embc/PereraMBGGI22",
        "DOI": "10.1109/EMBC48229.2022.9871045",
        "CorpusId": 248219636,
        "PubMed": "36086656"
      },
      "url": "https://www.semanticscholar.org/paper/928eb84fd73c13b4fa0852bd7585bd1f46ad2283",
      "title": "Generative Moment Matching Networks for Genotype Simulation",
      "venue": "bioRxiv",
      "year": 2022,
      "referenceCount": 31,
      "citationCount": 19,
      "authors": [
        {
          "authorId": "2162741721",
          "name": "Maria Perera"
        },
        {
          "authorId": "51046403",
          "name": "D. M. Montserrat"
        },
        {
          "authorId": "2162740240",
          "name": "Míriam Barrabés"
        },
        {
          "authorId": "1720802946",
          "name": "Margarita Geleta"
        },
        {
          "authorId": "1398090762",
          "name": "Xavier Giró-i-Nieto"
        },
        {
          "authorId": "2042685734",
          "name": "A. Ioannidis"
        }
      ]
    },
    {
      "paperId": "99d486216732ebcadc1d9b901e6d4f0d8b50d20b",
      "externalIds": {
        "ArXiv": "2508.21531",
        "DBLP": "journals/corr/abs-2508-21531",
        "DOI": "10.48550/arXiv.2508.21531",
        "CorpusId": 280985222
      },
      "url": "https://www.semanticscholar.org/paper/99d486216732ebcadc1d9b901e6d4f0d8b50d20b",
      "title": "Adaptive generative moment matching networks for improved learning of dependence structures",
      "venue": "arXiv.org",
      "year": 2025,
      "referenceCount": 52,
      "citationCount": 0,
      "authors": [
        {
          "authorId": "1996797",
          "name": "M. Hofert"
        },
        {
          "authorId": "2395894266",
          "name": "Gan Yao"
        }
      ]
    },
    {
      "paperId": "549612bdd90cdd502b806716c2adb1cb0aff20c6",
      "externalIds": {
        "ArXiv": "2102.03360",
        "DBLP": "journals/corr/abs-2102-03360",
        "DOI": "10.17775/cseejpes.2021.00680",
        "CorpusId": 231839891
      },
      "url": "https://www.semanticscholar.org/paper/549612bdd90cdd502b806716c2adb1cb0aff20c6",
      "title": "Scenario Generation for Cooling, Heating, and Power Loads Using Generative Moment Matching Networks",
      "venue": "CSEE Journal of Power and Energy Systems",
      "year": 2021,
      "referenceCount": 34,
      "citationCount": 20,
      "authors": [
        {
          "authorId": "48739844",
          "name": "Wenlong Liao"
        },
        {
          "authorId": "47904455",
          "name": "Yusen Wang"
        },
        {
          "authorId": "2368306135",
          "name": "Yuelong Wang"
        },
        {
          "authorId": "1946757",
          "name": "Kody M. Powell"
        },
        {
          "authorId": "2155474590",
          "name": "Qi Liu"
        }
      ]
    },
    {
      "paperId": "41ad41f3aa51fd85a32b1e9b7abbe933e7f4771c",
      "externalIds": {
        "MAG": "2963398683",
        "DBLP": "conf/nips/RenZLL16",
        "ArXiv": "1606.04218",
        "CorpusId": 6162778
      },
      "url": "https://www.semanticscholar.org/paper/41ad41f3aa51fd85a32b1e9b7abbe933e7f4771c",
      "title": "Conditional Generative Moment-Matching Networks",
      "venue": "Neural Information Processing Systems",
      "year": 2016,
      "referenceCount": 32,
      "citationCount": 68,
      "authors": [
        {
          "authorId": "2335619764",
          "name": "Yong Ren"
        },
        {
          "authorId": "145254043",
          "name": "Jun Zhu"
        },
        {
          "authorId": "47785961",
          "name": "J. Li"
        },
        {
          "authorId": "3422368",
          "name": "Yucen Luo"
        }
      ]
    },
    {
      "paperId": "ed6fc9a2c9c5ed669a846fca86a0538ae93205d4",
      "externalIds": {
        "DBLP": "conf/aaai/RenLZ21",
        "DOI": "10.1609/aaai.v35i11.17133",
        "CorpusId": 235349009
      },
      "url": "https://www.semanticscholar.org/paper/ed6fc9a2c9c5ed669a846fca86a0538ae93205d4",
      "title": "Improving Generative Moment Matching Networks with Distribution Partition",
      "venue": "AAAI Conference on Artificial Intelligence",
      "year": 2021,
      "referenceCount": 25,
      "citationCount": 4,
      "authors": [
        {
          "authorId": "2335619764",
          "name": "Yong Ren"
        },
        {
          "authorId": "3422368",
          "name": "Yucen Luo"
        },
        {
          "authorId": "145254043",
          "name": "Jun Zhu"
        }
      ]
    },
    {
      "paperId": "cdd464c6075b5b5cbfb54710b0254cc371c47a6c",
      "externalIds": {
        "ArXiv": "1707.05721",
        "MAG": "2738749990",
        "DBLP": "journals/corr/QiHSD17",
        "CorpusId": 6260677
      },
      "url": "https://www.semanticscholar.org/paper/cdd464c6075b5b5cbfb54710b0254cc371c47a6c",
      "title": "Submodular Mini-Batch Training in Generative Moment Matching Networks",
      "venue": "arXiv.org",
      "year": 2017,
      "referenceCount": 16,
      "citationCount": 0,
      "authors": [
        {
          "authorId": "145913380",
          "name": "Jun Qi"
        },
        {
          "authorId": "144137069",
          "name": "Xiaodong He"
        },
        {
          "authorId": "40261572",
          "name": "Adith Swaminathan"
        },
        {
          "authorId": "144718788",
          "name": "L. Deng"
        }
      ]
    },
    {
      "paperId": "668e2fae6c08d9bdfe383ce3203ca251a7a71901",
      "externalIds": {
        "MAG": "2808377221",
        "DBLP": "conf/ijcai/GaoH18",
        "DOI": "10.24963/ijcai.2018/293",
        "CorpusId": 51609195
      },
      "url": "https://www.semanticscholar.org/paper/668e2fae6c08d9bdfe383ce3203ca251a7a71901",
      "title": "Joint Generative Moment-Matching Network for Learning Structural Latent Code",
      "venue": "International Joint Conference on Artificial Intelligence",
      "year": 2018,
      "referenceCount": 31,
      "citationCount": 8,
      "authors": [
        {
          "authorId": "2141896",
          "name": "Hongchang Gao"
        },
        {
          "authorId": "145114933",
          "name": "Heng Huang"
        }
      ]
    },
    {
      "paperId": "ead594e810ca14aef7e7986c951f09ac1e6bb0da",
      "externalIds": {
        "MAG": "2765371849",
        "DBLP": "conf/iconip/KiasariML17",
        "DOI": "10.1007/978-3-319-70096-0_24",
        "CorpusId": 46479704
      },
      "url": "https://www.semanticscholar.org/paper/ead594e810ca14aef7e7986c951f09ac1e6bb0da",
      "title": "Generative Moment Matching Autoencoder with Perceptual Loss",
      "venue": "International Conference on Neural Information Processing",
      "year": 2017,
      "referenceCount": 20,
      "citationCount": 6,
      "authors": [
        {
          "authorId": "7199849",
          "name": "Mohammad Ahangar Kiasari"
        },
        {
          "authorId": "39682572",
          "name": "Dennis Singh Moirangthem"
        },
        {
          "authorId": "91899029",
          "name": "Minho Lee"
        }
      ]
    }
  ]
}