{
  "total": 9253,
  "offset": 0,
  "next": 10,
  "data": [
    {
      "paperId": "8dce99e33c6fceb3e79023f5894fdbe733c91e92",
      "externalIds": {
        "MAG": "2963557656",
        "DBLP": "conf/icml/AthalyeEIK18",
        "CorpusId": 2645819
      },
      "url": "https://www.semanticscholar.org/paper/8dce99e33c6fceb3e79023f5894fdbe733c91e92",
      "title": "Synthesizing Robust Adversarial Examples",
      "venue": "International Conference on Machine Learning",
      "year": 2017,
      "referenceCount": 34,
      "citationCount": 1802,
      "authors": [
        {
          "authorId": "38939786",
          "name": "Anish Athalye"
        },
        {
          "authorId": "39468283",
          "name": "Logan Engstrom"
        },
        {
          "authorId": "34562927",
          "name": "Andrew Ilyas"
        },
        {
          "authorId": "2058062760",
          "name": "K. Kwok"
        }
      ]
    },
    {
      "paperId": "6d53c25a7296aa1f30f27790d90b3156e74c46c4",
      "externalIds": {
        "ArXiv": "1707.07397",
        "CorpusId": 260500250
      },
      "url": "https://www.semanticscholar.org/paper/6d53c25a7296aa1f30f27790d90b3156e74c46c4",
      "title": "Synthesizing Robust Adversarial Examples",
      "venue": "",
      "year": 2017,
      "referenceCount": 13,
      "citationCount": 88,
      "authors": [
        {
          "authorId": "38939786",
          "name": "Anish Athalye"
        },
        {
          "authorId": "1701686",
          "name": "I. Sutskever"
        }
      ]
    },
    {
      "paperId": "e84de87fdb79a78fb7e94387f38d892733440205",
      "externalIds": {
        "CorpusId": 3541164
      },
      "url": "https://www.semanticscholar.org/paper/e84de87fdb79a78fb7e94387f38d892733440205",
      "title": "Reproducibility Report : Synthesizing Robust Adversarial Examples ∗",
      "venue": "",
      "year": 2018,
      "referenceCount": 1,
      "citationCount": 0,
      "authors": [
        {
          "authorId": "143864146",
          "name": "Prabhant Singh"
        }
      ]
    },
    {
      "paperId": "d08a6a41e2b16928a1dc93b259bffbe37dae021d",
      "externalIds": {
        "DBLP": "conf/acl/GuptaTB21",
        "ACL": "2021.findings-acl.338",
        "ArXiv": "2106.05894",
        "DOI": "10.18653/v1/2021.findings-acl.338",
        "CorpusId": 235391065
      },
      "url": "https://www.semanticscholar.org/paper/d08a6a41e2b16928a1dc93b259bffbe37dae021d",
      "title": "Synthesizing Adversarial Negative Responses for Robust Response Ranking and Evaluation",
      "venue": "Findings",
      "year": 2021,
      "referenceCount": 95,
      "citationCount": 26,
      "authors": [
        {
          "authorId": "1491232062",
          "name": "Prakhar Gupta"
        },
        {
          "authorId": "2073587169",
          "name": "Yulia Tsvetkov"
        },
        {
          "authorId": "1744846",
          "name": "Jeffrey P. Bigham"
        }
      ]
    },
    {
      "paperId": "b1edcc00eea7e8f3091f0c6bd09f805434f8a9a0",
      "externalIds": {
        "DBLP": "conf/corl/AgarwalC22",
        "ArXiv": "2204.06173",
        "CorpusId": 254246227
      },
      "url": "https://www.semanticscholar.org/paper/b1edcc00eea7e8f3091f0c6bd09f805434f8a9a0",
      "title": "Synthesizing Adversarial Visual Scenarios for Model-Based Robotic Control",
      "venue": "Conference on Robot Learning",
      "year": 2022,
      "referenceCount": 53,
      "citationCount": 6,
      "authors": [
        {
          "authorId": "1846751324",
          "name": "Shubhankar Agarwal"
        },
        {
          "authorId": "2277751990",
          "name": "Sandeep P. Chinchali"
        }
      ]
    },
    {
      "paperId": "751174767e18a0637c5ac5d2472a4b092d8bbee2",
      "externalIds": {
        "ArXiv": "2503.06559",
        "DBLP": "journals/corr/abs-2503-06559",
        "DOI": "10.48550/arXiv.2503.06559",
        "CorpusId": 276903658
      },
      "url": "https://www.semanticscholar.org/paper/751174767e18a0637c5ac5d2472a4b092d8bbee2",
      "title": "MMARD: Improving the Min-Max Optimization Process in Adversarial Robustness Distillation",
      "venue": "arXiv.org",
      "year": 2025,
      "referenceCount": 50,
      "citationCount": 0,
      "authors": [
        {
          "authorId": "2205141992",
          "name": "Yuzheng Wang"
        },
        {
          "authorId": "2290635714",
          "name": "Zhaoyu Chen"
        },
        {
          "authorId": "2338406168",
          "name": "Dingkang Yang"
        },
        {
          "authorId": "2335666359",
          "name": "Yuanhan Wang"
        },
        {
          "authorId": "2276980851",
          "name": "Lizhe Qi"
        }
      ]
    },
    {
      "paperId": "1db0cfab52fdb3763be0a4de53cccfe6e2e91f72",
      "externalIds": {
        "ArXiv": "2410.08620",
        "DBLP": "conf/mm/ZhuXZD024",
        "DOI": "10.1145/3664647.3680902",
        "CorpusId": 273323197
      },
      "url": "https://www.semanticscholar.org/paper/1db0cfab52fdb3763be0a4de53cccfe6e2e91f72",
      "title": "Natural Language Induced Adversarial Images",
      "venue": "ACM Multimedia",
      "year": 2024,
      "referenceCount": 60,
      "citationCount": 5,
      "authors": [
        {
          "authorId": "49897895",
          "name": "Xiaopei Zhu"
        },
        {
          "authorId": "2351604968",
          "name": "Peiyang Xu"
        },
        {
          "authorId": "2264572624",
          "name": "Guanning Zeng"
        },
        {
          "authorId": "2273849514",
          "name": "Yinpeng Dong"
        },
        {
          "authorId": "2325781540",
          "name": "Xiaolin Hu"
        }
      ]
    },
    {
      "paperId": "1d2e29865c861e549090395df76708b2387e27ec",
      "externalIds": {
        "ArXiv": "2108.05075",
        "DBLP": "conf/asiaccs/ChenDP23",
        "DOI": "10.1145/3579856.3582816",
        "CorpusId": 254823098
      },
      "url": "https://www.semanticscholar.org/paper/1d2e29865c861e549090395df76708b2387e27ec",
      "title": "Jujutsu: A Two-stage Defense against Adversarial Patch Attacks on Deep Neural Networks",
      "venue": "ACM Asia Conference on Computer and Communications Security",
      "year": 2021,
      "referenceCount": 47,
      "citationCount": 31,
      "authors": [
        {
          "authorId": "1583483502",
          "name": "Zitao Chen"
        },
        {
          "authorId": "35582452",
          "name": "Pritam Dash"
        },
        {
          "authorId": "1715185",
          "name": "K. Pattabiraman"
        }
      ]
    },
    {
      "paperId": "d2e0b7468a663cfa52bbbc2903dde8a9875e77e3",
      "externalIds": {
        "ArXiv": "2208.06222",
        "DOI": "10.1109/TIFS.2024.10447287",
        "CorpusId": 253734972
      },
      "url": "https://www.semanticscholar.org/paper/d2e0b7468a663cfa52bbbc2903dde8a9875e77e3",
      "title": "Scale-free and Task-agnostic Attack: Generating Photo-realistic Adversarial Patterns with Patch Quilting Generator",
      "venue": "",
      "year": 2022,
      "referenceCount": 83,
      "citationCount": 8,
      "authors": [
        {
          "authorId": "143856160",
          "name": "Xiang Gao"
        },
        {
          "authorId": "2153561173",
          "name": "Cheng Luo"
        },
        {
          "authorId": "2152647864",
          "name": "Qinliang Lin"
        },
        {
          "authorId": "34181727",
          "name": "Weicheng Xie"
        },
        {
          "authorId": "46331737",
          "name": "Minmin Liu"
        },
        {
          "authorId": "2121272943",
          "name": "Linlin Shen"
        },
        {
          "authorId": "2885886",
          "name": "Keerthy Kusumam"
        },
        {
          "authorId": "1455999484",
          "name": "Siyang Song"
        }
      ]
    },
    {
      "paperId": "dcf1c28071f653c9ffbb72518ade6f1b96626a0e",
      "externalIds": {
        "DBLP": "journals/corr/abs-2508-13309",
        "ArXiv": "2508.13309",
        "DOI": "10.48550/arXiv.2508.13309",
        "CorpusId": 280686245
      },
      "url": "https://www.semanticscholar.org/paper/dcf1c28071f653c9ffbb72518ade6f1b96626a0e",
      "title": "DAASH: A Meta-Attack Framework for Synthesizing Effective and Stealthy Adversarial Examples",
      "venue": "arXiv.org",
      "year": 2025,
      "referenceCount": 48,
      "citationCount": 2,
      "authors": [
        {
          "authorId": "2278949043",
          "name": "Abdullah Al Nomaan Nafi"
        },
        {
          "authorId": "2280620469",
          "name": "Habibur Rahaman"
        },
        {
          "authorId": "2350549069",
          "name": "Zafaryab Haider"
        },
        {
          "authorId": "2280223805",
          "name": "Tanzim Mahfuz"
        },
        {
          "authorId": "32647882",
          "name": "Fnu Suya"
        },
        {
          "authorId": "145787089",
          "name": "S. Bhunia"
        },
        {
          "authorId": "145293829",
          "name": "Prabuddha Chakraborty"
        }
      ]
    }
  ]
}