{
  "total": 5527,
  "offset": 0,
  "next": 10,
  "data": [
    {
      "paperId": "2444be7584d1f5a7e2aa9f65078de09154f14ea1",
      "externalIds": {
        "MAG": "2949340494",
        "ArXiv": "1805.04770",
        "DBLP": "conf/icml/FurlanelloLTIA18",
        "CorpusId": 4110009
      },
      "url": "https://www.semanticscholar.org/paper/2444be7584d1f5a7e2aa9f65078de09154f14ea1",
      "title": "Born Again Neural Networks",
      "venue": "International Conference on Machine Learning",
      "year": 2018,
      "referenceCount": 55,
      "citationCount": 1193,
      "authors": [
        {
          "authorId": "2067208583",
          "name": "Tommaso Furlanello"
        },
        {
          "authorId": "32219137",
          "name": "Zachary Chase Lipton"
        },
        {
          "authorId": "143902495",
          "name": "Michael Tschannen"
        },
        {
          "authorId": "7326223",
          "name": "L. Itti"
        },
        {
          "authorId": "2047844",
          "name": "Anima Anandkumar"
        }
      ]
    },
    {
      "paperId": "57c84efbeebd8bdfc66f15eb6b7fcc24a117dcbf",
      "externalIds": {
        "DBLP": "journals/corr/abs-2109-15285",
        "CorpusId": 238226903
      },
      "url": "https://www.semanticscholar.org/paper/57c84efbeebd8bdfc66f15eb6b7fcc24a117dcbf",
      "title": "Born Again Neural Rankers",
      "venue": "arXiv.org",
      "year": 2021,
      "referenceCount": 38,
      "citationCount": 9,
      "authors": [
        {
          "authorId": "145144957",
          "name": "Zhen Qin"
        },
        {
          "authorId": "2110134250",
          "name": "Le Yan"
        },
        {
          "authorId": "144447820",
          "name": "Yi Tay"
        },
        {
          "authorId": "39371343",
          "name": "Honglei Zhuang"
        },
        {
          "authorId": "1526973500",
          "name": "Xuanhui Wang"
        },
        {
          "authorId": "1815447",
          "name": "Michael Bendersky"
        },
        {
          "authorId": "1398342639",
          "name": "Marc Najork"
        }
      ]
    },
    {
      "paperId": "9e971597c2727a72d18770af0ed554ded457c0a1",
      "externalIds": {
        "PubMedCentral": "12078725",
        "ArXiv": "2409.08940",
        "DOI": "10.1038/s41598-025-01250-5",
        "CorpusId": 272654038,
        "PubMed": "40369028"
      },
      "url": "https://www.semanticscholar.org/paper/9e971597c2727a72d18770af0ed554ded457c0a1",
      "title": "Representing Born effective charges with equivariant graph convolutional neural networks",
      "venue": "Scientific Reports",
      "year": 2024,
      "referenceCount": 81,
      "citationCount": 7,
      "authors": [
        {
          "authorId": "2274225130",
          "name": "Alex Kutana"
        },
        {
          "authorId": "2147201160",
          "name": "Koji Shimizu"
        },
        {
          "authorId": "2107367852",
          "name": "S. Watanabe"
        },
        {
          "authorId": "2190529921",
          "name": "Ryoji Asahi"
        }
      ]
    },
    {
      "paperId": "46aba4777fd3b4973a0986d20ec2b18e34734cc7",
      "externalIds": {
        "ArXiv": "2302.09321",
        "DOI": "10.1063/5.0147027",
        "CorpusId": 257038543,
        "PubMed": "37212404"
      },
      "url": "https://www.semanticscholar.org/paper/46aba4777fd3b4973a0986d20ec2b18e34734cc7",
      "title": "Implicit solvent approach based on generalized Born and transferable graph neural networks for molecular dynamics simulations.",
      "venue": "Journal of Chemical Physics",
      "year": 2023,
      "referenceCount": 43,
      "citationCount": 14,
      "authors": [
        {
          "authorId": "2135992573",
          "name": "Paul Katzberger"
        },
        {
          "authorId": "2302412",
          "name": "Sereina Riniker"
        }
      ]
    },
    {
      "paperId": "4c44598f727c399d053598b7abd9748b01806d66",
      "externalIds": {
        "DBLP": "journals/corr/abs-2310-01365",
        "ArXiv": "2310.01365",
        "DOI": "10.48550/arXiv.2310.01365",
        "CorpusId": 263605925
      },
      "url": "https://www.semanticscholar.org/paper/4c44598f727c399d053598b7abd9748b01806d66",
      "title": "Elephant Neural Networks: Born to Be a Continual Learner",
      "venue": "arXiv.org",
      "year": 2023,
      "referenceCount": 77,
      "citationCount": 11,
      "authors": [
        {
          "authorId": "51305487",
          "name": "Qingfeng Lan"
        },
        {
          "authorId": "2253402755",
          "name": "A. Mahmood"
        }
      ]
    },
    {
      "paperId": "48430ba3b692218bd61c499d619958518270edb5",
      "externalIds": {
        "DBLP": "conf/mlsp/NikoloskaS22",
        "ArXiv": "2203.17089",
        "DOI": "10.1109/MLSP55214.2022.9943342",
        "CorpusId": 247839600
      },
      "url": "https://www.semanticscholar.org/paper/48430ba3b692218bd61c499d619958518270edb5",
      "title": "Quantum-Aided Meta-Learning for Bayesian Binary Neural Networks via Born Machines",
      "venue": "International Workshop on Machine Learning for Signal Processing",
      "year": 2022,
      "referenceCount": 24,
      "citationCount": 4,
      "authors": [
        {
          "authorId": "3201367",
          "name": "I. Nikoloska"
        },
        {
          "authorId": "1705869",
          "name": "O. Simeone"
        }
      ]
    },
    {
      "paperId": "ac3b0a08163a0fdd7c43f37502d02411eae0abc0",
      "externalIds": {
        "DBLP": "journals/corr/SoltoggioSR17",
        "MAG": "2605353576",
        "ArXiv": "1703.10371",
        "DOI": "10.1016/j.neunet.2018.07.013",
        "CorpusId": 8366865,
        "PubMed": "30142505"
      },
      "url": "https://www.semanticscholar.org/paper/ac3b0a08163a0fdd7c43f37502d02411eae0abc0",
      "title": "Born to Learn: the Inspiration, Progress, and Future of Evolved Plastic Artificial Neural Networks",
      "venue": "Neural Networks",
      "year": 2017,
      "referenceCount": 362,
      "citationCount": 143,
      "authors": [
        {
          "authorId": "2818113",
          "name": "Andrea Soltoggio"
        },
        {
          "authorId": "1846883",
          "name": "Kenneth O. Stanley"
        },
        {
          "authorId": "1745664",
          "name": "S. Risi"
        }
      ]
    },
    {
      "paperId": "5d62d67859d6a8da1892e863e2b042cdaa7fb452",
      "externalIds": {
        "MAG": "3000523075",
        "DBLP": "journals/bioinformatics/MohamedESF20",
        "DOI": "10.1093/bioinformatics/btz818",
        "CorpusId": 207889591,
        "PubMed": "31693089"
      },
      "url": "https://www.semanticscholar.org/paper/5d62d67859d6a8da1892e863e2b042cdaa7fb452",
      "title": "Generalized Born radii computation using linear models and neural networks",
      "venue": "Bioinform.",
      "year": 2020,
      "referenceCount": 45,
      "citationCount": 6,
      "authors": [
        {
          "authorId": "2054735709",
          "name": "Saida S. Mohamed"
        },
        {
          "authorId": "10732108",
          "name": "G. Esposito"
        },
        {
          "authorId": "2275344",
          "name": "G. Serra"
        },
        {
          "authorId": "3100790",
          "name": "F. Fogolari"
        }
      ]
    },
    {
      "paperId": "e1639b74dbbdfc101a5a26bb06724a4b9435b672",
      "externalIds": {
        "DBLP": "conf/icde/Yang023",
        "DOI": "10.1109/ICDE55515.2023.00058",
        "CorpusId": 253518661
      },
      "url": "https://www.semanticscholar.org/paper/e1639b74dbbdfc101a5a26bb06724a4b9435b672",
      "title": "Revisiting Citation Prediction with Cluster-Aware Text-Enhanced Heterogeneous Graph Neural Networks",
      "venue": "IEEE International Conference on Data Engineering",
      "year": 2023,
      "referenceCount": 67,
      "citationCount": 19,
      "authors": [
        {
          "authorId": "1390553618",
          "name": "Carl Yang"
        },
        {
          "authorId": "2111759643",
          "name": "Jiawei Han"
        }
      ]
    },
    {
      "paperId": "500407a0e2279350a26f84bcfa32c02fa00a77b0",
      "externalIds": {
        "DOI": "10.1109/CAIT56099.2022.10072217",
        "CorpusId": 257721313
      },
      "url": "https://www.semanticscholar.org/paper/500407a0e2279350a26f84bcfa32c02fa00a77b0",
      "title": "BAN - MPR: Defending against Membership Inference Attacks with Born Again Networks and Membership Privacy Regularization",
      "venue": "2022 International Conference on Computers and Artificial Intelligence Technologies (CAIT)",
      "year": 2022,
      "referenceCount": 26,
      "citationCount": 1,
      "authors": [
        {
          "authorId": "2350064400",
          "name": "Yiqing Liu"
        },
        {
          "authorId": "46380590",
          "name": "Juan Yu"
        },
        {
          "authorId": "1864210",
          "name": "Jianmin Han"
        }
      ]
    }
  ]
}