{
  "total": 393,
  "offset": 0,
  "next": 10,
  "data": [
    {
      "paperId": "6fd9e3cb0cf23c8ef4aa7065d9be407c45250bff",
      "externalIds": {
        "DBLP": "conf/icml/LiuWYY16",
        "MAG": "2963656735",
        "ArXiv": "1612.02295",
        "CorpusId": 1829423
      },
      "url": "https://www.semanticscholar.org/paper/6fd9e3cb0cf23c8ef4aa7065d9be407c45250bff",
      "title": "Large-Margin Softmax Loss for Convolutional Neural Networks",
      "venue": "International Conference on Machine Learning",
      "year": 2016,
      "referenceCount": 35,
      "citationCount": 1571,
      "authors": [
        {
          "authorId": "36326884",
          "name": "Weiyang Liu"
        },
        {
          "authorId": "145357606",
          "name": "Yandong Wen"
        },
        {
          "authorId": "1751019",
          "name": "Zhiding Yu"
        },
        {
          "authorId": "145339754",
          "name": "Meng Yang"
        }
      ]
    },
    {
      "paperId": "00630894845c8f34dab19c4c765432edbada45f2",
      "externalIds": {
        "MAG": "2755843045",
        "DOI": "10.23919/CHICC.2017.8027991",
        "CorpusId": 35544798
      },
      "url": "https://www.semanticscholar.org/paper/00630894845c8f34dab19c4c765432edbada45f2",
      "title": "Convolutional neural networks with large-margin softmax loss function for cognitive load recognition",
      "venue": "Cybersecurity and Cyberforensics Conference",
      "year": 2017,
      "referenceCount": 27,
      "citationCount": 23,
      "authors": [
        {
          "authorId": "2119034429",
          "name": "Yuetian Liu"
        },
        {
          "authorId": "48873988",
          "name": "Qingshan Liu"
        }
      ]
    },
    {
      "paperId": "9dc915697768dd1f7c7b97e2c25c90b02241958b",
      "externalIds": {
        "ArXiv": "1801.09414",
        "MAG": "2786817236",
        "DBLP": "conf/cvpr/WangWZJGZL018",
        "DOI": "10.1109/CVPR.2018.00552",
        "CorpusId": 68589
      },
      "url": "https://www.semanticscholar.org/paper/9dc915697768dd1f7c7b97e2c25c90b02241958b",
      "title": "CosFace: Large Margin Cosine Loss for Deep Face Recognition",
      "venue": "2018 IEEE/CVF Conference on Computer Vision and Pattern Recognition",
      "year": 2018,
      "referenceCount": 48,
      "citationCount": 2910,
      "authors": [
        {
          "authorId": "48016309",
          "name": "H. Wang"
        },
        {
          "authorId": "1996677",
          "name": "Yitong Wang"
        },
        {
          "authorId": "2118666112",
          "name": "Zheng Zhou"
        },
        {
          "authorId": "144496962",
          "name": "Xing Ji"
        },
        {
          "authorId": "2111316339",
          "name": "Zhifeng Li"
        },
        {
          "authorId": "2856494",
          "name": "Dihong Gong"
        },
        {
          "authorId": "2145787220",
          "name": "Jin Zhou"
        },
        {
          "authorId": null,
          "name": "Wei Liu"
        }
      ]
    },
    {
      "paperId": "7d5563205a58f19db58fc7f023b98ec0171ffd3c",
      "externalIds": {
        "MAG": "2995862373",
        "DOI": "10.3390/app10010060",
        "CorpusId": 214562473
      },
      "url": "https://www.semanticscholar.org/paper/7d5563205a58f19db58fc7f023b98ec0171ffd3c",
      "title": "Double Additive Margin Softmax Loss for Face Recognition",
      "venue": "Applied Sciences",
      "year": 2019,
      "referenceCount": 26,
      "citationCount": 8,
      "authors": [
        {
          "authorId": "2158405121",
          "name": "Shengwei Zhou"
        },
        {
          "authorId": "1995727",
          "name": "Caikou Chen"
        },
        {
          "authorId": "94228126",
          "name": "Guojiang Han"
        },
        {
          "authorId": "27071699",
          "name": "Xielian Hou"
        }
      ]
    },
    {
      "paperId": "1b3e7caf4b456e3762a827aa623c3fb88ca0b1a0",
      "externalIds": {
        "MAG": "2898625448",
        "DOI": "10.1145/3265639.3265679",
        "CorpusId": 53113695
      },
      "url": "https://www.semanticscholar.org/paper/1b3e7caf4b456e3762a827aa623c3fb88ca0b1a0",
      "title": "Contrapositive Margin Softmax Loss for Face Verification",
      "venue": "International Conference on Robotics, Control and Automation",
      "year": 2018,
      "referenceCount": 16,
      "citationCount": 3,
      "authors": [
        {
          "authorId": "2116459043",
          "name": "Dong-dong Xu"
        },
        {
          "authorId": "7345195",
          "name": "Qijun Zhao"
        }
      ]
    },
    {
      "paperId": "45018128d38ce62e286bd9aebf9ceb545576b2aa",
      "externalIds": {
        "DBLP": "conf/acomp/DuongNT22",
        "DOI": "10.1109/ACOMPA57018.2022.00013",
        "CorpusId": 255599323
      },
      "url": "https://www.semanticscholar.org/paper/45018128d38ce62e286bd9aebf9ceb545576b2aa",
      "title": "Large Margin Cotangent Loss for Deep Similarity Learning",
      "venue": "2022 International Conference on Advanced Computing and Analytics (ACOMPA)",
      "year": 2022,
      "referenceCount": 34,
      "citationCount": 2,
      "authors": [
        {
          "authorId": "2113631419",
          "name": "Anh-Kiet Duong"
        },
        {
          "authorId": "2200450930",
          "name": "Hoang-Lan Nguyen"
        },
        {
          "authorId": "3187061",
          "name": "Toan-Thinh Truong"
        }
      ]
    },
    {
      "paperId": "0c88506b5e6091906e656dfeb9ee1060946d4aab",
      "externalIds": {
        "DBLP": "conf/bmvc/Kobayashi19",
        "CorpusId": 203651111
      },
      "url": "https://www.semanticscholar.org/paper/0c88506b5e6091906e656dfeb9ee1060946d4aab",
      "title": "Large Margin In Softmax Cross-Entropy Loss",
      "venue": "British Machine Vision Conference",
      "year": 2019,
      "referenceCount": 32,
      "citationCount": 25,
      "authors": [
        {
          "authorId": "1597770228",
          "name": "Takumi Kobayashi"
        }
      ]
    },
    {
      "paperId": "d2c0daf189722ff66031878d41dbaaef81a48f8a",
      "externalIds": {
        "MAG": "2884397828",
        "DBLP": "journals/tnn/ShiGTCZ19",
        "DOI": "10.1109/TNNLS.2018.2852721",
        "CorpusId": 51721473,
        "PubMed": "30047915"
      },
      "url": "https://www.semanticscholar.org/paper/d2c0daf189722ff66031878d41dbaaef81a48f8a",
      "title": "Fine-Grained Image Classification Using Modified DCNNs Trained by Cascaded Softmax and Generalized Large-Margin Losses",
      "venue": "IEEE Transactions on Neural Networks and Learning Systems",
      "year": 2019,
      "referenceCount": 43,
      "citationCount": 59,
      "authors": [
        {
          "authorId": "46810921",
          "name": "Weiwei Shi"
        },
        {
          "authorId": "144768792",
          "name": "Yihong Gong"
        },
        {
          "authorId": "48391855",
          "name": "Xiaoyu Tao"
        },
        {
          "authorId": "145067864",
          "name": "De Cheng"
        },
        {
          "authorId": "122737130",
          "name": "N. Zheng"
        }
      ]
    },
    {
      "paperId": "327112db221d4b6da166b07feae8d23fc5aa99cb",
      "externalIds": {
        "DOI": "10.1142/s1793048024400022",
        "CorpusId": 271983615
      },
      "url": "https://www.semanticscholar.org/paper/327112db221d4b6da166b07feae8d23fc5aa99cb",
      "title": "Discriminative Feature Learning Through Angular Margin-Based Softmax Losses for Breast Cancer Classification",
      "venue": "Biophysical Reviews and Letters",
      "year": 2024,
      "referenceCount": 0,
      "citationCount": 1,
      "authors": [
        {
          "authorId": "2325779775",
          "name": "P. Alirezazadeh"
        },
        {
          "authorId": "2244511471",
          "name": "F. Dornaika"
        },
        {
          "authorId": "2944763",
          "name": "A. Moujahid"
        }
      ]
    },
    {
      "paperId": "3447a47b9c3b262cfc28103fcc3156ce70aab5ee",
      "externalIds": {
        "DBLP": "journals/es/DasCP22",
        "MAG": "3199064563",
        "DOI": "10.1111/exsy.12804",
        "CorpusId": 240561445
      },
      "url": "https://www.semanticscholar.org/paper/3447a47b9c3b262cfc28103fcc3156ce70aab5ee",
      "title": "Environmental sound classification using convolution neural networks with different integrated loss functions",
      "venue": "Expert Syst. J. Knowl. Eng.",
      "year": 2021,
      "referenceCount": 64,
      "citationCount": 9,
      "authors": [
        {
          "authorId": "1576549932",
          "name": "Joyshree Das"
        },
        {
          "authorId": "35650385",
          "name": "Amitabha Chakrabarty"
        },
        {
          "authorId": "27648067",
          "name": "Md. Jalil Piran"
        }
      ]
    }
  ]
}