{
  "total": 19,
  "offset": 0,
  "next": 10,
  "data": [
    {
      "paperId": "edddff6d0a7e8db141d2007d5f20e33246bc69b4",
      "externalIds": {
        "MAG": "1823267657",
        "DBLP": "journals/corr/HugginsNSM15",
        "ArXiv": "1503.00332",
        "CorpusId": 14662629
      },
      "url": "https://www.semanticscholar.org/paper/edddff6d0a7e8db141d2007d5f20e33246bc69b4",
      "title": "JUMP-Means: Small-Variance Asymptotics for Markov Jump Processes",
      "venue": "International Conference on Machine Learning",
      "year": 2015,
      "referenceCount": 26,
      "citationCount": 14,
      "authors": [
        {
          "authorId": "39256289",
          "name": "Jonathan Huggins"
        },
        {
          "authorId": "144958935",
          "name": "Karthik Narasimhan"
        },
        {
          "authorId": "3231182",
          "name": "A. Saeedi"
        },
        {
          "authorId": "1735083",
          "name": "Vikash K. Mansinghka"
        }
      ]
    },
    {
      "paperId": "c42e5504f960e0444022f18e8a374bc79d0e8073",
      "externalIds": {
        "DOI": "10.1007/s11009-024-10100-2",
        "CorpusId": 272035728
      },
      "url": "https://www.semanticscholar.org/paper/c42e5504f960e0444022f18e8a374bc79d0e8073",
      "title": "A Unified Approach for Hitting Time of Jump Markov Type Processes",
      "venue": "Methodology and Computing in Applied Probability",
      "year": 2024,
      "referenceCount": 9,
      "citationCount": 0,
      "authors": [
        {
          "authorId": "2568664",
          "name": "N. Limnios"
        },
        {
          "authorId": "2317925095",
          "name": "Bei Wu"
        }
      ]
    },
    {
      "paperId": "b8a314b633f470380e90e807e214a941a20a9b72",
      "externalIds": {
        "MAG": "2029645980",
        "DOI": "10.1007/BF01448199",
        "CorpusId": 121662736
      },
      "url": "https://www.semanticscholar.org/paper/b8a314b633f470380e90e807e214a941a20a9b72",
      "title": "Asymptotic expansions for Markov processes with lévy generators",
      "venue": "",
      "year": 1989,
      "referenceCount": 22,
      "citationCount": 29,
      "authors": [
        {
          "authorId": "34793579",
          "name": "W. Fleming"
        },
        {
          "authorId": "1697174",
          "name": "H. M. Soner"
        }
      ]
    },
    {
      "paperId": "1c74fcf74ef05268ef8b5f060f4354f377499aa7",
      "externalIds": {
        "ArXiv": "2505.19378",
        "CorpusId": 278905835
      },
      "url": "https://www.semanticscholar.org/paper/1c74fcf74ef05268ef8b5f060f4354f377499aa7",
      "title": "Residual Diffusivity for Expanding Bernoulli Maps",
      "venue": "",
      "year": 2025,
      "referenceCount": 52,
      "citationCount": 0,
      "authors": [
        {
          "authorId": "2294174791",
          "name": "William Cooperman"
        },
        {
          "authorId": "2321873088",
          "name": "G. Iyer"
        },
        {
          "authorId": "2321872133",
          "name": "J. Nolen"
        }
      ]
    },
    {
      "paperId": "8f9084ef666e8c2b471fdf3efba1ee515cccc1d7",
      "externalIds": {
        "MAG": "1642846203",
        "CorpusId": 54975941
      },
      "url": "https://www.semanticscholar.org/paper/8f9084ef666e8c2b471fdf3efba1ee515cccc1d7",
      "title": "Bandwidth selection for continuous-time Markov processes",
      "venue": "",
      "year": 2009,
      "referenceCount": 34,
      "citationCount": 12,
      "authors": [
        {
          "authorId": "103147847",
          "name": "F. Bandi"
        },
        {
          "authorId": "2578662",
          "name": "V. Corradi"
        },
        {
          "authorId": "115426687",
          "name": "Guillermo Moloche"
        }
      ]
    },
    {
      "paperId": "4bce1c6e960d1dd0f61384fc132345ce6fd5fc46",
      "externalIds": {
        "DBLP": "journals/jota/Wernerfelt25",
        "DOI": "10.1007/s10957-025-02690-9",
        "CorpusId": 279052611
      },
      "url": "https://www.semanticscholar.org/paper/4bce1c6e960d1dd0f61384fc132345ce6fd5fc46",
      "title": "Stochastic Differential Games and Optimization Problems with Controlled Point Process Arrivals",
      "venue": "Journal of Optimization Theory and Applications",
      "year": 2025,
      "referenceCount": 14,
      "citationCount": 0,
      "authors": [
        {
          "authorId": "2905833",
          "name": "Birger Wernerfelt"
        }
      ]
    },
    {
      "paperId": "5edc999af33a352e29f338fb1eb0e6bcb0e62d7b",
      "externalIds": {
        "MAG": "2052604482",
        "DOI": "10.2969/JMSJ/04740755",
        "CorpusId": 121635137
      },
      "url": "https://www.semanticscholar.org/paper/5edc999af33a352e29f338fb1eb0e6bcb0e62d7b",
      "title": "Metastable behaviors of diffusion processes with small parameter",
      "venue": "",
      "year": 1995,
      "referenceCount": 21,
      "citationCount": 17,
      "authors": [
        {
          "authorId": "104423044",
          "name": "M. Sugiura"
        }
      ]
    },
    {
      "paperId": "a2e9bd585f7a7decdbde31dc413d9fdbe6bd0626",
      "externalIds": {
        "CorpusId": 271220333
      },
      "url": "https://www.semanticscholar.org/paper/a2e9bd585f7a7decdbde31dc413d9fdbe6bd0626",
      "title": "Approximation of epidemic models by diffusion processes and Statistical applications",
      "venue": "",
      "year": null,
      "referenceCount": 1,
      "citationCount": 0,
      "authors": [
        {
          "authorId": "2081108895",
          "name": "Catherine Larédo"
        },
        {
          "authorId": "50655563",
          "name": "Romain Guy"
        },
        {
          "authorId": "3084585",
          "name": "E. Vergu"
        },
        {
          "authorId": "2311537911",
          "name": "Catherine Lar´edo"
        }
      ]
    },
    {
      "paperId": "7c999a048bde311550f33e79375f6237680f750a",
      "externalIds": {
        "MAG": "2342042960",
        "CorpusId": 67756636
      },
      "url": "https://www.semanticscholar.org/paper/7c999a048bde311550f33e79375f6237680f750a",
      "title": "Approximation and inference of epidemic dynamics by diffusion processes",
      "venue": "",
      "year": 2016,
      "referenceCount": 30,
      "citationCount": 4,
      "authors": [
        {
          "authorId": "50655563",
          "name": "Romain Guy"
        },
        {
          "authorId": "1769208",
          "name": "C. Larédo"
        },
        {
          "authorId": "3084585",
          "name": "E. Vergu"
        }
      ]
    },
    {
      "paperId": "34210250f608019bf7121842746b291af90938f5",
      "externalIds": {
        "MAG": "18360154",
        "DOI": "10.1007/978-3-319-05140-6_8",
        "CorpusId": 115249039
      },
      "url": "https://www.semanticscholar.org/paper/34210250f608019bf7121842746b291af90938f5",
      "title": "From Microscopic to Macroscopic Descriptions",
      "venue": "",
      "year": 2014,
      "referenceCount": 100,
      "citationCount": 12,
      "authors": [
        {
          "authorId": "3050491",
          "name": "J. Banasiak"
        },
        {
          "authorId": "145150268",
          "name": "M. Lachowicz"
        }
      ]
    }
  ]
}