{
  "total": 374,
  "offset": 0,
  "next": 10,
  "data": [
    {
      "paperId": "188d0a30b28df2289010e7453af84c41b0cb62db",
      "externalIds": {
        "DBLP": "conf/icml/CherapanamjeriG17",
        "MAG": "2963739640",
        "ArXiv": "1606.07315",
        "CorpusId": 2090797
      },
      "url": "https://www.semanticscholar.org/paper/188d0a30b28df2289010e7453af84c41b0cb62db",
      "title": "Nearly Optimal Robust Matrix Completion",
      "venue": "International Conference on Machine Learning",
      "year": 2016,
      "referenceCount": 23,
      "citationCount": 103,
      "authors": [
        {
          "authorId": "3422842",
          "name": "Yeshwanth Cherapanamjeri"
        },
        {
          "authorId": "1491124544",
          "name": "Kartik Gupta"
        },
        {
          "authorId": "48964143",
          "name": "Prateek Jain"
        }
      ]
    },
    {
      "paperId": "b5ba7ae695b6f073055242bec0adbcd74fc891de",
      "externalIds": {
        "CorpusId": 265096095
      },
      "url": "https://www.semanticscholar.org/paper/b5ba7ae695b6f073055242bec0adbcd74fc891de",
      "title": "Nearly Optimal Robust Matrix Completion",
      "venue": "",
      "year": null,
      "referenceCount": 0,
      "citationCount": 0,
      "authors": []
    },
    {
      "paperId": "bbdaf0e4bdb7cfb9d411d7d18ec6fc630a24eb81",
      "externalIds": {
        "MAG": "2404322182",
        "DBLP": "conf/icassp/LiuAAWW16",
        "DOI": "10.1109/ICASSP.2016.7472133",
        "CorpusId": 4764316
      },
      "url": "https://www.semanticscholar.org/paper/bbdaf0e4bdb7cfb9d411d7d18ec6fc630a24eb81",
      "title": "Tensor completion via adaptive sampling of tensor fibers: Application to efficient indoor RF fingerprinting",
      "venue": "IEEE International Conference on Acoustics, Speech, and Signal Processing",
      "year": 2016,
      "referenceCount": 25,
      "citationCount": 20,
      "authors": [
        {
          "authorId": "4029028",
          "name": "Xiao-Yang Liu"
        },
        {
          "authorId": "1980683",
          "name": "S. Aeron"
        },
        {
          "authorId": "1732805",
          "name": "V. Aggarwal"
        },
        {
          "authorId": "47119575",
          "name": "Xiaodong Wang"
        },
        {
          "authorId": "144492515",
          "name": "Minyou Wu"
        }
      ]
    },
    {
      "paperId": "df6826d1bbd7ec98e66321ffaf65f3273d056a7a",
      "externalIds": {
        "ArXiv": "2502.06564",
        "CorpusId": 276249517
      },
      "url": "https://www.semanticscholar.org/paper/df6826d1bbd7ec98e66321ffaf65f3273d056a7a",
      "title": "Nearly Optimal Robust Covariance and Scatter Matrix Estimation Beyond Gaussians",
      "venue": "",
      "year": 2025,
      "referenceCount": 29,
      "citationCount": 0,
      "authors": [
        {
          "authorId": "145521984",
          "name": "Gleb Novikov"
        }
      ]
    },
    {
      "paperId": "ef3780f230ad9c002dd6df95efb7cf4fd303c15d",
      "externalIds": {
        "MAG": "3094419839",
        "DBLP": "conf/mlsp/RuppelMZ20",
        "DOI": "10.1109/MLSP49062.2020.9231573",
        "CorpusId": 225050737
      },
      "url": "https://www.semanticscholar.org/paper/ef3780f230ad9c002dd6df95efb7cf4fd303c15d",
      "title": "Globally Optimal Robust Matrix Completion Based on M-Estimation",
      "venue": "International Workshop on Machine Learning for Signal Processing",
      "year": 2020,
      "referenceCount": 21,
      "citationCount": 5,
      "authors": [
        {
          "authorId": "2000961484",
          "name": "Felicia Ruppel"
        },
        {
          "authorId": "2162509",
          "name": "Michael Muma"
        },
        {
          "authorId": "1799928",
          "name": "A. Zoubir"
        }
      ]
    },
    {
      "paperId": "99cc2e6101515b9464dc6da0bf3a443290010a59",
      "externalIds": {
        "ArXiv": "2302.11068",
        "DBLP": "conf/iclr/Gu0Y024",
        "DOI": "10.48550/arXiv.2302.11068",
        "CorpusId": 257079026
      },
      "url": "https://www.semanticscholar.org/paper/99cc2e6101515b9464dc6da0bf3a443290010a59",
      "title": "Low Rank Matrix Completion via Robust Alternating Minimization in Nearly Linear Time",
      "venue": "International Conference on Learning Representations",
      "year": 2023,
      "referenceCount": 61,
      "citationCount": 36,
      "authors": [
        {
          "authorId": "3422935",
          "name": "Yuzhou Gu"
        },
        {
          "authorId": "143825455",
          "name": "Zhao Song"
        },
        {
          "authorId": "2203940167",
          "name": "Junze Yin"
        },
        {
          "authorId": "2108808080",
          "name": "Licheng Zhang"
        }
      ]
    },
    {
      "paperId": "e79237c78cd3efb35216e166645f38e9a309499e",
      "externalIds": {
        "ArXiv": "2206.04276",
        "DBLP": "journals/corr/abs-2206-04276",
        "DOI": "10.1080/01621459.2024.2375037",
        "CorpusId": 249538322
      },
      "url": "https://www.semanticscholar.org/paper/e79237c78cd3efb35216e166645f38e9a309499e",
      "title": "Robust Matrix Completion with Heavy-Tailed Noise",
      "venue": "Journal of the American Statistical Association",
      "year": 2022,
      "referenceCount": 87,
      "citationCount": 16,
      "authors": [
        {
          "authorId": "2155840807",
          "name": "Bingyan Wang"
        },
        {
          "authorId": "144958605",
          "name": "Jianqing Fan"
        }
      ]
    },
    {
      "paperId": "2d412545da56794a68abb3117c0c495d311924e2",
      "externalIds": {
        "DBLP": "journals/corr/abs-2501-00677",
        "ArXiv": "2501.00677",
        "DOI": "10.1109/TPAMI.2026.3659041",
        "CorpusId": 275212655,
        "PubMed": "41610359"
      },
      "url": "https://www.semanticscholar.org/paper/2d412545da56794a68abb3117c0c495d311924e2",
      "title": "Deeply Learned Robust Matrix Completion for Large-scale Low-rank Data Recovery",
      "venue": "IEEE Transactions on Pattern Analysis and Machine Intelligence",
      "year": 2024,
      "referenceCount": 0,
      "citationCount": 4,
      "authors": [
        {
          "authorId": "2316577811",
          "name": "Hanqin Cai"
        },
        {
          "authorId": "2281747462",
          "name": "Chandra Kundu"
        },
        {
          "authorId": "2316358295",
          "name": "Jialin Liu"
        },
        {
          "authorId": "2261082763",
          "name": "Wotao Yin"
        }
      ]
    },
    {
      "paperId": "8691fd4365149cf1fb86635d562390852210670b",
      "externalIds": {
        "DOI": "10.1007/s40065-025-00497-0",
        "CorpusId": 276304679
      },
      "url": "https://www.semanticscholar.org/paper/8691fd4365149cf1fb86635d562390852210670b",
      "title": "Decoupled matrix Riccati differential equations approach for robust boundary data completion in time-fractional diffusion problems",
      "venue": "Arabian Journal of Mathematics",
      "year": 2025,
      "referenceCount": 41,
      "citationCount": 0,
      "authors": [
        {
          "authorId": "70664361",
          "name": "Fadhel Jday"
        },
        {
          "authorId": "102464509",
          "name": "R. Mdimagh"
        },
        {
          "authorId": "2211744663",
          "name": "Haithem Omri"
        }
      ]
    },
    {
      "paperId": "93ebc06ee4b82279d449d78a1a5f3536ade4f1cf",
      "externalIds": {
        "MAG": "3112099078",
        "ArXiv": "2012.06750",
        "CorpusId": 229153955
      },
      "url": "https://www.semanticscholar.org/paper/93ebc06ee4b82279d449d78a1a5f3536ade4f1cf",
      "title": "Outlier-robust sparse/low-rank least-squares regression and robust matrix completion",
      "venue": "",
      "year": 2020,
      "referenceCount": 95,
      "citationCount": 9,
      "authors": [
        {
          "authorId": "144417734",
          "name": "Philip Thompson"
        }
      ]
    }
  ]
}