{
  "total": 7955,
  "offset": 0,
  "next": 10,
  "data": [
    {
      "paperId": "62a8bab59281b962a1fa6c3427bad94a28951df0",
      "externalIds": {
        "MAG": "2962862099",
        "DBLP": "conf/icml/OsamaZS18",
        "ArXiv": "1802.03334",
        "CorpusId": 3647663
      },
      "url": "https://www.semanticscholar.org/paper/62a8bab59281b962a1fa6c3427bad94a28951df0",
      "title": "Learning Localized Spatio-Temporal Models From Streaming Data",
      "venue": "International Conference on Machine Learning",
      "year": 2018,
      "referenceCount": 27,
      "citationCount": 1,
      "authors": [
        {
          "authorId": "2343722926",
          "name": "M. Osama"
        },
        {
          "authorId": "1693857",
          "name": "D. Zachariah"
        },
        {
          "authorId": "1802623",
          "name": "Thomas Bo Schön"
        }
      ]
    },
    {
      "paperId": "b7e9525f663c4ff2018e5803786efbb2241280b3",
      "externalIds": {
        "CorpusId": 260546950
      },
      "url": "https://www.semanticscholar.org/paper/b7e9525f663c4ff2018e5803786efbb2241280b3",
      "title": "Learning Localized Spatio-Temporal Models From Streaming Data : Supplementary Material 1 Reformulating of fitting criterion",
      "venue": "",
      "year": 2018,
      "referenceCount": 4,
      "citationCount": 1,
      "authors": []
    },
    {
      "paperId": "da08f67de07d0e80f500bff587707e19199681cf",
      "externalIds": {
        "DBLP": "journals/tkde/MiaoZGYZJ25",
        "DOI": "10.1109/TKDE.2025.3528876",
        "CorpusId": 275562806
      },
      "url": "https://www.semanticscholar.org/paper/da08f67de07d0e80f500bff587707e19199681cf",
      "title": "Spatio-Temporal Prediction on Streaming Data: A Unified Federated Continuous Learning Framework",
      "venue": "IEEE Transactions on Knowledge and Data Engineering",
      "year": 2025,
      "referenceCount": 54,
      "citationCount": 18,
      "authors": [
        {
          "authorId": "2238113750",
          "name": "Hao Miao"
        },
        {
          "authorId": "2300134617",
          "name": "Yan Zhao"
        },
        {
          "authorId": "2637615",
          "name": "Chenjuan Guo"
        },
        {
          "authorId": "2118583402",
          "name": "Bin Yang"
        },
        {
          "authorId": "2238123868",
          "name": "Kai Zheng"
        },
        {
          "authorId": "2238129205",
          "name": "Christian S. Jensen"
        }
      ]
    },
    {
      "paperId": "68f8c6ca1b6cee5d593c4e143b4b1680bd189a96",
      "externalIds": {
        "DBLP": "journals/corr/abs-2404-14999",
        "ArXiv": "2404.14999",
        "DOI": "10.1109/ICDE60146.2024.00085",
        "CorpusId": 269303110
      },
      "url": "https://www.semanticscholar.org/paper/68f8c6ca1b6cee5d593c4e143b4b1680bd189a96",
      "title": "A Unified Replay-Based Continuous Learning Framework for Spatio-Temporal Prediction on Streaming Data",
      "venue": "IEEE International Conference on Data Engineering",
      "year": 2024,
      "referenceCount": 57,
      "citationCount": 87,
      "authors": [
        {
          "authorId": "2238113750",
          "name": "Hao Miao"
        },
        {
          "authorId": "2119327295",
          "name": "Yan Zhao"
        },
        {
          "authorId": "2637615",
          "name": "Chenjuan Guo"
        },
        {
          "authorId": "2283839433",
          "name": "Bin Yang"
        },
        {
          "authorId": "2052688556",
          "name": "Kai Zheng"
        },
        {
          "authorId": "2117427074",
          "name": "Feiteng Huang"
        },
        {
          "authorId": "2283175480",
          "name": "Jiandong Xie"
        },
        {
          "authorId": "2297771441",
          "name": "Christian S. Jensen"
        }
      ]
    },
    {
      "paperId": "85845a487422204cb77faa4f759b4d5d1f36aa35",
      "externalIds": {
        "DBLP": "conf/ssd/ZhangHZG025",
        "DOI": "10.1145/3748777.3748812",
        "CorpusId": 282103212
      },
      "url": "https://www.semanticscholar.org/paper/85845a487422204cb77faa4f759b4d5d1f36aa35",
      "title": "Learning from Spatio-Temporal Data in the LLM Era: Foundations, Models, and Emerging Trends",
      "venue": "International Symposium on Spatial and Temporal Databases",
      "year": 2025,
      "referenceCount": 62,
      "citationCount": 0,
      "authors": [
        {
          "authorId": "2187882131",
          "name": "Zijian Zhang"
        },
        {
          "authorId": "2381722223",
          "name": "Xiao Han"
        },
        {
          "authorId": "2309219661",
          "name": "Xiangyu Zhao"
        },
        {
          "authorId": "2637615",
          "name": "Chenjuan Guo"
        },
        {
          "authorId": "2283839433",
          "name": "Bin Yang"
        }
      ]
    },
    {
      "paperId": "ea59b6c5ade2e5601f70f4f40d5c5962b591c529",
      "externalIds": {
        "DBLP": "journals/corr/abs-2503-13502",
        "ArXiv": "2503.13502",
        "DOI": "10.1145/3711896.3736552",
        "CorpusId": 277104104
      },
      "url": "https://www.semanticscholar.org/paper/ea59b6c5ade2e5601f70f4f40d5c5962b591c529",
      "title": "Foundation Models for Spatio-Temporal Data Science: A Tutorial and Survey",
      "venue": "Knowledge Discovery and Data Mining",
      "year": 2025,
      "referenceCount": 174,
      "citationCount": 36,
      "authors": [
        {
          "authorId": "2253824408",
          "name": "Yuxuan Liang"
        },
        {
          "authorId": "2262445381",
          "name": "Haomin Wen"
        },
        {
          "authorId": "2279954226",
          "name": "Yutong Xia"
        },
        {
          "authorId": "2254096428",
          "name": "Ming Jin"
        },
        {
          "authorId": "2298971233",
          "name": "Bin Yang"
        },
        {
          "authorId": "2293006761",
          "name": "Flora D. Salim"
        },
        {
          "authorId": "2327621881",
          "name": "Qingsong Wen"
        },
        {
          "authorId": "2254047333",
          "name": "Shirui Pan"
        },
        {
          "authorId": "2273940394",
          "name": "Gao Cong"
        }
      ]
    },
    {
      "paperId": "3a78143699110ab1f0cd15e99c74500765340275",
      "externalIds": {
        "DBLP": "conf/icdm/OzbulakSC25",
        "DOI": "10.1109/ICDM65498.2025.00083",
        "CorpusId": 286016999
      },
      "url": "https://www.semanticscholar.org/paper/3a78143699110ab1f0cd15e99c74500765340275",
      "title": "CAST-GNN: Continual Adaptive Learning for Custom Spatio-Temporal Knowledge Graphs via Graph Neural Networks",
      "venue": "Industrial Conference on Data Mining",
      "year": 2025,
      "referenceCount": 31,
      "citationCount": 0,
      "authors": [
        {
          "authorId": "2419572132",
          "name": "Gözde Ayşe Tataroğlu Özbulak"
        },
        {
          "authorId": "2698101",
          "name": "Y. Shrestha"
        },
        {
          "authorId": "1795889",
          "name": "Jean-Paul Calbimonte"
        }
      ]
    },
    {
      "paperId": "c04dd88db120bfa5fc8b499c1ae945ac434ffb93",
      "externalIds": {
        "DOI": "10.1016/j.sste.2025.100741",
        "CorpusId": 280707972,
        "PubMed": "40935501"
      },
      "url": "https://www.semanticscholar.org/paper/c04dd88db120bfa5fc8b499c1ae945ac434ffb93",
      "title": "DeepEVD: Integrating Epidemiological data into deep learning frameworks based on spatio-temporal feature learning for EVD forecasting.",
      "venue": "Spatial and Spatio-temporal Epidemiology",
      "year": 2025,
      "referenceCount": 36,
      "citationCount": 1,
      "authors": [
        {
          "authorId": "1738456180",
          "name": "Abdul Joseph Fofanah"
        },
        {
          "authorId": "2334069239",
          "name": "A. Kamara"
        },
        {
          "authorId": "2349515645",
          "name": "Albert Patrick Sankoh"
        },
        {
          "authorId": "2221364559",
          "name": "Tiegang Gao"
        },
        {
          "authorId": "2349468352",
          "name": "Ibrahim Dumbuya"
        },
        {
          "authorId": "2349464487",
          "name": "Zachariyah Bai Conteh"
        }
      ]
    },
    {
      "paperId": "45afad29f8286b6c48d685f7ad9dfebdd8627ffa",
      "externalIds": {
        "DBLP": "journals/tkde/FangMLDCZXZPJZZ26",
        "ArXiv": "2506.01364",
        "DOI": "10.1109/TKDE.2026.3651536",
        "CorpusId": 279074991
      },
      "url": "https://www.semanticscholar.org/paper/45afad29f8286b6c48d685f7ad9dfebdd8627ffa",
      "title": "Unraveling Spatio-Temporal Foundation Models via the Pipeline Lens: A Comprehensive Review",
      "venue": "IEEE Transactions on Knowledge and Data Engineering",
      "year": 2025,
      "referenceCount": 248,
      "citationCount": 14,
      "authors": [
        {
          "authorId": "2327133437",
          "name": "Yuchen Fang"
        },
        {
          "authorId": "2363498610",
          "name": "H. Miao"
        },
        {
          "authorId": "2328193900",
          "name": "Yuxuan Liang"
        },
        {
          "authorId": "2114190929",
          "name": "Liwei Deng"
        },
        {
          "authorId": "2020706368",
          "name": "Yue Cui"
        },
        {
          "authorId": "2148490846",
          "name": "Ximu Zeng"
        },
        {
          "authorId": "2111274326",
          "name": "Yuyang Xia"
        },
        {
          "authorId": "2365056440",
          "name": "Yan Zhao"
        },
        {
          "authorId": "2056515858",
          "name": "T. Pedersen"
        },
        {
          "authorId": "2341145105",
          "name": "Christian S. Jensen"
        },
        {
          "authorId": "2282601133",
          "name": "Xiaofang Zhou"
        },
        {
          "authorId": "2332350566",
          "name": "Kai Zheng"
        }
      ]
    },
    {
      "paperId": "950192b52d53da7ff0eb317019343de0d25620b6",
      "externalIds": {
        "DBLP": "conf/icdm/WangLHLHTP25",
        "DOI": "10.1109/ICDM65498.2025.00169",
        "CorpusId": 286017052
      },
      "url": "https://www.semanticscholar.org/paper/950192b52d53da7ff0eb317019343de0d25620b6",
      "title": "Class-Aware Spatio-Temporal Graph Contrastive Learning for Multivariate Time Series Data",
      "venue": "Industrial Conference on Data Mining",
      "year": 2025,
      "referenceCount": 34,
      "citationCount": 0,
      "authors": [
        {
          "authorId": "2244683939",
          "name": "Yining Wang"
        },
        {
          "authorId": "2149142008",
          "name": "Ke Li"
        },
        {
          "authorId": "2276537132",
          "name": "Fujun Han"
        },
        {
          "authorId": "2378193923",
          "name": "Shuhan Liu"
        },
        {
          "authorId": "2327841217",
          "name": "Xuan Hou"
        },
        {
          "authorId": "3422789",
          "name": "Dejun Teng"
        },
        {
          "authorId": "2320819652",
          "name": "Zhaohui Peng"
        }
      ]
    }
  ]
}