{
  "total": 7437,
  "offset": 0,
  "next": 10,
  "data": [
    {
      "paperId": "4e748b630babb9c365c234c66b07224eb9153083",
      "externalIds": {
        "DBLP": "conf/icml/IzbickiS15",
        "MAG": "1883134643",
        "CorpusId": 10498952
      },
      "url": "https://www.semanticscholar.org/paper/4e748b630babb9c365c234c66b07224eb9153083",
      "title": "Faster cover trees",
      "venue": "International Conference on Machine Learning",
      "year": 2015,
      "referenceCount": 23,
      "citationCount": 34,
      "authors": [
        {
          "authorId": "31103337",
          "name": "Michael Izbicki"
        },
        {
          "authorId": "3564227",
          "name": "C. Shelton"
        }
      ]
    },
    {
      "paperId": "850594f59ad9a13a8b6ed55285369759041256e1",
      "externalIds": {
        "MAG": "2010156186",
        "DOI": "10.1007/s11356-014-2874-z",
        "CorpusId": 43338421,
        "PubMed": "24764007"
      },
      "url": "https://www.semanticscholar.org/paper/850594f59ad9a13a8b6ed55285369759041256e1",
      "title": "The effect of urban heat island on Izmir’s city ecosystem and climate",
      "venue": "Environmental science and pollution research international",
      "year": 2015,
      "referenceCount": 19,
      "citationCount": 24,
      "authors": [
        {
          "authorId": "13957297",
          "name": "O. Corumluoglu"
        },
        {
          "authorId": "32908474",
          "name": "I. Asri"
        }
      ]
    },
    {
      "paperId": "41baf67e9e494d26d91b69549d66b6b852f3b7f1",
      "externalIds": {
        "MAG": "1549572631",
        "DBLP": "journals/ijgi/MobaiedMLR15",
        "DOI": "10.3390/ijgi4020957",
        "CorpusId": 7875690
      },
      "url": "https://www.semanticscholar.org/paper/41baf67e9e494d26d91b69549d66b6b852f3b7f1",
      "title": "The Spatiotemporal Dynamics of Forest-Heathland Communities over 60 Years in Fontainebleau, France",
      "venue": "ISPRS Int. J. Geo Inf.",
      "year": 2015,
      "referenceCount": 53,
      "citationCount": 10,
      "authors": [
        {
          "authorId": "2369402",
          "name": "Samira Mobaied"
        },
        {
          "authorId": "2079313",
          "name": "N. Machon"
        },
        {
          "authorId": "2075986059",
          "name": "Arnault Lalanne"
        },
        {
          "authorId": "1414023589",
          "name": "B. Riera"
        }
      ]
    },
    {
      "paperId": "ca198ad637ccf0a34df18018031239c19d28e087",
      "externalIds": {
        "MAG": "2288442770",
        "DBLP": "conf/malware/LilleCRS15",
        "DOI": "10.1109/MALWARE.2015.7413684",
        "CorpusId": 11907684
      },
      "url": "https://www.semanticscholar.org/paper/ca198ad637ccf0a34df18018031239c19d28e087",
      "title": "Automatically combining static malware detection techniques",
      "venue": "International Conference on Malicious and Unwanted Software",
      "year": 2015,
      "referenceCount": 21,
      "citationCount": 4,
      "authors": [
        {
          "authorId": "3376966",
          "name": "D. D. Lille"
        },
        {
          "authorId": "1873224",
          "name": "Bart Coppens"
        },
        {
          "authorId": "39765691",
          "name": "Daan Raman"
        },
        {
          "authorId": "9366424",
          "name": "B. D. Sutter"
        }
      ]
    },
    {
      "paperId": "e1c8cc62e5b6d35c58833c5f934ca8fd9c641d5a",
      "externalIds": {
        "CorpusId": 207837941
      },
      "url": "https://www.semanticscholar.org/paper/e1c8cc62e5b6d35c58833c5f934ca8fd9c641d5a",
      "title": "Mapping Elaeagnus umbellata on Surface Coal Mines using Multitemporal Landsat Imagery",
      "venue": "",
      "year": 2015,
      "referenceCount": 86,
      "citationCount": 1,
      "authors": [
        {
          "authorId": "4920466",
          "name": "A. Oliphant"
        }
      ]
    },
    {
      "paperId": "e2b7de96a9e0146eeb6c6b5779890f8627341836",
      "externalIds": {
        "MAG": "2159659225",
        "PubMedCentral": "4382324",
        "DOI": "10.1371/journal.pone.0122051",
        "CorpusId": 4486614,
        "PubMed": "25830303"
      },
      "url": "https://www.semanticscholar.org/paper/e2b7de96a9e0146eeb6c6b5779890f8627341836",
      "title": "Trees Grow on Money: Urban Tree Canopy Cover and Environmental Justice",
      "venue": "PLoS ONE",
      "year": 2015,
      "referenceCount": 65,
      "citationCount": 504,
      "authors": [
        {
          "authorId": "40283951",
          "name": "Kirsten Schwarz"
        },
        {
          "authorId": "3110970",
          "name": "M. Fragkias"
        },
        {
          "authorId": "36043040",
          "name": "C. Boone"
        },
        {
          "authorId": "12997991",
          "name": "Weiqi Zhou"
        },
        {
          "authorId": "2136890",
          "name": "M. McHale"
        },
        {
          "authorId": "145079022",
          "name": "J. Grove"
        },
        {
          "authorId": "1409432424",
          "name": "J. O'Neil-Dunne"
        },
        {
          "authorId": "8627531",
          "name": "J. McFadden"
        },
        {
          "authorId": "4978144",
          "name": "G. Buckley"
        },
        {
          "authorId": "2249961923",
          "name": "D. Childers"
        },
        {
          "authorId": "117818460",
          "name": "L. Ogden"
        },
        {
          "authorId": "2531666",
          "name": "S. Pincetl"
        },
        {
          "authorId": "5607326",
          "name": "D. Pataki"
        },
        {
          "authorId": "4610437",
          "name": "Ali Whitmer"
        },
        {
          "authorId": "2736249",
          "name": "M. Cadenasso"
        }
      ]
    },
    {
      "paperId": "9cb70312c1652f058ff1bfeb9c38a966a5934b2d",
      "externalIds": {
        "MAG": "1792799016",
        "PubMedCentral": "4614846",
        "DOI": "10.7717/peerj.1313",
        "CorpusId": 9062738,
        "PubMed": "26500822"
      },
      "url": "https://www.semanticscholar.org/paper/9cb70312c1652f058ff1bfeb9c38a966a5934b2d",
      "title": "Growing coral larger and faster: micro-colony-fusion as a strategy for accelerating coral cover",
      "venue": "PeerJ",
      "year": 2015,
      "referenceCount": 68,
      "citationCount": 133,
      "authors": [
        {
          "authorId": "5178663",
          "name": "Z. Forsman"
        },
        {
          "authorId": "2056021529",
          "name": "Christopher A. Page"
        },
        {
          "authorId": "3740529",
          "name": "R. Toonen"
        },
        {
          "authorId": "145344821",
          "name": "David E. Vaughan"
        }
      ]
    },
    {
      "paperId": "9fa58dbc2217693f9f6246daa5fcd8a2572d1f89",
      "externalIds": {
        "MAG": "2129223668",
        "PubMedCentral": "4367337",
        "DBLP": "journals/sensors/Poblete-Echeverria15",
        "DOI": "10.3390/s150202860",
        "CorpusId": 8559529,
        "PubMed": "25635411"
      },
      "url": "https://www.semanticscholar.org/paper/9fa58dbc2217693f9f6246daa5fcd8a2572d1f89",
      "title": "Digital Cover Photography for Estimating Leaf Area Index (LAI) in Apple Trees Using a Variable Light Extinction Coefficient",
      "venue": "Italian National Conference on Sensors",
      "year": 2015,
      "referenceCount": 36,
      "citationCount": 49,
      "authors": [
        {
          "authorId": "1411654763",
          "name": "C. Poblete-Echeverría"
        },
        {
          "authorId": "145298798",
          "name": "S. Fuentes"
        },
        {
          "authorId": "108088232",
          "name": "S. Ortega-Farías"
        },
        {
          "authorId": "1422530374",
          "name": "Jaime Gonzalez-Talice"
        },
        {
          "authorId": "8665490",
          "name": "J. A. Yuri"
        }
      ]
    },
    {
      "paperId": "70bc6c0134dfdde5a00bd7b595dcd73974db9460",
      "externalIds": {
        "MAG": "929750816",
        "DOI": "10.1007/s11104-015-2570-x",
        "CorpusId": 16758376
      },
      "url": "https://www.semanticscholar.org/paper/70bc6c0134dfdde5a00bd7b595dcd73974db9460",
      "title": "Indigenous trees restore soil microbial biomass at faster rates than exotic species",
      "venue": "Plant and Soil",
      "year": 2015,
      "referenceCount": 53,
      "citationCount": 31,
      "authors": [
        {
          "authorId": "1698277",
          "name": "Chun Xing Li"
        },
        {
          "authorId": "49649505",
          "name": "Lingling Shi"
        },
        {
          "authorId": "46720067",
          "name": "Anne Ostermann"
        },
        {
          "authorId": "1922884",
          "name": "Jian-chu Xu"
        },
        {
          "authorId": "2048349995",
          "name": "Yunju Li"
        },
        {
          "authorId": "34035537",
          "name": "P. Mortimer"
        }
      ]
    },
    {
      "paperId": "fd5edc9c54312988830218d2849303bf1390e31e",
      "externalIds": {
        "MAG": "1050475857",
        "DOI": "10.1016/J.AGEE.2015.07.016",
        "CorpusId": 83108571
      },
      "url": "https://www.semanticscholar.org/paper/fd5edc9c54312988830218d2849303bf1390e31e",
      "title": "Carbon pool size and stability are affected by trees and grassland cover types within agroforestry systems of western Canada",
      "venue": "",
      "year": 2015,
      "referenceCount": 71,
      "citationCount": 56,
      "authors": [
        {
          "authorId": "1404028473",
          "name": "Mark Baah-Acheamfour"
        },
        {
          "authorId": "2218838401",
          "name": "Scott X. Chang"
        },
        {
          "authorId": "6807116",
          "name": "C. Carlyle"
        },
        {
          "authorId": "40180827",
          "name": "E. Bork"
        }
      ]
    }
  ]
}