{
  "total": 78,
  "offset": 0,
  "next": 10,
  "data": [
    {
      "paperId": "6dfdf46314c5946ce698e4f4c6ac85a60dde6482",
      "externalIds": {
        "DBLP": "conf/icml/RaghunathanFDL16",
        "ArXiv": "1608.03100",
        "MAG": "2953102839",
        "CorpusId": 5311595
      },
      "url": "https://www.semanticscholar.org/paper/6dfdf46314c5946ce698e4f4c6ac85a60dde6482",
      "title": "Estimation from Indirect Supervision with Linear Moments",
      "venue": "International Conference on Machine Learning",
      "year": 2016,
      "referenceCount": 37,
      "citationCount": 14,
      "authors": [
        {
          "authorId": "2655157",
          "name": "Aditi Raghunathan"
        },
        {
          "authorId": "34765463",
          "name": "Roy Frostig"
        },
        {
          "authorId": "1734693",
          "name": "John C. Duchi"
        },
        {
          "authorId": "145419642",
          "name": "Percy Liang"
        }
      ]
    },
    {
      "paperId": "22b3f2dba90049ace1d5e92911f1b0cc24e11646",
      "externalIds": {
        "DBLP": "journals/csda/Barde24",
        "DOI": "10.1016/j.csda.2024.107972",
        "CorpusId": 269356274
      },
      "url": "https://www.semanticscholar.org/paper/22b3f2dba90049ace1d5e92911f1b0cc24e11646",
      "title": "Bayesian estimation of large-scale simulation models with Gaussian process regression surrogates",
      "venue": "Computational Statistics & Data Analysis",
      "year": 2024,
      "referenceCount": 59,
      "citationCount": 3,
      "authors": [
        {
          "authorId": "2298194825",
          "name": "Sylvain Barde"
        }
      ]
    },
    {
      "paperId": "535bac3ce90534f40ef2056819b94cae5f86025e",
      "externalIds": {
        "ArXiv": "2502.13827",
        "DBLP": "journals/corr/abs-2502-13827",
        "DOI": "10.48550/arXiv.2502.13827",
        "CorpusId": 276449985
      },
      "url": "https://www.semanticscholar.org/paper/535bac3ce90534f40ef2056819b94cae5f86025e",
      "title": "Bayesian Physics Informed Neural Networks for Linear Inverse problems",
      "venue": "arXiv.org",
      "year": 2025,
      "referenceCount": 0,
      "citationCount": 2,
      "authors": [
        {
          "authorId": "102082140",
          "name": "A. Mohammad-Djafari"
        }
      ]
    },
    {
      "paperId": "5343cbf0a1bb3c90db32abd0f7db485dff2e75bf",
      "externalIds": {
        "CorpusId": 248912888
      },
      "url": "https://www.semanticscholar.org/paper/5343cbf0a1bb3c90db32abd0f7db485dff2e75bf",
      "title": "The Role of Storage in Commodity Markets: Indirect Inference Based on Grains Data *",
      "venue": "",
      "year": 2022,
      "referenceCount": 75,
      "citationCount": 1,
      "authors": [
        {
          "authorId": "102447811",
          "name": "Christophe Gouel"
        },
        {
          "authorId": "46800597",
          "name": "N. Legrand"
        }
      ]
    },
    {
      "paperId": "a117d5122451fb7da5102166d519d310a2843ded",
      "externalIds": {
        "CorpusId": 276103793
      },
      "url": "https://www.semanticscholar.org/paper/a117d5122451fb7da5102166d519d310a2843ded",
      "title": "P 8 Parameter estimation for the Bloch equation from linear projection data and applications in MR ﬁngerprinting",
      "venue": "",
      "year": null,
      "referenceCount": 11,
      "citationCount": 0,
      "authors": []
    },
    {
      "paperId": "46c0aecb2fe7b145d11d9241f325ae975c2cd540",
      "externalIds": {
        "DOI": "10.1007/s11356-021-17631-y",
        "CorpusId": 244710892,
        "PubMed": "34843045"
      },
      "url": "https://www.semanticscholar.org/paper/46c0aecb2fe7b145d11d9241f325ae975c2cd540",
      "title": "Does interaction between technological innovation and natural resource rent impact environmental degradation in newly industrialized countries? New evidence from method of moments quantile regression",
      "venue": "Environmental science and pollution research international",
      "year": 2021,
      "referenceCount": 40,
      "citationCount": 126,
      "authors": [
        {
          "authorId": "1742465570",
          "name": "T. Adebayo"
        },
        {
          "authorId": "77033919",
          "name": "S. Akadiri"
        },
        {
          "authorId": "2142420670",
          "name": "Adenekan T. Adedapo"
        },
        {
          "authorId": "1391146363",
          "name": "Nuruddeen Usman"
        }
      ]
    },
    {
      "paperId": "51f1d1fb6bfc912b71e1160846f0bc41a8155b16",
      "externalIds": {
        "DBLP": "journals/corr/abs-2411-00945",
        "ArXiv": "2411.00945",
        "DOI": "10.48550/arXiv.2411.00945",
        "CorpusId": 273812432
      },
      "url": "https://www.semanticscholar.org/paper/51f1d1fb6bfc912b71e1160846f0bc41a8155b16",
      "title": "Higher-Order Causal Message Passing for Experimentation with Complex Interference",
      "venue": "Neural Information Processing Systems",
      "year": 2024,
      "referenceCount": 67,
      "citationCount": 7,
      "authors": [
        {
          "authorId": "2266464416",
          "name": "Mohsen Bayati"
        },
        {
          "authorId": "2329513719",
          "name": "Yuwei Luo"
        },
        {
          "authorId": "2308469326",
          "name": "William Overman"
        },
        {
          "authorId": "2266464744",
          "name": "S. Shirani"
        },
        {
          "authorId": "2329099480",
          "name": "Ruoxuan Xiong"
        }
      ]
    },
    {
      "paperId": "0f205dfa90147039620e08f57db07f020e0b84c8",
      "externalIds": {
        "ArXiv": "2007.00725",
        "MAG": "3039709112",
        "DOI": "10.1007/s11336-021-09768-z",
        "CorpusId": 220302371,
        "PubMed": "34008127"
      },
      "url": "https://www.semanticscholar.org/paper/0f205dfa90147039620e08f57db07f020e0b84c8",
      "title": "Robust Inference for Mediated Effects in Partially Linear Models",
      "venue": "Psychometrika",
      "year": 2020,
      "referenceCount": 47,
      "citationCount": 9,
      "authors": [
        {
          "authorId": "1785382912",
          "name": "Oliver Hines"
        },
        {
          "authorId": "3345793",
          "name": "S. Vansteelandt"
        },
        {
          "authorId": "4233981",
          "name": "K. Diaz-Ordaz"
        }
      ]
    },
    {
      "paperId": "1fecfaf23fb160a5b3370391b1dc49ed433fd5d7",
      "externalIds": {
        "MAG": "2802111390",
        "DOI": "10.7916/D8PZ6RXC",
        "CorpusId": 126040224
      },
      "url": "https://www.semanticscholar.org/paper/1fecfaf23fb160a5b3370391b1dc49ed433fd5d7",
      "title": "Essays on Simulation-Based Estimation",
      "venue": "",
      "year": 2018,
      "referenceCount": 174,
      "citationCount": 2,
      "authors": [
        {
          "authorId": "88738322",
          "name": "Jean-Jacques Forneron"
        }
      ]
    },
    {
      "paperId": "691368bf6ee3d9380b19f6be82d9982ad7b49ad8",
      "externalIds": {
        "MAG": "2989488845",
        "DOI": "10.1016/j.ymssp.2019.106454",
        "CorpusId": 209921740
      },
      "url": "https://www.semanticscholar.org/paper/691368bf6ee3d9380b19f6be82d9982ad7b49ad8",
      "title": "Diagnosis algorithms for indirect structural health monitoring of a bridge model via dimensionality reduction",
      "venue": "",
      "year": 2020,
      "referenceCount": 47,
      "citationCount": 95,
      "authors": [
        {
          "authorId": "2108389786",
          "name": "Jingxiao Liu"
        },
        {
          "authorId": "145552439",
          "name": "Siheng Chen"
        },
        {
          "authorId": "2932014",
          "name": "M. Berges"
        },
        {
          "authorId": "46971207",
          "name": "J. Bielak"
        },
        {
          "authorId": "2588451",
          "name": "J. Garrett"
        },
        {
          "authorId": "2442915",
          "name": "J. Kovacevic"
        },
        {
          "authorId": "1832917",
          "name": "H. Noh"
        }
      ]
    }
  ]
}