{
  "total": 394,
  "offset": 0,
  "next": 10,
  "data": [
    {
      "paperId": "302c4de3de2bd42eeb9b5c83a801af48ae498c48",
      "externalIds": {
        "MAG": "2626461897",
        "DBLP": "conf/icml/MartinLV18",
        "ArXiv": "1706.03591",
        "CorpusId": 51877451
      },
      "url": "https://www.semanticscholar.org/paper/302c4de3de2bd42eeb9b5c83a801af48ae498c48",
      "title": "Fast Approximate Spectral Clustering for Dynamic Networks",
      "venue": "International Conference on Machine Learning",
      "year": 2017,
      "referenceCount": 38,
      "citationCount": 20,
      "authors": [
        {
          "authorId": "2115426744",
          "name": "Lionel Martin"
        },
        {
          "authorId": "1966031",
          "name": "Andreas Loukas"
        },
        {
          "authorId": "1697397",
          "name": "P. Vandergheynst"
        }
      ]
    },
    {
      "paperId": "260eb3ae10a71bc751df49248b1563ec011fc51a",
      "externalIds": {
        "DBLP": "journals/tcom/RaiSJH25",
        "DOI": "10.1109/TCOMM.2024.3506920",
        "CorpusId": 274349291
      },
      "url": "https://www.semanticscholar.org/paper/260eb3ae10a71bc751df49248b1563ec011fc51a",
      "title": "The Spectral Versus Energy Efficiency Trade-Off in Dynamic User Clustering Aided mmWave NOMA Networks",
      "venue": "IEEE Transactions on Communications",
      "year": 2025,
      "referenceCount": 56,
      "citationCount": 4,
      "authors": [
        {
          "authorId": "35649168",
          "name": "Sudhakar Rai"
        },
        {
          "authorId": "35067076",
          "name": "E. Sharma"
        },
        {
          "authorId": "1747479",
          "name": "A. Jagannatham"
        },
        {
          "authorId": "80707783",
          "name": "L. Hanzo"
        }
      ]
    },
    {
      "paperId": "c8134b948d9313fe04107d4b55a98033b500591c",
      "externalIds": {
        "DBLP": "journals/compnet/GuzmanF23",
        "DOI": "10.1093/comnet/cnad005",
        "CorpusId": 257417624
      },
      "url": "https://www.semanticscholar.org/paper/c8134b948d9313fe04107d4b55a98033b500591c",
      "title": "A fast algorithm to approximate the spectral density of locally tree-like networks with assortativity",
      "venue": "J. Complex Networks",
      "year": 2023,
      "referenceCount": 33,
      "citationCount": 0,
      "authors": [
        {
          "authorId": "46196848",
          "name": "G. Guzman"
        },
        {
          "authorId": "2334018",
          "name": "A. Fujita"
        }
      ]
    },
    {
      "paperId": "0fc9a3294394a4e230ec46b7e413512f0e1c5d41",
      "externalIds": {
        "DOI": "10.1109/ICPSET66018.2025.11159702",
        "CorpusId": 281399025
      },
      "url": "https://www.semanticscholar.org/paper/0fc9a3294394a4e230ec46b7e413512f0e1c5d41",
      "title": "A Partitioning Method for Active Distribution Network Based on Hierarchical Spectral Clustering",
      "venue": "2025 4th International Conference on Power System and Energy Technology (ICPSET)",
      "year": 2025,
      "referenceCount": 10,
      "citationCount": 0,
      "authors": [
        {
          "authorId": "2275777664",
          "name": "Jingjing Huang"
        },
        {
          "authorId": "52416101",
          "name": "Zhesheng Hu"
        },
        {
          "authorId": "2313104092",
          "name": "Pan Dai"
        }
      ]
    },
    {
      "paperId": "45c51a3910542eefa74d42d600c96efae8c85abe",
      "externalIds": {
        "MAG": "2782091099",
        "DOI": "10.1109/TIPTEKNO.2017.8238092",
        "CorpusId": 39729942
      },
      "url": "https://www.semanticscholar.org/paper/45c51a3910542eefa74d42d600c96efae8c85abe",
      "title": "Analysis of functional MRI signals by using approximate spectral clustering based on a geodesic measure of similarity",
      "venue": "Medical Technologies National Conference",
      "year": 2017,
      "referenceCount": 15,
      "citationCount": 0,
      "authors": [
        {
          "authorId": "31645617",
          "name": "E. Karamamedogly"
        },
        {
          "authorId": "144139640",
          "name": "A. Akan"
        },
        {
          "authorId": "2152457",
          "name": "A. Kuntman"
        }
      ]
    },
    {
      "paperId": "97af15149836e70a1efc1714998f203ce3061141",
      "externalIds": {
        "DBLP": "journals/tmc/LiHLZM25",
        "DOI": "10.1109/TMC.2025.3554081",
        "CorpusId": 277426617
      },
      "url": "https://www.semanticscholar.org/paper/97af15149836e70a1efc1714998f203ce3061141",
      "title": "Dynamic AP Clustering and Power Allocation for CF-mMIMO-Enabled Federated Learning Using Multi-Agent DRL",
      "venue": "IEEE Transactions on Mobile Computing",
      "year": 2025,
      "referenceCount": 53,
      "citationCount": 3,
      "authors": [
        {
          "authorId": "2258698046",
          "name": "Ziqi Li"
        },
        {
          "authorId": "2151835574",
          "name": "Jia Hu"
        },
        {
          "authorId": "2328953353",
          "name": "Xi Li"
        },
        {
          "authorId": "2505473",
          "name": "Heli Zhang"
        },
        {
          "authorId": "2165744386",
          "name": "Geyong Min"
        }
      ]
    },
    {
      "paperId": "d5f6feebc361e7f9eac058dc320f728de521443a",
      "externalIds": {
        "DBLP": "journals/corr/abs-2202-09259",
        "ArXiv": "2202.09259",
        "DOI": "10.1109/CCTA49430.2022.9965996",
        "CorpusId": 246996608
      },
      "url": "https://www.semanticscholar.org/paper/d5f6feebc361e7f9eac058dc320f728de521443a",
      "title": "Reduced-Order Modeling of Thermal Dynamics in District Energy Networks using Spectral Clustering",
      "venue": "Conference on Control Technology and Applications",
      "year": 2022,
      "referenceCount": 16,
      "citationCount": 2,
      "authors": [
        {
          "authorId": "51248401",
          "name": "J. Simonsson"
        },
        {
          "authorId": "3341536",
          "name": "K. Atta"
        },
        {
          "authorId": "1779344",
          "name": "W. Birk"
        }
      ]
    },
    {
      "paperId": "e6f306b62738167391086eada3025a322f7b43e3",
      "externalIds": {
        "ArXiv": "2505.03573",
        "DBLP": "journals/corr/abs-2505-03573",
        "DOI": "10.48550/arXiv.2505.03573",
        "CorpusId": 278338966
      },
      "url": "https://www.semanticscholar.org/paper/e6f306b62738167391086eada3025a322f7b43e3",
      "title": "Troika algorithm: approximate optimization for accurate clique partitioning and clustering of weighted networks",
      "venue": "PLOS Complex Systems",
      "year": 2025,
      "referenceCount": 56,
      "citationCount": 0,
      "authors": [
        {
          "authorId": "34627491",
          "name": "Samin Aref"
        },
        {
          "authorId": "144600855",
          "name": "B. Ng"
        }
      ]
    },
    {
      "paperId": "bff20d958fff0e4630dd85780bfcbde5a5e184c8",
      "externalIds": {
        "DBLP": "journals/access/ZhaoK20",
        "MAG": "3086381881",
        "DOI": "10.1109/ACCESS.2020.3023665",
        "CorpusId": 224777660
      },
      "url": "https://www.semanticscholar.org/paper/bff20d958fff0e4630dd85780bfcbde5a5e184c8",
      "title": "A Fast and Optimal Smart Home Energy Management System: State-Space Approximate Dynamic Programming",
      "venue": "IEEE Access",
      "year": 2020,
      "referenceCount": 37,
      "citationCount": 21,
      "authors": [
        {
          "authorId": "3010547",
          "name": "Zhiheng Zhao"
        },
        {
          "authorId": "3450207",
          "name": "Chanaka Keerthisinghe"
        }
      ]
    },
    {
      "paperId": "d245bc20e7546cab51c42c4951269a504c4b4fe5",
      "externalIds": {
        "PubMedCentral": "12694655",
        "DOI": "10.3390/s25237370",
        "CorpusId": 283621685,
        "PubMed": "41374745"
      },
      "url": "https://www.semanticscholar.org/paper/d245bc20e7546cab51c42c4951269a504c4b4fe5",
      "title": "Advanced Clustering for Mobile Network Optimization: A Systematic Literature Review",
      "venue": "Italian National Conference on Sensors",
      "year": 2025,
      "referenceCount": 25,
      "citationCount": 1,
      "authors": [
        {
          "authorId": "66445329",
          "name": "Claude Nawej"
        },
        {
          "authorId": "21504196",
          "name": "P. Owolawi"
        },
        {
          "authorId": "2316400641",
          "name": "T. Walingo"
        }
      ]
    }
  ]
}