{
  "total": 1121,
  "offset": 0,
  "next": 10,
  "data": [
    {
      "paperId": "0a35181a9d729d18024bd29be8d938edc86d8b63",
      "externalIds": {
        "DBLP": "conf/icml/ThomasDB18",
        "MAG": "2803589494",
        "CorpusId": 51869166
      },
      "url": "https://www.semanticscholar.org/paper/0a35181a9d729d18024bd29be8d938edc86d8b63",
      "title": "Decoupling Gradient-Like Learning Rules from Representations",
      "venue": "International Conference on Machine Learning",
      "year": 2018,
      "referenceCount": 29,
      "citationCount": 2,
      "authors": [
        {
          "authorId": "143640165",
          "name": "P. Thomas"
        },
        {
          "authorId": "2160071",
          "name": "Christoph Dann"
        },
        {
          "authorId": "2563117",
          "name": "E. Brunskill"
        }
      ]
    },
    {
      "paperId": "5baecce0027f602c84cc0f3c4ae15ea344dce054",
      "externalIds": {
        "ArXiv": "2510.26997",
        "DBLP": "journals/corr/abs-2510-26997",
        "DOI": "10.48550/arXiv.2510.26997",
        "CorpusId": 282719310
      },
      "url": "https://www.semanticscholar.org/paper/5baecce0027f602c84cc0f3c4ae15ea344dce054",
      "title": "Gradient Descent as Loss Landscape Navigation: a Normative Framework for Deriving Learning Rules",
      "venue": "arXiv.org",
      "year": 2025,
      "referenceCount": 52,
      "citationCount": 1,
      "authors": [
        {
          "authorId": "103675568",
          "name": "John J. Vastola"
        },
        {
          "authorId": "2239150873",
          "name": "Samuel Gershman"
        },
        {
          "authorId": "2324787403",
          "name": "Kanaka Rajan"
        }
      ]
    },
    {
      "paperId": "75bcc24e827e378a7bb053e22bd5f365cad30d36",
      "externalIds": {
        "MAG": "2626500276",
        "DBLP": "journals/corr/ThomasDB17",
        "ArXiv": "1706.03100",
        "CorpusId": 28632494
      },
      "url": "https://www.semanticscholar.org/paper/75bcc24e827e378a7bb053e22bd5f365cad30d36",
      "title": "Decoupling Learning Rules from Representations",
      "venue": "arXiv.org",
      "year": 2017,
      "referenceCount": 21,
      "citationCount": 2,
      "authors": [
        {
          "authorId": "143640165",
          "name": "P. Thomas"
        },
        {
          "authorId": "2160071",
          "name": "Christoph Dann"
        },
        {
          "authorId": "2563117",
          "name": "E. Brunskill"
        }
      ]
    },
    {
      "paperId": "e7c46737df31cd84908605fe5339a511a8fed768",
      "externalIds": {
        "PubMedCentral": "12621722",
        "DOI": "10.1101/2025.09.29.679295",
        "CorpusId": 282310778,
        "PubMed": "41256664"
      },
      "url": "https://www.semanticscholar.org/paper/e7c46737df31cd84908605fe5339a511a8fed768",
      "title": "Inferring learning rules during de novo task learning",
      "venue": "bioRxiv",
      "year": 2025,
      "referenceCount": 37,
      "citationCount": 1,
      "authors": [
        {
          "authorId": "1680548171",
          "name": "Victor Geadah"
        },
        {
          "authorId": "2288568304",
          "name": "Jonathan W. Pillow"
        }
      ]
    },
    {
      "paperId": "a406ef9567f62c5c50d010c201290a1e5742fe26",
      "externalIds": {
        "ArXiv": "2505.18069",
        "CorpusId": 278886329
      },
      "url": "https://www.semanticscholar.org/paper/a406ef9567f62c5c50d010c201290a1e5742fe26",
      "title": "Homeostatic Ubiquity of Hebbian Dynamics in Regularized Learning Rules",
      "venue": "",
      "year": 2025,
      "referenceCount": 41,
      "citationCount": 0,
      "authors": [
        {
          "authorId": "74944847",
          "name": "D. Koplow"
        },
        {
          "authorId": "2285404704",
          "name": "Tomaso A. Poggio"
        },
        {
          "authorId": "1412541292",
          "name": "Li Ziyin"
        }
      ]
    },
    {
      "paperId": "53cc7bb2949d778353809d201c2afc018a7368c1",
      "externalIds": {
        "PubMedCentral": "12184951",
        "DBLP": "journals/ploscb/KeckBDJ25",
        "DOI": "10.1101/2024.05.27.595705",
        "CorpusId": 270227002,
        "PubMed": "40549716"
      },
      "url": "https://www.semanticscholar.org/paper/53cc7bb2949d778353809d201c2afc018a7368c1",
      "title": "Impact of symmetry in local learning rules on predictive neural representations and generalization in spatial navigation",
      "venue": "bioRxiv",
      "year": 2025,
      "referenceCount": 82,
      "citationCount": 4,
      "authors": [
        {
          "authorId": "2238312141",
          "name": "J. Keck"
        },
        {
          "authorId": "2283465350",
          "name": "C. Barry"
        },
        {
          "authorId": "2262221118",
          "name": "Christian F. Doeller"
        },
        {
          "authorId": "2283178371",
          "name": "Jürgen Jost"
        }
      ]
    },
    {
      "paperId": "1eb62484ac93229f082688a7925b7f8611a1eef9",
      "externalIds": {
        "ArXiv": "2509.10973",
        "DBLP": "journals/corr/abs-2509-10973",
        "DOI": "10.48550/arXiv.2509.10973",
        "CorpusId": 281316544
      },
      "url": "https://www.semanticscholar.org/paper/1eb62484ac93229f082688a7925b7f8611a1eef9",
      "title": "Decoupling Search and Learning in Neural Net Training",
      "venue": "arXiv.org",
      "year": 2025,
      "referenceCount": 16,
      "citationCount": 0,
      "authors": [
        {
          "authorId": "2380534400",
          "name": "Akshay Vegesna"
        },
        {
          "authorId": "2121361734",
          "name": "Samip Dahal"
        }
      ]
    },
    {
      "paperId": "911728548a134d205e12192c81b7b3befa39046b",
      "externalIds": {
        "ArXiv": "2604.00686",
        "CorpusId": 287021547
      },
      "url": "https://www.semanticscholar.org/paper/911728548a134d205e12192c81b7b3befa39046b",
      "title": "Full-Gradient Successor Feature Representations",
      "venue": "",
      "year": 2026,
      "referenceCount": 29,
      "citationCount": 0,
      "authors": [
        {
          "authorId": "2427116733",
          "name": "Ritish Shrirao"
        },
        {
          "authorId": "17658688",
          "name": "Aditya Priyadarshi"
        },
        {
          "authorId": "23975960",
          "name": "Raghuram Bharadwaj Diddigi"
        }
      ]
    },
    {
      "paperId": "a9b6e305320a694fc2e939ad75c430ea2df3aaa2",
      "externalIds": {
        "ArXiv": "2408.15566",
        "DBLP": "conf/mm/LiZJHGCGZ24",
        "DOI": "10.1145/3664647.3680579",
        "CorpusId": 271974435
      },
      "url": "https://www.semanticscholar.org/paper/a9b6e305320a694fc2e939ad75c430ea2df3aaa2",
      "title": "TagOOD: A Novel Approach to Out-of-Distribution Detection via Vision-Language Representations and Class Center Learning",
      "venue": "ACM Multimedia",
      "year": 2024,
      "referenceCount": 69,
      "citationCount": 3,
      "authors": [
        {
          "authorId": "2279759989",
          "name": "Jinglun Li"
        },
        {
          "authorId": "2261946580",
          "name": "Xinyu Zhou"
        },
        {
          "authorId": "2161719405",
          "name": "Kaixun Jiang"
        },
        {
          "authorId": "2191633346",
          "name": "Lingyi Hong"
        },
        {
          "authorId": "2190969187",
          "name": "Pinxue Guo"
        },
        {
          "authorId": "2111606069",
          "name": "Zhaoyu Chen"
        },
        {
          "authorId": "2205015517",
          "name": "Weifeng Ge"
        },
        {
          "authorId": "2244691510",
          "name": "Wenqiang Zhang"
        }
      ]
    },
    {
      "paperId": "2e1c5b65cffc7ac5e3adc7124e7ec849e340de13",
      "externalIds": {
        "ArXiv": "2303.03729",
        "DBLP": "journals/corr/abs-2303-03729",
        "DOI": "10.1109/CVPR52729.2023.01022",
        "CorpusId": 257378316
      },
      "url": "https://www.semanticscholar.org/paper/2e1c5b65cffc7ac5e3adc7124e7ec849e340de13",
      "title": "Learning Discriminative Representations for Skeleton Based Action Recognition",
      "venue": "Computer Vision and Pattern Recognition",
      "year": 2023,
      "referenceCount": 48,
      "citationCount": 146,
      "authors": [
        {
          "authorId": "1641964449",
          "name": "Huanyu Zhou"
        },
        {
          "authorId": "2333334",
          "name": "Qingjie Liu"
        },
        {
          "authorId": "2108702972",
          "name": "Yunhong Wang"
        }
      ]
    }
  ]
}