{
  "total": 92,
  "offset": 0,
  "next": 10,
  "data": [
    {
      "paperId": "f4ce9a3117cbee652d64dc78ed66b6af92b4d5df",
      "externalIds": {
        "MAG": "1865606400",
        "DBLP": "conf/icml/GeCWG15",
        "CorpusId": 487360
      },
      "url": "https://www.semanticscholar.org/paper/f4ce9a3117cbee652d64dc78ed66b6af92b4d5df",
      "title": "Distributed Inference for Dirichlet Process Mixture Models",
      "venue": "International Conference on Machine Learning",
      "year": 2015,
      "referenceCount": 27,
      "citationCount": 46,
      "authors": [
        {
          "authorId": "49365036",
          "name": "Hong Ge"
        },
        {
          "authorId": "2275897",
          "name": "Yutian Chen"
        },
        {
          "authorId": "3216939",
          "name": "Moquan Wan"
        },
        {
          "authorId": "1744700",
          "name": "Zoubin Ghahramani"
        }
      ]
    },
    {
      "paperId": "0dc271cce2909000088e6309ed7879ca06624847",
      "externalIds": {
        "MAG": "794177523",
        "DBLP": "conf/dasfaa/LinhATT15",
        "DOI": "10.1007/978-3-319-18123-3_9",
        "CorpusId": 37677626
      },
      "url": "https://www.semanticscholar.org/paper/0dc271cce2909000088e6309ed7879ca06624847",
      "title": "Effective and Interpretable Document Classification Using Distinctly Labeled Dirichlet Process Mixture Models of von Mises-Fisher Distributions",
      "venue": "International Conference on Database Systems for Advanced Applications",
      "year": 2015,
      "referenceCount": 18,
      "citationCount": 2,
      "authors": [
        {
          "authorId": "3169945",
          "name": "Ngo Van Linh"
        },
        {
          "authorId": "2523898",
          "name": "N. K. Anh"
        },
        {
          "authorId": "38685176",
          "name": "Khoat Than"
        },
        {
          "authorId": "2352131955",
          "name": "Nguyen Nguyen Tat"
        }
      ]
    },
    {
      "paperId": "ebb0a67e17f26dbb829b8a6b4b02d412a589efe7",
      "externalIds": {
        "CorpusId": 8317261
      },
      "url": "https://www.semanticscholar.org/paper/ebb0a67e17f26dbb829b8a6b4b02d412a589efe7",
      "title": "Variational Inference for Beta-Bernoulli Dirichlet Process Mixture Models",
      "venue": "",
      "year": 2015,
      "referenceCount": 7,
      "citationCount": 1,
      "authors": [
        {
          "authorId": "2400960909",
          "name": "Meng Ni"
        },
        {
          "authorId": "1799035",
          "name": "Erik B. Sudderth"
        },
        {
          "authorId": "2067787292",
          "name": "M. Hughes"
        }
      ]
    },
    {
      "paperId": "6d2da2de9b8ffd78d2033f3f112015d261424470",
      "externalIds": {
        "DBLP": "conf/interspeech/ChenLXML15",
        "MAG": "2399576818",
        "DOI": "10.21437/Interspeech.2015-642",
        "CorpusId": 4618973
      },
      "url": "https://www.semanticscholar.org/paper/6d2da2de9b8ffd78d2033f3f112015d261424470",
      "title": "Parallel inference of dirichlet process Gaussian mixture models for unsupervised acoustic modeling: a feasibility study",
      "venue": "Interspeech",
      "year": 2015,
      "referenceCount": 40,
      "citationCount": 76,
      "authors": [
        {
          "authorId": "1390825079",
          "name": "Hongjie Chen"
        },
        {
          "authorId": "2146624",
          "name": "C. Leung"
        },
        {
          "authorId": "144206962",
          "name": "Lei Xie"
        },
        {
          "authorId": "144720333",
          "name": "B. Ma"
        },
        {
          "authorId": "1711271",
          "name": "Haizhou Li"
        }
      ]
    },
    {
      "paperId": "0b65f004e18bf14fb9cf9d5b59bd84ba1458f3df",
      "externalIds": {
        "CorpusId": 36567818
      },
      "url": "https://www.semanticscholar.org/paper/0b65f004e18bf14fb9cf9d5b59bd84ba1458f3df",
      "title": "MAP for Exponential Family Dirichlet Process Mixture Models",
      "venue": "",
      "year": 2015,
      "referenceCount": 22,
      "citationCount": 0,
      "authors": [
        {
          "authorId": "3455218",
          "name": "Y. Raykov"
        }
      ]
    },
    {
      "paperId": "c9a86bc5ae517b93596dc872eb22d643845d55e1",
      "externalIds": {
        "MAG": "2301970748",
        "DBLP": "conf/acml/HuynhPV15",
        "CorpusId": 607880
      },
      "url": "https://www.semanticscholar.org/paper/c9a86bc5ae517b93596dc872eb22d643845d55e1",
      "title": "Streaming Variational Inference for Dirichlet Process Mixtures",
      "venue": "Asian Conference on Machine Learning",
      "year": 2015,
      "referenceCount": 22,
      "citationCount": 16,
      "authors": [
        {
          "authorId": "143650225",
          "name": "Viet Huynh"
        },
        {
          "authorId": "1749657",
          "name": "Dinh Q. Phung"
        },
        {
          "authorId": "143761093",
          "name": "S. Venkatesh"
        }
      ]
    },
    {
      "paperId": "b2b0ba964daabb3f6c7a647e665a22d11c443722",
      "externalIds": {
        "MAG": "896320323",
        "DOI": "10.7936/K7TQ5ZPC",
        "CorpusId": 118072413
      },
      "url": "https://www.semanticscholar.org/paper/b2b0ba964daabb3f6c7a647e665a22d11c443722",
      "title": "Nonparametric Bayesian Quantile Regression via Dirichlet Process Mixture Models",
      "venue": "",
      "year": 2015,
      "referenceCount": 125,
      "citationCount": 1,
      "authors": [
        {
          "authorId": "31290957",
          "name": "Chao-Chi Chang"
        }
      ]
    },
    {
      "paperId": "0bbc54aa006e27e15cd02bc7c7b7b24d977ecd2a",
      "externalIds": {
        "MAG": "2550377770",
        "CorpusId": 125431565
      },
      "url": "https://www.semanticscholar.org/paper/0bbc54aa006e27e15cd02bc7c7b7b24d977ecd2a",
      "title": "Semi-parametric Bayesian Inference of Accelerated Life Test Using Dirichlet Process Mixture Model",
      "venue": "",
      "year": 2015,
      "referenceCount": 0,
      "citationCount": 0,
      "authors": [
        {
          "authorId": "2110719550",
          "name": "Xi Liu"
        }
      ]
    },
    {
      "paperId": "8bdd9c09d19afe939b221e45164bf89ed88ce4d1",
      "externalIds": {
        "MAG": "2069136219",
        "DOI": "10.1016/J.CHEMOLAB.2015.02.003",
        "CorpusId": 123334173
      },
      "url": "https://www.semanticscholar.org/paper/8bdd9c09d19afe939b221e45164bf89ed88ce4d1",
      "title": "Multimode process data modeling: A Dirichlet process mixture model based Bayesian robust factor analyzer approach",
      "venue": "",
      "year": 2015,
      "referenceCount": 51,
      "citationCount": 23,
      "authors": [
        {
          "authorId": "2201417",
          "name": "Jinlin Zhu"
        },
        {
          "authorId": "145619185",
          "name": "Zhiqiang Ge"
        },
        {
          "authorId": "2554622",
          "name": "Zhihuan Song"
        }
      ]
    },
    {
      "paperId": "35e4456d735f53bf9c205837ef081b645bb823cd",
      "externalIds": {
        "MAG": "2952196728",
        "DOI": "10.1080/02664763.2014.947357",
        "CorpusId": 197472458
      },
      "url": "https://www.semanticscholar.org/paper/35e4456d735f53bf9c205837ef081b645bb823cd",
      "title": "A semi-parametric Bayesian extreme value model using a Dirichlet process mixture of gamma densities",
      "venue": "",
      "year": 2015,
      "referenceCount": 18,
      "citationCount": 14,
      "authors": [
        {
          "authorId": "2054185190",
          "name": "Jairo Alberto Fuquene Patiño"
        }
      ]
    }
  ]
}