{
  "total": 1211,
  "offset": 0,
  "next": 10,
  "data": [
    {
      "paperId": "ac83e4c21b2e8f52bb4c32054c9034b82a98955d",
      "externalIds": {
        "DBLP": "conf/icml/YeZ0Z18",
        "MAG": "2803751227",
        "CorpusId": 46972534
      },
      "url": "https://www.semanticscholar.org/paper/ac83e4c21b2e8f52bb4c32054c9034b82a98955d",
      "title": "Rectify Heterogeneous Models with Semantic Mapping",
      "venue": "International Conference on Machine Learning",
      "year": 2018,
      "referenceCount": 43,
      "citationCount": 33,
      "authors": [
        {
          "authorId": "2151459740",
          "name": "Han-Jia Ye"
        },
        {
          "authorId": "1721819",
          "name": "De-chuan Zhan"
        },
        {
          "authorId": "2192443",
          "name": "Yuan Jiang"
        },
        {
          "authorId": "145624000",
          "name": "Zhi-Hua Zhou"
        }
      ]
    },
    {
      "paperId": "65a5322ce0d87e7652689a80c90a68d12c356d2c",
      "externalIds": {
        "CorpusId": 46966814
      },
      "url": "https://www.semanticscholar.org/paper/65a5322ce0d87e7652689a80c90a68d12c356d2c",
      "title": "Supplementary Material for Rectify Heterogeneous Models with Semantic Mapping",
      "venue": "",
      "year": 2018,
      "referenceCount": 30,
      "citationCount": 1,
      "authors": [
        {
          "authorId": "2151459740",
          "name": "Han-Jia Ye"
        },
        {
          "authorId": "1721819",
          "name": "De-chuan Zhan"
        },
        {
          "authorId": "2192443",
          "name": "Yuan Jiang"
        },
        {
          "authorId": "145624000",
          "name": "Zhi-Hua Zhou"
        }
      ]
    },
    {
      "paperId": "6a1d361136da6983b5335ad74274d0e2d0b6fa67",
      "externalIds": {
        "DBLP": "journals/pami/YeZJZ21",
        "MAG": "3025169037",
        "DOI": "10.1109/TPAMI.2020.2994749",
        "CorpusId": 219489919,
        "PubMed": "32750764"
      },
      "url": "https://www.semanticscholar.org/paper/6a1d361136da6983b5335ad74274d0e2d0b6fa67",
      "title": "Heterogeneous Few-Shot Model Rectification With Semantic Mapping",
      "venue": "IEEE Transactions on Pattern Analysis and Machine Intelligence",
      "year": 2020,
      "referenceCount": 82,
      "citationCount": 35,
      "authors": [
        {
          "authorId": "2151459740",
          "name": "Han-Jia Ye"
        },
        {
          "authorId": "1721819",
          "name": "De-chuan Zhan"
        },
        {
          "authorId": "2192443",
          "name": "Yuan Jiang"
        },
        {
          "authorId": "145624000",
          "name": "Zhi-Hua Zhou"
        }
      ]
    },
    {
      "paperId": "6658b67e1da71b229ec9786fd1f468dacf2ba248",
      "externalIds": {
        "DBLP": "conf/smc/0001W0WZZ24",
        "DOI": "10.1109/SMC54092.2024.10831352",
        "CorpusId": 275773894
      },
      "url": "https://www.semanticscholar.org/paper/6658b67e1da71b229ec9786fd1f468dacf2ba248",
      "title": "Ontology Mapping-Based Semantic Reasoning with OPC UA for Heterogeneous Industrial Devices",
      "venue": "IEEE International Conference on Systems, Man and Cybernetics",
      "year": 2024,
      "referenceCount": 20,
      "citationCount": 2,
      "authors": [
        {
          "authorId": "2344116",
          "name": "J. Bi"
        },
        {
          "authorId": "2342059717",
          "name": "Rina Wu"
        },
        {
          "authorId": "34825854",
          "name": "Haitao Yuan"
        },
        {
          "authorId": "2221311752",
          "name": "Ziqi Wang"
        },
        {
          "authorId": "2108830806",
          "name": "Jia Zhang"
        },
        {
          "authorId": "2327513107",
          "name": "MengChu Zhou"
        }
      ]
    },
    {
      "paperId": "29bcecbc9690077ae77151d424aa722f30df2bca",
      "externalIds": {
        "DOI": "10.1109/OJITS.2024.3418552",
        "CorpusId": 270721862
      },
      "url": "https://www.semanticscholar.org/paper/29bcecbc9690077ae77151d424aa722f30df2bca",
      "title": "Global-Mapping-Consistency-Constrained Visual-Semantic Embedding for Interpreting Autonomous Perception Models",
      "venue": "IEEE Open Journal of Intelligent Transportation Systems",
      "year": 2024,
      "referenceCount": 51,
      "citationCount": 10,
      "authors": [
        {
          "authorId": "2284145154",
          "name": "Chi Zhang"
        },
        {
          "authorId": "2308833024",
          "name": "Meng Yuan"
        },
        {
          "authorId": "2275916252",
          "name": "Xiaoning Ma"
        },
        {
          "authorId": "2210105112",
          "name": "Ping Wei"
        },
        {
          "authorId": "2681681",
          "name": "Yuanqi Su"
        },
        {
          "authorId": "2156061620",
          "name": "Li Li"
        },
        {
          "authorId": "2269548683",
          "name": "Yuehu Liu"
        }
      ]
    },
    {
      "paperId": "4e94d83f61a339b9cb3fcc5f8b62be1b5f04d606",
      "externalIds": {
        "DBLP": "journals/aepia/AguilarBM25",
        "DOI": "10.4114/intartif.vol28iss76pp166-185",
        "CorpusId": 280385300
      },
      "url": "https://www.semanticscholar.org/paper/4e94d83f61a339b9cb3fcc5f8b62be1b5f04d606",
      "title": "Multi-Robot Exploration and Semantic Map Building: Heterogeneous Terrestrial Robots and a Drone",
      "venue": "Inteligencia Artif.",
      "year": 2025,
      "referenceCount": 0,
      "citationCount": 2,
      "authors": [
        {
          "authorId": "2060872592",
          "name": "G. Aguilar"
        },
        {
          "authorId": "145830385",
          "name": "Israel Becerra"
        },
        {
          "authorId": "1399074465",
          "name": "Rafael Murrieta-Cid"
        }
      ]
    },
    {
      "paperId": "3cfb9e74f3dbb08670c3a675538d3a109e2d69da",
      "externalIds": {
        "DBLP": "journals/iotj/BiWYWZZ25",
        "DOI": "10.1109/JIOT.2025.3556934",
        "CorpusId": 277691034
      },
      "url": "https://www.semanticscholar.org/paper/3cfb9e74f3dbb08670c3a675538d3a109e2d69da",
      "title": "Ontology-Based Semantic Reasoning for Multisource Heterogeneous Industrial Devices Using OPC UA",
      "venue": "IEEE Internet of Things Journal",
      "year": 2025,
      "referenceCount": 47,
      "citationCount": 2,
      "authors": [
        {
          "authorId": "2685010",
          "name": "Jingye Bi"
        },
        {
          "authorId": "2342059717",
          "name": "Rina Wu"
        },
        {
          "authorId": "34825854",
          "name": "Haitao Yuan"
        },
        {
          "authorId": "2221311752",
          "name": "Ziqi Wang"
        },
        {
          "authorId": "2108830806",
          "name": "Jia Zhang"
        },
        {
          "authorId": "2152967237",
          "name": "Mengchu Zhou"
        }
      ]
    },
    {
      "paperId": "6d14eb1709201991055ce1b5ab6ded5b49c7d98e",
      "externalIds": {
        "DOI": "10.3390/rs18010001",
        "CorpusId": 284102174
      },
      "url": "https://www.semanticscholar.org/paper/6d14eb1709201991055ce1b5ab6ded5b49c7d98e",
      "title": "SatViT-Seg: A Transformer-Only Lightweight Semantic Segmentation Model for Real-Time Land Cover Mapping of High-Resolution Remote Sensing Imagery on Satellites",
      "venue": "Remote Sensing",
      "year": 2025,
      "referenceCount": 22,
      "citationCount": 4,
      "authors": [
        {
          "authorId": "2369957913",
          "name": "Daoyu Shu"
        },
        {
          "authorId": "2292116346",
          "name": "Zhan Zhang"
        },
        {
          "authorId": "2400224012",
          "name": "Fang Wan"
        },
        {
          "authorId": "2382410593",
          "name": "W. Ru"
        },
        {
          "authorId": "2292115264",
          "name": "Bingnan Yang"
        },
        {
          "authorId": "2353832023",
          "name": "Yan Zhang"
        },
        {
          "authorId": "2152962436",
          "name": "Jianzhong Lu"
        },
        {
          "authorId": "2271136233",
          "name": "Xiaoling Chen"
        }
      ]
    },
    {
      "paperId": "00a022792d80823b7a3525767ad28fedbbc9ad63",
      "externalIds": {
        "DOI": "10.3390/rs17233856",
        "CorpusId": 283575605
      },
      "url": "https://www.semanticscholar.org/paper/00a022792d80823b7a3525767ad28fedbbc9ad63",
      "title": "GPRNet: A Geometric Prior-Refined Semantic Segmentation Network for Land Use and Land Cover Mapping",
      "venue": "Remote Sensing",
      "year": 2025,
      "referenceCount": 49,
      "citationCount": 2,
      "authors": [
        {
          "authorId": "2300372200",
          "name": "Zhuozheng Li"
        },
        {
          "authorId": "2194370946",
          "name": "Zhennan Xu"
        },
        {
          "authorId": "2141578457",
          "name": "Runliang Xia"
        },
        {
          "authorId": "2295794843",
          "name": "Jiahao Sun"
        },
        {
          "authorId": "2344816359",
          "name": "Ruihui Mu"
        },
        {
          "authorId": "2299331082",
          "name": "Liang Chen"
        },
        {
          "authorId": "73104034",
          "name": "Daofang Liu"
        },
        {
          "authorId": "2153897750",
          "name": "Xin Li"
        }
      ]
    },
    {
      "paperId": "eb0ec324a8ffaf7ef1e8dfeadd23d7f693663179",
      "externalIds": {
        "DOI": "10.1109/AIAC68175.2025.11332405",
        "CorpusId": 284806790
      },
      "url": "https://www.semanticscholar.org/paper/eb0ec324a8ffaf7ef1e8dfeadd23d7f693663179",
      "title": "Engineering Ontology Construction and Semantic Reasoning for Virtual-Physical Mapping",
      "venue": "2025 3rd International Conference on Artificial Intelligence and Automation Control (AIAC)",
      "year": 2025,
      "referenceCount": 17,
      "citationCount": 0,
      "authors": [
        {
          "authorId": "2272751256",
          "name": "Pei-de Liu"
        },
        {
          "authorId": "2321970493",
          "name": "Jun Xu"
        },
        {
          "authorId": "2140047297",
          "name": "Yuan Chang"
        }
      ]
    }
  ]
}