{
  "total": 9041,
  "offset": 0,
  "next": 10,
  "data": [
    {
      "paperId": "54b22fb5b2e2518a036a4bf622736e19c29fb96a",
      "externalIds": {
        "ArXiv": "1507.02284",
        "DBLP": "journals/corr/SteegG15",
        "MAG": "2950457622",
        "CorpusId": 8829881
      },
      "url": "https://www.semanticscholar.org/paper/54b22fb5b2e2518a036a4bf622736e19c29fb96a",
      "title": "The Information Sieve",
      "venue": "International Conference on Machine Learning",
      "year": 2015,
      "referenceCount": 35,
      "citationCount": 21,
      "authors": [
        {
          "authorId": "1719898",
          "name": "G. V. Steeg"
        },
        {
          "authorId": "143728483",
          "name": "A. Galstyan"
        }
      ]
    },
    {
      "paperId": "638ee50c90295c9a33ee6d9b2b7b815939355d2c",
      "externalIds": {
        "DOI": "10.1038/s41566-025-01733-x",
        "CorpusId": 281238691
      },
      "url": "https://www.semanticscholar.org/paper/638ee50c90295c9a33ee6d9b2b7b815939355d2c",
      "title": "Optical sieve for nanoplastic detection, sizing and counting",
      "venue": "Nature Photonics",
      "year": 2025,
      "referenceCount": 70,
      "citationCount": 16,
      "authors": [
        {
          "authorId": "94903666",
          "name": "D. Ludescher"
        },
        {
          "authorId": "153193908",
          "name": "L. Wesemann"
        },
        {
          "authorId": "2179272428",
          "name": "J. Schwab"
        },
        {
          "authorId": "2379879008",
          "name": "J. Karst"
        },
        {
          "authorId": "2185504288",
          "name": "S. Sulejman"
        },
        {
          "authorId": "103901349",
          "name": "M. Ubl"
        },
        {
          "authorId": "2060234778",
          "name": "B. Clarke"
        },
        {
          "authorId": "2267728046",
          "name": "A. Roberts"
        },
        {
          "authorId": "2248586758",
          "name": "H. Giessen"
        },
        {
          "authorId": "2250468561",
          "name": "M. Hentschel"
        }
      ]
    },
    {
      "paperId": "de7a4d2ef7232ea62a727f2f24cc208c9e5ed4e5",
      "externalIds": {
        "ArXiv": "2308.04458",
        "CorpusId": 260736044
      },
      "url": "https://www.semanticscholar.org/paper/de7a4d2ef7232ea62a727f2f24cc208c9e5ed4e5",
      "title": "The number of primes in short intervals and numerical calculations for Harman's sieve",
      "venue": "",
      "year": 2023,
      "referenceCount": 27,
      "citationCount": 7,
      "authors": [
        {
          "authorId": "2300422701",
          "name": "Runbo Li"
        }
      ]
    },
    {
      "paperId": "ab4bb08ef83eb35b8d59eff5c3d5dd4b2a94c9f2",
      "externalIds": {
        "DBLP": "journals/tim/HePYD23",
        "DOI": "10.1109/TIM.2023.3279451",
        "CorpusId": 258896748
      },
      "url": "https://www.semanticscholar.org/paper/ab4bb08ef83eb35b8d59eff5c3d5dd4b2a94c9f2",
      "title": "Contour–Context Joint Blind Image Inpainting Network for Molecular Sieve Particle Size Measurement of SEM Images",
      "venue": "IEEE Transactions on Instrumentation and Measurement",
      "year": 2023,
      "referenceCount": 31,
      "citationCount": 3,
      "authors": [
        {
          "authorId": "2218559714",
          "name": "Song He"
        },
        {
          "authorId": "2115816863",
          "name": "Xin Peng"
        },
        {
          "authorId": "34818378",
          "name": "Zhiqing Yuan"
        },
        {
          "authorId": "2152006176",
          "name": "Wenli Du"
        }
      ]
    },
    {
      "paperId": "1c6992ca3ed8e58b7f4b76d230ba646216f60833",
      "externalIds": {
        "DOI": "10.1016/j.chemosphere.2022.136111",
        "CorpusId": 251695829,
        "PubMed": "35995190"
      },
      "url": "https://www.semanticscholar.org/paper/1c6992ca3ed8e58b7f4b76d230ba646216f60833",
      "title": "Comprehensive analysis of spatial distribution of microplastics in Rawal Lake, Pakistan using trawl net and sieve sampling methods.",
      "venue": "Chemosphere",
      "year": 2022,
      "referenceCount": 91,
      "citationCount": 33,
      "authors": [
        {
          "authorId": "92268266",
          "name": "Rabia Nousheen"
        },
        {
          "authorId": "3155887",
          "name": "I. Hashmi"
        },
        {
          "authorId": "5104659",
          "name": "D. Rittschof"
        },
        {
          "authorId": "145394482",
          "name": "A. Capper"
        }
      ]
    },
    {
      "paperId": "2cd48bd493115491901ad0efe98691d9abdca1ae",
      "externalIds": {
        "DBLP": "journals/corr/abs-2204-03333",
        "ArXiv": "2204.03333",
        "DOI": "10.5194/isprs-annals-V-2-2022-227-2022",
        "CorpusId": 248006415
      },
      "url": "https://www.semanticscholar.org/paper/2cd48bd493115491901ad0efe98691d9abdca1ae",
      "title": "Learning to Sieve: Prediction of Grading Curves from Images of Concrete Aggregate",
      "venue": "ISPRS Annals of the Photogrammetry, Remote Sensing and Spatial Information Sciences",
      "year": 2022,
      "referenceCount": 20,
      "citationCount": 12,
      "authors": [
        {
          "authorId": "51176119",
          "name": "Max Coenen"
        },
        {
          "authorId": "2080123025",
          "name": "D. Beyer"
        },
        {
          "authorId": "2998107",
          "name": "C. Heipke"
        },
        {
          "authorId": "2161663065",
          "name": "M. Haist"
        }
      ]
    },
    {
      "paperId": "f41ac304a72a5effd6c534cce962e09ee0b4fb8a",
      "externalIds": {
        "MAG": "2989037405",
        "DOI": "10.1016/J.CUB.2019.12.043",
        "CorpusId": 211054826,
        "PubMed": "32037095"
      },
      "url": "https://www.semanticscholar.org/paper/f41ac304a72a5effd6c534cce962e09ee0b4fb8a",
      "title": "A Reservoir of Pluripotent Phloem Cells Safeguards the Linear Developmental Trajectory of Protophloem Sieve Elements.",
      "venue": "Current Biology",
      "year": 2020,
      "referenceCount": 56,
      "citationCount": 38,
      "authors": [
        {
          "authorId": "2539350",
          "name": "Bojan Gujas"
        },
        {
          "authorId": "6754189",
          "name": "E. Kastanaki"
        },
        {
          "authorId": "1473513479",
          "name": "Alessandra Sturchler"
        },
        {
          "authorId": "2251787322",
          "name": "Tiago M.D. Cruz"
        },
        {
          "authorId": "1405173014",
          "name": "M. A. Ruiz-Sola"
        },
        {
          "authorId": "2758663",
          "name": "R. Dreos"
        },
        {
          "authorId": "4306910",
          "name": "Simona Eicke"
        },
        {
          "authorId": "5692837",
          "name": "E. Truernit"
        },
        {
          "authorId": "1398522963",
          "name": "Antia Rodriguez-Villalon"
        }
      ]
    },
    {
      "paperId": "72eee80d08f619cf845390a5ca484903b65e522c",
      "externalIds": {
        "MAG": "3045942044",
        "DBLP": "journals/jamia/XuGZBBB20",
        "PubMedCentral": "7566510",
        "DOI": "10.1093/jamia/ocaa080",
        "CorpusId": 220840258,
        "PubMed": "32719838"
      },
      "url": "https://www.semanticscholar.org/paper/72eee80d08f619cf845390a5ca484903b65e522c",
      "title": "Unified Medical Language System resources improve sieve-based generation and Bidirectional Encoder Representations from Transformers (BERT)–based ranking for concept normalization",
      "venue": "J. Am. Medical Informatics Assoc.",
      "year": 2020,
      "referenceCount": 48,
      "citationCount": 23,
      "authors": [
        {
          "authorId": "144184419",
          "name": "Dongfang Xu"
        },
        {
          "authorId": "1840452640",
          "name": "Manoj Gopale"
        },
        {
          "authorId": "2107936415",
          "name": "Jiacheng Zhang"
        },
        {
          "authorId": "51048134",
          "name": "Kris Brown"
        },
        {
          "authorId": "2856308",
          "name": "Edmon Begoli"
        },
        {
          "authorId": "2105138",
          "name": "Steven Bethard"
        }
      ]
    },
    {
      "paperId": "d334aecafaf44b64d0a43503675b16c9a12b63f3",
      "externalIds": {
        "MAG": "2804563044",
        "DOI": "10.1021/ACS.IECR.8B00996",
        "CorpusId": 103197522
      },
      "url": "https://www.semanticscholar.org/paper/d334aecafaf44b64d0a43503675b16c9a12b63f3",
      "title": "Pressure Swing Adsorption for Biogas Upgrading with Carbon Molecular Sieve",
      "venue": "",
      "year": 2018,
      "referenceCount": 0,
      "citationCount": 102,
      "authors": [
        {
          "authorId": "89398063",
          "name": "R. Canevesi"
        },
        {
          "authorId": "89398063",
          "name": "R. Canevesi"
        },
        {
          "authorId": "145349002",
          "name": "K. A. Andreassen"
        },
        {
          "authorId": "2111350536",
          "name": "E. A. Silva"
        },
        {
          "authorId": "145517899",
          "name": "C. Borba"
        },
        {
          "authorId": "91683105",
          "name": "Carlos A. Grande"
        }
      ]
    },
    {
      "paperId": "e89fa2ae31c026d79c189b269b4df9f81e333719",
      "externalIds": {
        "DBLP": "journals/corr/abs-1711-04596",
        "MAG": "2769748476",
        "ArXiv": "1711.04596",
        "CorpusId": 22409059
      },
      "url": "https://www.semanticscholar.org/paper/e89fa2ae31c026d79c189b269b4df9f81e333719",
      "title": "Not all bytes are equal: Neural byte sieve for fuzzing",
      "venue": "arXiv.org",
      "year": 2017,
      "referenceCount": 21,
      "citationCount": 126,
      "authors": [
        {
          "authorId": "4791746",
          "name": "Mohit Rajpal"
        },
        {
          "authorId": "102868724",
          "name": "W. Blum"
        },
        {
          "authorId": "50631599",
          "name": "Rishabh Singh"
        }
      ]
    }
  ]
}