{
  "total": 104,
  "offset": 0,
  "next": 10,
  "data": [
    {
      "paperId": "5d7a1eded3f2ca38f0d73a8d5f964ddeacd5131c",
      "externalIds": {
        "MAG": "2790867397",
        "DBLP": "journals/corr/abs-1803-05999",
        "ArXiv": "1803.05999",
        "CorpusId": 3965803
      },
      "url": "https://www.semanticscholar.org/paper/5d7a1eded3f2ca38f0d73a8d5f964ddeacd5131c",
      "title": "Escaping Saddles with Stochastic Gradients",
      "venue": "International Conference on Machine Learning",
      "year": 2018,
      "referenceCount": 34,
      "citationCount": 174,
      "authors": [
        {
          "authorId": "1764651",
          "name": "Hadi Daneshmand"
        },
        {
          "authorId": "21673214",
          "name": "J. Kohler"
        },
        {
          "authorId": "40401747",
          "name": "Aurélien Lucchi"
        },
        {
          "authorId": "143936663",
          "name": "Thomas Hofmann"
        }
      ]
    },
    {
      "paperId": "18086f4c7600469786a062c3433648151ae750ba",
      "externalIds": {
        "CorpusId": 260447916
      },
      "url": "https://www.semanticscholar.org/paper/18086f4c7600469786a062c3433648151ae750ba",
      "title": "Escaping Saddles with Stochastic Gradients",
      "venue": "",
      "year": 2018,
      "referenceCount": 28,
      "citationCount": 0,
      "authors": [
        {
          "authorId": "1764651",
          "name": "Hadi Daneshmand"
        },
        {
          "authorId": "21673214",
          "name": "J. Kohler"
        }
      ]
    },
    {
      "paperId": "8cb4dad3ff10b8d14be9363ee889d4c28559f906",
      "externalIds": {
        "CorpusId": 260447915
      },
      "url": "https://www.semanticscholar.org/paper/8cb4dad3ff10b8d14be9363ee889d4c28559f906",
      "title": "Escaping Saddles with Stochastic Gradients",
      "venue": "",
      "year": 2018,
      "referenceCount": 0,
      "citationCount": 1,
      "authors": []
    },
    {
      "paperId": "976e1fd7b45934f1ca7f8aa4eb52618e2eb3d4d8",
      "externalIds": {
        "ArXiv": "2406.09780",
        "PubMedCentral": "13002861",
        "DOI": "10.1038/s41598-026-40123-3",
        "CorpusId": 270521983,
        "PubMed": "41703185"
      },
      "url": "https://www.semanticscholar.org/paper/976e1fd7b45934f1ca7f8aa4eb52618e2eb3d4d8",
      "title": "Impact of measurement noise on escaping saddles in variational quantum algorithms",
      "venue": "Scientific Reports",
      "year": 2024,
      "referenceCount": 54,
      "citationCount": 1,
      "authors": [
        {
          "authorId": "10287044",
          "name": "Eriko Kaminishi"
        },
        {
          "authorId": "2238342154",
          "name": "Takashi Mori"
        },
        {
          "authorId": "2099001682",
          "name": "M. Sugawara"
        },
        {
          "authorId": "2306785730",
          "name": "Naoki Yamamoto"
        }
      ]
    },
    {
      "paperId": "1828e3ef315f38e0deddc42929126baa4197de83",
      "externalIds": {
        "ArXiv": "2205.13753",
        "DBLP": "journals/corr/abs-2205-13753",
        "DOI": "10.48550/arXiv.2205.13753",
        "CorpusId": 249151943
      },
      "url": "https://www.semanticscholar.org/paper/1828e3ef315f38e0deddc42929126baa4197de83",
      "title": "HOUDINI: Escaping from Moderately Constrained Saddles",
      "venue": "International Joint Conference on Artificial Intelligence",
      "year": 2022,
      "referenceCount": 50,
      "citationCount": 0,
      "authors": [
        {
          "authorId": "69918058",
          "name": "Dmitrii Avdiukhin"
        },
        {
          "authorId": "1757584",
          "name": "G. Yaroslavtsev"
        }
      ]
    },
    {
      "paperId": "fcb9e16141a8c231a617e8c5bdfecd927cc97122",
      "externalIds": {
        "ArXiv": "2303.13093",
        "CorpusId": 257687258
      },
      "url": "https://www.semanticscholar.org/paper/fcb9e16141a8c231a617e8c5bdfecd927cc97122",
      "title": "Type-II Saddles and Probabilistic Stability of Stochastic Gradient Descent",
      "venue": "",
      "year": 2023,
      "referenceCount": 36,
      "citationCount": 9,
      "authors": [
        {
          "authorId": "12907562",
          "name": "Liu Ziyin"
        },
        {
          "authorId": "2355029065",
          "name": "Botao Li"
        },
        {
          "authorId": "9923405",
          "name": "Tomer Galanti"
        },
        {
          "authorId": "144365686",
          "name": "Masakuni Ueda"
        }
      ]
    },
    {
      "paperId": "c95cfb7d424e6433c99a32cdb6f5bfce327df9f9",
      "externalIds": {
        "ArXiv": "1904.09265",
        "MAG": "2937221077",
        "DBLP": "journals/corr/abs-1904-09265",
        "CorpusId": 126146724
      },
      "url": "https://www.semanticscholar.org/paper/c95cfb7d424e6433c99a32cdb6f5bfce327df9f9",
      "title": "SSRGD: Simple Stochastic Recursive Gradient Descent for Escaping Saddle Points",
      "venue": "Neural Information Processing Systems",
      "year": 2019,
      "referenceCount": 39,
      "citationCount": 43,
      "authors": [
        {
          "authorId": "2109714604",
          "name": "Zhize Li"
        }
      ]
    },
    {
      "paperId": "b9e508e168cac7e0207bc4e3e03df2d8883fae09",
      "externalIds": {
        "MAG": "2996480494",
        "DBLP": "conf/iclr/WangLA20",
        "ArXiv": "2106.02985",
        "CorpusId": 212802994
      },
      "url": "https://www.semanticscholar.org/paper/b9e508e168cac7e0207bc4e3e03df2d8883fae09",
      "title": "Escaping Saddle Points Faster with Stochastic Momentum",
      "venue": "International Conference on Learning Representations",
      "year": 2020,
      "referenceCount": 76,
      "citationCount": 25,
      "authors": [
        {
          "authorId": "2757901",
          "name": "Jun-Kun Wang"
        },
        {
          "authorId": "2299500074",
          "name": "Chi-Heng Lin"
        },
        {
          "authorId": "2738621",
          "name": "Jacob D. Abernethy"
        }
      ]
    },
    {
      "paperId": "84d115209a9419d9b5a6674245e5b4df7dd007b0",
      "externalIds": {
        "ArXiv": "2103.04413",
        "DBLP": "journals/corr/abs-2103-04413",
        "CorpusId": 232148096
      },
      "url": "https://www.semanticscholar.org/paper/84d115209a9419d9b5a6674245e5b4df7dd007b0",
      "title": "Escaping Saddle Points with Stochastically Controlled Stochastic Gradient Methods",
      "venue": "arXiv.org",
      "year": 2021,
      "referenceCount": 34,
      "citationCount": 3,
      "authors": [
        {
          "authorId": "46400517",
          "name": "Guannan Liang"
        },
        {
          "authorId": "2069943940",
          "name": "Qianqian Tong"
        },
        {
          "authorId": "2051725642",
          "name": "Chunjiang Zhu"
        },
        {
          "authorId": "38370684",
          "name": "J. Bi"
        }
      ]
    },
    {
      "paperId": "47673156e8de13ad9a1ccb1af8723d9332027002",
      "externalIds": {
        "DBLP": "conf/ijcai/Xian0H25",
        "DOI": "10.24963/ijcai.2025/741",
        "CorpusId": 281459464
      },
      "url": "https://www.semanticscholar.org/paper/47673156e8de13ad9a1ccb1af8723d9332027002",
      "title": "Escaping Saddle Point Efficiently in Minimax and Bilevel Optimizations",
      "venue": "International Joint Conference on Artificial Intelligence",
      "year": 2025,
      "referenceCount": 47,
      "citationCount": 2,
      "authors": [
        {
          "authorId": "151487059",
          "name": "Wenhan Xian"
        },
        {
          "authorId": "2279939630",
          "name": "Feihu Huang"
        },
        {
          "authorId": "2288286324",
          "name": "Heng Huang"
        }
      ]
    }
  ]
}