{
  "total": 78,
  "offset": 0,
  "next": 10,
  "data": [
    {
      "paperId": "0d628d0d299880abf2736da8ad51866e2ac3f016",
      "externalIds": {
        "DBLP": "conf/icml/FathonyBZZ18",
        "MAG": "2804347066",
        "CorpusId": 51871209
      },
      "url": "https://www.semanticscholar.org/paper/0d628d0d299880abf2736da8ad51866e2ac3f016",
      "title": "Efficient and Consistent Adversarial Bipartite Matching",
      "venue": "International Conference on Machine Learning",
      "year": 2018,
      "referenceCount": 55,
      "citationCount": 15,
      "authors": [
        {
          "authorId": "7320311",
          "name": "Rizal Fathony"
        },
        {
          "authorId": "2761655",
          "name": "Sima Behpour"
        },
        {
          "authorId": "2108029096",
          "name": "Xinhua Zhang"
        },
        {
          "authorId": "1753269",
          "name": "Brian D. Ziebart"
        }
      ]
    },
    {
      "paperId": "7b1b8733a3720a2f988119daeb952a121a9b9528",
      "externalIds": {
        "ArXiv": "2405.09784",
        "DBLP": "journals/corr/abs-2405-09784",
        "DOI": "10.48550/arXiv.2405.09784",
        "CorpusId": 269790989
      },
      "url": "https://www.semanticscholar.org/paper/7b1b8733a3720a2f988119daeb952a121a9b9528",
      "title": "Online bipartite matching with imperfect advice",
      "venue": "International Conference on Machine Learning",
      "year": 2024,
      "referenceCount": 51,
      "citationCount": 7,
      "authors": [
        {
          "authorId": "52031529",
          "name": "Davin Choo"
        },
        {
          "authorId": "2927590",
          "name": "Themis Gouleakis"
        },
        {
          "authorId": "2301456170",
          "name": "Chun Kai Ling"
        },
        {
          "authorId": "2256998338",
          "name": "A. Bhattacharyya"
        }
      ]
    },
    {
      "paperId": "d8b7cc47d62b4087c1a07c29ad40234e85c85c00",
      "externalIds": {
        "DBLP": "journals/mp/BorodinM25",
        "ArXiv": "2303.08908",
        "DOI": "10.1007/s10107-024-02184-y",
        "CorpusId": 257557510
      },
      "url": "https://www.semanticscholar.org/paper/d8b7cc47d62b4087c1a07c29ad40234e85c85c00",
      "title": "Online bipartite matching in the probe-commit model",
      "venue": "Mathematical programming",
      "year": 2023,
      "referenceCount": 59,
      "citationCount": 5,
      "authors": [
        {
          "authorId": "145354960",
          "name": "A. Borodin"
        },
        {
          "authorId": "2801490",
          "name": "Calum MacRury"
        }
      ]
    },
    {
      "paperId": "46fa3c8fb49eb8f382ad3475220c1da6b4173638",
      "externalIds": {
        "DBLP": "journals/corr/abs-2410-03973",
        "ArXiv": "2410.03973",
        "DOI": "10.48550/arXiv.2410.03973",
        "CorpusId": 273185720
      },
      "url": "https://www.semanticscholar.org/paper/46fa3c8fb49eb8f382ad3475220c1da6b4173638",
      "title": "Efficient Training of Neural Stochastic Differential Equations by Matching Finite Dimensional Distributions",
      "venue": "International Conference on Learning Representations",
      "year": 2024,
      "referenceCount": 30,
      "citationCount": 4,
      "authors": [
        {
          "authorId": "2360350801",
          "name": "Jianxin Zhang"
        },
        {
          "authorId": "2324782652",
          "name": "Josh Viktorov"
        },
        {
          "authorId": "2324784317",
          "name": "Doosan Jung"
        },
        {
          "authorId": "2585932",
          "name": "Emily Pitler"
        }
      ]
    },
    {
      "paperId": "d6fecfffd45f7c6701145683c39fb3997a1cb3dd",
      "externalIds": {
        "DOI": "10.2523/iptc-25116-ms",
        "CorpusId": 284733127
      },
      "url": "https://www.semanticscholar.org/paper/d6fecfffd45f7c6701145683c39fb3997a1cb3dd",
      "title": "Reservoir History Matching Using Mirror Generative Adversarial Network",
      "venue": "IPTC Summit on AI for the Energy Industry",
      "year": 2026,
      "referenceCount": 18,
      "citationCount": 0,
      "authors": [
        {
          "authorId": "2370164472",
          "name": "Haiyang Chen"
        },
        {
          "authorId": "2386064647",
          "name": "Liang Xue"
        },
        {
          "authorId": "2268367535",
          "name": "Di Tian"
        },
        {
          "authorId": "2323039983",
          "name": "Yubing Dong"
        },
        {
          "authorId": "2404514201",
          "name": "Gaofeng Zou"
        }
      ]
    },
    {
      "paperId": "16bd664d0b915a90992ae58d18bb8175a351f297",
      "externalIds": {
        "DOI": "10.3390/rs18010008",
        "CorpusId": 284100775
      },
      "url": "https://www.semanticscholar.org/paper/16bd664d0b915a90992ae58d18bb8175a351f297",
      "title": "MTFM: Multi-Teacher Feature Matching for Cross-Dataset and Cross-Architecture Adversarial Robustness Transfer in Remote Sensing Applications",
      "venue": "Remote Sensing",
      "year": 2025,
      "referenceCount": 9,
      "citationCount": 0,
      "authors": [
        {
          "authorId": "2372782803",
          "name": "Ravi Kumar Rogannagari"
        },
        {
          "authorId": "2267048889",
          "name": "K. A. Islam"
        }
      ]
    },
    {
      "paperId": "eabcae99140abb7937a59e7d49186916c2957a02",
      "externalIds": {
        "ArXiv": "2511.01419",
        "DBLP": "journals/corr/abs-2511-01419",
        "DOI": "10.48550/arXiv.2511.01419",
        "CorpusId": 282739671
      },
      "url": "https://www.semanticscholar.org/paper/eabcae99140abb7937a59e7d49186916c2957a02",
      "title": "Towards One-step Causal Video Generation via Adversarial Self-Distillation",
      "venue": "arXiv.org",
      "year": 2025,
      "referenceCount": 55,
      "citationCount": 7,
      "authors": [
        {
          "authorId": "2220653886",
          "name": "Yongqi Yang"
        },
        {
          "authorId": "2332847142",
          "name": "Huayang Huang"
        },
        {
          "authorId": "2273353475",
          "name": "Xu Peng"
        },
        {
          "authorId": "2290028481",
          "name": "Xiaobin Hu"
        },
        {
          "authorId": "9393671",
          "name": "Donghao Luo"
        },
        {
          "authorId": "2290008427",
          "name": "Jiangning Zhang"
        },
        {
          "authorId": "2352512100",
          "name": "Chengjie Wang"
        },
        {
          "authorId": "2332297626",
          "name": "Yu Wu"
        }
      ]
    },
    {
      "paperId": "a39a8495eda71b1b4604b8e2e7c4d6b7bd8cef5f",
      "externalIds": {
        "DBLP": "journals/mp/RosaK23",
        "ArXiv": "2108.11911",
        "DOI": "10.1007/s10107-023-01932-w",
        "CorpusId": 237304090
      },
      "url": "https://www.semanticscholar.org/paper/a39a8495eda71b1b4604b8e2e7c4d6b7bd8cef5f",
      "title": "Efficient joint object matching via linear programming",
      "venue": "Mathematical programming",
      "year": 2021,
      "referenceCount": 47,
      "citationCount": 5,
      "authors": [
        {
          "authorId": "150010036",
          "name": "A. De Rosa"
        },
        {
          "authorId": "3054730",
          "name": "Aida Khajavirad"
        }
      ]
    },
    {
      "paperId": "4e3501f4096a4bc8fbe7bb530ba4f6fbc9d0bafd",
      "externalIds": {
        "CorpusId": 251437434
      },
      "url": "https://www.semanticscholar.org/paper/4e3501f4096a4bc8fbe7bb530ba4f6fbc9d0bafd",
      "title": "Cascade-BGNN: Toward Efficient Self-supervised Representation Learning on Large-scale Bipartite Graphs",
      "venue": "",
      "year": 2022,
      "referenceCount": 24,
      "citationCount": 24,
      "authors": [
        {
          "authorId": "2057038026",
          "name": "Tian Xie"
        },
        {
          "authorId": "2114834318",
          "name": "Xiang Ren"
        },
        {
          "authorId": "1773086",
          "name": "C. Shahabi"
        }
      ]
    },
    {
      "paperId": "a5a35f765fb2c79c79f1fb25c553c0e5630c23fd",
      "externalIds": {
        "DOI": "10.1007/s00224-019-09916-0",
        "CorpusId": 253746749
      },
      "url": "https://www.semanticscholar.org/paper/a5a35f765fb2c79c79f1fb25c553c0e5630c23fd",
      "title": "On Conceptually Simple Algorithms for Variants of Online Bipartite Matching",
      "venue": "Theory of Computing Systems",
      "year": 2019,
      "referenceCount": 0,
      "citationCount": 4,
      "authors": [
        {
          "authorId": "145354960",
          "name": "A. Borodin"
        },
        {
          "authorId": "145646749",
          "name": "D. Pankratov"
        },
        {
          "authorId": "1403711294",
          "name": "Amirali Salehi-Abari"
        }
      ]
    }
  ]
}