{
  "total": 2413,
  "offset": 0,
  "next": 10,
  "data": [
    {
      "paperId": "416c15e0bcd9e0a0a4ffd329d42a01667c852243",
      "externalIds": {
        "MAG": "2741213779",
        "DBLP": "conf/icml/WangL17",
        "CorpusId": 11457218
      },
      "url": "https://www.semanticscholar.org/paper/416c15e0bcd9e0a0a4ffd329d42a01667c852243",
      "title": "Tensor Decomposition via Simultaneous Power Iteration",
      "venue": "International Conference on Machine Learning",
      "year": 2017,
      "referenceCount": 12,
      "citationCount": 15,
      "authors": [
        {
          "authorId": "20514676",
          "name": "Po-An Wang"
        },
        {
          "authorId": "1390518825",
          "name": "Chi-Jen Lu"
        }
      ]
    },
    {
      "paperId": "fe574262aac92ddfc0dd1b2f0a5227aa56dfa403",
      "externalIds": {
        "CorpusId": 35295525
      },
      "url": "https://www.semanticscholar.org/paper/fe574262aac92ddfc0dd1b2f0a5227aa56dfa403",
      "title": "Tensor Decomposition via Simultaneous Power Iteration ( Supplementary Material )",
      "venue": "",
      "year": 2017,
      "referenceCount": 9,
      "citationCount": 0,
      "authors": [
        {
          "authorId": "20514676",
          "name": "Po-An Wang"
        },
        {
          "authorId": "1390518825",
          "name": "Chi-Jen Lu"
        }
      ]
    },
    {
      "paperId": "bbe7205347bd3a35e8c325475a0aab2986499844",
      "externalIds": {
        "ArXiv": "1805.10348",
        "MAG": "2803582824",
        "DBLP": "journals/corr/abs-1805-10348",
        "CorpusId": 44092704
      },
      "url": "https://www.semanticscholar.org/paper/bbe7205347bd3a35e8c325475a0aab2986499844",
      "title": "Guaranteed Simultaneous Asymmetric Tensor Decomposition via Orthogonalized Alternating Least Squares",
      "venue": "arXiv.org",
      "year": 2018,
      "referenceCount": 31,
      "citationCount": 4,
      "authors": [
        {
          "authorId": "2190937653",
          "name": "Jialin Li"
        },
        {
          "authorId": "2117426487",
          "name": "Furong Huang"
        }
      ]
    },
    {
      "paperId": "a943c1a53f82c89faf934bc0b9031073d769f45f",
      "externalIds": {
        "ArXiv": "2506.22564",
        "DBLP": "journals/corr/abs-2506-22564",
        "DOI": "10.48550/arXiv.2506.22564",
        "CorpusId": 280016144
      },
      "url": "https://www.semanticscholar.org/paper/a943c1a53f82c89faf934bc0b9031073d769f45f",
      "title": "Efficient Tensor Decomposition via Moment Matrix Extension",
      "venue": "arXiv.org",
      "year": 2025,
      "referenceCount": 0,
      "citationCount": 2,
      "authors": [
        {
          "authorId": "2150089036",
          "name": "Bobby Shi"
        },
        {
          "authorId": "2071114857",
          "name": "J. Lindberg"
        },
        {
          "authorId": "2614183",
          "name": "Joe Kileel"
        }
      ]
    },
    {
      "paperId": "0784b8c34a12157cda3bd5f771a7ee412a1c99c2",
      "externalIds": {
        "DBLP": "journals/corr/abs-2501-08727",
        "ArXiv": "2501.08727",
        "DOI": "10.48550/arXiv.2501.08727",
        "CorpusId": 275544425
      },
      "url": "https://www.semanticscholar.org/paper/0784b8c34a12157cda3bd5f771a7ee412a1c99c2",
      "title": "Transformed Low-rank Adaptation via Tensor Decomposition and Its Applications to Text-to-image Models",
      "venue": "arXiv.org",
      "year": 2025,
      "referenceCount": 77,
      "citationCount": 3,
      "authors": [
        {
          "authorId": "2071416325",
          "name": "Zerui Tao"
        },
        {
          "authorId": "51245193",
          "name": "Yuhta Takida"
        },
        {
          "authorId": "1894623",
          "name": "N. Murata"
        },
        {
          "authorId": "2262402744",
          "name": "Qibin Zhao"
        },
        {
          "authorId": "2253398841",
          "name": "Yuki Mitsufuji"
        }
      ]
    },
    {
      "paperId": "53c52831d5ac6a9e78a9b7685d3c9289e9f01bd5",
      "externalIds": {
        "DBLP": "journals/tsp/ChenW25",
        "DOI": "10.1109/TSP.2025.3615251",
        "CorpusId": 281917721
      },
      "url": "https://www.semanticscholar.org/paper/53c52831d5ac6a9e78a9b7685d3c9289e9f01bd5",
      "title": "Power Spectrum Unmixing via Coupled Tensor Decomposition: Unified Identifiability and Algebraic Solution",
      "venue": "IEEE Transactions on Signal Processing",
      "year": 2025,
      "referenceCount": 54,
      "citationCount": 0,
      "authors": [
        {
          "authorId": "2109072610",
          "name": "Xiaonan Chen"
        },
        {
          "authorId": "2152811705",
          "name": "Jun Wang"
        }
      ]
    },
    {
      "paperId": "ad7b5f0117f8dfea366a16687cf7f31380cf03da",
      "externalIds": {
        "DBLP": "journals/corr/abs-2411-14344",
        "ArXiv": "2411.14344",
        "DOI": "10.1109/FOCS63196.2025.00098",
        "CorpusId": 274166100
      },
      "url": "https://www.semanticscholar.org/paper/ad7b5f0117f8dfea366a16687cf7f31380cf03da",
      "title": "Overcomplete Tensor Decomposition via Koszul-Young Flattenings",
      "venue": "IEEE Annual Symposium on Foundations of Computer Science",
      "year": 2024,
      "referenceCount": 70,
      "citationCount": 4,
      "authors": [
        {
          "authorId": "2249763939",
          "name": "Pravesh K. Kothari"
        },
        {
          "authorId": "2286516261",
          "name": "Ankur Moitra"
        },
        {
          "authorId": "2298785031",
          "name": "Alex Wein"
        }
      ]
    },
    {
      "paperId": "41f11c07ccd8ffa0cf8543e3b8bf70e858e58ddf",
      "externalIds": {
        "MAG": "2972410720",
        "ArXiv": "1909.06503",
        "CorpusId": 202577680
      },
      "url": "https://www.semanticscholar.org/paper/41f11c07ccd8ffa0cf8543e3b8bf70e858e58ddf",
      "title": "Community Detection for Hypergraph Networks via Regularized Tensor Power Iteration",
      "venue": "",
      "year": 2019,
      "referenceCount": 49,
      "citationCount": 87,
      "authors": [
        {
          "authorId": "39622714",
          "name": "Z. Ke"
        },
        {
          "authorId": "2053743297",
          "name": "Feng Shi"
        },
        {
          "authorId": "47299120",
          "name": "Dong Xia"
        }
      ]
    },
    {
      "paperId": "05d0d7a2d068d100e3bf51c9cd817628adffa6e5",
      "externalIds": {
        "DBLP": "journals/tjs/MisraAJCY25",
        "DOI": "10.1007/s11227-025-07049-5",
        "CorpusId": 276636524
      },
      "url": "https://www.semanticscholar.org/paper/05d0d7a2d068d100e3bf51c9cd817628adffa6e5",
      "title": "Randomized tensor decomposition using parallel reconfigurable systems",
      "venue": "Journal of Supercomputing",
      "year": 2025,
      "referenceCount": 50,
      "citationCount": 0,
      "authors": [
        {
          "authorId": "1685673837",
          "name": "Ajita Misra"
        },
        {
          "authorId": "2287165902",
          "name": "Muhammad A. A. Abdelgawad"
        },
        {
          "authorId": "2347451332",
          "name": "Peng Jing"
        },
        {
          "authorId": "2287580403",
          "name": "Ray C. C. Cheung"
        },
        {
          "authorId": "2262426821",
          "name": "Hong Yan"
        }
      ]
    },
    {
      "paperId": "3438fc022d4d09860b6aaa8e1d7d39e0d29615a9",
      "externalIds": {
        "PubMedCentral": "11970481",
        "DOI": "10.1126/sciadv.adr4310",
        "CorpusId": 277571848,
        "PubMed": "40184465"
      },
      "url": "https://www.semanticscholar.org/paper/3438fc022d4d09860b6aaa8e1d7d39e0d29615a9",
      "title": "Simultaneous acclimation to nitrogen and iron scarcity in open ocean cyanobacteria revealed by sparse tensor decomposition of metatranscriptomes",
      "venue": "Science Advances",
      "year": 2025,
      "referenceCount": 77,
      "citationCount": 0,
      "authors": [
        {
          "authorId": "2275798025",
          "name": "S. Blaskowski"
        },
        {
          "authorId": "2312036934",
          "name": "Marie Roald"
        },
        {
          "authorId": "46969918",
          "name": "P. Berube"
        },
        {
          "authorId": "47885939",
          "name": "Rogier Braakman"
        },
        {
          "authorId": "15841112",
          "name": "E. Armbrust"
        }
      ]
    }
  ]
}