{
  "total": 3885,
  "offset": 0,
  "next": 10,
  "data": [
    {
      "paperId": "77826df024f97583eb05700a28e11056a4aab848",
      "externalIds": {
        "MAG": "2950808653",
        "ArXiv": "1705.10229",
        "DBLP": "conf/icml/WenMBY17",
        "CorpusId": 9769916
      },
      "url": "https://www.semanticscholar.org/paper/77826df024f97583eb05700a28e11056a4aab848",
      "title": "Latent Intention Dialogue Models",
      "venue": "International Conference on Machine Learning",
      "year": 2017,
      "referenceCount": 47,
      "citationCount": 147,
      "authors": [
        {
          "authorId": "144256365",
          "name": "Tsung-Hsien Wen"
        },
        {
          "authorId": "2666898",
          "name": "Yishu Miao"
        },
        {
          "authorId": "1685771",
          "name": "Phil Blunsom"
        },
        {
          "authorId": "145259603",
          "name": "S. Young"
        }
      ]
    },
    {
      "paperId": "7d8b53be47a5c03c6034754dadbea5498c1b89fe",
      "externalIds": {
        "ACL": "2023.sicon-1.1",
        "DOI": "10.18653/v1/2023.sicon-1.1",
        "CorpusId": 259267683
      },
      "url": "https://www.semanticscholar.org/paper/7d8b53be47a5c03c6034754dadbea5498c1b89fe",
      "title": "Eliciting Rich Positive Emotions in Dialogue Generation",
      "venue": "SICON",
      "year": 2023,
      "referenceCount": 37,
      "citationCount": 5,
      "authors": [
        {
          "authorId": "51122081",
          "name": "Ziwei Gong"
        },
        {
          "authorId": "29447234",
          "name": "Qingkai Min"
        },
        {
          "authorId": "2145914458",
          "name": "Yue Zhang"
        }
      ]
    },
    {
      "paperId": "8da18b7923c568480e8af4f6849a08d8e3305472",
      "externalIds": {
        "DBLP": "conf/icaart/ChinaeiCL09a",
        "MAG": "2200810224",
        "DOI": "10.1007/978-3-642-11819-7_12",
        "CorpusId": 26824009
      },
      "url": "https://www.semanticscholar.org/paper/8da18b7923c568480e8af4f6849a08d8e3305472",
      "title": "Application of Hidden Topic Markov Models on Spoken Dialogue Systems",
      "venue": "International Conference on Agents and Artificial Intelligence",
      "year": 2009,
      "referenceCount": 21,
      "citationCount": 3,
      "authors": [
        {
          "authorId": "123090878",
          "name": "H. Chinaei"
        },
        {
          "authorId": "1399443272",
          "name": "B. Chaib-draa"
        },
        {
          "authorId": "145385361",
          "name": "Luc Lamontagne"
        }
      ]
    },
    {
      "paperId": "3074248a950e8c24aae007ae81a9753f4e1c2692",
      "externalIds": {
        "CorpusId": 281104180
      },
      "url": "https://www.semanticscholar.org/paper/3074248a950e8c24aae007ae81a9753f4e1c2692",
      "title": "What’s On My Mind: Modelling Latent Human Thoughts via Reasoning Traces",
      "venue": "",
      "year": null,
      "referenceCount": 3,
      "citationCount": 0,
      "authors": [
        {
          "authorId": "2310433787",
          "name": "A. Bhatia"
        }
      ]
    },
    {
      "paperId": "b5b285cf0c39174bb2c2f35c39d7313ad27b7a04",
      "externalIds": {
        "MAG": "191497374",
        "DBLP": "conf/icaart/ChinaeiCL09",
        "DOI": "10.5220/0001663801070114",
        "CorpusId": 6283764
      },
      "url": "https://www.semanticscholar.org/paper/b5b285cf0c39174bb2c2f35c39d7313ad27b7a04",
      "title": "Learning User Intentions in Spoken Dialogue Systems",
      "venue": "International Conference on Agents and Artificial Intelligence",
      "year": 2009,
      "referenceCount": 22,
      "citationCount": 11,
      "authors": [
        {
          "authorId": "123090878",
          "name": "H. Chinaei"
        },
        {
          "authorId": "1399443272",
          "name": "B. Chaib-draa"
        },
        {
          "authorId": "145385361",
          "name": "Luc Lamontagne"
        }
      ]
    },
    {
      "paperId": "38af3d4065f7a28ff60df2ab3864d2f00e33e946",
      "externalIds": {
        "DBLP": "conf/ieaaie/MatsuyamaKTOO10",
        "MAG": "1563704515",
        "DOI": "10.1007/978-3-642-13025-0_60",
        "CorpusId": 15490736
      },
      "url": "https://www.semanticscholar.org/paper/38af3d4065f7a28ff60df2ab3864d2f00e33e946",
      "title": "Improving Identification Accuracy by Extending Acceptable Utterances in Spoken Dialogue System Using Barge-in Timing",
      "venue": "International Conference on Industrial, Engineering and Other Applications of Applied Intelligent Systems",
      "year": 2010,
      "referenceCount": 13,
      "citationCount": 1,
      "authors": [
        {
          "authorId": "1760833",
          "name": "Kyoko Matsuyama"
        },
        {
          "authorId": "145179848",
          "name": "Kazunori Komatani"
        },
        {
          "authorId": "2117191474",
          "name": "Toru Takahashi"
        },
        {
          "authorId": "50527812",
          "name": "T. Ogata"
        },
        {
          "authorId": "1775800",
          "name": "Hiroshi G. Okuno"
        }
      ]
    },
    {
      "paperId": "d6a5109286787ee5e53f4f137253040dcc273094",
      "externalIds": {
        "ArXiv": "2507.00603",
        "DBLP": "journals/corr/abs-2507-00603",
        "DOI": "10.48550/arXiv.2507.00603",
        "CorpusId": 280115120
      },
      "url": "https://www.semanticscholar.org/paper/d6a5109286787ee5e53f4f137253040dcc273094",
      "title": "World4Drive: End-to-End Autonomous Driving via Intention-aware Physical Latent World Model",
      "venue": "arXiv.org",
      "year": 2025,
      "referenceCount": 52,
      "citationCount": 54,
      "authors": [
        {
          "authorId": "2357068526",
          "name": "Yupeng Zheng"
        },
        {
          "authorId": "2333981164",
          "name": "Pengxuan Yang"
        },
        {
          "authorId": "2304446965",
          "name": "Zebin Xing"
        },
        {
          "authorId": "2291071969",
          "name": "Qichao Zhang"
        },
        {
          "authorId": "2239159684",
          "name": "Yuhang Zheng"
        },
        {
          "authorId": "2118545769",
          "name": "Yinfeng Gao"
        },
        {
          "authorId": "2421777170",
          "name": "Pengfei Li"
        },
        {
          "authorId": "2341445537",
          "name": "Teng Zhang"
        },
        {
          "authorId": "3326641",
          "name": "Zhongpu Xia"
        },
        {
          "authorId": "2353954278",
          "name": "Peng Jia"
        },
        {
          "authorId": "2259831523",
          "name": "Dongbin Zhao"
        }
      ]
    },
    {
      "paperId": "8781e2a7919c45a173853d7e7bef6fbd4b45d391",
      "externalIds": {
        "DBLP": "conf/acl/0002HBZ23",
        "ACL": "2023.acl-long.533",
        "ArXiv": "2305.15175",
        "DOI": "10.48550/arXiv.2305.15175",
        "CorpusId": 258866079
      },
      "url": "https://www.semanticscholar.org/paper/8781e2a7919c45a173853d7e7bef6fbd4b45d391",
      "title": "Pre-training Multi-party Dialogue Models with Latent Discourse Inference",
      "venue": "Annual Meeting of the Association for Computational Linguistics",
      "year": 2023,
      "referenceCount": 39,
      "citationCount": 7,
      "authors": [
        {
          "authorId": "2110418724",
          "name": "Yiyang Li"
        },
        {
          "authorId": "14799547",
          "name": "Xinting Huang"
        },
        {
          "authorId": "1844673750",
          "name": "Wei Bi"
        },
        {
          "authorId": "2146232510",
          "name": "Hai Zhao"
        }
      ]
    },
    {
      "paperId": "50c6b8588196684a69e4bee4720021e7e7e8ecf3",
      "externalIds": {
        "ArXiv": "2603.17837",
        "CorpusId": 286643714
      },
      "url": "https://www.semanticscholar.org/paper/50c6b8588196684a69e4bee4720021e7e7e8ecf3",
      "title": "The Silent Thought: Modeling Internal Cognition in Full-Duplex Spoken Dialogue Models via Latent Reasoning",
      "venue": "",
      "year": 2026,
      "referenceCount": 76,
      "citationCount": 0,
      "authors": [
        {
          "authorId": "2372143747",
          "name": "Donghang Wu"
        },
        {
          "authorId": "2397282055",
          "name": "Tianyu Zhang"
        },
        {
          "authorId": "2348686704",
          "name": "Yuxin Li"
        },
        {
          "authorId": "2367037254",
          "name": "Hexin Liu"
        },
        {
          "authorId": "2279256911",
          "name": "Chen Chen"
        },
        {
          "authorId": "2457835",
          "name": "E. Chng"
        },
        {
          "authorId": "2211024206",
          "name": "Y. Bengio"
        }
      ]
    },
    {
      "paperId": "a02b039843dc4fe5d2d2fb29def6d414519541ed",
      "externalIds": {
        "DBLP": "journals/corr/abs-2503-04201",
        "ArXiv": "2503.04201",
        "DOI": "10.1145/3701716.3718372",
        "CorpusId": 276813667
      },
      "url": "https://www.semanticscholar.org/paper/a02b039843dc4fe5d2d2fb29def6d414519541ed",
      "title": "Knowledge-Decoupled Synergetic Learning: An MLLM based Collaborative Approach to Few-shot Multimodal Dialogue Intention Recognition",
      "venue": "The Web Conference",
      "year": 2025,
      "referenceCount": 20,
      "citationCount": 6,
      "authors": [
        {
          "authorId": "2344436251",
          "name": "Bin Chen"
        },
        {
          "authorId": "2348932612",
          "name": "Yu Zhang"
        },
        {
          "authorId": "2349091710",
          "name": "Hongfei Ye"
        },
        {
          "authorId": "2362961393",
          "name": "Yizi Huang"
        },
        {
          "authorId": "2108378021",
          "name": "Hongyang Chen"
        }
      ]
    }
  ]
}