{
  "total": 231,
  "offset": 0,
  "next": 10,
  "data": [
    {
      "paperId": "2dcef55a07f8607a819c21fe84131ea269cc2e3c",
      "externalIds": {
        "MAG": "2129069237",
        "DBLP": "journals/corr/Sohl-DicksteinW15",
        "ArXiv": "1503.03585",
        "CorpusId": 14888175
      },
      "url": "https://www.semanticscholar.org/paper/2dcef55a07f8607a819c21fe84131ea269cc2e3c",
      "title": "Deep Unsupervised Learning using Nonequilibrium Thermodynamics",
      "venue": "International Conference on Machine Learning",
      "year": 2015,
      "referenceCount": 60,
      "citationCount": 9595,
      "authors": [
        {
          "authorId": "1407546424",
          "name": "Jascha Narain Sohl-Dickstein"
        },
        {
          "authorId": "2144479710",
          "name": "Eric A. Weiss"
        },
        {
          "authorId": "2333223",
          "name": "Niru Maheswaranathan"
        },
        {
          "authorId": "25769960",
          "name": "S. Ganguli"
        }
      ]
    },
    {
      "paperId": "941c8fa86a42806bdb671c33c82d173a4548bc7c",
      "externalIds": {
        "DBLP": "journals/arobots/GaoZ17",
        "MAG": "2290577462",
        "DOI": "10.1007/s10514-015-9516-2",
        "CorpusId": 32167228
      },
      "url": "https://www.semanticscholar.org/paper/941c8fa86a42806bdb671c33c82d173a4548bc7c",
      "title": "Unsupervised learning to detect loops using deep neural networks for visual SLAM system",
      "venue": "Autonomous Robots",
      "year": 2015,
      "referenceCount": 59,
      "citationCount": 178,
      "authors": [
        {
          "authorId": "143856160",
          "name": "Xiang Gao"
        },
        {
          "authorId": "1689115",
          "name": "Zhang Tao"
        }
      ]
    },
    {
      "paperId": "15968f0809d11fada339a6e69cdaf02632ff1932",
      "externalIds": {
        "MAG": "2293167034",
        "DBLP": "conf/iconip/ElleuchTK15",
        "DOI": "10.1007/978-3-319-26532-2_40",
        "CorpusId": 32809491
      },
      "url": "https://www.semanticscholar.org/paper/15968f0809d11fada339a6e69cdaf02632ff1932",
      "title": "Towards Unsupervised Learning for Arabic Handwritten Recognition Using Deep Architectures",
      "venue": "International Conference on Neural Information Processing",
      "year": 2015,
      "referenceCount": 30,
      "citationCount": 30,
      "authors": [
        {
          "authorId": "2065367778",
          "name": "Mohamed Elleuch"
        },
        {
          "authorId": "2821832",
          "name": "Najiba Tagougui"
        },
        {
          "authorId": "2139481",
          "name": "M. Kherallah"
        }
      ]
    },
    {
      "paperId": "8388f1be26329fa45e5807e968a641ce170ea078",
      "externalIds": {
        "MAG": "2949811265",
        "ArXiv": "1511.06434",
        "DBLP": "journals/corr/RadfordMC15",
        "CorpusId": 11758569
      },
      "url": "https://www.semanticscholar.org/paper/8388f1be26329fa45e5807e968a641ce170ea078",
      "title": "Unsupervised Representation Learning with Deep Convolutional Generative Adversarial Networks",
      "venue": "International Conference on Learning Representations",
      "year": 2015,
      "referenceCount": 45,
      "citationCount": 14986,
      "authors": [
        {
          "authorId": "38909097",
          "name": "Alec Radford"
        },
        {
          "authorId": "2096458",
          "name": "Luke Metz"
        },
        {
          "authorId": "2127604",
          "name": "Soumith Chintala"
        }
      ]
    },
    {
      "paperId": "510f70d73534c27e9808ee91c5ca6eb90136ef57",
      "externalIds": {
        "MAG": "2260011764",
        "CorpusId": 313567
      },
      "url": "https://www.semanticscholar.org/paper/510f70d73534c27e9808ee91c5ca6eb90136ef57",
      "title": "EEG Based Emotion Identification Using Unsupervised Deep Feature Learning",
      "venue": "",
      "year": 2015,
      "referenceCount": 5,
      "citationCount": 75,
      "authors": [
        {
          "authorId": "2144439454",
          "name": "Xiang Li"
        },
        {
          "authorId": "33623312",
          "name": "Peng Zhang"
        },
        {
          "authorId": "48437245",
          "name": "D. Song"
        },
        {
          "authorId": "3941918",
          "name": "Guangliang Yu"
        },
        {
          "authorId": "1785922",
          "name": "Yuexian Hou"
        },
        {
          "authorId": "144010725",
          "name": "B. Hu"
        }
      ]
    },
    {
      "paperId": "df72c26f167ec9801a08d4763c6e8a27b6ba17f9",
      "externalIds": {
        "MAG": "2895752919",
        "CorpusId": 69272707
      },
      "url": "https://www.semanticscholar.org/paper/df72c26f167ec9801a08d4763c6e8a27b6ba17f9",
      "title": "Multi-modal learning using an unsupervised Deep Learning Architecture",
      "venue": "",
      "year": 2015,
      "referenceCount": 0,
      "citationCount": 0,
      "authors": [
        {
          "authorId": "24435650",
          "name": "Mohammed Shameer Iqbal"
        }
      ]
    },
    {
      "paperId": "a25858fa063ec78285d7aef3ccba3462fd2d5533",
      "externalIds": {
        "MAG": "822362947",
        "DBLP": "journals/corr/NimmagaddaA15",
        "ArXiv": "1505.00308",
        "CorpusId": 14343312
      },
      "url": "https://www.semanticscholar.org/paper/a25858fa063ec78285d7aef3ccba3462fd2d5533",
      "title": "Multi-Object Classification and Unsupervised Scene Understanding Using Deep Learning Features and Latent Tree Probabilistic Models",
      "venue": "arXiv.org",
      "year": 2015,
      "referenceCount": 30,
      "citationCount": 9,
      "authors": [
        {
          "authorId": "2811232",
          "name": "Tejaswi Nimmagadda"
        },
        {
          "authorId": "2047844",
          "name": "Anima Anandkumar"
        }
      ]
    },
    {
      "paperId": "c3b8367a80181e28c95630b9b63060d895de08ff",
      "externalIds": {
        "DBLP": "conf/naacl/LiuGHDDW15",
        "ACL": "N15-1092",
        "MAG": "2295072214",
        "DOI": "10.3115/v1/N15-1092",
        "CorpusId": 11754890
      },
      "url": "https://www.semanticscholar.org/paper/c3b8367a80181e28c95630b9b63060d895de08ff",
      "title": "Representation Learning Using Multi-Task Deep Neural Networks for Semantic Classification and Information Retrieval",
      "venue": "North American Chapter of the Association for Computational Linguistics",
      "year": 2015,
      "referenceCount": 42,
      "citationCount": 438,
      "authors": [
        {
          "authorId": "2108860856",
          "name": "Xiaodong Liu"
        },
        {
          "authorId": "1800422",
          "name": "Jianfeng Gao"
        },
        {
          "authorId": "144137069",
          "name": "Xiaodong He"
        },
        {
          "authorId": "144718788",
          "name": "L. Deng"
        },
        {
          "authorId": "1800354",
          "name": "Kevin Duh"
        },
        {
          "authorId": "30844359",
          "name": "Ye-Yi Wang"
        }
      ]
    },
    {
      "paperId": "edd28097745ade85c3acd1d8bcba0b17cccb682e",
      "externalIds": {
        "CorpusId": 54806314
      },
      "url": "https://www.semanticscholar.org/paper/edd28097745ade85c3acd1d8bcba0b17cccb682e",
      "title": "Title Multi-Object Classification and Unsupervised Scene Understanding Using Deep Learning Features and Latent Tree Probabilistic Models Permalink",
      "venue": "",
      "year": 2015,
      "referenceCount": 28,
      "citationCount": 0,
      "authors": [
        {
          "authorId": "2811232",
          "name": "Tejaswi Nimmagadda"
        }
      ]
    },
    {
      "paperId": "63d0ef7d15b05bc1632973dbc07ea2a11c8d5174",
      "externalIds": {
        "CorpusId": 9042577
      },
      "url": "https://www.semanticscholar.org/paper/63d0ef7d15b05bc1632973dbc07ea2a11c8d5174",
      "title": "The Open University ’ s repository of research publications and other research outputs EEG Based Emotion Identification Using Unsupervised Deep Feature Learning Conference Item",
      "venue": "",
      "year": 2015,
      "referenceCount": 5,
      "citationCount": 0,
      "authors": [
        {
          "authorId": "33623312",
          "name": "Peng Zhang"
        },
        {
          "authorId": "48437245",
          "name": "D. Song"
        },
        {
          "authorId": "3941918",
          "name": "Guangliang Yu"
        },
        {
          "authorId": "1785922",
          "name": "Yuexian Hou"
        },
        {
          "authorId": "144010725",
          "name": "B. Hu"
        }
      ]
    }
  ]
}