{
  "total": 113978,
  "offset": 0,
  "next": 10,
  "data": [
    {
      "paperId": "87c495b15042f3ef0354fb01a0e9548e1df920a2",
      "externalIds": {
        "MAG": "2741431032",
        "DBLP": "conf/icml/MairBB17",
        "CorpusId": 34260202
      },
      "url": "https://www.semanticscholar.org/paper/87c495b15042f3ef0354fb01a0e9548e1df920a2",
      "title": "Frame-based Data Factorizations",
      "venue": "International Conference on Machine Learning",
      "year": 2017,
      "referenceCount": 21,
      "citationCount": 18,
      "authors": [
        {
          "authorId": "145094391",
          "name": "Sebastian Mair"
        },
        {
          "authorId": "3428712",
          "name": "A. Boubekki"
        },
        {
          "authorId": "1765114",
          "name": "Ulf Brefeld"
        }
      ]
    },
    {
      "paperId": "9fbdf93063ca0f5f67d809bcaca64ab73e74a00c",
      "externalIds": {
        "DBLP": "conf/cvpr/LublinermanSC06",
        "MAG": "2166061994",
        "DOI": "10.1109/CVPR.2006.105",
        "CorpusId": 305754
      },
      "url": "https://www.semanticscholar.org/paper/9fbdf93063ca0f5f67d809bcaca64ab73e74a00c",
      "title": "Dynamics Based Robust Motion Segmentation",
      "venue": "Computer Vision and Pattern Recognition",
      "year": 2006,
      "referenceCount": 30,
      "citationCount": 16,
      "authors": [
        {
          "authorId": "1877914",
          "name": "Roberto Lublinerman"
        },
        {
          "authorId": "1687866",
          "name": "M. Sznaier"
        },
        {
          "authorId": "1694992",
          "name": "O. Camps"
        }
      ]
    },
    {
      "paperId": "865210b1ef69f01f42ee03b6f2789398d2ba659b",
      "externalIds": {
        "MAG": "2069899994",
        "ArXiv": "1007.4477",
        "DOI": "10.1007/s00209-011-0849-z",
        "CorpusId": 119163869
      },
      "url": "https://www.semanticscholar.org/paper/865210b1ef69f01f42ee03b6f2789398d2ba659b",
      "title": "Harmonic maps of finite uniton number into G2",
      "venue": "Mathematische Zeitschrift",
      "year": 2010,
      "referenceCount": 12,
      "citationCount": 12,
      "authors": [
        {
          "authorId": "2054168513",
          "name": "N. Correia"
        },
        {
          "authorId": "2239852055",
          "name": "Rui Pacheco"
        }
      ]
    },
    {
      "paperId": "1bbde0cf0d7f5b7731eea7ffd6aa742d1137693c",
      "externalIds": {
        "MAG": "2129819133",
        "DBLP": "conf/cdc/SznaierAC09",
        "DOI": "10.1109/CDC.2009.5399578",
        "CorpusId": 270327
      },
      "url": "https://www.semanticscholar.org/paper/1bbde0cf0d7f5b7731eea7ffd6aa742d1137693c",
      "title": "Using dynamics to recover Euclidian 3-dimensional structure from 2-dimensional perspective projections",
      "venue": "IEEE Conference on Decision and Control",
      "year": 2009,
      "referenceCount": 25,
      "citationCount": 5,
      "authors": [
        {
          "authorId": "1687866",
          "name": "M. Sznaier"
        },
        {
          "authorId": "2614944",
          "name": "Mustafa Ayazoglu"
        },
        {
          "authorId": "1694992",
          "name": "O. Camps"
        }
      ]
    },
    {
      "paperId": "b8dbc2c9bcb75b7da4d4e516185b2eb9cbb670a0",
      "externalIds": {
        "MAG": "2143878434",
        "CorpusId": 61569360
      },
      "url": "https://www.semanticscholar.org/paper/b8dbc2c9bcb75b7da4d4e516185b2eb9cbb670a0",
      "title": "A comparison of speech feature extraction employing autonomous neural network topologies",
      "venue": "",
      "year": 1991,
      "referenceCount": 0,
      "citationCount": 3,
      "authors": [
        {
          "authorId": "3166328",
          "name": "J. M. Elvira"
        },
        {
          "authorId": "50484841",
          "name": "F. Dickin"
        },
        {
          "authorId": "1731959",
          "name": "R. Carrasco"
        }
      ]
    },
    {
      "paperId": "d0f1cc04545832970ddc5886f5f7ff7e3190258f",
      "externalIds": {
        "DBLP": "journals/bdcc/GambarelliG22",
        "DOI": "10.3390/bdcc6030090",
        "CorpusId": 251939268
      },
      "url": "https://www.semanticscholar.org/paper/d0f1cc04545832970ddc5886f5f7ff7e3190258f",
      "title": "PRIVAFRAME: A Frame-Based Knowledge Graph for Sensitive Personal Data",
      "venue": "Big Data and Cognitive Computing",
      "year": 2022,
      "referenceCount": 44,
      "citationCount": 12,
      "authors": [
        {
          "authorId": "2181445011",
          "name": "Gaia Gambarelli"
        },
        {
          "authorId": "2420171",
          "name": "Aldo Gangemi"
        }
      ]
    },
    {
      "paperId": "c21eeb51b7e110007692618fba46ab3390f6549a",
      "externalIds": {
        "DBLP": "journals/data/WichtWJ22",
        "DOI": "10.3390/data7120168",
        "CorpusId": 253871063
      },
      "url": "https://www.semanticscholar.org/paper/c21eeb51b7e110007692618fba46ab3390f6549a",
      "title": "Spectrogram Data Set for Deep-Learning-Based RF Frame Detection",
      "venue": "International Conference on Data Technologies and Applications",
      "year": 2022,
      "referenceCount": 3,
      "citationCount": 9,
      "authors": [
        {
          "authorId": "2192150608",
          "name": "Jakob Wicht"
        },
        {
          "authorId": "2467959",
          "name": "Ulf Wetzker"
        },
        {
          "authorId": "7494092",
          "name": "Vineeta Jain"
        }
      ]
    },
    {
      "paperId": "6081d537d70ded49377e14595b42b083611a6b41",
      "externalIds": {
        "DOI": "10.1109/IDAP64064.2024.10710663",
        "CorpusId": 273377634
      },
      "url": "https://www.semanticscholar.org/paper/6081d537d70ded49377e14595b42b083611a6b41",
      "title": "Unet3D Based Next Frame Prediction",
      "venue": "2024 8th International Artificial Intelligence and Data Processing Symposium (IDAP)",
      "year": 2024,
      "referenceCount": 17,
      "citationCount": 1,
      "authors": [
        {
          "authorId": "1991403739",
          "name": "Enver Akbacak"
        }
      ]
    },
    {
      "paperId": "16628cda952433c2e5afaf3aa5f3d65a0acfff3f",
      "externalIds": {
        "MAG": "2088452568",
        "DBLP": "conf/idaacs/AfanehYK11",
        "DOI": "10.1109/IDAACS.2011.6072703",
        "CorpusId": 18015075
      },
      "url": "https://www.semanticscholar.org/paper/16628cda952433c2e5afaf3aa5f3d65a0acfff3f",
      "title": "Implementation of accurate frame interleaved sampling in a low cost FPGA-based data acquisition system",
      "venue": "Proceedings of the 6th IEEE International Conference on Intelligent Data Acquisition and Advanced Computing Systems",
      "year": 2011,
      "referenceCount": 9,
      "citationCount": 6,
      "authors": [
        {
          "authorId": "2207091",
          "name": "A. Afaneh"
        },
        {
          "authorId": "2113972473",
          "name": "He Yin"
        },
        {
          "authorId": "32874658",
          "name": "A. Kalashnikov"
        }
      ]
    },
    {
      "paperId": "1ed547157bd1827ea80afbafbe3ac138467296e8",
      "externalIds": {
        "DBLP": "journals/tkde/ChengSZLLC25",
        "DOI": "10.1109/TKDE.2024.3523043",
        "CorpusId": 275076211
      },
      "url": "https://www.semanticscholar.org/paper/1ed547157bd1827ea80afbafbe3ac138467296e8",
      "title": "FRAME: Feature Rectification for Class Imbalance Learning",
      "venue": "IEEE Transactions on Knowledge and Data Engineering",
      "year": 2025,
      "referenceCount": 42,
      "citationCount": 7,
      "authors": [
        {
          "authorId": "2284831712",
          "name": "Xu Cheng"
        },
        {
          "authorId": "2053741160",
          "name": "Fan Shi"
        },
        {
          "authorId": "2144531846",
          "name": "Yao Zhang"
        },
        {
          "authorId": "2316045653",
          "name": "Huan Li"
        },
        {
          "authorId": "2146015270",
          "name": "X. Liu"
        },
        {
          "authorId": "2287807587",
          "name": "Shenyong Chen"
        }
      ]
    }
  ]
}