{
  "total": 254,
  "offset": 0,
  "next": 10,
  "data": [
    {
      "paperId": "c3eef6960c6f5132a55140ed166d2c937b6d5fb5",
      "externalIds": {
        "MAG": "2803601570",
        "DBLP": "conf/icml/MarinovMA18",
        "CorpusId": 51873942
      },
      "url": "https://www.semanticscholar.org/paper/c3eef6960c6f5132a55140ed166d2c937b6d5fb5",
      "title": "Streaming Principal Component Analysis in Noisy Settings",
      "venue": "International Conference on Machine Learning",
      "year": 2018,
      "referenceCount": 41,
      "citationCount": 16,
      "authors": [
        {
          "authorId": "35991776",
          "name": "T. Marinov"
        },
        {
          "authorId": "3429002",
          "name": "Poorya Mianjy"
        },
        {
          "authorId": "144365054",
          "name": "R. Arora"
        }
      ]
    },
    {
      "paperId": "28dbb804bf2a358a1ae30756272a39ddfa039604",
      "externalIds": {
        "ArXiv": "2310.18593",
        "DBLP": "journals/corr/abs-2310-18593",
        "DOI": "10.48550/arXiv.2310.18593",
        "CorpusId": 264590616
      },
      "url": "https://www.semanticscholar.org/paper/28dbb804bf2a358a1ae30756272a39ddfa039604",
      "title": "Fair Streaming Principal Component Analysis: Statistical and Algorithmic Viewpoint",
      "venue": "Neural Information Processing Systems",
      "year": 2023,
      "referenceCount": 86,
      "citationCount": 10,
      "authors": [
        {
          "authorId": "2118599348",
          "name": "Junghyun Lee"
        },
        {
          "authorId": "2187666238",
          "name": "Hanseul Cho"
        },
        {
          "authorId": "2262444370",
          "name": "Se-Young Yun"
        },
        {
          "authorId": "2262443997",
          "name": "Chulhee Yun"
        }
      ]
    },
    {
      "paperId": "1c3eaeb7a67d3c53f0badc408dede57f2bf52dd7",
      "externalIds": {
        "DBLP": "journals/corr/abs-2001-01017",
        "ArXiv": "2001.01017",
        "MAG": "2997657780",
        "CorpusId": 209862021
      },
      "url": "https://www.semanticscholar.org/paper/1c3eaeb7a67d3c53f0badc408dede57f2bf52dd7",
      "title": "Distributed Stochastic Algorithms for High-rate Streaming Principal Component Analysis",
      "venue": "Trans. Mach. Learn. Res.",
      "year": 2020,
      "referenceCount": 86,
      "citationCount": 11,
      "authors": [
        {
          "authorId": "1842719",
          "name": "Haroon Raja"
        },
        {
          "authorId": "2138101",
          "name": "W. Bajwa"
        }
      ]
    },
    {
      "paperId": "8b093d98994228f0a2e36e4876f48c1c300f1bea",
      "externalIds": {
        "ArXiv": "2603.13806",
        "CorpusId": 286568664
      },
      "url": "https://www.semanticscholar.org/paper/8b093d98994228f0a2e36e4876f48c1c300f1bea",
      "title": "An Interpretable and Stable Framework for Sparse Principal Component Analysis",
      "venue": "",
      "year": 2026,
      "referenceCount": 17,
      "citationCount": 0,
      "authors": [
        {
          "authorId": "2335426533",
          "name": "Ying Hu"
        },
        {
          "authorId": "2353073047",
          "name": "Hu Yang"
        }
      ]
    },
    {
      "paperId": "477317151e9ef638be296570aae27c598942bfb1",
      "externalIds": {
        "DOI": "10.48084/etasr.12301",
        "CorpusId": 281911841
      },
      "url": "https://www.semanticscholar.org/paper/477317151e9ef638be296570aae27c598942bfb1",
      "title": "Emotion Recognition from EEG Signals Using Principal Component Analysis and Random Forest Classifier",
      "venue": "Engineering, Technology &amp; Applied Science Research",
      "year": 2025,
      "referenceCount": 16,
      "citationCount": 1,
      "authors": [
        {
          "authorId": "2129219251",
          "name": "Ranjana B. Jadekar"
        },
        {
          "authorId": "41134343",
          "name": "Poornima Basavaraju"
        },
        {
          "authorId": "2354549329",
          "name": "Sunil Kumar"
        },
        {
          "authorId": "2308556292",
          "name": "Mohammed Rafi"
        }
      ]
    },
    {
      "paperId": "d48e70a2af0b86a36ed03b1f8864ee9773722734",
      "externalIds": {
        "DBLP": "journals/corr/abs-2409-07275",
        "ArXiv": "2409.07275",
        "DOI": "10.1109/LSP.2025.3599784",
        "CorpusId": 272593180
      },
      "url": "https://www.semanticscholar.org/paper/d48e70a2af0b86a36ed03b1f8864ee9773722734",
      "title": "Tuning-Free Online Robust Principal Component Analysis Through Implicit Regularization",
      "venue": "IEEE Signal Processing Letters",
      "year": 2024,
      "referenceCount": 28,
      "citationCount": 0,
      "authors": [
        {
          "authorId": "9444130",
          "name": "Lakshmi Jayalal"
        },
        {
          "authorId": "1990441659",
          "name": "Gokularam Muthukrishnan"
        },
        {
          "authorId": "143968719",
          "name": "S. Kalyani"
        }
      ]
    },
    {
      "paperId": "587834541496420ca0ba3926e00dc732048865f0",
      "externalIds": {
        "DBLP": "conf/rivf/NguyenMU23",
        "DOI": "10.1109/RIVF60135.2023.10471805",
        "CorpusId": 268613491
      },
      "url": "https://www.semanticscholar.org/paper/587834541496420ca0ba3926e00dc732048865f0",
      "title": "Speaker Verification Using Distance Based on Principal Component Analysis for Household Scenario Adaptation",
      "venue": "Conference on Research, Innovation and Vision for the Future in Computing & Communication Technologies",
      "year": 2023,
      "referenceCount": 24,
      "citationCount": 4,
      "authors": [
        {
          "authorId": "2057071057",
          "name": "Q. Nguyen"
        },
        {
          "authorId": "2265665051",
          "name": "Nguyen Le Minh"
        },
        {
          "authorId": "2244432531",
          "name": "Masashi Unoki"
        }
      ]
    },
    {
      "paperId": "97ce6f05822dfec878b34796198c2cf854243abd",
      "externalIds": {
        "DOI": "10.1109/PESGM46819.2021.9638162",
        "CorpusId": 245376708
      },
      "url": "https://www.semanticscholar.org/paper/97ce6f05822dfec878b34796198c2cf854243abd",
      "title": "Primary Voltage Forecasting in Distribution Systems using Principal Component Analysis",
      "venue": "IEEE Power & Energy Society General Meeting",
      "year": 2021,
      "referenceCount": 19,
      "citationCount": 1,
      "authors": [
        {
          "authorId": "2070437679",
          "name": "M. V. Reddy"
        },
        {
          "authorId": "33361919",
          "name": "A. Dubey"
        }
      ]
    },
    {
      "paperId": "1f58282d30ed09f6036915df22f554f0cd16449c",
      "externalIds": {
        "DBLP": "journals/tnn/ThiLD24",
        "ArXiv": "2108.02300",
        "DOI": "10.1109/TNNLS.2022.3213558",
        "CorpusId": 236924348,
        "PubMed": "36315540"
      },
      "url": "https://www.semanticscholar.org/paper/1f58282d30ed09f6036915df22f554f0cd16449c",
      "title": "Online Stochastic DCA With Applications to Principal Component Analysis",
      "venue": "IEEE Transactions on Neural Networks and Learning Systems",
      "year": 2021,
      "referenceCount": 65,
      "citationCount": 6,
      "authors": [
        {
          "authorId": "146907309",
          "name": "H. A. Le Thi"
        },
        {
          "authorId": "2122779218",
          "name": "Hoang Phuc Hau Luu"
        },
        {
          "authorId": "1690657",
          "name": "T. P. Dinh"
        }
      ]
    },
    {
      "paperId": "f4329f91fbf441c87b41f128085d884f9cd8fbc6",
      "externalIds": {
        "DOI": "10.1016/j.saa.2024.124206",
        "CorpusId": 268768914,
        "PubMed": "38560951"
      },
      "url": "https://www.semanticscholar.org/paper/f4329f91fbf441c87b41f128085d884f9cd8fbc6",
      "title": "Appling fluorescence spectroscopy with absolute principal component coefficient to explore dynamic migration of DOM fractions from an urbanized river during torrential rainfall.",
      "venue": "Spectrochimica Acta Part A - Molecular and Biomolecular Spectroscopy",
      "year": 2024,
      "referenceCount": 48,
      "citationCount": 7,
      "authors": [
        {
          "authorId": "2240852135",
          "name": "Shengqiang Tu"
        },
        {
          "authorId": "2241108209",
          "name": "Qingqian Li"
        },
        {
          "authorId": "2294061055",
          "name": "Lei Nie"
        },
        {
          "authorId": "47179121",
          "name": "Hongjie Gao"
        },
        {
          "authorId": "152338058",
          "name": "Huibin Yu"
        }
      ]
    }
  ]
}