{
  "total": 40,
  "offset": 0,
  "next": 10,
  "data": [
    {
      "paperId": "c4fcfa7181a5d8a235ac051191597c7b87c40ca1",
      "externalIds": {
        "MAG": "1849700913",
        "DBLP": "conf/icml/RichmanM15",
        "CorpusId": 14718342
      },
      "url": "https://www.semanticscholar.org/paper/c4fcfa7181a5d8a235ac051191597c7b87c40ca1",
      "title": "Dynamic Sensing: Better Classification under Acquisition Constraints",
      "venue": "International Conference on Machine Learning",
      "year": 2015,
      "referenceCount": 24,
      "citationCount": 2,
      "authors": [
        {
          "authorId": "2830570",
          "name": "Oran Richman"
        },
        {
          "authorId": "1712535",
          "name": "Shie Mannor"
        }
      ]
    },
    {
      "paperId": "84510f31cbb3dd20587d3cc65648479c24afbcfb",
      "externalIds": {
        "MAG": "1990828988",
        "DOI": "10.1016/j.mri.2014.08.031",
        "CorpusId": 25156791,
        "PubMed": "25179137"
      },
      "url": "https://www.semanticscholar.org/paper/84510f31cbb3dd20587d3cc65648479c24afbcfb",
      "title": "Improving synthesis and analysis prior blind compressed sensing with low-rank constraints for dynamic MRI reconstruction.",
      "venue": "Magnetic Resonance Imaging",
      "year": 2015,
      "referenceCount": 24,
      "citationCount": 39,
      "authors": [
        {
          "authorId": "103048180",
          "name": "A. Majumdar"
        }
      ]
    },
    {
      "paperId": "15ac25a77cab6ee85e31097882600f8fc408cd75",
      "externalIds": {
        "MAG": "1634930939",
        "DBLP": "conf/icccn/MichelusiM15",
        "DOI": "10.1109/ICCCN.2015.7288389",
        "CorpusId": 12611651
      },
      "url": "https://www.semanticscholar.org/paper/15ac25a77cab6ee85e31097882600f8fc408cd75",
      "title": "Controlled Spectrum Sensing and Scheduling under Resource Constraints",
      "venue": "International Conference on Computer Communications and Networks",
      "year": 2015,
      "referenceCount": 23,
      "citationCount": 3,
      "authors": [
        {
          "authorId": "2709642",
          "name": "Nicolò Michelusi"
        },
        {
          "authorId": "144172505",
          "name": "U. Mitra"
        }
      ]
    },
    {
      "paperId": "43a2787128be516b2f83be27a6088aca1cf0f999",
      "externalIds": {
        "MAG": "1574108106",
        "DOI": "10.1118/1.4921365",
        "CorpusId": 27932844,
        "PubMed": "26133583"
      },
      "url": "https://www.semanticscholar.org/paper/43a2787128be516b2f83be27a6088aca1cf0f999",
      "title": "Exploitation of temporal redundancy in compressed sensing reconstruction of fMRI studies with a prior-based algorithm (PICCS).",
      "venue": "Medical Physics (Lancaster)",
      "year": 2015,
      "referenceCount": 55,
      "citationCount": 15,
      "authors": [
        {
          "authorId": "3388875",
          "name": "C. Chavarrías"
        },
        {
          "authorId": "35221416",
          "name": "J. Abascal"
        },
        {
          "authorId": "34299071",
          "name": "P. Montesinos"
        },
        {
          "authorId": "1874899",
          "name": "M. Desco"
        }
      ]
    },
    {
      "paperId": "94a40373e30cf900c756673732748d07098cd307",
      "externalIds": {
        "MAG": "209946884",
        "ArXiv": "1505.03898",
        "DBLP": "journals/corr/HuangSYS15",
        "CorpusId": 265100136
      },
      "url": "https://www.semanticscholar.org/paper/94a40373e30cf900c756673732748d07098cd307",
      "title": "Pinball Loss Minimization for One-bit Compressive Sensing",
      "venue": "arXiv.org",
      "year": 2015,
      "referenceCount": 41,
      "citationCount": 4,
      "authors": [
        {
          "authorId": "2253230744",
          "name": "Xiaolin Huang"
        },
        {
          "authorId": "2252316265",
          "name": "Lei Shi"
        },
        {
          "authorId": "47901906",
          "name": "Ming Yan"
        },
        {
          "authorId": "1744439",
          "name": "J. Suykens"
        }
      ]
    },
    {
      "paperId": "55727f4e57387720c8aa44bfdfb2a7397b130bdf",
      "externalIds": {
        "MAG": "2935150810",
        "DOI": "10.14257/IJSIP.2015.8.8.12",
        "CorpusId": 132957945
      },
      "url": "https://www.semanticscholar.org/paper/55727f4e57387720c8aa44bfdfb2a7397b130bdf",
      "title": "Matching Reconstruction Algorithms Performance Comparison based on Compressed Sensing in GPR Imaging",
      "venue": "",
      "year": 2015,
      "referenceCount": 17,
      "citationCount": 2,
      "authors": [
        {
          "authorId": "39055288",
          "name": "R. Duan"
        },
        {
          "authorId": "49565995",
          "name": "Huilin Zhou"
        },
        {
          "authorId": "122901941",
          "name": "Gangfeng Zhu"
        }
      ]
    },
    {
      "paperId": "987ad2220181089a2606fb0b2bd2651b3ae15c09",
      "externalIds": {
        "MAG": "1970096305",
        "DOI": "10.1117/12.2081989",
        "CorpusId": 53731471
      },
      "url": "https://www.semanticscholar.org/paper/987ad2220181089a2606fb0b2bd2651b3ae15c09",
      "title": "A new combined prior based reconstruction method for compressed sensing in 3D ultrasound imaging",
      "venue": "Medical Imaging",
      "year": 2015,
      "referenceCount": 13,
      "citationCount": 0,
      "authors": [
        {
          "authorId": "48976461",
          "name": "Muhammad Shahin Uddin"
        },
        {
          "authorId": "2121551166",
          "name": "Rafiqul Islam"
        },
        {
          "authorId": "2312383",
          "name": "M. Tahtali"
        },
        {
          "authorId": "34767303",
          "name": "A. Lambert"
        },
        {
          "authorId": "1679293",
          "name": "M. Pickering"
        }
      ]
    },
    {
      "paperId": "7b25bfc5a3cc5d0a5a369216fe83f2699e7e02c6",
      "externalIds": {
        "MAG": "2139522771",
        "DOI": "10.1111/2041-210X.12315",
        "CorpusId": 85650397
      },
      "url": "https://www.semanticscholar.org/paper/7b25bfc5a3cc5d0a5a369216fe83f2699e7e02c6",
      "title": "Modelling range dynamics under global change: which framework and why?",
      "venue": "",
      "year": 2015,
      "referenceCount": 71,
      "citationCount": 64,
      "authors": [
        {
          "authorId": "3289128",
          "name": "M. Lurgi"
        },
        {
          "authorId": "145874666",
          "name": "B. Brook"
        },
        {
          "authorId": "4305253",
          "name": "F. Saltré"
        },
        {
          "authorId": "3489619",
          "name": "Damien A. Fordham"
        }
      ]
    },
    {
      "paperId": "99f6e52660487fae55ff25af19ccfa5e40111ce0",
      "externalIds": {
        "MAG": "2408870356",
        "DOI": "10.21236/ad1003771",
        "CorpusId": 222245364
      },
      "url": "https://www.semanticscholar.org/paper/99f6e52660487fae55ff25af19ccfa5e40111ce0",
      "title": "Dynamic Information Collection and Fusion",
      "venue": "",
      "year": 2015,
      "referenceCount": 69,
      "citationCount": 0,
      "authors": [
        {
          "authorId": "1726611",
          "name": "V. Veeravalli"
        },
        {
          "authorId": "2146712537",
          "name": "Biao Chen"
        },
        {
          "authorId": "2286612318",
          "name": "Prakash Ishwar"
        }
      ]
    },
    {
      "paperId": "1950003116c040f0235dcce78da52047aa09f818",
      "externalIds": {
        "MAG": "2185257855",
        "CorpusId": 62052320
      },
      "url": "https://www.semanticscholar.org/paper/1950003116c040f0235dcce78da52047aa09f818",
      "title": "Algorithms for Affective and Ubiquitous Sensing Systems and for Protein Structure Prediction",
      "venue": "",
      "year": 2015,
      "referenceCount": 137,
      "citationCount": 2,
      "authors": [
        {
          "authorId": "2075332373",
          "name": "Na Yang"
        }
      ]
    }
  ]
}