{
  "total": 408709,
  "offset": 0,
  "next": 10,
  "data": [
    {
      "paperId": "051ab78d38cde2d409cfa093bfdb78341e053526",
      "externalIds": {
        "MAG": "2803569830",
        "DBLP": "conf/icml/XiaTTQYL18",
        "CorpusId": 51868177
      },
      "url": "https://www.semanticscholar.org/paper/051ab78d38cde2d409cfa093bfdb78341e053526",
      "title": "Model-Level Dual Learning",
      "venue": "International Conference on Machine Learning",
      "year": 2018,
      "referenceCount": 41,
      "citationCount": 59,
      "authors": [
        {
          "authorId": "2794096",
          "name": "Yingce Xia"
        },
        {
          "authorId": "2112780268",
          "name": "Xu Tan"
        },
        {
          "authorId": "143853336",
          "name": "Fei Tian"
        },
        {
          "authorId": "143826491",
          "name": "Tao Qin"
        },
        {
          "authorId": "1708598",
          "name": "Nenghai Yu"
        },
        {
          "authorId": "2110264337",
          "name": "Tie-Yan Liu"
        }
      ]
    },
    {
      "paperId": "250f214872be6adb59433ff051f5ef52e4ae9d88",
      "externalIds": {
        "PubMedCentral": "11808120",
        "DOI": "10.1038/s41598-025-88753-3",
        "CorpusId": 276247930,
        "PubMed": "39924555"
      },
      "url": "https://www.semanticscholar.org/paper/250f214872be6adb59433ff051f5ef52e4ae9d88",
      "title": "Precision and efficiency in skin cancer segmentation through a dual encoder deep learning model",
      "venue": "Scientific Reports",
      "year": 2025,
      "referenceCount": 26,
      "citationCount": 37,
      "authors": [
        {
          "authorId": "2344741284",
          "name": "Asaad Ahmed"
        },
        {
          "authorId": "2180808390",
          "name": "Guangmin Sun"
        },
        {
          "authorId": "2204919077",
          "name": "A. Bilal"
        },
        {
          "authorId": "2116612165",
          "name": "Yu Li"
        },
        {
          "authorId": "3322151",
          "name": "Shouki A. Ebad"
        }
      ]
    },
    {
      "paperId": "79c14dfca1f9444cdb4435f849eb6e83fb43a44c",
      "externalIds": {
        "ArXiv": "2407.04272",
        "DBLP": "conf/sc/FengZYSCTYDHBGT24",
        "DOI": "10.1109/SC41406.2024.00095",
        "CorpusId": 271039287
      },
      "url": "https://www.semanticscholar.org/paper/79c14dfca1f9444cdb4435f849eb6e83fb43a44c",
      "title": "Accelerating Communication in Deep Learning Recommendation Model Training with Dual-Level Adaptive Lossy Compression",
      "venue": "International Conference for High Performance Computing, Networking, Storage and Analysis",
      "year": 2024,
      "referenceCount": 35,
      "citationCount": 10,
      "authors": [
        {
          "authorId": "2319184570",
          "name": "Hao Feng"
        },
        {
          "authorId": "2404676746",
          "name": "Boyuan Zhang"
        },
        {
          "authorId": "2309176404",
          "name": "Fanjiang Ye"
        },
        {
          "authorId": "2310234768",
          "name": "Min Si"
        },
        {
          "authorId": "2290129157",
          "name": "Ching-Hsiang Chu"
        },
        {
          "authorId": "9280774",
          "name": "Jiannan Tian"
        },
        {
          "authorId": "26395421",
          "name": "Chunxing Yin"
        },
        {
          "authorId": "2310638164",
          "name": "Summer Deng"
        },
        {
          "authorId": "2266835511",
          "name": "Yuchen Hao"
        },
        {
          "authorId": "2307470796",
          "name": "Pavan Balaji"
        },
        {
          "authorId": "2288574052",
          "name": "Tong Geng"
        },
        {
          "authorId": "2309174221",
          "name": "Dingwen Tao"
        }
      ]
    },
    {
      "paperId": "85beaec58f4b172f25d493339db1256035a82b20",
      "externalIds": {
        "ArXiv": "2504.01278",
        "DBLP": "journals/corr/abs-2504-01278",
        "DOI": "10.48550/arXiv.2504.01278",
        "CorpusId": 277502511
      },
      "url": "https://www.semanticscholar.org/paper/85beaec58f4b172f25d493339db1256035a82b20",
      "title": "Strategize Globally, Adapt Locally: A Multi-Turn Red Teaming Agent with Dual-Level Learning",
      "venue": "arXiv.org",
      "year": 2025,
      "referenceCount": 25,
      "citationCount": 10,
      "authors": [
        {
          "authorId": "2111636740",
          "name": "Si Chen"
        },
        {
          "authorId": "2261083958",
          "name": "Xiao Yu"
        },
        {
          "authorId": "51997673",
          "name": "Ninareh Mehrabi"
        },
        {
          "authorId": "2139538015",
          "name": "Rahul Gupta"
        },
        {
          "authorId": "2261255943",
          "name": "Zhou Yu"
        },
        {
          "authorId": "2268321162",
          "name": "Ruoxi Jia"
        }
      ]
    },
    {
      "paperId": "7e3ea8af81dc33c6960260c59249371c299405b7",
      "externalIds": {
        "DBLP": "journals/remotesensing/HuangHFLLWN22",
        "DOI": "10.3390/rs14205280",
        "CorpusId": 253142704
      },
      "url": "https://www.semanticscholar.org/paper/7e3ea8af81dc33c6960260c59249371c299405b7",
      "title": "Developing a Dual-Stream Deep-Learning Neural Network Model for Improving County-Level Winter Wheat Yield Estimates in China",
      "venue": "Remote Sensing",
      "year": 2022,
      "referenceCount": 81,
      "citationCount": 21,
      "authors": [
        {
          "authorId": "2146285478",
          "name": "Hai Huang"
        },
        {
          "authorId": "1768630",
          "name": "Jianxi Huang"
        },
        {
          "authorId": "5563809",
          "name": "Quanlong Feng"
        },
        {
          "authorId": "2108371969",
          "name": "Junming Liu"
        },
        {
          "authorId": "121856987",
          "name": "Xuecao Li"
        },
        {
          "authorId": "2108073587",
          "name": "Xinlei Wang"
        },
        {
          "authorId": "2128122576",
          "name": "Quandi Niu"
        }
      ]
    },
    {
      "paperId": "f822a1ba8ee610295b30f6168d8bf2ece8cca460",
      "externalIds": {
        "DBLP": "journals/tois/ZhangSZZAX24",
        "DOI": "10.1145/3631521",
        "CorpusId": 264995471
      },
      "url": "https://www.semanticscholar.org/paper/f822a1ba8ee610295b30f6168d8bf2ece8cca460",
      "title": "Triple Dual Learning for Opinion-based Explainable Recommendation",
      "venue": "ACM Trans. Inf. Syst.",
      "year": 2023,
      "referenceCount": 63,
      "citationCount": 13,
      "authors": [
        {
          "authorId": "2108148667",
          "name": "Yuting Zhang"
        },
        {
          "authorId": "2108939663",
          "name": "Ying Sun"
        },
        {
          "authorId": "2265163726",
          "name": "Fuzhen Zhuang"
        },
        {
          "authorId": "2265095443",
          "name": "Yongchun Zhu"
        },
        {
          "authorId": "2127813",
          "name": "Zhulin An"
        },
        {
          "authorId": "2146648122",
          "name": "Yongjun Xu"
        }
      ]
    },
    {
      "paperId": "b57a7af9c8120b7c21c63f435b54223cc08f14b9",
      "externalIds": {
        "DBLP": "journals/access/RongWLL24",
        "DOI": "10.1109/ACCESS.2024.3430983",
        "CorpusId": 271362779
      },
      "url": "https://www.semanticscholar.org/paper/b57a7af9c8120b7c21c63f435b54223cc08f14b9",
      "title": "Decision-Level Fusion Classification of Ovarian CT Benign and Malignant Tumors Based on Radiomics and Deep Learning of Dual Views",
      "venue": "IEEE Access",
      "year": 2024,
      "referenceCount": 58,
      "citationCount": 11,
      "authors": [
        {
          "authorId": "2302023244",
          "name": "Qi Rong"
        },
        {
          "authorId": "2302205580",
          "name": "Wenna Wu"
        },
        {
          "authorId": "2302021737",
          "name": "Zhentai Lu"
        },
        {
          "authorId": "2057399361",
          "name": "Shengwu Liao"
        }
      ]
    },
    {
      "paperId": "0db08f3476fb2effb37b2a5d3a53707681a3c221",
      "externalIds": {
        "DOI": "10.1016/j.envres.2024.118474",
        "CorpusId": 267733598,
        "PubMed": "38368920"
      },
      "url": "https://www.semanticscholar.org/paper/0db08f3476fb2effb37b2a5d3a53707681a3c221",
      "title": "The insightful water quality analysis and predictive model establishment via machine learning in dual-source drinking water distribution system.",
      "venue": "Environmental Research",
      "year": 2024,
      "referenceCount": 47,
      "citationCount": 11,
      "authors": [
        {
          "authorId": "2257379458",
          "name": "Huiping Li"
        },
        {
          "authorId": "152108453",
          "name": "Baiqin Zhou"
        },
        {
          "authorId": "2257427855",
          "name": "Xiaoyan Xu"
        },
        {
          "authorId": "2257410094",
          "name": "Ranran Huo"
        },
        {
          "authorId": "2258164506",
          "name": "Ting Zhou"
        },
        {
          "authorId": "2257974188",
          "name": "Xiaochen Dong"
        },
        {
          "authorId": "2268843390",
          "name": "Cheng Ye"
        },
        {
          "authorId": "2283529342",
          "name": "Tian Li"
        },
        {
          "authorId": "2258122274",
          "name": "Li Xie"
        },
        {
          "authorId": "2257408981",
          "name": "Weihai Pang"
        }
      ]
    },
    {
      "paperId": "91c9660fac19fb45dd9af0ecd4278002f9c71dfe",
      "externalIds": {
        "PubMedCentral": "10881838",
        "DOI": "10.1016/j.heliyon.2024.e26085",
        "CorpusId": 267696654,
        "PubMed": "38390065"
      },
      "url": "https://www.semanticscholar.org/paper/91c9660fac19fb45dd9af0ecd4278002f9c71dfe",
      "title": "Spectral energy balancing system with massive MIMO based hybrid beam forming for wireless 6G communication using dual deep learning model",
      "venue": "Heliyon",
      "year": 2024,
      "referenceCount": 31,
      "citationCount": 11,
      "authors": [
        {
          "authorId": "2214244358",
          "name": "Ramesh Sundar"
        },
        {
          "authorId": "2281511079",
          "name": "Mohammad Amir"
        },
        {
          "authorId": "2264228514",
          "name": "Ranjith Subramanian"
        },
        {
          "authorId": "2389327661",
          "name": "D. Prabakar"
        },
        {
          "authorId": "32652221",
          "name": "J. Giri"
        },
        {
          "authorId": "2308678735",
          "name": "G. Balachandran"
        },
        {
          "authorId": "49977025",
          "name": "Furkan Ahmad"
        }
      ]
    },
    {
      "paperId": "1205cbd8ca522e0a631368ac02ddfa6c20d0baef",
      "externalIds": {
        "DOI": "10.3934/mbe.2024097",
        "CorpusId": 267009497,
        "PubMed": "38454680"
      },
      "url": "https://www.semanticscholar.org/paper/1205cbd8ca522e0a631368ac02ddfa6c20d0baef",
      "title": "Dual uncertainty-guided multi-model pseudo-label learning for semi-supervised medical image segmentation.",
      "venue": "Mathematical biosciences and engineering : MBE",
      "year": 2024,
      "referenceCount": 45,
      "citationCount": 8,
      "authors": [
        {
          "authorId": "2185582710",
          "name": "Zhanhong Qiu"
        },
        {
          "authorId": "2279623310",
          "name": "Weiyan Gan"
        },
        {
          "authorId": "2109538506",
          "name": "Zhi Yang"
        },
        {
          "authorId": "2267068324",
          "name": "Ran Zhou"
        },
        {
          "authorId": "2267039860",
          "name": "Haitao Gan"
        }
      ]
    }
  ]
}