{
  "total": 15,
  "offset": 0,
  "next": 10,
  "data": [
    {
      "paperId": "6d165c730c3b419465c13ff01326c9ae8b5aeecd",
      "externalIds": {
        "DBLP": "conf/icml/BauerSP16",
        "ArXiv": "1603.00784",
        "MAG": "2951581592",
        "CorpusId": 11869441
      },
      "url": "https://www.semanticscholar.org/paper/6d165c730c3b419465c13ff01326c9ae8b5aeecd",
      "title": "The Arrow of Time in Multivariate Time Series",
      "venue": "International Conference on Machine Learning",
      "year": 2016,
      "referenceCount": 21,
      "citationCount": 33,
      "authors": [
        {
          "authorId": "153125952",
          "name": "Stefan Bauer"
        },
        {
          "authorId": "1707625",
          "name": "B. Scholkopf"
        },
        {
          "authorId": "31443876",
          "name": "J. Peters"
        }
      ]
    },
    {
      "paperId": "57f56a1f3702d5145f26c5280dac1c2ebaa140bd",
      "externalIds": {
        "CorpusId": 221737646
      },
      "url": "https://www.semanticscholar.org/paper/57f56a1f3702d5145f26c5280dac1c2ebaa140bd",
      "title": "Precise crop classification based on multi ̄features from time ̄series Landsat 8 OLI images and Random Forest Algorithm",
      "venue": "",
      "year": 2020,
      "referenceCount": 1,
      "citationCount": 1,
      "authors": [
        {
          "authorId": "2286811616",
          "name": "究 干旱地区农业研"
        },
        {
          "authorId": "2286806938",
          "name": "Ａｇｒｉｃｕｌｔｕｒａｌ Ｒｅｓｅａｒｃｈ"
        },
        {
          "authorId": "2286806434",
          "name": "ｉｎ ｔｈｅ"
        },
        {
          "authorId": "2286815378",
          "name": "Ａｒｉｄ Ａｒｅａｓ"
        },
        {
          "authorId": "2286836930",
          "name": "Ｖｏｌ.３８"
        },
        {
          "authorId": "2286793454",
          "name": "Ｎｏ.３ Ｍａｙ"
        },
        {
          "authorId": "2286804416",
          "name": "刘 杰 １ ꎬ ２ ꎬ 刘吉凯"
        },
        {
          "authorId": "2286806931",
          "name": "Ｌｉｕ Ｊｉｅ"
        },
        {
          "authorId": "2286803606",
          "name": "ꎬ Ｌｉｕ Ｊｉｋａｉ"
        },
        {
          "authorId": "2286815320",
          "name": "ＡＮ ꎬ"
        },
        {
          "authorId": "2286834753",
          "name": "Ｊｉｎｇｊｉｎｇ １ꎬ２"
        },
        {
          "authorId": "2286794166",
          "name": "ꎬ Ｚｈａｎｇ Ｃｈａｏ"
        },
        {
          "authorId": "2286793459",
          "name": "１ Ｈｕａｉｈｅ"
        },
        {
          "authorId": "2286815365",
          "name": "Ｒｉｖｅｒ Ｂａｓｉｎ"
        },
        {
          "authorId": "2286815375",
          "name": "Ｍｅｔｅｏｒｏｌｏｇｉｃａｌ Ｃｅｎｔｅｒ"
        },
        {
          "authorId": "2286806438",
          "name": "Ｈｅｆｅｉ Ａｎｈｕｉ"
        },
        {
          "authorId": "2286836908",
          "name": "Ｃｈｉｎａ ２ Ａｎｈｕｉ"
        },
        {
          "authorId": "2286811584",
          "name": "Ｍｅｔｅｏｒｏｌｏｇｉｃａｌ Ｏｂｓｅｒｖａｔｏｒｙ"
        },
        {
          "authorId": "2286806767",
          "name": "Ｃｈｉｎａ ３ Ｃｏｌｌｅｇｅ ｏｆ Ｒｅｓｏｕｒｃｅ"
        },
        {
          "authorId": "2286804660",
          "name": "Ｅｎｖｉｒｏｎｍｅｎｔ Ａｎｈｕｉ"
        },
        {
          "authorId": "2286806757",
          "name": "Ｓｃｉｅｎｃｅ ａｎｄ"
        },
        {
          "authorId": "2286793501",
          "name": "Ｔｅｃｈｎｏｌｏｇｙ Ｕｎｉｖｅｒｓｉｔｙ"
        },
        {
          "authorId": "2286835432",
          "name": "Ｆｅｎｇｙａｎｇ Ａｎｈｕｉ"
        },
        {
          "authorId": "2286806918",
          "name": "Ｃｈｉｎａ"
        }
      ]
    },
    {
      "paperId": "1a250a5fe65376742c5d342879b80ab6bbfaee5f",
      "externalIds": {
        "ArXiv": "2501.04103",
        "DOI": "10.1051/0004-6361/202453248",
        "CorpusId": 275358355
      },
      "url": "https://www.semanticscholar.org/paper/1a250a5fe65376742c5d342879b80ab6bbfaee5f",
      "title": "VLTI/GRAVITY enables the determination of the first dynamical masses of a classical Be + stripped and bloated pre-subdwarf binary",
      "venue": "Astronomy &amp; Astrophysics",
      "year": 2025,
      "referenceCount": 3,
      "citationCount": 5,
      "authors": [
        {
          "authorId": "2256717766",
          "name": "R. Klement"
        },
        {
          "authorId": "91546837",
          "name": "T. Rivinius"
        },
        {
          "authorId": "2253519072",
          "name": "D. Baade"
        },
        {
          "authorId": "2322449184",
          "name": "A. Mérand"
        },
        {
          "authorId": "103160991",
          "name": "J. Bodensteiner"
        },
        {
          "authorId": "2256992488",
          "name": "A. J. Frost"
        },
        {
          "authorId": "2244202770",
          "name": "H. Sana"
        },
        {
          "authorId": "94965255",
          "name": "T. Shenar"
        },
        {
          "authorId": "2335443521",
          "name": "D. Gies"
        },
        {
          "authorId": "2339007229",
          "name": "P. H. E. O. F. A. R. Hemisphere"
        },
        {
          "authorId": "2249644702",
          "name": "Chile"
        },
        {
          "authorId": "2273926463",
          "name": "European Organisation for Astronomical Research in the Sout Hemisphere"
        },
        {
          "authorId": "2246532162",
          "name": "Germany"
        },
        {
          "authorId": "2339009731",
          "name": "Institue of Astronomy KU Leuven"
        },
        {
          "authorId": "52318885",
          "name": "Belgium"
        },
        {
          "authorId": "2339008825",
          "name": "Leuven Gravity Institute"
        },
        {
          "authorId": "152577437",
          "name": "K. Leuven"
        },
        {
          "authorId": "2248652929",
          "name": "T. Physics"
        },
        {
          "authorId": "2239409183",
          "name": "Astronomy"
        },
        {
          "authorId": "88738986",
          "name": "T. University"
        },
        {
          "authorId": "2249863344",
          "name": "Israel"
        },
        {
          "authorId": "102352426",
          "name": "C. F. Astronomy"
        },
        {
          "authorId": "2243664763",
          "name": "D. Physics"
        },
        {
          "authorId": "103297075",
          "name": "Georgia State University"
        },
        {
          "authorId": "2313768494",
          "name": "Usa"
        },
        {
          "authorId": "2228777692",
          "name": "A. Institute"
        },
        {
          "authorId": "103365492",
          "name": "Academy of Sciences of the Czech Republic"
        },
        {
          "authorId": "66646069",
          "name": "Czech Republic"
        }
      ]
    },
    {
      "paperId": "c4d7613c4bb388fd72b910b6ba7ffaab5bdcd730",
      "externalIds": {
        "ArXiv": "2510.07215",
        "CorpusId": 281891543
      },
      "url": "https://www.semanticscholar.org/paper/c4d7613c4bb388fd72b910b6ba7ffaab5bdcd730",
      "title": "AppleCiDEr II: SpectraNet -- A Deep Learning Network for Spectroscopic Data",
      "venue": "",
      "year": 2025,
      "referenceCount": 15,
      "citationCount": 0,
      "authors": [
        {
          "authorId": "2372136254",
          "name": "Maojie Xu"
        },
        {
          "authorId": "2184244832",
          "name": "A. Sasli"
        },
        {
          "authorId": "2367743382",
          "name": "Alexandra Junell"
        },
        {
          "authorId": "2371997945",
          "name": "Felipe Fontinele Nunes"
        },
        {
          "authorId": "2368512325",
          "name": "Yu-Jing Qin"
        },
        {
          "authorId": "1379566234",
          "name": "C. Fremling"
        },
        {
          "authorId": "2282534473",
          "name": "Sam Rose"
        },
        {
          "authorId": "2205550777",
          "name": "Theophile Jegou du Laz"
        },
        {
          "authorId": "2372000095",
          "name": "B. Border"
        },
        {
          "authorId": "2371998658",
          "name": "A. Calloch"
        },
        {
          "authorId": "2211084958",
          "name": "S. Chaudhary"
        },
        {
          "authorId": "2384443193",
          "name": "Hailey Markoff"
        },
        {
          "authorId": "2376329203",
          "name": "Avyukt Raghuvanshi"
        },
        {
          "authorId": "2113801542",
          "name": "N. Rehemtulla"
        },
        {
          "authorId": "144127644",
          "name": "J. Sollerman"
        },
        {
          "authorId": "151360936",
          "name": "Y. Sharma"
        },
        {
          "authorId": "101891377",
          "name": "N. Sravan"
        },
        {
          "authorId": "2376126610",
          "name": "J. Adler"
        },
        {
          "authorId": "2302525938",
          "name": "Tracy X. Chen"
        },
        {
          "authorId": "6313748",
          "name": "R. Dekany"
        },
        {
          "authorId": "2257000885",
          "name": "R. Riddle"
        },
        {
          "authorId": "2174455774",
          "name": "M. Kasliwal"
        },
        {
          "authorId": "2348477887",
          "name": "Matthew J. Graham"
        },
        {
          "authorId": "2384443516",
          "name": "Michael W. Coughlin Department of Computer ScienceEngineering"
        },
        {
          "authorId": "70668871",
          "name": "U. Minnesota"
        },
        {
          "authorId": "80773497",
          "name": "Minneapolis"
        },
        {
          "authorId": "74588416",
          "name": "Mn"
        },
        {
          "authorId": "2264608017",
          "name": "Usa"
        },
        {
          "authorId": "2384443561",
          "name": "N. A. W. C. F. D. Discovery"
        },
        {
          "authorId": "89909107",
          "name": "S. O. Physics"
        },
        {
          "authorId": "2286309677",
          "name": "Astronomy"
        },
        {
          "authorId": "88663126",
          "name": "D. Physics"
        },
        {
          "authorId": "88739085",
          "name": "Mathematics"
        },
        {
          "authorId": "102611508",
          "name": "C. I. O. Technology."
        },
        {
          "authorId": "119874209",
          "name": "Pasadena"
        },
        {
          "authorId": "51281501",
          "name": "Ca"
        },
        {
          "authorId": "152261835",
          "name": "Caltech Optical Observatories"
        },
        {
          "authorId": "1388328091",
          "name": "C. C. F. Astrophysics"
        },
        {
          "authorId": "2264621082",
          "name": "Department of Applied Physics"
        },
        {
          "authorId": "102720319",
          "name": "N. University"
        },
        {
          "authorId": "83037819",
          "name": "Evanston"
        },
        {
          "authorId": "2251813496",
          "name": "Il"
        },
        {
          "authorId": "102237571",
          "name": "Center for Interdisciplinary Exploration"
        },
        {
          "authorId": "102648075",
          "name": "Research in Astrophysics"
        },
        {
          "authorId": "2384443710",
          "name": "NSF-Simons AI Institute for the Sky"
        },
        {
          "authorId": "2223368305",
          "name": "Chicago"
        },
        {
          "authorId": "102339916",
          "name": "D. O. Astronomy"
        },
        {
          "authorId": "2303761481",
          "name": "S. University"
        },
        {
          "authorId": "78799120",
          "name": "Stockholm"
        },
        {
          "authorId": "2228273244",
          "name": "Sweden"
        },
        {
          "authorId": "2303446132",
          "name": "D. University"
        },
        {
          "authorId": "2173503347",
          "name": "Philadelphia"
        },
        {
          "authorId": "2095101591",
          "name": "Pa"
        },
        {
          "authorId": "103150610",
          "name": "Ipac"
        }
      ]
    },
    {
      "paperId": "c7b6847cda2d380738e07663f1f7b4c3052da551",
      "externalIds": {
        "ArXiv": "2502.19432",
        "DOI": "10.3847/25c2cfeb.cdff43a1",
        "CorpusId": 276382586
      },
      "url": "https://www.semanticscholar.org/paper/c7b6847cda2d380738e07663f1f7b4c3052da551",
      "title": "Recommended Actions for the American Astronomical Society: CSWA’s Perspective on Steps for a more Inclusive Astronomy - I. Background and Methods",
      "venue": "Bulletin of the AAS",
      "year": 2025,
      "referenceCount": 0,
      "citationCount": 0,
      "authors": [
        {
          "authorId": "2345611243",
          "name": "Rachel Wexler"
        },
        {
          "authorId": "2345612660",
          "name": "Patricia Knezek"
        },
        {
          "authorId": "2253098924",
          "name": "Gregory H. Rudnick"
        },
        {
          "authorId": "6243438",
          "name": "N. Zellner"
        },
        {
          "authorId": "2345611373",
          "name": "Kathleen D. Eckert"
        },
        {
          "authorId": "144641020",
          "name": "J. McBride"
        },
        {
          "authorId": "2345613845",
          "name": "Maria T Patterson"
        },
        {
          "authorId": "2345615226",
          "name": "Christina Richey"
        },
        {
          "authorId": "2345615259",
          "name": "Committee on the Status of Women in Astronomy"
        }
      ]
    },
    {
      "paperId": "57b2690f3bf2b20d7af0c1f15ffe643f4908ec2d",
      "externalIds": {
        "ArXiv": "2502.19433",
        "DOI": "10.3847/25c2cfeb.144eafda",
        "CorpusId": 276388322
      },
      "url": "https://www.semanticscholar.org/paper/57b2690f3bf2b20d7af0c1f15ffe643f4908ec2d",
      "title": "Recommended Actions for the American Astronomical Society: CSWA’s Perspective on Steps for a more Inclusive Astronomy - II. Recommendations",
      "venue": "Bulletin of the AAS",
      "year": 2025,
      "referenceCount": 0,
      "citationCount": 0,
      "authors": [
        {
          "authorId": "2345611243",
          "name": "Rachel Wexler"
        },
        {
          "authorId": "2345612660",
          "name": "Patricia Knezek"
        },
        {
          "authorId": "2253098924",
          "name": "Gregory H. Rudnick"
        },
        {
          "authorId": "6243438",
          "name": "N. Zellner"
        },
        {
          "authorId": "2345611373",
          "name": "Kathleen D. Eckert"
        },
        {
          "authorId": "144641020",
          "name": "J. McBride"
        },
        {
          "authorId": "2345613845",
          "name": "Maria T Patterson"
        },
        {
          "authorId": "2345615226",
          "name": "Christina Richey"
        },
        {
          "authorId": "2345615259",
          "name": "Committee on the Status of Women in Astronomy"
        }
      ]
    },
    {
      "paperId": "3a0c7070d908d82a7d1f60fd68d5f7bfe3ad488c",
      "externalIds": {
        "MAG": "2947679768",
        "DOI": "10.1007/s00464-019-06858-z",
        "CorpusId": 169033310,
        "PubMed": "31144122"
      },
      "url": "https://www.semanticscholar.org/paper/3a0c7070d908d82a7d1f60fd68d5f7bfe3ad488c",
      "title": "Efficacy and safety of endoscopic balloon dilation in inflammatory bowel disease: results of the large multicenter study of the ENEIDA registry",
      "venue": "Surgical Endoscopy",
      "year": 2019,
      "referenceCount": 34,
      "citationCount": 27,
      "authors": [
        {
          "authorId": "10123577",
          "name": "X. Andújar"
        },
        {
          "authorId": "3876288",
          "name": "C. Loras"
        },
        {
          "authorId": "144960642",
          "name": "B. González"
        },
        {
          "authorId": "121910342",
          "name": "M. Socarras"
        },
        {
          "authorId": "2254742679",
          "name": "V. Sánchiz"
        },
        {
          "authorId": "39821386",
          "name": "M. Boscá"
        },
        {
          "authorId": "144101399",
          "name": "E. Doménech"
        },
        {
          "authorId": "33254056",
          "name": "M. Calafat"
        },
        {
          "authorId": "2112303715",
          "name": "E. Rodríguez"
        },
        {
          "authorId": "10112797",
          "name": "B. Sicilia"
        },
        {
          "authorId": "6575775",
          "name": "X. Calvet"
        },
        {
          "authorId": "39967057",
          "name": "J. Barrio"
        },
        {
          "authorId": "2018832",
          "name": "J. Guardiola"
        },
        {
          "authorId": "48911042",
          "name": "E. Iglesias"
        },
        {
          "authorId": "47016969",
          "name": "M. Casanova"
        },
        {
          "authorId": "2722690",
          "name": "Y. Ber"
        },
        {
          "authorId": "15632231",
          "name": "D. Monfort"
        },
        {
          "authorId": "74193125",
          "name": "A. López-Sanromán"
        },
        {
          "authorId": "1402759214",
          "name": "I. Rodríguez-Lago"
        },
        {
          "authorId": "4397743",
          "name": "L. Bujanda"
        },
        {
          "authorId": "35695484",
          "name": "L. Márquez"
        },
        {
          "authorId": "1402536426",
          "name": "M. Martín-Arranz"
        },
        {
          "authorId": "144310527",
          "name": "Y. Zabana"
        },
        {
          "authorId": "1397639708",
          "name": "F. Fernández-Bañares"
        },
        {
          "authorId": "144129209",
          "name": "M. Esteve"
        },
        {
          "authorId": "151230955",
          "name": "the Eneida registry of Geteccu"
        }
      ]
    },
    {
      "paperId": "917caee6c425577981777c59bf06669145e2f71d",
      "externalIds": {
        "MAG": "2595165435",
        "DOI": "10.1007/s00464-017-5486-0",
        "CorpusId": 20260719,
        "PubMed": "28289972"
      },
      "url": "https://www.semanticscholar.org/paper/917caee6c425577981777c59bf06669145e2f71d",
      "title": "Impact of laparoscopy on adherence to an enhanced recovery pathway and readiness for discharge in elective colorectal surgery: Results from the PeriOperative Italian Society registry",
      "venue": "Surgical Endoscopy",
      "year": 2017,
      "referenceCount": 29,
      "citationCount": 20,
      "authors": [
        {
          "authorId": "145381937",
          "name": "M. Braga"
        },
        {
          "authorId": "49435768",
          "name": "F. Borghi"
        },
        {
          "authorId": "4978966",
          "name": "M. Scatizzi"
        },
        {
          "authorId": "14561525",
          "name": "G. Missana"
        },
        {
          "authorId": "40437611",
          "name": "M. Guicciardi"
        },
        {
          "authorId": "39779172",
          "name": "S. Bona"
        },
        {
          "authorId": "3829561",
          "name": "Ferdinando Ficari"
        },
        {
          "authorId": "2290154769",
          "name": "Marianna Maspero"
        },
        {
          "authorId": "9805793",
          "name": "N. Pecorelli"
        },
        {
          "authorId": "147755486",
          "name": "On behalf of the PeriOperative Italian Society"
        }
      ]
    },
    {
      "paperId": "6a14edf4b2c7258482f3320cdf2448de7a912fd6",
      "externalIds": {
        "MAG": "2147731532",
        "DOI": "10.1080/10428190601126602",
        "CorpusId": 11730505,
        "PubMed": "17325894"
      },
      "url": "https://www.semanticscholar.org/paper/6a14edf4b2c7258482f3320cdf2448de7a912fd6",
      "title": "Renal failure in multiple myeloma: Incidence, correlations, and prognostic significance",
      "venue": "Leukemia and Lymphoma",
      "year": 2007,
      "referenceCount": 10,
      "citationCount": 235,
      "authors": [
        {
          "authorId": "1400935287",
          "name": "V. Eleutherakis-Papaiakovou"
        },
        {
          "authorId": "10181526",
          "name": "A. Bamias"
        },
        {
          "authorId": "7242220",
          "name": "D. Gika"
        },
        {
          "authorId": "2193616",
          "name": "A. Simeonidis"
        },
        {
          "authorId": "4846303",
          "name": "A. Pouli"
        },
        {
          "authorId": "3398889",
          "name": "A. Anagnostopoulos"
        },
        {
          "authorId": "15583758",
          "name": "E. Michali"
        },
        {
          "authorId": "3211662",
          "name": "T. Economopoulos"
        },
        {
          "authorId": "11253653",
          "name": "K. Zervas"
        },
        {
          "authorId": null,
          "name": "M. A. Dimopoulos on behalf of the Greek Myeloma Study Gr"
        }
      ]
    },
    {
      "paperId": "09c6f46f0851ada056dfdb6776560e52fcee0878",
      "externalIds": {
        "CorpusId": 18642934
      },
      "url": "https://www.semanticscholar.org/paper/09c6f46f0851ada056dfdb6776560e52fcee0878",
      "title": "Mln Clinics in London 1996 Multilevel Unit Specific and Population Average Generalised Linear Models ——————————————————- the Effects of Centering in Multilevel Analysis ——————————————————- a Multilevel Analysis for Screening Data Accumulated from a Number of Studies ——————————————————- Some New Publ",
      "venue": "",
      "year": null,
      "referenceCount": 21,
      "citationCount": 0,
      "authors": [
        {
          "authorId": "77480407",
          "name": "T. January"
        },
        {
          "authorId": "2094665093",
          "name": "Tuesday February"
        },
        {
          "authorId": "2380044412",
          "name": "Tuesday March"
        },
        {
          "authorId": "120860284",
          "name": "Tuesday April"
        },
        {
          "authorId": "2096156825",
          "name": "The Multilevel"
        },
        {
          "authorId": "2092024861",
          "name": "Models Project"
        },
        {
          "authorId": "2053553610",
          "name": "Anderson"
        },
        {
          "authorId": "2072992995",
          "name": "Louis"
        },
        {
          "authorId": "2305590463",
          "name": "T. Belin"
        },
        {
          "authorId": "119898539",
          "name": "Rubin"
        },
        {
          "authorId": "2663507",
          "name": "V. Chinchilli"
        },
        {
          "authorId": "2072273879",
          "name": "Miller"
        },
        {
          "authorId": "87767952",
          "name": "D. Follmann"
        },
        {
          "authorId": "2375484226",
          "name": "W. An"
        },
        {
          "authorId": "121421389",
          "name": "J. Gray"
        },
        {
          "authorId": "2084320805",
          "name": "G. Kreft"
        },
        {
          "authorId": "91225707",
          "name": "Vanderleeden"
        },
        {
          "authorId": "2181186",
          "name": "S. Lipsitz"
        },
        {
          "authorId": "7890796",
          "name": "N. Laird"
        },
        {
          "authorId": "2076808530",
          "name": "Harrington"
        },
        {
          "authorId": "2259524939",
          "name": "R. W. Brennan"
        },
        {
          "authorId": "2059004845",
          "name": "R. Barnett"
        },
        {
          "authorId": "48244312",
          "name": "T. Snijders"
        },
        {
          "authorId": "8292726",
          "name": "M. Spreen"
        },
        {
          "authorId": "6306942",
          "name": "R. Zwaagstra"
        },
        {
          "authorId": "103410163",
          "name": "T. Have"
        },
        {
          "authorId": "148213829",
          "name": "T. R. Landis"
        },
        {
          "authorId": "1992543658",
          "name": "Weaver"
        },
        {
          "authorId": "2071165641",
          "name": "D. Draper"
        },
        {
          "authorId": "32127380",
          "name": "D. Rogosa"
        },
        {
          "authorId": "46458700",
          "name": "Hilary Saner"
        },
        {
          "authorId": "119547418",
          "name": "Jan de Leeuw"
        },
        {
          "authorId": "71019033",
          "name": "I. Kreft"
        },
        {
          "authorId": "31727329",
          "name": "C. Morris"
        },
        {
          "authorId": "144532701",
          "name": "H. Goldstein"
        },
        {
          "authorId": "3197313",
          "name": "N. Longford"
        },
        {
          "authorId": "5527740",
          "name": "S. Raudenbush"
        },
        {
          "authorId": "2105170034",
          "name": "William Mason Replies By Draper"
        },
        {
          "authorId": "48022749",
          "name": "R. Saner"
        },
        {
          "authorId": "123734031",
          "name": "De Leeuw"
        },
        {
          "authorId": "118778021",
          "name": "Kreft"
        },
        {
          "authorId": "48244312",
          "name": "T. Snijders"
        },
        {
          "authorId": "48532603",
          "name": "David B. Rose"
        },
        {
          "authorId": "78892005",
          "name": "In Bangladesh"
        },
        {
          "authorId": "50246161",
          "name": "H. Khan"
        },
        {
          "authorId": "2113773207",
          "name": "M. Murphy"
        },
        {
          "authorId": "113144737",
          "name": "D. Wang"
        }
      ]
    }
  ]
}