{
  "total": 58,
  "offset": 0,
  "next": 10,
  "data": [
    {
      "paperId": "9ff1696ccd36a6abc6f1a1ad84c70a369fa9b7cd",
      "externalIds": {
        "DBLP": "conf/icml/SunYDB18",
        "MAG": "2409651942",
        "CorpusId": 16216526
      },
      "url": "https://www.semanticscholar.org/paper/9ff1696ccd36a6abc6f1a1ad84c70a369fa9b7cd",
      "title": "Convolutional Imputation of Matrix Networks",
      "venue": "International Conference on Machine Learning",
      "year": 2016,
      "referenceCount": 58,
      "citationCount": 10,
      "authors": [
        {
          "authorId": "3422968",
          "name": "Qingyun Sun"
        },
        {
          "authorId": "3235234",
          "name": "Mengyuan Yan"
        },
        {
          "authorId": "1709392",
          "name": "D. Donoho"
        },
        {
          "authorId": "1843103",
          "name": "Stephen P. Boyd"
        }
      ]
    },
    {
      "paperId": "a268e984870990ccb364832b0a0f09343f45493b",
      "externalIds": {
        "CorpusId": 53138401
      },
      "url": "https://www.semanticscholar.org/paper/a268e984870990ccb364832b0a0f09343f45493b",
      "title": "Appendix : Convolutional Imputation of Matrix Networks",
      "venue": "",
      "year": 2018,
      "referenceCount": 2,
      "citationCount": 0,
      "authors": [
        {
          "authorId": "3422968",
          "name": "Qingyun Sun"
        },
        {
          "authorId": "3235234",
          "name": "Mengyuan Yan"
        },
        {
          "authorId": "1709392",
          "name": "D. Donoho"
        },
        {
          "authorId": "1843103",
          "name": "Stephen P. Boyd"
        }
      ]
    },
    {
      "paperId": "011034a821ab0f230f26afc35096cbca5ae671ed",
      "externalIds": {
        "DBLP": "journals/nn/FaroughiMJ25",
        "DOI": "10.1016/j.neunet.2024.107071",
        "CorpusId": 275190371,
        "PubMed": "39793488"
      },
      "url": "https://www.semanticscholar.org/paper/011034a821ab0f230f26afc35096cbca5ae671ed",
      "title": "Enhancing Recommender Systems through Imputation and Social-Aware Graph Convolutional Neural Network",
      "venue": "Neural Networks",
      "year": 2024,
      "referenceCount": 55,
      "citationCount": 7,
      "authors": [
        {
          "authorId": "30982103",
          "name": "A. Faroughi"
        },
        {
          "authorId": "2314377755",
          "name": "Parham Moradi"
        },
        {
          "authorId": "2267337214",
          "name": "Mahdi Jalili"
        }
      ]
    },
    {
      "paperId": "a498e1a02d44e84087d124142a0e3ea75d72de22",
      "externalIds": {
        "DBLP": "journals/tits/LiZCDL24",
        "DOI": "10.1109/TITS.2024.3430039",
        "CorpusId": 271607491
      },
      "url": "https://www.semanticscholar.org/paper/a498e1a02d44e84087d124142a0e3ea75d72de22",
      "title": "Convolutional Low-Rank Tensor Representation for Structural Missing Traffic Data Imputation",
      "venue": "IEEE transactions on intelligent transportation systems (Print)",
      "year": 2024,
      "referenceCount": 53,
      "citationCount": 13,
      "authors": [
        {
          "authorId": "2144007447",
          "name": "Ben-Zheng Li"
        },
        {
          "authorId": "2197049772",
          "name": "Xi-Le Zhao"
        },
        {
          "authorId": "2314332696",
          "name": "Xinyu Chen"
        },
        {
          "authorId": "50386176",
          "name": "Meng Ding"
        },
        {
          "authorId": "2202013693",
          "name": "Ryan Wen Liu"
        }
      ]
    },
    {
      "paperId": "0690d94a0eb275f033f9b8db0ae20a11b98c2460",
      "externalIds": {
        "DOI": "10.1109/EEBDA60612.2024.10485867",
        "CorpusId": 269020566
      },
      "url": "https://www.semanticscholar.org/paper/0690d94a0eb275f033f9b8db0ae20a11b98c2460",
      "title": "Graph Neural Networks: Application in Air Pollution Imputation",
      "venue": "2024 IEEE 3rd International Conference on Electrical Engineering, Big Data and Algorithms (EEBDA)",
      "year": 2024,
      "referenceCount": 9,
      "citationCount": 1,
      "authors": [
        {
          "authorId": null,
          "name": "Jingshuai Zhang"
        }
      ]
    },
    {
      "paperId": "5e0e9f77649057233ccfb0c20269a6d906b82218",
      "externalIds": {
        "DBLP": "journals/access/MallikVRE26",
        "DOI": "10.1109/ACCESS.2026.3670487",
        "CorpusId": 286260522
      },
      "url": "https://www.semanticscholar.org/paper/5e0e9f77649057233ccfb0c20269a6d906b82218",
      "title": "Urban Air Quality Prediction With Infinite Width Convolutional Networks",
      "venue": "IEEE Access",
      "year": 2026,
      "referenceCount": 50,
      "citationCount": 0,
      "authors": [
        {
          "authorId": "2164896190",
          "name": "Mohammed Mallik"
        },
        {
          "authorId": "1699570",
          "name": "G. Villemaud"
        },
        {
          "authorId": "2422006835",
          "name": "Emilio Ramos Sorroche"
        },
        {
          "authorId": "2069874608",
          "name": "Esteban Egea Lopez"
        }
      ]
    },
    {
      "paperId": "5bcca1a4b3a60c4eba2428c2bb78c71ac992efba",
      "externalIds": {
        "DBLP": "conf/itsc/SunDZZJ23",
        "DOI": "10.1109/ITSC57777.2023.10422643",
        "CorpusId": 267659592
      },
      "url": "https://www.semanticscholar.org/paper/5bcca1a4b3a60c4eba2428c2bb78c71ac992efba",
      "title": "A Traffic Flow Forecasting Model Using Graph Convolutional Recurrent Neural Networks with Incomplete Data",
      "venue": "2023 IEEE 26th International Conference on Intelligent Transportation Systems (ITSC)",
      "year": 2023,
      "referenceCount": 30,
      "citationCount": 7,
      "authors": [
        {
          "authorId": "2267509350",
          "name": "Zhanbo Sun"
        },
        {
          "authorId": "2284580354",
          "name": "Jin Dai"
        },
        {
          "authorId": "2265939413",
          "name": "Yu Zhao"
        },
        {
          "authorId": "2284466772",
          "name": "Chao Zhang"
        },
        {
          "authorId": "2267486981",
          "name": "Ang Ji"
        }
      ]
    },
    {
      "paperId": "22c914fb3ed5ed344438153bce43e30aef33e021",
      "externalIds": {
        "DBLP": "conf/icip/KilisPMP22",
        "DOI": "10.1109/ICIP46576.2022.9897258",
        "CorpusId": 253316599
      },
      "url": "https://www.semanticscholar.org/paper/22c914fb3ed5ed344438153bce43e30aef33e021",
      "title": "An Efficient Framework for Human Action Recognition Based on Graph Convolutional Networks",
      "venue": "International Conference on Information Photonics",
      "year": 2022,
      "referenceCount": 28,
      "citationCount": 5,
      "authors": [
        {
          "authorId": "1396414472",
          "name": "Nikolaos Kilis"
        },
        {
          "authorId": "1395067456",
          "name": "Christos Papaioannidis"
        },
        {
          "authorId": "2108538",
          "name": "Ioannis Mademlis"
        },
        {
          "authorId": "144064571",
          "name": "I. Pitas"
        }
      ]
    },
    {
      "paperId": "65865d6ed80b8d29b56b04fbf673c66129b2b892",
      "externalIds": {
        "DBLP": "conf/wacv/Przewiezlikowski22",
        "ArXiv": "2110.14010",
        "DOI": "10.1109/WACV51458.2022.00297",
        "CorpusId": 239998507
      },
      "url": "https://www.semanticscholar.org/paper/65865d6ed80b8d29b56b04fbf673c66129b2b892",
      "title": "MisConv: Convolutional Neural Networks for Missing Data",
      "venue": "IEEE Workshop/Winter Conference on Applications of Computer Vision",
      "year": 2021,
      "referenceCount": 58,
      "citationCount": 10,
      "authors": [
        {
          "authorId": "147572870",
          "name": "Marcin Przewiezlikowski"
        },
        {
          "authorId": "49688210",
          "name": "Marek Śmieja"
        },
        {
          "authorId": "2096834",
          "name": "Lukasz Struski"
        },
        {
          "authorId": "145541197",
          "name": "J. Tabor"
        }
      ]
    },
    {
      "paperId": "3674a88cc3989d63a29bf94c0015f6ff290a1719",
      "externalIds": {
        "DBLP": "journals/artmed/VivarKBZNA21",
        "ArXiv": "2005.06935",
        "MAG": "3024704409",
        "DOI": "10.1016/j.artmed.2021.102097",
        "CorpusId": 218628835,
        "PubMed": "34127236"
      },
      "url": "https://www.semanticscholar.org/paper/3674a88cc3989d63a29bf94c0015f6ff290a1719",
      "title": "Simultaneous imputation and disease classification in incomplete medical datasets using Multigraph Geometric Matrix Completion (MGMC)",
      "venue": "Artif. Intell. Medicine",
      "year": 2020,
      "referenceCount": 55,
      "citationCount": 16,
      "authors": [
        {
          "authorId": "40898514",
          "name": "G. Vivar"
        },
        {
          "authorId": "32868927",
          "name": "Anees Kazi"
        },
        {
          "authorId": "80843089",
          "name": "Hendrik Burwinkel"
        },
        {
          "authorId": "2314437",
          "name": "A. Zwergal"
        },
        {
          "authorId": "145587209",
          "name": "N. Navab"
        },
        {
          "authorId": "145774206",
          "name": "Seyed-Ahmad Ahmadi"
        }
      ]
    }
  ]
}