{
  "total": 272,
  "offset": 0,
  "next": 10,
  "data": [
    {
      "paperId": "8976e91ccae57a20c29f3c9d88bf45b19973c952",
      "externalIds": {
        "MAG": "2952443013",
        "DBLP": "conf/icml/AlemiPFDS018",
        "CorpusId": 3289726
      },
      "url": "https://www.semanticscholar.org/paper/8976e91ccae57a20c29f3c9d88bf45b19973c952",
      "title": "Fixing a Broken ELBO",
      "venue": "International Conference on Machine Learning",
      "year": 2017,
      "referenceCount": 40,
      "citationCount": 534,
      "authors": [
        {
          "authorId": "122113652",
          "name": "Alexander A. Alemi"
        },
        {
          "authorId": "16443937",
          "name": "Ben Poole"
        },
        {
          "authorId": "33091759",
          "name": "Ian S. Fischer"
        },
        {
          "authorId": "2403637",
          "name": "Joshua V. Dillon"
        },
        {
          "authorId": "2278009",
          "name": "R. Saurous"
        },
        {
          "authorId": "1702318",
          "name": "K. Murphy"
        }
      ]
    },
    {
      "paperId": "b0a395401b347fd0916dd58d0774aa0787b4b526",
      "externalIds": {
        "PubMedCentral": "12082440",
        "DOI": "10.5334/cpsy.148",
        "CorpusId": 278623164,
        "PubMed": "40384939"
      },
      "url": "https://www.semanticscholar.org/paper/b0a395401b347fd0916dd58d0774aa0787b4b526",
      "title": "One Small Step Towards Fixing a Broken System",
      "venue": "Computational Psychiatry",
      "year": 2025,
      "referenceCount": 1,
      "citationCount": 0,
      "authors": [
        {
          "authorId": "2118711894",
          "name": "Xiaosi Gu"
        },
        {
          "authorId": "2283349195",
          "name": "Rick A. Adams"
        }
      ]
    },
    {
      "paperId": "62d213e95d70681b0ff803f466b7796512c8390d",
      "externalIds": {
        "MAG": "3045275213",
        "DOI": "10.1097/ppo.0000000000000457",
        "CorpusId": 220889737,
        "PubMed": "32732672"
      },
      "url": "https://www.semanticscholar.org/paper/62d213e95d70681b0ff803f466b7796512c8390d",
      "title": "Pricing and Paying for Cancer Drugs: Policy Options for Fixing A Broken System.",
      "venue": "Cancer Journal",
      "year": 2020,
      "referenceCount": 40,
      "citationCount": 2,
      "authors": [
        {
          "authorId": "2250462",
          "name": "D. Hyman"
        },
        {
          "authorId": "36389081",
          "name": "C. Silver"
        }
      ]
    },
    {
      "paperId": "ed406e2040c0b617926d0511f6e1482c91f8fe52",
      "externalIds": {
        "MAG": "3041370582",
        "DOI": "10.1164/ajrccm-conference.2020.201.1_meetingabstracts.a3409",
        "CorpusId": 225922707
      },
      "url": "https://www.semanticscholar.org/paper/ed406e2040c0b617926d0511f6e1482c91f8fe52",
      "title": "Fixing a Broken Heart: A Case of Reverse Takotsubo Cardiomyopathy",
      "venue": "B43. CRITICAL CARE CASE REPORTS: CARDIOVASCULAR DISEASES IN THE ICU I",
      "year": 2020,
      "referenceCount": 0,
      "citationCount": 0,
      "authors": [
        {
          "authorId": "7173975",
          "name": "S. Akella"
        },
        {
          "authorId": "50012462",
          "name": "A. Bose"
        },
        {
          "authorId": "2195102424",
          "name": "E. Paudel"
        }
      ]
    },
    {
      "paperId": "a87f042e888419e1bc4d3a43f4b614c077c8f3d1",
      "externalIds": {
        "CorpusId": 197867765
      },
      "url": "https://www.semanticscholar.org/paper/a87f042e888419e1bc4d3a43f4b614c077c8f3d1",
      "title": "Fixing a Broken Common Law-- Has the Property Law of Easements and Covenants Been Reformed by a Restatement ?",
      "venue": "",
      "year": 2018,
      "referenceCount": 9,
      "citationCount": 0,
      "authors": [
        {
          "authorId": "83562282",
          "name": "Dale"
        },
        {
          "authorId": "2114749175",
          "name": "A."
        },
        {
          "authorId": "119005812",
          "name": "Whitman"
        }
      ]
    },
    {
      "paperId": "043b9bbffb79bd1b34cd07e68c8f8106e9d3ebd9",
      "externalIds": {
        "MAG": "2091591055",
        "DOI": "10.1002/ccd.24340",
        "CorpusId": 39775800,
        "PubMed": "22344989"
      },
      "url": "https://www.semanticscholar.org/paper/043b9bbffb79bd1b34cd07e68c8f8106e9d3ebd9",
      "title": "Fixing a broken stent",
      "venue": "Catheterization and cardiovascular interventions",
      "year": 2012,
      "referenceCount": 11,
      "citationCount": 0,
      "authors": [
        {
          "authorId": "6963841",
          "name": "J. Belardi"
        },
        {
          "authorId": "6772440",
          "name": "M. Albertal"
        }
      ]
    },
    {
      "paperId": "38c4eb83c792e4b3a15d6fba42c9ce65124b3c4e",
      "externalIds": {
        "MAG": "2109717102",
        "DOI": "10.1016/S1471-4906(01)01966-4",
        "CorpusId": 73336353
      },
      "url": "https://www.semanticscholar.org/paper/38c4eb83c792e4b3a15d6fba42c9ce65124b3c4e",
      "title": "Fixing a broken heart with bone",
      "venue": "",
      "year": 2001,
      "referenceCount": 0,
      "citationCount": 1,
      "authors": [
        {
          "authorId": "89584449",
          "name": "L. O’Neill"
        }
      ]
    },
    {
      "paperId": "658cbbda5daba6d2c9822cbde4934bfc52978088",
      "externalIds": {
        "CorpusId": 33679513,
        "PubMed": "20737759"
      },
      "url": "https://www.semanticscholar.org/paper/658cbbda5daba6d2c9822cbde4934bfc52978088",
      "title": "Fixing a broken Michigan.",
      "venue": "The Michigan nurse",
      "year": 2010,
      "referenceCount": 0,
      "citationCount": 0,
      "authors": [
        {
          "authorId": "12654602",
          "name": "A. Sincox"
        }
      ]
    },
    {
      "paperId": "93d152b518e58aef8fc7f30da3e68fc86378b0e0",
      "externalIds": {
        "DOI": "10.2337/dci25-0001",
        "CorpusId": 279460255,
        "PubMed": "40542616"
      },
      "url": "https://www.semanticscholar.org/paper/93d152b518e58aef8fc7f30da3e68fc86378b0e0",
      "title": "How to Fix a Broken Health Care System: Pathways to Maximize Health and Well-being for All.",
      "venue": "Diabetes Care",
      "year": 2025,
      "referenceCount": 0,
      "citationCount": 1,
      "authors": [
        {
          "authorId": "2268647978",
          "name": "Marshall H Chin"
        },
        {
          "authorId": "2289816228",
          "name": "J. D. Bruch"
        },
        {
          "authorId": "2278610006",
          "name": "Colleen M. Grogan"
        },
        {
          "authorId": "2251649752",
          "name": "Elbert S. Huang"
        },
        {
          "authorId": "6399705",
          "name": "N. Kandula"
        },
        {
          "authorId": "2289064032",
          "name": "David D. Kim"
        },
        {
          "authorId": "2317061363",
          "name": "M. E. Peek"
        },
        {
          "authorId": "2188148099",
          "name": "Harold A Pollack"
        }
      ]
    },
    {
      "paperId": "34be7f14ba1dd9cdcb5a11f0254ad00baf83e458",
      "externalIds": {
        "MAG": "2511447278",
        "DOI": "10.1093/ageing/afw154",
        "CorpusId": 24157236,
        "PubMed": "27609210"
      },
      "url": "https://www.semanticscholar.org/paper/34be7f14ba1dd9cdcb5a11f0254ad00baf83e458",
      "title": "Fixing the broken image of care homes, could a 'care home innovation centre' be the answer?",
      "venue": "Age and Ageing",
      "year": 2016,
      "referenceCount": 28,
      "citationCount": 10,
      "authors": [
        {
          "authorId": "108229141",
          "name": "J. Hockley"
        },
        {
          "authorId": "121001706",
          "name": "J. Harrison"
        },
        {
          "authorId": "67022467",
          "name": "J. Watson"
        },
        {
          "authorId": "2263417710",
          "name": "M. Randall"
        },
        {
          "authorId": "35540011",
          "name": "S. Murray"
        }
      ]
    }
  ]
}