{
  "total": 70,
  "offset": 0,
  "next": 10,
  "data": [
    {
      "paperId": "2f44630eccbf3c004922082f2883350d4bc4ec34",
      "externalIds": {
        "MAG": "1857730375",
        "DBLP": "conf/icml/GlobersonRSY15",
        "CorpusId": 6834190
      },
      "url": "https://www.semanticscholar.org/paper/2f44630eccbf3c004922082f2883350d4bc4ec34",
      "title": "How Hard is Inference for Structured Prediction?",
      "venue": "International Conference on Machine Learning",
      "year": 2015,
      "referenceCount": 48,
      "citationCount": 30,
      "authors": [
        {
          "authorId": "1786843",
          "name": "A. Globerson"
        },
        {
          "authorId": "1712542",
          "name": "Tim Roughgarden"
        },
        {
          "authorId": "1746662",
          "name": "D. Sontag"
        },
        {
          "authorId": "2555582",
          "name": "C. Yildirim"
        }
      ]
    },
    {
      "paperId": "7b3ad46d88366acdc0207cf41bd5c699a0b0fc9d",
      "externalIds": {
        "CorpusId": 11386620
      },
      "url": "https://www.semanticscholar.org/paper/7b3ad46d88366acdc0207cf41bd5c699a0b0fc9d",
      "title": "How Hard is Inference for Structured Prediction ?",
      "venue": "",
      "year": 2015,
      "referenceCount": 6,
      "citationCount": 3,
      "authors": [
        {
          "authorId": "2079343239",
          "name": "A. Proofs"
        }
      ]
    },
    {
      "paperId": "9d231417f6675052e07f0687ed4719cde032ca7e",
      "externalIds": {
        "DBLP": "journals/corr/abs-2510-02259",
        "ArXiv": "2510.02259",
        "DOI": "10.48550/arXiv.2510.02259",
        "CorpusId": 281724349
      },
      "url": "https://www.semanticscholar.org/paper/9d231417f6675052e07f0687ed4719cde032ca7e",
      "title": "Transformers Discover Molecular Structure Without Graph Priors",
      "venue": "arXiv.org",
      "year": 2025,
      "referenceCount": 63,
      "citationCount": 7,
      "authors": [
        {
          "authorId": "2249662716",
          "name": "T. Kreiman"
        },
        {
          "authorId": "2349426965",
          "name": "Yutong Bai"
        },
        {
          "authorId": "1414603541",
          "name": "Fadi Atieh"
        },
        {
          "authorId": "2363346551",
          "name": "Elizabeth Weaver"
        },
        {
          "authorId": "2328410367",
          "name": "Eric Qu"
        },
        {
          "authorId": "2284861715",
          "name": "A. Krishnapriyan"
        }
      ]
    },
    {
      "paperId": "734ff57bffcbe0cff38f1b3411606fd95931a21e",
      "externalIds": {
        "DBLP": "conf/icc/ZhangTYY23",
        "DOI": "10.1109/ICC45041.2023.10279148",
        "CorpusId": 264458162
      },
      "url": "https://www.semanticscholar.org/paper/734ff57bffcbe0cff38f1b3411606fd95931a21e",
      "title": "Construct New Graphs Using Information Bottleneck Against Property Inference Attacks",
      "venue": "ICC 2023 - IEEE International Conference on Communications",
      "year": 2023,
      "referenceCount": 26,
      "citationCount": 1,
      "authors": [
        {
          "authorId": "66959518",
          "name": "Chenhan Zhang"
        },
        {
          "authorId": "151484195",
          "name": "Zhiyi Tian"
        },
        {
          "authorId": "2261667446",
          "name": "J. J. Yu"
        },
        {
          "authorId": "1409935357",
          "name": "Shui Yu"
        }
      ]
    },
    {
      "paperId": "b01c07d71d2a5acb7559cafa24cfa3340c97af83",
      "externalIds": {
        "MAG": "2912462949",
        "DOI": "10.32470/CCN.2018.1260-0",
        "CorpusId": 86838630
      },
      "url": "https://www.semanticscholar.org/paper/b01c07d71d2a5acb7559cafa24cfa3340c97af83",
      "title": "Approximate inference explains paradoxical data in two-event causal inference task",
      "venue": "",
      "year": 2018,
      "referenceCount": 0,
      "citationCount": 0,
      "authors": [
        {
          "authorId": "1387155356",
          "name": "S. Shivkumar"
        },
        {
          "authorId": "107734130",
          "name": "Madeline S. Cappelloni"
        },
        {
          "authorId": "4053196",
          "name": "R. Maddox"
        },
        {
          "authorId": "144917982",
          "name": "R. Haefner"
        }
      ]
    },
    {
      "paperId": "2be7043a885c44d0deeb62f16ba0f70eb14fc8a2",
      "externalIds": {
        "CorpusId": 235665300
      },
      "url": "https://www.semanticscholar.org/paper/2be7043a885c44d0deeb62f16ba0f70eb14fc8a2",
      "title": "HYPOTHESIS GENERATION IN CHILDREN AND ADULTS 1 Hypothesis generation through active inductive inference in children and adults",
      "venue": "",
      "year": 2021,
      "referenceCount": 51,
      "citationCount": 0,
      "authors": [
        {
          "authorId": "2428303",
          "name": "Neil R. Bramley"
        }
      ]
    },
    {
      "paperId": "f7f74591670d0cd31aeda7c8a34b4cfbd0f9c48b",
      "externalIds": {
        "DOI": "10.1080/02786826.2022.2114312",
        "CorpusId": 251691985
      },
      "url": "https://www.semanticscholar.org/paper/f7f74591670d0cd31aeda7c8a34b4cfbd0f9c48b",
      "title": "Application of machine learning approaches in the analysis of mass absorption cross-section of black carbon aerosols: Aerosol composition dependencies and sensitivity analyses",
      "venue": "Aerosol Science and Technology",
      "year": 2022,
      "referenceCount": 64,
      "citationCount": 7,
      "authors": [
        {
          "authorId": "47962969",
          "name": "Andrew A. May"
        },
        {
          "authorId": "2279781440",
          "name": "Hanyang Li"
        }
      ]
    },
    {
      "paperId": "1788df44fbeb6babbb100be5fbf8ef0cd0b6ccbe",
      "externalIds": {
        "MAG": "2915661262",
        "CorpusId": 13841323
      },
      "url": "https://www.semanticscholar.org/paper/1788df44fbeb6babbb100be5fbf8ef0cd0b6ccbe",
      "title": "Face-centered cubic ( FCC ) lattice models for protein folding : energy function inference and biplane packing Author :",
      "venue": "",
      "year": 2010,
      "referenceCount": 36,
      "citationCount": 0,
      "authors": [
        {
          "authorId": "1699056",
          "name": "S. Istrail"
        },
        {
          "authorId": "145695738",
          "name": "F. Preparata"
        }
      ]
    },
    {
      "paperId": "bd95612093b011b8ce714901de80f0888b466c28",
      "externalIds": {
        "DOI": "10.1115/vvuq2024-122961",
        "CorpusId": 270755317
      },
      "url": "https://www.semanticscholar.org/paper/bd95612093b011b8ce714901de80f0888b466c28",
      "title": "Physics-Guided Bayesian Neural Networks and Their Application in ODE Problems",
      "venue": "ASME 2024 Verification, Validation, and Uncertainty Quantification Symposium",
      "year": 2024,
      "referenceCount": 0,
      "citationCount": 1,
      "authors": [
        {
          "authorId": "2326924531",
          "name": "Xinyue Xu"
        },
        {
          "authorId": "41016078",
          "name": "Suman Paneru"
        },
        {
          "authorId": "2308389418",
          "name": "Sez A. Russcher"
        },
        {
          "authorId": "2292621483",
          "name": "Julian Wang"
        }
      ]
    },
    {
      "paperId": "6ecf86879f8be4daebd4a829bdc82215fce262d6",
      "externalIds": {
        "MAG": "2766165855",
        "CorpusId": 269215132
      },
      "url": "https://www.semanticscholar.org/paper/6ecf86879f8be4daebd4a829bdc82215fce262d6",
      "title": "Ping Pong in Church: Productive use of concepts in human probabilistic inference - eScholarship",
      "venue": "",
      "year": 2012,
      "referenceCount": 0,
      "citationCount": 0,
      "authors": [
        {
          "authorId": "2264218532",
          "name": "Tobias Gerstenberg"
        },
        {
          "authorId": "2268422936",
          "name": "Noah D. Goodman"
        }
      ]
    }
  ]
}