{
  "total": 50,
  "offset": 0,
  "next": 10,
  "data": [
    {
      "paperId": "d9998892d56ab475055f406dc34b7f095168ed51",
      "externalIds": {
        "MAG": "2883321261",
        "ArXiv": "1502.03529",
        "DBLP": "journals/corr/ZhaoLZ15",
        "CorpusId": 9998273
      },
      "url": "https://www.semanticscholar.org/paper/d9998892d56ab475055f406dc34b7f095168ed51",
      "title": "Scalable Stochastic Alternating Direction Method of Multipliers",
      "venue": "arXiv.org",
      "year": 2015,
      "referenceCount": 19,
      "citationCount": 22,
      "authors": [
        {
          "authorId": "2488137",
          "name": "Shen-Yi Zhao"
        },
        {
          "authorId": "2108767973",
          "name": "Wu-Jun Li"
        },
        {
          "authorId": "145624000",
          "name": "Zhi-Hua Zhou"
        }
      ]
    },
    {
      "paperId": "c11c454b1bc0599f76830363a1ddf8ef61f7d6cc",
      "externalIds": {
        "MAG": "2563205413",
        "DOI": "10.5183/JJSCS.1502004_218",
        "CorpusId": 126133832
      },
      "url": "https://www.semanticscholar.org/paper/c11c454b1bc0599f76830363a1ddf8ef61f7d6cc",
      "title": "STOCHASTIC ALTERNATING DIRECTION METHOD OF MULTIPLIERS FOR STRUCTURED REGULARIZATION",
      "venue": "",
      "year": 2015,
      "referenceCount": 43,
      "citationCount": 0,
      "authors": [
        {
          "authorId": "2026193813",
          "name": "Taiji Suzuki"
        }
      ]
    },
    {
      "paperId": "136d454d0d305b80b711f40206d33e818aaa80a3",
      "externalIds": {
        "MAG": "2884147434",
        "DOI": "10.14711/thesis-b1514777",
        "CorpusId": 209889047
      },
      "url": "https://www.semanticscholar.org/paper/136d454d0d305b80b711f40206d33e818aaa80a3",
      "title": "Stochastic alternating direction method of multipliers",
      "venue": "",
      "year": 2015,
      "referenceCount": 0,
      "citationCount": 3,
      "authors": [
        {
          "authorId": "48143057",
          "name": "Shuai Zheng"
        }
      ]
    },
    {
      "paperId": "ebda0065308141a96acabb7411cfb5b830d5218e",
      "externalIds": {
        "CorpusId": 32568560
      },
      "url": "https://www.semanticscholar.org/paper/ebda0065308141a96acabb7411cfb5b830d5218e",
      "title": "Mid Year Review : AMSC / CMSC 663 and 664 The Alternating Direction Method of Multipliers An Adaptive Step-size Software Library",
      "venue": "",
      "year": 2015,
      "referenceCount": 16,
      "citationCount": 0,
      "authors": [
        {
          "authorId": "2073597",
          "name": "Peter Sutor"
        }
      ]
    },
    {
      "paperId": "eef531e4ef1ff99873e0198ee53560c09eda8d6a",
      "externalIds": {
        "MAG": "2000051597",
        "DBLP": "journals/jgo/PengCZ15",
        "DOI": "10.1007/s10898-015-0287-2",
        "CorpusId": 46630973
      },
      "url": "https://www.semanticscholar.org/paper/eef531e4ef1ff99873e0198ee53560c09eda8d6a",
      "title": "A proximal alternating direction method of multipliers for a minimization problem with nonconvex constraints",
      "venue": "Journal of Global Optimization",
      "year": 2015,
      "referenceCount": 30,
      "citationCount": 13,
      "authors": [
        {
          "authorId": "143990643",
          "name": "Zheng Peng"
        },
        {
          "authorId": "1946487",
          "name": "Jianli Chen"
        },
        {
          "authorId": "1802323",
          "name": "Wen-xing Zhu"
        }
      ]
    },
    {
      "paperId": "a72e8c2c9ef35d002c0d4c1af78f6cf4ca976f99",
      "externalIds": {
        "MAG": "2146504523",
        "DBLP": "journals/jei/YinWXK15",
        "DOI": "10.1117/1.JEI.24.4.043020",
        "CorpusId": 206443428
      },
      "url": "https://www.semanticscholar.org/paper/a72e8c2c9ef35d002c0d4c1af78f6cf4ca976f99",
      "title": "Image deblurring with mixed regularization via the alternating direction method of multipliers",
      "venue": "J. Electronic Imaging",
      "year": 2015,
      "referenceCount": 38,
      "citationCount": 0,
      "authors": [
        {
          "authorId": "145204894",
          "name": "Dongyu Yin"
        },
        {
          "authorId": "102956596",
          "name": "G. Wang"
        },
        {
          "authorId": "143876183",
          "name": "Bin Xu"
        },
        {
          "authorId": "25521493",
          "name": "D. Kuang"
        }
      ]
    },
    {
      "paperId": "9a33984683d2f33c6832e2b101130928d115e01a",
      "externalIds": {
        "DBLP": "journals/siamis/YangPC17",
        "MAG": "2964011556",
        "ArXiv": "1506.07029",
        "DOI": "10.1137/15M1027528",
        "CorpusId": 207071124
      },
      "url": "https://www.semanticscholar.org/paper/9a33984683d2f33c6832e2b101130928d115e01a",
      "title": "Alternating Direction Method of Multipliers for a Class of Nonconvex and Nonsmooth Problems with Applications to Background/Foreground Extraction",
      "venue": "SIAM Journal of Imaging Sciences",
      "year": 2015,
      "referenceCount": 55,
      "citationCount": 133,
      "authors": [
        {
          "authorId": "49576488",
          "name": "Lei Yang"
        },
        {
          "authorId": "2051301",
          "name": "Ting Kei Pong"
        },
        {
          "authorId": "103101452",
          "name": "Xiaojun Chen"
        }
      ]
    },
    {
      "paperId": "0f88b38afc66244ffaccdd9c0ff83349c09504f7",
      "externalIds": {
        "MAG": "2951464390",
        "ArXiv": "1512.08122",
        "DBLP": "journals/tac/AybatWLM18",
        "DOI": "10.1109/TAC.2017.2713046",
        "CorpusId": 6026485
      },
      "url": "https://www.semanticscholar.org/paper/0f88b38afc66244ffaccdd9c0ff83349c09504f7",
      "title": "Distributed Linearized Alternating Direction Method of Multipliers for Composite Convex Consensus Optimization",
      "venue": "IEEE Transactions on Automatic Control",
      "year": 2015,
      "referenceCount": 39,
      "citationCount": 148,
      "authors": [
        {
          "authorId": "2960355",
          "name": "N. Aybat"
        },
        {
          "authorId": "2274070810",
          "name": "Zi Wang"
        },
        {
          "authorId": "152243923",
          "name": "Tianyi Lin"
        },
        {
          "authorId": "51152107",
          "name": "Shiqian Ma"
        }
      ]
    },
    {
      "paperId": "b57289909878b66ac7acbfc317f23688b3216b16",
      "externalIds": {
        "MAG": "1586424387",
        "CorpusId": 118797733
      },
      "url": "https://www.semanticscholar.org/paper/b57289909878b66ac7acbfc317f23688b3216b16",
      "title": "Alternating Direction Method of Multipliers for Nonconvex Background/Foreground Extraction",
      "venue": "",
      "year": 2015,
      "referenceCount": 0,
      "citationCount": 25,
      "authors": [
        {
          "authorId": "49576488",
          "name": "Lei Yang"
        },
        {
          "authorId": "2051301",
          "name": "Ting Kei Pong"
        },
        {
          "authorId": "103101452",
          "name": "Xiaojun Chen"
        }
      ]
    },
    {
      "paperId": "b9473d0b0be6762feeb91290ba54d42a8a47814a",
      "externalIds": {
        "MAG": "2290319139",
        "DBLP": "conf/apsipa/ZhangHXCLD15",
        "DOI": "10.1109/APSIPA.2015.7415508",
        "CorpusId": 3117227
      },
      "url": "https://www.semanticscholar.org/paper/b9473d0b0be6762feeb91290ba54d42a8a47814a",
      "title": "Non-negative matrix factorization using stable alternating direction method of multipliers for source separation",
      "venue": "Asia-Pacific Signal and Information Processing Association Annual Summit and Conference",
      "year": 2015,
      "referenceCount": 18,
      "citationCount": 7,
      "authors": [
        {
          "authorId": "50202643",
          "name": "Shaofei Zhang"
        },
        {
          "authorId": "1703746",
          "name": "Dong-Yan Huang"
        },
        {
          "authorId": "144206962",
          "name": "Lei Xie"
        },
        {
          "authorId": "1742722",
          "name": "Chng Eng Siong"
        },
        {
          "authorId": "1711271",
          "name": "Haizhou Li"
        },
        {
          "authorId": "6510689",
          "name": "M. Dong"
        }
      ]
    }
  ]
}