{
  "total": 4453,
  "offset": 0,
  "next": 10,
  "data": [
    {
      "paperId": "4f9f8fbd9897436d5bef7e0fabb074d36f66353e",
      "externalIds": {
        "MAG": "2741637763",
        "DBLP": "conf/icml/Ruggieri17",
        "CorpusId": 30804971
      },
      "url": "https://www.semanticscholar.org/paper/4f9f8fbd9897436d5bef7e0fabb074d36f66353e",
      "title": "Enumerating Distinct Decision Trees",
      "venue": "International Conference on Machine Learning",
      "year": 2017,
      "referenceCount": 28,
      "citationCount": 15,
      "authors": [
        {
          "authorId": "2325428",
          "name": "S. Ruggieri"
        }
      ]
    },
    {
      "paperId": "144cc108f0072f78c67fa97a17972d3ac5da894d",
      "externalIds": {
        "DBLP": "journals/corr/abs-2511-03344",
        "ArXiv": "2511.03344",
        "DOI": "10.48550/arXiv.2511.03344",
        "CorpusId": 282758598
      },
      "url": "https://www.semanticscholar.org/paper/144cc108f0072f78c67fa97a17972d3ac5da894d",
      "title": "SORTeD Rashomon Sets of Sparse Decision Trees: Anytime Enumeration",
      "venue": "arXiv.org",
      "year": 2025,
      "referenceCount": 60,
      "citationCount": 2,
      "authors": [
        {
          "authorId": "2037724756",
          "name": "E. Arslan"
        },
        {
          "authorId": "92020975",
          "name": "J. G. M. van der Linden"
        },
        {
          "authorId": "2214896247",
          "name": "Serge Hoogendoorn"
        },
        {
          "authorId": "2274648083",
          "name": "Marco Rinaldi"
        },
        {
          "authorId": "2064289677",
          "name": "Emir Demirovi'c"
        }
      ]
    },
    {
      "paperId": "a59a24f27f96c9911356920ec9646e8d6f0efa73",
      "externalIds": {
        "DOI": "10.54254/2755-2721/79/20241551",
        "CorpusId": 271478139
      },
      "url": "https://www.semanticscholar.org/paper/a59a24f27f96c9911356920ec9646e8d6f0efa73",
      "title": "Predictive Models: Regression, Decision Trees, and Clustering",
      "venue": "Applied and Computational Engineering",
      "year": 2024,
      "referenceCount": 0,
      "citationCount": 10,
      "authors": [
        {
          "authorId": "2344092268",
          "name": "Xiang Huang"
        }
      ]
    },
    {
      "paperId": "a9b783e39fde23e50e990e19578044ddaaa0c6dc",
      "externalIds": {
        "DBLP": "conf/kr/IngJSD24",
        "DOI": "10.24963/kr.2024/81",
        "CorpusId": 273645471
      },
      "url": "https://www.semanticscholar.org/paper/a9b783e39fde23e50e990e19578044ddaaa0c6dc",
      "title": "LAD-based Feature Selection for Optimal Decision Trees and Other Classifiers",
      "venue": "International Conference on Principles of Knowledge Representation and Reasoning",
      "year": 2024,
      "referenceCount": 46,
      "citationCount": 1,
      "authors": [
        {
          "authorId": "2265679127",
          "name": "David Ing"
        },
        {
          "authorId": "1747006",
          "name": "Saïd Jabbour"
        },
        {
          "authorId": "1695956",
          "name": "L. Sais"
        },
        {
          "authorId": "2265683387",
          "name": "Fabien Delorme"
        }
      ]
    },
    {
      "paperId": "811325982920a85d29a22e44a51804c861020b32",
      "externalIds": {
        "DOI": "10.1109/ICSEIET58677.2023.10303560",
        "CorpusId": 265053957
      },
      "url": "https://www.semanticscholar.org/paper/811325982920a85d29a22e44a51804c861020b32",
      "title": "Prediction of Health Risk Based on Multi-Level IOT Data Using Decision Trees",
      "venue": "2023 International Conference on Sustainable Emerging Innovations in Engineering and Technology (ICSEIET)",
      "year": 2023,
      "referenceCount": 32,
      "citationCount": 12,
      "authors": [
        {
          "authorId": "2265699505",
          "name": "G.B.Pant"
        },
        {
          "authorId": "2265696855",
          "name": "Dseu Okhla-1 Campus"
        },
        {
          "authorId": "2265726462",
          "name": "Bakkala Santha Kumar"
        },
        {
          "authorId": "2092828520",
          "name": "V. Veeraiah"
        },
        {
          "authorId": "2155828166",
          "name": "Ankur Gupta"
        },
        {
          "authorId": "72101094",
          "name": "Deena Nath"
        },
        {
          "authorId": "2265659613",
          "name": "Rohit Anand"
        }
      ]
    },
    {
      "paperId": "1c4709238de8de4d499b7b0b9d33d58e285aa614",
      "externalIds": {
        "DBLP": "journals/quantum/KumarYLMP25",
        "ArXiv": "2309.09976",
        "DOI": "10.22331/q-2025-01-13-1588",
        "CorpusId": 261898071
      },
      "url": "https://www.semanticscholar.org/paper/1c4709238de8de4d499b7b0b9d33d58e285aa614",
      "title": "Des-q: a quantum algorithm to provably speedup retraining of decision trees",
      "venue": "Quantum",
      "year": 2023,
      "referenceCount": 78,
      "citationCount": 7,
      "authors": [
        {
          "authorId": "2241320323",
          "name": "Niraj Kumar"
        },
        {
          "authorId": "2126058928",
          "name": "Romina Yalovetzky"
        },
        {
          "authorId": "2145410043",
          "name": "Changhao Li"
        },
        {
          "authorId": "1943495711",
          "name": "Pierre Minssen"
        },
        {
          "authorId": "134455051",
          "name": "Marco Pistoia"
        }
      ]
    },
    {
      "paperId": "57c905d3342d55f2e2e441adf55b247913727ab7",
      "externalIds": {
        "DBLP": "journals/cj/ErdemSC24",
        "DOI": "10.1093/comjnl/bxad022",
        "CorpusId": 257553240
      },
      "url": "https://www.semanticscholar.org/paper/57c905d3342d55f2e2e441adf55b247913727ab7",
      "title": "Pipelined Decision Trees for Online Traffic Classification on FPGAs",
      "venue": "Computer/law journal",
      "year": 2023,
      "referenceCount": 53,
      "citationCount": 3,
      "authors": [
        {
          "authorId": "1981482",
          "name": "Oğuzhan Erdem"
        },
        {
          "authorId": "39253153",
          "name": "Tuncay Soylu"
        },
        {
          "authorId": "2987518",
          "name": "A. Carus"
        }
      ]
    },
    {
      "paperId": "cbcc0a5c647c671354688a503e4bce58fbda6d7a",
      "externalIds": {
        "DBLP": "conf/nips/XinZ0TSR22",
        "ArXiv": "2209.08040",
        "DOI": "10.48550/arXiv.2209.08040",
        "CorpusId": 252355323,
        "PubMed": "37786624"
      },
      "url": "https://www.semanticscholar.org/paper/cbcc0a5c647c671354688a503e4bce58fbda6d7a",
      "title": "Exploring the Whole Rashomon Set of Sparse Decision Trees",
      "venue": "Neural Information Processing Systems",
      "year": 2022,
      "referenceCount": 56,
      "citationCount": 89,
      "authors": [
        {
          "authorId": "2115140387",
          "name": "Rui Xin"
        },
        {
          "authorId": "1750932565",
          "name": "Chudi Zhong"
        },
        {
          "authorId": "2143786389",
          "name": "Zhi Chen"
        },
        {
          "authorId": "2134977",
          "name": "Takuya Takagi"
        },
        {
          "authorId": "1745942",
          "name": "M. Seltzer"
        },
        {
          "authorId": "48395540",
          "name": "C. Rudin"
        }
      ]
    },
    {
      "paperId": "13945b27e456ce25c905d0c8655ee0c47870ca4c",
      "externalIds": {
        "DBLP": "journals/staeors/ZhangLLJCYS23",
        "DOI": "10.1109/JSTARS.2023.3301791",
        "CorpusId": 260677533
      },
      "url": "https://www.semanticscholar.org/paper/13945b27e456ce25c905d0c8655ee0c47870ca4c",
      "title": "Downscaling Sentinel-3 Chlorophyll-a Concentration for Inland Lakes Based on Multivariate Analysis and Gradient Boosting Decision Trees Regression",
      "venue": "IEEE Journal of Selected Topics in Applied Earth Observations and Remote Sensing",
      "year": 2023,
      "referenceCount": 73,
      "citationCount": 6,
      "authors": [
        {
          "authorId": "2228161421",
          "name": "Simin Zhang"
        },
        {
          "authorId": "31101786",
          "name": "Nanfeng Liu"
        },
        {
          "authorId": "153715471",
          "name": "M. Luo"
        },
        {
          "authorId": "143872550",
          "name": "Tao Jiang"
        },
        {
          "authorId": "48099443",
          "name": "T. Chan"
        },
        {
          "authorId": "2228147521",
          "name": "Cynthia Sin Ting Yau"
        },
        {
          "authorId": "34196649",
          "name": "Yeran Sun"
        }
      ]
    },
    {
      "paperId": "217a0658da4518f89d8c404983f0ccfdf733773e",
      "externalIds": {
        "DBLP": "journals/jcc/MungubaSSUS25",
        "DOI": "10.1002/jcc.70025",
        "CorpusId": 275919840,
        "PubMed": "39868772"
      },
      "url": "https://www.semanticscholar.org/paper/217a0658da4518f89d8c404983f0ccfdf733773e",
      "title": "Decision Trees for the Recognition of Metal‐Centered Chirality in Coordination Complexes",
      "venue": "Journal of Computational Chemistry",
      "year": 2025,
      "referenceCount": 102,
      "citationCount": 2,
      "authors": [
        {
          "authorId": "2138252898",
          "name": "Gabriel H. L. Munguba"
        },
        {
          "authorId": "32751884",
          "name": "M. F. D. Silva"
        },
        {
          "authorId": "2342451247",
          "name": "Frederico T. Silva"
        },
        {
          "authorId": "1399007568",
          "name": "G. A. Urquiza-Carvalho"
        },
        {
          "authorId": "2455608",
          "name": "A. Simas"
        }
      ]
    }
  ]
}