{
  "total": 15,
  "offset": 0,
  "next": 10,
  "data": [
    {
      "paperId": "7e17a3c231dc37d162b9ad74043afc1cee4ee2dd",
      "externalIds": {
        "MAG": "2950177356",
        "ArXiv": "1502.05336",
        "DBLP": "conf/icml/Hernandez-Lobato15b",
        "CorpusId": 8645175
      },
      "url": "https://www.semanticscholar.org/paper/7e17a3c231dc37d162b9ad74043afc1cee4ee2dd",
      "title": "Probabilistic Backpropagation for Scalable Learning of Bayesian Neural Networks",
      "venue": "International Conference on Machine Learning",
      "year": 2015,
      "referenceCount": 30,
      "citationCount": 1005,
      "authors": [
        {
          "authorId": "1388574431",
          "name": "José Miguel Hernández-Lobato"
        },
        {
          "authorId": "1722180",
          "name": "Ryan P. Adams"
        }
      ]
    },
    {
      "paperId": "0ef93a4f1324b47eef4ad75a158b74aed9b0fdb3",
      "externalIds": {
        "CorpusId": 260473123
      },
      "url": "https://www.semanticscholar.org/paper/0ef93a4f1324b47eef4ad75a158b74aed9b0fdb3",
      "title": "Probabilistic Backpropagation for Scalable Learning of Bayesian Neural Networks Supplementary Material",
      "venue": "",
      "year": 2015,
      "referenceCount": 0,
      "citationCount": 0,
      "authors": [
        {
          "authorId": "2139988201",
          "name": "José Miguel Hernández-Lobato"
        },
        {
          "authorId": "1722180",
          "name": "Ryan P. Adams"
        }
      ]
    },
    {
      "paperId": "42e57b767691d08318c92ddc8777aaab2bbb25e8",
      "externalIds": {
        "MAG": "2437421599",
        "DBLP": "conf/aaai/GhoshFY16",
        "DOI": "10.1609/aaai.v30i1.10296",
        "CorpusId": 16630331
      },
      "url": "https://www.semanticscholar.org/paper/42e57b767691d08318c92ddc8777aaab2bbb25e8",
      "title": "Assumed Density Filtering Methods for Learning Bayesian Neural Networks",
      "venue": "AAAI Conference on Artificial Intelligence",
      "year": 2016,
      "referenceCount": 35,
      "citationCount": 54,
      "authors": [
        {
          "authorId": "143864453",
          "name": "S. Ghosh"
        },
        {
          "authorId": "1780619",
          "name": "F. D. Fave"
        },
        {
          "authorId": "3198578",
          "name": "J. Yedidia"
        }
      ]
    },
    {
      "paperId": "964e47a392670187565e46862c5ba51f2ae0d3c8",
      "externalIds": {
        "ArXiv": "1511.03405",
        "MAG": "2247622001",
        "DOI": "10.17863/CAM.21292",
        "CorpusId": 56377953
      },
      "url": "https://www.semanticscholar.org/paper/964e47a392670187565e46862c5ba51f2ae0d3c8",
      "title": "Training Deep Gaussian Processes using Stochastic Expectation Propagation and Probabilistic Backpropagation",
      "venue": "",
      "year": 2015,
      "referenceCount": 17,
      "citationCount": 8,
      "authors": [
        {
          "authorId": "23519191",
          "name": "T. Bui"
        },
        {
          "authorId": "1388574431",
          "name": "José Miguel Hernández-Lobato"
        },
        {
          "authorId": "2672661",
          "name": "Yingzhen Li"
        },
        {
          "authorId": "2064184537",
          "name": "Daniel Hern'andez-Lobato"
        },
        {
          "authorId": "145369890",
          "name": "Richard E. Turner"
        }
      ]
    },
    {
      "paperId": "c7eadd7c1e37f03769ac3f3cb1405f63ea101c4d",
      "externalIds": {
        "ArXiv": "1310.1867",
        "MAG": "1634767490",
        "CorpusId": 58713977
      },
      "url": "https://www.semanticscholar.org/paper/c7eadd7c1e37f03769ac3f3cb1405f63ea101c4d",
      "title": "Mean Field Bayes Backpropagation: scalable training of multilayer neural networks with binary weights",
      "venue": "",
      "year": 2013,
      "referenceCount": 27,
      "citationCount": 4,
      "authors": [
        {
          "authorId": "1912398",
          "name": "Daniel Soudry"
        },
        {
          "authorId": "1766683",
          "name": "R. Meir"
        }
      ]
    },
    {
      "paperId": "44339e01cafa6f8d05c7a6516bfe38eba2a83f05",
      "externalIds": {
        "CorpusId": 7812164
      },
      "url": "https://www.semanticscholar.org/paper/44339e01cafa6f8d05c7a6516bfe38eba2a83f05",
      "title": "3 Deep Neural Networks with Matrix Variate Gaussian Priors",
      "venue": "",
      "year": 2017,
      "referenceCount": 33,
      "citationCount": 0,
      "authors": [
        {
          "authorId": null,
          "name": "Shengyang Sun"
        },
        {
          "authorId": "1752041",
          "name": "Changyou Chen"
        },
        {
          "authorId": "145006560",
          "name": "L. Carin"
        }
      ]
    },
    {
      "paperId": "d22169dcea4089fe2e8d7639d6724dc791afef9f",
      "externalIds": {
        "CorpusId": 143431195
      },
      "url": "https://www.semanticscholar.org/paper/d22169dcea4089fe2e8d7639d6724dc791afef9f",
      "title": "Practical Considerations for Probabilistic Backpropagation",
      "venue": "",
      "year": 2018,
      "referenceCount": 14,
      "citationCount": 5,
      "authors": [
        {
          "authorId": "2835806",
          "name": "Matthew Benatan"
        }
      ]
    },
    {
      "paperId": "aaa788558e20b935cc980f9b8c4cd3c46c81c9fc",
      "externalIds": {
        "ArXiv": "2408.08629",
        "CorpusId": 282210829
      },
      "url": "https://www.semanticscholar.org/paper/aaa788558e20b935cc980f9b8c4cd3c46c81c9fc",
      "title": "Navigating Uncertainties in Machine Learning for Structural Dynamics: A Comprehensive Survey of Probabilistic and Non-Probabilistic Approaches in Forward and Inverse Problems",
      "venue": "",
      "year": 2024,
      "referenceCount": 0,
      "citationCount": 0,
      "authors": [
        {
          "authorId": "2309120697",
          "name": "Wang-Ji Yan"
        },
        {
          "authorId": "2061654352",
          "name": "Lin-Feng Mei"
        },
        {
          "authorId": "2308805628",
          "name": "Jiang Mo"
        },
        {
          "authorId": "30247105",
          "name": "C. Papadimitriou"
        },
        {
          "authorId": "2314647804",
          "name": "Ka-Veng Yuen"
        },
        {
          "authorId": "2386626162",
          "name": "Michael Beer State Key Laboratory of Internet of Things fo City"
        },
        {
          "authorId": "1962717646",
          "name": "Department of Civil"
        },
        {
          "authorId": "103294151",
          "name": "Environmental Engineering"
        },
        {
          "authorId": "2241467797",
          "name": "University of Macau"
        },
        {
          "authorId": "2386625482",
          "name": "Guangdong-Hong Kong-Macau Joint Laboratory for Smart Cities"
        },
        {
          "authorId": "2374051480",
          "name": "China"
        },
        {
          "authorId": "2247008140",
          "name": "D. Engineering"
        },
        {
          "authorId": "2386625473",
          "name": "University of Thessaly"
        },
        {
          "authorId": "107906788",
          "name": "Leibniz-University Hannover"
        },
        {
          "authorId": "2386626557",
          "name": "Institute for Risk"
        },
        {
          "authorId": "2224610568",
          "name": "Reliability"
        },
        {
          "authorId": "95050690",
          "name": "U. Liverpool"
        },
        {
          "authorId": "2386629423",
          "name": "International Joint Research Center for Resilient Infrastructure Reliability"
        },
        {
          "authorId": "2386630490",
          "name": "Stochastic Mechanics"
        },
        {
          "authorId": "2386618068",
          "name": "Tongji University"
        }
      ]
    },
    {
      "paperId": "5902ed10ac553ba1878c61b20ad67cfa4d5e91b5",
      "externalIds": {
        "MAG": "3193984326",
        "DOI": "10.25394/PGS.15153588.V1",
        "CorpusId": 238682698
      },
      "url": "https://www.semanticscholar.org/paper/5902ed10ac553ba1878c61b20ad67cfa4d5e91b5",
      "title": "Data-driven Uncertainty Analysis in Neural Networks with Applications to Manufacturing Process Monitoring",
      "venue": "",
      "year": 2021,
      "referenceCount": 0,
      "citationCount": 1,
      "authors": [
        {
          "authorId": "2119454500",
          "name": "Bin Zhang"
        }
      ]
    },
    {
      "paperId": "9f3dab72a882a0a231befc331fc71bedf6bef09a",
      "externalIds": {
        "MAG": "2953263857",
        "DBLP": "conf/icml/BuiHHLT16",
        "ArXiv": "1602.04133",
        "DOI": "10.17863/CAM.21348",
        "CorpusId": 9533990
      },
      "url": "https://www.semanticscholar.org/paper/9f3dab72a882a0a231befc331fc71bedf6bef09a",
      "title": "Deep Gaussian Processes for Regression using Approximate Expectation Propagation",
      "venue": "International Conference on Machine Learning",
      "year": 2016,
      "referenceCount": 35,
      "citationCount": 244,
      "authors": [
        {
          "authorId": "23519191",
          "name": "T. Bui"
        },
        {
          "authorId": "1388574404",
          "name": "D. Hernández-Lobato"
        },
        {
          "authorId": "1388574431",
          "name": "José Miguel Hernández-Lobato"
        },
        {
          "authorId": "2672661",
          "name": "Yingzhen Li"
        },
        {
          "authorId": "145369890",
          "name": "Richard E. Turner"
        }
      ]
    }
  ]
}