{
  "total": 80,
  "offset": 0,
  "next": 10,
  "data": [
    {
      "paperId": "26b1bdee2fc1270964a1c83bfc484872f6d9a1dc",
      "externalIds": {
        "MAG": "2951126594",
        "ArXiv": "1605.07018",
        "DBLP": "journals/corr/CohenHK16",
        "CorpusId": 217446694
      },
      "url": "https://www.semanticscholar.org/paper/26b1bdee2fc1270964a1c83bfc484872f6d9a1dc",
      "title": "Online Learning with Feedback Graphs Without the Graphs",
      "venue": "International Conference on Machine Learning",
      "year": 2016,
      "referenceCount": 19,
      "citationCount": 62,
      "authors": [
        {
          "authorId": "145741057",
          "name": "Alon Cohen"
        },
        {
          "authorId": "1918412",
          "name": "Tamir Hazan"
        },
        {
          "authorId": "1711492",
          "name": "Tomer Koren"
        }
      ]
    },
    {
      "paperId": "15c74a36e1a36532cbd81bb31986227f2a3f82be",
      "externalIds": {
        "MAG": "2897071425",
        "DBLP": "conf/aistats/RangiF19",
        "ArXiv": "1810.09666",
        "CorpusId": 53039290
      },
      "url": "https://www.semanticscholar.org/paper/15c74a36e1a36532cbd81bb31986227f2a3f82be",
      "title": "Online learning with feedback graphs and switching costs",
      "venue": "International Conference on Artificial Intelligence and Statistics",
      "year": 2018,
      "referenceCount": 34,
      "citationCount": 18,
      "authors": [
        {
          "authorId": "51110343",
          "name": "A. Rangi"
        },
        {
          "authorId": "8904504",
          "name": "M. Franceschetti"
        }
      ]
    },
    {
      "paperId": "4b9b2224ed0d519a4332ab4821e621226b177997",
      "externalIds": {
        "CorpusId": 260493502
      },
      "url": "https://www.semanticscholar.org/paper/4b9b2224ed0d519a4332ab4821e621226b177997",
      "title": "Online learning with feedback graphs and switching costs",
      "venue": "",
      "year": 2019,
      "referenceCount": 3,
      "citationCount": 2,
      "authors": []
    },
    {
      "paperId": "050689c16d9a02b75ae29197faba1822371898fc",
      "externalIds": {
        "DBLP": "conf/nips/EspositoFHC22",
        "ArXiv": "2210.04229",
        "DOI": "10.48550/arXiv.2210.04229",
        "CorpusId": 252781331
      },
      "url": "https://www.semanticscholar.org/paper/050689c16d9a02b75ae29197faba1822371898fc",
      "title": "Learning on the Edge: Online Learning with Stochastic Feedback Graphs",
      "venue": "Neural Information Processing Systems",
      "year": 2022,
      "referenceCount": 45,
      "citationCount": 14,
      "authors": [
        {
          "authorId": "1388525942",
          "name": "E. Esposito"
        },
        {
          "authorId": "1616150925",
          "name": "Federico Fusco"
        },
        {
          "authorId": "35751056",
          "name": "Dirk van der Hoeven"
        },
        {
          "authorId": "2286276505",
          "name": "Nicolò Cesa-Bianchi"
        }
      ]
    },
    {
      "paperId": "6419fe8956cac82412c23aed00b096417117eb99",
      "externalIds": {
        "DOI": "10.1186/s41239-023-00415-4",
        "CorpusId": 260615926
      },
      "url": "https://www.semanticscholar.org/paper/6419fe8956cac82412c23aed00b096417117eb99",
      "title": "Promoting knowledge elaboration, socially shared regulation, and group performance in collaborative learning: an automated assessment and feedback approach based on knowledge graphs",
      "venue": "International Journal of Educational Technology in Higher Education",
      "year": 2023,
      "referenceCount": 70,
      "citationCount": 37,
      "authors": [
        {
          "authorId": "40357420",
          "name": "Lanqin Zheng"
        },
        {
          "authorId": "2147228942",
          "name": "Miaolang Long"
        },
        {
          "authorId": "40641474",
          "name": "Bodong Chen"
        },
        {
          "authorId": "2187666007",
          "name": "Yunchao Fan"
        }
      ]
    },
    {
      "paperId": "95f623cd01aaa579319ea22bffa373eff756ba6a",
      "externalIds": {
        "MAG": "2964091766",
        "DBLP": "journals/corr/abs-1711-03639",
        "ArXiv": "1711.03639",
        "DOI": "10.1287/moor.2021.1204",
        "CorpusId": 3344722
      },
      "url": "https://www.semanticscholar.org/paper/95f623cd01aaa579319ea22bffa373eff756ba6a",
      "title": "Small-loss bounds for online learning with partial information",
      "venue": "Annual Conference Computational Learning Theory",
      "year": 2017,
      "referenceCount": 55,
      "citationCount": 42,
      "authors": [
        {
          "authorId": "2558458",
          "name": "Thodoris Lykouris"
        },
        {
          "authorId": "37564609",
          "name": "Karthik Sridharan"
        },
        {
          "authorId": "1746222",
          "name": "É. Tardos"
        }
      ]
    },
    {
      "paperId": "9edc0f660011a09cabd0f83a19e2ef77d691bef7",
      "externalIds": {
        "DBLP": "journals/eait/ZhengKFL23",
        "DOI": "10.1007/s10639-023-11886-3",
        "CorpusId": 258825396
      },
      "url": "https://www.semanticscholar.org/paper/9edc0f660011a09cabd0f83a19e2ef77d691bef7",
      "title": "The impacts of the comprehensive learning analytics approach on learning performance in online collaborative learning",
      "venue": "Education and Information Technologies : Official Journal of the IFIP technical committee on Education",
      "year": 2023,
      "referenceCount": 64,
      "citationCount": 16,
      "authors": [
        {
          "authorId": "40357420",
          "name": "Lanqin Zheng"
        },
        {
          "authorId": "7910112",
          "name": "Kinshuk"
        },
        {
          "authorId": "2187666007",
          "name": "Yunchao Fan"
        },
        {
          "authorId": "2147228942",
          "name": "Miaolang Long"
        }
      ]
    },
    {
      "paperId": "106e6c099f23ecfced15b6265949f2b2f250dbd3",
      "externalIds": {
        "MAG": "2167380010",
        "DBLP": "conf/cvpr/KvetonPVH10",
        "DOI": "10.1109/CVPRW.2010.5543877",
        "CorpusId": 263888942
      },
      "url": "https://www.semanticscholar.org/paper/106e6c099f23ecfced15b6265949f2b2f250dbd3",
      "title": "Online semi-supervised perception: Real-time learning without explicit feedback",
      "venue": "2010 IEEE Computer Society Conference on Computer Vision and Pattern Recognition - Workshops",
      "year": 2010,
      "referenceCount": 14,
      "citationCount": 3,
      "authors": [
        {
          "authorId": "1681967",
          "name": "B. Kveton"
        },
        {
          "authorId": "3041721",
          "name": "Matthai Philipose"
        },
        {
          "authorId": "1806291",
          "name": "Michal Valko"
        },
        {
          "authorId": "2242222923",
          "name": "Ling Huang"
        }
      ]
    },
    {
      "paperId": "2c1aefb2389087cf28153c11679bdab9ccc84cb8",
      "externalIds": {
        "DBLP": "conf/cogmi/TingTWC020",
        "DOI": "10.1109/CogMI50398.2020.00015",
        "CorpusId": 231683891
      },
      "url": "https://www.semanticscholar.org/paper/2c1aefb2389087cf28153c11679bdab9ccc84cb8",
      "title": "Learning Latent Perception Graphs for Personalized Unknowns Recommendation",
      "venue": "International Conference on Cognitive Machine Intelligence",
      "year": 2020,
      "referenceCount": 18,
      "citationCount": 2,
      "authors": [
        {
          "authorId": "50410837",
          "name": "Lo Pang-Yun Ting"
        },
        {
          "authorId": "2498444",
          "name": "Shan-Yun Teng"
        },
        {
          "authorId": "2116430057",
          "name": "Suhang Wang"
        },
        {
          "authorId": "2780321",
          "name": "Kun-Ta Chuang"
        },
        {
          "authorId": "38746648",
          "name": "Huan Liu"
        }
      ]
    },
    {
      "paperId": "727c22b3f6a7f8c5433a548a50ec5f2b690ee495",
      "externalIds": {
        "ArXiv": "1711.01333",
        "MAG": "2767705649",
        "DBLP": "journals/corr/abs-1711-01333",
        "DOI": "10.1145/3219166.3219208",
        "CorpusId": 20746015
      },
      "url": "https://www.semanticscholar.org/paper/727c22b3f6a7f8c5433a548a50ec5f2b690ee495",
      "title": "Learning to Bid Without Knowing your Value",
      "venue": "ACM Conference on Economics and Computation",
      "year": 2017,
      "referenceCount": 40,
      "citationCount": 63,
      "authors": [
        {
          "authorId": "2113906856",
          "name": "Zhe Feng"
        },
        {
          "authorId": "27983734",
          "name": "Chara Podimata"
        },
        {
          "authorId": "3043674",
          "name": "Vasilis Syrgkanis"
        }
      ]
    }
  ]
}