{
  "total": 61,
  "offset": 0,
  "next": 10,
  "data": [
    {
      "paperId": "f13a4996036016beadddd2683b817a8a4c53a9a2",
      "externalIds": {
        "MAG": "1788877992",
        "DBLP": "conf/icml/PerolatSPP15",
        "CorpusId": 6326099
      },
      "url": "https://www.semanticscholar.org/paper/f13a4996036016beadddd2683b817a8a4c53a9a2",
      "title": "Approximate Dynamic Programming for Two-Player Zero-Sum Markov Games",
      "venue": "International Conference on Machine Learning",
      "year": 2015,
      "referenceCount": 28,
      "citationCount": 128,
      "authors": [
        {
          "authorId": "3422031",
          "name": "J. Pérolat"
        },
        {
          "authorId": "1689774",
          "name": "B. Scherrer"
        },
        {
          "authorId": "1808897",
          "name": "Bilal Piot"
        },
        {
          "authorId": "1721354",
          "name": "O. Pietquin"
        }
      ]
    },
    {
      "paperId": "8e2f4d7bcb151540d0c78525f3618747ae1ebeb7",
      "externalIds": {
        "DBLP": "journals/tnn/ZhuZ22",
        "MAG": "3110979110",
        "DOI": "10.1109/TNNLS.2020.3041469",
        "CorpusId": 228170564,
        "PubMed": "33306474"
      },
      "url": "https://www.semanticscholar.org/paper/8e2f4d7bcb151540d0c78525f3618747ae1ebeb7",
      "title": "Online Minimax Q Network Learning for Two-Player Zero-Sum Markov Games",
      "venue": "IEEE Transactions on Neural Networks and Learning Systems",
      "year": 2020,
      "referenceCount": 0,
      "citationCount": 91,
      "authors": [
        {
          "authorId": "3124762",
          "name": "Yuanheng Zhu"
        },
        {
          "authorId": "1699234",
          "name": "Dongbin Zhao"
        }
      ]
    },
    {
      "paperId": "9c37daba4efc4976eec8ee0290d6547164324e2e",
      "externalIds": {
        "MAG": "2857349820",
        "DBLP": "phd/hal/Perolat17",
        "CorpusId": 125890282
      },
      "url": "https://www.semanticscholar.org/paper/9c37daba4efc4976eec8ee0290d6547164324e2e",
      "title": "Reinforcement Learning: The Multi-Player Case. (Apprentissage par Renforcement: Le Cas Multijoueur)",
      "venue": "",
      "year": 2017,
      "referenceCount": 90,
      "citationCount": 0,
      "authors": [
        {
          "authorId": "3422031",
          "name": "J. Pérolat"
        }
      ]
    },
    {
      "paperId": "4e258d495324a8643a98d13965d8b1f659fc7398",
      "externalIds": {
        "MAG": "2051370683",
        "DOI": "10.1007/s12555-014-0085-5",
        "CorpusId": 121842977
      },
      "url": "https://www.semanticscholar.org/paper/4e258d495324a8643a98d13965d8b1f659fc7398",
      "title": "Approximate dynamic programming for two-player zero-sum game related to H∞ control of unknown nonlinear continuous-time systems",
      "venue": "International Journal of Control, Automation and Systems",
      "year": 2014,
      "referenceCount": 36,
      "citationCount": 35,
      "authors": [
        {
          "authorId": "7824922",
          "name": "Sholeh Yasini"
        },
        {
          "authorId": "30535281",
          "name": "M. Sistani"
        },
        {
          "authorId": "145726016",
          "name": "A. Karimpour"
        }
      ]
    },
    {
      "paperId": "ef63dc62129dc6a1c5d7a86e408b99daad9271a0",
      "externalIds": {
        "CorpusId": 195799638
      },
      "url": "https://www.semanticscholar.org/paper/ef63dc62129dc6a1c5d7a86e408b99daad9271a0",
      "title": "Adaptive Dynamic Programming for Two-Player Zero-Sum Differential Games with Completely Unknown Systems",
      "venue": "",
      "year": 2013,
      "referenceCount": 30,
      "citationCount": 0,
      "authors": [
        {
          "authorId": "49404814",
          "name": "Hongliang Li"
        },
        {
          "authorId": "1927205",
          "name": "Derong Liu"
        },
        {
          "authorId": "2303707741",
          "name": "Huaguang Zhang"
        }
      ]
    },
    {
      "paperId": "edcdc46b8c112b4ab42ee5d671039ae197b9994b",
      "externalIds": {
        "DBLP": "journals/jirs/ZhangW25",
        "DOI": "10.1007/s10846-024-02217-w",
        "CorpusId": 275888385
      },
      "url": "https://www.semanticscholar.org/paper/edcdc46b8c112b4ab42ee5d671039ae197b9994b",
      "title": "Zero-sum Differential Games Guidance Law Accounting for Impact-Angle-Constrained Using Adaptive Dynamic Programming",
      "venue": "Journal of Intelligent and Robotic Systems",
      "year": 2025,
      "referenceCount": 60,
      "citationCount": 1,
      "authors": [
        {
          "authorId": "2287426405",
          "name": "X. Zhang"
        },
        {
          "authorId": "2151572931",
          "name": "Qi Wang"
        }
      ]
    },
    {
      "paperId": "ecf2efb98b6d9caa44195c8efdf80b6a71779460",
      "externalIds": {
        "DBLP": "journals/csysl/XieX24",
        "DOI": "10.1109/LCSYS.2024.3474057",
        "CorpusId": 273135561
      },
      "url": "https://www.semanticscholar.org/paper/ecf2efb98b6d9caa44195c8efdf80b6a71779460",
      "title": "The Design of ϵ-Optimal Strategy for Two-Person Zero-Sum Markov Games",
      "venue": "IEEE Control Systems Letters",
      "year": 2024,
      "referenceCount": 14,
      "citationCount": 0,
      "authors": [
        {
          "authorId": "2122029985",
          "name": "Kaiyun Xie"
        },
        {
          "authorId": "2259199961",
          "name": "Junlin Xiong"
        }
      ]
    },
    {
      "paperId": "1cb6bfd82bdd69227c21745ccaaf963f1e560d0a",
      "externalIds": {
        "DBLP": "conf/aaai/BonomiGPR12",
        "DOI": "10.1609/aaai.v26i1.8238",
        "CorpusId": 9448723
      },
      "url": "https://www.semanticscholar.org/paper/1cb6bfd82bdd69227c21745ccaaf963f1e560d0a",
      "title": "Computing Equilibria with Two-Player Zero-Sum Continuous Stochastic Games with Switching Controller",
      "venue": "AAAI Conference on Artificial Intelligence",
      "year": 2021,
      "referenceCount": 0,
      "citationCount": 2,
      "authors": [
        {
          "authorId": "38689360",
          "name": "G. Bonomi"
        },
        {
          "authorId": "145407749",
          "name": "N. Gatti"
        },
        {
          "authorId": "1787492",
          "name": "Fabio Panozzo"
        },
        {
          "authorId": "1792167",
          "name": "Marcello Restelli"
        }
      ]
    },
    {
      "paperId": "854729d02d81d2f8f2e0f0b2b55c5b595ed6a0b2",
      "externalIds": {
        "DOI": "10.1109/DDCLS58216.2023.10166320",
        "CorpusId": 259364425
      },
      "url": "https://www.semanticscholar.org/paper/854729d02d81d2f8f2e0f0b2b55c5b595ed6a0b2",
      "title": "Differential Dynamic Programming for Finite-Horizon Multi-Player Non-Zero-Sum Differential Games of Nonlinear Systems",
      "venue": "2023 IEEE 12th Data Driven Control and Learning Systems Conference (DDCLS)",
      "year": 2023,
      "referenceCount": 28,
      "citationCount": 0,
      "authors": [
        {
          "authorId": "2221267876",
          "name": "Yuqi Zhang"
        },
        {
          "authorId": "2155846100",
          "name": "Bin Zhang"
        }
      ]
    },
    {
      "paperId": "b7fb7c42dcd8181a8faaf24d478555b2a2420dcc",
      "externalIds": {
        "MAG": "2999745644",
        "DBLP": "journals/automatica/Lv20",
        "DOI": "10.1016/j.automatica.2020.108819",
        "CorpusId": 212653826
      },
      "url": "https://www.semanticscholar.org/paper/b7fb7c42dcd8181a8faaf24d478555b2a2420dcc",
      "title": "Two-player zero-sum stochastic differential games with regime switching",
      "venue": "at - Automatisierungstechnik",
      "year": 2020,
      "referenceCount": 32,
      "citationCount": 27,
      "authors": [
        {
          "authorId": "3406824",
          "name": "Siyu Lv"
        }
      ]
    }
  ]
}