{
  "total": 14,
  "offset": 0,
  "next": 10,
  "data": [
    {
      "paperId": "4e023e60d29c782abb8bfcbeb9c1f03d3e0733df",
      "externalIds": {
        "DBLP": "conf/icml/ZhangWJ15",
        "MAG": "1902136311",
        "ArXiv": "1502.01403",
        "CorpusId": 11246489
      },
      "url": "https://www.semanticscholar.org/paper/4e023e60d29c782abb8bfcbeb9c1f03d3e0733df",
      "title": "Distributed Estimation of Generalized Matrix Rank: Efficient Algorithms and Lower Bounds",
      "venue": "International Conference on Machine Learning",
      "year": 2015,
      "referenceCount": 38,
      "citationCount": 23,
      "authors": [
        {
          "authorId": "2108471978",
          "name": "Yuchen Zhang"
        },
        {
          "authorId": "1721860",
          "name": "M. Wainwright"
        },
        {
          "authorId": "1694621",
          "name": "Michael I. Jordan"
        }
      ]
    },
    {
      "paperId": "e5aea3c36d45f423f975e042b2e54a89fa0b2190",
      "externalIds": {
        "MAG": "2557679747",
        "DOI": "10.5075/EPFL-THESIS-7137",
        "CorpusId": 125320038
      },
      "url": "https://www.semanticscholar.org/paper/e5aea3c36d45f423f975e042b2e54a89fa0b2190",
      "title": "Low-rank methods for parameter-dependent eigenvalue problems and matrix equations",
      "venue": "",
      "year": 2016,
      "referenceCount": 101,
      "citationCount": 3,
      "authors": [
        {
          "authorId": "2679779",
          "name": "Petar Sirkovic"
        }
      ]
    },
    {
      "paperId": "00b6c911545487e9cd1b41471737539fc871a45a",
      "externalIds": {
        "MAG": "2903417164",
        "ArXiv": "1706.02380",
        "CorpusId": 88524311
      },
      "url": "https://www.semanticscholar.org/paper/00b6c911545487e9cd1b41471737539fc871a45a",
      "title": "Multi-sample Estimation of Bacterial Composition Matrix in Metagenomics Data",
      "venue": "",
      "year": 2017,
      "referenceCount": 40,
      "citationCount": 11,
      "authors": [
        {
          "authorId": "153842983",
          "name": "Yuanpei Cao"
        },
        {
          "authorId": "40349493",
          "name": "Anru R. Zhang"
        },
        {
          "authorId": "2814908",
          "name": "Hongzhe Li"
        }
      ]
    },
    {
      "paperId": "eb30992a0b40936453c4328c848561235b954712",
      "externalIds": {
        "MAG": "2998646257",
        "DOI": "10.1093/biomet/asz062",
        "CorpusId": 213198390
      },
      "url": "https://www.semanticscholar.org/paper/eb30992a0b40936453c4328c848561235b954712",
      "title": "Multisample estimation of bacterial composition matrices in metagenomics data",
      "venue": "",
      "year": 2020,
      "referenceCount": 43,
      "citationCount": 34,
      "authors": [
        {
          "authorId": "153842983",
          "name": "Yuanpei Cao"
        },
        {
          "authorId": "40349493",
          "name": "Anru R. Zhang"
        },
        {
          "authorId": "2814908",
          "name": "Hongzhe Li"
        }
      ]
    },
    {
      "paperId": "373ce2566938861d064add660a6efbfa655e8ccc",
      "externalIds": {
        "DBLP": "conf/colt/DiakonikolasKLZ23",
        "CorpusId": 260869434
      },
      "url": "https://www.semanticscholar.org/paper/373ce2566938861d064add660a6efbfa655e8ccc",
      "title": "Statistical and Computational Limits for Tensor-on-Tensor Association Detection",
      "venue": "Annual Conference Computational Learning Theory",
      "year": 2023,
      "referenceCount": 58,
      "citationCount": 3,
      "authors": [
        {
          "authorId": "1808354",
          "name": "Ilias Diakonikolas"
        },
        {
          "authorId": "2452522",
          "name": "D. Kane"
        },
        {
          "authorId": "41030688",
          "name": "Yuetian Luo"
        },
        {
          "authorId": "40349493",
          "name": "Anru R. Zhang"
        }
      ]
    },
    {
      "paperId": "5e80e36ce61066c2fcce63d193fe3ae20f74cdb0",
      "externalIds": {
        "CorpusId": 211570083
      },
      "url": "https://www.semanticscholar.org/paper/5e80e36ce61066c2fcce63d193fe3ae20f74cdb0",
      "title": "Robust and efficient identification of neural networks",
      "venue": "",
      "year": 2019,
      "referenceCount": 0,
      "citationCount": 0,
      "authors": [
        {
          "authorId": "2286029725",
          "name": "M. Fornasier"
        }
      ]
    },
    {
      "paperId": "b581fa9fb0a04b1a494ace5db7b2f2c3b73aae65",
      "externalIds": {
        "CorpusId": 267877094
      },
      "url": "https://www.semanticscholar.org/paper/b581fa9fb0a04b1a494ace5db7b2f2c3b73aae65",
      "title": "Robust and efficient identification of neural networks",
      "venue": "",
      "year": 2019,
      "referenceCount": 1,
      "citationCount": 0,
      "authors": [
        {
          "authorId": "2286029725",
          "name": "M. Fornasier"
        },
        {
          "authorId": "1723147",
          "name": "B. Bah"
        },
        {
          "authorId": "2286059769",
          "name": "-. SaraKrause"
        },
        {
          "authorId": "2104733992",
          "name": "Solberg"
        },
        {
          "authorId": "2239035864",
          "name": "L. Jacques"
        },
        {
          "authorId": "2907818",
          "name": "Martin Genzel"
        },
        {
          "authorId": "104488224",
          "name": "Arman Ahmadieh"
        }
      ]
    },
    {
      "paperId": "b369afe7a9b722b5bdbcfa50231376e1bf66eb3a",
      "externalIds": {
        "CorpusId": 16943233
      },
      "url": "https://www.semanticscholar.org/paper/b369afe7a9b722b5bdbcfa50231376e1bf66eb3a",
      "title": "ID 06 REFINEMENT AND COARSENING OF PARAMETERIZATION FOR THE ESTIMATION OF HYDRAULIC TRANSMISSIVITY",
      "venue": "",
      "year": 1999,
      "referenceCount": 11,
      "citationCount": 3,
      "authors": [
        {
          "authorId": "29863061",
          "name": "H. Ameur"
        },
        {
          "authorId": "143786301",
          "name": "J. Jaffré"
        }
      ]
    },
    {
      "paperId": "4c585dc3cfdbee683a8e07f5954ea03ec95f5e8c",
      "externalIds": {
        "MAG": "2064693822",
        "DOI": "10.1007/11687238",
        "CorpusId": 38054851
      },
      "url": "https://www.semanticscholar.org/paper/4c585dc3cfdbee683a8e07f5954ea03ec95f5e8c",
      "title": "Advances in database technology - EDBT 2006 : 10th International Conference on Extending Database Technology, Munich, Germany, March 2006; proceedings",
      "venue": "",
      "year": 2006,
      "referenceCount": 0,
      "citationCount": 198,
      "authors": [
        {
          "authorId": "1684197",
          "name": "Y. Ioannidis"
        },
        {
          "authorId": "1949576",
          "name": "M. Scholl"
        },
        {
          "authorId": "2149996022",
          "name": "Joachim W. Schmidt"
        },
        {
          "authorId": "2522197",
          "name": "F. Matthes"
        },
        {
          "authorId": "1799843",
          "name": "M. Hatzopoulos"
        },
        {
          "authorId": "2057745047",
          "name": "Klemens Boehm"
        },
        {
          "authorId": "144122431",
          "name": "A. Kemper"
        },
        {
          "authorId": "1835827",
          "name": "Torsten Grust"
        },
        {
          "authorId": "145913175",
          "name": "C. Böhm"
        }
      ]
    },
    {
      "paperId": "6f52952f9789dfce4f8fd90cb1124477f5f7fed6",
      "externalIds": {
        "CorpusId": 51801131
      },
      "url": "https://www.semanticscholar.org/paper/6f52952f9789dfce4f8fd90cb1124477f5f7fed6",
      "title": "AFRL-OSR-VA-TR-2014-0335 INFORMATION DYNAMICS AS FOUNDATION FOR NETWORK MANAGEMENT",
      "venue": "",
      "year": 2015,
      "referenceCount": 0,
      "citationCount": 0,
      "authors": [
        {
          "authorId": "116491218",
          "name": "M. Chiang"
        }
      ]
    }
  ]
}