{
  "total": 14,
  "offset": 0,
  "next": 10,
  "data": [
    {
      "paperId": "243c7f09bd5567682f67034c3e7c18597f3ce535",
      "externalIds": {
        "DBLP": "conf/icml/LiuFFM15",
        "MAG": "1821618570",
        "CorpusId": 5386264
      },
      "url": "https://www.semanticscholar.org/paper/243c7f09bd5567682f67034c3e7c18597f3ce535",
      "title": "Scalable Model Selection for Large-Scale Factorial Relational Models",
      "venue": "International Conference on Machine Learning",
      "year": 2015,
      "referenceCount": 43,
      "citationCount": 8,
      "authors": [
        {
          "authorId": "39879047",
          "name": "Chunchen Liu"
        },
        {
          "authorId": "2117842090",
          "name": "Lu Feng"
        },
        {
          "authorId": "1767586",
          "name": "R. Fujimaki"
        },
        {
          "authorId": "3247408",
          "name": "Yusuke Muraoka"
        }
      ]
    },
    {
      "paperId": "82f7a8486045056c4e193cdbdb4a43fab63d0611",
      "externalIds": {
        "MAG": "2201067445",
        "DOI": "10.2991/ESSAEME-15.2015.179",
        "CorpusId": 128355108
      },
      "url": "https://www.semanticscholar.org/paper/82f7a8486045056c4e193cdbdb4a43fab63d0611",
      "title": "Strategic Alliance Cooperative Partner Selection of Large Complex Projects",
      "venue": "",
      "year": 2015,
      "referenceCount": 10,
      "citationCount": 0,
      "authors": [
        {
          "authorId": "2114051754",
          "name": "Luyun Xue"
        },
        {
          "authorId": "145066124",
          "name": "B. Guo"
        }
      ]
    },
    {
      "paperId": "8032b63af7202fc3e374dc5663c683d9645f8c12",
      "externalIds": {
        "MAG": "616667443",
        "DOI": "10.1016/J.APENERGY.2015.04.079",
        "CorpusId": 106900005
      },
      "url": "https://www.semanticscholar.org/paper/8032b63af7202fc3e374dc5663c683d9645f8c12",
      "title": "Optimization of a biomass briquette fuel system based on grey relational analysis and analytic hierarchy process: A study using cornstalks in China",
      "venue": "",
      "year": 2015,
      "referenceCount": 24,
      "citationCount": 68,
      "authors": [
        {
          "authorId": "2000223952",
          "name": "Zhiwei Wang"
        },
        {
          "authorId": "40389964",
          "name": "Tingzhou Lei"
        },
        {
          "authorId": "2072562010",
          "name": "Xiaoying Chang"
        },
        {
          "authorId": "93313229",
          "name": "Xinguang Shi"
        },
        {
          "authorId": "147178892",
          "name": "Ju Xiao"
        },
        {
          "authorId": "121544621",
          "name": "Zaifeng Li"
        },
        {
          "authorId": "121762707",
          "name": "Xiaofeng He"
        },
        {
          "authorId": "2146271610",
          "name": "J. Zhu"
        },
        {
          "authorId": "2131887253",
          "name": "Shuhua Yang"
        }
      ]
    },
    {
      "paperId": "63cf5fc2ee05eb9c6613043f585dba48c5561192",
      "externalIds": {
        "MAG": "1743589655",
        "DBLP": "phd/basesearch/PlasenciaCalana15",
        "DOI": "10.4233/UUID:4A8F0412-FC16-4DC7-8F42-CB223C64DE1B",
        "CorpusId": 11856908
      },
      "url": "https://www.semanticscholar.org/paper/63cf5fc2ee05eb9c6613043f585dba48c5561192",
      "title": "Prototype Selection for Classification in Standard and Generalized Dissimilarity Spaces",
      "venue": "",
      "year": 2015,
      "referenceCount": 123,
      "citationCount": 3,
      "authors": [
        {
          "authorId": "10721015",
          "name": "Y. P. Calaña"
        }
      ]
    },
    {
      "paperId": "7c93eed62c5edd98f1dca8e1a9b9ae643798cd34",
      "externalIds": {
        "MAG": "640975752",
        "CorpusId": 166751895
      },
      "url": "https://www.semanticscholar.org/paper/7c93eed62c5edd98f1dca8e1a9b9ae643798cd34",
      "title": "Do consumers’ relational attributes surface in transaction exchange in financial services?",
      "venue": "",
      "year": 2015,
      "referenceCount": 0,
      "citationCount": 0,
      "authors": [
        {
          "authorId": "36670936",
          "name": "Kent Eriksson"
        },
        {
          "authorId": "2532950",
          "name": "Cecilia Hermansson"
        }
      ]
    },
    {
      "paperId": "b7d3277b38f1457e1ed0967585e6a62ad0b3e35c",
      "externalIds": {
        "MAG": "2476624864",
        "DBLP": "journals/dke/FreitasSCB15",
        "DOI": "10.1016/J.DATAK.2015.06.010",
        "CorpusId": 30689402
      },
      "url": "https://www.semanticscholar.org/paper/b7d3277b38f1457e1ed0967585e6a62ad0b3e35c",
      "title": "Approximate and selective reasoning on knowledge graphs: A distributional semantics approach",
      "venue": "Data & Knowledge Engineering",
      "year": 2015,
      "referenceCount": 13,
      "citationCount": 6,
      "authors": [
        {
          "authorId": "2078690422",
          "name": "A. Freitas"
        },
        {
          "authorId": "2111192806",
          "name": "J. F. C. Silva"
        },
        {
          "authorId": "1724027",
          "name": "E. Curry"
        },
        {
          "authorId": "3338131",
          "name": "P. Buitelaar"
        }
      ]
    },
    {
      "paperId": "78af493a9c7df8a2fa073e9a67909246365add59",
      "externalIds": {
        "DBLP": "journals/eor/ChenFS15",
        "MAG": "1991212961",
        "DOI": "10.1016/J.EJOR.2014.09.008",
        "CorpusId": 17620294
      },
      "url": "https://www.semanticscholar.org/paper/78af493a9c7df8a2fa073e9a67909246365add59",
      "title": "Behavior-aware user response modeling in social media: Learning from diverse heterogeneous data",
      "venue": "European Journal of Operational Research",
      "year": 2015,
      "referenceCount": 59,
      "citationCount": 26,
      "authors": [
        {
          "authorId": "49864750",
          "name": "Zhen-Yu Chen"
        },
        {
          "authorId": "1762419",
          "name": "Z. Fan"
        },
        {
          "authorId": "39382965",
          "name": "Minghe Sun"
        }
      ]
    },
    {
      "paperId": "c7a85f31111c7d8faf0b0b1802bb184dbd11f18d",
      "externalIds": {
        "ArXiv": "1503.06830",
        "MAG": "2271802697",
        "DOI": "10.1093/mnras/stv2042",
        "CorpusId": 14741356
      },
      "url": "https://www.semanticscholar.org/paper/c7a85f31111c7d8faf0b0b1802bb184dbd11f18d",
      "title": "Towards optimal estimation of the galaxy power spectrum",
      "venue": "",
      "year": 2015,
      "referenceCount": 104,
      "citationCount": 14,
      "authors": [
        {
          "authorId": "153691043",
          "name": "R. Smith"
        },
        {
          "authorId": "103204973",
          "name": "L. Marian"
        }
      ]
    },
    {
      "paperId": "10833e56c7728b9c24f6f95e6e755230e56a08ba",
      "externalIds": {
        "MAG": "605604285",
        "CorpusId": 166647928
      },
      "url": "https://www.semanticscholar.org/paper/10833e56c7728b9c24f6f95e6e755230e56a08ba",
      "title": "Using psychological factors to understand the use of financial advisory services",
      "venue": "",
      "year": 2015,
      "referenceCount": 0,
      "citationCount": 1,
      "authors": [
        {
          "authorId": "2532950",
          "name": "Cecilia Hermansson"
        }
      ]
    },
    {
      "paperId": "7a486d1ebdceec65c60fd810e3cdbce500b11054",
      "externalIds": {
        "MAG": "588293130",
        "CorpusId": 166724597
      },
      "url": "https://www.semanticscholar.org/paper/7a486d1ebdceec65c60fd810e3cdbce500b11054",
      "title": "Bank customers’ subjective views on their bank relations and how these relations affect their saving behavior",
      "venue": "",
      "year": 2015,
      "referenceCount": 0,
      "citationCount": 0,
      "authors": [
        {
          "authorId": "36670936",
          "name": "Kent Eriksson"
        },
        {
          "authorId": "2532950",
          "name": "Cecilia Hermansson"
        }
      ]
    }
  ]
}