{
  "total": 31,
  "offset": 0,
  "next": 10,
  "data": [
    {
      "paperId": "48d35e57cfab3a3a73db91eb7859a9871b0046b5",
      "externalIds": {
        "DBLP": "conf/icml/WangWK16",
        "MAG": "2439655505",
        "CorpusId": 7464957
      },
      "url": "https://www.semanticscholar.org/paper/48d35e57cfab3a3a73db91eb7859a9871b0046b5",
      "title": "Epigraph projections for fast general convex programming",
      "venue": "International Conference on Machine Learning",
      "year": 2016,
      "referenceCount": 41,
      "citationCount": 11,
      "authors": [
        {
          "authorId": "145980559",
          "name": "Po-Wei Wang"
        },
        {
          "authorId": "2340978",
          "name": "Matt Wytock"
        },
        {
          "authorId": "145116464",
          "name": "J. Kolter"
        }
      ]
    },
    {
      "paperId": "ebaad1341d78cd03dea9cbff388fc83912e91d1b",
      "externalIds": {
        "CorpusId": 27395339
      },
      "url": "https://www.semanticscholar.org/paper/ebaad1341d78cd03dea9cbff388fc83912e91d1b",
      "title": "Epigraph proximal algorithms for general convex programming",
      "venue": "",
      "year": 2015,
      "referenceCount": 6,
      "citationCount": 0,
      "authors": [
        {
          "authorId": "2340978",
          "name": "Matt Wytock"
        },
        {
          "authorId": "145980559",
          "name": "Po-Wei Wang"
        },
        {
          "authorId": "145116464",
          "name": "J. Kolter"
        }
      ]
    },
    {
      "paperId": "3f1de14c98c290b49b55141ca8389ba6f7b52615",
      "externalIds": {
        "MAG": "1502987098",
        "CorpusId": 118513634
      },
      "url": "https://www.semanticscholar.org/paper/3f1de14c98c290b49b55141ca8389ba6f7b52615",
      "title": "Complexity certifications of first order inexact Lagrangian and penalty methods for conic convex programming",
      "venue": "",
      "year": 2015,
      "referenceCount": 17,
      "citationCount": 16,
      "authors": [
        {
          "authorId": "2039290",
          "name": "I. Necoara"
        },
        {
          "authorId": "3150970",
          "name": "A. Pătraşcu"
        },
        {
          "authorId": "2002957",
          "name": "François Glineur"
        }
      ]
    },
    {
      "paperId": "120ad3e8406b25515701fad536ffffae4ec0773f",
      "externalIds": {
        "ArXiv": "1505.03175",
        "MAG": "2950987981",
        "DBLP": "journals/ol/PatrascuNT17",
        "DOI": "10.1007/s11590-016-1024-6",
        "CorpusId": 9857809
      },
      "url": "https://www.semanticscholar.org/paper/120ad3e8406b25515701fad536ffffae4ec0773f",
      "title": "Adaptive inexact fast augmented Lagrangian methods for constrained convex optimization",
      "venue": "Optimization Letters",
      "year": 2015,
      "referenceCount": 36,
      "citationCount": 33,
      "authors": [
        {
          "authorId": "3150970",
          "name": "A. Pătraşcu"
        },
        {
          "authorId": "2039290",
          "name": "I. Necoara"
        },
        {
          "authorId": "1403374767",
          "name": "Quoc Tran-Dinh"
        }
      ]
    },
    {
      "paperId": "d84e6f85afca6cd6cd613d1027db81e9743d6d8b",
      "externalIds": {
        "MAG": "2791829086",
        "CorpusId": 126022027
      },
      "url": "https://www.semanticscholar.org/paper/d84e6f85afca6cd6cd613d1027db81e9743d6d8b",
      "title": "Sparsity and convex programming in time-frequency processing",
      "venue": "",
      "year": 2014,
      "referenceCount": 110,
      "citationCount": 2,
      "authors": [
        {
          "authorId": "2748391",
          "name": "Zeynel Deprem"
        }
      ]
    },
    {
      "paperId": "937ca3da1e86503627a023d3e2499d11173873e7",
      "externalIds": {
        "DBLP": "journals/corr/abs-2001-10485",
        "CorpusId": 210932520
      },
      "url": "https://www.semanticscholar.org/paper/937ca3da1e86503627a023d3e2499d11173873e7",
      "title": "Fast Graph Metric Learning via Gershgorin Disc Alignment",
      "venue": "arXiv.org",
      "year": 2020,
      "referenceCount": 23,
      "citationCount": 2,
      "authors": [
        {
          "authorId": "2154171951",
          "name": "Cheng Yang"
        },
        {
          "authorId": "1705205",
          "name": "Gene Cheung"
        },
        {
          "authorId": "1486300471",
          "name": "Wei Hu"
        }
      ]
    },
    {
      "paperId": "395f63a86837f5bbe8f87a7301d304a86502d350",
      "externalIds": {
        "MAG": "1519405745",
        "DOI": "10.1002/9780470549124",
        "CorpusId": 117278413
      },
      "url": "https://www.semanticscholar.org/paper/395f63a86837f5bbe8f87a7301d304a86502d350",
      "title": "Engineering Optimization : Theory and Practice",
      "venue": "",
      "year": 2010,
      "referenceCount": 228,
      "citationCount": 3270,
      "authors": [
        {
          "authorId": "145491051",
          "name": "Singiresu S. Rao"
        }
      ]
    },
    {
      "paperId": "842918069c935de39492760cab2ee91d1b9d4410",
      "externalIds": {
        "MAG": "2954911496",
        "DBLP": "conf/icml/GautierBV17",
        "ArXiv": "1705.10498",
        "CorpusId": 1602154
      },
      "url": "https://www.semanticscholar.org/paper/842918069c935de39492760cab2ee91d1b9d4410",
      "title": "Zonotope Hit-and-run for Efficient Sampling from Projection DPPs",
      "venue": "International Conference on Machine Learning",
      "year": 2017,
      "referenceCount": 54,
      "citationCount": 18,
      "authors": [
        {
          "authorId": "8439227",
          "name": "G. Gautier"
        },
        {
          "authorId": "2103302",
          "name": "R. Bardenet"
        },
        {
          "authorId": "1806291",
          "name": "Michal Valko"
        }
      ]
    },
    {
      "paperId": "a00783f2b579df491da445761e6c766c6a63c88e",
      "externalIds": {
        "MAG": "1975852795",
        "DBLP": "journals/mp/An00",
        "DOI": "10.1007/s101070050003",
        "CorpusId": 28520567
      },
      "url": "https://www.semanticscholar.org/paper/a00783f2b579df491da445761e6c766c6a63c88e",
      "title": "An efficient algorithm for globally minimizing a quadratic function under convex quadratic constraints",
      "venue": "Mathematical programming",
      "year": 2000,
      "referenceCount": 0,
      "citationCount": 82,
      "authors": [
        {
          "authorId": "1728708",
          "name": "Hoai An Le Thi"
        }
      ]
    },
    {
      "paperId": "80d7dacececb366dabcbcab592420b6dc93da066",
      "externalIds": {
        "DBLP": "journals/pami/YangCH22",
        "ArXiv": "2006.08816",
        "DOI": "10.1109/TPAMI.2021.3091682",
        "CorpusId": 235417007,
        "PubMed": "34161237"
      },
      "url": "https://www.semanticscholar.org/paper/80d7dacececb366dabcbcab592420b6dc93da066",
      "title": "Signed Graph Metric Learning via Gershgorin Disc Perfect Alignment",
      "venue": "IEEE Transactions on Pattern Analysis and Machine Intelligence",
      "year": 2020,
      "referenceCount": 56,
      "citationCount": 29,
      "authors": [
        {
          "authorId": "121587690",
          "name": "Cheng Yang"
        },
        {
          "authorId": "1705205",
          "name": "Gene Cheung"
        },
        {
          "authorId": "1486300471",
          "name": "Wei Hu"
        }
      ]
    }
  ]
}