{
  "total": 19,
  "offset": 0,
  "next": 10,
  "data": [
    {
      "paperId": "2f5be3fe0cadf971f9509a9630c47a74ad0d7498",
      "externalIds": {
        "MAG": "2739509056",
        "DBLP": "conf/icml/BegonJG17",
        "CorpusId": 40942554
      },
      "url": "https://www.semanticscholar.org/paper/2f5be3fe0cadf971f9509a9630c47a74ad0d7498",
      "title": "Globally Induced Forest: A Prepruning Compression Scheme",
      "venue": "International Conference on Machine Learning",
      "year": 2017,
      "referenceCount": 21,
      "citationCount": 8,
      "authors": [
        {
          "authorId": "3396405",
          "name": "Jean-Michel Begon"
        },
        {
          "authorId": "2058185",
          "name": "Arnaud Joly"
        },
        {
          "authorId": "50206577",
          "name": "P. Geurts"
        }
      ]
    },
    {
      "paperId": "85fa63a4660d26204208e33a7e33418f2fc3cc24",
      "externalIds": {
        "CorpusId": 30536860
      },
      "url": "https://www.semanticscholar.org/paper/85fa63a4660d26204208e33a7e33418f2fc3cc24",
      "title": "Globally Induced Forest : A Prepruning Compression Scheme Supplementary material",
      "venue": "",
      "year": 2017,
      "referenceCount": 8,
      "citationCount": 1,
      "authors": [
        {
          "authorId": "3396405",
          "name": "Jean-Michel Begon"
        },
        {
          "authorId": "2058185",
          "name": "Arnaud Joly"
        },
        {
          "authorId": "50206577",
          "name": "P. Geurts"
        }
      ]
    },
    {
      "paperId": "3912ee1bbeb8d8a7005c520bea49e68e00352b57",
      "externalIds": {
        "DOI": "10.1002/nag.4005",
        "CorpusId": 278694487
      },
      "url": "https://www.semanticscholar.org/paper/3912ee1bbeb8d8a7005c520bea49e68e00352b57",
      "title": "Numerical Modelling of Frictional Sliding Induced Damage and Heating Effects on Rock With an Application to Sievers’ J‐Miniature Drilling on Granite",
      "venue": "International journal for numerical and analytical methods in geomechanics (Print)",
      "year": 2025,
      "referenceCount": 28,
      "citationCount": 0,
      "authors": [
        {
          "authorId": "101915876",
          "name": "T. Saksala"
        },
        {
          "authorId": "2219661391",
          "name": "Arturo Rubio Ruiz"
        },
        {
          "authorId": "152564996",
          "name": "S. Bhusare"
        },
        {
          "authorId": "2262711675",
          "name": "G. Mohanty"
        },
        {
          "authorId": "2361953891",
          "name": "T. Coudert"
        },
        {
          "authorId": "2279484842",
          "name": "Stéphane Dumoulin"
        },
        {
          "authorId": "2280567333",
          "name": "Ruben Bjørge"
        },
        {
          "authorId": "104281114",
          "name": "P. Kane"
        },
        {
          "authorId": "12177623",
          "name": "M. Hokka"
        }
      ]
    },
    {
      "paperId": "8a90a7c6ef78491f4d0003d9ce126bb29b0e2314",
      "externalIds": {
        "DBLP": "conf/cinc/LeturiondoRGLVR17",
        "DOI": "10.22489/cinc.2017.113-073",
        "CorpusId": 4607833
      },
      "url": "https://www.semanticscholar.org/paper/8a90a7c6ef78491f4d0003d9ce126bb29b0e2314",
      "title": "Open-loop adaptive filtering for suppressing chest compression oscillations in the capnogram during cardiopulmonary resuscitation",
      "venue": "2017 Computing in Cardiology (CinC)",
      "year": 2017,
      "referenceCount": 6,
      "citationCount": 0,
      "authors": [
        {
          "authorId": "9747096",
          "name": "Mikel Leturiondo"
        },
        {
          "authorId": "144878493",
          "name": "J. Ruiz"
        },
        {
          "authorId": "144403764",
          "name": "J. Gutiérrez"
        },
        {
          "authorId": "2680238",
          "name": "L. Leturiondo"
        },
        {
          "authorId": "41050717",
          "name": "J. Veintemillas"
        },
        {
          "authorId": "20426892",
          "name": "J. Russell"
        },
        {
          "authorId": "145444569",
          "name": "M. Daya"
        }
      ]
    },
    {
      "paperId": "76dea358dc68c2c98e95c8070a49ce1b226f590c",
      "externalIds": {
        "MAG": "2802651079",
        "DOI": "10.1016/J.RSE.2018.03.019",
        "CorpusId": 4679260
      },
      "url": "https://www.semanticscholar.org/paper/76dea358dc68c2c98e95c8070a49ce1b226f590c",
      "title": "Measuring short-term post-fire forest recovery across a burn severity gradient in a mixed pine-oak forest using multi-sensor remote sensing techniques",
      "venue": "Remote Sensing of Environment",
      "year": 2018,
      "referenceCount": 128,
      "citationCount": 103,
      "authors": [
        {
          "authorId": "145438491",
          "name": "R. Meng"
        },
        {
          "authorId": "71170281",
          "name": "Jin Wu"
        },
        {
          "authorId": "1661577117",
          "name": "F. Zhao"
        },
        {
          "authorId": "33617898",
          "name": "B. Cook"
        },
        {
          "authorId": "11981295",
          "name": "R. Hanavan"
        },
        {
          "authorId": "4783959",
          "name": "S. Serbin"
        }
      ]
    },
    {
      "paperId": "e3d8afadf28889013dd7c6b2833be04b46d853c6",
      "externalIds": {
        "MAG": "3160362971",
        "DOI": "10.1016/J.RSE.2021.112497",
        "CorpusId": 236253599
      },
      "url": "https://www.semanticscholar.org/paper/e3d8afadf28889013dd7c6b2833be04b46d853c6",
      "title": "Accounting for canopy structure improves hyperspectral radiative transfer and sun-induced chlorophyll fluorescence representations in a new generation Earth System model",
      "venue": "",
      "year": 2021,
      "referenceCount": 137,
      "citationCount": 63,
      "authors": [
        {
          "authorId": "122552958",
          "name": "R. Braghiere"
        },
        {
          "authorId": "2143538874",
          "name": "Yujie Wang"
        },
        {
          "authorId": "40191380",
          "name": "R. Doughty"
        },
        {
          "authorId": "144423237",
          "name": "D. Sousa"
        },
        {
          "authorId": "4504979",
          "name": "T. Magney"
        },
        {
          "authorId": "102539570",
          "name": "J. Widlowski"
        },
        {
          "authorId": "41216700",
          "name": "M. Longo"
        },
        {
          "authorId": "145951662",
          "name": "A. Bloom"
        },
        {
          "authorId": "1742441124",
          "name": "J. Worden"
        },
        {
          "authorId": "15572823",
          "name": "P. Gentine"
        },
        {
          "authorId": "2579315",
          "name": "C. Frankenberg"
        }
      ]
    },
    {
      "paperId": "ad43e15dd775d10f52f5408e63d4a2034db99bc9",
      "externalIds": {
        "MAG": "2095076735",
        "DOI": "10.1002/QJ.49711850805",
        "CorpusId": 122537667
      },
      "url": "https://www.semanticscholar.org/paper/ad43e15dd775d10f52f5408e63d4a2034db99bc9",
      "title": "Assessing the Sensitivity of A Land‐Surface Scheme to Parameters Used In Tropical‐Deforestation Experiments",
      "venue": "",
      "year": 1992,
      "referenceCount": 26,
      "citationCount": 36,
      "authors": [
        {
          "authorId": "1403048637",
          "name": "A. Henderson‐sellers"
        }
      ]
    },
    {
      "paperId": "62ef36373ad9e6ebb84354b2617f2ce13a894d84",
      "externalIds": {
        "MAG": "2203754513",
        "DOI": "10.1111/gcb.13181",
        "CorpusId": 205143109,
        "PubMed": "26649652"
      },
      "url": "https://www.semanticscholar.org/paper/62ef36373ad9e6ebb84354b2617f2ce13a894d84",
      "title": "Dispersal limitation drives successional pathways in Central Siberian forests under current and intensified fire regimes",
      "venue": "Global Change Biology",
      "year": 2016,
      "referenceCount": 78,
      "citationCount": 46,
      "authors": [
        {
          "authorId": "3488389",
          "name": "S. Tautenhahn"
        },
        {
          "authorId": "3978515",
          "name": "J. Lichstein"
        },
        {
          "authorId": "95799904",
          "name": "M. Jung"
        },
        {
          "authorId": "3150523",
          "name": "J. Kattge"
        },
        {
          "authorId": "3415991",
          "name": "Stephanie A. Bohlman"
        },
        {
          "authorId": "2568663",
          "name": "H. Heilmeier"
        },
        {
          "authorId": "6830625",
          "name": "A. Prokushkin"
        },
        {
          "authorId": "49087137",
          "name": "A. Kahl"
        },
        {
          "authorId": "50383246",
          "name": "C. Wirth"
        }
      ]
    },
    {
      "paperId": "e4cd1af2d1cc694e378d12eb99b8e8556cd0c115",
      "externalIds": {
        "MAG": "3114912529",
        "DOI": "10.1016/j.ijsolstr.2020.12.005",
        "CorpusId": 234447301
      },
      "url": "https://www.semanticscholar.org/paper/e4cd1af2d1cc694e378d12eb99b8e8556cd0c115",
      "title": "A variational asymmetric phase-field model of quasi-brittle fracture: Energetic solutions and their computation.",
      "venue": "",
      "year": 2020,
      "referenceCount": 81,
      "citationCount": 6,
      "authors": [
        {
          "authorId": "97573559",
          "name": "M. Luege"
        },
        {
          "authorId": "143882351",
          "name": "A. Orlando"
        }
      ]
    },
    {
      "paperId": "80409f2342be237a797ac94d5095efa57a55ec42",
      "externalIds": {
        "MAG": "2155618577",
        "PubMedCentral": "2374898",
        "DOI": "10.1098/rstb.2007.0028",
        "CorpusId": 328377,
        "PubMed": "18267905"
      },
      "url": "https://www.semanticscholar.org/paper/80409f2342be237a797ac94d5095efa57a55ec42",
      "title": "Towards quantifying uncertainty in predictions of Amazon ‘dieback’",
      "venue": "Philosophical Transactions of the Royal Society B: Biological Sciences",
      "year": 2008,
      "referenceCount": 60,
      "citationCount": 178,
      "authors": [
        {
          "authorId": "2804586",
          "name": "C. Huntingford"
        },
        {
          "authorId": "49353300",
          "name": "R. Fisher"
        },
        {
          "authorId": "145220901",
          "name": "L. Mercado"
        },
        {
          "authorId": "102586118",
          "name": "B. Booth"
        },
        {
          "authorId": "3728155",
          "name": "S. Sitch"
        },
        {
          "authorId": "29845971",
          "name": "P. Harris"
        },
        {
          "authorId": "48372668",
          "name": "P. Cox"
        },
        {
          "authorId": "39448670",
          "name": "C. Jones"
        },
        {
          "authorId": "32411931",
          "name": "R. Betts"
        },
        {
          "authorId": "48401102",
          "name": "Y. Malhi"
        },
        {
          "authorId": "2833618",
          "name": "G. Harris"
        },
        {
          "authorId": "144426391",
          "name": "M. Collins"
        },
        {
          "authorId": "144243996",
          "name": "P. Moorcroft"
        }
      ]
    }
  ]
}