{
  "total": 5711,
  "offset": 0,
  "next": 10,
  "data": [
    {
      "paperId": "4c05d7caa357148f0bbd61720bdd35f0bc05eb81",
      "externalIds": {
        "DBLP": "conf/icml/WangSHHLF16",
        "ArXiv": "1511.06581",
        "MAG": "2951799221",
        "CorpusId": 5389801
      },
      "url": "https://www.semanticscholar.org/paper/4c05d7caa357148f0bbd61720bdd35f0bc05eb81",
      "title": "Dueling Network Architectures for Deep Reinforcement Learning",
      "venue": "International Conference on Machine Learning",
      "year": 2015,
      "referenceCount": 28,
      "citationCount": 4331,
      "authors": [
        {
          "authorId": "2117966548",
          "name": "Ziyun Wang"
        },
        {
          "authorId": "1725157",
          "name": "T. Schaul"
        },
        {
          "authorId": "39357484",
          "name": "Matteo Hessel"
        },
        {
          "authorId": "7634925",
          "name": "H. V. Hasselt"
        },
        {
          "authorId": "1975889",
          "name": "Marc Lanctot"
        },
        {
          "authorId": "1737568",
          "name": "Nando de Freitas"
        }
      ]
    },
    {
      "paperId": "dbcfd796d65cecef0385f30fae6af3e10753fd67",
      "externalIds": {
        "MAG": "2769883686",
        "ArXiv": "1711.08946",
        "DBLP": "journals/corr/abs-1711-08946",
        "DOI": "10.1609/aaai.v32i1.11798",
        "CorpusId": 962757
      },
      "url": "https://www.semanticscholar.org/paper/dbcfd796d65cecef0385f30fae6af3e10753fd67",
      "title": "Action Branching Architectures for Deep Reinforcement Learning",
      "venue": "AAAI Conference on Artificial Intelligence",
      "year": 2017,
      "referenceCount": 34,
      "citationCount": 315,
      "authors": [
        {
          "authorId": "80675449",
          "name": "Arash Tavakoli"
        },
        {
          "authorId": "34758368",
          "name": "Fabio Pardo"
        },
        {
          "authorId": "1686032",
          "name": "Petar Kormushev"
        }
      ]
    },
    {
      "paperId": "40fa230debd63098665a6e87b307a3a06a923f68",
      "externalIds": {
        "DBLP": "journals/corr/abs-2504-11601",
        "ArXiv": "2504.11601",
        "DOI": "10.48550/arXiv.2504.11601",
        "CorpusId": 277824577
      },
      "url": "https://www.semanticscholar.org/paper/40fa230debd63098665a6e87b307a3a06a923f68",
      "title": "Dueling Deep Reinforcement Learning for Financial Time Series",
      "venue": "arXiv.org",
      "year": 2025,
      "referenceCount": 13,
      "citationCount": 0,
      "authors": [
        {
          "authorId": "2355651044",
          "name": "Bruno Giorgio"
        }
      ]
    },
    {
      "paperId": "23984494b1ff0c85e284bd43a273838d276ad696",
      "externalIds": {
        "ArXiv": "2503.11449",
        "DBLP": "journals/corr/abs-2503-11449",
        "DOI": "10.1109/INFOCOMWKSHPS65812.2025.11152919",
        "CorpusId": 277043095
      },
      "url": "https://www.semanticscholar.org/paper/23984494b1ff0c85e284bd43a273838d276ad696",
      "title": "Optimizing 6G Dense Network Deployment for the Metaverse Using Deep Reinforcement Learning",
      "venue": "Conference on Computer Communications Workshops",
      "year": 2025,
      "referenceCount": 15,
      "citationCount": 1,
      "authors": [
        {
          "authorId": "2277165710",
          "name": "Jie Zhang"
        },
        {
          "authorId": "2049072628",
          "name": "S. Chetty"
        },
        {
          "authorId": "2276966098",
          "name": "Qiao Wang"
        },
        {
          "authorId": "2301536594",
          "name": "Chenrui Sun"
        },
        {
          "authorId": "2283608792",
          "name": "P. D. Mitchell"
        },
        {
          "authorId": "2292200296",
          "name": "David Grace"
        },
        {
          "authorId": "2276895760",
          "name": "Hamed Ahmadi"
        }
      ]
    },
    {
      "paperId": "f8624995ee231be9c60de73fa7d457d6ba3d907f",
      "externalIds": {
        "DOI": "10.1109/ICIRCA65293.2025.11089597",
        "CorpusId": 280408620
      },
      "url": "https://www.semanticscholar.org/paper/f8624995ee231be9c60de73fa7d457d6ba3d907f",
      "title": "Deep Reinforcement Learning-Based Intrusion Detection System for Next-Generation Wireless Networks",
      "venue": "2025 6th International Conference on Inventive Research in Computing Applications (ICIRCA)",
      "year": 2025,
      "referenceCount": 5,
      "citationCount": 0,
      "authors": [
        {
          "authorId": "2374271238",
          "name": "Mr.A.Arun"
        },
        {
          "authorId": "2324621565",
          "name": "CH Hussaian"
        },
        {
          "authorId": "2324627998",
          "name": "Basha"
        },
        {
          "authorId": "2374271027",
          "name": "Dr.M. Jamuna"
        },
        {
          "authorId": "2270714730",
          "name": "P. Vijayakumar"
        },
        {
          "authorId": "2401228202",
          "name": "K. J. Kumar"
        }
      ]
    },
    {
      "paperId": "2ae393acf34767b6b87240e23f90e243db5537e5",
      "externalIds": {
        "PubMedCentral": "12775529",
        "DOI": "10.1038/s41598-025-29997-x",
        "CorpusId": 283457516,
        "PubMed": "41326570"
      },
      "url": "https://www.semanticscholar.org/paper/2ae393acf34767b6b87240e23f90e243db5537e5",
      "title": "Application of deep reinforcement learning for aerodynamic control around an angled airfoil via synthetic jet",
      "venue": "Scientific Reports",
      "year": 2025,
      "referenceCount": 61,
      "citationCount": 0,
      "authors": [
        {
          "authorId": "46311145",
          "name": "Nadia Ghezaiel Hammouda"
        },
        {
          "authorId": "2365329509",
          "name": "R. Khan"
        },
        {
          "authorId": "2283654790",
          "name": "Loghman Mostafa"
        },
        {
          "authorId": "2090162502",
          "name": "V. Musa"
        },
        {
          "authorId": "40863348",
          "name": "Husam Rajab"
        },
        {
          "authorId": "2298962878",
          "name": "N. Singh"
        },
        {
          "authorId": "2378295769",
          "name": "W. Aich"
        },
        {
          "authorId": "2363024433",
          "name": "K. Hajlaoui"
        }
      ]
    },
    {
      "paperId": "af15fb7127d07db5980fe762f9cc3f946728ccd8",
      "externalIds": {
        "DOI": "10.1109/ITME63426.2024.00076",
        "CorpusId": 277382472
      },
      "url": "https://www.semanticscholar.org/paper/af15fb7127d07db5980fe762f9cc3f946728ccd8",
      "title": "Agent Decision Model Based on Deep Reinforcement Learning in Artificial Stock Market",
      "venue": "International Conference on Information Technology in Medicine and Education",
      "year": 2024,
      "referenceCount": 16,
      "citationCount": 0,
      "authors": [
        {
          "authorId": "48202702",
          "name": "Y. Shao"
        },
        {
          "authorId": "2058038360",
          "name": "Zhao Min"
        }
      ]
    },
    {
      "paperId": "9cbc7f8f4ca8d9cc1ce6cc5342c4226c96614b2a",
      "externalIds": {
        "DOI": "10.3390/engproc2025120055",
        "CorpusId": 285404553
      },
      "url": "https://www.semanticscholar.org/paper/9cbc7f8f4ca8d9cc1ce6cc5342c4226c96614b2a",
      "title": "Subchannel Allocation in Massive Multiple-Input Multiple-Output Orthogonal Frequency-Division Multiple Access and Hybrid Beamforming Systems with Deep Reinforcement Learning",
      "venue": "8th International Conference on Knowledge Innovation and Invention",
      "year": 2026,
      "referenceCount": 13,
      "citationCount": 0,
      "authors": [
        {
          "authorId": "2409588287",
          "name": "Jih-Wei Lee"
        },
        {
          "authorId": "2267873282",
          "name": "Yung-Fang Chen"
        }
      ]
    },
    {
      "paperId": "d11f4784b96a6d705b3963427d60691ba523d934",
      "externalIds": {
        "DOI": "10.1142/s2424786326500167",
        "CorpusId": 286497653
      },
      "url": "https://www.semanticscholar.org/paper/d11f4784b96a6d705b3963427d60691ba523d934",
      "title": "Stock market prediction through deep reinforcement learning",
      "venue": "International Journal of Financial Engineering",
      "year": 2026,
      "referenceCount": 15,
      "citationCount": 0,
      "authors": [
        {
          "authorId": "2423501763",
          "name": "Mukhazar Ahmad Khan"
        },
        {
          "authorId": "2343652107",
          "name": "Nayab Naveed"
        },
        {
          "authorId": "2238162787",
          "name": "Syed Qasim Shah"
        }
      ]
    },
    {
      "paperId": "1b8229875c7e46acea4c04d1855a50313ae85bb7",
      "externalIds": {
        "DBLP": "conf/icct/Ji0G023",
        "DOI": "10.1109/ICCT59356.2023.10419517",
        "CorpusId": 267650438
      },
      "url": "https://www.semanticscholar.org/paper/1b8229875c7e46acea4c04d1855a50313ae85bb7",
      "title": "Hybrid Precoding for mmWave MU-MISO System with Deep Reinforcement Learning and Model-Driven Deep Learning",
      "venue": "International Conference on Speech Technology and Human-Computer Dialogue",
      "year": 2023,
      "referenceCount": 19,
      "citationCount": 0,
      "authors": [
        {
          "authorId": "2130586502",
          "name": "Shupeng Ji"
        },
        {
          "authorId": "2282395016",
          "name": "Xiao Li"
        },
        {
          "authorId": "2068203060",
          "name": "Ning Gao"
        },
        {
          "authorId": "2284031495",
          "name": "Shi Jin"
        }
      ]
    }
  ]
}