{
  "total": 1547,
  "offset": 0,
  "next": 10,
  "data": [
    {
      "paperId": "72a6044a0108e0f8f1e68cd70ada46c81a416324",
      "externalIds": {
        "MAG": "2964182199",
        "DBLP": "journals/corr/abs-1801-09195",
        "ArXiv": "1801.09195",
        "CorpusId": 10106675
      },
      "url": "https://www.semanticscholar.org/paper/72a6044a0108e0f8f1e68cd70ada46c81a416324",
      "title": "Improved Training of Generative Adversarial Networks Using Representative Features",
      "venue": "International Conference on Machine Learning",
      "year": 2018,
      "referenceCount": 39,
      "citationCount": 39,
      "authors": [
        {
          "authorId": "3421575",
          "name": "Duhyeon Bang"
        },
        {
          "authorId": "2081318",
          "name": "Hyunjung Shim"
        }
      ]
    },
    {
      "paperId": "26fbb140e71f26a5a7362035d2cbfe1325658797",
      "externalIds": {
        "DBLP": "journals/access/YuWC22",
        "DOI": "10.1109/ACCESS.2022.3221774",
        "CorpusId": 253542736
      },
      "url": "https://www.semanticscholar.org/paper/26fbb140e71f26a5a7362035d2cbfe1325658797",
      "title": "Improving Distinguishability of Photoplethysmography in Emotion Recognition Using Deep Convolutional Generative Adversarial Networks",
      "venue": "IEEE Access",
      "year": 2022,
      "referenceCount": 53,
      "citationCount": 5,
      "authors": [
        {
          "authorId": "2010012",
          "name": "Sung-Nien Yu"
        },
        {
          "authorId": "2152818965",
          "name": "Shaowei Wang"
        },
        {
          "authorId": "2140068272",
          "name": "Yu Ping Chang"
        }
      ]
    },
    {
      "paperId": "e57871a8cc374507cfeb11d5b253270bceda51c6",
      "externalIds": {
        "DBLP": "journals/tr/ChenSDLL23",
        "DOI": "10.1109/TR.2022.3215243",
        "CorpusId": 253353504
      },
      "url": "https://www.semanticscholar.org/paper/e57871a8cc374507cfeb11d5b253270bceda51c6",
      "title": "Data Augmentation and Intelligent Fault Diagnosis of Planetary Gearbox Using ILoFGAN Under Extremely Limited Samples",
      "venue": "IEEE Transactions on Reliability",
      "year": 2023,
      "referenceCount": 44,
      "citationCount": 163,
      "authors": [
        {
          "authorId": "2356364092",
          "name": "Mingzhi Chen"
        },
        {
          "authorId": "9209645",
          "name": "Haidong Shao"
        },
        {
          "authorId": "2057104151",
          "name": "Haoxuan Dou"
        },
        {
          "authorId": "2157336891",
          "name": "Wei Li"
        },
        {
          "authorId": "2182223203",
          "name": "Bin Liu"
        }
      ]
    },
    {
      "paperId": "de0cddae2149e8cebe25ccfc6c4bcfb2ecc04ba5",
      "externalIds": {
        "MAG": "2969974960",
        "CorpusId": 201878752
      },
      "url": "https://www.semanticscholar.org/paper/de0cddae2149e8cebe25ccfc6c4bcfb2ecc04ba5",
      "title": "Combustion Condition Monitoring Through Deep Learning Networks",
      "venue": "",
      "year": 2019,
      "referenceCount": 11,
      "citationCount": 2,
      "authors": [
        {
          "authorId": "2350515381",
          "name": "Moinul Hossain"
        }
      ]
    },
    {
      "paperId": "0876d473ca42c5c7028a9f4940ba5ddf73a6e8d7",
      "externalIds": {
        "DBLP": "conf/wacv/ZuoAD21",
        "DOI": "10.1109/WACV48630.2021.00353",
        "CorpusId": 230101450
      },
      "url": "https://www.semanticscholar.org/paper/0876d473ca42c5c7028a9f4940ba5ddf73a6e8d7",
      "title": "Improved Training of Generative Adversarial Networks Using Decision Forests",
      "venue": "IEEE Workshop/Winter Conference on Applications of Computer Vision",
      "year": 2021,
      "referenceCount": 41,
      "citationCount": 5,
      "authors": [
        {
          "authorId": "2057617710",
          "name": "Yan Zuo"
        },
        {
          "authorId": "46246850",
          "name": "Gil Avraham"
        },
        {
          "authorId": "144418842",
          "name": "T. Drummond"
        }
      ]
    },
    {
      "paperId": "f48cf1ebd3f8d4a589e37a17ec65cb0bf97d0b71",
      "externalIds": {
        "DBLP": "journals/access/SiddiquiBSRD25",
        "DOI": "10.1109/ACCESS.2024.3524061",
        "CorpusId": 275145042
      },
      "url": "https://www.semanticscholar.org/paper/f48cf1ebd3f8d4a589e37a17ec65cb0bf97d0b71",
      "title": "Enhancing Power Grid Reliability With Machine Learning and Auxiliary Classifier Generative Adversarial Networks: A Study on Fault Detection Using the Georgia Electric System Load Dataset",
      "venue": "IEEE Access",
      "year": 2025,
      "referenceCount": 0,
      "citationCount": 5,
      "authors": [
        {
          "authorId": "24419924",
          "name": "H. Siddiqui"
        },
        {
          "authorId": "2150174236",
          "name": "Robert Brown"
        },
        {
          "authorId": "2314388353",
          "name": "Adil Ali Saleem"
        },
        {
          "authorId": "2339018633",
          "name": "Muhammad Amjad Raza"
        },
        {
          "authorId": "2238634988",
          "name": "Sandra E. M. Dudley"
        }
      ]
    },
    {
      "paperId": "e59dc70da79dd152a99a596b578266acdf5182ed",
      "externalIds": {
        "DOI": "10.1109/ICSMD67131.2025.11365496",
        "CorpusId": 285290949
      },
      "url": "https://www.semanticscholar.org/paper/e59dc70da79dd152a99a596b578266acdf5182ed",
      "title": "Fault Diagnosis of Mechanical Equipment Using Gradient Information-Constrained Generative Adversarial Networks",
      "venue": "2025 International Conference on Sensing, Measurement & Data Analytics in the era of Artificial Intelligence (ICSMD)",
      "year": 2025,
      "referenceCount": 19,
      "citationCount": 0,
      "authors": [
        {
          "authorId": "2119052411",
          "name": "Shaowei Liu"
        },
        {
          "authorId": "2271512896",
          "name": "J. Xue"
        },
        {
          "authorId": "2355667213",
          "name": "Zeyu Xu"
        },
        {
          "authorId": "2153056291",
          "name": "Jiang Chang"
        },
        {
          "authorId": "2355792874",
          "name": "Yongzhou Wang"
        },
        {
          "authorId": "97770737",
          "name": "Xiaochao Yan"
        }
      ]
    },
    {
      "paperId": "797345d765f1350715ec32e99bba0fae17b067a8",
      "externalIds": {
        "DBLP": "conf/ih/ZhouY0LW25",
        "DOI": "10.1145/3733102.3733112",
        "CorpusId": 279398644
      },
      "url": "https://www.semanticscholar.org/paper/797345d765f1350715ec32e99bba0fae17b067a8",
      "title": "Color Image Steganography Using Generative Adversarial Networks with a Phased Training Strategy",
      "venue": "Information Hiding and Multimedia Security Workshop",
      "year": 2025,
      "referenceCount": 29,
      "citationCount": 1,
      "authors": [
        {
          "authorId": "2327908188",
          "name": "Saixing Zhou"
        },
        {
          "authorId": "2215108958",
          "name": "Miaoxin Ye"
        },
        {
          "authorId": "36114368",
          "name": "Weiqi Luo"
        },
        {
          "authorId": "2152086167",
          "name": "Xin Liao"
        },
        {
          "authorId": "2299780450",
          "name": "Kangkang Wei"
        }
      ]
    },
    {
      "paperId": "185b9ae48474720d64942237ab2e43a2712f2d62",
      "externalIds": {
        "DBLP": "conf/embc/LarracyBPS24",
        "DOI": "10.1109/EMBC53108.2024.10782377",
        "CorpusId": 274826019,
        "PubMed": "40039680"
      },
      "url": "https://www.semanticscholar.org/paper/185b9ae48474720d64942237ab2e43a2712f2d62",
      "title": "StepGAN: Gait Feature Extraction Using Generative Adversarial Networks for Footstep Recognition",
      "venue": "Annual International Conference of the IEEE Engineering in Medicine and Biology Society",
      "year": 2024,
      "referenceCount": 5,
      "citationCount": 1,
      "authors": [
        {
          "authorId": "1631646078",
          "name": "R. Larracy"
        },
        {
          "authorId": "92798573",
          "name": "Shikder Shafiul Bashar"
        },
        {
          "authorId": "1718184",
          "name": "A. Phinyomark"
        },
        {
          "authorId": "2243235837",
          "name": "Erik J. Scheme"
        }
      ]
    },
    {
      "paperId": "6d6156a6ac257ad290e1f40b8cd0de9704406cdd",
      "externalIds": {
        "DBLP": "journals/tetc/WonJL23",
        "DOI": "10.1109/TETC.2022.3170544",
        "CorpusId": 248611182
      },
      "url": "https://www.semanticscholar.org/paper/6d6156a6ac257ad290e1f40b8cd0de9704406cdd",
      "title": "PlausMal-GAN: Plausible Malware Training Based on Generative Adversarial Networks for Analogous Zero-Day Malware Detection",
      "venue": "IEEE Transactions on Emerging Topics in Computing",
      "year": 2023,
      "referenceCount": 52,
      "citationCount": 40,
      "authors": [
        {
          "authorId": "2175047",
          "name": "Dong-Ok Won"
        },
        {
          "authorId": "2164429074",
          "name": "Yong-Nam Jang"
        },
        {
          "authorId": "2164853907",
          "name": "Seong-Whan Lee"
        }
      ]
    }
  ]
}