{
  "total": 296,
  "offset": 0,
  "next": 10,
  "data": [
    {
      "paperId": "4b0e8a4df3605d5e22c9eacc3cb360ff08eb8c4e",
      "externalIds": {
        "DBLP": "journals/corr/abs-1802-07239",
        "MAG": "2963026770",
        "ArXiv": "1802.07239",
        "CorpusId": 3432844
      },
      "url": "https://www.semanticscholar.org/paper/4b0e8a4df3605d5e22c9eacc3cb360ff08eb8c4e",
      "title": "Continual Reinforcement Learning with Complex Synapses",
      "venue": "International Conference on Machine Learning",
      "year": 2018,
      "referenceCount": 29,
      "citationCount": 100,
      "authors": [
        {
          "authorId": "11596459",
          "name": "Christos Kaplanis"
        },
        {
          "authorId": "1757629",
          "name": "M. Shanahan"
        },
        {
          "authorId": "2388737",
          "name": "C. Clopath"
        }
      ]
    },
    {
      "paperId": "ce04360d8d41c59fa35b94be9e7ebd3a60bc5560",
      "externalIds": {
        "DBLP": "journals/ral/DongZHWD24",
        "DOI": "10.1109/LRA.2024.3487484",
        "CorpusId": 273719036
      },
      "url": "https://www.semanticscholar.org/paper/ce04360d8d41c59fa35b94be9e7ebd3a60bc5560",
      "title": "Mitigating Catastrophic Forgetting in Robot Continual Learning: A Guided Policy Search Approach Enhanced With Memory-Aware Synapses",
      "venue": "IEEE Robotics and Automation Letters",
      "year": 2024,
      "referenceCount": 32,
      "citationCount": 4,
      "authors": [
        {
          "authorId": "2053111604",
          "name": "Qingwei Dong"
        },
        {
          "authorId": "2267044094",
          "name": "Peng Zeng"
        },
        {
          "authorId": "2119290786",
          "name": "Yunpeng He"
        },
        {
          "authorId": "32229586",
          "name": "Guangxi Wan"
        },
        {
          "authorId": "2209964473",
          "name": "Xiaoting Dong"
        }
      ]
    },
    {
      "paperId": "dcad5719734de791920831db0fea411bfa8f2000",
      "externalIds": {
        "PubMedCentral": "12390258",
        "DOI": "10.3390/s25164895",
        "CorpusId": 280948290,
        "PubMed": "40871755"
      },
      "url": "https://www.semanticscholar.org/paper/dcad5719734de791920831db0fea411bfa8f2000",
      "title": "Trajectory Tracking Controller for Quadrotor by Continual Reinforcement Learning in Wind-Disturbed Environment",
      "venue": "Italian National Conference on Sensors",
      "year": 2025,
      "referenceCount": 38,
      "citationCount": 1,
      "authors": [
        {
          "authorId": "2349544756",
          "name": "Yanhui Liu"
        },
        {
          "authorId": "2151115209",
          "name": "Lina Hao"
        },
        {
          "authorId": "2248757967",
          "name": "Shuopeng Wang"
        },
        {
          "authorId": "2377760084",
          "name": "Xu Wang"
        }
      ]
    },
    {
      "paperId": "807b0eb705dddf3500af53cf9c5396613769a469",
      "externalIds": {
        "DBLP": "conf/ispa/XuWZ00M24",
        "DOI": "10.1109/ISPA63168.2024.00296",
        "CorpusId": 276510185
      },
      "url": "https://www.semanticscholar.org/paper/807b0eb705dddf3500af53cf9c5396613769a469",
      "title": "Toward Multi-Agent Coordination in IoT via Prompt Pool-based Continual Reinforcement Learning",
      "venue": "International Symposium on Image and Signal Processing and Analysis",
      "year": 2024,
      "referenceCount": 35,
      "citationCount": 0,
      "authors": [
        {
          "authorId": "2273490186",
          "name": "Chenhang Xu"
        },
        {
          "authorId": "2345567128",
          "name": "Jia Wang"
        },
        {
          "authorId": "46875737",
          "name": "Xiaohui Zhu"
        },
        {
          "authorId": "2105583806",
          "name": "Yong Yue"
        },
        {
          "authorId": "143677880",
          "name": "Jun Qi"
        },
        {
          "authorId": "2279763000",
          "name": "Jieming Ma"
        }
      ]
    },
    {
      "paperId": "60621e0876e8e389e4e08a1986c82f5815f902eb",
      "externalIds": {
        "ArXiv": "2604.19737",
        "CorpusId": 287636769
      },
      "url": "https://www.semanticscholar.org/paper/60621e0876e8e389e4e08a1986c82f5815f902eb",
      "title": "Safe Continual Reinforcement Learning in Non-stationary Environments",
      "venue": "",
      "year": 2026,
      "referenceCount": 64,
      "citationCount": 0,
      "authors": [
        {
          "authorId": "2261524205",
          "name": "Austin Coursey"
        },
        {
          "authorId": "2317532069",
          "name": "Abel Díaz-González"
        },
        {
          "authorId": "1411467737",
          "name": "Marcos Quiñones-Grueiro"
        },
        {
          "authorId": "2260338317",
          "name": "Gautam Biswas"
        }
      ]
    },
    {
      "paperId": "0baeb348e1e4439be354f923ab3c940182e227e5",
      "externalIds": {
        "DBLP": "journals/iotj/QinZMYZ26",
        "DOI": "10.1109/JIOT.2025.3645269",
        "CorpusId": 284106063
      },
      "url": "https://www.semanticscholar.org/paper/0baeb348e1e4439be354f923ab3c940182e227e5",
      "title": "Knowledge-Guided Continual Reinforcement Learning for Navigation",
      "venue": "IEEE Internet of Things Journal",
      "year": 2026,
      "referenceCount": 39,
      "citationCount": 0,
      "authors": [
        {
          "authorId": "2217867693",
          "name": "Peng Qin"
        },
        {
          "authorId": "2261422639",
          "name": "Jianjian Zhao"
        },
        {
          "authorId": "2188197916",
          "name": "Zhen Mei"
        },
        {
          "authorId": "2356253900",
          "name": "Hainan Yang"
        },
        {
          "authorId": "2256340228",
          "name": "Tao Zhao"
        }
      ]
    },
    {
      "paperId": "81427fe530c76e431fe7a01255aa1c05d0be5bb0",
      "externalIds": {
        "DBLP": "conf/icc/XiongY25",
        "DOI": "10.1109/ICC52391.2025.11161096",
        "CorpusId": 281604947
      },
      "url": "https://www.semanticscholar.org/paper/81427fe530c76e431fe7a01255aa1c05d0be5bb0",
      "title": "Adaptive AI in Smart Grid: A Continual Reinforcement Learning Framework for Cyber-Physical Systems",
      "venue": "ICC 2025 - IEEE International Conference on Communications",
      "year": 2025,
      "referenceCount": 16,
      "citationCount": 0,
      "authors": [
        {
          "authorId": "2054473256",
          "name": "Hao Xiong"
        },
        {
          "authorId": "2422318635",
          "name": "Jiadong Yu"
        }
      ]
    },
    {
      "paperId": "f1e3dc4b4b26f2e0a3cda817a0fd94eda22ae751",
      "externalIds": {
        "DBLP": "journals/corr/abs-2506-14990",
        "ArXiv": "2506.14990",
        "DOI": "10.48550/arXiv.2506.14990",
        "CorpusId": 279447865
      },
      "url": "https://www.semanticscholar.org/paper/f1e3dc4b4b26f2e0a3cda817a0fd94eda22ae751",
      "title": "MEAL: A Benchmark for Continual Multi-Agent Reinforcement Learning",
      "venue": "arXiv.org",
      "year": 2025,
      "referenceCount": 49,
      "citationCount": 4,
      "authors": [
        {
          "authorId": "2185619839",
          "name": "Tristan Tomilin"
        },
        {
          "authorId": "2367527658",
          "name": "Luka van den Boogaard"
        },
        {
          "authorId": "2122909780",
          "name": "Samuel Garcin"
        },
        {
          "authorId": "2122740553",
          "name": "Bram Grooten"
        },
        {
          "authorId": "2276427306",
          "name": "Meng Fang"
        },
        {
          "authorId": "1691997",
          "name": "Mykola Pechenizkiy"
        }
      ]
    },
    {
      "paperId": "60606ab274f8567aa456fac73916c1f71f19c304",
      "externalIds": {
        "DOI": "10.1109/ICVRV67992.2025.00152",
        "CorpusId": 286327911
      },
      "url": "https://www.semanticscholar.org/paper/60606ab274f8567aa456fac73916c1f71f19c304",
      "title": "CGDRL: Continual Gait Distillation Reinforcement Learning",
      "venue": "International Conference on Virtual Reality and Visualization",
      "year": 2025,
      "referenceCount": 22,
      "citationCount": 0,
      "authors": [
        {
          "authorId": "2362301829",
          "name": "Zonghao Zhang"
        },
        {
          "authorId": "2133273745",
          "name": "Peng Zhai"
        },
        {
          "authorId": "2331798962",
          "name": "Hu Zhou"
        },
        {
          "authorId": "2325018373",
          "name": "Quancheng Qian"
        },
        {
          "authorId": "2216966319",
          "name": "Xiaoyi Wei"
        },
        {
          "authorId": "2332464701",
          "name": "Benlin Liu"
        },
        {
          "authorId": "32313891",
          "name": "Qianxiang Yu"
        },
        {
          "authorId": "2366651269",
          "name": "Lihua Zhang"
        }
      ]
    },
    {
      "paperId": "6f88719fa7c73ae4b66bdce13e6f19088f2b3c13",
      "externalIds": {
        "ArXiv": "2505.22019",
        "DBLP": "journals/corr/abs-2505-22019",
        "DOI": "10.48550/arXiv.2505.22019",
        "CorpusId": 278959366
      },
      "url": "https://www.semanticscholar.org/paper/6f88719fa7c73ae4b66bdce13e6f19088f2b3c13",
      "title": "VRAG-RL: Empower Vision-Perception-Based RAG for Visually Rich Information Understanding via Iterative Reasoning with Reinforcement Learning",
      "venue": "arXiv.org",
      "year": 2025,
      "referenceCount": 48,
      "citationCount": 47,
      "authors": [
        {
          "authorId": "2287804145",
          "name": "Qiuchen Wang"
        },
        {
          "authorId": "2058085406",
          "name": "Ruixue Ding"
        },
        {
          "authorId": "2351828089",
          "name": "Yu Zeng"
        },
        {
          "authorId": "2293554731",
          "name": "Zehui Chen"
        },
        {
          "authorId": "2267778503",
          "name": "Lin Chen"
        },
        {
          "authorId": "2347160918",
          "name": "Shihang Wang"
        },
        {
          "authorId": "2326115683",
          "name": "Pengjun Xie"
        },
        {
          "authorId": "2293666758",
          "name": "Fei Huang"
        },
        {
          "authorId": "2295588235",
          "name": "Feng Zhao"
        }
      ]
    }
  ]
}