{
  "total": 1091,
  "offset": 0,
  "next": 10,
  "data": [
    {
      "paperId": "471f9742b4e32d8ee68f9ee493768ff0466a231d",
      "externalIds": {
        "ArXiv": "1705.06366",
        "MAG": "2616430965",
        "DBLP": "conf/icml/FlorensaHGA18",
        "CorpusId": 22729745
      },
      "url": "https://www.semanticscholar.org/paper/471f9742b4e32d8ee68f9ee493768ff0466a231d",
      "title": "Automatic Goal Generation for Reinforcement Learning Agents",
      "venue": "International Conference on Machine Learning",
      "year": 2017,
      "referenceCount": 50,
      "citationCount": 560,
      "authors": [
        {
          "authorId": "145641013",
          "name": "David Held"
        },
        {
          "authorId": "3468192",
          "name": "Xinyang Geng"
        },
        {
          "authorId": "10104623",
          "name": "Carlos Florensa"
        },
        {
          "authorId": "1689992",
          "name": "P. Abbeel"
        }
      ]
    },
    {
      "paperId": "ad291d1a005d2774c8ea5f6fd33684dd33ee23ca",
      "externalIds": {
        "ArXiv": "2111.04120",
        "DBLP": "journals/corr/abs-2111-04120",
        "CorpusId": 243847365
      },
      "url": "https://www.semanticscholar.org/paper/ad291d1a005d2774c8ea5f6fd33684dd33ee23ca",
      "title": "Automatic Goal Generation using Dynamical Distance Learning",
      "venue": "arXiv.org",
      "year": 2021,
      "referenceCount": 16,
      "citationCount": 2,
      "authors": [
        {
          "authorId": "1925495273",
          "name": "Bharat Prakash"
        },
        {
          "authorId": "3436871",
          "name": "Nicholas R. Waytowich"
        },
        {
          "authorId": "2393902",
          "name": "T. Mohsenin"
        },
        {
          "authorId": "143979239",
          "name": "T. Oates"
        }
      ]
    },
    {
      "paperId": "9b6dea62ee0a8861ae7706938aac98b350074675",
      "externalIds": {
        "CorpusId": 254021360
      },
      "url": "https://www.semanticscholar.org/paper/9b6dea62ee0a8861ae7706938aac98b350074675",
      "title": "Fearful Goal Generation for Reliable Policy Learning",
      "venue": "",
      "year": 2022,
      "referenceCount": 26,
      "citationCount": 0,
      "authors": []
    },
    {
      "paperId": "da419ddd9800611236879bf922dbdbfd7921e02c",
      "externalIds": {
        "MAG": "3169675513",
        "DBLP": "journals/apin/GhanadbashiG22",
        "DOI": "10.1007/s10489-021-02449-5",
        "CorpusId": 236422987
      },
      "url": "https://www.semanticscholar.org/paper/da419ddd9800611236879bf922dbdbfd7921e02c",
      "title": "Using ontology to guide reinforcement learning agents in unseen situations",
      "venue": "Applied intelligence (Boston)",
      "year": 2021,
      "referenceCount": 49,
      "citationCount": 25,
      "authors": [
        {
          "authorId": "2796456",
          "name": "Saeedeh Ghanadbashi"
        },
        {
          "authorId": "2790611",
          "name": "Fatemeh Golpayegani"
        }
      ]
    },
    {
      "paperId": "9fc6b6d3fead719cdc95263e62209548223576d1",
      "externalIds": {
        "DBLP": "journals/corr/abs-2202-10608",
        "ArXiv": "2202.10608",
        "CorpusId": 247025766
      },
      "url": "https://www.semanticscholar.org/paper/9fc6b6d3fead719cdc95263e62209548223576d1",
      "title": "It Takes Four to Tango: Multiagent Selfplay for Automatic Curriculum Generation",
      "venue": "International Conference on Learning Representations",
      "year": 2022,
      "referenceCount": 54,
      "citationCount": 20,
      "authors": [
        {
          "authorId": "144894286",
          "name": "Yuqing Du"
        },
        {
          "authorId": "1689992",
          "name": "P. Abbeel"
        },
        {
          "authorId": "1954250",
          "name": "Aditya Grover"
        }
      ]
    },
    {
      "paperId": "bf01a1399b41824db940bd1ecf22a38994dfdda9",
      "externalIds": {
        "CorpusId": 204870241
      },
      "url": "https://www.semanticscholar.org/paper/bf01a1399b41824db940bd1ecf22a38994dfdda9",
      "title": "Chapter 11 Intelligent Action Acquisition for Animated Learning Agents *",
      "venue": "",
      "year": null,
      "referenceCount": 0,
      "citationCount": 0,
      "authors": [
        {
          "authorId": "2398585",
          "name": "Adam Szarowicz"
        },
        {
          "authorId": "3135171",
          "name": "M. Mittmann"
        },
        {
          "authorId": "2150885",
          "name": "J. Francik"
        }
      ]
    },
    {
      "paperId": "8f1d1eac3f6b923a49c4b8d9924c6c7830dfd4a6",
      "externalIds": {
        "MAG": "1506432194",
        "DOI": "10.1007/978-3-540-44516-6_11",
        "CorpusId": 60678611
      },
      "url": "https://www.semanticscholar.org/paper/8f1d1eac3f6b923a49c4b8d9924c6c7830dfd4a6",
      "title": "Intelligent Action Acquisition for Animated Learning Agents",
      "venue": "",
      "year": 2005,
      "referenceCount": 44,
      "citationCount": 0,
      "authors": [
        {
          "authorId": "2398585",
          "name": "Adam Szarowicz"
        },
        {
          "authorId": "3135171",
          "name": "M. Mittmann"
        },
        {
          "authorId": "2150885",
          "name": "J. Francik"
        }
      ]
    },
    {
      "paperId": "ea1c1e4dc1df4b2b4aa81ed215b6affbf9c64034",
      "externalIds": {
        "MAG": "2994847258",
        "DBLP": "conf/iclr/RacaniereLSRFL20",
        "CorpusId": 213207497
      },
      "url": "https://www.semanticscholar.org/paper/ea1c1e4dc1df4b2b4aa81ed215b6affbf9c64034",
      "title": "Automated curriculum generation through setter-solver interactions",
      "venue": "International Conference on Learning Representations",
      "year": 2020,
      "referenceCount": 28,
      "citationCount": 40,
      "authors": [
        {
          "authorId": "2026995",
          "name": "S. Racanière"
        },
        {
          "authorId": "32322945",
          "name": "Andrew Kyle Lampinen"
        },
        {
          "authorId": "35030998",
          "name": "Adam Santoro"
        },
        {
          "authorId": "40634311",
          "name": "David P. Reichert"
        },
        {
          "authorId": "9559485",
          "name": "Vlad Firoiu"
        },
        {
          "authorId": "2542999",
          "name": "T. Lillicrap"
        }
      ]
    },
    {
      "paperId": "2e38f39f9128da4244a9ada672fdaccbfce8bc62",
      "externalIds": {
        "DBLP": "conf/gameon/SzarowiczMRF03",
        "MAG": "2160620214",
        "CorpusId": 1912031
      },
      "url": "https://www.semanticscholar.org/paper/2e38f39f9128da4244a9ada672fdaccbfce8bc62",
      "title": "Automatic Acquisition of Actions for Animated Agents",
      "venue": "GAME-ON",
      "year": 2003,
      "referenceCount": 21,
      "citationCount": 3,
      "authors": [
        {
          "authorId": "2398585",
          "name": "Adam Szarowicz"
        },
        {
          "authorId": "3135171",
          "name": "M. Mittmann"
        },
        {
          "authorId": "1711669",
          "name": "Paolo Remagnino"
        },
        {
          "authorId": "2150885",
          "name": "J. Francik"
        }
      ]
    },
    {
      "paperId": "786de34ae1ff786c28087041395b4cbb8d9e9b92",
      "externalIds": {
        "MAG": "2975141838",
        "ArXiv": "1909.12892",
        "DBLP": "journals/corr/abs-1909-12892",
        "CorpusId": 203593258
      },
      "url": "https://www.semanticscholar.org/paper/786de34ae1ff786c28087041395b4cbb8d9e9b92",
      "title": "Automated curricula through setter-solver interactions",
      "venue": "arXiv.org",
      "year": 2019,
      "referenceCount": 37,
      "citationCount": 60,
      "authors": [
        {
          "authorId": "2026995",
          "name": "S. Racanière"
        },
        {
          "authorId": "32322945",
          "name": "Andrew Kyle Lampinen"
        },
        {
          "authorId": "35030998",
          "name": "Adam Santoro"
        },
        {
          "authorId": "40634311",
          "name": "David P. Reichert"
        },
        {
          "authorId": "9559485",
          "name": "Vlad Firoiu"
        },
        {
          "authorId": "2542999",
          "name": "T. Lillicrap"
        }
      ]
    }
  ]
}