{
  "total": 115856,
  "offset": 0,
  "next": 10,
  "data": [
    {
      "paperId": "9ecd96c8278386e55a1fbc9ac44750f14c7fd5c3",
      "externalIds": {
        "MAG": "2803300094",
        "DBLP": "conf/icml/InouyeR18",
        "CorpusId": 49274465
      },
      "url": "https://www.semanticscholar.org/paper/9ecd96c8278386e55a1fbc9ac44750f14c7fd5c3",
      "title": "Deep Density Destructors",
      "venue": "International Conference on Machine Learning",
      "year": 2018,
      "referenceCount": 21,
      "citationCount": 17,
      "authors": [
        {
          "authorId": "3373810",
          "name": "David I. Inouye"
        },
        {
          "authorId": "145969795",
          "name": "Pradeep Ravikumar"
        }
      ]
    },
    {
      "paperId": "ed9c6d97a6dd3380163e40e50f6acd252a4e873d",
      "externalIds": {
        "DBLP": "journals/corr/abs-2511-07261",
        "ArXiv": "2511.07261",
        "DOI": "10.48550/arXiv.2511.07261",
        "CorpusId": 282911262
      },
      "url": "https://www.semanticscholar.org/paper/ed9c6d97a6dd3380163e40e50f6acd252a4e873d",
      "title": "High-dimensional Bayesian filtering through deep density approximation",
      "venue": "arXiv.org",
      "year": 2025,
      "referenceCount": 54,
      "citationCount": 2,
      "authors": [
        {
          "authorId": "2161425104",
          "name": "Kasper Bågmark"
        },
        {
          "authorId": "2322448232",
          "name": "Filip Rydin"
        }
      ]
    },
    {
      "paperId": "d758068fff9af381ac45a758589df1acad4d8205",
      "externalIds": {
        "ArXiv": "2012.01012",
        "MAG": "3107948803",
        "DBLP": "journals/corr/abs-2012-01012",
        "CorpusId": 212428336
      },
      "url": "https://www.semanticscholar.org/paper/d758068fff9af381ac45a758589df1acad4d8205",
      "title": "Information Theory in Density Destructors",
      "venue": "arXiv.org",
      "year": 2020,
      "referenceCount": 24,
      "citationCount": 8,
      "authors": [
        {
          "authorId": "2115453684",
          "name": "J. E. Johnson"
        },
        {
          "authorId": "2732577",
          "name": "V. Laparra"
        },
        {
          "authorId": "1388811589",
          "name": "Raúl Santos-Rodríguez"
        },
        {
          "authorId": "1397959153",
          "name": "Gustau Camps-Valls"
        },
        {
          "authorId": "144432320",
          "name": "J. Malo"
        }
      ]
    },
    {
      "paperId": "3c9d0949bcd56004f0827e650e4478223135a55e",
      "externalIds": {
        "DBLP": "journals/asc/XuHD23",
        "DOI": "10.1016/j.asoc.2023.110903",
        "CorpusId": 263823268
      },
      "url": "https://www.semanticscholar.org/paper/3c9d0949bcd56004f0827e650e4478223135a55e",
      "title": "Semi-supervised deep density clustering",
      "venue": "Applied Soft Computing",
      "year": 2023,
      "referenceCount": 54,
      "citationCount": 11,
      "authors": [
        {
          "authorId": "40293689",
          "name": "Xiao Xu"
        },
        {
          "authorId": "146896092",
          "name": "Hai-wei Hou"
        },
        {
          "authorId": "2256981667",
          "name": "Shifei Ding"
        }
      ]
    },
    {
      "paperId": "368e8e0a46c73511f31aadb721bf3f189c3e6c34",
      "externalIds": {
        "DBLP": "journals/corr/abs-2103-11181",
        "ArXiv": "2103.11181",
        "DOI": "10.1016/j.jcp.2022.111080",
        "CorpusId": 232307276
      },
      "url": "https://www.semanticscholar.org/paper/368e8e0a46c73511f31aadb721bf3f189c3e6c34",
      "title": "Adaptive deep density approximation for Fokker-Planck equations",
      "venue": "Journal of Computational Physics",
      "year": 2021,
      "referenceCount": 58,
      "citationCount": 50,
      "authors": [
        {
          "authorId": "2004862838",
          "name": "Keju Tang"
        },
        {
          "authorId": "3283868",
          "name": "X. Wan"
        },
        {
          "authorId": "1996381",
          "name": "Qifeng Liao"
        }
      ]
    },
    {
      "paperId": "06a2642aee58779b1a2a048fdf6a4cf1ad7179f5",
      "externalIds": {
        "DBLP": "journals/tsmc/LiuC22",
        "DOI": "10.1109/TSMC.2022.3151394",
        "CorpusId": 247207708
      },
      "url": "https://www.semanticscholar.org/paper/06a2642aee58779b1a2a048fdf6a4cf1ad7179f5",
      "title": "Learning From Imbalanced Data With Deep Density Hybrid Sampling",
      "venue": "IEEE Transactions on Systems, Man, and Cybernetics: Systems",
      "year": 2022,
      "referenceCount": 42,
      "citationCount": 23,
      "authors": [
        {
          "authorId": "1719823",
          "name": "Chien-Liang Liu"
        },
        {
          "authorId": "48133939",
          "name": "Yu Chang"
        }
      ]
    },
    {
      "paperId": "6d454b8b9c62913a18c9792e340a7bf903eafb4b",
      "externalIds": {
        "DBLP": "journals/corr/abs-2210-14402",
        "ArXiv": "2210.14402",
        "DOI": "10.1007/s10915-023-02379-z",
        "CorpusId": 253116717
      },
      "url": "https://www.semanticscholar.org/paper/6d454b8b9c62913a18c9792e340a7bf903eafb4b",
      "title": "Adaptive Deep Density Approximation for Fractional Fokker–Planck Equations",
      "venue": "Journal of Scientific Computing",
      "year": 2022,
      "referenceCount": 51,
      "citationCount": 8,
      "authors": [
        {
          "authorId": "2114138574",
          "name": "Li Zeng"
        },
        {
          "authorId": "3283868",
          "name": "X. Wan"
        },
        {
          "authorId": "153295714",
          "name": "Tao Zhou"
        }
      ]
    },
    {
      "paperId": "d816e8a7ee36eb96a0fcf1fee0b120d1ad9e8c06",
      "externalIds": {
        "PubMedCentral": "7876329",
        "DOI": "10.3389/fpls.2020.599705",
        "CorpusId": 231733754,
        "PubMed": "33584745"
      },
      "url": "https://www.semanticscholar.org/paper/d816e8a7ee36eb96a0fcf1fee0b120d1ad9e8c06",
      "title": "Large-Scale Counting and Localization of Pineapple Inflorescence Through Deep Density-Estimation",
      "venue": "Frontiers in Plant Science",
      "year": 2021,
      "referenceCount": 61,
      "citationCount": 14,
      "authors": [
        {
          "authorId": "145311472",
          "name": "Jennifer Hobbs"
        },
        {
          "authorId": "144924454",
          "name": "Prajwal Prakash"
        },
        {
          "authorId": "52646691",
          "name": "R. Paull"
        },
        {
          "authorId": "2085100145",
          "name": "Harutyun Hovhannisyan"
        },
        {
          "authorId": "1395850191",
          "name": "Bernard Markowicz"
        },
        {
          "authorId": "2065018270",
          "name": "Greg Rose"
        }
      ]
    },
    {
      "paperId": "bea8b48209ae7c6609fe96d22237597a374851b7",
      "externalIds": {
        "DBLP": "journals/nca/PuchertHRR21",
        "ArXiv": "2107.11085",
        "DOI": "10.1007/s00521-021-06281-3",
        "CorpusId": 236318169
      },
      "url": "https://www.semanticscholar.org/paper/bea8b48209ae7c6609fe96d22237597a374851b7",
      "title": "Data-driven deep density estimation",
      "venue": "Neural computing & applications (Print)",
      "year": 2021,
      "referenceCount": 43,
      "citationCount": 6,
      "authors": [
        {
          "authorId": "2120789021",
          "name": "Patrik Puchert"
        },
        {
          "authorId": "3188862",
          "name": "P. Hermosilla"
        },
        {
          "authorId": "1759347",
          "name": "Tobias Ritschel"
        },
        {
          "authorId": "1703058",
          "name": "T. Ropinski"
        }
      ]
    },
    {
      "paperId": "13182061f8348a474fc32343392394726d3a6299",
      "externalIds": {
        "DBLP": "journals/ijgi/ParkRNJJL21",
        "DOI": "10.3390/ijgi10080548",
        "CorpusId": 238416663
      },
      "url": "https://www.semanticscholar.org/paper/13182061f8348a474fc32343392394726d3a6299",
      "title": "DeepDBSCAN: Deep Density-Based Clustering for Geo-Tagged Photos",
      "venue": "ISPRS Int. J. Geo Inf.",
      "year": 2021,
      "referenceCount": 28,
      "citationCount": 7,
      "authors": [
        {
          "authorId": "2149154947",
          "name": "Jang You Park"
        },
        {
          "authorId": "2131854002",
          "name": "Dong June Ryu"
        },
        {
          "authorId": "50014361",
          "name": "K. Nam"
        },
        {
          "authorId": "40987844",
          "name": "Insung Jang"
        },
        {
          "authorId": "49646574",
          "name": "Minseok Jang"
        },
        {
          "authorId": "2145404979",
          "name": "Yonsik Lee"
        }
      ]
    }
  ]
}