{
  "total": 524,
  "offset": 0,
  "next": 10,
  "data": [
    {
      "paperId": "c97150c064c0c2b7fbfc66f69f5ecf40a4f097d2",
      "externalIds": {
        "DBLP": "conf/icml/MatthewCYW15",
        "ArXiv": "1502.02312",
        "MAG": "2950380950",
        "CorpusId": 8628244
      },
      "url": "https://www.semanticscholar.org/paper/c97150c064c0c2b7fbfc66f69f5ecf40a4f097d2",
      "title": "Bayesian and Empirical Bayesian Forests",
      "venue": "International Conference on Machine Learning",
      "year": 2015,
      "referenceCount": 32,
      "citationCount": 35,
      "authors": [
        {
          "authorId": "32407682",
          "name": "Matt Taddy"
        },
        {
          "authorId": "2144629177",
          "name": "Chun-Sheng Chen"
        },
        {
          "authorId": "49402439",
          "name": "Jun Yu"
        },
        {
          "authorId": "2365458",
          "name": "Mitch Wyle"
        }
      ]
    },
    {
      "paperId": "fa6f76fc6bab4963894ba6323526bdd2c28d9808",
      "externalIds": {
        "MAG": "2940697108",
        "DOI": "10.14419/IJET.V7I4.30.22104",
        "CorpusId": 150357885
      },
      "url": "https://www.semanticscholar.org/paper/fa6f76fc6bab4963894ba6323526bdd2c28d9808",
      "title": "Empirical Bayesian Binary Classification Forests Using Bootstrap Prior",
      "venue": "International journal of engineering and technology",
      "year": 2018,
      "referenceCount": 43,
      "citationCount": 2,
      "authors": [
        {
          "authorId": "89888634",
          "name": "O. Olaniran"
        },
        {
          "authorId": "144624976",
          "name": "M. A. A. Abdullah"
        },
        {
          "authorId": "117390668",
          "name": "A. Khuneswari"
        },
        {
          "authorId": "2408058353",
          "name": "P. Pillay"
        },
        {
          "authorId": "2189217",
          "name": "S. F. Olaniran"
        }
      ]
    },
    {
      "paperId": "9bf86429430fe034d9c45253958a865d0ae5f3d4",
      "externalIds": {
        "DOI": "10.1016/j.scitotenv.2024.173619",
        "CorpusId": 270191280,
        "PubMed": "38825208"
      },
      "url": "https://www.semanticscholar.org/paper/9bf86429430fe034d9c45253958a865d0ae5f3d4",
      "title": "The ADnet Bayesian belief network for alder decline: Integrating empirical data and expert knowledge.",
      "venue": "Science of the Total Environment",
      "year": 2024,
      "referenceCount": 0,
      "citationCount": 7,
      "authors": [
        {
          "authorId": "2304260623",
          "name": "Inês Gomes Marques"
        },
        {
          "authorId": "2243273195",
          "name": "C. Vieites‐Blanco"
        },
        {
          "authorId": "2304258047",
          "name": "Patricia M. Rodríguez-González"
        },
        {
          "authorId": "4127729",
          "name": "P. Segurado"
        },
        {
          "authorId": "114316021",
          "name": "M. Marques"
        },
        {
          "authorId": "15058802",
          "name": "M. J. Barrento"
        },
        {
          "authorId": "2304309724",
          "name": "M. R. Fernandes"
        },
        {
          "authorId": "2312530695",
          "name": "A. Cupertino"
        },
        {
          "authorId": "2071934755",
          "name": "H. Almeida"
        },
        {
          "authorId": "3967690",
          "name": "I. Biurrun"
        },
        {
          "authorId": "5563981",
          "name": "T. Corcobado"
        },
        {
          "authorId": "2375552250",
          "name": "Filipe Costa E Silva"
        },
        {
          "authorId": "2239295037",
          "name": "J. J. Diez"
        },
        {
          "authorId": "2275283141",
          "name": "Simon Dufour"
        },
        {
          "authorId": "144383354",
          "name": "Carla Faria"
        },
        {
          "authorId": "2240305287",
          "name": "M. T. Ferreira"
        },
        {
          "authorId": "2266204005",
          "name": "Verónica Ferreira"
        },
        {
          "authorId": "2304260532",
          "name": "Roland Jansson"
        },
        {
          "authorId": "2304198491",
          "name": "Helena Machado"
        },
        {
          "authorId": "2281267438",
          "name": "B. Marçais"
        },
        {
          "authorId": "90285042",
          "name": "A. Moreira"
        },
        {
          "authorId": "2242439578",
          "name": "Jonàs Oliva"
        },
        {
          "authorId": "17114671",
          "name": "R. Pielech"
        },
        {
          "authorId": "2304391846",
          "name": "Ana P Rodrigues"
        },
        {
          "authorId": "2304212307",
          "name": "Teresa S David"
        },
        {
          "authorId": "52302786",
          "name": "A. Solla"
        },
        {
          "authorId": "2242645100",
          "name": "Thomas Jung"
        }
      ]
    },
    {
      "paperId": "b9229992c8c46f6d8a45a420a294e97776e25e4d",
      "externalIds": {
        "DBLP": "journals/jcgs/CaronBM22",
        "ArXiv": "2102.06573",
        "DOI": "10.1080/10618600.2022.2067549",
        "CorpusId": 244129907
      },
      "url": "https://www.semanticscholar.org/paper/b9229992c8c46f6d8a45a420a294e97776e25e4d",
      "title": "Shrinkage Bayesian Causal Forests for Heterogeneous Treatment Effects Estimation",
      "venue": "Journal of Computational And Graphical Statistics",
      "year": 2021,
      "referenceCount": 60,
      "citationCount": 22,
      "authors": [
        {
          "authorId": "1943347885",
          "name": "A. Caron"
        },
        {
          "authorId": "1903468",
          "name": "G. Baio"
        },
        {
          "authorId": "2273778",
          "name": "I. Manolopoulou"
        }
      ]
    },
    {
      "paperId": "e15fdfc16e98cb2cad51c1ee3358af848df4c507",
      "externalIds": {
        "DOI": "10.3389/ffgc.2021.752911",
        "CorpusId": 245133878
      },
      "url": "https://www.semanticscholar.org/paper/e15fdfc16e98cb2cad51c1ee3358af848df4c507",
      "title": "Hierarchical Bayesian Small Area Estimation Using Weakly Informative Priors in Ecologically Homogeneous Areas of the Interior Western Forests",
      "venue": "Frontiers in Forests and Global Change",
      "year": 2021,
      "referenceCount": 29,
      "citationCount": 14,
      "authors": [
        {
          "authorId": "2146992492",
          "name": "Grayson W. White"
        },
        {
          "authorId": "72669500",
          "name": "K. McConville"
        },
        {
          "authorId": "2889300",
          "name": "G. Moisen"
        },
        {
          "authorId": "6507118",
          "name": "T. Frescino"
        }
      ]
    },
    {
      "paperId": "73eb83a424099cbd56c85b98e186786c3801621d",
      "externalIds": {
        "MAG": "2979361511",
        "DOI": "10.1002/eap.2021",
        "CorpusId": 204331116,
        "PubMed": "31605557"
      },
      "url": "https://www.semanticscholar.org/paper/73eb83a424099cbd56c85b98e186786c3801621d",
      "title": "Bayesian calibration of a growth-dependent tree mortality model to simulate the dynamics of European temperate forests.",
      "venue": "Ecological Applications",
      "year": 2019,
      "referenceCount": 89,
      "citationCount": 20,
      "authors": [
        {
          "authorId": "4135424",
          "name": "M. Cailleret"
        },
        {
          "authorId": "14862329",
          "name": "Nicolas Bircher"
        },
        {
          "authorId": "144426040",
          "name": "Florian Hartig"
        },
        {
          "authorId": "8784736",
          "name": "L. Hülsmann"
        },
        {
          "authorId": "48680636",
          "name": "H. Bugmann"
        }
      ]
    },
    {
      "paperId": "09c6f746e86ed6a85bd395865df3c56078e4304e",
      "externalIds": {
        "PubMedCentral": "7027480",
        "MAG": "2952687176",
        "DOI": "10.1111/cobi.13370",
        "CorpusId": 195066979,
        "PubMed": "31216073"
      },
      "url": "https://www.semanticscholar.org/paper/09c6f746e86ed6a85bd395865df3c56078e4304e",
      "title": "A spatially explicit empirical model of structural development processes in natural forests based on climate and topography",
      "venue": "Conservation Biology",
      "year": 2019,
      "referenceCount": 72,
      "citationCount": 15,
      "authors": [
        {
          "authorId": "40281703",
          "name": "Y. Yamaura"
        },
        {
          "authorId": "2891341",
          "name": "D. Lindenmayer"
        },
        {
          "authorId": "50517182",
          "name": "Yusuke Yamada"
        },
        {
          "authorId": "2056848374",
          "name": "Hao Gong"
        },
        {
          "authorId": "4206859",
          "name": "T. Matsuura"
        },
        {
          "authorId": "4641367",
          "name": "Y. Mitsuda"
        },
        {
          "authorId": "5711917",
          "name": "T. Masaki"
        }
      ]
    },
    {
      "paperId": "0d3569891616ff47bd2e4cc9cfe8bb515bd74576",
      "externalIds": {
        "DOI": "10.1111/gcb.17317",
        "CorpusId": 269771863,
        "PubMed": "38747199"
      },
      "url": "https://www.semanticscholar.org/paper/0d3569891616ff47bd2e4cc9cfe8bb515bd74576",
      "title": "Damage to tropical forests caused by cyclones is driven by wind speed but mediated by topographical exposure and tree characteristics",
      "venue": "Global Change Biology",
      "year": 2024,
      "referenceCount": 112,
      "citationCount": 18,
      "authors": [
        {
          "authorId": "2233277282",
          "name": "Thomas Ibanez"
        },
        {
          "authorId": "2003313923",
          "name": "D. Bauman"
        },
        {
          "authorId": "2300745680",
          "name": "Shin‐ichiro Aiba"
        },
        {
          "authorId": "2279237971",
          "name": "Thomas Arsouze"
        },
        {
          "authorId": "5483534",
          "name": "P. Bellingham"
        },
        {
          "authorId": "2273144578",
          "name": "C. Birkinshaw"
        },
        {
          "authorId": "46756692",
          "name": "P. Birnbaum"
        },
        {
          "authorId": "2266130469",
          "name": "Timothy J. Curran"
        },
        {
          "authorId": "7008531",
          "name": "S. DeWalt"
        },
        {
          "authorId": "2018572575",
          "name": "J. Dwyer"
        },
        {
          "authorId": "2292819881",
          "name": "Thierry Fourcaud"
        },
        {
          "authorId": "2247259572",
          "name": "Janet Franklin"
        },
        {
          "authorId": "2243856448",
          "name": "Takashi S. Kohyama"
        },
        {
          "authorId": "2279240761",
          "name": "C. Menkès"
        },
        {
          "authorId": "35028494",
          "name": "D. Metcalfe"
        },
        {
          "authorId": "2301305064",
          "name": "Helen Murphy"
        },
        {
          "authorId": "49082485",
          "name": "Robert Muscarella"
        },
        {
          "authorId": "39839508",
          "name": "G. Plunkett"
        },
        {
          "authorId": "2284374605",
          "name": "Chanel Sam"
        },
        {
          "authorId": "2260671703",
          "name": "Edmund Tanner"
        },
        {
          "authorId": "2283691074",
          "name": "Benton N. Taylor"
        },
        {
          "authorId": "2258447781",
          "name": "Jill Thompson"
        },
        {
          "authorId": "2284377604",
          "name": "Tamara Ticktin"
        },
        {
          "authorId": "2284375924",
          "name": "Marika V Tuiwawa"
        },
        {
          "authorId": "2249560041",
          "name": "María Uriarte"
        },
        {
          "authorId": "2279018616",
          "name": "Edward L Webb"
        },
        {
          "authorId": "2248816826",
          "name": "Jess K. Zimmerman"
        },
        {
          "authorId": "40503077",
          "name": "G. Keppel"
        }
      ]
    },
    {
      "paperId": "9a782dd20c93712a145c78e2bcb8be7cbf3059d9",
      "externalIds": {
        "ArXiv": "2602.08774",
        "DBLP": "journals/corr/abs-2602-08774",
        "DOI": "10.48550/arXiv.2602.08774",
        "CorpusId": 285453319
      },
      "url": "https://www.semanticscholar.org/paper/9a782dd20c93712a145c78e2bcb8be7cbf3059d9",
      "title": "Default Machine Learning Hyperparameters Do Not Provide Informative Initialization for Bayesian Optimization",
      "venue": "arXiv.org",
      "year": 2026,
      "referenceCount": 19,
      "citationCount": 0,
      "authors": [
        {
          "authorId": "2235095173",
          "name": "Nicolas Prieto"
        },
        {
          "authorId": "2344832866",
          "name": "E. C. Garrido-Merch'an"
        }
      ]
    },
    {
      "paperId": "e9f7ada43280e38b2e31b6bf6043c52824ae46a7",
      "externalIds": {
        "DOI": "10.1111/1365-2664.14729",
        "CorpusId": 272043853
      },
      "url": "https://www.semanticscholar.org/paper/e9f7ada43280e38b2e31b6bf6043c52824ae46a7",
      "title": "Drivers of snag fall rates in Fennoscandian boreal forests",
      "venue": "Journal of Applied Ecology",
      "year": 2024,
      "referenceCount": 76,
      "citationCount": 2,
      "authors": [
        {
          "authorId": "2238443110",
          "name": "Tuomas Aakala"
        },
        {
          "authorId": "84199529",
          "name": "K. Storaunet"
        },
        {
          "authorId": "2250987021",
          "name": "B. Jonsson"
        },
        {
          "authorId": "2290168880",
          "name": "Kari T. Korhonen"
        }
      ]
    }
  ]
}