{
  "total": 162,
  "offset": 0,
  "next": 10,
  "data": [
    {
      "paperId": "d85623ffae865f9ef386644dd02d0ea2d6a8c8de",
      "externalIds": {
        "MAG": "2950683332",
        "ArXiv": "1806.06923",
        "DBLP": "journals/corr/abs-1806-06923",
        "CorpusId": 49309248
      },
      "url": "https://www.semanticscholar.org/paper/d85623ffae865f9ef386644dd02d0ea2d6a8c8de",
      "title": "Implicit Quantile Networks for Distributional Reinforcement Learning",
      "venue": "International Conference on Machine Learning",
      "year": 2018,
      "referenceCount": 49,
      "citationCount": 670,
      "authors": [
        {
          "authorId": "2605877",
          "name": "Will Dabney"
        },
        {
          "authorId": "2273072",
          "name": "Georg Ostrovski"
        },
        {
          "authorId": "145824029",
          "name": "David Silver"
        },
        {
          "authorId": "1708654",
          "name": "R. Munos"
        }
      ]
    },
    {
      "paperId": "232b43584b2236669c0a53702ad89ab10c3886ea",
      "externalIds": {
        "CorpusId": 260495050
      },
      "url": "https://www.semanticscholar.org/paper/232b43584b2236669c0a53702ad89ab10c3886ea",
      "title": "Implicit Quantile Networks for Distributional Reinforcement Learning",
      "venue": "",
      "year": 2018,
      "referenceCount": 0,
      "citationCount": 0,
      "authors": []
    },
    {
      "paperId": "cd8871051500e1f306b75dff3a6d45925149efca",
      "externalIds": {
        "DOI": "10.1109/AANN66429.2025.11257663",
        "CorpusId": 283476122
      },
      "url": "https://www.semanticscholar.org/paper/cd8871051500e1f306b75dff3a6d45925149efca",
      "title": "Safe Path Planning via Multi-Objective Distributional Reinforcement Learning",
      "venue": "2025 5th International Conference on Advanced Algorithms and Neural Networks (AANN)",
      "year": 2025,
      "referenceCount": 5,
      "citationCount": 0,
      "authors": [
        {
          "authorId": "2397394985",
          "name": "Yuanhao Wang"
        },
        {
          "authorId": "2328013680",
          "name": "Weihao Xia"
        },
        {
          "authorId": "2391462655",
          "name": "Kunpeng Ouyang"
        },
        {
          "authorId": "2392259039",
          "name": "Jianxin Lin"
        },
        {
          "authorId": "2328023251",
          "name": "Huachuan Wang"
        },
        {
          "authorId": "2284637240",
          "name": "Guo Zhang"
        }
      ]
    },
    {
      "paperId": "c659a8f32d23015af64ab5f73b08a2a5ead11632",
      "externalIds": {
        "DBLP": "conf/icdm/0003LTZQYZ21",
        "DOI": "10.1109/ICDM51629.2021.00202",
        "CorpusId": 246290848
      },
      "url": "https://www.semanticscholar.org/paper/c659a8f32d23015af64ab5f73b08a2a5ead11632",
      "title": "Multi-Objective Distributional Reinforcement Learning for Large-Scale Order Dispatching",
      "venue": "Industrial Conference on Data Mining",
      "year": 2021,
      "referenceCount": 27,
      "citationCount": 10,
      "authors": [
        {
          "authorId": "144315735",
          "name": "Fan Zhou"
        },
        {
          "authorId": "2152182785",
          "name": "Chenfan Lu"
        },
        {
          "authorId": "1959758",
          "name": "Xiaocheng Tang"
        },
        {
          "authorId": "2153307771",
          "name": "Fan Zhang"
        },
        {
          "authorId": "144559512",
          "name": "Zhiwei Qin"
        },
        {
          "authorId": "2778556",
          "name": "Jieping Ye"
        },
        {
          "authorId": "1505822711",
          "name": "Hongtu Zhu"
        }
      ]
    },
    {
      "paperId": "99be234a3062b2b3c6845f0d24f97828a39e102e",
      "externalIds": {
        "DBLP": "journals/corr/abs-2512-00030",
        "ArXiv": "2512.00030",
        "DOI": "10.48550/arXiv.2512.00030",
        "CorpusId": 283450035
      },
      "url": "https://www.semanticscholar.org/paper/99be234a3062b2b3c6845f0d24f97828a39e102e",
      "title": "Perturbation-mitigated USV Navigation with Distributionally Robust Reinforcement Learning",
      "venue": "arXiv.org",
      "year": 2025,
      "referenceCount": 34,
      "citationCount": 0,
      "authors": [
        {
          "authorId": "2397553849",
          "name": "Zhaofan Zhang"
        },
        {
          "authorId": "2284759507",
          "name": "Minghao Yang"
        },
        {
          "authorId": "2397432450",
          "name": "Sihong Xie"
        },
        {
          "authorId": "2397461755",
          "name": "Hui Xiong"
        }
      ]
    },
    {
      "paperId": "7cc48a91db783fb8a66b2bb6c0b92f87c2254317",
      "externalIds": {
        "DBLP": "journals/corr/abs-2105-08877",
        "ArXiv": "2105.08877",
        "CorpusId": 234777971
      },
      "url": "https://www.semanticscholar.org/paper/7cc48a91db783fb8a66b2bb6c0b92f87c2254317",
      "title": "Deep Reinforcement Learning for Optimal Stopping with Application in Financial Engineering",
      "venue": "arXiv.org",
      "year": 2021,
      "referenceCount": 28,
      "citationCount": 11,
      "authors": [
        {
          "authorId": "2097711464",
          "name": "A. Fathan"
        },
        {
          "authorId": "3203751",
          "name": "E. Delage"
        }
      ]
    },
    {
      "paperId": "4b76e297f6635cf4866f95d1b1f9e79658958a67",
      "externalIds": {
        "ArXiv": "2206.05860",
        "DBLP": "conf/icmla/LuoWHY22",
        "DOI": "10.1109/ICMLA55696.2022.00097",
        "CorpusId": 249626171
      },
      "url": "https://www.semanticscholar.org/paper/4b76e297f6635cf4866f95d1b1f9e79658958a67",
      "title": "IGN : Implicit Generative Networks",
      "venue": "International Conference on Machine Learning and Applications",
      "year": 2022,
      "referenceCount": 31,
      "citationCount": 1,
      "authors": [
        {
          "authorId": "1387720883",
          "name": "Haozheng Luo"
        },
        {
          "authorId": "144637279",
          "name": "Tianyi Wu"
        },
        {
          "authorId": "32885598",
          "name": "Feiyu Han"
        },
        {
          "authorId": "2110155689",
          "name": "Zhijun Yan"
        },
        {
          "authorId": "2279763896",
          "name": "Jianfeng Zhang"
        }
      ]
    },
    {
      "paperId": "b56b683e454134b585632fc27260a6498e20e855",
      "externalIds": {
        "DOI": "10.1109/ISIBER68248.2026.11470216",
        "CorpusId": 287546845
      },
      "url": "https://www.semanticscholar.org/paper/b56b683e454134b585632fc27260a6498e20e855",
      "title": "Risk-Aware Portfolio Optimization via Constrained Distributional Policy Gradient Methods",
      "venue": "2026 International Seminar on Intelligent Business and Edge-Computing Research (ISIBER)",
      "year": 2026,
      "referenceCount": 20,
      "citationCount": 0,
      "authors": [
        {
          "authorId": "51009491",
          "name": "N. Chockalingam"
        },
        {
          "authorId": "2430085066",
          "name": "Muthukrishnan Kirubakaran"
        },
        {
          "authorId": "2393153070",
          "name": "Sumit Saha"
        },
        {
          "authorId": "2401495895",
          "name": "Adithya Parthasarathy"
        },
        {
          "authorId": "2401511990",
          "name": "Kabilan Kannan"
        },
        {
          "authorId": "2397762959",
          "name": "Mayilsamy Palanigounder"
        },
        {
          "authorId": "2401829542",
          "name": "S. Carimireddy"
        },
        {
          "authorId": "2401827884",
          "name": "Suhas Malempati"
        }
      ]
    },
    {
      "paperId": "8248c6a477543d15db2045a58fdb3c94b1127de2",
      "externalIds": {
        "DBLP": "journals/corr/abs-2602-00587",
        "ArXiv": "2602.00587",
        "DOI": "10.48550/arXiv.2602.00587",
        "CorpusId": 285269700
      },
      "url": "https://www.semanticscholar.org/paper/8248c6a477543d15db2045a58fdb3c94b1127de2",
      "title": "Safe Langevin Soft Actor Critic",
      "venue": "arXiv.org",
      "year": 2026,
      "referenceCount": 33,
      "citationCount": 0,
      "authors": [
        {
          "authorId": "2399963723",
          "name": "Mahesh Keswani"
        },
        {
          "authorId": "2311410589",
          "name": "Samyak Jain"
        },
        {
          "authorId": "2323303083",
          "name": "Raunak Bhattacharyya"
        }
      ]
    },
    {
      "paperId": "28680c88fd19a49296765712ed36b7b56928643f",
      "externalIds": {
        "DBLP": "journals/corr/abs-2501-04421",
        "ArXiv": "2501.04421",
        "DOI": "10.48550/arXiv.2501.04421",
        "CorpusId": 275357840
      },
      "url": "https://www.semanticscholar.org/paper/28680c88fd19a49296765712ed36b7b56928643f",
      "title": "Risk-averse policies for natural gas futures trading using distributional reinforcement learning",
      "venue": "arXiv.org",
      "year": 2025,
      "referenceCount": 115,
      "citationCount": 3,
      "authors": [
        {
          "authorId": "2258280132",
          "name": "Félicien Hêche"
        },
        {
          "authorId": "2338999701",
          "name": "Biagio Nigro"
        },
        {
          "authorId": "2258285494",
          "name": "Oussama Barakat"
        },
        {
          "authorId": "2258280177",
          "name": "Stephan Robert-Nicoud"
        }
      ]
    }
  ]
}