{
  "total": 69809,
  "offset": 0,
  "next": 10,
  "data": [
    {
      "paperId": "1d4f70ef2418708dc0384fb7dd2bf3cb35155c4e",
      "externalIds": {
        "MAG": "2963203067",
        "DBLP": "conf/icml/DaumeKLM17",
        "ArXiv": "1606.04988",
        "CorpusId": 17764038
      },
      "url": "https://www.semanticscholar.org/paper/1d4f70ef2418708dc0384fb7dd2bf3cb35155c4e",
      "title": "Logarithmic Time One-Against-Some",
      "venue": "International Conference on Machine Learning",
      "year": 2016,
      "referenceCount": 29,
      "citationCount": 46,
      "authors": [
        {
          "authorId": "1722360",
          "name": "Hal Daumé"
        },
        {
          "authorId": "1830939",
          "name": "Nikos Karampatziakis"
        },
        {
          "authorId": "144162125",
          "name": "J. Langford"
        },
        {
          "authorId": "3040175",
          "name": "Paul Mineiro"
        }
      ]
    },
    {
      "paperId": "ea7a4da896f8fe0c28822dcf4d21089bda5cbfaa",
      "externalIds": {
        "DBLP": "journals/corr/abs-2602-05298",
        "ArXiv": "2602.05298",
        "DOI": "10.48550/arXiv.2602.05298",
        "CorpusId": 285303683
      },
      "url": "https://www.semanticscholar.org/paper/ea7a4da896f8fe0c28822dcf4d21089bda5cbfaa",
      "title": "Logarithmic-time Schedules for Scaling Language Models with Momentum",
      "venue": "arXiv.org",
      "year": 2026,
      "referenceCount": 0,
      "citationCount": 2,
      "authors": [
        {
          "authorId": "2169577739",
          "name": "Damien Ferbach"
        },
        {
          "authorId": "2303258621",
          "name": "Courtney Paquette"
        },
        {
          "authorId": "8150760",
          "name": "G. Gidel"
        },
        {
          "authorId": "2362716849",
          "name": "Katie Everett"
        },
        {
          "authorId": "2276619338",
          "name": "Elliot Paquette"
        }
      ]
    },
    {
      "paperId": "51756bc6e6fcc5bb3d2e2f845665491b2a17dda9",
      "externalIds": {
        "ArXiv": "2203.10532",
        "DBLP": "journals/imamci/ChorfiGMZ22",
        "DOI": "10.1093/imamci/dnac013",
        "CorpusId": 247594120
      },
      "url": "https://www.semanticscholar.org/paper/51756bc6e6fcc5bb3d2e2f845665491b2a17dda9",
      "title": "Logarithmic convexity and impulsive controllability for the one-dimensional heat equation with dynamic boundary conditions",
      "venue": "IMA Journal of Mathematical Control and Information",
      "year": 2022,
      "referenceCount": 37,
      "citationCount": 13,
      "authors": [
        {
          "authorId": "101376036",
          "name": "Salah-Eddine Chorfi"
        },
        {
          "authorId": "2156586244",
          "name": "G. E. Guermai"
        },
        {
          "authorId": "2382129",
          "name": "L. Maniar"
        },
        {
          "authorId": "1854396037",
          "name": "W. Zouhair"
        }
      ]
    },
    {
      "paperId": "f0f0e39de618dccabdd6f0b6685d195b502dc751",
      "externalIds": {
        "DBLP": "journals/eccc/Ko25a",
        "ArXiv": "2510.17717",
        "DOI": "10.48550/arXiv.2510.17717",
        "CorpusId": 282209840
      },
      "url": "https://www.semanticscholar.org/paper/f0f0e39de618dccabdd6f0b6685d195b502dc751",
      "title": "Unifying the Landscape of Super-Logarithmic Dynamic Cell-Probe Lower Bounds",
      "venue": "Electron. Colloquium Comput. Complex.",
      "year": 2025,
      "referenceCount": 32,
      "citationCount": 0,
      "authors": [
        {
          "authorId": "2329370994",
          "name": "Young Kun Ko"
        }
      ]
    },
    {
      "paperId": "3aaeb90488827ad7d183bff7be808aed4b19e589",
      "externalIds": {
        "MAG": "2610709310",
        "DOI": "10.1109/IC3I.2016.7918805",
        "CorpusId": 35932869
      },
      "url": "https://www.semanticscholar.org/paper/3aaeb90488827ad7d183bff7be808aed4b19e589",
      "title": "Big data classification with quantum multiclass SVM and quantum one-against-all approach",
      "venue": "International Conferences on Contemporary Computing and Informatics",
      "year": 2016,
      "referenceCount": 28,
      "citationCount": 19,
      "authors": [
        {
          "authorId": "10426887",
          "name": "Arit Kumar Bishwas"
        },
        {
          "authorId": "143948243",
          "name": "A. Mani"
        },
        {
          "authorId": "145940006",
          "name": "V. Palade"
        }
      ]
    },
    {
      "paperId": "98aac8a5c61805495acd014209c055a9e3b90982",
      "externalIds": {
        "DBLP": "journals/tinstmc/Zahiripour23",
        "DOI": "10.1177/01423312231152647",
        "CorpusId": 256858017
      },
      "url": "https://www.semanticscholar.org/paper/98aac8a5c61805495acd014209c055a9e3b90982",
      "title": "A logarithmic sliding mode controller for stochastic active suspension systems",
      "venue": "Transactions of the Institute of Measurement and Control",
      "year": 2023,
      "referenceCount": 40,
      "citationCount": 6,
      "authors": [
        {
          "authorId": "13353247",
          "name": "S. A. Zahiripour"
        }
      ]
    },
    {
      "paperId": "ee28a842775b30d90860092467117b4c22d10260",
      "externalIds": {
        "CorpusId": 18790690
      },
      "url": "https://www.semanticscholar.org/paper/ee28a842775b30d90860092467117b4c22d10260",
      "title": "A Logarithmic-time Updating Algorithm for Td() Learning",
      "venue": "",
      "year": 2007,
      "referenceCount": 13,
      "citationCount": 3,
      "authors": [
        {
          "authorId": "2056654617",
          "name": "Susumu Katayama"
        },
        {
          "authorId": "2110064306",
          "name": "S. Kobayashi"
        }
      ]
    },
    {
      "paperId": "8ef1ad734154b03ad922a6deb028475d9a7671ce",
      "externalIds": {
        "DBLP": "journals/corr/abs-2408-02269",
        "ArXiv": "2408.02269",
        "DOI": "10.1109/TNSE.2024.3439744",
        "CorpusId": 271709417
      },
      "url": "https://www.semanticscholar.org/paper/8ef1ad734154b03ad922a6deb028475d9a7671ce",
      "title": "Nonlinear Perturbation-Based Non-Convex Optimization Over Time-Varying Networks",
      "venue": "IEEE Transactions on Network Science and Engineering",
      "year": 2024,
      "referenceCount": 64,
      "citationCount": 21,
      "authors": [
        {
          "authorId": "2298289",
          "name": "Mohammadreza Doostmohammadian"
        },
        {
          "authorId": "3086550",
          "name": "Z. R. Gabidullina"
        },
        {
          "authorId": "2258572519",
          "name": "Hamid R. Rabiee"
        }
      ]
    },
    {
      "paperId": "58777d85b79267473ee5df1c6db1919a3a4d9fee",
      "externalIds": {
        "DBLP": "conf/eurocrypt/MorrisR14",
        "MAG": "2950154000",
        "DOI": "10.1007/978-3-642-55220-5_18",
        "CorpusId": 11568654
      },
      "url": "https://www.semanticscholar.org/paper/58777d85b79267473ee5df1c6db1919a3a4d9fee",
      "title": "Sometimes-Recurse Shuffle - Almost-Random Permutations in Logarithmic Expected Time",
      "venue": "International Conference on the Theory and Application of Cryptographic Techniques",
      "year": 2014,
      "referenceCount": 27,
      "citationCount": 34,
      "authors": [
        {
          "authorId": "144796149",
          "name": "Ben Morris"
        },
        {
          "authorId": "1719446",
          "name": "P. Rogaway"
        }
      ]
    },
    {
      "paperId": "8db8db06ae9330e4bbd9f9c40a2e4f9aa48274b1",
      "externalIds": {
        "ArXiv": "1903.04522",
        "MAG": "2921401540",
        "DOI": "10.1214/19-aihp1038",
        "CorpusId": 119132464
      },
      "url": "https://www.semanticscholar.org/paper/8db8db06ae9330e4bbd9f9c40a2e4f9aa48274b1",
      "title": "Stability of the logarithmic Sobolev inequality via the Föllmer process",
      "venue": "Annales De L Institut Henri Poincare-probabilites Et Statistiques",
      "year": 2019,
      "referenceCount": 30,
      "citationCount": 38,
      "authors": [
        {
          "authorId": "2315830",
          "name": "Ronen Eldan"
        },
        {
          "authorId": "2114554",
          "name": "Joseph Lehec"
        },
        {
          "authorId": "103071178",
          "name": "Yair Shenfeld"
        }
      ]
    }
  ]
}