{
  "total": 45425,
  "offset": 0,
  "next": 10,
  "data": [
    {
      "paperId": "956ec1080e779d407bd51af07e87efdce1f08f6b",
      "externalIds": {
        "MAG": "2131127051",
        "DBLP": "conf/icml/SteinhardtL15",
        "ArXiv": "1502.06665",
        "CorpusId": 909114
      },
      "url": "https://www.semanticscholar.org/paper/956ec1080e779d407bd51af07e87efdce1f08f6b",
      "title": "Reified Context Models",
      "venue": "International Conference on Machine Learning",
      "year": 2015,
      "referenceCount": 50,
      "citationCount": 4,
      "authors": [
        {
          "authorId": "5164568",
          "name": "J. Steinhardt"
        },
        {
          "authorId": "145419642",
          "name": "Percy Liang"
        }
      ]
    },
    {
      "paperId": "4ee89af11a1d93dc34b95a38e138c3787048bb4e",
      "externalIds": {
        "MAG": "2259597715",
        "DBLP": "conf/context/MettourisP15",
        "DOI": "10.1007/978-3-319-25591-0_9",
        "CorpusId": 37189603
      },
      "url": "https://www.semanticscholar.org/paper/4ee89af11a1d93dc34b95a38e138c3787048bb4e",
      "title": "Designing Context Models for CARS Incorporating Partially Observable Context",
      "venue": "Context",
      "year": 2015,
      "referenceCount": 15,
      "citationCount": 1,
      "authors": [
        {
          "authorId": "1803175",
          "name": "C. Mettouris"
        },
        {
          "authorId": "1705255",
          "name": "G. A. Papadopoulos"
        }
      ]
    },
    {
      "paperId": "0ae2865b72e5796ce7388c30ec086fa36f251aea",
      "externalIds": {
        "DBLP": "journals/tip/Llinas15",
        "MAG": "2088133079",
        "DOI": "10.1109/TIP.2014.2370937",
        "CorpusId": 17663078,
        "PubMed": "25415984"
      },
      "url": "https://www.semanticscholar.org/paper/0ae2865b72e5796ce7388c30ec086fa36f251aea",
      "title": "Entropy-Based Evaluation of Context Models for Wavelet-Transformed Images",
      "venue": "IEEE Transactions on Image Processing",
      "year": 2015,
      "referenceCount": 37,
      "citationCount": 11,
      "authors": [
        {
          "authorId": "1787745",
          "name": "Francesc Aulí Llinàs"
        }
      ]
    },
    {
      "paperId": "51d11d4c5447e861054ac15cc0da30d80e4bd53f",
      "externalIds": {
        "DBLP": "conf/models/PiechnickPGPA15",
        "MAG": "2403408544",
        "CorpusId": 18540137
      },
      "url": "https://www.semanticscholar.org/paper/51d11d4c5447e861054ac15cc0da30d80e4bd53f",
      "title": "Managing Distributed Context Models Requires Adaptivity too",
      "venue": "Models@run.time",
      "year": 2015,
      "referenceCount": 21,
      "citationCount": 3,
      "authors": [
        {
          "authorId": "2210007",
          "name": "C. Piechnick"
        },
        {
          "authorId": "3008391",
          "name": "M. Piechnick"
        },
        {
          "authorId": "11139427",
          "name": "Sebastian Götz"
        },
        {
          "authorId": "47937814",
          "name": "Georg Püschel"
        },
        {
          "authorId": "143681675",
          "name": "U. Assmann"
        }
      ]
    },
    {
      "paperId": "d94ab593eb0121a9d4e870619a41859f91e7a324",
      "externalIds": {
        "DBLP": "journals/corr/Volkovs15",
        "MAG": "2296114340",
        "ArXiv": "1502.00527",
        "CorpusId": 6643520
      },
      "url": "https://www.semanticscholar.org/paper/d94ab593eb0121a9d4e870619a41859f91e7a324",
      "title": "Context Models For Web Search Personalization",
      "venue": "arXiv.org",
      "year": 2015,
      "referenceCount": 20,
      "citationCount": 24,
      "authors": [
        {
          "authorId": "1765951",
          "name": "M. Volkovs"
        }
      ]
    },
    {
      "paperId": "958e72707e9154ca7609337bf7923e793c3ec917",
      "externalIds": {
        "DBLP": "conf/icassp/SheikhIFL15",
        "MAG": "1524340867",
        "DOI": "10.1109/ICASSP.2015.7178981",
        "CorpusId": 14446022
      },
      "url": "https://www.semanticscholar.org/paper/958e72707e9154ca7609337bf7923e793c3ec917",
      "title": "OOV Proper Name retrieval using topic and lexical context models",
      "venue": "IEEE International Conference on Acoustics, Speech, and Signal Processing",
      "year": 2015,
      "referenceCount": 26,
      "citationCount": 15,
      "authors": [
        {
          "authorId": "40410812",
          "name": "Imran A. Sheikh"
        },
        {
          "authorId": "1696945",
          "name": "I. Illina"
        },
        {
          "authorId": "144218727",
          "name": "D. Fohr"
        },
        {
          "authorId": "145252379",
          "name": "Georges Linarès"
        }
      ]
    },
    {
      "paperId": "ab712ba900c832c15a11de9ac85504796de534b5",
      "externalIds": {
        "MAG": "2398236272",
        "DBLP": "conf/istar/AbadCP15",
        "CorpusId": 7484073
      },
      "url": "https://www.semanticscholar.org/paper/ab712ba900c832c15a11de9ac85504796de534b5",
      "title": "iStar in Practice: On the Identification of Reusable SD Context Models Elements",
      "venue": "International i* Workshop",
      "year": 2015,
      "referenceCount": 6,
      "citationCount": 10,
      "authors": [
        {
          "authorId": "3242321",
          "name": "Karina Abad"
        },
        {
          "authorId": "1796613",
          "name": "J. Carvallo"
        },
        {
          "authorId": "2053064827",
          "name": "C. Peña"
        }
      ]
    },
    {
      "paperId": "d801953027562385a458da4595b5e4f1f05ecdd5",
      "externalIds": {
        "MAG": "1586628000",
        "DBLP": "conf/isbi/KimWGS15",
        "DOI": "10.1109/ISBI.2015.7164176",
        "CorpusId": 22421335,
        "PubMed": "26405507"
      },
      "url": "https://www.semanticscholar.org/paper/d801953027562385a458da4595b5e4f1f05ecdd5",
      "title": "Joint labeling of multiple regions of interest (ROIS) by enhanced auto context models",
      "venue": "IEEE International Symposium on Biomedical Imaging",
      "year": 2015,
      "referenceCount": 8,
      "citationCount": 2,
      "authors": [
        {
          "authorId": "1763122",
          "name": "Minjeong Kim"
        },
        {
          "authorId": "46531894",
          "name": "Guorong Wu"
        },
        {
          "authorId": "8280010",
          "name": "Yanrong Guo"
        },
        {
          "authorId": "144986260",
          "name": "D. Shen"
        }
      ]
    },
    {
      "paperId": "7f5fc84819c0cf94b771fe15141f65b123f7b8ec",
      "externalIds": {
        "ArXiv": "1511.07122",
        "DBLP": "journals/corr/YuK15",
        "MAG": "2286929393",
        "CorpusId": 17127188
      },
      "url": "https://www.semanticscholar.org/paper/7f5fc84819c0cf94b771fe15141f65b123f7b8ec",
      "title": "Multi-Scale Context Aggregation by Dilated Convolutions",
      "venue": "International Conference on Learning Representations",
      "year": 2015,
      "referenceCount": 40,
      "citationCount": 9297,
      "authors": [
        {
          "authorId": "1807197",
          "name": "F. Yu"
        },
        {
          "authorId": "145231047",
          "name": "V. Koltun"
        }
      ]
    },
    {
      "paperId": "f6c1d2a6d55bfe585b4b7c56209213ad1dbc6d33",
      "externalIds": {
        "MAG": "1986814656",
        "DOI": "10.1007/S11831-014-9115-Y",
        "CorpusId": 120020695
      },
      "url": "https://www.semanticscholar.org/paper/f6c1d2a6d55bfe585b4b7c56209213ad1dbc6d33",
      "title": "The Finite Cell Method: A Review in the Context of Higher-Order Structural Analysis of CAD and Image-Based Geometric Models",
      "venue": "",
      "year": 2015,
      "referenceCount": 219,
      "citationCount": 342,
      "authors": [
        {
          "authorId": "1949574",
          "name": "D. Schillinger"
        },
        {
          "authorId": "2548867",
          "name": "M. Ruess"
        }
      ]
    }
  ]
}