{
  "total": 64,
  "offset": 0,
  "next": 10,
  "data": [
    {
      "paperId": "e2c3be5e7afca27e71f984fef30bb351980c27a2",
      "externalIds": {
        "MAG": "2951228652",
        "ArXiv": "1504.03991",
        "DBLP": "journals/corr/Yang0JZ15",
        "CorpusId": 15832672
      },
      "url": "https://www.semanticscholar.org/paper/e2c3be5e7afca27e71f984fef30bb351980c27a2",
      "title": "Theory of Dual-sparse Regularized Randomized Reduction",
      "venue": "International Conference on Machine Learning",
      "year": 2015,
      "referenceCount": 48,
      "citationCount": 12,
      "authors": [
        {
          "authorId": "40381920",
          "name": "Tianbao Yang"
        },
        {
          "authorId": "2108876951",
          "name": "Lijun Zhang"
        },
        {
          "authorId": "144723884",
          "name": "Rong Jin"
        },
        {
          "authorId": "1682028",
          "name": "Shenghuo Zhu"
        }
      ]
    },
    {
      "paperId": "a338ded3aaad1f11bcdc1b849cf4e48be94e31a1",
      "externalIds": {
        "MAG": "2807932639",
        "DBLP": "conf/ijcai/YaoZPC18",
        "DOI": "10.24963/ijcai.2018/417",
        "CorpusId": 51607320
      },
      "url": "https://www.semanticscholar.org/paper/a338ded3aaad1f11bcdc1b849cf4e48be94e31a1",
      "title": "High-dimensional Similarity Learning via Dual-sparse Random Projection",
      "venue": "International Joint Conference on Artificial Intelligence",
      "year": 2018,
      "referenceCount": 19,
      "citationCount": 6,
      "authors": [
        {
          "authorId": "1711953",
          "name": "Dezhong Yao"
        },
        {
          "authorId": "144259957",
          "name": "P. Zhao"
        },
        {
          "authorId": "2542882",
          "name": "T. Pham"
        },
        {
          "authorId": "144145211",
          "name": "G. Cong"
        }
      ]
    },
    {
      "paperId": "0257d2706199b5331a803d6ff455aeefb10e0a3c",
      "externalIds": {
        "MAG": "3009008847",
        "DBLP": "journals/tcbb/WangYWGLW21",
        "DOI": "10.1109/tcbb.2020.2975173",
        "CorpusId": 211246704,
        "PubMed": "32086220"
      },
      "url": "https://www.semanticscholar.org/paper/0257d2706199b5331a803d6ff455aeefb10e0a3c",
      "title": "Dual Hyper-Graph Regularized Supervised NMF for Selecting Differentially Expressed Genes and Tumor Classification",
      "venue": "IEEE/ACM Transactions on Computational Biology & Bioinformatics",
      "year": 2020,
      "referenceCount": 0,
      "citationCount": 15,
      "authors": [
        {
          "authorId": "2109150869",
          "name": "Chuan-yuan Wang"
        },
        {
          "authorId": "49191925",
          "name": "Na Yu"
        },
        {
          "authorId": "152312712",
          "name": "Ming-Juan Wu"
        },
        {
          "authorId": "3240355",
          "name": "Ying-Lian Gao"
        },
        {
          "authorId": "2650895",
          "name": "Jin-Xing Liu"
        },
        {
          "authorId": "48093292",
          "name": "Juan Wang"
        }
      ]
    },
    {
      "paperId": "ff9ac995c1b25b477ab543dbaa2457a39de5667c",
      "externalIds": {
        "MAG": "2029440826",
        "DBLP": "journals/lgrs/YangJYXJ14",
        "DOI": "10.1109/LGRS.2013.2253443",
        "CorpusId": 24127686
      },
      "url": "https://www.semanticscholar.org/paper/ff9ac995c1b25b477ab543dbaa2457a39de5667c",
      "title": "Compressive Sensing-Inspired Dual-Sparse SLFNN for Hyperspectral Imagery Classification",
      "venue": "IEEE Geoscience and Remote Sensing Letters",
      "year": 2014,
      "referenceCount": 25,
      "citationCount": 8,
      "authors": [
        {
          "authorId": "1702138",
          "name": "Shuyuan Yang"
        },
        {
          "authorId": "2109977480",
          "name": "Honghong Jin"
        },
        {
          "authorId": "49576058",
          "name": "Lixia Yang"
        },
        {
          "authorId": "2152923014",
          "name": "Wenhui Xu"
        },
        {
          "authorId": "144125122",
          "name": "L. Jiao"
        }
      ]
    },
    {
      "paperId": "0dc1ad7a7911904e3686aaf876966d782c7eb770",
      "externalIds": {
        "DBLP": "journals/jscic/TangW21",
        "DOI": "10.1007/s10915-021-01489-w",
        "CorpusId": 234500725
      },
      "url": "https://www.semanticscholar.org/paper/0dc1ad7a7911904e3686aaf876966d782c7eb770",
      "title": "Orthogonal Dual Graph-Regularized Nonnegative Matrix Factorization for Co-Clustering",
      "venue": "Journal of Scientific Computing",
      "year": 2021,
      "referenceCount": 42,
      "citationCount": 24,
      "authors": [
        {
          "authorId": "2115855659",
          "name": "Jiayi Tang"
        },
        {
          "authorId": "144367603",
          "name": "Zhong Wan"
        }
      ]
    },
    {
      "paperId": "d0506ec50e3fdec00f35268a8ddf434084f452b9",
      "externalIds": {
        "DBLP": "journals/corr/0005YJZ15c",
        "MAG": "2249065054",
        "ArXiv": "1511.03766",
        "DOI": "10.1007/978-3-319-46379-7_6",
        "CorpusId": 7036538
      },
      "url": "https://www.semanticscholar.org/paper/d0506ec50e3fdec00f35268a8ddf434084f452b9",
      "title": "Sparse Learning for Large-Scale and High-Dimensional Data: A Randomized Convex-Concave Optimization Approach",
      "venue": "International Conference on Algorithmic Learning Theory",
      "year": 2015,
      "referenceCount": 40,
      "citationCount": 5,
      "authors": [
        {
          "authorId": "2108876951",
          "name": "Lijun Zhang"
        },
        {
          "authorId": "40381920",
          "name": "Tianbao Yang"
        },
        {
          "authorId": "144723884",
          "name": "Rong Jin"
        },
        {
          "authorId": "145624000",
          "name": "Zhi-Hua Zhou"
        }
      ]
    },
    {
      "paperId": "a331b978a21b43b53e84532d96cec67c218c4951",
      "externalIds": {
        "CorpusId": 259940160
      },
      "url": "https://www.semanticscholar.org/paper/a331b978a21b43b53e84532d96cec67c218c4951",
      "title": "Novel reconstruction of low-dose DCP-CT images using a regularized least-squares method based on voxel-level TAC correction (RLS-VC)",
      "venue": "",
      "year": 2022,
      "referenceCount": 39,
      "citationCount": 0,
      "authors": [
        {
          "authorId": "2117097635",
          "name": "Zixiang Chen"
        },
        {
          "authorId": "2118799024",
          "name": "Ying Huang"
        },
        {
          "authorId": "2153284038",
          "name": "Na Zhang"
        },
        {
          "authorId": "2145012282",
          "name": "Qiyang Zhang"
        },
        {
          "authorId": "120464299",
          "name": "Kai-Chieh Liang"
        },
        {
          "authorId": "38694330",
          "name": "Guotao Quan"
        },
        {
          "authorId": "152416989",
          "name": "Xiang"
        },
        {
          "authorId": "2146703952",
          "name": "Li"
        },
        {
          "authorId": "2024788161",
          "name": "Zhenxing Huang"
        },
        {
          "authorId": "2113983936",
          "name": "Dong Liang"
        },
        {
          "authorId": "3092244",
          "name": "Zhanli Hu"
        }
      ]
    },
    {
      "paperId": "50f2d56785f80a8b771fd204b7f8b269040fdab3",
      "externalIds": {
        "DBLP": "journals/mp/DeyMW23",
        "ArXiv": "2010.11152",
        "DOI": "10.1007/s10107-022-01857-w",
        "CorpusId": 248666094
      },
      "url": "https://www.semanticscholar.org/paper/50f2d56785f80a8b771fd204b7f8b269040fdab3",
      "title": "Solving sparse principal component analysis with global support",
      "venue": "Mathematical programming",
      "year": 2020,
      "referenceCount": 56,
      "citationCount": 13,
      "authors": [
        {
          "authorId": "1726793",
          "name": "Santanu S. Dey"
        },
        {
          "authorId": "11927151",
          "name": "M. Molinaro"
        },
        {
          "authorId": "2230843",
          "name": "Guanyi Wang"
        }
      ]
    },
    {
      "paperId": "2652972f5b241f2bf7b6899d717e939f7bd06698",
      "externalIds": {
        "DBLP": "journals/access/KhanIKASKASJ24",
        "DOI": "10.1109/ACCESS.2024.3398555",
        "CorpusId": 269671556
      },
      "url": "https://www.semanticscholar.org/paper/2652972f5b241f2bf7b6899d717e939f7bd06698",
      "title": "Detecting Anomalies in Attributed Networks Through Sparse Canonical Correlation Analysis Combined With Random Masking and Padding",
      "venue": "IEEE Access",
      "year": 2024,
      "referenceCount": 68,
      "citationCount": 27,
      "authors": [
        {
          "authorId": "153301934",
          "name": "Wasim Khan"
        },
        {
          "authorId": "2180071249",
          "name": "Mohammad Ishrat"
        },
        {
          "authorId": "2300519672",
          "name": "Ahmad Neyaz Khan"
        },
        {
          "authorId": "2265194778",
          "name": "Mohammad Arif"
        },
        {
          "authorId": "2265103506",
          "name": "Anwar Ahamed Shaikh"
        },
        {
          "authorId": "1571262697",
          "name": "M. Khubrani"
        },
        {
          "authorId": "2068848160",
          "name": "Shadab Alam"
        },
        {
          "authorId": "2065563657",
          "name": "Mohammed Shuaib"
        },
        {
          "authorId": "2170386808",
          "name": "Rajan John"
        }
      ]
    },
    {
      "paperId": "864b90771fd4b7aca93924d0b234ab1d34b624ad",
      "externalIds": {
        "DOI": "10.3397/in_2024_1813",
        "CorpusId": 273286266
      },
      "url": "https://www.semanticscholar.org/paper/864b90771fd4b7aca93924d0b234ab1d34b624ad",
      "title": "A robust force identification method based on L1+2-norm approximation theory",
      "venue": "INTER-NOISE and NOISE-CON Congress and Conference Proceedings",
      "year": 2024,
      "referenceCount": 0,
      "citationCount": 0,
      "authors": [
        {
          "authorId": "2293024952",
          "name": "Chao Zhang"
        },
        {
          "authorId": "2150196578",
          "name": "Hong Meng"
        },
        {
          "authorId": "2281797203",
          "name": "Chengjun Wu"
        }
      ]
    }
  ]
}