{
  "total": 11134,
  "offset": 0,
  "next": 10,
  "data": [
    {
      "paperId": "1aa5b79f4076e7fecf3fb601d82d41533d8c40b1",
      "externalIds": {
        "MAG": "2787606899",
        "DBLP": "conf/icml/WangLS18",
        "ArXiv": "1802.03430",
        "CorpusId": 28708280
      },
      "url": "https://www.semanticscholar.org/paper/1aa5b79f4076e7fecf3fb601d82d41533d8c40b1",
      "title": "Coded Sparse Matrix Multiplication",
      "venue": "International Conference on Machine Learning",
      "year": 2018,
      "referenceCount": 23,
      "citationCount": 133,
      "authors": [
        {
          "authorId": "2096387",
          "name": "Sinong Wang"
        },
        {
          "authorId": "2668853",
          "name": "Jiashang Liu"
        },
        {
          "authorId": "1750487",
          "name": "N. Shroff"
        }
      ]
    },
    {
      "paperId": "8a3237993ec44880b1eace07794650aad3c8e04d",
      "externalIds": {
        "PubMedCentral": "12736437",
        "DOI": "10.3390/s25247479",
        "CorpusId": 283865703,
        "PubMed": "41471474"
      },
      "url": "https://www.semanticscholar.org/paper/8a3237993ec44880b1eace07794650aad3c8e04d",
      "title": "Coded Aperture Optimization in X-Ray Computed Tomography via Sparse Covariance Matrix Estimation",
      "venue": "Italian National Conference on Sensors",
      "year": 2025,
      "referenceCount": 22,
      "citationCount": 0,
      "authors": [
        {
          "authorId": "2299395308",
          "name": "Yuqi Jiang"
        },
        {
          "authorId": "2363608870",
          "name": "Tianyi Mao"
        },
        {
          "authorId": "2299188666",
          "name": "Jianyong Zhou"
        },
        {
          "authorId": "2393808874",
          "name": "Qile Zhao"
        },
        {
          "authorId": "2424602508",
          "name": "Junhao Yin"
        },
        {
          "authorId": "2250735656",
          "name": "X. Yi"
        },
        {
          "authorId": "2398874192",
          "name": "Haiyou Wu"
        }
      ]
    },
    {
      "paperId": "f3c3a2ac7f7e0e216ccb9aeb0cc88a885d338773",
      "externalIds": {
        "DBLP": "journals/tcom/LinHLC24",
        "DOI": "10.1109/TCOMM.2023.3326193",
        "CorpusId": 264396182
      },
      "url": "https://www.semanticscholar.org/paper/f3c3a2ac7f7e0e216ccb9aeb0cc88a885d338773",
      "title": "Coded Distributed Multiplication for Matrices of Different Sparsity Levels",
      "venue": "IEEE Transactions on Communications",
      "year": 2024,
      "referenceCount": 29,
      "citationCount": 2,
      "authors": [
        {
          "authorId": "2151881300",
          "name": "Jia-An Lin"
        },
        {
          "authorId": "2206553340",
          "name": "Yu-Chih Huang"
        },
        {
          "authorId": "2497689",
          "name": "Ming-Chun Lee"
        },
        {
          "authorId": "2211687397",
          "name": "Po-Ning Chen"
        }
      ]
    },
    {
      "paperId": "d67ba386b9fcc68dd6737fe3315883d54d750daf",
      "externalIds": {
        "MAG": "3177800030",
        "DOI": "10.14733/CADAPS.2022.S4.157-168",
        "CorpusId": 237769269
      },
      "url": "https://www.semanticscholar.org/paper/d67ba386b9fcc68dd6737fe3315883d54d750daf",
      "title": "Synthetic Sparse Matrix Algorithm for Computer Aided Circuit Analysis",
      "venue": "Computer-Aided Design and Applications",
      "year": 2021,
      "referenceCount": 9,
      "citationCount": 0,
      "authors": [
        {
          "authorId": "2116676388",
          "name": "Hongwei Zhang"
        },
        {
          "authorId": "2061270517",
          "name": "Fenghui Cao"
        }
      ]
    },
    {
      "paperId": "04bc3a4f2fa53b88627a96b3bf31e2fde0545d31",
      "externalIds": {
        "DBLP": "conf/isit/CaoYLZ22",
        "DOI": "10.1109/ISIT50566.2022.9834506",
        "CorpusId": 251325279
      },
      "url": "https://www.semanticscholar.org/paper/04bc3a4f2fa53b88627a96b3bf31e2fde0545d31",
      "title": "A New Coding Scheme for Matrix-Vector Multiplication via Universal Decodable Matrices",
      "venue": "International Symposium on Information Theory",
      "year": 2022,
      "referenceCount": 9,
      "citationCount": 0,
      "authors": [
        {
          "authorId": "81625994",
          "name": "Hongru Cao"
        },
        {
          "authorId": "2117116545",
          "name": "Wei Yan"
        },
        {
          "authorId": "1799073",
          "name": "Sian-Jheng Lin"
        },
        {
          "authorId": "47528018",
          "name": "Weiming Zhang"
        }
      ]
    },
    {
      "paperId": "3df3f58a22def4bbb09bfb1ca2cea220ab348cec",
      "externalIds": {
        "MAG": "2976462019",
        "DBLP": "journals/corr/abs-1901-10674",
        "ArXiv": "1901.10674",
        "DOI": "10.1109/ISIT.2019.8849451",
        "CorpusId": 59413846
      },
      "url": "https://www.semanticscholar.org/paper/3df3f58a22def4bbb09bfb1ca2cea220ab348cec",
      "title": "Universally Decodable Matrices for Distributed Matrix-Vector Multiplication",
      "venue": "International Symposium on Information Theory",
      "year": 2019,
      "referenceCount": 17,
      "citationCount": 52,
      "authors": [
        {
          "authorId": "145073507",
          "name": "Aditya Ramamoorthy"
        },
        {
          "authorId": "145849872",
          "name": "Li Tang"
        },
        {
          "authorId": "2566577",
          "name": "P. Vontobel"
        }
      ]
    },
    {
      "paperId": "f4876a0861ada7396e386d7af48f2dbef8708b54",
      "externalIds": {
        "DBLP": "journals/tcom/FangCCW25",
        "DOI": "10.1109/TCOMM.2025.3529253",
        "CorpusId": 275534546
      },
      "url": "https://www.semanticscholar.org/paper/f4876a0861ada7396e386d7af48f2dbef8708b54",
      "title": "Wireless Merged-r LT Coded Computation: A Low-Latency Design for Non-Linear Tasks",
      "venue": "IEEE Transactions on Communications",
      "year": 2025,
      "referenceCount": 46,
      "citationCount": 0,
      "authors": [
        {
          "authorId": "2171693023",
          "name": "Borui Fang"
        },
        {
          "authorId": "2207698125",
          "name": "Li Chen"
        },
        {
          "authorId": "2243184240",
          "name": "Yunfei Chen"
        },
        {
          "authorId": "2333792388",
          "name": "Weidong Wang"
        }
      ]
    },
    {
      "paperId": "fbb4f4f10838a93fd6cbff82f0b82af74f54678c",
      "externalIds": {
        "DOI": "10.1109/ICCISc52257.2021.9484952",
        "CorpusId": 236191581
      },
      "url": "https://www.semanticscholar.org/paper/fbb4f4f10838a93fd6cbff82f0b82af74f54678c",
      "title": "Implementation of Sparse Ramanujan Sequence (SRS) based transforms in FPGA",
      "venue": "2021 International Conference on Communication, Control and Information Sciences (ICCISc)",
      "year": 2021,
      "referenceCount": 0,
      "citationCount": 3,
      "authors": [
        {
          "authorId": "32258362",
          "name": "Deepa Abraham"
        },
        {
          "authorId": "32190380",
          "name": "Manju Manuel"
        }
      ]
    },
    {
      "paperId": "319d731cacbb7c01ed0c2da6b007222910e2e3f9",
      "externalIds": {
        "MAG": "2378129060",
        "DOI": "10.3724/sp.j.1087.2013.00825",
        "CorpusId": 64243023
      },
      "url": "https://www.semanticscholar.org/paper/319d731cacbb7c01ed0c2da6b007222910e2e3f9",
      "title": "GPU-based preconditioned conjugate gradient method for solving sparse linear systems",
      "venue": "",
      "year": 2013,
      "referenceCount": 0,
      "citationCount": 4,
      "authors": [
        {
          "authorId": "71585766",
          "name": "Shen Defei"
        }
      ]
    },
    {
      "paperId": "79037ca98a83da3286043779c169cf6a6bf5736a",
      "externalIds": {
        "MAG": "44020937",
        "DBLP": "conf/iccsa/HerreroN06",
        "DOI": "10.1007/11751649_84",
        "CorpusId": 6422127
      },
      "url": "https://www.semanticscholar.org/paper/79037ca98a83da3286043779c169cf6a6bf5736a",
      "title": "Compiler-Optimized Kernels: An Efficient Alternative to Hand-Coded Inner Kernels",
      "venue": "Communication Systems and Applications",
      "year": 2006,
      "referenceCount": 22,
      "citationCount": 14,
      "authors": [
        {
          "authorId": "144877582",
          "name": "J. Herrero"
        },
        {
          "authorId": "145591572",
          "name": "J. Navarro"
        }
      ]
    }
  ]
}