{
  "total": 68,
  "offset": 0,
  "next": 10,
  "data": [
    {
      "paperId": "7340f090f8a0df5b109682e9f6d57e4b8ca1a2f7",
      "externalIds": {
        "ArXiv": "1502.02791",
        "DBLP": "journals/corr/Long015",
        "MAG": "2951670162",
        "CorpusId": 556999
      },
      "url": "https://www.semanticscholar.org/paper/7340f090f8a0df5b109682e9f6d57e4b8ca1a2f7",
      "title": "Learning Transferable Features with Deep Adaptation Networks",
      "venue": "International Conference on Machine Learning",
      "year": 2015,
      "referenceCount": 36,
      "citationCount": 5810,
      "authors": [
        {
          "authorId": "35776445",
          "name": "Mingsheng Long"
        },
        {
          "authorId": "2146174097",
          "name": "Yue Cao"
        },
        {
          "authorId": "2144499343",
          "name": "Jianmin Wang"
        },
        {
          "authorId": "1694621",
          "name": "Michael I. Jordan"
        }
      ]
    },
    {
      "paperId": "7c61efd58584451b8988c42f2b7006eddbb291f1",
      "externalIds": {
        "MAG": "582055897",
        "DBLP": "journals/corr/Long015a",
        "ArXiv": "1506.02117",
        "CorpusId": 17901965
      },
      "url": "https://www.semanticscholar.org/paper/7c61efd58584451b8988c42f2b7006eddbb291f1",
      "title": "Learning Multiple Tasks with Deep Relationship Networks",
      "venue": "arXiv.org",
      "year": 2015,
      "referenceCount": 39,
      "citationCount": 98,
      "authors": [
        {
          "authorId": "35776445",
          "name": "Mingsheng Long"
        },
        {
          "authorId": "2144499343",
          "name": "Jianmin Wang"
        }
      ]
    },
    {
      "paperId": "b5e026cad0edafc75b607c4b2d782cafcf692ed4",
      "externalIds": {
        "ACL": "Q15-1020",
        "MAG": "1907444042",
        "DBLP": "journals/tacl/YangZZ15",
        "DOI": "10.1162/tacl_a_00138",
        "CorpusId": 580138
      },
      "url": "https://www.semanticscholar.org/paper/b5e026cad0edafc75b607c4b2d782cafcf692ed4",
      "title": "Domain Adaptation for Syntactic and Semantic Dependency Parsing Using Deep Belief Networks",
      "venue": "Transactions of the Association for Computational Linguistics",
      "year": 2015,
      "referenceCount": 36,
      "citationCount": 14,
      "authors": [
        {
          "authorId": "3292660",
          "name": "Haitong Yang"
        },
        {
          "authorId": "2176400637",
          "name": "Zhu Tao"
        },
        {
          "authorId": "2423168",
          "name": "Chengqing Zong"
        }
      ]
    },
    {
      "paperId": "bcf2710d46941695e421226372397c9544994214",
      "externalIds": {
        "DBLP": "conf/icnc/XuCZMX15",
        "MAG": "2247689392",
        "DOI": "10.1109/ICNC.2015.7378076",
        "CorpusId": 7361502
      },
      "url": "https://www.semanticscholar.org/paper/bcf2710d46941695e421226372397c9544994214",
      "title": "Facial expression recognition based on transfer learning from deep convolutional networks",
      "venue": "International Conference on Computing, Networking and Communications",
      "year": 2015,
      "referenceCount": 27,
      "citationCount": 64,
      "authors": [
        {
          "authorId": "73677996",
          "name": "Maopeng Xu"
        },
        {
          "authorId": "2116792998",
          "name": "Wei Cheng"
        },
        {
          "authorId": "145268615",
          "name": "Qian Zhao"
        },
        {
          "authorId": "2109876906",
          "name": "Li Ma"
        },
        {
          "authorId": "48101451",
          "name": "Fang Xu"
        }
      ]
    },
    {
      "paperId": "842ca93d770edef147e9ca117e1c0294a596cb82",
      "externalIds": {
        "MAG": "2098676252",
        "DBLP": "journals/remotesensing/HuXHZ15",
        "DOI": "10.3390/rs71114680",
        "CorpusId": 13079847
      },
      "url": "https://www.semanticscholar.org/paper/842ca93d770edef147e9ca117e1c0294a596cb82",
      "title": "Transferring Deep Convolutional Neural Networks for the Scene Classification of High-Resolution Remote Sensing Imagery",
      "venue": "Remote Sensing",
      "year": 2015,
      "referenceCount": 62,
      "citationCount": 1138,
      "authors": [
        {
          "authorId": "144322708",
          "name": "Fan Hu"
        },
        {
          "authorId": "39943835",
          "name": "Gui-Song Xia"
        },
        {
          "authorId": "49268477",
          "name": "Jingwen Hu"
        },
        {
          "authorId": "9802604",
          "name": "Liangpei Zhang"
        }
      ]
    },
    {
      "paperId": "a04622cfd1154dd6dc04591cbb25188207bc6142",
      "externalIds": {
        "DBLP": "journals/corr/XieJBLE15",
        "ArXiv": "1510.00098",
        "MAG": "2196197460",
        "DOI": "10.1609/aaai.v30i1.9906",
        "CorpusId": 14143441
      },
      "url": "https://www.semanticscholar.org/paper/a04622cfd1154dd6dc04591cbb25188207bc6142",
      "title": "Transfer Learning from Deep Features for Remote Sensing and Poverty Mapping",
      "venue": "AAAI Conference on Artificial Intelligence",
      "year": 2015,
      "referenceCount": 26,
      "citationCount": 449,
      "authors": [
        {
          "authorId": "46215055",
          "name": "Sang Michael Xie"
        },
        {
          "authorId": "2752609",
          "name": "Neal Jean"
        },
        {
          "authorId": "49240687",
          "name": "M. Burke"
        },
        {
          "authorId": "2465182",
          "name": "D. Lobell"
        },
        {
          "authorId": "2490652",
          "name": "Stefano Ermon"
        }
      ]
    },
    {
      "paperId": "32248004a5954f6fda57285b94f9f2cb77c437f2",
      "externalIds": {
        "DBLP": "conf/mlsp/ChenC15",
        "MAG": "2025854503",
        "DOI": "10.1109/MLSP.2015.7324325",
        "CorpusId": 16795507
      },
      "url": "https://www.semanticscholar.org/paper/32248004a5954f6fda57285b94f9f2cb77c437f2",
      "title": "Deep semi-supervised learning for domain adaptation",
      "venue": "International Workshop on Machine Learning for Signal Processing",
      "year": 2015,
      "referenceCount": 19,
      "citationCount": 27,
      "authors": [
        {
          "authorId": "9746904",
          "name": "Hung-Yu Chen"
        },
        {
          "authorId": "1699469",
          "name": "Jen-Tzung Chien"
        }
      ]
    },
    {
      "paperId": "1b7f9cc57ab8f3f551bdb0d5f153191ec403895e",
      "externalIds": {
        "MAG": "2951153957",
        "DBLP": "conf/nips/LongCWY17",
        "CorpusId": 4962395
      },
      "url": "https://www.semanticscholar.org/paper/1b7f9cc57ab8f3f551bdb0d5f153191ec403895e",
      "title": "Learning Multiple Tasks with Multilinear Relationship Networks",
      "venue": "Neural Information Processing Systems",
      "year": 2015,
      "referenceCount": 40,
      "citationCount": 344,
      "authors": [
        {
          "authorId": "35776445",
          "name": "Mingsheng Long"
        },
        {
          "authorId": "3451430",
          "name": "Zhangjie Cao"
        },
        {
          "authorId": "2144499343",
          "name": "Jianmin Wang"
        },
        {
          "authorId": "144019071",
          "name": "Philip S. Yu"
        }
      ]
    },
    {
      "paperId": "6ba19d1dc05f43ae2c2c72622b3d054b51797876",
      "externalIds": {
        "DBLP": "conf/igarss/LagrangeSBBCHRF15",
        "MAG": "1996663388",
        "DOI": "10.1109/IGARSS.2015.7326745",
        "CorpusId": 9911332
      },
      "url": "https://www.semanticscholar.org/paper/6ba19d1dc05f43ae2c2c72622b3d054b51797876",
      "title": "Benchmarking classification of earth-observation data: From learning explicit features to convolutional networks",
      "venue": "IEEE International Geoscience and Remote Sensing Symposium",
      "year": 2015,
      "referenceCount": 14,
      "citationCount": 84,
      "authors": [
        {
          "authorId": "24980594",
          "name": "A. Lagrange"
        },
        {
          "authorId": "1730023",
          "name": "B. L. Saux"
        },
        {
          "authorId": "50039825",
          "name": "Anne Beaupère"
        },
        {
          "authorId": "2300845",
          "name": "Alexandre Boulch"
        },
        {
          "authorId": "1403862742",
          "name": "Adrien Chan-Hon-Tong"
        },
        {
          "authorId": "1924996",
          "name": "Stéphane Herbin"
        },
        {
          "authorId": "1986125",
          "name": "Hicham Randrianarivo"
        },
        {
          "authorId": "145567641",
          "name": "Marin Ferecatu"
        }
      ]
    },
    {
      "paperId": "6614f5615028b847a9e7bfcdf170504cf5adb40d",
      "externalIds": {
        "DBLP": "journals/speech/HuQSW15",
        "MAG": "2091856355",
        "DOI": "10.1016/j.specom.2014.12.008",
        "CorpusId": 205223190
      },
      "url": "https://www.semanticscholar.org/paper/6614f5615028b847a9e7bfcdf170504cf5adb40d",
      "title": "Improved mispronunciation detection with deep neural network trained acoustic models and transfer learning based logistic regression classifiers",
      "venue": "Speech Communication",
      "year": 2015,
      "referenceCount": 45,
      "citationCount": 246,
      "authors": [
        {
          "authorId": "48594864",
          "name": "Wenping Hu"
        },
        {
          "authorId": "48549092",
          "name": "Yao Qian"
        },
        {
          "authorId": "1705574",
          "name": "F. Soong"
        },
        {
          "authorId": "2153954401",
          "name": "Yong Wang"
        }
      ]
    }
  ]
}