{
  "total": 3026,
  "offset": 0,
  "next": 10,
  "data": [
    {
      "paperId": "f9e0d0fd7fbacf28c8fdbbad80c7288255a46551",
      "externalIds": {
        "MAG": "2964249507",
        "ArXiv": "1710.01410",
        "DBLP": "conf/icml/XuCZ18",
        "CorpusId": 51875758
      },
      "url": "https://www.semanticscholar.org/paper/f9e0d0fd7fbacf28c8fdbbad80c7288255a46551",
      "title": "Learning Registered Point Processes from Idiosyncratic Observations",
      "venue": "International Conference on Machine Learning",
      "year": 2017,
      "referenceCount": 54,
      "citationCount": 8,
      "authors": [
        {
          "authorId": "2468306",
          "name": "Hongteng Xu"
        },
        {
          "authorId": "145006560",
          "name": "L. Carin"
        },
        {
          "authorId": "145203884",
          "name": "H. Zha"
        }
      ]
    },
    {
      "paperId": "d21188889e5ea4c201c6cde480d809eae822ea21",
      "externalIds": {
        "CorpusId": 48353018
      },
      "url": "https://www.semanticscholar.org/paper/d21188889e5ea4c201c6cde480d809eae822ea21",
      "title": "Registered Temporal Point Process Intensity function Original timeline and realizations Warped idiosyncratic observations Warping function 1 Warping function 2 Warping function 3",
      "venue": "",
      "year": 2018,
      "referenceCount": 38,
      "citationCount": 0,
      "authors": [
        {
          "authorId": "2468306",
          "name": "Hongteng Xu"
        },
        {
          "authorId": "145006560",
          "name": "L. Carin"
        },
        {
          "authorId": "145203884",
          "name": "H. Zha"
        }
      ]
    },
    {
      "paperId": "a074e060cde0ddbb535e22863df43322a5627efb",
      "externalIds": {
        "DBLP": "conf/aaai/WangCYX23",
        "DOI": "10.1609/aaai.v37i8.26211",
        "CorpusId": 259673909
      },
      "url": "https://www.semanticscholar.org/paper/a074e060cde0ddbb535e22863df43322a5627efb",
      "title": "Hierarchical Contrastive Learning for Temporal Point Processes",
      "venue": "AAAI Conference on Artificial Intelligence",
      "year": 2023,
      "referenceCount": 38,
      "citationCount": 6,
      "authors": [
        {
          "authorId": "2259903800",
          "name": "Qingmei Wang"
        },
        {
          "authorId": "1992796874",
          "name": "Minjie Cheng"
        },
        {
          "authorId": "2185356496",
          "name": "Shen Yuan"
        },
        {
          "authorId": "2146235527",
          "name": "Hongteng Xu"
        }
      ]
    },
    {
      "paperId": "57df9064d8e3b0f2724df4da441e91a2ac328b4e",
      "externalIds": {
        "ArXiv": "2406.00368",
        "DBLP": "conf/iclr/IakovlevL25",
        "CorpusId": 270218237
      },
      "url": "https://www.semanticscholar.org/paper/57df9064d8e3b0f2724df4da441e91a2ac328b4e",
      "title": "Learning Spatiotemporal Dynamical Systems from Point Process Observations",
      "venue": "International Conference on Learning Representations",
      "year": 2024,
      "referenceCount": 49,
      "citationCount": 3,
      "authors": [
        {
          "authorId": "2069069875",
          "name": "V. Iakovlev"
        },
        {
          "authorId": "2309717567",
          "name": "Harri Lähdesmäki"
        }
      ]
    },
    {
      "paperId": "7a0e46d1662a542ffcc01d7ff3a13b6d28f5afc0",
      "externalIds": {
        "MAG": "2788849864",
        "DBLP": "conf/aaai/XiaoXYFYSZ18",
        "DOI": "10.1609/aaai.v32i1.12072",
        "CorpusId": 19239706
      },
      "url": "https://www.semanticscholar.org/paper/7a0e46d1662a542ffcc01d7ff3a13b6d28f5afc0",
      "title": "Learning Conditional Generative Models for Temporal Point Processes",
      "venue": "AAAI Conference on Artificial Intelligence",
      "year": 2018,
      "referenceCount": 34,
      "citationCount": 57,
      "authors": [
        {
          "authorId": "145759394",
          "name": "Shuai Xiao"
        },
        {
          "authorId": "2468306",
          "name": "Hongteng Xu"
        },
        {
          "authorId": "3063894",
          "name": "Junchi Yan"
        },
        {
          "authorId": "1682124",
          "name": "Mehrdad Farajtabar"
        },
        {
          "authorId": "1795291",
          "name": "Xiaokang Yang"
        },
        {
          "authorId": "1779453",
          "name": "Le Song"
        },
        {
          "authorId": "145203884",
          "name": "H. Zha"
        }
      ]
    },
    {
      "paperId": "12b9ebe72aa4ec79d2c3d2fec804a643cd67d0eb",
      "externalIds": {
        "MAG": "2938580390",
        "DOI": "10.70675/ef9c8e63zd4cdz46aczabf1zef77ff37d34f",
        "CorpusId": 145914608
      },
      "url": "https://www.semanticscholar.org/paper/12b9ebe72aa4ec79d2c3d2fec804a643cd67d0eb",
      "title": "Learning from Sequences with Point Processes",
      "venue": "",
      "year": 2017,
      "referenceCount": 157,
      "citationCount": 1,
      "authors": [
        {
          "authorId": "2180099",
          "name": "M. Achab"
        }
      ]
    },
    {
      "paperId": "efb8fe8b0ca50fb7255169cee877db52976aa5b4",
      "externalIds": {
        "DBLP": "conf/eucc/AmiriM24",
        "DOI": "10.23919/ECC64448.2024.10591108",
        "CorpusId": 270740714
      },
      "url": "https://www.semanticscholar.org/paper/efb8fe8b0ca50fb7255169cee877db52976aa5b4",
      "title": "On the Convergence of TD-Learning on Markov Reward Processes with Hidden States",
      "venue": "European Control Conference",
      "year": 2024,
      "referenceCount": 22,
      "citationCount": 4,
      "authors": [
        {
          "authorId": "2351786389",
          "name": "Mohsen Amiri"
        },
        {
          "authorId": "2276693674",
          "name": "Sindri Magnússon"
        }
      ]
    },
    {
      "paperId": "f0bf93c421215ad078960d834ac111837b6dfcb5",
      "externalIds": {
        "ArXiv": "2510.20406",
        "DBLP": "journals/corr/abs-2510-20406",
        "DOI": "10.48550/arXiv.2510.20406",
        "CorpusId": 282304088
      },
      "url": "https://www.semanticscholar.org/paper/f0bf93c421215ad078960d834ac111837b6dfcb5",
      "title": "PointMapPolicy: Structured Point Cloud Processing for Multi-Modal Imitation Learning",
      "venue": "arXiv.org",
      "year": 2025,
      "referenceCount": 61,
      "citationCount": 5,
      "authors": [
        {
          "authorId": "2263213428",
          "name": "Xiaogang Jia"
        },
        {
          "authorId": "2305814350",
          "name": "Qian Wang"
        },
        {
          "authorId": "2387513973",
          "name": "Anrui Wang"
        },
        {
          "authorId": "2345961413",
          "name": "Han A. Wang"
        },
        {
          "authorId": "92549984",
          "name": "Balázs Gyenes"
        },
        {
          "authorId": "2329099374",
          "name": "Emiliyan Gospodinov"
        },
        {
          "authorId": "2243176115",
          "name": "Xinkai Jiang"
        },
        {
          "authorId": "2186951194",
          "name": "Ge Li"
        },
        {
          "authorId": "2280293831",
          "name": "Hongyi Zhou"
        },
        {
          "authorId": "2331177608",
          "name": "Weiran Liao"
        },
        {
          "authorId": "2346047390",
          "name": "Xi Huang"
        },
        {
          "authorId": "2382928041",
          "name": "Maximilian Beck"
        },
        {
          "authorId": "2165874245",
          "name": "Moritz Reuss"
        },
        {
          "authorId": "2931067",
          "name": "Rudolf Lioutikov"
        },
        {
          "authorId": "2263395917",
          "name": "Gerhard Neumann"
        }
      ]
    },
    {
      "paperId": "34a85bad3d1aa45d31f0dd6088c45fe3786d66bf",
      "externalIds": {
        "ArXiv": "2502.07874",
        "DOI": "10.1051/0004-6361/202453266",
        "CorpusId": 276287501
      },
      "url": "https://www.semanticscholar.org/paper/34a85bad3d1aa45d31f0dd6088c45fe3786d66bf",
      "title": "Mapping synthetic observations to pre-stellar core models: An interpretable machine learning approach",
      "venue": "Astronomy &amp; Astrophysics",
      "year": 2025,
      "referenceCount": 10,
      "citationCount": 2,
      "authors": [
        {
          "authorId": "2284593131",
          "name": "T. Grassi"
        },
        {
          "authorId": "2296790465",
          "name": "M. Padovani"
        },
        {
          "authorId": "2296789740",
          "name": "D. Galli"
        },
        {
          "authorId": "2345004432",
          "name": "N. Vaytet"
        },
        {
          "authorId": "2290178721",
          "name": "S. Jensen"
        },
        {
          "authorId": "2319600511",
          "name": "E. Redaelli"
        },
        {
          "authorId": "15361537",
          "name": "S. Spezzano"
        },
        {
          "authorId": "10371129",
          "name": "S. Bovino"
        },
        {
          "authorId": "2290177861",
          "name": "P. Caselli"
        }
      ]
    },
    {
      "paperId": "d2bca81a555e1571a038ad9a00fba0f6b3b5ba78",
      "externalIds": {
        "DOI": "10.1175/jtech-d-24-0132.1",
        "CorpusId": 281558361
      },
      "url": "https://www.semanticscholar.org/paper/d2bca81a555e1571a038ad9a00fba0f6b3b5ba78",
      "title": "A New Machine Learning Retrieval of Liquid Water Path Optimized for Mixed-Phase Cold Air Outbreaks Using Radiometer and Radar Observations",
      "venue": "Journal of Atmospheric and Oceanic Technology",
      "year": 2025,
      "referenceCount": 70,
      "citationCount": 1,
      "authors": [
        {
          "authorId": "2382201272",
          "name": "Samuel Ephraim"
        },
        {
          "authorId": "39901782",
          "name": "P. Zuidema"
        },
        {
          "authorId": "83744270",
          "name": "T. Juliano"
        },
        {
          "authorId": "104537139",
          "name": "Coltin Grasmick"
        },
        {
          "authorId": "2297307009",
          "name": "M. Cadeddu"
        },
        {
          "authorId": "2291387295",
          "name": "Bart Geerts"
        },
        {
          "authorId": "2382197859",
          "name": "Jeff French"
        },
        {
          "authorId": "2382196413",
          "name": "Andrew Pazmany"
        },
        {
          "authorId": "2321972539",
          "name": "Sarah Woods"
        }
      ]
    }
  ]
}