{
  "total": 20,
  "offset": 0,
  "next": 10,
  "data": [
    {
      "paperId": "60dae19c364212db772ad23df186bdcf4f191197",
      "externalIds": {
        "DBLP": "conf/icml/FouldsKG15",
        "MAG": "588062613",
        "CorpusId": 2449742
      },
      "url": "https://www.semanticscholar.org/paper/60dae19c364212db772ad23df186bdcf4f191197",
      "title": "Latent Topic Networks: A Versatile Probabilistic Programming Framework for Topic Models",
      "venue": "International Conference on Machine Learning",
      "year": 2015,
      "referenceCount": 36,
      "citationCount": 28,
      "authors": [
        {
          "authorId": "40289577",
          "name": "James R. Foulds"
        },
        {
          "authorId": "2109680564",
          "name": "Shachi H. Kumar"
        },
        {
          "authorId": "1746034",
          "name": "L. Getoor"
        }
      ]
    },
    {
      "paperId": "90fc6cb237d2021a7d5e134102db604564d8ea44",
      "externalIds": {
        "DOI": "10.59298/nijep/2024/41916.1.1100",
        "CorpusId": 268368446
      },
      "url": "https://www.semanticscholar.org/paper/90fc6cb237d2021a7d5e134102db604564d8ea44",
      "title": "Exploring Latent Dirichlet Allocation (LDA) in Topic Modeling: Theory, Applications, and Future Directions",
      "venue": "NEWPORT INTERNATIONAL JOURNAL OF ENGINEERING AND PHYSICAL SCIENCES",
      "year": 2024,
      "referenceCount": 0,
      "citationCount": 6,
      "authors": [
        {
          "authorId": "2290951008",
          "name": "Ugorji C. Calistus"
        },
        {
          "authorId": "52053623",
          "name": "M. Onyesolu"
        },
        {
          "authorId": "2290952498",
          "name": "Asogwa C. Doris"
        },
        {
          "authorId": "2290952888",
          "name": "Chukwudumebi V. Egwu"
        }
      ]
    },
    {
      "paperId": "0bd08b29e9abc89979edddf0fd70d22cdfc49f57",
      "externalIds": {
        "DBLP": "journals/jiis/HajibabaeiSK23",
        "DOI": "10.1007/s10844-022-00740-6",
        "CorpusId": 252558684
      },
      "url": "https://www.semanticscholar.org/paper/0bd08b29e9abc89979edddf0fd70d22cdfc49f57",
      "title": "Community detection in weighted networks using probabilistic generative model",
      "venue": "Journal of Intelligence and Information Systems",
      "year": 2022,
      "referenceCount": 45,
      "citationCount": 13,
      "authors": [
        {
          "authorId": "119094368",
          "name": "H. Hajibabaei"
        },
        {
          "authorId": "2275640854",
          "name": "V. Seydi"
        },
        {
          "authorId": "2275650179",
          "name": "A. Koochari"
        }
      ]
    },
    {
      "paperId": "a89b4e2f9ef862fd616a0cf4a41f5a98310ee38c",
      "externalIds": {
        "DOI": "10.18287/2223-9537-2022-12-2-186-199",
        "CorpusId": 250392701
      },
      "url": "https://www.semanticscholar.org/paper/a89b4e2f9ef862fd616a0cf4a41f5a98310ee38c",
      "title": "Additive regularization for topic modeling of social media communities",
      "venue": "Ontology of Designing",
      "year": 2022,
      "referenceCount": 0,
      "citationCount": 2,
      "authors": [
        {
          "authorId": "3394593",
          "name": "I. Datyev"
        },
        {
          "authorId": "152750332",
          "name": "A. Fedorov"
        }
      ]
    },
    {
      "paperId": "0b05c73f4f58129455d48f126d8f2a74065fe94e",
      "externalIds": {
        "MAG": "2157992638",
        "DBLP": "conf/nips/BeckHP12",
        "CorpusId": 2011335
      },
      "url": "https://www.semanticscholar.org/paper/0b05c73f4f58129455d48f126d8f2a74065fe94e",
      "title": "Complex Inference in Neural Circuits with Probabilistic Population Codes and Topic Models",
      "venue": "Neural Information Processing Systems",
      "year": 2012,
      "referenceCount": 24,
      "citationCount": 51,
      "authors": [
        {
          "authorId": "31788123",
          "name": "J. Beck"
        },
        {
          "authorId": "145993598",
          "name": "K. Heller"
        },
        {
          "authorId": "2469356",
          "name": "A. Pouget"
        }
      ]
    },
    {
      "paperId": "a0cc50c175f0ff52cedb50329ac30e25643702c2",
      "externalIds": {
        "DOI": "10.1088/1742-6596/1950/1/012077",
        "CorpusId": 236942989
      },
      "url": "https://www.semanticscholar.org/paper/a0cc50c175f0ff52cedb50329ac30e25643702c2",
      "title": "Improving Crisis Event Detection Rate in Online Social Networks Twitter Stream using Apache Spark",
      "venue": "Journal of Physics: Conference Series",
      "year": 2021,
      "referenceCount": 22,
      "citationCount": 4,
      "authors": [
        {
          "authorId": "1383228482",
          "name": "A. Bhuvaneswari"
        },
        {
          "authorId": "144639306",
          "name": "R. Jayanthi"
        },
        {
          "authorId": "2122872323",
          "name": "A. Lakshmi Meena"
        }
      ]
    },
    {
      "paperId": "bb0c70dcedef2a927f13ebbb5579b765504e42f2",
      "externalIds": {
        "DOI": "10.1109/CHILECON66915.2025.11475980",
        "CorpusId": 287648820
      },
      "url": "https://www.semanticscholar.org/paper/bb0c70dcedef2a927f13ebbb5579b765504e42f2",
      "title": "Digital Twins and Augmented Reality in Mining and Wind Training: Applied Experience at UNL",
      "venue": "CHILEAN Conference on Electrical, Electronics Engineering, Information and Communication Technologies",
      "year": 2025,
      "referenceCount": 28,
      "citationCount": 0,
      "authors": [
        {
          "authorId": "2430848130",
          "name": "Leonardo Benavides M."
        },
        {
          "authorId": "2430848152",
          "name": "José Ochoa A."
        },
        {
          "authorId": "2430850044",
          "name": "Cristian Ortega R."
        },
        {
          "authorId": "2430847374",
          "name": "Carlos Conza Z."
        },
        {
          "authorId": "2394128199",
          "name": "Jessica N. Castillo"
        },
        {
          "authorId": "2430848692",
          "name": "Julio Cuenca T."
        }
      ]
    },
    {
      "paperId": "994c8fbd9cb8d51356ed22ca93bbfbfb82e36f68",
      "externalIds": {
        "CorpusId": 3142911
      },
      "url": "https://www.semanticscholar.org/paper/994c8fbd9cb8d51356ed22ca93bbfbfb82e36f68",
      "title": "A Sequential Topic Model for Mining Recurrent Activities from Video and Audio Data Logs",
      "venue": "",
      "year": 2013,
      "referenceCount": 41,
      "citationCount": 0,
      "authors": [
        {
          "authorId": "2032648",
          "name": "Jagannadan Varadarajan"
        },
        {
          "authorId": "2003050",
          "name": "R. Emonet"
        },
        {
          "authorId": "1719610",
          "name": "J. Odobez"
        }
      ]
    },
    {
      "paperId": "76b10c42ea1d1235a335c443641e6f600859e3ec",
      "externalIds": {
        "DBLP": "phd/us/Risteski17",
        "MAG": "2884628527",
        "CorpusId": 125373196
      },
      "url": "https://www.semanticscholar.org/paper/76b10c42ea1d1235a335c443641e6f600859e3ec",
      "title": "New Techniques for Learning and Inference in Bayesian Models",
      "venue": "",
      "year": 2017,
      "referenceCount": 49,
      "citationCount": 0,
      "authors": [
        {
          "authorId": "3181040",
          "name": "Andrej Risteski"
        }
      ]
    },
    {
      "paperId": "a8752695fdbd00a9ea38ef5a7a09f50da068fc39",
      "externalIds": {
        "MAG": "1489610945",
        "DOI": "10.1007/978-3-642-35173-0",
        "CorpusId": 801917
      },
      "url": "https://www.semanticscholar.org/paper/a8752695fdbd00a9ea38ef5a7a09f50da068fc39",
      "title": "The Semantic Web – ISWC 2012",
      "venue": "Lecture Notes in Computer Science",
      "year": 2012,
      "referenceCount": 38,
      "citationCount": 172,
      "authors": [
        {
          "authorId": "1393644275",
          "name": "P. Cudré-Mauroux"
        },
        {
          "authorId": "2148199",
          "name": "Jeff Heflin"
        },
        {
          "authorId": "1748784",
          "name": "E. Sirin"
        },
        {
          "authorId": "2860978",
          "name": "Tania Tudorache"
        },
        {
          "authorId": "1800811",
          "name": "J. Euzenat"
        },
        {
          "authorId": "1733076",
          "name": "M. Hauswirth"
        },
        {
          "authorId": "1764853",
          "name": "J. Parreira"
        },
        {
          "authorId": "1701341",
          "name": "J. Hendler"
        },
        {
          "authorId": "40248369",
          "name": "G. Schreiber"
        },
        {
          "authorId": "145704191",
          "name": "A. Bernstein"
        },
        {
          "authorId": "2456849",
          "name": "E. Blomqvist"
        }
      ]
    }
  ]
}