{
  "total": 43,
  "offset": 0,
  "next": 10,
  "data": [
    {
      "paperId": "a90d8db1f5055f60e9bdef7f595003f298c314f9",
      "externalIds": {
        "MAG": "2620759487",
        "DBLP": "journals/jmlr/KhetanO16",
        "ArXiv": "1601.05495",
        "CorpusId": 7729814
      },
      "url": "https://www.semanticscholar.org/paper/a90d8db1f5055f60e9bdef7f595003f298c314f9",
      "title": "Data-driven Rank Breaking for Efficient Rank Aggregation",
      "venue": "Journal of machine learning research",
      "year": 2016,
      "referenceCount": 61,
      "citationCount": 60,
      "authors": [
        {
          "authorId": "3083159",
          "name": "A. Khetan"
        },
        {
          "authorId": "34184418",
          "name": "Sewoong Oh"
        }
      ]
    },
    {
      "paperId": "9e7489dd0c32f0d81a64644f3ea69369183e5e88",
      "externalIds": {
        "DBLP": "journals/computing/RodriguezSanchezCRB25",
        "DOI": "10.1007/s00607-025-01568-y",
        "CorpusId": 282213749
      },
      "url": "https://www.semanticscholar.org/paper/9e7489dd0c32f0d81a64644f3ea69369183e5e88",
      "title": "Breaking the limits of chatbot development: API-driven multi-domain chatbot generation empowered by generative AI",
      "venue": "Computing",
      "year": 2025,
      "referenceCount": 36,
      "citationCount": 0,
      "authors": [
        {
          "authorId": "2338413210",
          "name": "María Jesús Rodríguez-Sánchez"
        },
        {
          "authorId": "67297965",
          "name": "Z. Callejas"
        },
        {
          "authorId": "2338416116",
          "name": "Ángel Ruiz-Zafra"
        },
        {
          "authorId": "12233984",
          "name": "K. Benghazi"
        }
      ]
    },
    {
      "paperId": "09627eeb4982ecf3a2844ccd27382a21b265ab04",
      "externalIds": {
        "DBLP": "journals/paa/NgoAABDN25",
        "DOI": "10.1007/s10044-025-01554-2",
        "CorpusId": 281618838
      },
      "url": "https://www.semanticscholar.org/paper/09627eeb4982ecf3a2844ccd27382a21b265ab04",
      "title": "An efficient framework for text-to-image retrieval using complete feature aggregation and cross-knowledge conversion",
      "venue": "Pattern Analysis and Applications",
      "year": 2025,
      "referenceCount": 60,
      "citationCount": 0,
      "authors": [
        {
          "authorId": "2229147276",
          "name": "B. Ngo"
        },
        {
          "authorId": "2270293485",
          "name": "Minh-Hung An"
        },
        {
          "authorId": "2382531874",
          "name": "Khoa Nguyen Tho Anh"
        },
        {
          "authorId": "2298964521",
          "name": "M. Bui"
        },
        {
          "authorId": "2202008094",
          "name": "Q. Dinh"
        },
        {
          "authorId": "2382864966",
          "name": "Vinh Dinh Nguyen"
        }
      ]
    },
    {
      "paperId": "2d1164de5fb3a5271ec5edc7e96e354aaf853ec2",
      "externalIds": {
        "DBLP": "conf/comcomap/TarroTP25",
        "DOI": "10.1109/ComComAp68359.2025.11353155",
        "CorpusId": 285177297
      },
      "url": "https://www.semanticscholar.org/paper/2d1164de5fb3a5271ec5edc7e96e354aaf853ec2",
      "title": "Prioritization of Cycling Infrastructure Expansion: A Data-Driven, Multi-Criteria Approach",
      "venue": "Computers, Communications and IT Applications Conference",
      "year": 2025,
      "referenceCount": 30,
      "citationCount": 0,
      "authors": [
        {
          "authorId": "2407738868",
          "name": "Martti Tarro"
        },
        {
          "authorId": "1484396957",
          "name": "H. Tera"
        },
        {
          "authorId": "2401068679",
          "name": "M. Pourmoradnasseri"
        }
      ]
    },
    {
      "paperId": "bbf3ff5e523487c5da75fd7633c6a22fb6626f96",
      "externalIds": {
        "DBLP": "journals/jmlr/KhetanO18",
        "MAG": "2898679161",
        "CorpusId": 52929913
      },
      "url": "https://www.semanticscholar.org/paper/bbf3ff5e523487c5da75fd7633c6a22fb6626f96",
      "title": "Generalized Rank-Breaking: Computational and Statistical Tradeoffs",
      "venue": "Journal of machine learning research",
      "year": 2018,
      "referenceCount": 29,
      "citationCount": 6,
      "authors": [
        {
          "authorId": "3083159",
          "name": "A. Khetan"
        },
        {
          "authorId": "34184418",
          "name": "Sewoong Oh"
        }
      ]
    },
    {
      "paperId": "c900ababb4e2f8cdbb5331b2f2c4f8908a25956c",
      "externalIds": {
        "DOI": "10.4271/2026-26-0073",
        "CorpusId": 284851130
      },
      "url": "https://www.semanticscholar.org/paper/c900ababb4e2f8cdbb5331b2f2c4f8908a25956c",
      "title": "Revolutionary EV Motors Innovation in E-Mobility in Depth Analysis of Emerging Technologies, Comparative Insights & Their Ground Breaking Impact on Electric Vehicle Performance",
      "venue": "SAE technical paper series",
      "year": 2026,
      "referenceCount": 24,
      "citationCount": 0,
      "authors": [
        {
          "authorId": "2280550834",
          "name": "Gaurav Jain"
        },
        {
          "authorId": "2405174185",
          "name": "P. Premlal"
        },
        {
          "authorId": "2279721452",
          "name": "Rahul Pathak"
        },
        {
          "authorId": "2279721466",
          "name": "Pandurang Gore"
        }
      ]
    },
    {
      "paperId": "588b981e13da200d03f03eb9bc4116a512946021",
      "externalIds": {
        "DBLP": "journals/corr/abs-2508-17177",
        "ArXiv": "2508.17177",
        "DOI": "10.48550/arXiv.2508.17177",
        "CorpusId": 280710273
      },
      "url": "https://www.semanticscholar.org/paper/588b981e13da200d03f03eb9bc4116a512946021",
      "title": "Designing Rules to Pick a Rule: Aggregation by Consistency",
      "venue": "arXiv.org",
      "year": 2025,
      "referenceCount": 80,
      "citationCount": 0,
      "authors": [
        {
          "authorId": "2156517420",
          "name": "Ratip Emin Berker"
        },
        {
          "authorId": "2411743729",
          "name": "B. Armstrong"
        },
        {
          "authorId": "2283921100",
          "name": "Vincent Conitzer"
        },
        {
          "authorId": "2378039828",
          "name": "Nihar B. Shah"
        }
      ]
    },
    {
      "paperId": "b8b85c39b74a625755e3fab3cf01485e05b821e4",
      "externalIds": {
        "DBLP": "conf/nips/SoufianiCPX13",
        "MAG": "2122913573",
        "CorpusId": 5895871
      },
      "url": "https://www.semanticscholar.org/paper/b8b85c39b74a625755e3fab3cf01485e05b821e4",
      "title": "Generalized Method-of-Moments for Rank Aggregation",
      "venue": "Neural Information Processing Systems",
      "year": 2013,
      "referenceCount": 22,
      "citationCount": 89,
      "authors": [
        {
          "authorId": "1753515",
          "name": "Hossein Azari Soufiani"
        },
        {
          "authorId": "2333639214",
          "name": "Willy Chen"
        },
        {
          "authorId": "30907562",
          "name": "D. Parkes"
        },
        {
          "authorId": "35276487",
          "name": "Lirong Xia"
        }
      ]
    },
    {
      "paperId": "48bf095090687ff50981107b55e46b0deeab0613",
      "externalIds": {
        "ArXiv": "2604.03582",
        "CorpusId": 287200276
      },
      "url": "https://www.semanticscholar.org/paper/48bf095090687ff50981107b55e46b0deeab0613",
      "title": "Simple yet Effective: Low-Rank Spatial Attention for Neural Operators",
      "venue": "",
      "year": 2026,
      "referenceCount": 46,
      "citationCount": 0,
      "authors": [
        {
          "authorId": "2358239998",
          "name": "Zherui Yang"
        },
        {
          "authorId": "2387787078",
          "name": "Haiyang Xin"
        },
        {
          "authorId": "2257407969",
          "name": "Tao Du"
        },
        {
          "authorId": "2356810820",
          "name": "Ligang Liu"
        }
      ]
    },
    {
      "paperId": "f498e0e890b28879ef213d8d8d72a03b0936522b",
      "externalIds": {
        "CorpusId": 64870313
      },
      "url": "https://www.semanticscholar.org/paper/f498e0e890b28879ef213d8d8d72a03b0936522b",
      "title": "Generalized Method-of-Moments for Rank Aggregation",
      "venue": "",
      "year": 2013,
      "referenceCount": 16,
      "citationCount": 5,
      "authors": [
        {
          "authorId": "79783680",
          "name": "C. Burges"
        },
        {
          "authorId": "52184096",
          "name": "L. Bottou"
        },
        {
          "authorId": "1678311",
          "name": "M. Welling"
        },
        {
          "authorId": "1744700",
          "name": "Zoubin Ghahramani"
        },
        {
          "authorId": "2307752752",
          "name": "Q. K."
        },
        {
          "authorId": "2103614900",
          "name": "Weinberger"
        }
      ]
    }
  ]
}