{
  "total": 9573,
  "offset": 0,
  "next": 10,
  "data": [
    {
      "paperId": "d25eb5677beb6791b16e9a011d7c5c6d83527a7d",
      "externalIds": {
        "DBLP": "conf/icml/ZhangZ17",
        "MAG": "2740018587",
        "CorpusId": 26877528
      },
      "url": "https://www.semanticscholar.org/paper/d25eb5677beb6791b16e9a011d7c5c6d83527a7d",
      "title": "Multi-Class Optimal Margin Distribution Machine",
      "venue": "International Conference on Machine Learning",
      "year": 2017,
      "referenceCount": 21,
      "citationCount": 30,
      "authors": [
        {
          "authorId": "144427929",
          "name": "Teng Zhang"
        },
        {
          "authorId": "145624000",
          "name": "Zhi-Hua Zhou"
        }
      ]
    },
    {
      "paperId": "7cd953ac35eb1ec7d078382027590d5e58b38836",
      "externalIds": {
        "MAG": "3034806882",
        "DBLP": "conf/ijcai/Zhang020",
        "DOI": "10.24963/ijcai.2020/330",
        "CorpusId": 265100180
      },
      "url": "https://www.semanticscholar.org/paper/7cd953ac35eb1ec7d078382027590d5e58b38836",
      "title": "Optimal Margin Distribution Machine for Multi-Instance Learning",
      "venue": "International Joint Conference on Artificial Intelligence",
      "year": 2020,
      "referenceCount": 39,
      "citationCount": 7,
      "authors": [
        {
          "authorId": "2333853666",
          "name": "Teng Zhang"
        },
        {
          "authorId": "2152883030",
          "name": "Hai Jin"
        }
      ]
    },
    {
      "paperId": "ca936e0c50456a1c61eff890d47496daea83036d",
      "externalIds": {
        "MAG": "2615842920",
        "DBLP": "conf/scia/VogtO17",
        "DOI": "10.1007/978-3-319-59126-1_26",
        "CorpusId": 31671955
      },
      "url": "https://www.semanticscholar.org/paper/ca936e0c50456a1c61eff890d47496daea83036d",
      "title": "Soft Margin Bayes-Point-Machine Classification via Adaptive Direction Sampling",
      "venue": "Scandinavian Conference on Image Analysis",
      "year": 2017,
      "referenceCount": 26,
      "citationCount": 0,
      "authors": [
        {
          "authorId": "2070429391",
          "name": "Karsten Vogt"
        },
        {
          "authorId": "144835580",
          "name": "J. Ostermann"
        }
      ]
    },
    {
      "paperId": "40609aaf1cb4dec765ec9270d0caab4e5d8fd69c",
      "externalIds": {
        "DBLP": "journals/eaai/MaX23",
        "DOI": "10.1016/j.engappai.2022.105653",
        "CorpusId": 254343719
      },
      "url": "https://www.semanticscholar.org/paper/40609aaf1cb4dec765ec9270d0caab4e5d8fd69c",
      "title": "A two-stage gap safe screening rule for multi-label optimal margin distribution machine",
      "venue": "Engineering applications of artificial intelligence",
      "year": 2023,
      "referenceCount": 23,
      "citationCount": 4,
      "authors": [
        {
          "authorId": "2035526121",
          "name": "Mengdan Ma"
        },
        {
          "authorId": "2246621613",
          "name": "Yitian Xu"
        }
      ]
    },
    {
      "paperId": "a118baa6f3779e1957bee1309c59b900a0008aeb",
      "externalIds": {
        "DBLP": "conf/ijcai/CaoZJ21",
        "DOI": "10.24963/ijcai.2021/303",
        "CorpusId": 237101101
      },
      "url": "https://www.semanticscholar.org/paper/a118baa6f3779e1957bee1309c59b900a0008aeb",
      "title": "Partial Multi-Label Optimal Margin Distribution Machine",
      "venue": "International Joint Conference on Artificial Intelligence",
      "year": 2021,
      "referenceCount": 26,
      "citationCount": 15,
      "authors": [
        {
          "authorId": "144313415",
          "name": "Nan Cao"
        },
        {
          "authorId": "2124525190",
          "name": "Teng Zhang"
        },
        {
          "authorId": "2152883030",
          "name": "Hai Jin"
        }
      ]
    },
    {
      "paperId": "6cb77203b0b7441b5f4d8c2a3cf7ce442a0dfb31",
      "externalIds": {
        "DBLP": "conf/vcc/PanYLZZLZ23",
        "DOI": "10.1109/VCC60689.2023.10474923",
        "CorpusId": 268726229
      },
      "url": "https://www.semanticscholar.org/paper/6cb77203b0b7441b5f4d8c2a3cf7ce442a0dfb31",
      "title": "Enhanced Spectrum Sensing by Combining Feature Selection and Optimal Margin Distribution Machine",
      "venue": "2023 IEEE Virtual Conference on Communications (VCC)",
      "year": 2023,
      "referenceCount": 15,
      "citationCount": 0,
      "authors": [
        {
          "authorId": "2293904157",
          "name": "Xiaoping Pan"
        },
        {
          "authorId": "2293654538",
          "name": "Xi Yang"
        },
        {
          "authorId": "2170021",
          "name": "Kejun Lei"
        },
        {
          "authorId": "2293775156",
          "name": "Geng Zhang"
        },
        {
          "authorId": "17777476",
          "name": "Yinhang Zhang"
        },
        {
          "authorId": "2202495393",
          "name": "Tingting Liu"
        },
        {
          "authorId": "2295291593",
          "name": "Song Zhang"
        }
      ]
    },
    {
      "paperId": "971036b0e7b693616b51766b4a54c97b3c642c94",
      "externalIds": {
        "MAG": "3012018197",
        "DBLP": "journals/ml/TanTJZ20",
        "DOI": "10.1007/s10994-019-05837-8",
        "CorpusId": 204034381
      },
      "url": "https://www.semanticscholar.org/paper/971036b0e7b693616b51766b4a54c97b3c642c94",
      "title": "Multi-label optimal margin distribution machine",
      "venue": "Machine-mediated learning",
      "year": 2019,
      "referenceCount": 46,
      "citationCount": 27,
      "authors": [
        {
          "authorId": "74125866",
          "name": "Zhi-Hao Tan"
        },
        {
          "authorId": "2055536193",
          "name": "Peng Tan"
        },
        {
          "authorId": "2192443",
          "name": "Yuan Jiang"
        },
        {
          "authorId": "145624000",
          "name": "Zhi-Hua Zhou"
        }
      ]
    },
    {
      "paperId": "266546c6d072e8a93665037f75189c5c81fe78b3",
      "externalIds": {
        "MAG": "3097091434",
        "DBLP": "journals/apin/MaX21",
        "DOI": "10.1007/s10489-020-02024-4",
        "CorpusId": 228808914
      },
      "url": "https://www.semanticscholar.org/paper/266546c6d072e8a93665037f75189c5c81fe78b3",
      "title": "Multi-parameter safe screening rule for hinge-optimal margin distribution machine",
      "venue": "Applied intelligence (Boston)",
      "year": 2020,
      "referenceCount": 44,
      "citationCount": 2,
      "authors": [
        {
          "authorId": "2035526121",
          "name": "Mengdan Ma"
        },
        {
          "authorId": "2246621613",
          "name": "Yitian Xu"
        }
      ]
    },
    {
      "paperId": "eee14ea8936dfefb08fe12dd2f7d9c5771f76ade",
      "externalIds": {
        "DBLP": "journals/corr/abs-2305-04837",
        "ArXiv": "2305.04837",
        "DOI": "10.48550/arXiv.2305.04837",
        "CorpusId": 258557939
      },
      "url": "https://www.semanticscholar.org/paper/eee14ea8936dfefb08fe12dd2f7d9c5771f76ade",
      "title": "Scalable Optimal Margin Distribution Machine",
      "venue": "International Joint Conference on Artificial Intelligence",
      "year": 2023,
      "referenceCount": 43,
      "citationCount": 1,
      "authors": [
        {
          "authorId": "2186637063",
          "name": "Yilin Wang"
        },
        {
          "authorId": "2176796161",
          "name": "Nan Cao"
        },
        {
          "authorId": "144427929",
          "name": "Teng Zhang"
        },
        {
          "authorId": "1678835",
          "name": "Xuanhua Shi"
        },
        {
          "authorId": "2152883030",
          "name": "Hai Jin"
        }
      ]
    },
    {
      "paperId": "855b14fccfedfd77192beab1fe3636372d057cd2",
      "externalIds": {
        "MAG": "2944612303",
        "DBLP": "journals/prl/ZhangWZCCL19",
        "DOI": "10.1016/J.PATREC.2019.05.005",
        "CorpusId": 164507534
      },
      "url": "https://www.semanticscholar.org/paper/855b14fccfedfd77192beab1fe3636372d057cd2",
      "title": "Kernel modified optimal margin distribution machine for imbalanced data classification",
      "venue": "Pattern Recognition Letters",
      "year": 2019,
      "referenceCount": 23,
      "citationCount": 16,
      "authors": [
        {
          "authorId": "2107960532",
          "name": "Xiaogang Zhang"
        },
        {
          "authorId": "2724752",
          "name": "Dingxiang Wang"
        },
        {
          "authorId": "3049217",
          "name": "Yicong Zhou"
        },
        {
          "authorId": "2144213539",
          "name": "Hua Chen"
        },
        {
          "authorId": "49412452",
          "name": "Fanyong Cheng"
        },
        {
          "authorId": "145278549",
          "name": "Min Liu"
        }
      ]
    }
  ]
}