{
  "total": 960804,
  "offset": 0,
  "next": 10,
  "data": [
    {
      "paperId": "5a5d48986b855b83a7d9df5005bbd155024ce756",
      "externalIds": {
        "MAG": "2963518064",
        "DBLP": "conf/icml/AlmahairiBCZLC16",
        "ArXiv": "1511.07838",
        "CorpusId": 818973
      },
      "url": "https://www.semanticscholar.org/paper/5a5d48986b855b83a7d9df5005bbd155024ce756",
      "title": "Dynamic Capacity Networks",
      "venue": "International Conference on Machine Learning",
      "year": 2015,
      "referenceCount": 29,
      "citationCount": 108,
      "authors": [
        {
          "authorId": "2634674",
          "name": "Amjad Almahairi"
        },
        {
          "authorId": "2482072",
          "name": "Nicolas Ballas"
        },
        {
          "authorId": "2348758",
          "name": "Tim Cooijmans"
        },
        {
          "authorId": "47833747",
          "name": "Yin Zheng"
        },
        {
          "authorId": "1777528",
          "name": "H. Larochelle"
        },
        {
          "authorId": "1760871",
          "name": "Aaron C. Courville"
        }
      ]
    },
    {
      "paperId": "4d1b0ac2ae96fcabb422263b9ddd771003d32f68",
      "externalIds": {
        "MAG": "1608745811",
        "DBLP": "conf/im/AmokraneXHA15",
        "DOI": "10.1109/INM.2015.7140317",
        "CorpusId": 15531170
      },
      "url": "https://www.semanticscholar.org/paper/4d1b0ac2ae96fcabb422263b9ddd771003d32f68",
      "title": "Dynamic capacity management and traffic steering in enterprise passive optical networks",
      "venue": "IFIP/IEEE Symposium on Integrated Network Management",
      "year": 2015,
      "referenceCount": 21,
      "citationCount": 7,
      "authors": [
        {
          "authorId": "2139404",
          "name": "A. Amokrane"
        },
        {
          "authorId": "2144573395",
          "name": "Jin Xiao"
        },
        {
          "authorId": "38348772",
          "name": "Jinho Hwang"
        },
        {
          "authorId": "2402795",
          "name": "Nikos Anerousis"
        }
      ]
    },
    {
      "paperId": "4476e9f9c71602006e7223ac01b2c4f66f35df38",
      "externalIds": {
        "DBLP": "journals/tii/HossainRTL18",
        "MAG": "2788784635",
        "DOI": "10.1109/TII.2018.2805913",
        "CorpusId": 46928768
      },
      "url": "https://www.semanticscholar.org/paper/4476e9f9c71602006e7223ac01b2c4f66f35df38",
      "title": "Multifunctional Three-Phase Four-Leg PV-SVSI With Dynamic Capacity Distribution Method",
      "venue": "IEEE Transactions on Industrial Informatics",
      "year": 2018,
      "referenceCount": 21,
      "citationCount": 23,
      "authors": [
        {
          "authorId": "2351010444",
          "name": "M. J. Hossain"
        },
        {
          "authorId": "39058724",
          "name": "F. Rafi"
        },
        {
          "authorId": "145257516",
          "name": "G. Town"
        },
        {
          "authorId": "5223928",
          "name": "Junwei Lu"
        }
      ]
    },
    {
      "paperId": "2a6ed4805229e34cf7144059d387f815ac743f0b",
      "externalIds": {
        "MAG": "3096459816",
        "DOI": "10.1016/j.jpowsour.2020.228863",
        "CorpusId": 228906253
      },
      "url": "https://www.semanticscholar.org/paper/2a6ed4805229e34cf7144059d387f815ac743f0b",
      "title": "Online capacity estimation of lithium-ion batteries with deep long short-term memory networks",
      "venue": "Journal of Power Sources",
      "year": 2021,
      "referenceCount": 53,
      "citationCount": 298,
      "authors": [
        {
          "authorId": "2108712193",
          "name": "Weihan Li"
        },
        {
          "authorId": "120495791",
          "name": "N. Sengupta"
        },
        {
          "authorId": "92121878",
          "name": "Philipp Dechent"
        },
        {
          "authorId": "1930667",
          "name": "D. Howey"
        },
        {
          "authorId": "2067240",
          "name": "A. Annaswamy"
        },
        {
          "authorId": "2658304",
          "name": "D. Sauer"
        }
      ]
    },
    {
      "paperId": "1117ef51a9fe4dd804fac6dfeed425c09fc6d71d",
      "externalIds": {
        "MAG": "2540567230",
        "DBLP": "journals/wpc/DandanovAKP17",
        "DOI": "10.1007/s11277-016-3849-9",
        "CorpusId": 37595264
      },
      "url": "https://www.semanticscholar.org/paper/1117ef51a9fe4dd804fac6dfeed425c09fc6d71d",
      "title": "Dynamic Self-Optimization of the Antenna Tilt for Best Trade-off Between Coverage and Capacity in Mobile Networks",
      "venue": "Wireless personal communications",
      "year": 2016,
      "referenceCount": 17,
      "citationCount": 71,
      "authors": [
        {
          "authorId": "7420437",
          "name": "Nikolay Dandanov"
        },
        {
          "authorId": "1397309307",
          "name": "Hussein Al-Shatri"
        },
        {
          "authorId": "1680978",
          "name": "A. Klein"
        },
        {
          "authorId": "1703073",
          "name": "V. Poulkov"
        }
      ]
    },
    {
      "paperId": "b2c9015913d605ab7cac2e6a73db095f8fc54e02",
      "externalIds": {
        "MAG": "2523207842",
        "DBLP": "journals/icl/WangSLWLZ16",
        "DOI": "10.1109/LCOMM.2016.2608899",
        "CorpusId": 19863604
      },
      "url": "https://www.semanticscholar.org/paper/b2c9015913d605ab7cac2e6a73db095f8fc54e02",
      "title": "Dynamic Contact Plan Design in Broadband Satellite Networks With Varying Contact Capacity",
      "venue": "IEEE Communications Letters",
      "year": 2016,
      "referenceCount": 6,
      "citationCount": 33,
      "authors": [
        {
          "authorId": "88935870",
          "name": "Yu Wang"
        },
        {
          "authorId": "144829259",
          "name": "Min Sheng"
        },
        {
          "authorId": "2109634837",
          "name": "Jiandong Li"
        },
        {
          "authorId": "92422713",
          "name": "Xijun Wang"
        },
        {
          "authorId": "2651625",
          "name": "Runzi Liu"
        },
        {
          "authorId": "1490774747",
          "name": "Di Zhou"
        }
      ]
    },
    {
      "paperId": "34df9ceb7f0cd0d1e0318bc619084116c54a86f9",
      "externalIds": {
        "DBLP": "journals/wc/IuorasL05",
        "MAG": "2101991857",
        "DOI": "10.1109/MWC.2005.1522099",
        "CorpusId": 18827212
      },
      "url": "https://www.semanticscholar.org/paper/34df9ceb7f0cd0d1e0318bc619084116c54a86f9",
      "title": "Dynamic capacity allocation for quality-of-service support in IP-based satellite networks",
      "venue": "IEEE wireless communications",
      "year": 2005,
      "referenceCount": 16,
      "citationCount": 21,
      "authors": [
        {
          "authorId": "2106606",
          "name": "N. Iuoras"
        },
        {
          "authorId": "71976372",
          "name": "T. Le-Ngoc"
        }
      ]
    },
    {
      "paperId": "ddf08de9019a711e1f34fec864808304e020ff65",
      "externalIds": {
        "ArXiv": "2212.03976",
        "DOI": "10.1109/TPWRS.2023.3308104",
        "CorpusId": 258987678
      },
      "url": "https://www.semanticscholar.org/paper/ddf08de9019a711e1f34fec864808304e020ff65",
      "title": "Robust Dynamic Operating Envelopes for DER Integration in Unbalanced Distribution Networks",
      "venue": "IEEE Transactions on Power Systems",
      "year": 2022,
      "referenceCount": 57,
      "citationCount": 48,
      "authors": [
        {
          "authorId": "48265485",
          "name": "B. Liu"
        },
        {
          "authorId": "1765717",
          "name": "J. Braslavsky"
        }
      ]
    },
    {
      "paperId": "f800bc4d6cfdd61a5ca2dfa1469f53cddc2e0751",
      "externalIds": {
        "PubMedCentral": "7865237",
        "DOI": "10.3390/polym13030396",
        "CorpusId": 231761956,
        "PubMed": "33513741"
      },
      "url": "https://www.semanticscholar.org/paper/f800bc4d6cfdd61a5ca2dfa1469f53cddc2e0751",
      "title": "Dually Crosslinked Polymer Networks Incorporating Dynamic Covalent Bonds",
      "venue": "Polymers",
      "year": 2021,
      "referenceCount": 198,
      "citationCount": 113,
      "authors": [
        {
          "authorId": "2047645999",
          "name": "L. Hammer"
        },
        {
          "authorId": "9704763",
          "name": "Nathan J. Van Zee"
        },
        {
          "authorId": "48797948",
          "name": "Renaud Nicolaÿ"
        }
      ]
    },
    {
      "paperId": "1d93eff3c590124925e432d8c5a4892140e4fa9c",
      "externalIds": {
        "MAG": "2998755892",
        "DBLP": "journals/access/AhmadRSIAJZ20",
        "DOI": "10.1109/ACCESS.2020.2966271",
        "CorpusId": 210970516
      },
      "url": "https://www.semanticscholar.org/paper/1d93eff3c590124925e432d8c5a4892140e4fa9c",
      "title": "5G Technology: Towards Dynamic Spectrum Sharing Using Cognitive Radio Networks",
      "venue": "IEEE Access",
      "year": 2020,
      "referenceCount": 129,
      "citationCount": 237,
      "authors": [
        {
          "authorId": "2261287896",
          "name": "Wan Siti Halimatul Munirah Wan Ahmad"
        },
        {
          "authorId": "2066080578",
          "name": "N. Radzi"
        },
        {
          "authorId": "1491174173",
          "name": "F. S. Samidi"
        },
        {
          "authorId": "48522895",
          "name": "A. Ismail"
        },
        {
          "authorId": "2244002294",
          "name": "Fairuz Abdullah"
        },
        {
          "authorId": "47488902",
          "name": "M. Z. Jamaludin"
        },
        {
          "authorId": "1478073413",
          "name": "M. Zakaria"
        }
      ]
    }
  ]
}