{
  "total": 79,
  "offset": 0,
  "next": 10,
  "data": [
    {
      "paperId": "a2785f66c20fbdf30ec26c0931584c6d6a0f4fca",
      "externalIds": {
        "MAG": "1850742715",
        "DBLP": "journals/corr/GregorDGW15",
        "ArXiv": "1502.04623",
        "CorpusId": 1930231
      },
      "url": "https://www.semanticscholar.org/paper/a2785f66c20fbdf30ec26c0931584c6d6a0f4fca",
      "title": "DRAW: A Recurrent Neural Network For Image Generation",
      "venue": "International Conference on Machine Learning",
      "year": 2015,
      "referenceCount": 36,
      "citationCount": 2005,
      "authors": [
        {
          "authorId": "144717963",
          "name": "Karol Gregor"
        },
        {
          "authorId": "1841008",
          "name": "Ivo Danihelka"
        },
        {
          "authorId": "1753223",
          "name": "Alex Graves"
        },
        {
          "authorId": "1748523",
          "name": "Danilo Jimenez Rezende"
        },
        {
          "authorId": "1688276",
          "name": "Daan Wierstra"
        }
      ]
    },
    {
      "paperId": "d197a12cef4e2bebc88184c1c1c1b5bacd484d3e",
      "externalIds": {
        "DOI": "10.1088/1742-6596/2089/1/012043",
        "CorpusId": 244771733
      },
      "url": "https://www.semanticscholar.org/paper/d197a12cef4e2bebc88184c1c1c1b5bacd484d3e",
      "title": "Insights into Artificial Neural Network techniques, and its Application in Steganography",
      "venue": "Journal of Physics: Conference Series",
      "year": 2021,
      "referenceCount": 19,
      "citationCount": 1,
      "authors": [
        {
          "authorId": "72695960",
          "name": "R. Gurunath"
        },
        {
          "authorId": "40462229",
          "name": "D. Samanta"
        }
      ]
    },
    {
      "paperId": "917f7e3469d4dceed0e6dfa2333379d1ddbed2d4",
      "externalIds": {
        "MAG": "2515174616",
        "DBLP": "conf/ACISicis/KataokaMU16",
        "DOI": "10.1109/ICIS.2016.7550880",
        "CorpusId": 206815562
      },
      "url": "https://www.semanticscholar.org/paper/917f7e3469d4dceed0e6dfa2333379d1ddbed2d4",
      "title": "Image generation using generative adversarial networks and attention mechanism",
      "venue": "International Conference on Interaction Sciences",
      "year": 2016,
      "referenceCount": 15,
      "citationCount": 43,
      "authors": [
        {
          "authorId": "3450631",
          "name": "Yuusuke Kataoka"
        },
        {
          "authorId": "144872058",
          "name": "Takashi Matsubara"
        },
        {
          "authorId": "1711781",
          "name": "K. Uehara"
        }
      ]
    },
    {
      "paperId": "8a00974396c92745498d790412e7ace932704c9c",
      "externalIds": {
        "DBLP": "journals/corr/abs-1709-04121",
        "ArXiv": "1709.04121",
        "MAG": "2754855391",
        "CorpusId": 4809276
      },
      "url": "https://www.semanticscholar.org/paper/8a00974396c92745498d790412e7ace932704c9c",
      "title": "Sketch-pix2seq: a Model to Generate Sketches of Multiple Categories",
      "venue": "arXiv.org",
      "year": 2017,
      "referenceCount": 16,
      "citationCount": 78,
      "authors": [
        {
          "authorId": "2145266755",
          "name": "Yajing Chen"
        },
        {
          "authorId": "1701972",
          "name": "Shikui Tu"
        },
        {
          "authorId": "2047937950",
          "name": "Yuqi Yi"
        },
        {
          "authorId": "2133446740",
          "name": "Lei Xu"
        }
      ]
    },
    {
      "paperId": "53da58ddb46ddb4c4dc1b2ae4084cbea27bd6c02",
      "externalIds": {
        "DOI": "10.1088/1741-2552/acc35b",
        "CorpusId": 255441977,
        "PubMed": "36898147"
      },
      "url": "https://www.semanticscholar.org/paper/53da58ddb46ddb4c4dc1b2ae4084cbea27bd6c02",
      "title": "Neural correlates of face perception modeled with a convolutional recurrent neural network",
      "venue": "bioRxiv",
      "year": 2023,
      "referenceCount": 42,
      "citationCount": 6,
      "authors": [
        {
          "authorId": "1401319416",
          "name": "Jamie A. O’Reilly"
        },
        {
          "authorId": "19181489",
          "name": "Jordan J. Wehrman"
        },
        {
          "authorId": "2199324125",
          "name": "Aaron Carey"
        },
        {
          "authorId": "2199325083",
          "name": "Jennifer Bedwin"
        },
        {
          "authorId": "2199324849",
          "name": "Thomas Hourn"
        },
        {
          "authorId": "2160989522",
          "name": "Fawad Asadi"
        },
        {
          "authorId": "2801699",
          "name": "P. Sowman"
        }
      ]
    },
    {
      "paperId": "1fbe9714e08b5d0694b513ea15f592d8e0643c79",
      "externalIds": {
        "DOI": "10.1109/ICC-ROBINS60238.2024.10533953",
        "CorpusId": 269953778
      },
      "url": "https://www.semanticscholar.org/paper/1fbe9714e08b5d0694b513ea15f592d8e0643c79",
      "title": "Unravelling Visual Narratives with Deep Learning for Image Caption Generation",
      "venue": "International Conference on Intelligent Cloud Computing",
      "year": 2024,
      "referenceCount": 10,
      "citationCount": 0,
      "authors": [
        {
          "authorId": "2302588017",
          "name": "Y. M"
        },
        {
          "authorId": "2302593815",
          "name": "Ramyasri M M"
        },
        {
          "authorId": "2302595933",
          "name": "Bhavatharini N"
        },
        {
          "authorId": "2296354447",
          "name": "Harini M"
        },
        {
          "authorId": "2416325837",
          "name": "N. A"
        }
      ]
    },
    {
      "paperId": "b93a968b610773f437e9e60e82457f460a080f7c",
      "externalIds": {
        "DBLP": "journals/cacie/ZhangWFLCYLYQ19",
        "MAG": "2886369963",
        "DOI": "10.1111/mice.12409",
        "CorpusId": 102491235
      },
      "url": "https://www.semanticscholar.org/paper/b93a968b610773f437e9e60e82457f460a080f7c",
      "title": "Automated Pixel‐Level Pavement Crack Detection on 3D Asphalt Surfaces with a Recurrent Neural Network",
      "venue": "Comput. Aided Civ. Infrastructure Eng.",
      "year": 2018,
      "referenceCount": 43,
      "citationCount": 263,
      "authors": [
        {
          "authorId": "2004448485",
          "name": "Allen A. Zhang"
        },
        {
          "authorId": "47735350",
          "name": "Kelvin C. P. Wang"
        },
        {
          "authorId": "49444188",
          "name": "Yue Fei"
        },
        {
          "authorId": "2152802612",
          "name": "Yang Liu"
        },
        {
          "authorId": "2145774890",
          "name": "Cheng Chen"
        },
        {
          "authorId": "50147078",
          "name": "Guangwei Yang"
        },
        {
          "authorId": "2109043595",
          "name": "J. Li"
        },
        {
          "authorId": "37343372",
          "name": "Enhui Yang"
        },
        {
          "authorId": "2055117255",
          "name": "Shi Qiu"
        }
      ]
    },
    {
      "paperId": "fa326ddaa093502be2516f8b609cf0f4db9993e6",
      "externalIds": {
        "MAG": "2947758892",
        "DOI": "10.1016/J.PROCS.2019.05.026",
        "CorpusId": 192469073
      },
      "url": "https://www.semanticscholar.org/paper/fa326ddaa093502be2516f8b609cf0f4db9993e6",
      "title": "Sequence-to-sequence Bangla Sentence Generation with LSTM Recurrent Neural Networks",
      "venue": "Procedia Computer Science",
      "year": 2019,
      "referenceCount": 3,
      "citationCount": 50,
      "authors": [
        {
          "authorId": "98155861",
          "name": "Md. Sanzidul Islam"
        },
        {
          "authorId": "74674158",
          "name": "Sadia Sultana Sharmin Mousumi"
        },
        {
          "authorId": "30995064",
          "name": "Sheikh Abujar"
        },
        {
          "authorId": "47867495",
          "name": "S. A. Hossain"
        }
      ]
    },
    {
      "paperId": "ad9fca500b00ec8a20a0ba7e9d1b2a80a38ccf9e",
      "externalIds": {
        "DOI": "10.55421/1998-7072_2024_27_7_115",
        "CorpusId": 274448946
      },
      "url": "https://www.semanticscholar.org/paper/ad9fca500b00ec8a20a0ba7e9d1b2a80a38ccf9e",
      "title": "NEURAL NETWORK MODEL FOR FOREST FIRES RECOGNITION",
      "venue": "Herald Of Technological University",
      "year": 2024,
      "referenceCount": 0,
      "citationCount": 0,
      "authors": [
        {
          "authorId": "2328188770",
          "name": "A. Katasev"
        },
        {
          "authorId": "10806993",
          "name": "D. V. Kataseva"
        },
        {
          "authorId": "2331328011",
          "name": "YU.N. Smirnov"
        },
        {
          "authorId": "2333474509",
          "name": "D. Nasibullina"
        }
      ]
    },
    {
      "paperId": "e5fc49e48f5d8798415e5ddea947032c9bb93c48",
      "externalIds": {
        "DOI": "10.1109/ICDCECE60827.2024.10548963",
        "CorpusId": 270395718
      },
      "url": "https://www.semanticscholar.org/paper/e5fc49e48f5d8798415e5ddea947032c9bb93c48",
      "title": "Implementation of Image Caption Generation Using VGG16 and Resnet50",
      "venue": "2024 Third International Conference on Distributed Computing and Electrical Circuits and Electronics (ICDCECE)",
      "year": 2024,
      "referenceCount": 24,
      "citationCount": 4,
      "authors": [
        {
          "authorId": "2305876402",
          "name": "S. Nehan"
        },
        {
          "authorId": "2305875451",
          "name": "A. Lakshmi"
        },
        {
          "authorId": "2409371874",
          "name": "C. Shambhavi"
        },
        {
          "authorId": "2305885810",
          "name": "G. Chandrakanth"
        }
      ]
    }
  ]
}