{
  "total": 2476,
  "offset": 0,
  "next": 10,
  "data": [
    {
      "paperId": "ad0a1b0991a9150b765c2a45eb2b368702b35cd1",
      "externalIds": {
        "MAG": "2803743229",
        "DBLP": "journals/corr/abs-1806-02426",
        "ArXiv": "1806.02426",
        "CorpusId": 46955236
      },
      "url": "https://www.semanticscholar.org/paper/ad0a1b0991a9150b765c2a45eb2b368702b35cd1",
      "title": "Deep Variational Reinforcement Learning for POMDPs",
      "venue": "International Conference on Machine Learning",
      "year": 2018,
      "referenceCount": 52,
      "citationCount": 296,
      "authors": [
        {
          "authorId": "27550002",
          "name": "Maximilian Igl"
        },
        {
          "authorId": "3378188",
          "name": "Luisa M. Zintgraf"
        },
        {
          "authorId": "2067951916",
          "name": "T. Le"
        },
        {
          "authorId": "144109143",
          "name": "Frank Wood"
        },
        {
          "authorId": "1766767",
          "name": "Shimon Whiteson"
        }
      ]
    },
    {
      "paperId": "2ce73f74c6bf3aae5cd7e4ffb5d0d6f90674c514",
      "externalIds": {
        "CorpusId": 53386285
      },
      "url": "https://www.semanticscholar.org/paper/2ce73f74c6bf3aae5cd7e4ffb5d0d6f90674c514",
      "title": "Appendix - Deep Variational Reinforcement Learning for POMDPs",
      "venue": "",
      "year": 2018,
      "referenceCount": 0,
      "citationCount": 0,
      "authors": []
    },
    {
      "paperId": "1b7c242baf54b5bda48e8f2ed1259ee4b3116686",
      "externalIds": {
        "MAG": "2995650662",
        "DBLP": "conf/iclr/HuangSZC20",
        "CorpusId": 210902023
      },
      "url": "https://www.semanticscholar.org/paper/1b7c242baf54b5bda48e8f2ed1259ee4b3116686",
      "title": "SVQN: Sequential Variational Soft Q-Learning Networks",
      "venue": "International Conference on Learning Representations",
      "year": 2020,
      "referenceCount": 35,
      "citationCount": 19,
      "authors": [
        {
          "authorId": null,
          "name": "Shiyu Huang"
        },
        {
          "authorId": "2093561216",
          "name": "Hang Su"
        },
        {
          "authorId": "145254043",
          "name": "Jun Zhu"
        },
        {
          "authorId": "2117182266",
          "name": "Tingling Chen"
        }
      ]
    },
    {
      "paperId": "eade466437fa6ee5ceed06f07788f6295fffcea9",
      "externalIds": {
        "DOI": "10.1109/ICISS63372.2025.11076266",
        "CorpusId": 280168604
      },
      "url": "https://www.semanticscholar.org/paper/eade466437fa6ee5ceed06f07788f6295fffcea9",
      "title": "Smart Traffic Estimation Model based on Deep Conditional Variational Reinforcement learning with Hiking Optimization in 6G",
      "venue": "International Conferences on Information Science and System",
      "year": 2025,
      "referenceCount": 19,
      "citationCount": 6,
      "authors": [
        {
          "authorId": "2373098717",
          "name": "Venkata Satya Suresh kumar Kondeti"
        },
        {
          "authorId": "2352473354",
          "name": "Raghavendra Kulkarni"
        },
        {
          "authorId": "2352466572",
          "name": "Binu Sudhakaran Pillai"
        },
        {
          "authorId": "2127202961",
          "name": "S. R"
        }
      ]
    },
    {
      "paperId": "8a166a6abde26d6bee1d9ae6f679926bf96b1c01",
      "externalIds": {
        "DBLP": "journals/corr/abs-2508-18514",
        "ArXiv": "2508.18514",
        "DOI": "10.1109/QCE65121.2025.00189",
        "CorpusId": 280870270
      },
      "url": "https://www.semanticscholar.org/paper/8a166a6abde26d6bee1d9ae6f679926bf96b1c01",
      "title": "Breaking Through Barren Plateaus: Reinforcement Learning Initializations for Deep Variational Quantum Circuits",
      "venue": "International Conference on Quantum Computing and Engineering",
      "year": 2025,
      "referenceCount": 45,
      "citationCount": 5,
      "authors": [
        {
          "authorId": "2223748729",
          "name": "Yifeng Peng"
        },
        {
          "authorId": "2260913507",
          "name": "Xinyi Li"
        },
        {
          "authorId": "2377321312",
          "name": "Zhemin Zhang"
        },
        {
          "authorId": "2328620271",
          "name": "Samuel Yen-Chi Chen"
        },
        {
          "authorId": "2304526596",
          "name": "Zhiding Liang"
        },
        {
          "authorId": "2303434811",
          "name": "Ying Wang"
        }
      ]
    },
    {
      "paperId": "7e21cc230b8bd90635d976428c5cee498c46a85a",
      "externalIds": {
        "DBLP": "conf/wcnc/ZhangW24",
        "DOI": "10.1109/WCNC57260.2024.10571187",
        "CorpusId": 270930050
      },
      "url": "https://www.semanticscholar.org/paper/7e21cc230b8bd90635d976428c5cee498c46a85a",
      "title": "Unsupervised and Generalizable Wireless Positioning via Variational Reinforcement Learning",
      "venue": "IEEE Wireless Communications and Networking Conference",
      "year": 2024,
      "referenceCount": 23,
      "citationCount": 2,
      "authors": [
        {
          "authorId": "2264124271",
          "name": "Jiankun Zhang"
        },
        {
          "authorId": "2264450773",
          "name": "Hao Wang"
        }
      ]
    },
    {
      "paperId": "a08fc4802b730f58ff58fe35ff243d652bce03a9",
      "externalIds": {
        "ArXiv": "2102.12344",
        "DBLP": "conf/iros/MengGK21",
        "DOI": "10.1109/IROS51168.2021.9636140",
        "CorpusId": 236965445
      },
      "url": "https://www.semanticscholar.org/paper/a08fc4802b730f58ff58fe35ff243d652bce03a9",
      "title": "Memory-based Deep Reinforcement Learning for POMDPs",
      "venue": "IEEE/RJS International Conference on Intelligent RObots and Systems",
      "year": 2021,
      "referenceCount": 51,
      "citationCount": 129,
      "authors": [
        {
          "authorId": "2113609651",
          "name": "Lingheng Meng"
        },
        {
          "authorId": "39267789",
          "name": "R. Gorbet"
        },
        {
          "authorId": "2064656077",
          "name": "Dana Kuli'c"
        }
      ]
    },
    {
      "paperId": "0e882d145ddab8e0f202e29d22040c98c28326fb",
      "externalIds": {
        "DBLP": "journals/corr/abs-2501-04982",
        "ArXiv": "2501.04982",
        "DOI": "10.48550/arXiv.2501.04982",
        "CorpusId": 275405849
      },
      "url": "https://www.semanticscholar.org/paper/0e882d145ddab8e0f202e29d22040c98c28326fb",
      "title": "CuRLA: Curriculum Learning Based Deep Reinforcement Learning for Autonomous Driving",
      "venue": "International Conference on Agents and Artificial Intelligence",
      "year": 2025,
      "referenceCount": 24,
      "citationCount": 6,
      "authors": [
        {
          "authorId": "2339271830",
          "name": "Bhargava Uppuluri"
        },
        {
          "authorId": "2411320089",
          "name": "Anjel Patel"
        },
        {
          "authorId": "2260703944",
          "name": "Neil Mehta"
        },
        {
          "authorId": "2342136556",
          "name": "S. Kamath"
        },
        {
          "authorId": "2528406",
          "name": "Pratyush Chakraborty"
        }
      ]
    },
    {
      "paperId": "009f39969ec181ac8b8548193a37d29cbafb1079",
      "externalIds": {
        "DBLP": "journals/sensors/XiangDDL23",
        "PubMedCentral": "9864208",
        "DOI": "10.3390/s23020762",
        "CorpusId": 255672607,
        "PubMed": "36679561"
      },
      "url": "https://www.semanticscholar.org/paper/009f39969ec181ac8b8548193a37d29cbafb1079",
      "title": "Variational Information Bottleneck Regularized Deep Reinforcement Learning for Efficient Robotic Skill Adaptation",
      "venue": "Italian National Conference on Sensors",
      "year": 2023,
      "referenceCount": 60,
      "citationCount": 3,
      "authors": [
        {
          "authorId": "2084870095",
          "name": "Guofei Xiang"
        },
        {
          "authorId": "9389321",
          "name": "S. Dian"
        },
        {
          "authorId": "2098018992",
          "name": "Shaofeng Du"
        },
        {
          "authorId": "52165705",
          "name": "Zhonghui Lv"
        }
      ]
    },
    {
      "paperId": "f3227fe43071b9b3c0c0f90c438d3d00d03b8cf1",
      "externalIds": {
        "DBLP": "journals/tvt/ZhangLTW25",
        "DOI": "10.1109/TVT.2025.3568158",
        "CorpusId": 278464537
      },
      "url": "https://www.semanticscholar.org/paper/f3227fe43071b9b3c0c0f90c438d3d00d03b8cf1",
      "title": "Variational Quantum Reinforcement Learning for Joint Resource Allocation of Blockchain-Based Vehicular Edge Computing and Quantum Internet",
      "venue": "IEEE Transactions on Vehicular Technology",
      "year": 2025,
      "referenceCount": 57,
      "citationCount": 5,
      "authors": [
        {
          "authorId": "2280031179",
          "name": "Kening Zhang"
        },
        {
          "authorId": "2179416089",
          "name": "C. Lee"
        },
        {
          "authorId": "2267605927",
          "name": "Y. Tsang"
        },
        {
          "authorId": "2157348291",
          "name": "Chun-Ho Wu"
        }
      ]
    }
  ]
}