{
  "total": 38055,
  "offset": 0,
  "next": 10,
  "data": [
    {
      "paperId": "7cb8a59e60b954eb5d50865cf2e055f1b91ddfdc",
      "externalIds": {
        "MAG": "2462347650",
        "DBLP": "conf/icml/ZhangP16",
        "CorpusId": 18499720
      },
      "url": "https://www.semanticscholar.org/paper/7cb8a59e60b954eb5d50865cf2e055f1b91ddfdc",
      "title": "Markov Latent Feature Models",
      "venue": "International Conference on Machine Learning",
      "year": 2016,
      "referenceCount": 31,
      "citationCount": 3,
      "authors": [
        {
          "authorId": "2852051",
          "name": "Aonan Zhang"
        },
        {
          "authorId": "143855009",
          "name": "J. Paisley"
        }
      ]
    },
    {
      "paperId": "3a0361e7895a3127bc1337700515f17e429ef816",
      "externalIds": {
        "MAG": "2974673146",
        "ArXiv": "1909.09261",
        "DOI": "10.1080/24754269.2021.1974664",
        "CorpusId": 202712564
      },
      "url": "https://www.semanticscholar.org/paper/3a0361e7895a3127bc1337700515f17e429ef816",
      "title": "Posterior contraction rate of sparse latent feature models with application to proteomics",
      "venue": "Statistical Theory and Related Fields",
      "year": 2019,
      "referenceCount": 34,
      "citationCount": 1,
      "authors": [
        {
          "authorId": "2144024727",
          "name": "Tong Li"
        },
        {
          "authorId": "8305558",
          "name": "Tianjian Zhou"
        },
        {
          "authorId": "2328919",
          "name": "Kam-Wah Tsui"
        },
        {
          "authorId": "2110687641",
          "name": "Lin Wei"
        },
        {
          "authorId": "50006480",
          "name": "Yuan Ji"
        }
      ]
    },
    {
      "paperId": "8285b4d161436f463b55b59d129da43d2889ae09",
      "externalIds": {
        "MAG": "2406321312",
        "DOI": "10.1111/biom.12536",
        "CorpusId": 3580272,
        "PubMed": "27148857"
      },
      "url": "https://www.semanticscholar.org/paper/8285b4d161436f463b55b59d129da43d2889ae09",
      "title": "Hidden Markov latent variable models with multivariate longitudinal data",
      "venue": "Biometrics",
      "year": 2017,
      "referenceCount": 27,
      "citationCount": 42,
      "authors": [
        {
          "authorId": "2484997",
          "name": "Xinyuan Song"
        },
        {
          "authorId": "2360141507",
          "name": "Yemao Xia"
        },
        {
          "authorId": "3280236",
          "name": "Hongtu Zhu"
        }
      ]
    },
    {
      "paperId": "630bab4b708bc6621f97789b14f790153f115d15",
      "externalIds": {
        "MAG": "2128002512",
        "DBLP": "conf/nips/GriffithsG05",
        "CorpusId": 2703716
      },
      "url": "https://www.semanticscholar.org/paper/630bab4b708bc6621f97789b14f790153f115d15",
      "title": "Infinite latent feature models and the Indian buffet process",
      "venue": "Neural Information Processing Systems",
      "year": 2005,
      "referenceCount": 34,
      "citationCount": 856,
      "authors": [
        {
          "authorId": "1799860",
          "name": "T. Griffiths"
        },
        {
          "authorId": "1744700",
          "name": "Zoubin Ghahramani"
        }
      ]
    },
    {
      "paperId": "d5b4826826cd31f0f46d3ccfa5a3fd91f0344d5c",
      "externalIds": {
        "DOI": "10.14569/ijacsa.2025.01601105",
        "CorpusId": 276119845
      },
      "url": "https://www.semanticscholar.org/paper/d5b4826826cd31f0f46d3ccfa5a3fd91f0344d5c",
      "title": "Feature Substitution Using Latent Dirichlet Allocation for Text Classification",
      "venue": "International Journal of Advanced Computer Science and Applications",
      "year": 2025,
      "referenceCount": 42,
      "citationCount": 2,
      "authors": [
        {
          "authorId": "79441383",
          "name": "Norsyela Muhammad Noor Mathivanan"
        },
        {
          "authorId": "49179705",
          "name": "R. Janor"
        },
        {
          "authorId": "2965137",
          "name": "S. Razak"
        },
        {
          "authorId": "2334138423",
          "name": "Nor Azura Md. Ghani"
        }
      ]
    },
    {
      "paperId": "66cb626402f5adbb3bb791868d1b4b3a737932c6",
      "externalIds": {
        "DOI": "10.1007/s11336-023-09938-1",
        "CorpusId": 265042709,
        "PubMed": "41738657"
      },
      "url": "https://www.semanticscholar.org/paper/66cb626402f5adbb3bb791868d1b4b3a737932c6",
      "title": "A Latent Hidden Markov Model for Process Data",
      "venue": "Psychometrika",
      "year": 2023,
      "referenceCount": 40,
      "citationCount": 13,
      "authors": [
        {
          "authorId": "8574014",
          "name": "Xueying Tang"
        }
      ]
    },
    {
      "paperId": "84435b23acdd60cd6219bb7fe90405efa4b85d03",
      "externalIds": {
        "CorpusId": 17746065
      },
      "url": "https://www.semanticscholar.org/paper/84435b23acdd60cd6219bb7fe90405efa4b85d03",
      "title": "Supplementary Materials for Distance Dependent Infinite Latent Feature Models",
      "venue": "",
      "year": 2014,
      "referenceCount": 4,
      "citationCount": 0,
      "authors": [
        {
          "authorId": "1831199",
          "name": "S. Gershman"
        },
        {
          "authorId": "1922747",
          "name": "P. Frazier"
        },
        {
          "authorId": "1796335",
          "name": "D. Blei"
        }
      ]
    },
    {
      "paperId": "7d9184edefd59b8692f9f41c038446afacea931f",
      "externalIds": {
        "ArXiv": "1110.5454",
        "MAG": "2091979392",
        "DBLP": "journals/pami/GershmanFB15",
        "DOI": "10.1109/TPAMI.2014.2321387",
        "CorpusId": 1636177,
        "PubMed": "26353245"
      },
      "url": "https://www.semanticscholar.org/paper/7d9184edefd59b8692f9f41c038446afacea931f",
      "title": "Distance Dependent Infinite Latent Feature Models",
      "venue": "IEEE Transactions on Pattern Analysis and Machine Intelligence",
      "year": 2011,
      "referenceCount": 39,
      "citationCount": 35,
      "authors": [
        {
          "authorId": "1831199",
          "name": "S. Gershman"
        },
        {
          "authorId": "1922747",
          "name": "P. Frazier"
        },
        {
          "authorId": "1796335",
          "name": "D. Blei"
        }
      ]
    },
    {
      "paperId": "81eae0eae76f074b1d6e03b9db0ecddcc1eb766f",
      "externalIds": {
        "MAG": "2759242272",
        "DBLP": "journals/air/AdamsB19",
        "DOI": "10.1007/s10462-017-9581-3",
        "CorpusId": 37590986
      },
      "url": "https://www.semanticscholar.org/paper/81eae0eae76f074b1d6e03b9db0ecddcc1eb766f",
      "title": "A survey of feature selection methods for Gaussian mixture models and hidden Markov models",
      "venue": "Artificial Intelligence Review",
      "year": 2017,
      "referenceCount": 145,
      "citationCount": 62,
      "authors": [
        {
          "authorId": "50394757",
          "name": "Stephen C. Adams"
        },
        {
          "authorId": "2580906",
          "name": "P. Beling"
        }
      ]
    },
    {
      "paperId": "0e4e28ee6434c8a6d43833d485b51dae9dc1a1bd",
      "externalIds": {
        "DOI": "10.3390/su18052351",
        "CorpusId": 286271855
      },
      "url": "https://www.semanticscholar.org/paper/0e4e28ee6434c8a6d43833d485b51dae9dc1a1bd",
      "title": "Modelling Corporate Transition Dynamics Using Markov Chains, Hidden Markov Models and CatBoost: Evidence from High-Emission Sectors",
      "venue": "Sustainability",
      "year": 2026,
      "referenceCount": 20,
      "citationCount": 0,
      "authors": [
        {
          "authorId": "2103429133",
          "name": "T. Nae"
        },
        {
          "authorId": "116686253",
          "name": "M. Gruiescu"
        },
        {
          "authorId": "70159731",
          "name": "Elena Șușnea"
        },
        {
          "authorId": "2148674996",
          "name": "E. Manta"
        },
        {
          "authorId": "2311265475",
          "name": "Ioana Bîrlan"
        },
        {
          "authorId": "2149881083",
          "name": "Alexandra-Carmen Bran"
        },
        {
          "authorId": "2344105914",
          "name": "Florin Stelian Grosu"
        }
      ]
    }
  ]
}