{
  "total": 18,
  "offset": 0,
  "next": 10,
  "data": [
    {
      "paperId": "8c2499a0a4c08f5ee4424ece0e4f680d8faae285",
      "externalIds": {
        "MAG": "2794491906",
        "DBLP": "journals/corr/abs-1803-09597",
        "ArXiv": "1803.09597",
        "CorpusId": 4387181
      },
      "url": "https://www.semanticscholar.org/paper/8c2499a0a4c08f5ee4424ece0e4f680d8faae285",
      "title": "One-Shot Segmentation in Clutter",
      "venue": "International Conference on Machine Learning",
      "year": 2018,
      "referenceCount": 43,
      "citationCount": 42,
      "authors": [
        {
          "authorId": "40899528",
          "name": "Claudio Michaelis"
        },
        {
          "authorId": "1731199",
          "name": "M. Bethge"
        },
        {
          "authorId": "1746183",
          "name": "Alexander S. Ecker"
        }
      ]
    },
    {
      "paperId": "9f7b6a24c378257bee103b63309cca7007ace652",
      "externalIds": {
        "ArXiv": "2508.14660",
        "DBLP": "journals/corr/abs-2508-14660",
        "DOI": "10.48550/arXiv.2508.14660",
        "CorpusId": 280692234
      },
      "url": "https://www.semanticscholar.org/paper/9f7b6a24c378257bee103b63309cca7007ace652",
      "title": "Towards PerSense++: Advancing Training-Free Personalized Instance Segmentation in Dense Images",
      "venue": "arXiv.org",
      "year": 2025,
      "referenceCount": 45,
      "citationCount": 2,
      "authors": [
        {
          "authorId": "2302804104",
          "name": "Muhammad Ibraheem Siddiqui"
        },
        {
          "authorId": "2302793723",
          "name": "Muhammad Umer Sheikh"
        },
        {
          "authorId": "2302802225",
          "name": "Hassan Abid"
        },
        {
          "authorId": "144342478",
          "name": "Kevin Henry"
        },
        {
          "authorId": "2319352229",
          "name": "Muhammad Haris Khan"
        }
      ]
    },
    {
      "paperId": "f7be97c266b74dc5a09ce9693f3f76136c3c55a0",
      "externalIds": {
        "DBLP": "journals/tvt/ZhangLZLG22",
        "DOI": "10.1109/TVT.2022.3141384",
        "CorpusId": 245871059
      },
      "url": "https://www.semanticscholar.org/paper/f7be97c266b74dc5a09ce9693f3f76136c3c55a0",
      "title": "Few-Shot Learning for Fine-Grained Signal Modulation Recognition based on Foreground Segmentation",
      "venue": "IEEE Transactions on Vehicular Technology",
      "year": 2022,
      "referenceCount": 56,
      "citationCount": 31,
      "authors": [
        {
          "authorId": "47294308",
          "name": "Zilin Zhang"
        },
        {
          "authorId": "115621884",
          "name": "Yan Li"
        },
        {
          "authorId": "1518668535",
          "name": "Qihang Zhai"
        },
        {
          "authorId": "2382933102",
          "name": "Yunjie Li"
        },
        {
          "authorId": "1822077",
          "name": "M. Gao"
        }
      ]
    },
    {
      "paperId": "62852ce9ee8941fd34a384e260cb5df0a016dcf8",
      "externalIds": {
        "ArXiv": "2405.13518",
        "CorpusId": 269982931
      },
      "url": "https://www.semanticscholar.org/paper/62852ce9ee8941fd34a384e260cb5df0a016dcf8",
      "title": "PerSense: Training-Free Personalized Instance Segmentation in Dense Images",
      "venue": "",
      "year": 2024,
      "referenceCount": 38,
      "citationCount": 1,
      "authors": [
        {
          "authorId": "2302804104",
          "name": "Muhammad Ibraheem Siddiqui"
        },
        {
          "authorId": "2302793723",
          "name": "Muhammad Umer Sheikh"
        },
        {
          "authorId": "2302802225",
          "name": "Hassan Abid"
        },
        {
          "authorId": "2286020489",
          "name": "Muhammad Haris Khan"
        }
      ]
    },
    {
      "paperId": "000429c966f527613c700947a0912b10ce3f359d",
      "externalIds": {
        "ArXiv": "2403.10187",
        "DBLP": "conf/icra/MosbachB24",
        "DOI": "10.1109/ICRA57147.2024.10610700",
        "CorpusId": 268510619
      },
      "url": "https://www.semanticscholar.org/paper/000429c966f527613c700947a0912b10ce3f359d",
      "title": "Grasp Anything: Combining Teacher-Augmented Policy Gradient Learning with Instance Segmentation to Grasp Arbitrary Objects",
      "venue": "IEEE International Conference on Robotics and Automation",
      "year": 2024,
      "referenceCount": 28,
      "citationCount": 13,
      "authors": [
        {
          "authorId": "2114858131",
          "name": "Malte Mosbach"
        },
        {
          "authorId": "2291962765",
          "name": "Sven Behnke"
        }
      ]
    },
    {
      "paperId": "5136b64cf4ce0046cfd889d53fa0675d326eb063",
      "externalIds": {
        "DBLP": "journals/ijrr/WalterFAT12",
        "MAG": "2085753829",
        "DOI": "10.1177/0278364911435515",
        "CorpusId": 12633044
      },
      "url": "https://www.semanticscholar.org/paper/5136b64cf4ce0046cfd889d53fa0675d326eb063",
      "title": "One-shot visual appearance learning for mobile manipulation",
      "venue": "Int. J. Robotics Res.",
      "year": 2012,
      "referenceCount": 33,
      "citationCount": 12,
      "authors": [
        {
          "authorId": "1733702",
          "name": "Matthew R. Walter"
        },
        {
          "authorId": "1770636",
          "name": "Yuli Friedman"
        },
        {
          "authorId": "1809823",
          "name": "Matthew E. Antone"
        },
        {
          "authorId": "1720894",
          "name": "S. Teller"
        }
      ]
    },
    {
      "paperId": "340d2a4e96b7aaac929ec01b30f8820f2ef736a4",
      "externalIds": {
        "DBLP": "journals/corr/abs-2403-06471",
        "ArXiv": "2403.06471",
        "DOI": "10.48550/arXiv.2403.06471",
        "CorpusId": 268358306
      },
      "url": "https://www.semanticscholar.org/paper/340d2a4e96b7aaac929ec01b30f8820f2ef736a4",
      "title": "Toward Robust Canine Cardiac Diagnosis: Deep Prototype Alignment Network-Based Few-Shot Segmentation in Veterinary Medicine",
      "venue": "arXiv.org",
      "year": 2024,
      "referenceCount": 16,
      "citationCount": 1,
      "authors": [
        {
          "authorId": "2240808551",
          "name": "Jun-Young Oh"
        },
        {
          "authorId": "2241115193",
          "name": "In-Gyu Lee"
        },
        {
          "authorId": "40147853",
          "name": "Tae-Eui Kam"
        },
        {
          "authorId": "2240998437",
          "name": "Ji-Hoon Jeong"
        }
      ]
    },
    {
      "paperId": "39893af6f5642cfce8a92bbf5bdcb03b84c003aa",
      "externalIds": {
        "DBLP": "conf/case/LiDG20",
        "MAG": "3091967103",
        "DOI": "10.1109/CASE48305.2020.9216733",
        "CorpusId": 222296976
      },
      "url": "https://www.semanticscholar.org/paper/39893af6f5642cfce8a92bbf5bdcb03b84c003aa",
      "title": "One-Shot Shape-Based Amodal-to-Modal Instance Segmentation",
      "venue": "2020 IEEE 16th International Conference on Automation Science and Engineering (CASE)",
      "year": 2020,
      "referenceCount": 50,
      "citationCount": 2,
      "authors": [
        {
          "authorId": "2112839283",
          "name": "Andrew Li"
        },
        {
          "authorId": "51428078",
          "name": "Michael Danielczuk"
        },
        {
          "authorId": "144344283",
          "name": "Ken Goldberg"
        }
      ]
    },
    {
      "paperId": "7897f6a19d5211bf6387f5c9e141c90a0cc84566",
      "externalIds": {
        "DBLP": "journals/corr/abs-1807-02654",
        "MAG": "2825824895",
        "ArXiv": "1807.02654",
        "CorpusId": 49656390
      },
      "url": "https://www.semanticscholar.org/paper/7897f6a19d5211bf6387f5c9e141c90a0cc84566",
      "title": "One-shot Texture Segmentation",
      "venue": "arXiv.org",
      "year": 2018,
      "referenceCount": 48,
      "citationCount": 18,
      "authors": [
        {
          "authorId": "3422289",
          "name": "Ivan Ustyuzhaninov"
        },
        {
          "authorId": "40899528",
          "name": "Claudio Michaelis"
        },
        {
          "authorId": "40634590",
          "name": "Wieland Brendel"
        },
        {
          "authorId": "1731199",
          "name": "M. Bethge"
        }
      ]
    },
    {
      "paperId": "5127bd5c9158824929d0ae63bc3a4532cc6e0eae",
      "externalIds": {
        "PubMedCentral": "11427181",
        "DOI": "10.1364/BOE.525944",
        "CorpusId": 271000407,
        "PubMed": "39346984"
      },
      "url": "https://www.semanticscholar.org/paper/5127bd5c9158824929d0ae63bc3a4532cc6e0eae",
      "title": "TAJ-Net: a two-stage clustered cell segmentation network with adaptive joint learning of spatial and spectral information",
      "venue": "Biomedical Optics Express",
      "year": 2024,
      "referenceCount": 46,
      "citationCount": 8,
      "authors": [
        {
          "authorId": "2277840655",
          "name": "Qing Zhang"
        },
        {
          "authorId": "2110788870",
          "name": "Xiaohui Zhou"
        },
        {
          "authorId": "2325741453",
          "name": "Chunyan Wu"
        },
        {
          "authorId": "2297145322",
          "name": "Xiwen Gao"
        },
        {
          "authorId": "2261747927",
          "name": "Yan Wang"
        },
        {
          "authorId": "2238167289",
          "name": "Qingli Li"
        }
      ]
    }
  ]
}