{
  "total": 80064,
  "offset": 0,
  "next": 10,
  "data": [
    {
      "paperId": "49e24b1fd415e20839c09b5dd68a01f61d1681d9",
      "externalIds": {
        "ArXiv": "1511.07275",
        "DBLP": "journals/corr/ZarembaMJF15",
        "MAG": "2963773578",
        "CorpusId": 2982122
      },
      "url": "https://www.semanticscholar.org/paper/49e24b1fd415e20839c09b5dd68a01f61d1681d9",
      "title": "Learning Simple Algorithms from Examples",
      "venue": "International Conference on Machine Learning",
      "year": 2015,
      "referenceCount": 31,
      "citationCount": 101,
      "authors": [
        {
          "authorId": "2563432",
          "name": "Wojciech Zaremba"
        },
        {
          "authorId": "2047446108",
          "name": "Tomas Mikolov"
        },
        {
          "authorId": "2319608",
          "name": "Armand Joulin"
        },
        {
          "authorId": "2276554",
          "name": "R. Fergus"
        }
      ]
    },
    {
      "paperId": "4c915c1eecb217c123a36dc6d3ce52d12c742614",
      "externalIds": {
        "DOI": "10.1023/A:1022672621406",
        "CorpusId": 2332513
      },
      "url": "https://www.semanticscholar.org/paper/4c915c1eecb217c123a36dc6d3ce52d12c742614",
      "title": "Simple Statistical Gradient-Following Algorithms for Connectionist Reinforcement Learning",
      "venue": "Machine-mediated learning",
      "year": 2004,
      "referenceCount": 37,
      "citationCount": 10054,
      "authors": [
        {
          "authorId": "2116648700",
          "name": "Ronald J. Williams"
        }
      ]
    },
    {
      "paperId": "4531990a5313e75680731033aaae0376b756a4a6",
      "externalIds": {
        "MAG": "2997227286",
        "DBLP": "journals/jmlr/Bhatia21",
        "ArXiv": "1810.00506",
        "CorpusId": 209516359
      },
      "url": "https://www.semanticscholar.org/paper/4531990a5313e75680731033aaae0376b756a4a6",
      "title": "Simple and Fast Algorithms for Interactive Machine Learning with Random Counter-examples",
      "venue": "Journal of machine learning research",
      "year": 2018,
      "referenceCount": 14,
      "citationCount": 2,
      "authors": [
        {
          "authorId": "51454611",
          "name": "Jagdeep Bhatia"
        }
      ]
    },
    {
      "paperId": "8f8153bc30641d32c88b2f8508aa7c22e450a529",
      "externalIds": {
        "MAG": "107530179",
        "CorpusId": 116347211
      },
      "url": "https://www.semanticscholar.org/paper/8f8153bc30641d32c88b2f8508aa7c22e450a529",
      "title": "ADAPTATIVE DECISION TREE ALGORITHMS FOR LEARNING FROM EXAMPLES (Ph.D. Thesis)",
      "venue": "",
      "year": 1990,
      "referenceCount": 0,
      "citationCount": 5,
      "authors": [
        {
          "authorId": "1731874",
          "name": "G. Pagallo"
        }
      ]
    },
    {
      "paperId": "c0daa62a58cd73a6c17a693a3f1cbb49bfb74783",
      "externalIds": {
        "DBLP": "journals/corr/abs-2105-09685",
        "ArXiv": "2105.09685",
        "CorpusId": 234790239
      },
      "url": "https://www.semanticscholar.org/paper/c0daa62a58cd73a6c17a693a3f1cbb49bfb74783",
      "title": "Simple Transparent Adversarial Examples",
      "venue": "arXiv.org",
      "year": 2021,
      "referenceCount": 21,
      "citationCount": 7,
      "authors": [
        {
          "authorId": "2099585910",
          "name": "Jaydeep Borkar"
        },
        {
          "authorId": "153191489",
          "name": "Pin-Yu Chen"
        }
      ]
    },
    {
      "paperId": "e28b9bc26f5f7eb3b0532d823713400202372da2",
      "externalIds": {
        "DBLP": "journals/corr/abs-2109-12286",
        "ArXiv": "2109.12286",
        "DOI": "10.1609/aaai.v36i8.20908",
        "CorpusId": 236533115
      },
      "url": "https://www.semanticscholar.org/paper/e28b9bc26f5f7eb3b0532d823713400202372da2",
      "title": "Stackelberg Actor-Critic: Game-Theoretic Reinforcement Learning Algorithms",
      "venue": "AAAI Conference on Artificial Intelligence",
      "year": 2021,
      "referenceCount": 42,
      "citationCount": 50,
      "authors": [
        {
          "authorId": "8507372",
          "name": "Liyuan Zheng"
        },
        {
          "authorId": "37537202",
          "name": "Tanner Fiez"
        },
        {
          "authorId": "2121561138",
          "name": "Zane Alumbaugh"
        },
        {
          "authorId": "133697096",
          "name": "Benjamin J. Chasnov"
        },
        {
          "authorId": "1785356",
          "name": "L. Ratliff"
        }
      ]
    },
    {
      "paperId": "0d77948704f77b61b0acd27ddd409db82b6fdc44",
      "externalIds": {
        "MAG": "2117124673",
        "DOI": "10.1088/0954-898X_4_1_005",
        "CorpusId": 9531693
      },
      "url": "https://www.semanticscholar.org/paper/0d77948704f77b61b0acd27ddd409db82b6fdc44",
      "title": "On learning simple neural concepts: from halfspace intersections to neural decision lists",
      "venue": "",
      "year": 1993,
      "referenceCount": 63,
      "citationCount": 46,
      "authors": [
        {
          "authorId": "143858557",
          "name": "M. Marchand"
        },
        {
          "authorId": "3291954",
          "name": "M. Golea"
        }
      ]
    },
    {
      "paperId": "3c3237df4b09dc5a21f7bc2b917f72ccbb6cf863",
      "externalIds": {
        "ArXiv": "2407.10490",
        "DBLP": "conf/iclr/RenS25",
        "DOI": "10.48550/arXiv.2407.10490",
        "CorpusId": 271213641
      },
      "url": "https://www.semanticscholar.org/paper/3c3237df4b09dc5a21f7bc2b917f72ccbb6cf863",
      "title": "Learning Dynamics of LLM Finetuning",
      "venue": "International Conference on Learning Representations",
      "year": 2024,
      "referenceCount": 69,
      "citationCount": 80,
      "authors": [
        {
          "authorId": "2115242507",
          "name": "Yi Ren"
        },
        {
          "authorId": "2262445067",
          "name": "Danica J. Sutherland"
        }
      ]
    },
    {
      "paperId": "894ace0a3416ccae8882bba18d9ab4df41976f90",
      "externalIds": {
        "ArXiv": "2109.01377",
        "DBLP": "journals/corr/abs-2109-01377",
        "DOI": "10.1016/j.artint.2023.103991",
        "CorpusId": 237417334
      },
      "url": "https://www.semanticscholar.org/paper/894ace0a3416ccae8882bba18d9ab4df41976f90",
      "title": "A Bayesian Approach to (Online) Transfer Learning: Theory and Algorithms",
      "venue": "Artificial Intelligence",
      "year": 2021,
      "referenceCount": 68,
      "citationCount": 22,
      "authors": [
        {
          "authorId": "150344924",
          "name": "Xuetong Wu"
        },
        {
          "authorId": "1727993",
          "name": "J. Manton"
        },
        {
          "authorId": "1678366",
          "name": "U. Aickelin"
        },
        {
          "authorId": "3168848",
          "name": "Jingge Zhu"
        }
      ]
    },
    {
      "paperId": "e526a65b9ef5afb6639fd3a062f4045d24448232",
      "externalIds": {
        "DBLP": "journals/ml/Williams92",
        "MAG": "2119717200",
        "DOI": "10.1007/BF00992696",
        "CorpusId": 19115634
      },
      "url": "https://www.semanticscholar.org/paper/e526a65b9ef5afb6639fd3a062f4045d24448232",
      "title": "Simple statistical gradient-following algorithms for connectionist reinforcement learning",
      "venue": "Machine-mediated learning",
      "year": 1992,
      "referenceCount": 34,
      "citationCount": 1051,
      "authors": [
        {
          "authorId": "2116648700",
          "name": "Ronald J. Williams"
        }
      ]
    }
  ]
}