{
  "total": 550,
  "offset": 0,
  "next": 10,
  "data": [
    {
      "paperId": "0cef691880a3a2b15ea3d0740882921527d05c77",
      "externalIds": {
        "ArXiv": "1605.00937",
        "DBLP": "journals/corr/MenschMTV16",
        "CorpusId": 215797658
      },
      "url": "https://www.semanticscholar.org/paper/0cef691880a3a2b15ea3d0740882921527d05c77",
      "title": "Dictionary Learning for Massive Matrix Factorization",
      "venue": "arXiv.org",
      "year": 2016,
      "referenceCount": 27,
      "citationCount": 64,
      "authors": [
        {
          "authorId": "2241153205",
          "name": "A. Mensch"
        },
        {
          "authorId": "2599292",
          "name": "J. Mairal"
        },
        {
          "authorId": "8493461",
          "name": "B. Thirion"
        },
        {
          "authorId": "3025780",
          "name": "G. Varoquaux"
        }
      ]
    },
    {
      "paperId": "b195538ea62cbfb79393638a2ccb01518ae53f69",
      "externalIds": {
        "MAG": "2950012781",
        "DBLP": "conf/icml/MenschMTV16",
        "CorpusId": 283927219
      },
      "url": "https://www.semanticscholar.org/paper/b195538ea62cbfb79393638a2ccb01518ae53f69",
      "title": "Dictionary Learning for Massive Matrix Factorization",
      "venue": "International Conference on Machine Learning",
      "year": 2016,
      "referenceCount": 27,
      "citationCount": 1,
      "authors": [
        {
          "authorId": "2241153205",
          "name": "A. Mensch"
        },
        {
          "authorId": "2599292",
          "name": "J. Mairal"
        },
        {
          "authorId": "2240636340",
          "name": "B. Thirion"
        },
        {
          "authorId": "2298316221",
          "name": "Ga¨el Varoquaux"
        }
      ]
    },
    {
      "paperId": "a7e86ead4b004a495276de48cfc17212c6990ee7",
      "externalIds": {
        "DBLP": "journals/tsp/MenschMTV18",
        "ArXiv": "1701.05363",
        "MAG": "2580009724",
        "DOI": "10.1109/TSP.2017.2752697",
        "CorpusId": 215797858
      },
      "url": "https://www.semanticscholar.org/paper/a7e86ead4b004a495276de48cfc17212c6990ee7",
      "title": "Stochastic Subsampling for Factorizing Huge Matrices",
      "venue": "IEEE Transactions on Signal Processing",
      "year": 2017,
      "referenceCount": 58,
      "citationCount": 32,
      "authors": [
        {
          "authorId": "2241153205",
          "name": "A. Mensch"
        },
        {
          "authorId": "2599292",
          "name": "J. Mairal"
        },
        {
          "authorId": "8493461",
          "name": "B. Thirion"
        },
        {
          "authorId": "3025780",
          "name": "G. Varoquaux"
        }
      ]
    },
    {
      "paperId": "1a518dee810098aac566adb2a2e92148a55f3ff1",
      "externalIds": {
        "DOI": "10.1109/EEICE65049.2025.11033754",
        "CorpusId": 279416600
      },
      "url": "https://www.semanticscholar.org/paper/1a518dee810098aac566adb2a2e92148a55f3ff1",
      "title": "Double-Regularized Dictionary Learning and Low-Rank Matrix Factorization for Hyperspectral Anomaly Detection",
      "venue": "2025 6th International Conference on Electrical, Electronic Information and Communication Engineering (EEICE)",
      "year": 2025,
      "referenceCount": 23,
      "citationCount": 0,
      "authors": [
        {
          "authorId": "2075209892",
          "name": "Maoyuan Feng"
        },
        {
          "authorId": "2275889243",
          "name": "Qin Shu"
        }
      ]
    },
    {
      "paperId": "847f7d5bb3e9ad7ddb17ab17d28ae1caef0c66b6",
      "externalIds": {
        "CorpusId": 31116025
      },
      "url": "https://www.semanticscholar.org/paper/847f7d5bb3e9ad7ddb17ab17d28ae1caef0c66b6",
      "title": "Learning for Massive Matrix Factorization",
      "venue": "",
      "year": 2017,
      "referenceCount": 27,
      "citationCount": 0,
      "authors": [
        {
          "authorId": "2241153205",
          "name": "A. Mensch"
        },
        {
          "authorId": "2599292",
          "name": "J. Mairal"
        },
        {
          "authorId": "8493461",
          "name": "B. Thirion"
        },
        {
          "authorId": "3025780",
          "name": "G. Varoquaux"
        }
      ]
    },
    {
      "paperId": "13326b1c5f3f15df17a84df018df2020c8af4214",
      "externalIds": {
        "DOI": "10.1109/TSMC.2026.3655184",
        "CorpusId": 285164490
      },
      "url": "https://www.semanticscholar.org/paper/13326b1c5f3f15df17a84df018df2020c8af4214",
      "title": "Conic Hull Fitting-Based Dictionary Matrix Learning for Nonnegative Matrix Factorization",
      "venue": "IEEE Transactions on Systems, Man, and Cybernetics: Systems",
      "year": 2026,
      "referenceCount": 64,
      "citationCount": 0,
      "authors": [
        {
          "authorId": "1832576678",
          "name": "Zhijie Lin"
        },
        {
          "authorId": "2268377606",
          "name": "Zhaoshui He"
        },
        {
          "authorId": "2274722125",
          "name": "Hao Liang"
        },
        {
          "authorId": "2247468996",
          "name": "Wenqing Su"
        },
        {
          "authorId": "2274436183",
          "name": "Beihai Tan"
        },
        {
          "authorId": "2115409811",
          "name": "Ji Tan"
        }
      ]
    },
    {
      "paperId": "5174336a43e2651d144f52e24adf507566df3794",
      "externalIds": {
        "DBLP": "journals/corr/abs-2005-01317",
        "ArXiv": "2005.01317",
        "MAG": "3020986094",
        "DOI": "10.1109/TSP.2021.3062988",
        "CorpusId": 218487240
      },
      "url": "https://www.semanticscholar.org/paper/5174336a43e2651d144f52e24adf507566df3794",
      "title": "Robust Non-Linear Matrix Factorization for Dictionary Learning, Denoising, and Clustering",
      "venue": "IEEE Transactions on Signal Processing",
      "year": 2020,
      "referenceCount": 62,
      "citationCount": 22,
      "authors": [
        {
          "authorId": "2599803",
          "name": "Jicong Fan"
        },
        {
          "authorId": "51166040",
          "name": "Chengrun Yang"
        },
        {
          "authorId": "2384128",
          "name": "Madeleine Udell"
        }
      ]
    },
    {
      "paperId": "151a4aead21b22d1d05e57b4da6322c520d63ad9",
      "externalIds": {
        "DBLP": "phd/jp/Rolet21",
        "CorpusId": 252716515
      },
      "url": "https://www.semanticscholar.org/paper/151a4aead21b22d1d05e57b4da6322c520d63ad9",
      "title": "Optimal Transport Dictionary Learning and Non-negative Matrix Factorization",
      "venue": "",
      "year": 2021,
      "referenceCount": 0,
      "citationCount": 0,
      "authors": [
        {
          "authorId": "3437110",
          "name": "Antoine Rolet"
        }
      ]
    },
    {
      "paperId": "cd03cf741920b8beb5f24016b0a64116da37e238",
      "externalIds": {
        "ArXiv": "1911.01931",
        "DBLP": "journals/corr/abs-1911-01931",
        "MAG": "2987964156",
        "CorpusId": 207852417
      },
      "url": "https://www.semanticscholar.org/paper/cd03cf741920b8beb5f24016b0a64116da37e238",
      "title": "Online matrix factorization for Markovian data and applications to Network Dictionary Learning",
      "venue": "arXiv.org",
      "year": 2019,
      "referenceCount": 63,
      "citationCount": 26,
      "authors": [
        {
          "authorId": "2312324",
          "name": "Hanbaek Lyu"
        },
        {
          "authorId": "8256323",
          "name": "D. Needell"
        },
        {
          "authorId": "1682385",
          "name": "L. Balzano"
        }
      ]
    },
    {
      "paperId": "271437bb1df64ac3cd0e35909950bc83a6426a46",
      "externalIds": {
        "MAG": "2562848127",
        "DBLP": "journals/tbe/FuLLYHT17",
        "DOI": "10.1109/TBME.2016.2644258",
        "CorpusId": 2250964,
        "PubMed": "28026747"
      },
      "url": "https://www.semanticscholar.org/paper/271437bb1df64ac3cd0e35909950bc83a6426a46",
      "title": "Joint Dictionary Learning-Based Non-Negative Matrix Factorization for Voice Conversion to Improve Speech Intelligibility After Oral Surgery",
      "venue": "IEEE Transactions on Biomedical Engineering",
      "year": 2017,
      "referenceCount": 45,
      "citationCount": 46,
      "authors": [
        {
          "authorId": "2777035",
          "name": "Szu-Wei Fu"
        },
        {
          "authorId": "2875668",
          "name": "Pei-Chun Li"
        },
        {
          "authorId": "145274548",
          "name": "Ying-Hui Lai"
        },
        {
          "authorId": "3826851",
          "name": "Cheng‐Chien Yang"
        },
        {
          "authorId": "37593204",
          "name": "Li-Chun Hsieh"
        },
        {
          "authorId": "145403933",
          "name": "Yu Tsao"
        }
      ]
    }
  ]
}