{
  "total": 1013,
  "offset": 0,
  "next": 10,
  "data": [
    {
      "paperId": "1f600f213dbbd70f06093438855f39022957b4bf",
      "externalIds": {
        "DBLP": "conf/icml/ZhuSG15",
        "MAG": "1879966306",
        "CorpusId": 17748586
      },
      "url": "https://www.semanticscholar.org/paper/1f600f213dbbd70f06093438855f39022957b4bf",
      "title": "Long Short-Term Memory Over Recursive Structures",
      "venue": "International Conference on Machine Learning",
      "year": 2015,
      "referenceCount": 35,
      "citationCount": 345,
      "authors": [
        {
          "authorId": "1854999",
          "name": "Xiao-Dan Zhu"
        },
        {
          "authorId": "1690185",
          "name": "Parinaz Sobhani"
        },
        {
          "authorId": "1694050",
          "name": "Hongyu Guo"
        }
      ]
    },
    {
      "paperId": "4b9af9b9ed1bfb6b0688019d9fa79875bbcd8f3f",
      "externalIds": {
        "MAG": "2111369166",
        "DBLP": "journals/corr/ZhuSG15",
        "ArXiv": "1503.04881",
        "CorpusId": 17629631
      },
      "url": "https://www.semanticscholar.org/paper/4b9af9b9ed1bfb6b0688019d9fa79875bbcd8f3f",
      "title": "Long Short-Term Memory Over Tree Structures",
      "venue": "arXiv.org",
      "year": 2015,
      "referenceCount": 30,
      "citationCount": 72,
      "authors": [
        {
          "authorId": "1854999",
          "name": "Xiao-Dan Zhu"
        },
        {
          "authorId": "1690185",
          "name": "Parinaz Sobhani"
        },
        {
          "authorId": "1694050",
          "name": "Hongyu Guo"
        }
      ]
    },
    {
      "paperId": "32de44f01a96d4473d21099d15e25bc2b9f08e2f",
      "externalIds": {
        "MAG": "2963355447",
        "DBLP": "conf/acl/TaiSM15",
        "ArXiv": "1503.00075",
        "ACL": "P15-1150",
        "DOI": "10.3115/v1/P15-1150",
        "CorpusId": 3033526
      },
      "url": "https://www.semanticscholar.org/paper/32de44f01a96d4473d21099d15e25bc2b9f08e2f",
      "title": "Improved Semantic Representations From Tree-Structured Long Short-Term Memory Networks",
      "venue": "Annual Meeting of the Association for Computational Linguistics",
      "year": 2015,
      "referenceCount": 41,
      "citationCount": 3235,
      "authors": [
        {
          "authorId": "8421815",
          "name": "Kai Sheng Tai"
        },
        {
          "authorId": "2166511",
          "name": "R. Socher"
        },
        {
          "authorId": "144783904",
          "name": "Christopher D. Manning"
        }
      ]
    },
    {
      "paperId": "8e54dd2b426b8d656a77c155818a87dd34c40754",
      "externalIds": {
        "MAG": "2902455138",
        "DBLP": "conf/esann/MalhotraVSA15",
        "CorpusId": 43680425
      },
      "url": "https://www.semanticscholar.org/paper/8e54dd2b426b8d656a77c155818a87dd34c40754",
      "title": "Long Short Term Memory Networks for Anomaly Detection in Time Series",
      "venue": "The European Symposium on Artificial Neural Networks",
      "year": 2015,
      "referenceCount": 6,
      "citationCount": 1499,
      "authors": [
        {
          "authorId": "143898225",
          "name": "Pankaj Malhotra"
        },
        {
          "authorId": "3213990",
          "name": "L. Vig"
        },
        {
          "authorId": "143725466",
          "name": "Gautam M. Shroff"
        },
        {
          "authorId": "145968137",
          "name": "Puneet Agarwal"
        }
      ]
    },
    {
      "paperId": "dec2ccce1ecb34bab02c42c2dd18cb468470adf8",
      "externalIds": {
        "DBLP": "conf/icassp/SainathVSS15",
        "MAG": "1600744878",
        "DOI": "10.1109/ICASSP.2015.7178838",
        "CorpusId": 898670
      },
      "url": "https://www.semanticscholar.org/paper/dec2ccce1ecb34bab02c42c2dd18cb468470adf8",
      "title": "Convolutional, Long Short-Term Memory, fully connected Deep Neural Networks",
      "venue": "IEEE International Conference on Acoustics, Speech, and Signal Processing",
      "year": 2015,
      "referenceCount": 27,
      "citationCount": 1505,
      "authors": [
        {
          "authorId": "1784851",
          "name": "Tara N. Sainath"
        },
        {
          "authorId": "1689108",
          "name": "O. Vinyals"
        },
        {
          "authorId": "33666044",
          "name": "A. Senior"
        },
        {
          "authorId": "2670103",
          "name": "Hasim Sak"
        }
      ]
    },
    {
      "paperId": "1492ddfd4f4b152b83f11db8c9ecdfd0d2543294",
      "externalIds": {
        "MAG": "2164859115",
        "DBLP": "conf/starsem/LeZ15",
        "ACL": "S15-1002",
        "ArXiv": "1503.02510",
        "DOI": "10.18653/v1/S15-1002",
        "CorpusId": 11094441
      },
      "url": "https://www.semanticscholar.org/paper/1492ddfd4f4b152b83f11db8c9ecdfd0d2543294",
      "title": "Compositional Distributional Semantics with Long Short Term Memory",
      "venue": "International Workshop on Semantic Evaluation",
      "year": 2015,
      "referenceCount": 32,
      "citationCount": 106,
      "authors": [
        {
          "authorId": "144106794",
          "name": "Phong Le"
        },
        {
          "authorId": "1787819",
          "name": "Willem H. Zuidema"
        }
      ]
    },
    {
      "paperId": "032fbcb58e2282f02426a0f09c6d5b42787936ec",
      "externalIds": {
        "MAG": "2964217331",
        "ACL": "D15-1206",
        "ArXiv": "1508.03720",
        "DBLP": "journals/corr/XuMLCPJ15",
        "DOI": "10.18653/v1/D15-1206",
        "CorpusId": 5403702
      },
      "url": "https://www.semanticscholar.org/paper/032fbcb58e2282f02426a0f09c6d5b42787936ec",
      "title": "Classifying Relations via Long Short Term Memory Networks along Shortest Dependency Paths",
      "venue": "Conference on Empirical Methods in Natural Language Processing",
      "year": 2015,
      "referenceCount": 36,
      "citationCount": 684,
      "authors": [
        {
          "authorId": "48615144",
          "name": "Yan Xu"
        },
        {
          "authorId": "38956216",
          "name": "Lili Mou"
        },
        {
          "authorId": "1410115257",
          "name": "Ge Li"
        },
        {
          "authorId": "1691213",
          "name": "Yunchuan Chen"
        },
        {
          "authorId": "1818378366",
          "name": "Hao Peng"
        },
        {
          "authorId": "1700880",
          "name": "Zhi Jin"
        }
      ]
    },
    {
      "paperId": "190791ee1fce5a1e11f70745ffeac4c190430b45",
      "externalIds": {
        "MAG": "2471733366",
        "CorpusId": 203683845
      },
      "url": "https://www.semanticscholar.org/paper/190791ee1fce5a1e11f70745ffeac4c190430b45",
      "title": "Music Learning with Long Short Term Memory Networks",
      "venue": "",
      "year": 2015,
      "referenceCount": 0,
      "citationCount": 0,
      "authors": [
        {
          "authorId": "5550189",
          "name": "Florian Colombo"
        }
      ]
    },
    {
      "paperId": "07991dd75f6dd32cb708a4038f25b6428d921928",
      "externalIds": {
        "MAG": "2889284383",
        "CorpusId": 14346467
      },
      "url": "https://www.semanticscholar.org/paper/07991dd75f6dd32cb708a4038f25b6428d921928",
      "title": "ECOLE POLYTECHNIQUE FEDERALE DE LAUSANNE SCHOOL OF LIFE SCIENCES Master project in Life Sciences and Technology MUSIC LEARNING WITH LONG SHORT TERM MEMORY NETWORKS",
      "venue": "",
      "year": 2015,
      "referenceCount": 33,
      "citationCount": 0,
      "authors": [
        {
          "authorId": "5550189",
          "name": "Florian Colombo"
        }
      ]
    },
    {
      "paperId": "7304c3155ee9ac37348ced0d71f3cb03434b252d",
      "externalIds": {
        "DBLP": "conf/cvpr/LiangSXFLY16",
        "MAG": "2963758239",
        "ArXiv": "1511.04510",
        "DOI": "10.1109/CVPR.2016.347",
        "CorpusId": 8543144
      },
      "url": "https://www.semanticscholar.org/paper/7304c3155ee9ac37348ced0d71f3cb03434b252d",
      "title": "Semantic Object Parsing with Local-Global Long Short-Term Memory",
      "venue": "Computer Vision and Pattern Recognition",
      "year": 2015,
      "referenceCount": 46,
      "citationCount": 188,
      "authors": [
        {
          "authorId": "40250403",
          "name": "Xiaodan Liang"
        },
        {
          "authorId": "1720987",
          "name": "Xiaohui Shen"
        },
        {
          "authorId": "2480239",
          "name": "Donglai Xiang"
        },
        {
          "authorId": "33221685",
          "name": "Jiashi Feng"
        },
        {
          "authorId": "1737218",
          "name": "Liang Lin"
        },
        {
          "authorId": "143653681",
          "name": "Shuicheng Yan"
        }
      ]
    }
  ]
}