{
  "total": 70,
  "offset": 0,
  "next": 10,
  "data": [
    {
      "paperId": "31e576d6f9d53d6daea44955e0fcfcbe20743f4a",
      "externalIds": {
        "MAG": "1815390093",
        "DBLP": "conf/icml/LimCX15",
        "CorpusId": 15734790
      },
      "url": "https://www.semanticscholar.org/paper/31e576d6f9d53d6daea44955e0fcfcbe20743f4a",
      "title": "A Convex Optimization Framework for Bi-Clustering",
      "venue": "International Conference on Machine Learning",
      "year": 2015,
      "referenceCount": 36,
      "citationCount": 12,
      "authors": [
        {
          "authorId": "1794487",
          "name": "Shiau Hong Lim"
        },
        {
          "authorId": "51310474",
          "name": "Yudong Chen"
        },
        {
          "authorId": "143719795",
          "name": "Huan Xu"
        }
      ]
    },
    {
      "paperId": "772bf14ffc0dee58d5d395484a198824d86a17f2",
      "externalIds": {
        "DBLP": "conf/wacv/PanahiBKD18",
        "MAG": "2800770757",
        "DOI": "10.1109/WACV.2018.00147",
        "CorpusId": 13686312
      },
      "url": "https://www.semanticscholar.org/paper/772bf14ffc0dee58d5d395484a198824d86a17f2",
      "title": "Robust Subspace Clustering by Bi-Sparsity Pursuit: Guarantees and Sequential Algorithm",
      "venue": "IEEE Workshop/Winter Conference on Applications of Computer Vision",
      "year": 2018,
      "referenceCount": 32,
      "citationCount": 1,
      "authors": [
        {
          "authorId": "1733181",
          "name": "Ashkan Panahi"
        },
        {
          "authorId": "2062552025",
          "name": "Xiao Bian"
        },
        {
          "authorId": "145087510",
          "name": "H. Krim"
        },
        {
          "authorId": "2072644873",
          "name": "Liyi Dai"
        }
      ]
    },
    {
      "paperId": "53ecda4c0acae30d780358e52748030149f34822",
      "externalIds": {
        "MAG": "2652776740",
        "DBLP": "journals/jmlr/LimCX17",
        "CorpusId": 44018016
      },
      "url": "https://www.semanticscholar.org/paper/53ecda4c0acae30d780358e52748030149f34822",
      "title": "Clustering from General Pairwise Observations with Applications to Time-varying Graphs",
      "venue": "Journal of machine learning research",
      "year": 2017,
      "referenceCount": 43,
      "citationCount": 3,
      "authors": [
        {
          "authorId": "1794487",
          "name": "Shiau Hong Lim"
        },
        {
          "authorId": "51310474",
          "name": "Yudong Chen"
        },
        {
          "authorId": "143719795",
          "name": "Huan Xu"
        }
      ]
    },
    {
      "paperId": "bbb8b1364a8f5593132310d777b52d14f632f17b",
      "externalIds": {
        "PubMedCentral": "12630809",
        "DOI": "10.1038/s41598-025-24380-2",
        "CorpusId": 283083232,
        "PubMed": "41258385"
      },
      "url": "https://www.semanticscholar.org/paper/bbb8b1364a8f5593132310d777b52d14f632f17b",
      "title": "LS-BMO-HDBSCAN as a hybrid memetic bacterial intelligence framework for efficient data clustering",
      "venue": "Scientific Reports",
      "year": 2025,
      "referenceCount": 49,
      "citationCount": 0,
      "authors": [
        {
          "authorId": "2183031871",
          "name": "A. J. Al-Nussairi"
        },
        {
          "authorId": "2370030877",
          "name": "Abdulsalam Abdulsattar Abdulazez"
        },
        {
          "authorId": "2388273460",
          "name": "Ahmed Adnan Hadi"
        },
        {
          "authorId": "2318787034",
          "name": "Saleem Malik"
        },
        {
          "authorId": "2249622247",
          "name": "S. Patro"
        },
        {
          "authorId": "2341638277",
          "name": "Chandrakanta Mahanty"
        },
        {
          "authorId": "2343041047",
          "name": "Ahmed A. Alamiery"
        },
        {
          "authorId": "35695761",
          "name": "Q. Naveed"
        },
        {
          "authorId": "2362686358",
          "name": "Shafat Khan"
        },
        {
          "authorId": "2392984401",
          "name": "Amanuel Zewude"
        }
      ]
    },
    {
      "paperId": "d011dcf0307e00bacc38135314d547756cdb0337",
      "externalIds": {
        "DOI": "10.1007/s12561-022-09350-w",
        "CorpusId": 250397424,
        "PubMed": "38179127"
      },
      "url": "https://www.semanticscholar.org/paper/d011dcf0307e00bacc38135314d547756cdb0337",
      "title": "A Unified Bayesian Framework for Bi-overlapping-Clustering Multi-omics Data via Sparse Matrix Factorization",
      "venue": "Statistics in Biosciences",
      "year": 2022,
      "referenceCount": 62,
      "citationCount": 0,
      "authors": [
        {
          "authorId": "97662457",
          "name": "Fangting Zhou"
        },
        {
          "authorId": "50722562",
          "name": "Kejun He"
        },
        {
          "authorId": "2090487688",
          "name": "James J. Cai"
        },
        {
          "authorId": "2243478",
          "name": "L. Davidson"
        },
        {
          "authorId": "3029592",
          "name": "R. Chapkin"
        },
        {
          "authorId": "48530292",
          "name": "Yang Ni"
        }
      ]
    },
    {
      "paperId": "c77b8960e145a2e81924e2c54b956f223a3956fc",
      "externalIds": {
        "DOI": "10.55041/ijsrem56389",
        "CorpusId": 285364683
      },
      "url": "https://www.semanticscholar.org/paper/c77b8960e145a2e81924e2c54b956f223a3956fc",
      "title": "An XAI-Driven Linkedin Profile Optimization System Using Sentence Embeddings and Semantic Clustering",
      "venue": "International Journal of Scientific Research in Engineering and Management",
      "year": 2026,
      "referenceCount": 0,
      "citationCount": 0,
      "authors": [
        {
          "authorId": "2137348550",
          "name": "A. S."
        },
        {
          "authorId": "2347996484",
          "name": "Dr.S. Gnanapriya"
        }
      ]
    },
    {
      "paperId": "d2669cffe0c59b7575ecc4a80692e03ca650e1cf",
      "externalIds": {
        "DOI": "10.1007/s40745-024-00580-x",
        "CorpusId": 274544332
      },
      "url": "https://www.semanticscholar.org/paper/d2669cffe0c59b7575ecc4a80692e03ca650e1cf",
      "title": "Sentiment-Based Hierarchical Deep Learning Framework Using Hybrid Optimization for Course Recommendation in E-learning",
      "venue": "Annals of Data Science",
      "year": 2024,
      "referenceCount": 41,
      "citationCount": 1,
      "authors": [
        {
          "authorId": "2275740639",
          "name": "A. Madhavi"
        },
        {
          "authorId": "2275736664",
          "name": "A. Nagesh"
        },
        {
          "authorId": "2275610289",
          "name": "A. Govardhan"
        }
      ]
    },
    {
      "paperId": "84398cc46dd00e9ad8b9b42d27b21627e3c1248d",
      "externalIds": {
        "CorpusId": 245216684
      },
      "url": "https://www.semanticscholar.org/paper/84398cc46dd00e9ad8b9b42d27b21627e3c1248d",
      "title": "AINTUITIONISTIC FUZZY C-MEANS CLUSTERING BASED FEATURE SELECTION AND ENSEMBLE SUPPORT VECTOR MACHINE FRAMEWORK FOR BIG DATA CYBER-SECURITY",
      "venue": "",
      "year": 2020,
      "referenceCount": 31,
      "citationCount": 1,
      "authors": [
        {
          "authorId": "51022051",
          "name": "G. A. Mylavathi"
        },
        {
          "authorId": "1410353390",
          "name": "Dr. B. Srinivasan"
        }
      ]
    },
    {
      "paperId": "f22f4fc9d3b4a2f0af13cb9419826dc7ea7e99f5",
      "externalIds": {
        "DBLP": "journals/tsp/AkhtarBTR22",
        "ArXiv": "2110.11721",
        "DOI": "10.1109/TSP.2023.3234462",
        "CorpusId": 256149421
      },
      "url": "https://www.semanticscholar.org/paper/f22f4fc9d3b4a2f0af13cb9419826dc7ea7e99f5",
      "title": "Projection-Free Stochastic Bi-Level Optimization",
      "venue": "IEEE Transactions on Signal Processing",
      "year": 2021,
      "referenceCount": 66,
      "citationCount": 17,
      "authors": [
        {
          "authorId": "2067177722",
          "name": "Z. Akhtar"
        },
        {
          "authorId": "3387859",
          "name": "A. S. Bedi"
        },
        {
          "authorId": "80566477",
          "name": "Srujan Teja Thomdapu"
        },
        {
          "authorId": "2576161",
          "name": "K. Rajawat"
        }
      ]
    },
    {
      "paperId": "acc0e790d8beace86ef14f2e073ced942055904f",
      "externalIds": {
        "DOI": "10.1049/rpg2.12707",
        "CorpusId": 257548749
      },
      "url": "https://www.semanticscholar.org/paper/acc0e790d8beace86ef14f2e073ced942055904f",
      "title": "A bi‐level multistage distribution network expansion planning framework with the cooperation of residential private investors (A case study in Iran)",
      "venue": "IET Renewable Power Generation",
      "year": 2023,
      "referenceCount": 24,
      "citationCount": 4,
      "authors": [
        {
          "authorId": "1859412725",
          "name": "A. Ashoornezhad"
        },
        {
          "authorId": "2320387",
          "name": "H. Falaghi"
        },
        {
          "authorId": "2913336",
          "name": "A. Hajizadeh"
        },
        {
          "authorId": "49084571",
          "name": "M. Ramezani"
        }
      ]
    }
  ]
}