{
  "total": 224,
  "offset": 0,
  "next": 10,
  "data": [
    {
      "paperId": "8ece5116ebf83c770e5c2fb8b3b449381b70ce6f",
      "externalIds": {
        "MAG": "3126056062",
        "DBLP": "conf/icml/TaiebTH17",
        "CorpusId": 43356614
      },
      "url": "https://www.semanticscholar.org/paper/8ece5116ebf83c770e5c2fb8b3b449381b70ce6f",
      "title": "Coherent Probabilistic Forecasts for Hierarchical Time Series",
      "venue": "International Conference on Machine Learning",
      "year": 2017,
      "referenceCount": 35,
      "citationCount": 97,
      "authors": [
        {
          "authorId": "2397429",
          "name": "Souhaib Ben Taieb"
        },
        {
          "authorId": "2110747841",
          "name": "James W. Taylor"
        },
        {
          "authorId": "145211352",
          "name": "Rob J Hyndman"
        }
      ]
    },
    {
      "paperId": "60671a03153967d85b2208eb6f04b673349b182f",
      "externalIds": {
        "DBLP": "conf/icml/RangapuramWBMGJ21",
        "CorpusId": 235826366
      },
      "url": "https://www.semanticscholar.org/paper/60671a03153967d85b2208eb6f04b673349b182f",
      "title": "End-to-End Learning of Coherent Probabilistic Forecasts for Hierarchical Time Series",
      "venue": "International Conference on Machine Learning",
      "year": 2021,
      "referenceCount": 48,
      "citationCount": 78,
      "authors": [
        {
          "authorId": "26320653",
          "name": "Syama Sundar Rangapuram"
        },
        {
          "authorId": "80739667",
          "name": "L. Werner"
        },
        {
          "authorId": "1915597",
          "name": "Konstantinos Benidis"
        },
        {
          "authorId": "2068669472",
          "name": "Pedro Mercado"
        },
        {
          "authorId": "2113062",
          "name": "Jan Gasthaus"
        },
        {
          "authorId": "2166235",
          "name": "Tim Januschowski"
        }
      ]
    },
    {
      "paperId": "08831a9f7858b867a20b3b19d88c0d8925f5a1b6",
      "externalIds": {
        "DBLP": "journals/ior/BertaniJS25",
        "DOI": "10.1287/opre.2022.0113",
        "CorpusId": 275378685
      },
      "url": "https://www.semanticscholar.org/paper/08831a9f7858b867a20b3b19d88c0d8925f5a1b6",
      "title": "Joint Bottom-up Method for Probabilistic Forecasting of Hierarchical Time Series",
      "venue": "Operational Research",
      "year": 2025,
      "referenceCount": 35,
      "citationCount": 3,
      "authors": [
        {
          "authorId": "1741790207",
          "name": "N. Bertani"
        },
        {
          "authorId": "2060724736",
          "name": "Shane T. Jensen"
        },
        {
          "authorId": "66664982",
          "name": "Ville A. Satopää"
        }
      ]
    },
    {
      "paperId": "83871265b46ca06b1536aaf0a4108f783d322100",
      "externalIds": {
        "DBLP": "conf/uai/ZambonARC24",
        "CorpusId": 276992238
      },
      "url": "https://www.semanticscholar.org/paper/83871265b46ca06b1536aaf0a4108f783d322100",
      "title": "Probabilistic reconciliation of mixed-type hierarchical time series",
      "venue": "Conference on Uncertainty in Artificial Intelligence",
      "year": 2024,
      "referenceCount": 30,
      "citationCount": 2,
      "authors": [
        {
          "authorId": "2141292338",
          "name": "Lorenzo Zambon"
        },
        {
          "authorId": "2347353683",
          "name": "Dario Azzimonti"
        },
        {
          "authorId": "2176865820",
          "name": "Nicolò Rubattu"
        },
        {
          "authorId": "2337642824",
          "name": "G. Corani"
        }
      ]
    },
    {
      "paperId": "d407dc5c02437afd97130899a6204a063d1fa135",
      "externalIds": {
        "DOI": "10.1177/10946705241232169",
        "CorpusId": 264997213
      },
      "url": "https://www.semanticscholar.org/paper/d407dc5c02437afd97130899a6204a063d1fa135",
      "title": "Hierarchical Time Series Forecasting in Emergency Medical Services",
      "venue": "Journal of services research",
      "year": 2024,
      "referenceCount": 52,
      "citationCount": 16,
      "authors": [
        {
          "authorId": "1403735621",
          "name": "B. Rostami-Tabar"
        },
        {
          "authorId": "145211352",
          "name": "Rob J Hyndman"
        }
      ]
    },
    {
      "paperId": "e17cc5ac9fe7a1cdb54039f3a089251d07aa2899",
      "externalIds": {
        "DBLP": "journals/sac/ZambonAC24",
        "ArXiv": "2210.02286",
        "DOI": "10.1007/s11222-023-10343-y",
        "CorpusId": 253398086
      },
      "url": "https://www.semanticscholar.org/paper/e17cc5ac9fe7a1cdb54039f3a089251d07aa2899",
      "title": "Efficient probabilistic reconciliation of forecasts for real-valued and count time series",
      "venue": "Statistics and computing",
      "year": 2022,
      "referenceCount": 46,
      "citationCount": 8,
      "authors": [
        {
          "authorId": "2141292338",
          "name": "Lorenzo Zambon"
        },
        {
          "authorId": "89317764",
          "name": "Dario Azzimonti"
        },
        {
          "authorId": "1680295",
          "name": "Giorgio Corani"
        }
      ]
    },
    {
      "paperId": "8e4ed83b7a7cfcba1306a31de11b17b3d4adaa94",
      "externalIds": {
        "ArXiv": "2305.05330",
        "DOI": "10.1007/s10260-023-00738-6",
        "CorpusId": 258564491
      },
      "url": "https://www.semanticscholar.org/paper/8e4ed83b7a7cfcba1306a31de11b17b3d4adaa94",
      "title": "Point and probabilistic forecast reconciliation for general linearly constrained multiple time series",
      "venue": "Statistical Methods & Applications",
      "year": 2023,
      "referenceCount": 43,
      "citationCount": 16,
      "authors": [
        {
          "authorId": "1620486127",
          "name": "Daniele Girolimetto"
        },
        {
          "authorId": "1741839176",
          "name": "Tommaso Di Fonzo"
        }
      ]
    },
    {
      "paperId": "8b38e14d1705af205e399c8c39c5d7a3674bb4d0",
      "externalIds": {
        "MAG": "3037186135",
        "DOI": "10.2139/ssrn.3542278",
        "CorpusId": 219384502
      },
      "url": "https://www.semanticscholar.org/paper/8b38e14d1705af205e399c8c39c5d7a3674bb4d0",
      "title": "Joint Bottom-Up Method for Hierarchical Time-Series: Application to Australian Tourism",
      "venue": "Social Science Research Network",
      "year": 2020,
      "referenceCount": 40,
      "citationCount": 2,
      "authors": [
        {
          "authorId": "1741790207",
          "name": "N. Bertani"
        },
        {
          "authorId": "66664982",
          "name": "Ville A. Satopää"
        },
        {
          "authorId": "2103999034",
          "name": "Shane T. Jensen"
        }
      ]
    },
    {
      "paperId": "355430f8e76d6e401946c93e4aa56fd4fe2c81c1",
      "externalIds": {
        "DBLP": "journals/tmlr/OlivaresNMMCM24",
        "CorpusId": 275301808
      },
      "url": "https://www.semanticscholar.org/paper/355430f8e76d6e401946c93e4aa56fd4fe2c81c1",
      "title": "♣ CLOVER ♣: Probabilistic Forecasting with Coherent Learning Objective Reparameterization",
      "venue": "Trans. Mach. Learn. Res.",
      "year": 2024,
      "referenceCount": 55,
      "citationCount": 2,
      "authors": [
        {
          "authorId": "2072785943",
          "name": "Kin G. Olivares"
        },
        {
          "authorId": "2338523918",
          "name": "Geoffrey Négiar"
        },
        {
          "authorId": "2118142776",
          "name": "Ruijun Ma"
        },
        {
          "authorId": "14700010",
          "name": "O. N. Meetei"
        },
        {
          "authorId": "2338802374",
          "name": "Mengfei Cao"
        },
        {
          "authorId": "2330192398",
          "name": "Michael W. Mahoney"
        }
      ]
    },
    {
      "paperId": "81bd117f093404cf11ed83052bf2dccdab351b12",
      "externalIds": {
        "DBLP": "journals/corr/abs-2112-11669",
        "CorpusId": 245385806
      },
      "url": "https://www.semanticscholar.org/paper/81bd117f093404cf11ed83052bf2dccdab351b12",
      "title": "MECATS: Mixture-of-Experts for Quantile Forecasts of Aggregated Time Series",
      "venue": "arXiv.org",
      "year": 2021,
      "referenceCount": 75,
      "citationCount": 3,
      "authors": [
        {
          "authorId": "2110566959",
          "name": "Xing Han"
        },
        {
          "authorId": "2219075402",
          "name": "Jing Hu"
        },
        {
          "authorId": "1379535322",
          "name": "J. Ghosh"
        }
      ]
    }
  ]
}