{
  "total": 73,
  "offset": 0,
  "next": 10,
  "data": [
    {
      "paperId": "ae35a803967981b96d03dc1f90a1bedc43025cdb",
      "externalIds": {
        "DBLP": "conf/icml/LeKYC16",
        "MAG": "2953030299",
        "ArXiv": "1606.00968",
        "CorpusId": 5233277
      },
      "url": "https://www.semanticscholar.org/paper/ae35a803967981b96d03dc1f90a1bedc43025cdb",
      "title": "Smooth Imitation Learning for Online Sequence Prediction",
      "venue": "International Conference on Machine Learning",
      "year": 2016,
      "referenceCount": 22,
      "citationCount": 35,
      "authors": [
        {
          "authorId": "145000658",
          "name": "Hoang Minh Le"
        },
        {
          "authorId": "2241032141",
          "name": "Andrew Kang"
        },
        {
          "authorId": "1740159",
          "name": "Yisong Yue"
        },
        {
          "authorId": "47890108",
          "name": "Peter Carr"
        }
      ]
    },
    {
      "paperId": "724e927b6828e07709e2d934cb46971237e36fcb",
      "externalIds": {
        "CorpusId": 265097182
      },
      "url": "https://www.semanticscholar.org/paper/724e927b6828e07709e2d934cb46971237e36fcb",
      "title": "Smooth Imitation Learning for Online Sequence Prediction",
      "venue": "",
      "year": 2016,
      "referenceCount": 0,
      "citationCount": 0,
      "authors": []
    },
    {
      "paperId": "69642bd90643a3704ea8176263081d81c56caf39",
      "externalIds": {
        "DBLP": "journals/corr/abs-2007-02520",
        "ArXiv": "2007.02520",
        "MAG": "3038733325",
        "CorpusId": 220363742
      },
      "url": "https://www.semanticscholar.org/paper/69642bd90643a3704ea8176263081d81c56caf39",
      "title": "Explaining Fast Improvement in Online Policy Optimization",
      "venue": "arXiv.org",
      "year": 2020,
      "referenceCount": 45,
      "citationCount": 1,
      "authors": [
        {
          "authorId": "2143818294",
          "name": "Xinyan Yan"
        },
        {
          "authorId": "3288815",
          "name": "Byron Boots"
        },
        {
          "authorId": "1978613",
          "name": "Ching-An Cheng"
        }
      ]
    },
    {
      "paperId": "79ab3c49903ec8cb339437ccf5cf998607fc313e",
      "externalIds": {
        "MAG": "2962957031",
        "DBLP": "journals/jmlr/RossGB11",
        "ArXiv": "1011.0686",
        "CorpusId": 103456
      },
      "url": "https://www.semanticscholar.org/paper/79ab3c49903ec8cb339437ccf5cf998607fc313e",
      "title": "A Reduction of Imitation Learning and Structured Prediction to No-Regret Online Learning",
      "venue": "International Conference on Artificial Intelligence and Statistics",
      "year": 2010,
      "referenceCount": 23,
      "citationCount": 3882,
      "authors": [
        {
          "authorId": "1700433",
          "name": "S. Ross"
        },
        {
          "authorId": "21889436",
          "name": "Geoffrey J. Gordon"
        },
        {
          "authorId": "1756566",
          "name": "J. Bagnell"
        }
      ]
    },
    {
      "paperId": "e8e0f0928536c15e722d32a09661981273a9c788",
      "externalIds": {
        "DBLP": "journals/corr/abs-2502-12465",
        "ArXiv": "2502.12465",
        "DOI": "10.48550/arXiv.2502.12465",
        "CorpusId": 276421827
      },
      "url": "https://www.semanticscholar.org/paper/e8e0f0928536c15e722d32a09661981273a9c788",
      "title": "Computational-Statistical Tradeoffs at the Next-Token Prediction Barrier: Autoregressive and Imitation Learning under Misspecification",
      "venue": "arXiv.org",
      "year": 2025,
      "referenceCount": 0,
      "citationCount": 11,
      "authors": [
        {
          "authorId": "51062464",
          "name": "Dhruv Rohatgi"
        },
        {
          "authorId": "2257216165",
          "name": "Adam Block"
        },
        {
          "authorId": "2312002293",
          "name": "Audrey Huang"
        },
        {
          "authorId": "2280143899",
          "name": "Akshay Krishnamurthy"
        },
        {
          "authorId": "2279828764",
          "name": "Dylan J. Foster"
        }
      ]
    },
    {
      "paperId": "4d3f2dc4198a25522bda0f7befd54211541d1143",
      "externalIds": {
        "ArXiv": "2503.06392",
        "DBLP": "journals/corr/abs-2503-06392",
        "DOI": "10.48550/arXiv.2503.06392",
        "CorpusId": 276903843
      },
      "url": "https://www.semanticscholar.org/paper/4d3f2dc4198a25522bda0f7befd54211541d1143",
      "title": "EPR-GAIL: An EPR-Enhanced Hierarchical Imitation Learning Framework to Simulate Complex User Consumption Behaviors",
      "venue": "arXiv.org",
      "year": 2025,
      "referenceCount": 49,
      "citationCount": 0,
      "authors": [
        {
          "authorId": "2300275413",
          "name": "Tao Feng"
        },
        {
          "authorId": "2266502127",
          "name": "Yunke Zhang"
        },
        {
          "authorId": "2255821",
          "name": "Huandong Wang"
        },
        {
          "authorId": "2266378041",
          "name": "Yong Li"
        }
      ]
    },
    {
      "paperId": "7cccef8922f8f5a16d532c883951715555fc3e5a",
      "externalIds": {
        "DBLP": "conf/uai/YanBC21",
        "MAG": "3178443580",
        "CorpusId": 237057558
      },
      "url": "https://www.semanticscholar.org/paper/7cccef8922f8f5a16d532c883951715555fc3e5a",
      "title": "Explaining fast improvement in online imitation learning",
      "venue": "Conference on Uncertainty in Artificial Intelligence",
      "year": 2021,
      "referenceCount": 53,
      "citationCount": 2,
      "authors": [
        {
          "authorId": "2143818294",
          "name": "Xinyan Yan"
        },
        {
          "authorId": "3288815",
          "name": "Byron Boots"
        },
        {
          "authorId": "2109943279",
          "name": "Ching-An Cheng"
        }
      ]
    },
    {
      "paperId": "387d9bd6d0b7ae6ad4627855d534a587a16da9a6",
      "externalIds": {
        "DOI": "10.1007/springerreference_115915",
        "CorpusId": 243017748
      },
      "url": "https://www.semanticscholar.org/paper/387d9bd6d0b7ae6ad4627855d534a587a16da9a6",
      "title": "Imitation Learning",
      "venue": "Computer Vision",
      "year": 2021,
      "referenceCount": 7,
      "citationCount": 0,
      "authors": [
        {
          "authorId": "2288539639",
          "name": "Mario DAgger"
        }
      ]
    },
    {
      "paperId": "78c345587cdf14bfab0903d092701756852b7512",
      "externalIds": {
        "DOI": "10.3390/machines11030387",
        "CorpusId": 257590362
      },
      "url": "https://www.semanticscholar.org/paper/78c345587cdf14bfab0903d092701756852b7512",
      "title": "Online O-Ring Stress Prediction and Bolt Tightening Sequence Optimization Method for Solid Rocket Motor Assembly",
      "venue": "Machines",
      "year": 2023,
      "referenceCount": 19,
      "citationCount": 5,
      "authors": [
        {
          "authorId": "2107936155",
          "name": "Jiachuan Zhang"
        },
        {
          "authorId": "2190679633",
          "name": "Yuanyu Wang"
        },
        {
          "authorId": "2110125502",
          "name": "Junyi Wang"
        },
        {
          "authorId": "2054884790",
          "name": "Runan Cao"
        },
        {
          "authorId": "2145164425",
          "name": "Zhigang Xu"
        }
      ]
    },
    {
      "paperId": "5c98d446cb54e503aac29e46f800a54513f66cf3",
      "externalIds": {
        "DBLP": "journals/corr/abs-2510-03917",
        "ArXiv": "2510.03917",
        "DOI": "10.48550/arXiv.2510.03917",
        "CorpusId": 281842640
      },
      "url": "https://www.semanticscholar.org/paper/5c98d446cb54e503aac29e46f800a54513f66cf3",
      "title": "Transductive and Learning-Augmented Online Regression",
      "venue": "arXiv.org",
      "year": 2025,
      "referenceCount": 79,
      "citationCount": 0,
      "authors": [
        {
          "authorId": "2349805242",
          "name": "Vinod Raman"
        },
        {
          "authorId": "2357716199",
          "name": "Shenghao Xie"
        },
        {
          "authorId": "2384314929",
          "name": "Samson Zhou"
        }
      ]
    }
  ]
}