{
  "total": 35861,
  "offset": 0,
  "next": 10,
  "data": [
    {
      "paperId": "30ec43601d48236f8983d7cc55bed9cc68262b57",
      "externalIds": {
        "ArXiv": "1704.03003",
        "MAG": "2950801140",
        "DBLP": "journals/corr/GravesBMMK17",
        "CorpusId": 11137059
      },
      "url": "https://www.semanticscholar.org/paper/30ec43601d48236f8983d7cc55bed9cc68262b57",
      "title": "Automated Curriculum Learning for Neural Networks",
      "venue": "International Conference on Machine Learning",
      "year": 2017,
      "referenceCount": 38,
      "citationCount": 619,
      "authors": [
        {
          "authorId": "1753223",
          "name": "Alex Graves"
        },
        {
          "authorId": "1792298",
          "name": "Marc G. Bellemare"
        },
        {
          "authorId": "2387411003",
          "name": "Jacob Menick"
        },
        {
          "authorId": "1708654",
          "name": "R. Munos"
        },
        {
          "authorId": "2645384",
          "name": "K. Kavukcuoglu"
        }
      ]
    },
    {
      "paperId": "25c0ad058fcc9ec97004fcff8e818a5722c8e381",
      "externalIds": {
        "DOI": "10.1109/NMITCON65824.2025.11188324",
        "CorpusId": 282004257
      },
      "url": "https://www.semanticscholar.org/paper/25c0ad058fcc9ec97004fcff8e818a5722c8e381",
      "title": "Design and Development of Evaluation of University Curriculum Learning Outcomes Based on Hybrid Deep Learning Architecture",
      "venue": "2025 Third International Conference on Networks, Multimedia and Information Technology (NMITCON)",
      "year": 2025,
      "referenceCount": 21,
      "citationCount": 0,
      "authors": [
        {
          "authorId": "2309777701",
          "name": "Mengze Zheng"
        },
        {
          "authorId": "2309902629",
          "name": "Jing Ye"
        },
        {
          "authorId": "2386601751",
          "name": "Chunfang Huang"
        }
      ]
    },
    {
      "paperId": "b9528a6765a323900c5c236a4a0dc9f39fe00111",
      "externalIds": {
        "DOI": "10.30853/ped20250093",
        "CorpusId": 279890680
      },
      "url": "https://www.semanticscholar.org/paper/b9528a6765a323900c5c236a4a0dc9f39fe00111",
      "title": "Algorithm of neural networks integration into the work of high school instructors to enhance the quality of the educational process",
      "venue": "Pedagogy. Theory &amp; Practice",
      "year": 2025,
      "referenceCount": 6,
      "citationCount": 1,
      "authors": [
        {
          "authorId": "30634294",
          "name": "A. Shirokolobova"
        },
        {
          "authorId": "92093922",
          "name": "J. Larionova"
        }
      ]
    },
    {
      "paperId": "671434d73cf8eb80cb25f14cab7164627bebc7ea",
      "externalIds": {
        "CorpusId": 13640897
      },
      "url": "https://www.semanticscholar.org/paper/671434d73cf8eb80cb25f14cab7164627bebc7ea",
      "title": "CS 229 Final Project: Automated Curriculum Learning",
      "venue": "",
      "year": 2017,
      "referenceCount": 10,
      "citationCount": 0,
      "authors": [
        {
          "authorId": "2311497710",
          "name": "Rahul Palamuttam"
        },
        {
          "authorId": "2311497817",
          "name": "Halwest Mohammad"
        }
      ]
    },
    {
      "paperId": "b3226b4d9c0465e81a4a536cd3ab00106a353c41",
      "externalIds": {
        "DBLP": "conf/itsc/PeissWXMGA23",
        "DOI": "10.1109/ITSC57777.2023.10422140",
        "CorpusId": 266151082
      },
      "url": "https://www.semanticscholar.org/paper/b3226b4d9c0465e81a4a536cd3ab00106a353c41",
      "title": "Graph-Based Autonomous Driving with Traffic-Rule-Enhanced Curriculum Learning",
      "venue": "2023 IEEE 26th International Conference on Intelligent Transportation Systems (ITSC)",
      "year": 2023,
      "referenceCount": 45,
      "citationCount": 4,
      "authors": [
        {
          "authorId": "2210983707",
          "name": "Lars Frederik Peiss"
        },
        {
          "authorId": "2273482214",
          "name": "Elias Wohlgemuth"
        },
        {
          "authorId": "2285099035",
          "name": "Fan Xue"
        },
        {
          "authorId": "1468980364",
          "name": "Eivind Meyer"
        },
        {
          "authorId": "1782647633",
          "name": "Luis Gressenbuch"
        },
        {
          "authorId": "2248284831",
          "name": "Matthias Althoff"
        }
      ]
    },
    {
      "paperId": "b3feb8760a2147283a806e71e16eb61f288695cd",
      "externalIds": {
        "DOI": "10.1051/bioconf/202520401018",
        "CorpusId": 283783065
      },
      "url": "https://www.semanticscholar.org/paper/b3feb8760a2147283a806e71e16eb61f288695cd",
      "title": "From Pixels to Diagnosis: A Systematic Review of Deep Learning in Femoral Fracture Detection and Classification",
      "venue": "BIO Web of Conferences",
      "year": 2025,
      "referenceCount": 10,
      "citationCount": 0,
      "authors": [
        {
          "authorId": "2398138438",
          "name": "S. Shree"
        },
        {
          "authorId": "2154107446",
          "name": "Rahul Bhagawati"
        },
        {
          "authorId": "34522761",
          "name": "S. Chanda"
        },
        {
          "authorId": "2398150238",
          "name": "Debanga Raj Neog"
        }
      ]
    },
    {
      "paperId": "fc17420f4af698d6b023f5fabb820b4412669ea2",
      "externalIds": {
        "MAG": "2808801813",
        "DBLP": "conf/aied/Wong18",
        "DOI": "10.1007/978-3-319-93846-2_100",
        "CorpusId": 49325161
      },
      "url": "https://www.semanticscholar.org/paper/fc17420f4af698d6b023f5fabb820b4412669ea2",
      "title": "Sequence Based Course Recommender for Personalized Curriculum Planning",
      "venue": "International Conference on Artificial Intelligence in Education",
      "year": 2018,
      "referenceCount": 11,
      "citationCount": 20,
      "authors": [
        {
          "authorId": "2109650315",
          "name": "Christopher Wong"
        }
      ]
    },
    {
      "paperId": "a1e02434a5ac3b78d05821083dbc5789aa8b6920",
      "externalIds": {
        "DOI": "10.29121/shodhkosh.v6.i5s.2025.6903",
        "CorpusId": 284389311
      },
      "url": "https://www.semanticscholar.org/paper/a1e02434a5ac3b78d05821083dbc5789aa8b6920",
      "title": "INTELLIGENT PEDAGOGIES: AI IN VISUAL ARTS EDUCATION",
      "venue": "ShodhKosh Journal of Visual and Performing Arts",
      "year": 2025,
      "referenceCount": 17,
      "citationCount": 0,
      "authors": [
        {
          "authorId": "2401337519",
          "name": "Ansh Kataria"
        },
        {
          "authorId": "2399342360",
          "name": "Rashmi Manhas"
        },
        {
          "authorId": "2182457304",
          "name": "Kiran Ingale"
        },
        {
          "authorId": "2399378717",
          "name": "Kumud Saxena"
        },
        {
          "authorId": "2365704011",
          "name": "Gurdeep Kaur Pandher"
        },
        {
          "authorId": "2401983746",
          "name": "Udaya Ramakrishnan"
        }
      ]
    },
    {
      "paperId": "50386baf8f637344a527f1b8ed79ceab4adaa53e",
      "externalIds": {
        "DOI": "10.1002/mp.14915",
        "CorpusId": 233471865,
        "PubMed": "33932241"
      },
      "url": "https://www.semanticscholar.org/paper/50386baf8f637344a527f1b8ed79ceab4adaa53e",
      "title": "Automatic Lung Nodule Detection in Thoracic CT Scans Using Dilated Slice-Wise Convolutions.",
      "venue": "Medical Physics (Lancaster)",
      "year": 2021,
      "referenceCount": 0,
      "citationCount": 12,
      "authors": [
        {
          "authorId": "33276380",
          "name": "M. M. Farhangi"
        },
        {
          "authorId": "1685878",
          "name": "B. Sahiner"
        },
        {
          "authorId": "1719082",
          "name": "N. Petrick"
        },
        {
          "authorId": "2086950832",
          "name": "Aria Pezehsk"
        }
      ]
    },
    {
      "paperId": "e45031dc8bac71d86206a6b4b8ad9891b3c43dac",
      "externalIds": {
        "DBLP": "journals/corr/abs-2310-18735",
        "ArXiv": "2310.18735",
        "DOI": "10.48550/arXiv.2310.18735",
        "CorpusId": 264590634
      },
      "url": "https://www.semanticscholar.org/paper/e45031dc8bac71d86206a6b4b8ad9891b3c43dac",
      "title": "Curriculum Learning for Graph Neural Networks: Which Edges Should We Learn First",
      "venue": "Neural Information Processing Systems",
      "year": 2023,
      "referenceCount": 56,
      "citationCount": 25,
      "authors": [
        {
          "authorId": "2021011947",
          "name": "Zhengwu Zhang"
        },
        {
          "authorId": "2120473483",
          "name": "Junxiang Wang"
        },
        {
          "authorId": "2256780039",
          "name": "Liang Zhao"
        }
      ]
    }
  ]
}