{
  "total": 9751,
  "offset": 0,
  "next": 10,
  "data": [
    {
      "paperId": "151750b36ca75e5639386cc40ebb5a1090449a02",
      "externalIds": {
        "ArXiv": "1602.07387",
        "DBLP": "journals/corr/KairouzBR16",
        "MAG": "2964074929",
        "CorpusId": 9830767
      },
      "url": "https://www.semanticscholar.org/paper/151750b36ca75e5639386cc40ebb5a1090449a02",
      "title": "Discrete Distribution Estimation under Local Privacy",
      "venue": "International Conference on Machine Learning",
      "year": 2016,
      "referenceCount": 24,
      "citationCount": 365,
      "authors": [
        {
          "authorId": "3115341",
          "name": "P. Kairouz"
        },
        {
          "authorId": "2138189296",
          "name": "Kallista A. Bonawitz"
        },
        {
          "authorId": "1878835",
          "name": "Daniel Ramage"
        }
      ]
    },
    {
      "paperId": "9d0d983d41a04472bebc32458a6ec92be2a221f7",
      "externalIds": {
        "ArXiv": "2509.24173",
        "DBLP": "journals/corr/abs-2509-24173",
        "DOI": "10.48550/arXiv.2509.24173",
        "CorpusId": 281675099
      },
      "url": "https://www.semanticscholar.org/paper/9d0d983d41a04472bebc32458a6ec92be2a221f7",
      "title": "Fundamental Limit of Discrete Distribution Estimation under Utility-Optimized Local Differential Privacy",
      "venue": "arXiv.org",
      "year": 2025,
      "referenceCount": 47,
      "citationCount": 1,
      "authors": [
        {
          "authorId": "2383104636",
          "name": "Sun-Moon Yoon"
        },
        {
          "authorId": "2216210446",
          "name": "Hyun-Young Park"
        },
        {
          "authorId": "2259020550",
          "name": "Seung-Hyun Nam"
        },
        {
          "authorId": "2328341981",
          "name": "Si-Hyeon Lee"
        }
      ]
    },
    {
      "paperId": "88e1bd2f64da0c84aa0073822edf58a8e18f515c",
      "externalIds": {
        "CorpusId": 10631172
      },
      "url": "https://www.semanticscholar.org/paper/88e1bd2f64da0c84aa0073822edf58a8e18f515c",
      "title": "Discrete Distribution Estimation under Local Privacy Supplementary Material: Discrete Distribution Estimation under Local Privacy A. Proof of Theorem 2",
      "venue": "",
      "year": null,
      "referenceCount": 0,
      "citationCount": 0,
      "authors": []
    },
    {
      "paperId": "6941790becb8af24efcf80649e1eb0377bca463a",
      "externalIds": {
        "DBLP": "journals/corr/abs-2211-03757",
        "ArXiv": "2211.03757",
        "DOI": "10.48550/arXiv.2211.03757",
        "CorpusId": 253384534
      },
      "url": "https://www.semanticscholar.org/paper/6941790becb8af24efcf80649e1eb0377bca463a",
      "title": "Discrete Distribution Estimation under User-level Local Differential Privacy",
      "venue": "International Conference on Artificial Intelligence and Statistics",
      "year": 2022,
      "referenceCount": 35,
      "citationCount": 20,
      "authors": [
        {
          "authorId": "2595479",
          "name": "Jayadev Acharya"
        },
        {
          "authorId": "2108173451",
          "name": "Yuhan Liu"
        },
        {
          "authorId": "8908922",
          "name": "Ziteng Sun"
        }
      ]
    },
    {
      "paperId": "bc0b372c83a27b75d7e647219ab0c9618ec951c9",
      "externalIds": {
        "MAG": "2962874526",
        "DBLP": "conf/isit/YeB17",
        "DOI": "10.1109/ISIT.2017.8006630",
        "CorpusId": 267792014
      },
      "url": "https://www.semanticscholar.org/paper/bc0b372c83a27b75d7e647219ab0c9618ec951c9",
      "title": "Optimal schemes for discrete distribution estimation under local differential privacy",
      "venue": "International Symposium on Information Theory",
      "year": 2017,
      "referenceCount": 15,
      "citationCount": 24,
      "authors": [
        {
          "authorId": "144939722",
          "name": "Min Ye"
        },
        {
          "authorId": "2267732712",
          "name": "Alexander Barg"
        }
      ]
    },
    {
      "paperId": "d96d95845e44028ca5baf9eca3a55d457eb3fa4f",
      "externalIds": {
        "DBLP": "conf/www/XiongSMWYH22",
        "ArXiv": "2012.02081",
        "DOI": "10.1145/3485447.3512220",
        "CorpusId": 247446916
      },
      "url": "https://www.semanticscholar.org/paper/d96d95845e44028ca5baf9eca3a55d457eb3fa4f",
      "title": "Compressive Sensing Approaches for Sparse Distribution Estimation Under Local Privacy",
      "venue": "The Web Conference",
      "year": 2020,
      "referenceCount": 43,
      "citationCount": 3,
      "authors": [
        {
          "authorId": "2061495511",
          "name": "Zhongzheng Xiong"
        },
        {
          "authorId": "49991459",
          "name": "Jialin Sun"
        },
        {
          "authorId": "48212029",
          "name": "Xiaojun Mao"
        },
        {
          "authorId": "120465654",
          "name": "Jian Wang"
        },
        {
          "authorId": "10716819",
          "name": "Sha Ying"
        },
        {
          "authorId": "3251920",
          "name": "Zengfeng Huang"
        }
      ]
    },
    {
      "paperId": "41d4ddd85c3202cb80d875fd2f7ec4a5c6daa9ac",
      "externalIds": {
        "DBLP": "conf/percom/LeZ21",
        "ArXiv": "2102.12621",
        "DOI": "10.1109/PerComWorkshops51409.2021.9431028",
        "CorpusId": 232046105
      },
      "url": "https://www.semanticscholar.org/paper/41d4ddd85c3202cb80d875fd2f7ec4a5c6daa9ac",
      "title": "Discrete Distribution Estimation with Local Differential Privacy: A Comparative Analysis",
      "venue": "2021 IEEE International Conference on Pervasive Computing and Communications Workshops and other Affiliated Events (PerCom Workshops)",
      "year": 2021,
      "referenceCount": 14,
      "citationCount": 2,
      "authors": [
        {
          "authorId": "7479440",
          "name": "Ba-Dung Le"
        },
        {
          "authorId": "1739107",
          "name": "T. Zia"
        }
      ]
    },
    {
      "paperId": "891b0cd75b33ba891399570af8cde9206ba007cf",
      "externalIds": {
        "DBLP": "conf/fcs2/DunZ20",
        "MAG": "3097342288",
        "DOI": "10.1007/978-981-15-9739-8_38",
        "CorpusId": 229234561
      },
      "url": "https://www.semanticscholar.org/paper/891b0cd75b33ba891399570af8cde9206ba007cf",
      "title": "Efficient Discrete Distribution Estimation Schemes Under Local Differential Privacy",
      "venue": "International Conference on Foundations of Computer Science",
      "year": 2020,
      "referenceCount": 29,
      "citationCount": 2,
      "authors": [
        {
          "authorId": "2036387750",
          "name": "Wenlong Dun"
        },
        {
          "authorId": "2756265",
          "name": "Youwen Zhu"
        }
      ]
    },
    {
      "paperId": "023989fbc9c11229177e6bc2b562a81786e83d60",
      "externalIds": {
        "DBLP": "journals/spl/NamL22",
        "DOI": "10.1109/LSP.2022.3205276",
        "CorpusId": 252170215
      },
      "url": "https://www.semanticscholar.org/paper/023989fbc9c11229177e6bc2b562a81786e83d60",
      "title": "A Tighter Converse for the Locally Differentially Private Discrete Distribution Estimation Under the One-bit Communication Constraint",
      "venue": "IEEE Signal Processing Letters",
      "year": 2022,
      "referenceCount": 24,
      "citationCount": 7,
      "authors": [
        {
          "authorId": "50558326",
          "name": "S. Nam"
        },
        {
          "authorId": "3314164",
          "name": "Si-Hyeon Lee"
        }
      ]
    },
    {
      "paperId": "24d887079e02b50459d28c02c790c41be202c8ef",
      "externalIds": {
        "DOI": "10.1155/2022/1330251",
        "CorpusId": 251490276
      },
      "url": "https://www.semanticscholar.org/paper/24d887079e02b50459d28c02c790c41be202c8ef",
      "title": "Key-Value Data Collection with Distribution Estimation under Local Differential Privacy",
      "venue": "Security and Communication Networks",
      "year": 2022,
      "referenceCount": 33,
      "citationCount": 7,
      "authors": [
        {
          "authorId": "2108182325",
          "name": "Xiaoguang Li"
        },
        {
          "authorId": "27066032",
          "name": "Haonan Yan"
        },
        {
          "authorId": "151481925",
          "name": "Gewei Zheng"
        },
        {
          "authorId": "144462039",
          "name": "Hui Li"
        },
        {
          "authorId": "2144382405",
          "name": "Fenghua Li"
        }
      ]
    }
  ]
}