{
  "total": 2770,
  "offset": 0,
  "next": 10,
  "data": [
    {
      "paperId": "226955eb46e566a5c23cebc46d9a2bc1349dc91f",
      "externalIds": {
        "MAG": "2472556382",
        "DBLP": "journals/corr/abs-1711-02033",
        "ArXiv": "1711.02033",
        "CorpusId": 2360303
      },
      "url": "https://www.semanticscholar.org/paper/226955eb46e566a5c23cebc46d9a2bc1349dc91f",
      "title": "Estimating Cosmological Parameters from the Dark Matter Distribution",
      "venue": "International Conference on Machine Learning",
      "year": 2016,
      "referenceCount": 50,
      "citationCount": 83,
      "authors": [
        {
          "authorId": "2111187",
          "name": "Siamak Ravanbakhsh"
        },
        {
          "authorId": "143930995",
          "name": "Junier B. Oliva"
        },
        {
          "authorId": "2065984043",
          "name": "S. Fromenteau"
        },
        {
          "authorId": "49586880",
          "name": "Layne Price"
        },
        {
          "authorId": "21220036",
          "name": "S. Ho"
        },
        {
          "authorId": "1753432",
          "name": "J. Schneider"
        },
        {
          "authorId": "1719347",
          "name": "B. Póczos"
        }
      ]
    },
    {
      "paperId": "3f64a5d8f5f34e04dd2cf4f29a0d8884546d743b",
      "externalIds": {
        "ArXiv": "2507.00351",
        "DOI": "10.1051/0004-6361/202554702",
        "CorpusId": 280133337
      },
      "url": "https://www.semanticscholar.org/paper/3f64a5d8f5f34e04dd2cf4f29a0d8884546d743b",
      "title": "Dark from light (DfL): Inferring halo properties from luminous tracers with machine learning trained on cosmological simulations. I. Method, proof of concept, and preliminary testing",
      "venue": "Astronomy &amp; Astrophysics",
      "year": 2025,
      "referenceCount": 7,
      "citationCount": 1,
      "authors": [
        {
          "authorId": "100476218",
          "name": "A. Bluck"
        },
        {
          "authorId": "49764846",
          "name": "J. Piotrowska"
        },
        {
          "authorId": "2265494369",
          "name": "Paul H Goubert"
        },
        {
          "authorId": "2311924489",
          "name": "R. Maiolino"
        },
        {
          "authorId": "2372973138",
          "name": "Camilo Casimiro"
        },
        {
          "authorId": "2372870202",
          "name": "Thomas Pinto Franco"
        },
        {
          "authorId": "2372985520",
          "name": "Nicolas Cea"
        }
      ]
    },
    {
      "paperId": "9ee12a17530ee8395d898be262a84c3b7ef3c257",
      "externalIds": {
        "ArXiv": "2603.01978",
        "CorpusId": 286222327
      },
      "url": "https://www.semanticscholar.org/paper/9ee12a17530ee8395d898be262a84c3b7ef3c257",
      "title": "Halo Occupation Distribution estimation performance for LSST data",
      "venue": "",
      "year": 2026,
      "referenceCount": 8,
      "citationCount": 0,
      "authors": [
        {
          "authorId": "103178250",
          "name": "P. Cataldi"
        },
        {
          "authorId": "2384607243",
          "name": "V. Cristiani"
        },
        {
          "authorId": "2263800419",
          "name": "F. Rodriguez"
        },
        {
          "authorId": "2265333014",
          "name": "A. Taverna"
        },
        {
          "authorId": "46864278",
          "name": "M. C. Artale"
        },
        {
          "authorId": "2195566948",
          "name": "B. Levine"
        },
        {
          "authorId": "2325900386",
          "name": "The Lsst Dark Energy Science Collaboration"
        }
      ]
    },
    {
      "paperId": "2b06a452ec32b1fbcf5fc99c7a59d6ad8d672d38",
      "externalIds": {
        "MAG": "118048599",
        "CorpusId": 116255843
      },
      "url": "https://www.semanticscholar.org/paper/2b06a452ec32b1fbcf5fc99c7a59d6ad8d672d38",
      "title": "Estimating the galaxy power spectrum of the VIPERS galaxy distribution.",
      "venue": "",
      "year": 2014,
      "referenceCount": 0,
      "citationCount": 0,
      "authors": [
        {
          "authorId": "153266905",
          "name": "S. Rota"
        }
      ]
    },
    {
      "paperId": "3ab2f62855e188db533f03f2080a3749995cfd31",
      "externalIds": {
        "CorpusId": 235254188
      },
      "url": "https://www.semanticscholar.org/paper/3ab2f62855e188db533f03f2080a3749995cfd31",
      "title": "The nonlinear power spectrum overdensity-response",
      "venue": "",
      "year": 2021,
      "referenceCount": 0,
      "citationCount": 0,
      "authors": [
        {
          "authorId": "2065777723",
          "name": "G. R'acz"
        },
        {
          "authorId": "2983312",
          "name": "I. Szapudi"
        },
        {
          "authorId": "1682005",
          "name": "I. Csabai"
        }
      ]
    },
    {
      "paperId": "171e054e180bdb8f93b17510f997264668239d8d",
      "externalIds": {
        "MAG": "1993425447",
        "ArXiv": "astro-ph/0606638",
        "DOI": "10.1111/j.1365-2966.2006.11132.x",
        "CorpusId": 15729335
      },
      "url": "https://www.semanticscholar.org/paper/171e054e180bdb8f93b17510f997264668239d8d",
      "title": "Numerical simulations of the Lyman α forest – a comparison of gadget-2 and enzo",
      "venue": "",
      "year": 2006,
      "referenceCount": 46,
      "citationCount": 39,
      "authors": [
        {
          "authorId": "7669802",
          "name": "J. Regan"
        },
        {
          "authorId": "10808479",
          "name": "M. Haehnelt"
        },
        {
          "authorId": "102279893",
          "name": "M. Viel"
        }
      ]
    },
    {
      "paperId": "9d6c4ed3302d7b62c13244bdf50031980fbb64db",
      "externalIds": {
        "DOI": "10.3847/1538-4365/adc679",
        "CorpusId": 278313363
      },
      "url": "https://www.semanticscholar.org/paper/9d6c4ed3302d7b62c13244bdf50031980fbb64db",
      "title": "Impact of Interacting Parameters on Dark Matter in an Interacting Dark Energy Model",
      "venue": "Astrophysical Journal Supplement Series",
      "year": 2025,
      "referenceCount": 75,
      "citationCount": 5,
      "authors": [
        {
          "authorId": "2312756687",
          "name": "H. Chaudhary"
        },
        {
          "authorId": "2058573476",
          "name": "Ritika Nagpal"
        },
        {
          "authorId": "103311373",
          "name": "S. Pacif"
        },
        {
          "authorId": "2064881815",
          "name": "G. Mustafa"
        }
      ]
    },
    {
      "paperId": "fda9cc299b26c7b21df4c4ae356339e8f9708c74",
      "externalIds": {
        "ArXiv": "2410.07380",
        "DOI": "10.1103/PhysRevD.111.083514",
        "CorpusId": 273233810
      },
      "url": "https://www.semanticscholar.org/paper/fda9cc299b26c7b21df4c4ae356339e8f9708c74",
      "title": "Global signal in the redshifted hydrogen 21-cm line from the dark ages and cosmic dawn: Dependence on the nature of dark matter and modeling of first light",
      "venue": "Physical Review D",
      "year": 2024,
      "referenceCount": 60,
      "citationCount": 3,
      "authors": [
        {
          "authorId": "2266669761",
          "name": "B. Novosyadlyj"
        },
        {
          "authorId": "102841875",
          "name": "Y. Kulinich"
        },
        {
          "authorId": "2325153103",
          "name": "D. Koval"
        }
      ]
    },
    {
      "paperId": "41361a2e26e94a13696d2fa01e64d82e3c46d57e",
      "externalIds": {
        "ArXiv": "2408.08597",
        "DOI": "10.1051/0004-6361/202451898",
        "CorpusId": 271892186
      },
      "url": "https://www.semanticscholar.org/paper/41361a2e26e94a13696d2fa01e64d82e3c46d57e",
      "title": "Breaking the cosmological invariance of the dark-matter halo shape as a new probe of modified gravity",
      "venue": "Astronomy &amp; Astrophysics",
      "year": 2024,
      "referenceCount": 53,
      "citationCount": 1,
      "authors": [
        {
          "authorId": "2211196694",
          "name": "Rémy Koskas"
        },
        {
          "authorId": "49247698",
          "name": "J. Alimi"
        }
      ]
    },
    {
      "paperId": "64fbfe5c66463af99816f2f7f20ec88ae0241b06",
      "externalIds": {
        "DOI": "10.22323/1.474.0029",
        "CorpusId": 275962402
      },
      "url": "https://www.semanticscholar.org/paper/64fbfe5c66463af99816f2f7f20ec88ae0241b06",
      "title": "The capabilities of the Theseus space mission for probing dark matter",
      "venue": "Workshop on Persistent Objects",
      "year": 2025,
      "referenceCount": 13,
      "citationCount": 0,
      "authors": [
        {
          "authorId": "7604708",
          "name": "L. Hamolli"
        },
        {
          "authorId": "48192097",
          "name": "M. Hafizi"
        },
        {
          "authorId": "146610014",
          "name": "Esmeralda Guliqani"
        },
        {
          "authorId": "2342771865",
          "name": "Marsida Laze"
        }
      ]
    }
  ]
}