{
  "total": 1254,
  "offset": 0,
  "next": 10,
  "data": [
    {
      "paperId": "2d57ba3af63f2e16038e985814e27917ba9f4fe6",
      "externalIds": {
        "DBLP": "conf/icml/CisseAB16",
        "MAG": "2473021150",
        "CorpusId": 16615590
      },
      "url": "https://www.semanticscholar.org/paper/2d57ba3af63f2e16038e985814e27917ba9f4fe6",
      "title": "ADIOS: Architectures Deep In Output Space",
      "venue": "International Conference on Machine Learning",
      "year": 2016,
      "referenceCount": 34,
      "citationCount": 30,
      "authors": [
        {
          "authorId": "5723508",
          "name": "Moustapha Cissé"
        },
        {
          "authorId": "1401178735",
          "name": "Maruan Al-Shedivat"
        },
        {
          "authorId": "1751569",
          "name": "Samy Bengio"
        }
      ]
    },
    {
      "paperId": "2e1e427c8a3f202506d1d5e2d986eb18b22d1e78",
      "externalIds": {
        "DOI": "10.3390/aerospace12020080",
        "CorpusId": 275898561
      },
      "url": "https://www.semanticscholar.org/paper/2e1e427c8a3f202506d1d5e2d986eb18b22d1e78",
      "title": "Implications of Output Impedance Mask Stability on Power Bus Architectures Used in Space Platforms",
      "venue": "Aerospace",
      "year": 2025,
      "referenceCount": 4,
      "citationCount": 0,
      "authors": [
        {
          "authorId": "2180425409",
          "name": "J. A. Carrasco"
        },
        {
          "authorId": "9161335",
          "name": "J. Ejea"
        },
        {
          "authorId": "2298884",
          "name": "A. Garrigós"
        },
        {
          "authorId": "2256275315",
          "name": "Esteban Sanchis"
        },
        {
          "authorId": "152789315",
          "name": "J. M. Blanes"
        },
        {
          "authorId": "3067673",
          "name": "A. Ferreres"
        },
        {
          "authorId": "28325438",
          "name": "D. Marroquí"
        },
        {
          "authorId": "2342206312",
          "name": "David Gilabert"
        }
      ]
    },
    {
      "paperId": "e177e5b1abd52db331ce7e97a2b28955e1bf0d44",
      "externalIds": {
        "ArXiv": "2406.09253",
        "DBLP": "journals/corr/abs-2406-09253",
        "DOI": "10.48550/arXiv.2406.09253",
        "CorpusId": 270440715
      },
      "url": "https://www.semanticscholar.org/paper/e177e5b1abd52db331ce7e97a2b28955e1bf0d44",
      "title": "Deep Sketched Output Kernel Regression for Structured Prediction",
      "venue": "ECML/PKDD",
      "year": 2024,
      "referenceCount": 76,
      "citationCount": 2,
      "authors": [
        {
          "authorId": "2142486511",
          "name": "T. Ahmad"
        },
        {
          "authorId": "2248477599",
          "name": "Junjie Yang"
        },
        {
          "authorId": "30304418",
          "name": "Pierre Laforgue"
        },
        {
          "authorId": "2306259977",
          "name": "Florence d'Alch'e-Buc"
        }
      ]
    },
    {
      "paperId": "64b1941014c05e6e3cdbdca4d970e8b53ccaa32f",
      "externalIds": {
        "MAG": "2999338743",
        "DBLP": "journals/dsp/ShahD20",
        "DOI": "10.1016/j.dsp.2020.102656",
        "CorpusId": 212727031
      },
      "url": "https://www.semanticscholar.org/paper/64b1941014c05e6e3cdbdca4d970e8b53ccaa32f",
      "title": "Low-complexity deep learning and RBFN architectures for modulation classification of space-time block-code (STBC)-MIMO systems",
      "venue": "Digit. Signal Process.",
      "year": 2020,
      "referenceCount": 37,
      "citationCount": 23,
      "authors": [
        {
          "authorId": "49246232",
          "name": "M. Shah"
        },
        {
          "authorId": "1800510",
          "name": "Xiao-yu Dang"
        }
      ]
    },
    {
      "paperId": "5a4783c386ed6e8373eea25be391a21f443ec171",
      "externalIds": {
        "DBLP": "conf/acssc/ReyTRMM19",
        "MAG": "3014063205",
        "DOI": "10.1109/IEEECONF44664.2019.9048908",
        "CorpusId": 214761618
      },
      "url": "https://www.semanticscholar.org/paper/5a4783c386ed6e8373eea25be391a21f443ec171",
      "title": "Deep Encoder-Decoder Neural Network Architectures for Graph Output Signals",
      "venue": "Asilomar Conference on Signals, Systems and Computers",
      "year": 2019,
      "referenceCount": 18,
      "citationCount": 4,
      "authors": [
        {
          "authorId": "1605975703",
          "name": "Samuel Rey"
        },
        {
          "authorId": "2058351334",
          "name": "Victor M. Tenorio"
        },
        {
          "authorId": "1605987046",
          "name": "Sergio Rozada"
        },
        {
          "authorId": "1738417",
          "name": "Luca Martino"
        },
        {
          "authorId": "145135725",
          "name": "A. Marques"
        }
      ]
    },
    {
      "paperId": "9cd67b6f257c6d4c5136f0907e49daaf38ad628c",
      "externalIds": {
        "DBLP": "journals/corr/abs-2502-10463",
        "ArXiv": "2502.10463",
        "DOI": "10.48550/arXiv.2502.10463",
        "CorpusId": 276409026
      },
      "url": "https://www.semanticscholar.org/paper/9cd67b6f257c6d4c5136f0907e49daaf38ad628c",
      "title": "From Layers to States: A State Space Model Perspective to Deep Neural Network Layer Dynamics",
      "venue": "International Conference on Learning Representations",
      "year": 2025,
      "referenceCount": 0,
      "citationCount": 1,
      "authors": [
        {
          "authorId": "2301256407",
          "name": "Qinshuo Liu"
        },
        {
          "authorId": "2285821935",
          "name": "Weiqin Zhao"
        },
        {
          "authorId": "2152491994",
          "name": "Wei Huang"
        },
        {
          "authorId": "2278575218",
          "name": "Yanwen Fang"
        },
        {
          "authorId": "2331276467",
          "name": "Lequan Yu"
        },
        {
          "authorId": "2278587711",
          "name": "Guodong Li"
        }
      ]
    },
    {
      "paperId": "8b15829a892b471dc316654e226c986e1d83ea26",
      "externalIds": {
        "DOI": "10.3390/photonics12121210",
        "CorpusId": 283716548
      },
      "url": "https://www.semanticscholar.org/paper/8b15829a892b471dc316654e226c986e1d83ea26",
      "title": "A Hybrid Deep Learning-Based Modeling Methods for Atmosphere Turbulence in Free Space Optical Communications",
      "venue": "Photonics",
      "year": 2025,
      "referenceCount": 20,
      "citationCount": 1,
      "authors": [
        {
          "authorId": "2376479427",
          "name": "Yuan Gao"
        },
        {
          "authorId": "2225152628",
          "name": "Bingke Yang"
        },
        {
          "authorId": "2397514650",
          "name": "Shasha Fan"
        },
        {
          "authorId": "2345328202",
          "name": "Leheng Xu"
        },
        {
          "authorId": "2270079807",
          "name": "Tianye Wang"
        },
        {
          "authorId": "2397556795",
          "name": "Boxian Yang"
        },
        {
          "authorId": "2220818508",
          "name": "Shichen Jiang"
        }
      ]
    },
    {
      "paperId": "0ab5987d474505c0890171e3b39e9384cfa4b2f8",
      "externalIds": {
        "DOI": "10.1063/5.0294248",
        "CorpusId": 281916143
      },
      "url": "https://www.semanticscholar.org/paper/0ab5987d474505c0890171e3b39e9384cfa4b2f8",
      "title": "A deep Legendre polynomial neural network for nonlinear time–space fractional reaction–diffusion equations",
      "venue": "AIP Advances",
      "year": 2025,
      "referenceCount": 17,
      "citationCount": 0,
      "authors": [
        {
          "authorId": "2272582679",
          "name": "Anil Kumar"
        },
        {
          "authorId": "2265945850",
          "name": "Sachin Kumar"
        },
        {
          "authorId": "2384591003",
          "name": "Paras Varshney"
        }
      ]
    },
    {
      "paperId": "e16ac793f9743f2b2cf747391e24ff50720b4475",
      "externalIds": {
        "DOI": "10.1109/ICSOS66026.2025.11443148",
        "CorpusId": 286781290
      },
      "url": "https://www.semanticscholar.org/paper/e16ac793f9743f2b2cf747391e24ff50720b4475",
      "title": "Coherent Combination of Deep-Space Optical Signals Under Weak Atmospheric Turbulence",
      "venue": "2025 IEEE International Conference on Space Optical Systems and Applications (ICSOS)",
      "year": 2025,
      "referenceCount": 18,
      "citationCount": 0,
      "authors": [
        {
          "authorId": "2299941080",
          "name": "Antoni Mikos-Nuszkiewicz"
        },
        {
          "authorId": "2123089888",
          "name": "K. Łukanowski"
        },
        {
          "authorId": "12532505",
          "name": "M. Jarzyna"
        },
        {
          "authorId": "2274447443",
          "name": "K. Banaszek"
        }
      ]
    },
    {
      "paperId": "763b8c032ac2a00358e642ec9f44d6cda61e8818",
      "externalIds": {
        "DOI": "10.1109/ICAFT66710.2025.11452816",
        "CorpusId": 287029425
      },
      "url": "https://www.semanticscholar.org/paper/763b8c032ac2a00358e642ec9f44d6cda61e8818",
      "title": "Design and Implementation of CODEC for CCSDS Defined LDPC code for Deep Space Communication",
      "venue": "2025 1st International Conference on Advancement in Futuristic Technologies (ICAFT)",
      "year": 2025,
      "referenceCount": 15,
      "citationCount": 0,
      "authors": [
        {
          "authorId": "2427167543",
          "name": "Rajagopalan Alias Sabarinathan P"
        },
        {
          "authorId": "2427168177",
          "name": "Pradeesh Madhavan"
        },
        {
          "authorId": "2297515233",
          "name": "Satish Sharma"
        },
        {
          "authorId": "2427168016",
          "name": "H. Ramamurthy"
        },
        {
          "authorId": "1564483162",
          "name": "L. V"
        },
        {
          "authorId": "151497934",
          "name": "S. S."
        }
      ]
    }
  ]
}