{
  "total": 24479,
  "offset": 0,
  "next": 10,
  "data": [
    {
      "paperId": "b88ea5081557d69e91b567fdefa7f20f6e9eef48",
      "externalIds": {
        "DBLP": "journals/corr/ZadehHS16",
        "ArXiv": "1607.05002",
        "MAG": "2951386648",
        "CorpusId": 14958572
      },
      "url": "https://www.semanticscholar.org/paper/b88ea5081557d69e91b567fdefa7f20f6e9eef48",
      "title": "Geometric Mean Metric Learning",
      "venue": "International Conference on Machine Learning",
      "year": 2016,
      "referenceCount": 22,
      "citationCount": 179,
      "authors": [
        {
          "authorId": "144253392",
          "name": "P. Zadeh"
        },
        {
          "authorId": "34584608",
          "name": "Reshad Hosseini"
        },
        {
          "authorId": "3072326",
          "name": "S. Sra"
        }
      ]
    },
    {
      "paperId": "5e0963ccefdf60c5515844ed6f27381b4a705cde",
      "externalIds": {
        "DBLP": "conf/bigdataconf/HeQZZCX25",
        "DOI": "10.1109/BigData66926.2025.11401683",
        "CorpusId": 286327699
      },
      "url": "https://www.semanticscholar.org/paper/5e0963ccefdf60c5515844ed6f27381b4a705cde",
      "title": "Multi-View Kernel Geometric Mean Metric Learning",
      "venue": "BigData Congress [Services Society]",
      "year": 2025,
      "referenceCount": 27,
      "citationCount": 0,
      "authors": [
        {
          "authorId": "2153100850",
          "name": "Jianjun He"
        },
        {
          "authorId": null,
          "name": "Feng Qiao"
        },
        {
          "authorId": "2266075347",
          "name": "Ruirui Zheng"
        },
        {
          "authorId": "2110633717",
          "name": "Yu Zhou"
        },
        {
          "authorId": "2407772938",
          "name": "Xinshu Cui"
        },
        {
          "authorId": "2092025735",
          "name": "Peng Xu"
        }
      ]
    },
    {
      "paperId": "87f9736332cfed37133427412ff2e3fcb8178be7",
      "externalIds": {
        "DBLP": "journals/kbs/ZhaoWZL21",
        "MAG": "3169646931",
        "DOI": "10.1016/J.KNOSYS.2021.107227",
        "CorpusId": 236279634
      },
      "url": "https://www.semanticscholar.org/paper/87f9736332cfed37133427412ff2e3fcb8178be7",
      "title": "Robust transfer learning based on Geometric Mean Metric Learning",
      "venue": "Knowledge-Based Systems",
      "year": 2021,
      "referenceCount": 48,
      "citationCount": 21,
      "authors": [
        {
          "authorId": "8049880",
          "name": "Penghui Zhao"
        },
        {
          "authorId": "2112377459",
          "name": "Tao Wu"
        },
        {
          "authorId": "2110772044",
          "name": "Shiyi Zhao"
        },
        {
          "authorId": "48446897",
          "name": "Huiting Liu"
        }
      ]
    },
    {
      "paperId": "b073ef49948f146ca32cc8595787c3ef695c03b1",
      "externalIds": {
        "DOI": "10.3390/app132112047",
        "CorpusId": 265108402
      },
      "url": "https://www.semanticscholar.org/paper/b073ef49948f146ca32cc8595787c3ef695c03b1",
      "title": "Kernel Geometric Mean Metric Learning",
      "venue": "Applied Sciences",
      "year": 2023,
      "referenceCount": 21,
      "citationCount": 1,
      "authors": [
        {
          "authorId": "2238407814",
          "name": "Zixin Feng"
        },
        {
          "authorId": "2266079173",
          "name": "Teligeng Yun"
        },
        {
          "authorId": "2110633717",
          "name": "Yu Zhou"
        },
        {
          "authorId": "2266075347",
          "name": "Ruirui Zheng"
        },
        {
          "authorId": "2153100850",
          "name": "Jianjun He"
        }
      ]
    },
    {
      "paperId": "4d0f31b5fbdc3d6c552fbce5934d2dd1ac841b7a",
      "externalIds": {
        "MAG": "2970277727",
        "DBLP": "conf/icip/HuLL019",
        "DOI": "10.1109/ICIP.2019.8803754",
        "CorpusId": 202773269
      },
      "url": "https://www.semanticscholar.org/paper/4d0f31b5fbdc3d6c552fbce5934d2dd1ac841b7a",
      "title": "Multi-View Geometric Mean Metric Learning for Kinship Verification",
      "venue": "International Conference on Information Photonics",
      "year": 2019,
      "referenceCount": 22,
      "citationCount": 20,
      "authors": [
        {
          "authorId": "34651153",
          "name": "Junlin Hu"
        },
        {
          "authorId": "1697700",
          "name": "Jiwen Lu"
        },
        {
          "authorId": "39695518",
          "name": "Li Liu"
        },
        {
          "authorId": "49640256",
          "name": "Jie Zhou"
        }
      ]
    },
    {
      "paperId": "d77aad3323f978001ec5f676ca72f89d7deab040",
      "externalIds": {
        "ArXiv": "2204.11011",
        "DBLP": "conf/icpr/LiC22",
        "DOI": "10.1109/ICPR56361.2022.9956124",
        "CorpusId": 248377011
      },
      "url": "https://www.semanticscholar.org/paper/d77aad3323f978001ec5f676ca72f89d7deab040",
      "title": "A Novel Splitting Criterion Inspired by Geometric Mean Metric Learning for Decision Tree",
      "venue": "International Conference on Pattern Recognition",
      "year": 2022,
      "referenceCount": 34,
      "citationCount": 1,
      "authors": [
        {
          "authorId": "2150384355",
          "name": "Dan Li"
        },
        {
          "authorId": "48848338",
          "name": "Songcan Chen"
        }
      ]
    },
    {
      "paperId": "23a409fbcc3cb5d7be97bb4353607a786b8ed490",
      "externalIds": {
        "MAG": "2751032627",
        "DBLP": "journals/ijon/ZhouG18",
        "DOI": "10.1016/j.neucom.2017.08.058",
        "CorpusId": 3046089
      },
      "url": "https://www.semanticscholar.org/paper/23a409fbcc3cb5d7be97bb4353607a786b8ed490",
      "title": "Geometric mean metric learning for partial label data",
      "venue": "Neurocomputing",
      "year": 2018,
      "referenceCount": 22,
      "citationCount": 23,
      "authors": [
        {
          "authorId": "2110633717",
          "name": "Yu Zhou"
        },
        {
          "authorId": "145230583",
          "name": "Hong Gu"
        }
      ]
    },
    {
      "paperId": "b064a18551c3c31306c7a6122a522ef800e28cfb",
      "externalIds": {
        "DBLP": "conf/ccbr/XuH22",
        "DOI": "10.1007/978-3-031-20233-9_20",
        "CorpusId": 253448762
      },
      "url": "https://www.semanticscholar.org/paper/b064a18551c3c31306c7a6122a522ef800e28cfb",
      "title": "Sparsity-Regularized Geometric Mean Metric Learning for Kinship Verification",
      "venue": "Chinese Conference on Biometric Recognition",
      "year": 2022,
      "referenceCount": 0,
      "citationCount": 1,
      "authors": [
        {
          "authorId": "2913789",
          "name": "Yunhao Xu"
        },
        {
          "authorId": "34651153",
          "name": "Junlin Hu"
        }
      ]
    },
    {
      "paperId": "fdbe6dd2fb80aaf93a20798386e4f7f4c0a9366e",
      "externalIds": {
        "DBLP": "journals/corr/abs-1806-05454",
        "ArXiv": "1806.05454",
        "MAG": "2807757380",
        "CorpusId": 49215108
      },
      "url": "https://www.semanticscholar.org/paper/fdbe6dd2fb80aaf93a20798386e4f7f4c0a9366e",
      "title": "Low-rank geometric mean metric learning",
      "venue": "arXiv.org",
      "year": 2018,
      "referenceCount": 8,
      "citationCount": 10,
      "authors": [
        {
          "authorId": "26320815",
          "name": "Mukul Bhutani"
        },
        {
          "authorId": "1720974",
          "name": "Pratik Jawanpuria"
        },
        {
          "authorId": "2061436080",
          "name": "Hiroyuki Kasai"
        },
        {
          "authorId": "37585320",
          "name": "Bamdev Mishra"
        }
      ]
    },
    {
      "paperId": "87197b4ed88f3b9e9ef0aec448df5f06399f7db3",
      "externalIds": {
        "DBLP": "conf/iconip/ZhaiD19",
        "MAG": "2995127654",
        "DOI": "10.1007/978-3-030-36711-4_23",
        "CorpusId": 209339197
      },
      "url": "https://www.semanticscholar.org/paper/87197b4ed88f3b9e9ef0aec448df5f06399f7db3",
      "title": "Geometric Mean Metric Learning for Label Distribution Learning",
      "venue": "International Conference on Neural Information Processing",
      "year": 2019,
      "referenceCount": 14,
      "citationCount": 0,
      "authors": [
        {
          "authorId": "2072522101",
          "name": "Yansheng Zhai"
        },
        {
          "authorId": "38804259",
          "name": "Jianhua Dai"
        }
      ]
    }
  ]
}