{
  "total": 36,
  "offset": 0,
  "next": 10,
  "data": [
    {
      "paperId": "2b13f2bfb2e59785a43f15c815225333a3bc50e5",
      "externalIds": {
        "MAG": "2804900785",
        "DBLP": "conf/icml/MouZGW18",
        "CorpusId": 51868822
      },
      "url": "https://www.semanticscholar.org/paper/2b13f2bfb2e59785a43f15c815225333a3bc50e5",
      "title": "Dropout Training, Data-dependent Regularization, and Generalization Bounds",
      "venue": "International Conference on Machine Learning",
      "year": 2018,
      "referenceCount": 23,
      "citationCount": 39,
      "authors": [
        {
          "authorId": "2707259",
          "name": "Wenlong Mou"
        },
        {
          "authorId": "2375861961",
          "name": "Yucheng Zhou"
        },
        {
          "authorId": "145200206",
          "name": "Jun Gao"
        },
        {
          "authorId": "24952249",
          "name": "Liwei Wang"
        }
      ]
    },
    {
      "paperId": "0b671addf86e0687e36e0a8698e1e13fef4b5be8",
      "externalIds": {
        "ArXiv": "2507.05084",
        "DBLP": "journals/corr/abs-2507-05084",
        "DOI": "10.48550/arXiv.2507.05084",
        "CorpusId": 280148451
      },
      "url": "https://www.semanticscholar.org/paper/0b671addf86e0687e36e0a8698e1e13fef4b5be8",
      "title": "Distribution-dependent Generalization Bounds for Tuning Linear Regression Across Tasks",
      "venue": "arXiv.org",
      "year": 2025,
      "referenceCount": 59,
      "citationCount": 2,
      "authors": [
        {
          "authorId": "1745410",
          "name": "Maria-Florina Balcan"
        },
        {
          "authorId": "48765629",
          "name": "Saumya Goyal"
        },
        {
          "authorId": "2993069",
          "name": "Dravyansh Sharma"
        }
      ]
    },
    {
      "paperId": "99e98ca5f338d234e1c47fb8c22ac1944b3dfd35",
      "externalIds": {
        "ArXiv": "2502.15540",
        "DBLP": "journals/corr/abs-2502-15540",
        "DOI": "10.48550/arXiv.2502.15540",
        "CorpusId": 276558236
      },
      "url": "https://www.semanticscholar.org/paper/99e98ca5f338d234e1c47fb8c22ac1944b3dfd35",
      "title": "Generalization Guarantees for Representation Learning via Data-Dependent Gaussian Mixture Priors",
      "venue": "International Conference on Learning Representations",
      "year": 2025,
      "referenceCount": 92,
      "citationCount": 3,
      "authors": [
        {
          "authorId": "1942106",
          "name": "Milad Sefidgaran"
        },
        {
          "authorId": "2282532184",
          "name": "Abdellatif Zaidi"
        },
        {
          "authorId": "2282532301",
          "name": "Piotr Krasnowski"
        }
      ]
    },
    {
      "paperId": "1a1915bd1e7c931a73a0f3c5c241671ebd8e1ed2",
      "externalIds": {
        "ArXiv": "2504.18455",
        "DBLP": "journals/corr/abs-2504-18455",
        "DOI": "10.48550/arXiv.2504.18455",
        "CorpusId": 278129749
      },
      "url": "https://www.semanticscholar.org/paper/1a1915bd1e7c931a73a0f3c5c241671ebd8e1ed2",
      "title": "Generalization Guarantees for Multi-View Representation Learning and Application to Regularization via Gaussian Product Mixture Prior",
      "venue": "arXiv.org",
      "year": 2025,
      "referenceCount": 96,
      "citationCount": 2,
      "authors": [
        {
          "authorId": "1942106",
          "name": "Milad Sefidgaran"
        },
        {
          "authorId": "2282532184",
          "name": "Abdellatif Zaidi"
        },
        {
          "authorId": "2282532301",
          "name": "Piotr Krasnowski"
        }
      ]
    },
    {
      "paperId": "5699f0b26f72e474fc7d8c43971c932674fa2080",
      "externalIds": {
        "MAG": "2905371339",
        "DBLP": "journals/tit/LeiDZK19",
        "DOI": "10.1109/TIT.2019.2893916",
        "CorpusId": 13537400
      },
      "url": "https://www.semanticscholar.org/paper/5699f0b26f72e474fc7d8c43971c932674fa2080",
      "title": "Data-Dependent Generalization Bounds for Multi-Class Classification",
      "venue": "IEEE Transactions on Information Theory",
      "year": 2017,
      "referenceCount": 90,
      "citationCount": 72,
      "authors": [
        {
          "authorId": "2365013",
          "name": "Yunwen Lei"
        },
        {
          "authorId": "2154404",
          "name": "Ü. Dogan"
        },
        {
          "authorId": "1758237",
          "name": "Ding-Xuan Zhou"
        },
        {
          "authorId": "2749512",
          "name": "M. Kloft"
        }
      ]
    },
    {
      "paperId": "ea66b9b65cdb98fd62331f42d1ab2e7fc1c5383a",
      "externalIds": {
        "DBLP": "conf/ukrprogiit/HovorukhaD25",
        "CorpusId": 282819457
      },
      "url": "https://www.semanticscholar.org/paper/ea66b9b65cdb98fd62331f42d1ab2e7fc1c5383a",
      "title": "A Method for Efficient Training of Road Sign Recognition Models for Resource-Dependent ADAS Systems",
      "venue": "UkrProg-IIT",
      "year": 2025,
      "referenceCount": 16,
      "citationCount": 0,
      "authors": [
        {
          "authorId": "2390993102",
          "name": "Maksym Hovorukha"
        },
        {
          "authorId": "2247403409",
          "name": "Anatoliy Doroshenko"
        }
      ]
    },
    {
      "paperId": "ae98045c999aa1cd947858e6c7f0e3869c1c6624",
      "externalIds": {
        "DBLP": "conf/icmla/CakajMY24a",
        "ArXiv": "2409.18951",
        "DOI": "10.1109/ICMLA61862.2024.00118",
        "CorpusId": 272969339
      },
      "url": "https://www.semanticscholar.org/paper/ae98045c999aa1cd947858e6c7f0e3869c1c6624",
      "title": "Spectral Wavelet Dropout: Regularization in the Wavelet Domain",
      "venue": "International Conference on Machine Learning and Applications",
      "year": 2024,
      "referenceCount": 37,
      "citationCount": 2,
      "authors": [
        {
          "authorId": "2220820505",
          "name": "Rinor Cakaj"
        },
        {
          "authorId": "144442281",
          "name": "Jens Mehnert"
        },
        {
          "authorId": "2322996933",
          "name": "Bin Yang"
        }
      ]
    },
    {
      "paperId": "f2f5e44bcc054688fd87c9a973b73c97da4bc4c7",
      "externalIds": {
        "DBLP": "journals/jmlr/HouKK0R23",
        "ArXiv": "2211.01258",
        "DOI": "10.48550/arXiv.2211.01258",
        "CorpusId": 253255491
      },
      "url": "https://www.semanticscholar.org/paper/f2f5e44bcc054688fd87c9a973b73c97da4bc4c7",
      "title": "Instance-Dependent Generalization Bounds via Optimal Transport",
      "venue": "Journal of machine learning research",
      "year": 2022,
      "referenceCount": 98,
      "citationCount": 13,
      "authors": [
        {
          "authorId": "31392684",
          "name": "Songyan Hou"
        },
        {
          "authorId": "40796674",
          "name": "Parnian Kassraie"
        },
        {
          "authorId": "51236573",
          "name": "Anastasis Kratsios"
        },
        {
          "authorId": "35309584",
          "name": "Jonas Rothfuss"
        },
        {
          "authorId": "153243248",
          "name": "A. Krause"
        }
      ]
    },
    {
      "paperId": "a83178b0f45e52e6e00e785876a07807aba20928",
      "externalIds": {
        "DBLP": "conf/iclr/Luo0Z25",
        "CorpusId": 278498205
      },
      "url": "https://www.semanticscholar.org/paper/a83178b0f45e52e6e00e785876a07807aba20928",
      "title": "Beyond Random Masking: When Dropout meets Graph Convolutional Networks",
      "venue": "International Conference on Learning Representations",
      "year": 2025,
      "referenceCount": 75,
      "citationCount": 6,
      "authors": [
        {
          "authorId": "2293898339",
          "name": "Yuankai Luo"
        },
        {
          "authorId": "2306079575",
          "name": "Xiao-Ming Wu"
        },
        {
          "authorId": "2115314054",
          "name": "Hao Zhu"
        }
      ]
    },
    {
      "paperId": "1518d8af2eca9829093bcbb6f71fb4afcfd4e2ba",
      "externalIds": {
        "MAG": "2994964801",
        "DBLP": "conf/iclr/LeeNYH20",
        "CorpusId": 213950511
      },
      "url": "https://www.semanticscholar.org/paper/1518d8af2eca9829093bcbb6f71fb4afcfd4e2ba",
      "title": "Meta Dropout: Learning to Perturb Latent Features for Generalization",
      "venue": "International Conference on Learning Representations",
      "year": 2020,
      "referenceCount": 45,
      "citationCount": 59,
      "authors": [
        {
          "authorId": "2110308284",
          "name": "Haebeom Lee"
        },
        {
          "authorId": "47418323",
          "name": "Taewook Nam"
        },
        {
          "authorId": "1720494",
          "name": "Eunho Yang"
        },
        {
          "authorId": "35788904",
          "name": "Sung Ju Hwang"
        }
      ]
    }
  ]
}