{
  "total": 15572,
  "offset": 0,
  "next": 10,
  "data": [
    {
      "paperId": "d14c7e5f5cace4c925abc74c88baa474e9f31a28",
      "externalIds": {
        "MAG": "2953061907",
        "DBLP": "journals/corr/ChungGCB15",
        "ArXiv": "1502.02367",
        "CorpusId": 8577750
      },
      "url": "https://www.semanticscholar.org/paper/d14c7e5f5cace4c925abc74c88baa474e9f31a28",
      "title": "Gated Feedback Recurrent Neural Networks",
      "venue": "International Conference on Machine Learning",
      "year": 2015,
      "referenceCount": 34,
      "citationCount": 887,
      "authors": [
        {
          "authorId": "8270717",
          "name": "Junyoung Chung"
        },
        {
          "authorId": "1854385",
          "name": "Çaglar Gülçehre"
        },
        {
          "authorId": "1979489",
          "name": "Kyunghyun Cho"
        },
        {
          "authorId": "1751762",
          "name": "Yoshua Bengio"
        }
      ]
    },
    {
      "paperId": "22cbda38bae4b4ca1298988ffaf2f90a52743a5b",
      "externalIds": {
        "DOI": "10.1109/IPEC61310.2024.00108",
        "CorpusId": 273049258
      },
      "url": "https://www.semanticscholar.org/paper/22cbda38bae4b4ca1298988ffaf2f90a52743a5b",
      "title": "Research on Intelligent English-Chinese Translation Proofreading System based on Gated Feedback Recurrent Neural Networks",
      "venue": "International Symposium on Parameterized and Exact Computation",
      "year": 2024,
      "referenceCount": 17,
      "citationCount": 0,
      "authors": [
        {
          "authorId": "2339345224",
          "name": "Qian Li"
        }
      ]
    },
    {
      "paperId": "76357d9087716e107109880624e843bb799bf917",
      "externalIds": {
        "DBLP": "journals/corr/abs-2212-00228",
        "ArXiv": "2212.00228",
        "DOI": "10.48550/arXiv.2212.00228",
        "CorpusId": 254125273
      },
      "url": "https://www.semanticscholar.org/paper/76357d9087716e107109880624e843bb799bf917",
      "title": "Gated Recurrent Neural Networks with Weighted Time-Delay Feedback",
      "venue": "International Conference on Artificial Intelligence and Statistics",
      "year": 2022,
      "referenceCount": 99,
      "citationCount": 8,
      "authors": [
        {
          "authorId": "2371914",
          "name": "N. Benjamin Erichson"
        },
        {
          "authorId": "98291940",
          "name": "S. H. Lim"
        },
        {
          "authorId": "1717098",
          "name": "Michael W. Mahoney"
        }
      ]
    },
    {
      "paperId": "ae1625c4343a7223f0a40c4ca114106dbee7274b",
      "externalIds": {
        "DBLP": "conf/icc/MichonPC24",
        "DOI": "10.1109/ICC51166.2024.10622295",
        "CorpusId": 271933945
      },
      "url": "https://www.semanticscholar.org/paper/ae1625c4343a7223f0a40c4ca114106dbee7274b",
      "title": "Learning Modified Gated Recurrent Units for Information Feedback in Unfolded Turbo VEP MU-MIMO Receivers",
      "venue": "ICC 2024 - IEEE International Conference on Communications",
      "year": 2024,
      "referenceCount": 28,
      "citationCount": 0,
      "authors": [
        {
          "authorId": "2292491947",
          "name": "Arthur Michon"
        },
        {
          "authorId": "49440469",
          "name": "Charly Poulliat"
        },
        {
          "authorId": "144765979",
          "name": "A. Cipriano"
        }
      ]
    },
    {
      "paperId": "5a70376bee924e3836b972ff6738f2e99e27127f",
      "externalIds": {
        "DBLP": "journals/sis/Gu24",
        "DOI": "10.4108/eetsis.4859",
        "CorpusId": 268795269
      },
      "url": "https://www.semanticscholar.org/paper/5a70376bee924e3836b972ff6738f2e99e27127f",
      "title": "Multi-strategy KOA Algorithm for Optimizing Gated Recurrent Cell Networks in Automatic Writing Scoring Method Design",
      "venue": "EAI Endorsed Transactions on Scalable Information Systems",
      "year": 2024,
      "referenceCount": 27,
      "citationCount": 1,
      "authors": [
        {
          "authorId": "2378192094",
          "name": "Longmei Gu"
        }
      ]
    },
    {
      "paperId": "0a57495f0b7c5d5d42bad567afd93b3348821221",
      "externalIds": {
        "DBLP": "journals/sensors/ShinK23",
        "PubMedCentral": "10006905",
        "DOI": "10.3390/s23052737",
        "CorpusId": 257330008,
        "PubMed": "36904939"
      },
      "url": "https://www.semanticscholar.org/paper/0a57495f0b7c5d5d42bad567afd93b3348821221",
      "title": "Sensor Data Reconstruction for Dynamic Responses of Structures Using External Feedback of Recurrent Neural Network",
      "venue": "Italian National Conference on Sensors",
      "year": 2023,
      "referenceCount": 37,
      "citationCount": 18,
      "authors": [
        {
          "authorId": "103755127",
          "name": "Y. Shin"
        },
        {
          "authorId": "2139031383",
          "name": "Junhee Kim"
        }
      ]
    },
    {
      "paperId": "83ed3c776f8f4c9260e5d07a3a226c2935f7132c",
      "externalIds": {
        "PubMedCentral": "12463783",
        "DOI": "10.1007/s12200-025-00164-4",
        "CorpusId": 281525079,
        "PubMed": "40996580"
      },
      "url": "https://www.semanticscholar.org/paper/83ed3c776f8f4c9260e5d07a3a226c2935f7132c",
      "title": "Rapid prediction of complex nonlinear dynamics in Kerr resonators using the recurrent neural network",
      "venue": "Frontiers of Optoelectronics",
      "year": 2025,
      "referenceCount": 33,
      "citationCount": 1,
      "authors": [
        {
          "authorId": "2375797915",
          "name": "Tianye Huang"
        },
        {
          "authorId": "2244614769",
          "name": "Lin Chen"
        },
        {
          "authorId": "2346999612",
          "name": "Mingkong Lu"
        },
        {
          "authorId": "14416336",
          "name": "Jianxing Pan"
        },
        {
          "authorId": "1491678529",
          "name": "Chaoyu Xu"
        },
        {
          "authorId": "2381187807",
          "name": "Pei Wang"
        },
        {
          "authorId": "2380748067",
          "name": "P. Shum"
        }
      ]
    },
    {
      "paperId": "c509f88798324eda6b8e5642cb0f62e91ddc8ff0",
      "externalIds": {
        "DOI": "10.1177/14727978251361291",
        "CorpusId": 280139304
      },
      "url": "https://www.semanticscholar.org/paper/c509f88798324eda6b8e5642cb0f62e91ddc8ff0",
      "title": "Learning trajectory analysis in English learning using LSTM neural networks",
      "venue": "Journal of Computational Methods in Sciences and Engineering",
      "year": 2025,
      "referenceCount": 26,
      "citationCount": 0,
      "authors": [
        {
          "authorId": "2294164527",
          "name": "Gang Zhou"
        }
      ]
    },
    {
      "paperId": "8debbd7bff1587ba87ffbdbba923ecda3225a1de",
      "externalIds": {
        "DBLP": "journals/tamd/RathiR24",
        "DOI": "10.1109/TCDS.2024.3396431",
        "CorpusId": 269570269
      },
      "url": "https://www.semanticscholar.org/paper/8debbd7bff1587ba87ffbdbba923ecda3225a1de",
      "title": "LITE-SNN: Leveraging Inherent Dynamics to Train Energy-Efficient Spiking Neural Networks for Sequential Learning",
      "venue": "IEEE Transactions on Cognitive and Developmental Systems",
      "year": 2024,
      "referenceCount": 52,
      "citationCount": 8,
      "authors": [
        {
          "authorId": "47735898",
          "name": "Nitin Rathi"
        },
        {
          "authorId": "2242466905",
          "name": "Kaushik Roy"
        }
      ]
    },
    {
      "paperId": "927673759f73f807bfea83019aaea7be9a4ec81f",
      "externalIds": {
        "MAG": "3163909407",
        "DOI": "10.1007/978-981-15-9472-4_7",
        "CorpusId": 236731677
      },
      "url": "https://www.semanticscholar.org/paper/927673759f73f807bfea83019aaea7be9a4ec81f",
      "title": "Automatic Grading of Online Formative Assessments Using Bidirectional Recurrent Neural Networks and Attention Mechanism",
      "venue": "",
      "year": 2021,
      "referenceCount": 29,
      "citationCount": 0,
      "authors": [
        {
          "authorId": "2122198278",
          "name": "Advay Pakhale"
        },
        {
          "authorId": "2122220567",
          "name": "Xavier Lien"
        },
        {
          "authorId": "1450246090",
          "name": "Tan Guoxian"
        }
      ]
    }
  ]
}