{
  "total": 40,
  "offset": 0,
  "next": 10,
  "data": [
    {
      "paperId": "c566ed5c398c40d20fd9c9aba22b824897749db9",
      "externalIds": {
        "MAG": "201532924",
        "DBLP": "journals/corr/ShajarisalesJSB15",
        "ArXiv": "1503.01299",
        "CorpusId": 6579659
      },
      "url": "https://www.semanticscholar.org/paper/c566ed5c398c40d20fd9c9aba22b824897749db9",
      "title": "Telling cause from effect in deterministic linear dynamical systems",
      "venue": "International Conference on Machine Learning",
      "year": 2015,
      "referenceCount": 31,
      "citationCount": 51,
      "authors": [
        {
          "authorId": "2927131",
          "name": "Naji Shajarisales"
        },
        {
          "authorId": "1700657",
          "name": "D. Janzing"
        },
        {
          "authorId": "1707625",
          "name": "B. Scholkopf"
        },
        {
          "authorId": "2599082",
          "name": "M. Besserve"
        }
      ]
    },
    {
      "paperId": "ae0754ded660edd3b95d07373915068cf2a75a7a",
      "externalIds": {
        "CorpusId": 265099573
      },
      "url": "https://www.semanticscholar.org/paper/ae0754ded660edd3b95d07373915068cf2a75a7a",
      "title": "Telling cause from effect in deterministic linear dynamical systems",
      "venue": "",
      "year": 2015,
      "referenceCount": 0,
      "citationCount": 0,
      "authors": []
    },
    {
      "paperId": "b4240e58771d8b0a3feb2fbe5ec012d9c43358ef",
      "externalIds": {
        "DOI": "10.1109/ICC54714.2021.9703137",
        "CorpusId": 246872350
      },
      "url": "https://www.semanticscholar.org/paper/b4240e58771d8b0a3feb2fbe5ec012d9c43358ef",
      "title": "Multivariable Causal Analysis of Nonlinear Dynamical Systems using Convergent Cross Mapping",
      "venue": "International Conference on Intelligent Cloud Computing",
      "year": 2021,
      "referenceCount": 0,
      "citationCount": 3,
      "authors": [
        {
          "authorId": "122636134",
          "name": "S. Nithya"
        },
        {
          "authorId": "1753645",
          "name": "A. Tangirala"
        }
      ]
    },
    {
      "paperId": "ce1d7f338a6876a9cafad17290603af9e50ad2bf",
      "externalIds": {
        "MAG": "2980202021",
        "DBLP": "conf/sice/KathariT19",
        "DOI": "10.23919/SICE.2019.8859842",
        "CorpusId": 204246930
      },
      "url": "https://www.semanticscholar.org/paper/ce1d7f338a6876a9cafad17290603af9e50ad2bf",
      "title": "A Novel Causality Method for Reconstruction of Process Topology in Multivariable LTI Dynamical Systems",
      "venue": "Annual Conference of the Society of Instrument and Control Engineers of Japan",
      "year": 2019,
      "referenceCount": 20,
      "citationCount": 1,
      "authors": [
        {
          "authorId": "98777500",
          "name": "Sudhakar Kathari"
        },
        {
          "authorId": "1753645",
          "name": "A. Tangirala"
        }
      ]
    },
    {
      "paperId": "2349587503e4f0e406635b9fbb8c6718a993c398",
      "externalIds": {
        "MAG": "2526435896",
        "DOI": "10.17660/ACTAHORTIC.1999.485.12",
        "CorpusId": 133343147
      },
      "url": "https://www.semanticscholar.org/paper/2349587503e4f0e406635b9fbb8c6718a993c398",
      "title": "A non-linear dynamical prediction model for superficial scald development on 'Granny Smith' apples after cold storage",
      "venue": "",
      "year": 1999,
      "referenceCount": 0,
      "citationCount": 1,
      "authors": [
        {
          "authorId": "144644939",
          "name": "J. D. Bruyn"
        },
        {
          "authorId": "103445225",
          "name": "A. Lourens"
        }
      ]
    },
    {
      "paperId": "5b6b52797811fbecd6e48d181868f144cc3a6861",
      "externalIds": {
        "MAG": "1999064368",
        "DOI": "10.1016/j.gaitpost.2010.01.020",
        "CorpusId": 23489162,
        "PubMed": "20163962"
      },
      "url": "https://www.semanticscholar.org/paper/5b6b52797811fbecd6e48d181868f144cc3a6861",
      "title": "Non-linear dynamical features of center of pressure extracted by recurrence quantification analysis in people with unilateral anterior cruciate ligament injury.",
      "venue": "Gait & Posture",
      "year": 2010,
      "referenceCount": 28,
      "citationCount": 43,
      "authors": [
        {
          "authorId": "3691721",
          "name": "H. Negahban"
        },
        {
          "authorId": "144248526",
          "name": "M. Salavati"
        },
        {
          "authorId": "2299303",
          "name": "M. Mazaheri"
        },
        {
          "authorId": "2574713",
          "name": "M. A. Sanjari"
        },
        {
          "authorId": "5026908",
          "name": "M. Hadian"
        },
        {
          "authorId": "6708823",
          "name": "M. Parnianpour"
        }
      ]
    },
    {
      "paperId": "c002afb1dae666e1440c6cd47d8942eef6adf26e",
      "externalIds": {
        "MAG": "1977489650",
        "DOI": "10.1364/OE.22.000183",
        "CorpusId": 7074156,
        "PubMed": "24514980"
      },
      "url": "https://www.semanticscholar.org/paper/c002afb1dae666e1440c6cd47d8942eef6adf26e",
      "title": "Broadband photonic single sideband frequency up-converter based on the cross polarization modulation effect in a semiconductor optical amplifier for radio-over-fiber systems.",
      "venue": "Optics Express",
      "year": 2014,
      "referenceCount": 15,
      "citationCount": 19,
      "authors": [
        {
          "authorId": "2117178093",
          "name": "Seung-Hun Lee"
        },
        {
          "authorId": "46696366",
          "name": "Hyoung-jun Kim"
        },
        {
          "authorId": "9305102",
          "name": "Jong-In Song"
        }
      ]
    },
    {
      "paperId": "26dd323b32ca7841051317c8e39c17b3c1f4e598",
      "externalIds": {
        "CorpusId": 14231055
      },
      "url": "https://www.semanticscholar.org/paper/26dd323b32ca7841051317c8e39c17b3c1f4e598",
      "title": "THE COMPLEX DYNAMICAL SYSTEMS APPROACH TO INNER PSYCHOPHYSICS",
      "venue": "",
      "year": 2001,
      "referenceCount": 19,
      "citationCount": 0,
      "authors": [
        {
          "authorId": "143955499",
          "name": "C. Leeuwen"
        }
      ]
    },
    {
      "paperId": "835820578204a9a9f4383c4b295c4d005e18f185",
      "externalIds": {
        "MAG": "2091276317",
        "DOI": "10.2307/353918",
        "CorpusId": 123371343
      },
      "url": "https://www.semanticscholar.org/paper/835820578204a9a9f4383c4b295c4d005e18f185",
      "title": "Butterflies and Bifurcations: Can Chaos Theory Contribute to Our Understanding of Family Systems?.",
      "venue": "",
      "year": 1995,
      "referenceCount": 37,
      "citationCount": 61,
      "authors": [
        {
          "authorId": "145884960",
          "name": "M. Ward"
        }
      ]
    },
    {
      "paperId": "8c49daf78233daadaef33ea5ca4faae236285397",
      "externalIds": {
        "MAG": "3082277833",
        "DOI": "10.1109/ICEENG45378.2020.9171734",
        "CorpusId": 221388015
      },
      "url": "https://www.semanticscholar.org/paper/8c49daf78233daadaef33ea5ca4faae236285397",
      "title": "Calibration and Compensation of Scale Factor Non-linearity and Non-Orthogonality Errors for Dynamically Tuned Gyroscope (DTG)",
      "venue": "The International Conference on Electrical Engineering",
      "year": 2020,
      "referenceCount": 23,
      "citationCount": 1,
      "authors": [
        {
          "authorId": "1922677161",
          "name": "Salem Abd El-Hakem Hegazy"
        },
        {
          "authorId": "74934067",
          "name": "AbdelMageed Mahmoud"
        },
        {
          "authorId": "40601321",
          "name": "A. Kamel"
        },
        {
          "authorId": "74016702",
          "name": "I. Arafa"
        },
        {
          "authorId": "143953589",
          "name": "Y. Elhalwagy"
        }
      ]
    }
  ]
}