{
  "total": 23,
  "offset": 0,
  "next": 10,
  "data": [
    {
      "paperId": "8c7070616aa82b461a709bbc148a2fdbca44d6ec",
      "externalIds": {
        "DBLP": "journals/corr/abs-1806-03190",
        "MAG": "2963518220",
        "ArXiv": "1806.03190",
        "CorpusId": 47005506
      },
      "url": "https://www.semanticscholar.org/paper/8c7070616aa82b461a709bbc148a2fdbca44d6ec",
      "title": "The Well Tempered Lasso",
      "venue": "International Conference on Machine Learning",
      "year": 2018,
      "referenceCount": 14,
      "citationCount": 7,
      "authors": [
        {
          "authorId": "2340566597",
          "name": "Yuanzhi Li"
        },
        {
          "authorId": "1740765",
          "name": "Y. Singer"
        }
      ]
    },
    {
      "paperId": "5c9127e26edfc5df99c8c4ff5c82157c89ec02e8",
      "externalIds": {
        "DOI": "10.1016/j.bpj.2025.03.036",
        "CorpusId": 277548965,
        "PubMed": "40181537"
      },
      "url": "https://www.semanticscholar.org/paper/5c9127e26edfc5df99c8c4ff5c82157c89ec02e8",
      "title": "In Silico Design of Foldable Lasso Peptides.",
      "venue": "Biophysical Journal",
      "year": 2025,
      "referenceCount": 0,
      "citationCount": 2,
      "authors": [
        {
          "authorId": "2122429061",
          "name": "John D. M. Nguyen"
        },
        {
          "authorId": "11658830",
          "name": "Gabriel C. A. da Hora"
        },
        {
          "authorId": "2215812065",
          "name": "Marcus C Mifflin"
        },
        {
          "authorId": "2307262548",
          "name": "A. G. Roberts"
        },
        {
          "authorId": "48188000",
          "name": "Jessica M. J. Swanson"
        }
      ]
    },
    {
      "paperId": "adccc899366b3502032f4e5b5b889fc1d0e9218e",
      "externalIds": {
        "DOI": "10.1101/2025.01.17.633674",
        "CorpusId": 275852319,
        "PubMed": "39896618"
      },
      "url": "https://www.semanticscholar.org/paper/adccc899366b3502032f4e5b5b889fc1d0e9218e",
      "title": "Tying the Knot: In Silico Design of Foldable Lasso Peptides",
      "venue": "bioRxiv",
      "year": 2025,
      "referenceCount": 0,
      "citationCount": 0,
      "authors": [
        {
          "authorId": "2122429061",
          "name": "John D. M. Nguyen"
        },
        {
          "authorId": "11658830",
          "name": "Gabriel C. A. da Hora"
        },
        {
          "authorId": "2215812065",
          "name": "Marcus C Mifflin"
        },
        {
          "authorId": "2307262548",
          "name": "A. G. Roberts"
        },
        {
          "authorId": "48188000",
          "name": "Jessica M. J. Swanson"
        }
      ]
    },
    {
      "paperId": "c34a782caf0ea10be3fdf57299ce0fcd9eb97101",
      "externalIds": {
        "DOI": "10.35603/sws.iscah.2025/s04.55",
        "CorpusId": 285028596
      },
      "url": "https://www.semanticscholar.org/paper/c34a782caf0ea10be3fdf57299ce0fcd9eb97101",
      "title": "THE ART OF IMPROVISATION BEFORE AND AFTER BACH",
      "venue": "SWS International Scientific Conferences on ART and HUMANITIES - ISCAH",
      "year": 2025,
      "referenceCount": 0,
      "citationCount": 0,
      "authors": [
        {
          "authorId": "2406702236",
          "name": "Florin Florentin Raducanu"
        }
      ]
    },
    {
      "paperId": "db7c7ad9691822fa0c853d6694c03cebbef9a65a",
      "externalIds": {
        "ArXiv": "2406.14269",
        "DOI": "10.1002/sta4.70008",
        "CorpusId": 270620435
      },
      "url": "https://www.semanticscholar.org/paper/db7c7ad9691822fa0c853d6694c03cebbef9a65a",
      "title": "Concentration of a Sparse Bayesian Model With Horseshoe Prior in Estimating High‐Dimensional Precision Matrix",
      "venue": "Stat",
      "year": 2024,
      "referenceCount": 45,
      "citationCount": 12,
      "authors": [
        {
          "authorId": "7185709",
          "name": "The Tien Mai"
        }
      ]
    },
    {
      "paperId": "8a6da0bed5a093938b7333df3490e883d130f633",
      "externalIds": {
        "DOI": "10.31224/osf.io/4hq8x",
        "CorpusId": 245715021
      },
      "url": "https://www.semanticscholar.org/paper/8a6da0bed5a093938b7333df3490e883d130f633",
      "title": "A predictive model for the aggregation of polycyclic aromatic compounds",
      "venue": "",
      "year": 2022,
      "referenceCount": 39,
      "citationCount": 0,
      "authors": [
        {
          "authorId": "1471722316",
          "name": "Jacob C. Saldinger"
        },
        {
          "authorId": "13301311",
          "name": "Paolo Elvati"
        },
        {
          "authorId": "2418475",
          "name": "A. Violi"
        }
      ]
    },
    {
      "paperId": "b79b6bd9b60953182e5cef52a1ef215cd918ab45",
      "externalIds": {
        "DBLP": "journals/sac/Mai26a",
        "ArXiv": "2506.07790",
        "DOI": "10.1007/s11222-025-10785-6",
        "CorpusId": 279250308
      },
      "url": "https://www.semanticscholar.org/paper/b79b6bd9b60953182e5cef52a1ef215cd918ab45",
      "title": "Heavy Lasso: sparse penalized regression under heavy-tailed noise via data-augmented soft-thresholding",
      "venue": "Statistics and computing",
      "year": 2025,
      "referenceCount": 41,
      "citationCount": 2,
      "authors": [
        {
          "authorId": "7185709",
          "name": "The Tien Mai"
        }
      ]
    },
    {
      "paperId": "5b3fcef93d444ad0098d11b0e10e95b5f2481a51",
      "externalIds": {
        "DOI": "10.1080/02664763.2023.2258301",
        "CorpusId": 261923070,
        "PubMed": "39157266"
      },
      "url": "https://www.semanticscholar.org/paper/5b3fcef93d444ad0098d11b0e10e95b5f2481a51",
      "title": "The spike-and-slab lasso and scalable algorithm to accommodate multinomial outcomes in variable selection problems",
      "venue": "Journal of Applied Statistics",
      "year": 2023,
      "referenceCount": 36,
      "citationCount": 0,
      "authors": [
        {
          "authorId": "4093080",
          "name": "Justin M Leach"
        },
        {
          "authorId": "2241399978",
          "name": "Nengjun Yi"
        },
        {
          "authorId": "2251089244",
          "name": "I. Aban"
        },
        {
          "authorId": "2241861086",
          "name": "the Alzheimer’s Disease Neuroimaging Initiative"
        }
      ]
    },
    {
      "paperId": "e99aad39b83d3d199d3133464440014ffee69823",
      "externalIds": {
        "MAG": "2889882686",
        "DOI": "10.1007/S11784-018-0620-8",
        "CorpusId": 125377508
      },
      "url": "https://www.semanticscholar.org/paper/e99aad39b83d3d199d3133464440014ffee69823",
      "title": "A new self-adaptive CQ algorithm with an application to the LASSO problem",
      "venue": "Journal of Fixed Point Theory and Applications",
      "year": 2018,
      "referenceCount": 26,
      "citationCount": 23,
      "authors": [
        {
          "authorId": "2303749411",
          "name": "Pham Ky Anh"
        },
        {
          "authorId": "2269057755",
          "name": "N. T. Vinh"
        },
        {
          "authorId": "1597772935",
          "name": "Vu Tien Dung"
        }
      ]
    },
    {
      "paperId": "b376d571f15d1c8e5b89b04741aad7624ed110cf",
      "externalIds": {
        "DOI": "10.1007/s11784-018-0620-8",
        "CorpusId": 255400683
      },
      "url": "https://www.semanticscholar.org/paper/b376d571f15d1c8e5b89b04741aad7624ed110cf",
      "title": "A new self-adaptive CQ algorithm with an application to the LASSO problem",
      "venue": "Journal of Fixed Point Theory and Applications",
      "year": 2018,
      "referenceCount": 26,
      "citationCount": 0,
      "authors": [
        {
          "authorId": "2303749411",
          "name": "Pham Ky Anh"
        },
        {
          "authorId": "2269057755",
          "name": "N. T. Vinh"
        },
        {
          "authorId": "1597772935",
          "name": "Vu Tien Dung"
        }
      ]
    }
  ]
}