{
  "total": 144,
  "offset": 0,
  "next": 10,
  "data": [
    {
      "paperId": "d3f8435f2c7bdbb67bcd75612a84c1a60835f4d9",
      "externalIds": {
        "DBLP": "conf/icml/AnavaHZ15",
        "MAG": "1945395050",
        "CorpusId": 14448486
      },
      "url": "https://www.semanticscholar.org/paper/d3f8435f2c7bdbb67bcd75612a84c1a60835f4d9",
      "title": "Online Time Series Prediction with Missing Data",
      "venue": "International Conference on Machine Learning",
      "year": 2015,
      "referenceCount": 18,
      "citationCount": 86,
      "authors": [
        {
          "authorId": "2576215",
          "name": "Oren Anava"
        },
        {
          "authorId": "34840427",
          "name": "Elad Hazan"
        },
        {
          "authorId": "35002939",
          "name": "A. Zeevi"
        }
      ]
    },
    {
      "paperId": "f58fa1c212bfe594cdd2d414a0889fb6765eeda9",
      "externalIds": {
        "CorpusId": 43354365
      },
      "url": "https://www.semanticscholar.org/paper/f58fa1c212bfe594cdd2d414a0889fb6765eeda9",
      "title": "Fuzzy Clustering of Short Time Series with Missing Data for the Survival Prediction of Oncological Patients",
      "venue": "",
      "year": 2015,
      "referenceCount": 52,
      "citationCount": 2,
      "authors": [
        {
          "authorId": "9603906",
          "name": "L. Moreira"
        }
      ]
    },
    {
      "paperId": "96424d1023a9a9a4286a843388afdc989d210ba6",
      "externalIds": {
        "MAG": "2341008988",
        "ArXiv": "1509.08333",
        "CorpusId": 17708138
      },
      "url": "https://www.semanticscholar.org/paper/96424d1023a9a9a4286a843388afdc989d210ba6",
      "title": "High-dimensional Time Series Prediction with Missing Values",
      "venue": "",
      "year": 2015,
      "referenceCount": 39,
      "citationCount": 16,
      "authors": [
        {
          "authorId": "46185316",
          "name": "Hsiang-Fu Yu"
        },
        {
          "authorId": "145850291",
          "name": "Nikhil S. Rao"
        },
        {
          "authorId": "1783667",
          "name": "I. Dhillon"
        }
      ]
    },
    {
      "paperId": "951be7b10bbadb98567b70c25c15c48d1891b59d",
      "externalIds": {
        "MAG": "2114029912",
        "DOI": "10.4236/AM.2015.69143",
        "CorpusId": 52519937
      },
      "url": "https://www.semanticscholar.org/paper/951be7b10bbadb98567b70c25c15c48d1891b59d",
      "title": "Forecasting Short Time Series with Missing Data by Means of Energy Associated to Series",
      "venue": "",
      "year": 2015,
      "referenceCount": 22,
      "citationCount": 9,
      "authors": [
        {
          "authorId": "9349374",
          "name": "Cristian Rodriguez Rivero"
        },
        {
          "authorId": "32004856",
          "name": "J. Pucheta"
        },
        {
          "authorId": "3347559",
          "name": "S. Laboret"
        },
        {
          "authorId": "31206563",
          "name": "D. Patiño"
        },
        {
          "authorId": "47529194",
          "name": "V. Sauchelli"
        }
      ]
    },
    {
      "paperId": "2bf126ed5c2a090b84cbba0c78fef6ad30b3b0c6",
      "externalIds": {
        "MAG": "1565228990",
        "DOI": "10.1109/ICTRC.2015.7156434",
        "CorpusId": 14146329
      },
      "url": "https://www.semanticscholar.org/paper/2bf126ed5c2a090b84cbba0c78fef6ad30b3b0c6",
      "title": "Online nonstationary time series prediction using sparse coding with dictionary update",
      "venue": "2015 International Conference on Information and Communication Technology Research (ICTRC)",
      "year": 2015,
      "referenceCount": 10,
      "citationCount": 6,
      "authors": [
        {
          "authorId": "2948358",
          "name": "M. Fakhr"
        }
      ]
    },
    {
      "paperId": "1c760469f339150518d28179530636ddb3173c23",
      "externalIds": {
        "MAG": "766388417",
        "DOI": "10.1016/J.IJLEO.2015.02.089",
        "CorpusId": 119000367
      },
      "url": "https://www.semanticscholar.org/paper/1c760469f339150518d28179530636ddb3173c23",
      "title": "A novel online adaptive time series prediction model with input and output uncertainties",
      "venue": "",
      "year": 2015,
      "referenceCount": 40,
      "citationCount": 5,
      "authors": [
        {
          "authorId": "47149915",
          "name": "Xuedong Wu"
        },
        {
          "authorId": "32493342",
          "name": "Zhiyu Zhu"
        },
        {
          "authorId": "3037592",
          "name": "Shaosheng Fan"
        }
      ]
    },
    {
      "paperId": "6eb21d689b7aae9f7e00aac88252087530119b89",
      "externalIds": {
        "MAG": "620817781",
        "DOI": "10.1007/978-3-319-14063-6_23",
        "CorpusId": 60216307
      },
      "url": "https://www.semanticscholar.org/paper/6eb21d689b7aae9f7e00aac88252087530119b89",
      "title": "Online Sequential Extreme Learning Machine with New Weight-Setting Strategy for Nonstationary Time Series Prediction",
      "venue": "",
      "year": 2015,
      "referenceCount": 15,
      "citationCount": 2,
      "authors": [
        {
          "authorId": "2024845483",
          "name": "Jinwan Wang"
        },
        {
          "authorId": "1784187",
          "name": "Wentao Mao"
        },
        {
          "authorId": "2108948272",
          "name": "Liyun Wang"
        },
        {
          "authorId": "2056453998",
          "name": "Mei Tian"
        }
      ]
    },
    {
      "paperId": "7aab6fd7da4bfd479ad024566e09542433817fa2",
      "externalIds": {
        "MAG": "1587781381",
        "DOI": "10.1109/CCDC.2015.7162646",
        "CorpusId": 33059745
      },
      "url": "https://www.semanticscholar.org/paper/7aab6fd7da4bfd479ad024566e09542433817fa2",
      "title": "Online multi-step-ahead time series prediction based on LSSVR using UKF with sliding-windows",
      "venue": "Chinese Control and Decision Conference",
      "year": 2015,
      "referenceCount": 23,
      "citationCount": 1,
      "authors": [
        {
          "authorId": "49543748",
          "name": "Xiaoyong Liu"
        },
        {
          "authorId": "9045293",
          "name": "H. Fang"
        }
      ]
    },
    {
      "paperId": "ee2fdc48d50bc8eeb32d00dde53bd2c8c32c275a",
      "externalIds": {
        "DBLP": "journals/eetcogcom/WuCL15",
        "MAG": "2029438586",
        "DOI": "10.4108/icst.iniscom.2015.258269",
        "CorpusId": 12427203
      },
      "url": "https://www.semanticscholar.org/paper/ee2fdc48d50bc8eeb32d00dde53bd2c8c32c275a",
      "title": "Time series forecasting with missing values",
      "venue": "International Conference on Industrial Networks and Intelligent Systems",
      "year": 2015,
      "referenceCount": 24,
      "citationCount": 47,
      "authors": [
        {
          "authorId": "3103968",
          "name": "Shin-Fu Wu"
        },
        {
          "authorId": "2109758976",
          "name": "Chi-Yung Chang"
        },
        {
          "authorId": "2116350296",
          "name": "Shie-Jue Lee"
        }
      ]
    },
    {
      "paperId": "1b8aef77a4bad6759f32bfd900b3a6ed06ce32b2",
      "externalIds": {
        "MAG": "2362458650",
        "DOI": "10.7500/AEPS20141230007",
        "CorpusId": 63651137
      },
      "url": "https://www.semanticscholar.org/paper/1b8aef77a4bad6759f32bfd900b3a6ed06ce32b2",
      "title": "An Ultra-short-term Wind Power Prediction Method Using \"Offline Classification and Optimization,Online Model Matching\" Based on Time Series Features",
      "venue": "",
      "year": 2015,
      "referenceCount": 0,
      "citationCount": 8,
      "authors": [
        {
          "authorId": "2053861007",
          "name": "Chenhui Yu"
        },
        {
          "authorId": "2225078",
          "name": "Yusheng Xue"
        },
        {
          "authorId": "144198120",
          "name": "F. Wen"
        },
        {
          "authorId": "144402926",
          "name": "Z. Dong"
        },
        {
          "authorId": "144568755",
          "name": "K. Wong"
        },
        {
          "authorId": "2158260235",
          "name": "Kang Li"
        }
      ]
    }
  ]
}