{
  "total": 101,
  "offset": 0,
  "next": 10,
  "data": [
    {
      "paperId": "b6e7cce12b7b0327c164602b5a328fb209506296",
      "externalIds": {
        "MAG": "2741368848",
        "DBLP": "conf/icml/Lyu17",
        "CorpusId": 8255724
      },
      "url": "https://www.semanticscholar.org/paper/b6e7cce12b7b0327c164602b5a328fb209506296",
      "title": "Spherical Structured Feature Maps for Kernel Approximation",
      "venue": "International Conference on Machine Learning",
      "year": 2017,
      "referenceCount": 21,
      "citationCount": 28,
      "authors": [
        {
          "authorId": "8020375",
          "name": "Yueming Lyu"
        }
      ]
    },
    {
      "paperId": "2bff438f1167edd1657de5938482f683345a9410",
      "externalIds": {
        "DBLP": "journals/corr/abs-2602-00987",
        "ArXiv": "2602.00987",
        "DOI": "10.48550/arXiv.2602.00987",
        "CorpusId": 285269444
      },
      "url": "https://www.semanticscholar.org/paper/2bff438f1167edd1657de5938482f683345a9410",
      "title": "Scalable Random Wavelet Features: Efficient Non-Stationary Kernel Approximation with Convergence Guarantees",
      "venue": "arXiv.org",
      "year": 2026,
      "referenceCount": 34,
      "citationCount": 0,
      "authors": [
        {
          "authorId": "2110174636",
          "name": "Sawan Kumar"
        },
        {
          "authorId": "2298043399",
          "name": "Souvik Chakraborty"
        }
      ]
    },
    {
      "paperId": "88723352c7dc9d5395ce162795b54edb96d1d6e7",
      "externalIds": {
        "DBLP": "journals/tfs/WangHZCCZLWC23",
        "DOI": "10.1109/TFUZZ.2022.3188363",
        "CorpusId": 250291620
      },
      "url": "https://www.semanticscholar.org/paper/88723352c7dc9d5395ce162795b54edb96d1d6e7",
      "title": "Random Feature-Based Collaborative Kernel Fuzzy Clustering for Distributed Peer-to-Peer Networks",
      "venue": "IEEE transactions on fuzzy systems",
      "year": 2023,
      "referenceCount": 49,
      "citationCount": 9,
      "authors": [
        {
          "authorId": "2143465850",
          "name": "Yingxu Wang"
        },
        {
          "authorId": "2109750501",
          "name": "Shiyuan Han"
        },
        {
          "authorId": "2145786051",
          "name": "Jin Zhou"
        },
        {
          "authorId": "2118171924",
          "name": "Long Chen"
        },
        {
          "authorId": "2143886669",
          "name": "C.L. Philip Chen"
        },
        {
          "authorId": "38144094",
          "name": "T. Zhang"
        },
        {
          "authorId": "2620809",
          "name": "Zhulin Liu"
        },
        {
          "authorId": "2144734119",
          "name": "Lin Wang"
        },
        {
          "authorId": "2133086625",
          "name": "Yuehui Chen"
        }
      ]
    },
    {
      "paperId": "33498e8abaa20d796ef0a5e1b903afd7c5b9f2a4",
      "externalIds": {
        "DBLP": "journals/corr/abs-2506-10224",
        "ArXiv": "2506.10224",
        "DOI": "10.1016/j.cma.2026.118734",
        "CorpusId": 279318590
      },
      "url": "https://www.semanticscholar.org/paper/33498e8abaa20d796ef0a5e1b903afd7c5b9f2a4",
      "title": "Interpretable and flexible non-intrusive reduced-order models using reproducing kernel Hilbert spaces",
      "venue": "Computer Methods in Applied Mechanics and Engineering",
      "year": 2025,
      "referenceCount": 65,
      "citationCount": 4,
      "authors": [
        {
          "authorId": "2366658161",
          "name": "Alejandro N. Diaz"
        },
        {
          "authorId": "145711013",
          "name": "Shane A. McQuarrie"
        },
        {
          "authorId": "2354829251",
          "name": "John T Tencer"
        },
        {
          "authorId": "2265432189",
          "name": "Patrick J. Blonigan"
        }
      ]
    },
    {
      "paperId": "1ad9595050f317e4eebe8fecb91c7a3ccb44c70a",
      "externalIds": {
        "DBLP": "journals/corr/abs-2410-01394",
        "ArXiv": "2410.01394",
        "DOI": "10.48550/arXiv.2410.01394",
        "CorpusId": 273026306
      },
      "url": "https://www.semanticscholar.org/paper/1ad9595050f317e4eebe8fecb91c7a3ccb44c70a",
      "title": "Gaussian kernel expansion with basis functions uniformly bounded in ℒ∞",
      "venue": "arXiv.org",
      "year": 2024,
      "referenceCount": 36,
      "citationCount": 1,
      "authors": [
        {
          "authorId": "2271532",
          "name": "M. Bisiacco"
        },
        {
          "authorId": "1719301",
          "name": "G. Pillonetto"
        }
      ]
    },
    {
      "paperId": "ddd5b470eaf72c89319db885e8af8a34cee237d2",
      "externalIds": {
        "DBLP": "conf/fuzzIEEE/ZhangGWZJHWDJ22",
        "DOI": "10.1109/FUZZ-IEEE55066.2022.9882644",
        "CorpusId": 252223478
      },
      "url": "https://www.semanticscholar.org/paper/ddd5b470eaf72c89319db885e8af8a34cee237d2",
      "title": "Kernel Fuzzy Clustering based on Quasi-Monte Carlo Feature Map with Neighbor Affinity Constraint",
      "venue": "IEEE International Conference on Fuzzy Systems",
      "year": 2022,
      "referenceCount": 19,
      "citationCount": 1,
      "authors": [
        {
          "authorId": "2047907174",
          "name": "Wenpu Zhang"
        },
        {
          "authorId": "2118270629",
          "name": "Yingying Guo"
        },
        {
          "authorId": "2155887880",
          "name": "Rongrong Wang"
        },
        {
          "authorId": "2145787260",
          "name": "Jin Zhou"
        },
        {
          "authorId": "1409646436",
          "name": "Hui Jiang"
        },
        {
          "authorId": "2109750501",
          "name": "Shiyuan Han"
        },
        {
          "authorId": "2144734119",
          "name": "Lin Wang"
        },
        {
          "authorId": "40073458",
          "name": "Tao Du"
        },
        {
          "authorId": "2127948747",
          "name": "Ke Ji"
        }
      ]
    },
    {
      "paperId": "b03e90e1d44af90f296706098b1a5ea747b72ba9",
      "externalIds": {
        "DBLP": "conf/icml/HamidXGD14",
        "MAG": "2949173561",
        "ArXiv": "1312.4626",
        "CorpusId": 2655638
      },
      "url": "https://www.semanticscholar.org/paper/b03e90e1d44af90f296706098b1a5ea747b72ba9",
      "title": "Compact Random Feature Maps",
      "venue": "International Conference on Machine Learning",
      "year": 2013,
      "referenceCount": 33,
      "citationCount": 87,
      "authors": [
        {
          "authorId": "143979267",
          "name": "Raffay Hamid"
        },
        {
          "authorId": "40476999",
          "name": "Ying Xiao"
        },
        {
          "authorId": "9545803",
          "name": "Alex Gittens"
        },
        {
          "authorId": "1703049",
          "name": "D. DeCoste"
        }
      ]
    },
    {
      "paperId": "bf0175e64c1621b1b301370540e1e9b7e1626641",
      "externalIds": {
        "DOI": "10.1109/CISS57580.2022.9971193",
        "CorpusId": 254610908
      },
      "url": "https://www.semanticscholar.org/paper/bf0175e64c1621b1b301370540e1e9b7e1626641",
      "title": "Feature Enhancement Kernel Dictionary Learning for Radar Target Recognition",
      "venue": "Annual Conference on Information Sciences and Systems",
      "year": 2022,
      "referenceCount": 12,
      "citationCount": 0,
      "authors": [
        {
          "authorId": "50218294",
          "name": "Zhicheng Wang"
        },
        {
          "authorId": "2149190104",
          "name": "Hui Xu"
        },
        {
          "authorId": "2197213877",
          "name": "Si Chen"
        },
        {
          "authorId": "2116216072",
          "name": "Zhijun Zhang"
        },
        {
          "authorId": "93110590",
          "name": "M. Shi"
        },
        {
          "authorId": "1909555",
          "name": "Yesheng Gao"
        }
      ]
    },
    {
      "paperId": "606a53826af595eed701f97dfedc98b9f7477bd0",
      "externalIds": {
        "MAG": "2982941363",
        "DBLP": "journals/isci/XueZFSCL20",
        "DOI": "10.1016/j.ins.2019.10.058",
        "CorpusId": 209963212
      },
      "url": "https://www.semanticscholar.org/paper/606a53826af595eed701f97dfedc98b9f7477bd0",
      "title": "Robust subspace clustering based on non-convex low-rank approximation and adaptive kernel",
      "venue": "Information Sciences",
      "year": 2020,
      "referenceCount": 43,
      "citationCount": 30,
      "authors": [
        {
          "authorId": "1478225133",
          "name": "Xuqian Xue"
        },
        {
          "authorId": "2108113219",
          "name": "Xiaoqian Zhang"
        },
        {
          "authorId": "2112639074",
          "name": "Xinghua Feng"
        },
        {
          "authorId": "2775306",
          "name": "Huaijiang Sun"
        },
        {
          "authorId": "2283009",
          "name": "Wei Chen"
        },
        {
          "authorId": "2540029",
          "name": "Zhigui Liu"
        }
      ]
    },
    {
      "paperId": "f1ed3994c1ad04e15675a6817041fcfa019995b1",
      "externalIds": {
        "ArXiv": "1706.02803",
        "DBLP": "journals/corr/WangGM17a",
        "MAG": "2964258753",
        "CorpusId": 25517366
      },
      "url": "https://www.semanticscholar.org/paper/f1ed3994c1ad04e15675a6817041fcfa019995b1",
      "title": "Scalable Kernel K-Means Clustering with Nystrom Approximation: Relative-Error Bounds",
      "venue": "Journal of machine learning research",
      "year": 2017,
      "referenceCount": 101,
      "citationCount": 135,
      "authors": [
        {
          "authorId": "145940973",
          "name": "Shusen Wang"
        },
        {
          "authorId": "9545803",
          "name": "Alex Gittens"
        },
        {
          "authorId": "143884206",
          "name": "Michael W. Mahoney"
        }
      ]
    }
  ]
}