{
  "total": 73,
  "offset": 0,
  "next": 10,
  "data": [
    {
      "paperId": "4a9d00ddba1eaff8f0737e38ac235dea2018134e",
      "externalIds": {
        "DBLP": "conf/icml/SiZKMDH17",
        "MAG": "2740731087",
        "CorpusId": 10483721
      },
      "url": "https://www.semanticscholar.org/paper/4a9d00ddba1eaff8f0737e38ac235dea2018134e",
      "title": "Gradient Boosted Decision Trees for High Dimensional Sparse Output",
      "venue": "International Conference on Machine Learning",
      "year": 2017,
      "referenceCount": 21,
      "citationCount": 144,
      "authors": [
        {
          "authorId": "3422911",
          "name": "Si Si"
        },
        {
          "authorId": "49723481",
          "name": "Huan Zhang"
        },
        {
          "authorId": "144106136",
          "name": "S. Keerthi"
        },
        {
          "authorId": "144542135",
          "name": "D. Mahajan"
        },
        {
          "authorId": "1783667",
          "name": "I. Dhillon"
        },
        {
          "authorId": "1793529",
          "name": "Cho-Jui Hsieh"
        }
      ]
    },
    {
      "paperId": "0ed13e64031d9a12cc5550939808854448ebca01",
      "externalIds": {
        "DOI": "10.1145/3745238.3745390",
        "CorpusId": 280518579
      },
      "url": "https://www.semanticscholar.org/paper/0ed13e64031d9a12cc5550939808854448ebca01",
      "title": "Big Data-Driven Precision Strategy Generation for College Admissions Using Gradient Boosted Decision Trees (GBDT)",
      "venue": "Proceedings of the 2nd Guangdong-Hong Kong-Macao Greater Bay Area International Conference on Digital Economy and Artificial Intelligence",
      "year": 2025,
      "referenceCount": 6,
      "citationCount": 0,
      "authors": [
        {
          "authorId": "2375322870",
          "name": "Ziya Tan"
        }
      ]
    },
    {
      "paperId": "d97624635836b1d9cf7c80ffc3221c4211a37793",
      "externalIds": {
        "DOI": "10.1109/ICPICS66386.2025.11347170",
        "CorpusId": 285110053
      },
      "url": "https://www.semanticscholar.org/paper/d97624635836b1d9cf7c80ffc3221c4211a37793",
      "title": "Research on Intelligent Diagnosis and Visual Modeling Method of Centralized Photovoltaic Power Station Based on Intelligent Optimization and Gradient Boosted Decision Tree",
      "venue": "2025 IEEE 7th International Conference on Power, Intelligent Computing and Systems (ICPICS)",
      "year": 2025,
      "referenceCount": 14,
      "citationCount": 0,
      "authors": [
        {
          "authorId": "2105876841",
          "name": "Liu Bin"
        },
        {
          "authorId": "2407281779",
          "name": "Kang Zhe"
        },
        {
          "authorId": "2407286503",
          "name": "Yang Yifan"
        },
        {
          "authorId": "2407657422",
          "name": "Xuexia Chen"
        },
        {
          "authorId": "2407286480",
          "name": "Zeng Xuyun"
        }
      ]
    },
    {
      "paperId": "7827b91f227f6e3e8fa6c5f57dc11d5de7d7b563",
      "externalIds": {
        "PubMedCentral": "10032500",
        "DOI": "10.1371/journal.pone.0281901",
        "CorpusId": 257665367,
        "PubMed": "36947539"
      },
      "url": "https://www.semanticscholar.org/paper/7827b91f227f6e3e8fa6c5f57dc11d5de7d7b563",
      "title": "Classification of truck-involved crash severity: Dealing with missing, imbalanced, and high dimensional safety data",
      "venue": "PLoS ONE",
      "year": 2023,
      "referenceCount": 84,
      "citationCount": 28,
      "authors": [
        {
          "authorId": "2121876193",
          "name": "Seyed Iman Mohammadpour"
        },
        {
          "authorId": "2095747171",
          "name": "M. Khedmati"
        },
        {
          "authorId": "2212145572",
          "name": "Mohammad Javad Hassan Zada"
        }
      ]
    },
    {
      "paperId": "6d496dea845513416aaf771dac1e4876b951a7a3",
      "externalIds": {
        "MAG": "2895756600",
        "DBLP": "journals/informs/MistryLKLM21",
        "ArXiv": "1803.00952",
        "DOI": "10.1287/ijoc.2020.0993",
        "CorpusId": 52932734
      },
      "url": "https://www.semanticscholar.org/paper/6d496dea845513416aaf771dac1e4876b951a7a3",
      "title": "Mixed-Integer Convex Nonlinear Optimization with Gradient-Boosted Trees Embedded",
      "venue": "INFORMS journal on computing",
      "year": 2018,
      "referenceCount": 78,
      "citationCount": 61,
      "authors": [
        {
          "authorId": "32062332",
          "name": "Miten Mistry"
        },
        {
          "authorId": "2129062",
          "name": "Dimitrios Letsios"
        },
        {
          "authorId": "6892587",
          "name": "G. Krennrich"
        },
        {
          "authorId": "2110754057",
          "name": "Robert M. Lee"
        },
        {
          "authorId": "2067058",
          "name": "R. Misener"
        }
      ]
    },
    {
      "paperId": "e95d296185bc8e268b691160ad28a4e31caa3ec2",
      "externalIds": {
        "MAG": "2790930148",
        "DBLP": "journals/corr/abs-1803-00952",
        "CorpusId": 126036155
      },
      "url": "https://www.semanticscholar.org/paper/e95d296185bc8e268b691160ad28a4e31caa3ec2",
      "title": "Optimization with Gradient-Boosted Trees and Risk Control",
      "venue": "arXiv.org",
      "year": 2018,
      "referenceCount": 69,
      "citationCount": 0,
      "authors": [
        {
          "authorId": "32062332",
          "name": "Miten Mistry"
        },
        {
          "authorId": "2129062",
          "name": "Dimitrios Letsios"
        },
        {
          "authorId": "2067058",
          "name": "R. Misener"
        },
        {
          "authorId": "6892587",
          "name": "G. Krennrich"
        },
        {
          "authorId": "2110754057",
          "name": "Robert M. Lee"
        }
      ]
    },
    {
      "paperId": "99b9bb8b3537d119b306a25b583b6b4de57c37c0",
      "externalIds": {
        "DBLP": "conf/ipps/ChengLZ23",
        "ArXiv": "1804.04659",
        "DOI": "10.1109/IPDPS54959.2023.00034",
        "CorpusId": 4886528
      },
      "url": "https://www.semanticscholar.org/paper/99b9bb8b3537d119b306a25b583b6b4de57c37c0",
      "title": "Asynch-SGBDT: Train Stochastic Gradient Boosting Decision Trees in an Asynchronous Parallel Manner",
      "venue": "IEEE International Parallel and Distributed Processing Symposium",
      "year": 2018,
      "referenceCount": 35,
      "citationCount": 7,
      "authors": [
        {
          "authorId": "2946656",
          "name": "Daning Cheng"
        },
        {
          "authorId": "1738041",
          "name": "Shigang Li"
        },
        {
          "authorId": "2288389183",
          "name": "Yunquan Zhang"
        }
      ]
    },
    {
      "paperId": "069de9e4ced02ac86e947463d2f56c72a7943d7f",
      "externalIds": {
        "ArXiv": "2505.17495",
        "DBLP": "journals/corr/abs-2505-17495",
        "DOI": "10.48550/arXiv.2505.17495",
        "CorpusId": 278886628
      },
      "url": "https://www.semanticscholar.org/paper/069de9e4ced02ac86e947463d2f56c72a7943d7f",
      "title": "ProxySPEX: Inference-Efficient Interpretability via Sparse Feature Interactions in LLMs",
      "venue": "arXiv.org",
      "year": 2025,
      "referenceCount": 66,
      "citationCount": 4,
      "authors": [
        {
          "authorId": "2282540684",
          "name": "Landon Butler"
        },
        {
          "authorId": "79162085",
          "name": "Abhineet Agarwal"
        },
        {
          "authorId": "2282602519",
          "name": "J. Kang"
        },
        {
          "authorId": "2003612714",
          "name": "Y. E. Erginbas"
        },
        {
          "authorId": "2346813317",
          "name": "Bin Yu"
        },
        {
          "authorId": "2066489854",
          "name": "K. Ramchandran"
        }
      ]
    },
    {
      "paperId": "3da3d7c2a0c2ff2d2760557910974a995674769c",
      "externalIds": {
        "DBLP": "conf/icpp/LiuPW25",
        "DOI": "10.1145/3754598.3754638",
        "CorpusId": 284019490
      },
      "url": "https://www.semanticscholar.org/paper/3da3d7c2a0c2ff2d2760557910974a995674769c",
      "title": "Accelerating Multi-Output GBDTs with GPUs",
      "venue": "International Conference on Parallel Processing",
      "year": 2025,
      "referenceCount": 35,
      "citationCount": 0,
      "authors": [
        {
          "authorId": "3184195",
          "name": "Hanfeng Liu"
        },
        {
          "authorId": "2198382842",
          "name": "Xuemei Peng"
        },
        {
          "authorId": "2256993727",
          "name": "Zeyi Wen"
        }
      ]
    },
    {
      "paperId": "c7e61d007cc7bee74a76a10d55942576c377fc8a",
      "externalIds": {
        "DBLP": "journals/apin/ZhengGYYLD25",
        "DOI": "10.1007/s10489-024-06112-7",
        "CorpusId": 275146943
      },
      "url": "https://www.semanticscholar.org/paper/c7e61d007cc7bee74a76a10d55942576c377fc8a",
      "title": "Complex product quality prediction method based on an improved light gradient boosting machine",
      "venue": "Applied intelligence (Boston)",
      "year": 2024,
      "referenceCount": 54,
      "citationCount": 5,
      "authors": [
        {
          "authorId": "2309715960",
          "name": "Haiyang Zheng"
        },
        {
          "authorId": "2309736681",
          "name": "Xinqin Gao"
        },
        {
          "authorId": "2295923261",
          "name": "Mingshun Yang"
        },
        {
          "authorId": "2309656273",
          "name": "Xueqi Yang"
        },
        {
          "authorId": "2272608325",
          "name": "Yan Li"
        },
        {
          "authorId": "2338028364",
          "name": "Yongming Ding"
        }
      ]
    }
  ]
}