{
  "total": 12514,
  "offset": 0,
  "next": 10,
  "data": [
    {
      "paperId": "897cfd9b46c65d95147f94d26d3626fe098d9b3c",
      "externalIds": {
        "MAG": "2786748283",
        "DBLP": "conf/icml/Sheffet18",
        "ArXiv": "1802.03441",
        "CorpusId": 3602718
      },
      "url": "https://www.semanticscholar.org/paper/897cfd9b46c65d95147f94d26d3626fe098d9b3c",
      "title": "Locally Private Hypothesis Testing",
      "venue": "International Conference on Machine Learning",
      "year": 2018,
      "referenceCount": 36,
      "citationCount": 56,
      "authors": [
        {
          "authorId": "2311910",
          "name": "Or Sheffet"
        }
      ]
    },
    {
      "paperId": "f963de28d281f602d731333bce4025c008f86844",
      "externalIds": {
        "ArXiv": "2501.10152",
        "CorpusId": 275606589
      },
      "url": "https://www.semanticscholar.org/paper/f963de28d281f602d731333bce4025c008f86844",
      "title": "Quantum Advantage in Locally Differentially Private Hypothesis Testing",
      "venue": "",
      "year": 2025,
      "referenceCount": 45,
      "citationCount": 1,
      "authors": [
        {
          "authorId": "2259020550",
          "name": "Seung-Hyun Nam"
        },
        {
          "authorId": "2216210446",
          "name": "Hyun-Young Park"
        },
        {
          "authorId": "2328341981",
          "name": "Si-Hyeon Lee"
        },
        {
          "authorId": "2331502035",
          "name": "Joonwoo Bae"
        }
      ]
    },
    {
      "paperId": "5b685358c98593f29bebd4903dbab43bc262428e",
      "externalIds": {
        "ArXiv": "2002.09465",
        "MAG": "3046684513",
        "DBLP": "journals/corr/abs-2002-09465",
        "CorpusId": 211252747
      },
      "url": "https://www.semanticscholar.org/paper/5b685358c98593f29bebd4903dbab43bc262428e",
      "title": "Locally Private Hypothesis Selection",
      "venue": "Annual Conference Computational Learning Theory",
      "year": 2020,
      "referenceCount": 86,
      "citationCount": 29,
      "authors": [
        {
          "authorId": "40528805",
          "name": "S. Gopi"
        },
        {
          "authorId": "143835728",
          "name": "Gautam Kamath"
        },
        {
          "authorId": "2876647",
          "name": "Janardhan Kulkarni"
        },
        {
          "authorId": "2064112803",
          "name": "Aleksandar Nikolov"
        },
        {
          "authorId": "1768074",
          "name": "Zhiwei Steven Wu"
        },
        {
          "authorId": "2109066860",
          "name": "Huanyu Zhang"
        }
      ]
    },
    {
      "paperId": "c2f7aaa7b0bc37c94960d93911c9f06c40bb3ffb",
      "externalIds": {
        "CorpusId": 53551528
      },
      "url": "https://www.semanticscholar.org/paper/c2f7aaa7b0bc37c94960d93911c9f06c40bb3ffb",
      "title": "Locally Private Hypothesis Testing — Supplementary Material",
      "venue": "",
      "year": null,
      "referenceCount": 0,
      "citationCount": 0,
      "authors": []
    },
    {
      "paperId": "0ddaae9d31199394872a6251f58c082c1cd2f6eb",
      "externalIds": {
        "MAG": "2757411217",
        "DBLP": "conf/icml/Gaboardi018",
        "ArXiv": "1709.07155",
        "CorpusId": 3791566
      },
      "url": "https://www.semanticscholar.org/paper/0ddaae9d31199394872a6251f58c082c1cd2f6eb",
      "title": "Local Private Hypothesis Testing: Chi-Square Tests",
      "venue": "International Conference on Machine Learning",
      "year": 2017,
      "referenceCount": 31,
      "citationCount": 64,
      "authors": [
        {
          "authorId": "1759699",
          "name": "Marco Gaboardi"
        },
        {
          "authorId": "40101350",
          "name": "Ryan M. Rogers"
        }
      ]
    },
    {
      "paperId": "1cb36e6f83bb4c5bdff552206c31453f4d59e40c",
      "externalIds": {
        "DBLP": "journals/corr/abs-2406-18658",
        "ArXiv": "2406.18658",
        "DOI": "10.1109/ISIT57864.2024.10619433",
        "CorpusId": 270765113
      },
      "url": "https://www.semanticscholar.org/paper/1cb36e6f83bb4c5bdff552206c31453f4d59e40c",
      "title": "Sample Complexity of Locally Differentially Private Quantum Hypothesis Testing",
      "venue": "International Symposium on Information Theory",
      "year": 2024,
      "referenceCount": 29,
      "citationCount": 14,
      "authors": [
        {
          "authorId": "2308826588",
          "name": "Hao-Chung Cheng"
        },
        {
          "authorId": "2258323781",
          "name": "C. Hirche"
        },
        {
          "authorId": "32522066",
          "name": "C. Rouzé"
        }
      ]
    },
    {
      "paperId": "62d154b8f7834a6310d364642fd74e81e47d353b",
      "externalIds": {
        "MAG": "2886383207",
        "DOI": "10.1109/ISIT.2014.6874893",
        "CorpusId": 47193176
      },
      "url": "https://www.semanticscholar.org/paper/62d154b8f7834a6310d364642fd74e81e47d353b",
      "title": "Social Learning and Distributed Hypothesis Testing",
      "venue": "IEEE Transactions on Information Theory",
      "year": 2018,
      "referenceCount": 5,
      "citationCount": 5,
      "authors": [
        {
          "authorId": "145141991",
          "name": "Anusha Lalitha"
        },
        {
          "authorId": "47197693",
          "name": "T. Javidi"
        },
        {
          "authorId": "9208982",
          "name": "A. Sarwate"
        }
      ]
    },
    {
      "paperId": "30f16774700a2beb61fe1488c332c9b7f86b455f",
      "externalIds": {
        "DBLP": "conf/itw/LalithaJ17",
        "MAG": "2786752321",
        "DOI": "10.1109/ITW.2017.8278014",
        "CorpusId": 26797813
      },
      "url": "https://www.semanticscholar.org/paper/30f16774700a2beb61fe1488c332c9b7f86b455f",
      "title": "Learning via active hypothesis testing over networks",
      "venue": "Information Theory Workshop",
      "year": 2017,
      "referenceCount": 11,
      "citationCount": 4,
      "authors": [
        {
          "authorId": "145141991",
          "name": "Anusha Lalitha"
        },
        {
          "authorId": "47197693",
          "name": "T. Javidi"
        }
      ]
    },
    {
      "paperId": "5a6abd4c10e9d00af8f6a69bb0de24598910892a",
      "externalIds": {
        "MAG": "2963881501",
        "ArXiv": "1410.4307",
        "DBLP": "conf/isit/LalithaSJ14",
        "DOI": "10.1109/TIT.2018.2837050",
        "CorpusId": 2526009
      },
      "url": "https://www.semanticscholar.org/paper/5a6abd4c10e9d00af8f6a69bb0de24598910892a",
      "title": "Social learning and distributed hypothesis testing",
      "venue": "2014 IEEE International Symposium on Information Theory",
      "year": 2014,
      "referenceCount": 50,
      "citationCount": 195,
      "authors": [
        {
          "authorId": "145141991",
          "name": "Anusha Lalitha"
        },
        {
          "authorId": "9208982",
          "name": "A. Sarwate"
        },
        {
          "authorId": "47197693",
          "name": "T. Javidi"
        }
      ]
    },
    {
      "paperId": "bf3bf09835f8a77d6e10c8c80d68377cbaabfe72",
      "externalIds": {
        "MAG": "2292479476",
        "DBLP": "conf/acssc/LalithaJ15",
        "DOI": "10.1109/ACSSC.2015.7421302",
        "CorpusId": 24761589
      },
      "url": "https://www.semanticscholar.org/paper/bf3bf09835f8a77d6e10c8c80d68377cbaabfe72",
      "title": "Large deviation analysis for learning rate in distributed hypothesis testing",
      "venue": "Asilomar Conference on Signals, Systems and Computers",
      "year": 2015,
      "referenceCount": 10,
      "citationCount": 4,
      "authors": [
        {
          "authorId": "145141991",
          "name": "Anusha Lalitha"
        },
        {
          "authorId": "47197693",
          "name": "T. Javidi"
        }
      ]
    }
  ]
}