{
  "total": 19,
  "offset": 0,
  "next": 10,
  "data": [
    {
      "paperId": "97884ff15e0a4e83f534b7b13979e519d1c50a54",
      "externalIds": {
        "MAG": "2786602455",
        "DBLP": "journals/corr/abs-1802-04434",
        "ArXiv": "1802.04434",
        "CorpusId": 7763588
      },
      "url": "https://www.semanticscholar.org/paper/97884ff15e0a4e83f534b7b13979e519d1c50a54",
      "title": "signSGD: compressed optimisation for non-convex problems",
      "venue": "International Conference on Machine Learning",
      "year": 2018,
      "referenceCount": 48,
      "citationCount": 1241,
      "authors": [
        {
          "authorId": "2075339320",
          "name": "Jeremy Bernstein"
        },
        {
          "authorId": "2040617",
          "name": "Yu-Xiang Wang"
        },
        {
          "authorId": "3371922",
          "name": "K. Azizzadenesheli"
        },
        {
          "authorId": "2047844",
          "name": "Anima Anandkumar"
        }
      ]
    },
    {
      "paperId": "576214fbd9f5d0660366a0438a44149bf4899ede",
      "externalIds": {
        "CorpusId": 260495286
      },
      "url": "https://www.semanticscholar.org/paper/576214fbd9f5d0660366a0438a44149bf4899ede",
      "title": "SIGNSGD: Compressed Optimisation for Non-Convex Problems",
      "venue": "",
      "year": 2018,
      "referenceCount": 0,
      "citationCount": 0,
      "authors": []
    },
    {
      "paperId": "788a51a8d02832578a7dcb4a51d3692eb1c28f4a",
      "externalIds": {
        "DOI": "10.1051/0004-6361/202555737",
        "CorpusId": 282844743
      },
      "url": "https://www.semanticscholar.org/paper/788a51a8d02832578a7dcb4a51d3692eb1c28f4a",
      "title": "Non-convex sparse regularisation for radio interferometric imaging via smoothly clipped absolute deviation",
      "venue": "Astronomy &amp; Astrophysics",
      "year": 2025,
      "referenceCount": 0,
      "citationCount": 0,
      "authors": [
        {
          "authorId": "2258885",
          "name": "Xiaocheng Yang"
        },
        {
          "authorId": "2347191104",
          "name": "Huangfeng Cheng"
        },
        {
          "authorId": "2108664465",
          "name": "Lin Wu"
        },
        {
          "authorId": "2255369964",
          "name": "Jingye Yan"
        },
        {
          "authorId": "2344627182",
          "name": "Mingfeng Jiang"
        },
        {
          "authorId": "2360515423",
          "name": "Xu Yang"
        }
      ]
    },
    {
      "paperId": "172008395e9706754f24bfa9f7579fde5926afcf",
      "externalIds": {
        "DOI": "10.1049/rsn2.12555",
        "CorpusId": 268504935
      },
      "url": "https://www.semanticscholar.org/paper/172008395e9706754f24bfa9f7579fde5926afcf",
      "title": "Sequence optimisation for compressed sensing CDMA MIMO radar via mutual coherence minimisation",
      "venue": "IET Radar, Sonar &amp; Navigation",
      "year": 2024,
      "referenceCount": 8,
      "citationCount": 5,
      "authors": [
        {
          "authorId": "1569896385",
          "name": "S. Nagesh"
        },
        {
          "authorId": "1388505955",
          "name": "M. González-Huici"
        },
        {
          "authorId": "2238809831",
          "name": "Andreas Bathelt"
        },
        {
          "authorId": "2291928635",
          "name": "Miguel Heredia Conde"
        },
        {
          "authorId": "2260701572",
          "name": "Joachim Ender"
        }
      ]
    },
    {
      "paperId": "6fe922d5c0aacf8dc727dfefad28549608316643",
      "externalIds": {
        "DBLP": "journals/iet-spr/WangWYL16",
        "MAG": "2315178946",
        "DOI": "10.1049/iet-spr.2015.0261",
        "CorpusId": 52966130
      },
      "url": "https://www.semanticscholar.org/paper/6fe922d5c0aacf8dc727dfefad28549608316643",
      "title": "Combinatorial optimisation for pulse position modulation-ultra wideband signal detection based on compressed sensing and analogue-to-information converter",
      "venue": "IET Signal Processing",
      "year": 2016,
      "referenceCount": 16,
      "citationCount": 3,
      "authors": [
        {
          "authorId": "2154869521",
          "name": "Weidong Wang"
        },
        {
          "authorId": "2366774143",
          "name": "Shafei Wang"
        },
        {
          "authorId": "32555924",
          "name": "Jun-an Yang"
        },
        {
          "authorId": "2146672330",
          "name": "Hui Liu"
        }
      ]
    },
    {
      "paperId": "14ec03f7a69927aaf084d22d4c1c5ce4c97bf240",
      "externalIds": {
        "DOI": "10.1049/ell2.70393",
        "CorpusId": 280772067
      },
      "url": "https://www.semanticscholar.org/paper/14ec03f7a69927aaf084d22d4c1c5ce4c97bf240",
      "title": "A Measurement Matrix Design Algorithm for Ad Hoc Networks Using Phased Array Antennas",
      "venue": "Electronics Letters",
      "year": 2025,
      "referenceCount": 14,
      "citationCount": 2,
      "authors": [
        {
          "authorId": "2377528897",
          "name": "Fukang Zhao"
        },
        {
          "authorId": "2262012107",
          "name": "Xu Li"
        },
        {
          "authorId": "2325132038",
          "name": "Ying Liu"
        },
        {
          "authorId": "3431698",
          "name": "Yanan Liang"
        },
        {
          "authorId": "2316298053",
          "name": "Qiang Zhang"
        }
      ]
    },
    {
      "paperId": "c94f12087b7188fc87b156a6d4dd83045f4e70ec",
      "externalIds": {
        "MAG": "2693876997",
        "DOI": "10.1049/EL.2017.0925",
        "CorpusId": 116743269
      },
      "url": "https://www.semanticscholar.org/paper/c94f12087b7188fc87b156a6d4dd83045f4e70ec",
      "title": "Robust GNC approach for quantised compressed sensing",
      "venue": "",
      "year": 2017,
      "referenceCount": 5,
      "citationCount": 1,
      "authors": [
        {
          "authorId": "2889378",
          "name": "I. Elleuch"
        },
        {
          "authorId": "145066447",
          "name": "F. Abdelkefi"
        },
        {
          "authorId": "1701511",
          "name": "M. Siala"
        },
        {
          "authorId": "1819495",
          "name": "R. Hamila"
        },
        {
          "authorId": "1450622955",
          "name": "N. Al-Dahir"
        }
      ]
    },
    {
      "paperId": "78ddd63037a9f32dae70640c3eac787c612119fc",
      "externalIds": {
        "DBLP": "journals/iet-com/WangCCW15",
        "MAG": "2254574880",
        "DOI": "10.1049/iet-com.2015.0358",
        "CorpusId": 46633400
      },
      "url": "https://www.semanticscholar.org/paper/78ddd63037a9f32dae70640c3eac787c612119fc",
      "title": "Joint quantisation levels and power optimisation in uplink network multiple-input and multiple-output under constraint backhaul",
      "venue": "IET Communications",
      "year": 2015,
      "referenceCount": 21,
      "citationCount": 0,
      "authors": [
        {
          "authorId": "2323361879",
          "name": "Shipeng Wang"
        },
        {
          "authorId": "144423419",
          "name": "Li Chen"
        },
        {
          "authorId": "48283675",
          "name": "Xiaohui Chen"
        },
        {
          "authorId": "143659301",
          "name": "Guo Wei"
        }
      ]
    },
    {
      "paperId": "82f2b9f08753fd9ce57358e21d3b39ec77832121",
      "externalIds": {
        "DBLP": "journals/iet-spr/XiaoCL20",
        "DOI": "10.1049/iet-spr.2020.0276",
        "CorpusId": 233313260
      },
      "url": "https://www.semanticscholar.org/paper/82f2b9f08753fd9ce57358e21d3b39ec77832121",
      "title": "ADMM-based approach for compressive sensing with negative weights",
      "venue": "IET Signal Processing",
      "year": 2020,
      "referenceCount": 39,
      "citationCount": 9,
      "authors": [
        {
          "authorId": "2069588887",
          "name": "Peng Xiao"
        },
        {
          "authorId": "2054030721",
          "name": "Ping Chu"
        },
        {
          "authorId": "143852335",
          "name": "B. Liao"
        }
      ]
    },
    {
      "paperId": "ff02d900227d7735e634899473585e5931a0abd4",
      "externalIds": {
        "MAG": "2556799650",
        "DOI": "10.1049/IET-MAP.2016.0313",
        "CorpusId": 59406196
      },
      "url": "https://www.semanticscholar.org/paper/ff02d900227d7735e634899473585e5931a0abd4",
      "title": "Compressive sensing based sparse antenna array design for directional modulation",
      "venue": "",
      "year": 2017,
      "referenceCount": 38,
      "citationCount": 24,
      "authors": [
        {
          "authorId": "28628985",
          "name": "Bo Zhang"
        },
        {
          "authorId": "35757543",
          "name": "Wei Liu"
        },
        {
          "authorId": "8352068",
          "name": "Xiaoming Gou"
        }
      ]
    }
  ]
}