{
  "total": 805082,
  "offset": 0,
  "next": 10,
  "data": [
    {
      "paperId": "fdb813d8b927bdd21ae1858cafa6c34b66a36268",
      "externalIds": {
        "MAG": "2136189984",
        "DBLP": "conf/cikm/HuangHGDAH13",
        "DOI": "10.1145/2505515.2505665",
        "CorpusId": 8384258
      },
      "url": "https://www.semanticscholar.org/paper/fdb813d8b927bdd21ae1858cafa6c34b66a36268",
      "title": "Learning deep structured semantic models for web search using clickthrough data",
      "venue": "International Conference on Information and Knowledge Management",
      "year": 2013,
      "referenceCount": 26,
      "citationCount": 2237,
      "authors": [
        {
          "authorId": "2421691",
          "name": "Po-Sen Huang"
        },
        {
          "authorId": "144137069",
          "name": "Xiaodong He"
        },
        {
          "authorId": "1800422",
          "name": "Jianfeng Gao"
        },
        {
          "authorId": "144718788",
          "name": "L. Deng"
        },
        {
          "authorId": "1723644",
          "name": "A. Acero"
        },
        {
          "authorId": "46819684",
          "name": "Larry Heck"
        }
      ]
    },
    {
      "paperId": "c66758c1029a463489f26aeb3955f333b37f727a",
      "externalIds": {
        "MAG": "2928160594",
        "DBLP": "conf/icml/ChenSYU15",
        "ArXiv": "1407.2538",
        "CorpusId": 10787826
      },
      "url": "https://www.semanticscholar.org/paper/c66758c1029a463489f26aeb3955f333b37f727a",
      "title": "Learning Deep Structured Models",
      "venue": "International Conference on Machine Learning",
      "year": 2014,
      "referenceCount": 74,
      "citationCount": 251,
      "authors": [
        {
          "authorId": "34192119",
          "name": "Liang-Chieh Chen"
        },
        {
          "authorId": "2068227",
          "name": "A. Schwing"
        },
        {
          "authorId": "145081362",
          "name": "A. Yuille"
        },
        {
          "authorId": "2422559",
          "name": "R. Urtasun"
        }
      ]
    },
    {
      "paperId": "4cef5476f9da50c1a8fefdcb7114863966f61d67",
      "externalIds": {
        "MAG": "1569892065",
        "DBLP": "journals/corr/LinSRH15",
        "ArXiv": "1504.01013",
        "DOI": "10.1109/CVPR.2016.348",
        "CorpusId": 14554538
      },
      "url": "https://www.semanticscholar.org/paper/4cef5476f9da50c1a8fefdcb7114863966f61d67",
      "title": "Efficient Piecewise Training of Deep Structured Models for Semantic Segmentation",
      "venue": "Computer Vision and Pattern Recognition",
      "year": 2015,
      "referenceCount": 55,
      "citationCount": 939,
      "authors": [
        {
          "authorId": "2604251",
          "name": "Guosheng Lin"
        },
        {
          "authorId": "12459603",
          "name": "Chunhua Shen"
        },
        {
          "authorId": "1388378062",
          "name": "Anton van dan Hengel"
        },
        {
          "authorId": "145950884",
          "name": "I. Reid"
        }
      ]
    },
    {
      "paperId": "5f17e15cd922335faff2be158a5cf92711a26d3f",
      "externalIds": {
        "MAG": "3044905998",
        "CorpusId": 230063185
      },
      "url": "https://www.semanticscholar.org/paper/5f17e15cd922335faff2be158a5cf92711a26d3f",
      "title": "Learning deep structured models for visual understanding",
      "venue": "",
      "year": 2019,
      "referenceCount": 0,
      "citationCount": 0,
      "authors": [
        {
          "authorId": null,
          "name": "Zhiwei Deng"
        }
      ]
    },
    {
      "paperId": "b6472a40ef83ca64330b9472e9704fabde00d109",
      "externalIds": {
        "MAG": "2951468629",
        "DBLP": "conf/cvpr/MarcosTKZBLU18",
        "ArXiv": "1803.06329",
        "DOI": "10.1109/CVPR.2018.00925",
        "CorpusId": 3939983
      },
      "url": "https://www.semanticscholar.org/paper/b6472a40ef83ca64330b9472e9704fabde00d109",
      "title": "Learning Deep Structured Active Contours End-to-End",
      "venue": "2018 IEEE/CVF Conference on Computer Vision and Pattern Recognition",
      "year": 2018,
      "referenceCount": 34,
      "citationCount": 175,
      "authors": [
        {
          "authorId": "144173388",
          "name": "Diego Marcos"
        },
        {
          "authorId": "2977931",
          "name": "D. Tuia"
        },
        {
          "authorId": "31394603",
          "name": "B. Kellenberger"
        },
        {
          "authorId": "2107938983",
          "name": "Lisa Zhang"
        },
        {
          "authorId": "2065478626",
          "name": "Min Bai"
        },
        {
          "authorId": "2246396",
          "name": "Renjie Liao"
        },
        {
          "authorId": "2422559",
          "name": "R. Urtasun"
        }
      ]
    },
    {
      "paperId": "d3cf3e38114e3b207abbee05039443686e437ec5",
      "externalIds": {
        "DBLP": "journals/corr/LinSHR16",
        "MAG": "2296478878",
        "ArXiv": "1603.03183",
        "DOI": "10.1109/TPAMI.2017.2708714",
        "CorpusId": 5446275,
        "PubMed": "28574343"
      },
      "url": "https://www.semanticscholar.org/paper/d3cf3e38114e3b207abbee05039443686e437ec5",
      "title": "Exploring Context with Deep Structured Models for Semantic Segmentation",
      "venue": "IEEE Transactions on Pattern Analysis and Machine Intelligence",
      "year": 2016,
      "referenceCount": 63,
      "citationCount": 131,
      "authors": [
        {
          "authorId": "2604251",
          "name": "Guosheng Lin"
        },
        {
          "authorId": "1780381",
          "name": "Chunhua Shen"
        },
        {
          "authorId": "133678193",
          "name": "Anton van den Hengel"
        },
        {
          "authorId": "145950884",
          "name": "I. Reid"
        }
      ]
    },
    {
      "paperId": "3f25e17eb717e5894e0404ea634451332f85d287",
      "externalIds": {
        "MAG": "2188365844",
        "DBLP": "conf/nips/SohnLY15",
        "CorpusId": 13936837
      },
      "url": "https://www.semanticscholar.org/paper/3f25e17eb717e5894e0404ea634451332f85d287",
      "title": "Learning Structured Output Representation using Deep Conditional Generative Models",
      "venue": "Neural Information Processing Systems",
      "year": 2015,
      "referenceCount": 37,
      "citationCount": 3766,
      "authors": [
        {
          "authorId": "1729571",
          "name": "Kihyuk Sohn"
        },
        {
          "authorId": "1697141",
          "name": "Honglak Lee"
        },
        {
          "authorId": "3084614",
          "name": "Xinchen Yan"
        }
      ]
    },
    {
      "paperId": "dc9b95afcbd972d973f3ae29f05bbc8fa45d6a16",
      "externalIds": {
        "MAG": "2617840581",
        "DBLP": "conf/ijcai/KhanHPBST17",
        "DOI": "10.24963/ijcai.2017/279",
        "CorpusId": 6399290
      },
      "url": "https://www.semanticscholar.org/paper/dc9b95afcbd972d973f3ae29f05bbc8fa45d6a16",
      "title": "Learning deep structured network for weakly supervised change detection",
      "venue": "International Joint Conference on Artificial Intelligence",
      "year": 2016,
      "referenceCount": 47,
      "citationCount": 67,
      "authors": [
        {
          "authorId": "152973423",
          "name": "Salman Hameed Khan"
        },
        {
          "authorId": "33913193",
          "name": "Xuming He"
        },
        {
          "authorId": "29905643",
          "name": "F. Porikli"
        },
        {
          "authorId": "1698675",
          "name": "Bennamoun"
        },
        {
          "authorId": "2470423",
          "name": "Ferdous Sohel"
        },
        {
          "authorId": "2444665",
          "name": "R. Togneri"
        }
      ]
    },
    {
      "paperId": "263100544d75b34de69715e6667522ca19f4e7a4",
      "externalIds": {
        "DBLP": "conf/icassp/ChenHH16",
        "MAG": "2750009733",
        "DOI": "10.1109/ICASSP.2016.7472838",
        "CorpusId": 10828724
      },
      "url": "https://www.semanticscholar.org/paper/263100544d75b34de69715e6667522ca19f4e7a4",
      "title": "Zero-shot learning of intent embeddings for expansion by convolutional deep structured semantic models",
      "venue": "IEEE International Conference on Acoustics, Speech, and Signal Processing",
      "year": 2016,
      "referenceCount": 22,
      "citationCount": 87,
      "authors": [
        {
          "authorId": "1725643",
          "name": "Yun-Nung (Vivian) Chen"
        },
        {
          "authorId": "1395813836",
          "name": "Dilek Z. Hakkani-Tür"
        },
        {
          "authorId": "144137069",
          "name": "Xiaodong He"
        }
      ]
    },
    {
      "paperId": "ca9f5b3bf0f54ad97513e6175b30497873670fed",
      "externalIds": {
        "ArXiv": "2405.21060",
        "DBLP": "conf/icml/DaoG24",
        "CorpusId": 270199762
      },
      "url": "https://www.semanticscholar.org/paper/ca9f5b3bf0f54ad97513e6175b30497873670fed",
      "title": "Transformers are SSMs: Generalized Models and Efficient Algorithms Through Structured State Space Duality",
      "venue": "International Conference on Machine Learning",
      "year": 2024,
      "referenceCount": 0,
      "citationCount": 1380,
      "authors": [
        {
          "authorId": "2269146652",
          "name": "Tri Dao"
        },
        {
          "authorId": "2269161650",
          "name": "Albert Gu"
        }
      ]
    }
  ]
}