{
  "total": 1216,
  "offset": 0,
  "next": 10,
  "data": [
    {
      "paperId": "cc216064d780856c1221d8b029f08e09b145270a",
      "externalIds": {
        "ArXiv": "1702.07814",
        "MAG": "2949401973",
        "DBLP": "conf/icml/DinhBZM17",
        "CorpusId": 1335966
      },
      "url": "https://www.semanticscholar.org/paper/cc216064d780856c1221d8b029f08e09b145270a",
      "title": "Probabilistic Path Hamiltonian Monte Carlo",
      "venue": "International Conference on Machine Learning",
      "year": 2017,
      "referenceCount": 37,
      "citationCount": 53,
      "authors": [
        {
          "authorId": "2368993",
          "name": "Vu C. Dinh"
        },
        {
          "authorId": "35681297",
          "name": "Arman Bilge"
        },
        {
          "authorId": "2155988857",
          "name": "Cheng Zhang"
        },
        {
          "authorId": "40986771",
          "name": "IV FrederickA.Matsen"
        }
      ]
    },
    {
      "paperId": "37c322ea9f72b517e07239b2e6c4aaa4c2888acd",
      "externalIds": {
        "CorpusId": 260449239
      },
      "url": "https://www.semanticscholar.org/paper/37c322ea9f72b517e07239b2e6c4aaa4c2888acd",
      "title": "Probabilistic Path Hamiltonian Monte Carlo",
      "venue": "",
      "year": 2017,
      "referenceCount": 0,
      "citationCount": 0,
      "authors": []
    },
    {
      "paperId": "4a6fd4d55c5d97a27e14e0d05b7c91b3d8467670",
      "externalIds": {
        "MAG": "2946416284",
        "DOI": "10.1177/1687814019851007",
        "CorpusId": 182293713
      },
      "url": "https://www.semanticscholar.org/paper/4a6fd4d55c5d97a27e14e0d05b7c91b3d8467670",
      "title": "A new local path planning approach based on improved dual covariant Hamiltonian optimization for motion planning method",
      "venue": "Advances in Mechanical Engineering",
      "year": 2019,
      "referenceCount": 22,
      "citationCount": 6,
      "authors": [
        {
          "authorId": "145061088",
          "name": "B. You"
        },
        {
          "authorId": "2118214608",
          "name": "Zhi Li"
        },
        {
          "authorId": "145394341",
          "name": "L. Ding"
        },
        {
          "authorId": "2218011633",
          "name": "Haibo Gao"
        },
        {
          "authorId": "2999476",
          "name": "Jiazhong Xu"
        }
      ]
    },
    {
      "paperId": "88761490676121f17f542232c59ce5ab4570f83a",
      "externalIds": {
        "MAG": "2938305402",
        "DOI": "10.1177/0020294019836127",
        "CorpusId": 145887685
      },
      "url": "https://www.semanticscholar.org/paper/88761490676121f17f542232c59ce5ab4570f83a",
      "title": "A new optimization-driven path planning method with probabilistic completeness for wheeled mobile robots",
      "venue": "Measurement and control (London. 1968)",
      "year": 2019,
      "referenceCount": 22,
      "citationCount": 3,
      "authors": [
        {
          "authorId": "145061088",
          "name": "B. You"
        },
        {
          "authorId": "2118214608",
          "name": "Zhi Li"
        },
        {
          "authorId": "145394341",
          "name": "L. Ding"
        },
        {
          "authorId": "2218011633",
          "name": "Haibo Gao"
        },
        {
          "authorId": "2999476",
          "name": "Jiazhong Xu"
        }
      ]
    },
    {
      "paperId": "54f4023dfea6ff63efd53fec28e86cf7ee7269c2",
      "externalIds": {
        "MAG": "2050020493",
        "DBLP": "conf/3dica/PaquetV11",
        "DOI": "10.1117/12.872862",
        "CorpusId": 206421854
      },
      "url": "https://www.semanticscholar.org/paper/54f4023dfea6ff63efd53fec28e86cf7ee7269c2",
      "title": "Probability distributions from Riemannian geometry, generalized hybrid Monte Carlo sampling, and path integrals",
      "venue": "Electronic imaging",
      "year": 2011,
      "referenceCount": 14,
      "citationCount": 1,
      "authors": [
        {
          "authorId": "1681768",
          "name": "E. Paquet"
        },
        {
          "authorId": "1727256",
          "name": "H. Viktor"
        }
      ]
    },
    {
      "paperId": "b1cc29dcfd05a328af8c9a588b6d2257f2771b95",
      "externalIds": {
        "CorpusId": 249597470
      },
      "url": "https://www.semanticscholar.org/paper/b1cc29dcfd05a328af8c9a588b6d2257f2771b95",
      "title": "A Solution to the Sign Problem Using a Sum-of-Few-Fermions Hamiltonian",
      "venue": "",
      "year": 2022,
      "referenceCount": 41,
      "citationCount": 0,
      "authors": [
        {
          "authorId": "1557271815",
          "name": "David H. Wei"
        }
      ]
    },
    {
      "paperId": "8ea284b184ea541c8ffd0823bafca6af7ea1cf07",
      "externalIds": {
        "ArXiv": "2511.13224",
        "CorpusId": 283073043
      },
      "url": "https://www.semanticscholar.org/paper/8ea284b184ea541c8ffd0823bafca6af7ea1cf07",
      "title": "Natural gradient descent for improving variational inference based classification of radio galaxies",
      "venue": "",
      "year": 2025,
      "referenceCount": 31,
      "citationCount": 1,
      "authors": [
        {
          "authorId": "29289358",
          "name": "Devina Mohan"
        },
        {
          "authorId": "2266466078",
          "name": "Anna Scaife"
        }
      ]
    },
    {
      "paperId": "5d78701bd0f6aa56f79f116a5734d3de8b37f71b",
      "externalIds": {
        "ArXiv": "2208.13744",
        "CorpusId": 258833059
      },
      "url": "https://www.semanticscholar.org/paper/5d78701bd0f6aa56f79f116a5734d3de8b37f71b",
      "title": "A Solution to the Sign Problem Using a Sum of Controlled Few-Fermions",
      "venue": "",
      "year": 2022,
      "referenceCount": 52,
      "citationCount": 0,
      "authors": [
        {
          "authorId": "1557271815",
          "name": "David H. Wei"
        }
      ]
    },
    {
      "paperId": "e1103d528d874a9e8e84ca443fe3fd5c1ff9eb9e",
      "externalIds": {
        "MAG": "2951774616",
        "DBLP": "journals/jmlr/HoffmanG14",
        "ArXiv": "1111.4246",
        "DOI": "10.5555/2627435.2638586",
        "CorpusId": 12948548
      },
      "url": "https://www.semanticscholar.org/paper/e1103d528d874a9e8e84ca443fe3fd5c1ff9eb9e",
      "title": "The No-U-turn sampler: adaptively setting path lengths in Hamiltonian Monte Carlo",
      "venue": "Journal of machine learning research",
      "year": 2011,
      "referenceCount": 31,
      "citationCount": 5019,
      "authors": [
        {
          "authorId": "28552618",
          "name": "M. Hoffman"
        },
        {
          "authorId": "144389145",
          "name": "A. Gelman"
        }
      ]
    },
    {
      "paperId": "d374aa370de2e9419d1b68deb6dd2822857fb52e",
      "externalIds": {
        "DOI": "10.1093/gji/ggae389",
        "CorpusId": 273758675
      },
      "url": "https://www.semanticscholar.org/paper/d374aa370de2e9419d1b68deb6dd2822857fb52e",
      "title": "Probabilistic geophysical inversion of complex resistivity measurements using the Hamiltonian Monte Carlo method",
      "venue": "Geophysical Journal International",
      "year": 2024,
      "referenceCount": 0,
      "citationCount": 2,
      "authors": [
        {
          "authorId": "2007259073",
          "name": "Joost Hase"
        },
        {
          "authorId": "2328709685",
          "name": "Florian M Wagner"
        },
        {
          "authorId": "153509669",
          "name": "M. Weigand"
        },
        {
          "authorId": "2283376810",
          "name": "A. Kemna"
        }
      ]
    }
  ]
}