{
  "total": 30,
  "offset": 0,
  "next": 10,
  "data": [
    {
      "paperId": "8f3157a5ca2955d2fb66e4d8c6348be204134728",
      "externalIds": {
        "MAG": "2338432079",
        "DBLP": "conf/icml/ImaizumiH16",
        "ArXiv": "1506.05967",
        "CorpusId": 16535784
      },
      "url": "https://www.semanticscholar.org/paper/8f3157a5ca2955d2fb66e4d8c6348be204134728",
      "title": "Doubly Decomposing Nonparametric Tensor Regression",
      "venue": "International Conference on Machine Learning",
      "year": 2015,
      "referenceCount": 33,
      "citationCount": 27,
      "authors": [
        {
          "authorId": "3429139",
          "name": "M. Imaizumi"
        },
        {
          "authorId": "2730698",
          "name": "K. Hayashi"
        }
      ]
    },
    {
      "paperId": "d45eede23dcaadb3d089a563cd3093f8e8072e71",
      "externalIds": {
        "CorpusId": 17374348
      },
      "url": "https://www.semanticscholar.org/paper/d45eede23dcaadb3d089a563cd3093f8e8072e71",
      "title": "Supplementary Material for \" Doubly Decomposing Nonparametric Tensor Regression \" A. Proof of Theorem 1",
      "venue": "",
      "year": null,
      "referenceCount": 0,
      "citationCount": 0,
      "authors": []
    },
    {
      "paperId": "f31b31eca3aa5b448519ab198c84012a31f7d3e1",
      "externalIds": {
        "MAG": "2245844932",
        "CorpusId": 124706764
      },
      "url": "https://www.semanticscholar.org/paper/f31b31eca3aa5b448519ab198c84012a31f7d3e1",
      "title": "Nonparametric Tensor Regression with Low-Rank Decomposition",
      "venue": "",
      "year": 2015,
      "referenceCount": 24,
      "citationCount": 1,
      "authors": [
        {
          "authorId": "3429139",
          "name": "M. Imaizumi"
        },
        {
          "authorId": "2730698",
          "name": "K. Hayashi"
        }
      ]
    },
    {
      "paperId": "7f456f969568625f75288917adf25510cf2f3321",
      "externalIds": {
        "MAG": "2974029743",
        "DBLP": "journals/jmlr/TanL0019",
        "CorpusId": 202626694
      },
      "url": "https://www.semanticscholar.org/paper/7f456f969568625f75288917adf25510cf2f3321",
      "title": "Layer-Wise Learning Strategy for Nonparametric Tensor Product Smoothing Spline Regression and Graphical Models",
      "venue": "Journal of machine learning research",
      "year": 2019,
      "referenceCount": 52,
      "citationCount": 2,
      "authors": [
        {
          "authorId": "2397447",
          "name": "Kean Ming Tan"
        },
        {
          "authorId": "1922357988",
          "name": "Junwei Lu"
        },
        {
          "authorId": "2146324552",
          "name": "Tong Zhang"
        },
        {
          "authorId": "49957601",
          "name": "Han Liu"
        }
      ]
    },
    {
      "paperId": "c599666d8935f4b7a596f1b89a388c0391b13a76",
      "externalIds": {
        "MAG": "2951295948",
        "DBLP": "journals/jcgs/YangT21",
        "ArXiv": "1906.06729",
        "DOI": "10.1080/10618600.2021.1923513",
        "CorpusId": 189928111
      },
      "url": "https://www.semanticscholar.org/paper/c599666d8935f4b7a596f1b89a388c0391b13a76",
      "title": "Hierarchical Total Variations and Doubly Penalized ANOVA Modeling for Multivariate Nonparametric Regression",
      "venue": "Journal of Computational And Graphical Statistics",
      "year": 2019,
      "referenceCount": 52,
      "citationCount": 2,
      "authors": [
        {
          "authorId": "2122813817",
          "name": "Ting Yang"
        },
        {
          "authorId": "2299380008",
          "name": "Zhiqiang Tan"
        }
      ]
    },
    {
      "paperId": "6a3ffb13ad86451a23dc2b111f71101fd3613e47",
      "externalIds": {
        "DBLP": "journals/entropy/PanWW23",
        "PubMedCentral": "10528462",
        "DOI": "10.3390/e25091327",
        "CorpusId": 261844598,
        "PubMed": "37761626"
      },
      "url": "https://www.semanticscholar.org/paper/6a3ffb13ad86451a23dc2b111f71101fd3613e47",
      "title": "Detection of Interaction Effects in a Nonparametric Concurrent Regression Model",
      "venue": "Entropy",
      "year": 2023,
      "referenceCount": 36,
      "citationCount": 0,
      "authors": [
        {
          "authorId": "2240867730",
          "name": "Rui Pan"
        },
        {
          "authorId": "2241074936",
          "name": "Zhanfeng Wang"
        },
        {
          "authorId": "2240933885",
          "name": "Yaohua Wu"
        }
      ]
    },
    {
      "paperId": "d2ad554dcd6872dd1f21fd7985c790ecea54d0e8",
      "externalIds": {
        "DBLP": "conf/aistats/YoonJK22",
        "CorpusId": 248923819
      },
      "url": "https://www.semanticscholar.org/paper/d2ad554dcd6872dd1f21fd7985c790ecea54d0e8",
      "title": "Doubly Mixed-Effects Gaussian Process Regression",
      "venue": "International Conference on Artificial Intelligence and Statistics",
      "year": 2022,
      "referenceCount": 33,
      "citationCount": 2,
      "authors": [
        {
          "authorId": "2142548797",
          "name": "Jun Ho Yoon"
        },
        {
          "authorId": "50303763",
          "name": "Daniel P. Jeong"
        },
        {
          "authorId": "2109583806",
          "name": "Seyoung Kim"
        }
      ]
    },
    {
      "paperId": "e3970e46d25360520b5d1633f4ae3f66c059403b",
      "externalIds": {
        "DOI": "10.1557/s43577-022-00443-x",
        "CorpusId": 255767365
      },
      "url": "https://www.semanticscholar.org/paper/e3970e46d25360520b5d1633f4ae3f66c059403b",
      "title": "Emulating the evolution of phase separating microstructures using low-dimensional tensor decomposition and nonlinear regression",
      "venue": "MRS bulletin",
      "year": 2023,
      "referenceCount": 40,
      "citationCount": 7,
      "authors": [
        {
          "authorId": "3407066",
          "name": "A. Iquebal"
        },
        {
          "authorId": "152296193",
          "name": "Peichen Wu"
        },
        {
          "authorId": "2346867951",
          "name": "A. Sarfraz"
        },
        {
          "authorId": "13742632",
          "name": "K. Ankit"
        }
      ]
    },
    {
      "paperId": "30258725f8151d0cd987a1109f63218a3cd3cfcd",
      "externalIds": {
        "MAG": "3044661579",
        "DOI": "10.1007/s42952-020-00082-5",
        "CorpusId": 225605680
      },
      "url": "https://www.semanticscholar.org/paper/30258725f8151d0cd987a1109f63218a3cd3cfcd",
      "title": "Nonparametric matrix regression function estimation over symmetric positive definite matrices",
      "venue": "Journal of the Korean Statistical Society",
      "year": 2020,
      "referenceCount": 44,
      "citationCount": 1,
      "authors": [
        {
          "authorId": "1392863212",
          "name": "Kwan-Young Bak"
        },
        {
          "authorId": "2567737",
          "name": "Kwang-Rae Kim"
        },
        {
          "authorId": "145558643",
          "name": "P. Kim"
        },
        {
          "authorId": "2339535",
          "name": "J. Koo"
        },
        {
          "authorId": "1773025",
          "name": "Changyi Park"
        },
        {
          "authorId": "3280236",
          "name": "Hongtu Zhu"
        }
      ]
    },
    {
      "paperId": "9fbc53e597fb0bea74be4628ed958a79473d23d8",
      "externalIds": {
        "MAG": "2891007919",
        "DBLP": "conf/nips/ZheD18",
        "CorpusId": 54072533
      },
      "url": "https://www.semanticscholar.org/paper/9fbc53e597fb0bea74be4628ed958a79473d23d8",
      "title": "Stochastic Nonparametric Event-Tensor Decomposition",
      "venue": "Neural Information Processing Systems",
      "year": 2018,
      "referenceCount": 39,
      "citationCount": 18,
      "authors": [
        {
          "authorId": "2390798",
          "name": "Shandian Zhe"
        },
        {
          "authorId": "2111895721",
          "name": "Yishuai Du"
        }
      ]
    }
  ]
}