{
  "total": 97270,
  "offset": 0,
  "next": 10,
  "data": [
    {
      "paperId": "852bcc3cc41df93e079582a2ef3c40689ff8411a",
      "externalIds": {
        "MAG": "2952153566",
        "ArXiv": "1806.03143",
        "DBLP": "conf/icml/TanseyWBR18",
        "CorpusId": 47016186
      },
      "url": "https://www.semanticscholar.org/paper/852bcc3cc41df93e079582a2ef3c40689ff8411a",
      "title": "Black Box FDR",
      "venue": "International Conference on Machine Learning",
      "year": 2018,
      "referenceCount": 30,
      "citationCount": 19,
      "authors": [
        {
          "authorId": "145305182",
          "name": "Wesley Tansey"
        },
        {
          "authorId": "2108734693",
          "name": "Yixin Wang"
        },
        {
          "authorId": "1796335",
          "name": "D. Blei"
        },
        {
          "authorId": "40620158",
          "name": "R. Rabadán"
        }
      ]
    },
    {
      "paperId": "e0ee3cc862980bb596894e0c71d114afd795aa1f",
      "externalIds": {
        "DOI": "10.38124/ijisrt/25jul003",
        "CorpusId": 279946859
      },
      "url": "https://www.semanticscholar.org/paper/e0ee3cc862980bb596894e0c71d114afd795aa1f",
      "title": "Anatomy of the Air India Flight AI-171 (AI-121) Boeing 787 Crash: Insights from Black Box Data, Systems Analysis, and Regulatory Implications",
      "venue": "International Journal of Innovative Science and Research Technology",
      "year": 2025,
      "referenceCount": 3,
      "citationCount": 0,
      "authors": [
        {
          "authorId": "2370413878",
          "name": "D. Maheshwari"
        }
      ]
    },
    {
      "paperId": "f294ac24b665de3ec21bfd1304a390d19e5321ce",
      "externalIds": {
        "DBLP": "journals/corr/abs-2304-01397",
        "ArXiv": "2304.01397",
        "DOI": "10.1109/TSE.2024.3469582",
        "CorpusId": 257921736
      },
      "url": "https://www.semanticscholar.org/paper/f294ac24b665de3ec21bfd1304a390d19e5321ce",
      "title": "LTM: Scalable and Black-Box Similarity-Based Test Suite Minimization Based on Language Models",
      "venue": "IEEE Transactions on Software Engineering",
      "year": 2023,
      "referenceCount": 61,
      "citationCount": 10,
      "authors": [
        {
          "authorId": "2127786229",
          "name": "Rongqing Pan"
        },
        {
          "authorId": "3364522",
          "name": "Taher A. Ghaleb"
        },
        {
          "authorId": "1722904",
          "name": "L. Briand"
        }
      ]
    },
    {
      "paperId": "4ef8d0b9770479c6ae91ba92b6f74359af94b350",
      "externalIds": {
        "MAG": "2766272684",
        "DOI": "10.1016/J.IFACOL.2017.08.145",
        "CorpusId": 115898023
      },
      "url": "https://www.semanticscholar.org/paper/4ef8d0b9770479c6ae91ba92b6f74359af94b350",
      "title": "Wireless Sensors Networks as Black-Box Recorder for Fast Flight Data Recovery during Aircraft Crash Investigation",
      "venue": "",
      "year": 2017,
      "referenceCount": 12,
      "citationCount": 5,
      "authors": [
        {
          "authorId": "1970208",
          "name": "Kais Mekki"
        },
        {
          "authorId": "2666214",
          "name": "W. Derigent"
        },
        {
          "authorId": "3959591",
          "name": "É. Rondeau"
        },
        {
          "authorId": "144470990",
          "name": "André Thomas"
        }
      ]
    },
    {
      "paperId": "90426e517b378a895ba9dc3a03873d5121b73a89",
      "externalIds": {
        "MAG": "2790697000",
        "DOI": "10.24247/IJMPERDFEB2018152",
        "CorpusId": 117151224
      },
      "url": "https://www.semanticscholar.org/paper/90426e517b378a895ba9dc3a03873d5121b73a89",
      "title": "Design and Fabrication of Black Box Ejection System for a Civil Transport Aircraft",
      "venue": "",
      "year": 2018,
      "referenceCount": 0,
      "citationCount": 0,
      "authors": [
        {
          "authorId": "102933517",
          "name": "K. Veeranjaneyulu"
        },
        {
          "authorId": "152575661",
          "name": "Tjprc"
        }
      ]
    },
    {
      "paperId": "738d7dc2a2a6cc1e2ed3146e410ed93af17800dc",
      "externalIds": {
        "MAG": "2480674533",
        "DOI": "10.14445/22315381/IJETT-V35P218",
        "CorpusId": 54707892
      },
      "url": "https://www.semanticscholar.org/paper/738d7dc2a2a6cc1e2ed3146e410ed93af17800dc",
      "title": "Wireless Black Box System for Airborne Vehicles",
      "venue": "",
      "year": 2016,
      "referenceCount": 5,
      "citationCount": 0,
      "authors": [
        {
          "authorId": "123625848",
          "name": "B. Sudha"
        },
        {
          "authorId": "89189011",
          "name": "K. Megha"
        },
        {
          "authorId": "1399626403",
          "name": "Chaitra"
        },
        {
          "authorId": "2320425472",
          "name": "P. Vaishnavi"
        }
      ]
    },
    {
      "paperId": "398e3ce7169f7ed019ecea5a93f03530d2d72ec2",
      "externalIds": {
        "MAG": "1506181386",
        "DOI": "10.17485/IJST/2015/V8I10/51141",
        "CorpusId": 56519658
      },
      "url": "https://www.semanticscholar.org/paper/398e3ce7169f7ed019ecea5a93f03530d2d72ec2",
      "title": "Real Time Video Black Box in Air Craft for an Intelligent Surveillance System",
      "venue": "",
      "year": 2015,
      "referenceCount": 12,
      "citationCount": 1,
      "authors": [
        {
          "authorId": "52331792",
          "name": "Sasikala Guruswamy"
        },
        {
          "authorId": "30637930",
          "name": "K. Siddappanaidu"
        }
      ]
    },
    {
      "paperId": "d887a73b7b2e8dba02c65808e40cb96f43bfa91e",
      "externalIds": {
        "ArXiv": "2210.03178",
        "DBLP": "conf/cikm/QiuMS0C22",
        "DOI": "10.1145/3511808.3557672",
        "CorpusId": 252762170
      },
      "url": "https://www.semanticscholar.org/paper/d887a73b7b2e8dba02c65808e40cb96f43bfa91e",
      "title": "Probabilistic Model Incorporating Auxiliary Covariates to Control FDR",
      "venue": "International Conference on Information and Knowledge Management",
      "year": 2022,
      "referenceCount": 14,
      "citationCount": 0,
      "authors": [
        {
          "authorId": "2068178738",
          "name": "Lin Qiu"
        },
        {
          "authorId": "1405686623",
          "name": "Nils Murrugarra-Llerena"
        },
        {
          "authorId": "2105565624",
          "name": "Vítor Silva"
        },
        {
          "authorId": "2117106210",
          "name": "Lin Lin"
        },
        {
          "authorId": "2663507",
          "name": "V. Chinchilli"
        }
      ]
    },
    {
      "paperId": "23c8c6e88c7a64020196c4f6d00d6d7451b7e157",
      "externalIds": {
        "MAG": "2582029062",
        "CorpusId": 15772654
      },
      "url": "https://www.semanticscholar.org/paper/23c8c6e88c7a64020196c4f6d00d6d7451b7e157",
      "title": "Formal methods for security protocols : three examples of the black-box approach",
      "venue": "",
      "year": 2003,
      "referenceCount": 25,
      "citationCount": 15,
      "authors": [
        {
          "authorId": "39631165",
          "name": "Cas J. F. Cremers"
        },
        {
          "authorId": "1738794",
          "name": "S. Mauw"
        },
        {
          "authorId": "52105868",
          "name": "D. Vink"
        }
      ]
    },
    {
      "paperId": "1ea16e6c41ae71027a2b64bbef1bd07fbe85918e",
      "externalIds": {
        "MAG": "2139499602",
        "DOI": "10.1109/AERO.2000.878756",
        "CorpusId": 17185903
      },
      "url": "https://www.semanticscholar.org/paper/1ea16e6c41ae71027a2b64bbef1bd07fbe85918e",
      "title": "Investigating software failures with a software black box",
      "venue": "IEEE Aerospace Conference. Proceedings",
      "year": 2000,
      "referenceCount": 17,
      "citationCount": 7,
      "authors": [
        {
          "authorId": "143754832",
          "name": "Sebastian G. Elbaum"
        },
        {
          "authorId": "1794764",
          "name": "J. Munson"
        }
      ]
    }
  ]
}