{
  "total": 2696,
  "offset": 0,
  "next": 10,
  "data": [
    {
      "paperId": "96f78f409e4e3f25276d9d98977ef67f2a801abf",
      "externalIds": {
        "MAG": "2951974986",
        "ArXiv": "1703.00381",
        "DBLP": "journals/corr/OlivaPS17",
        "CorpusId": 12201880
      },
      "url": "https://www.semanticscholar.org/paper/96f78f409e4e3f25276d9d98977ef67f2a801abf",
      "title": "The Statistical Recurrent Unit",
      "venue": "International Conference on Machine Learning",
      "year": 2017,
      "referenceCount": 30,
      "citationCount": 51,
      "authors": [
        {
          "authorId": "143930995",
          "name": "Junier B. Oliva"
        },
        {
          "authorId": "1719347",
          "name": "B. Póczos"
        },
        {
          "authorId": "1753432",
          "name": "J. Schneider"
        }
      ]
    },
    {
      "paperId": "a8489cf0f26920f0173d13cecaf90b526651573d",
      "externalIds": {
        "DOI": "10.2118/205944-ms",
        "CorpusId": 239140723
      },
      "url": "https://www.semanticscholar.org/paper/a8489cf0f26920f0173d13cecaf90b526651573d",
      "title": "Model-Free Assessment of Inter-Well Connectivity in CO2 WAG Projects Using Statistical Recurrent Unit Models",
      "venue": "Day 2 Wed, September 22, 2021",
      "year": 2021,
      "referenceCount": 0,
      "citationCount": 11,
      "authors": [
        {
          "authorId": "2129506985",
          "name": "Hongquan Chen"
        },
        {
          "authorId": "101618465",
          "name": "Deepthi Sen"
        },
        {
          "authorId": "1409655552",
          "name": "A. Datta-Gupta"
        },
        {
          "authorId": "2056140506",
          "name": "M. Nagao"
        }
      ]
    },
    {
      "paperId": "c2a075e0d9ce1ad943d1d8f0a003a5db98ea9c40",
      "externalIds": {
        "DOI": "10.1016/j.fuel.2021.122600",
        "CorpusId": 244466330
      },
      "url": "https://www.semanticscholar.org/paper/c2a075e0d9ce1ad943d1d8f0a003a5db98ea9c40",
      "title": "Inter-well connectivity detection in CO2 WAG projects using statistical recurrent unit models",
      "venue": "Fuel",
      "year": 2021,
      "referenceCount": 48,
      "citationCount": 26,
      "authors": [
        {
          "authorId": "101618465",
          "name": "Deepthi Sen"
        },
        {
          "authorId": "2129506985",
          "name": "Hongquan Chen"
        },
        {
          "authorId": "1409655552",
          "name": "A. Datta-Gupta"
        }
      ]
    },
    {
      "paperId": "9be3902ecb1c5e45cd8a5491f2462cbb0a17a111",
      "externalIds": {
        "DOI": "10.1109/BRACIS.2019.00081",
        "CorpusId": 208883902
      },
      "url": "https://www.semanticscholar.org/paper/9be3902ecb1c5e45cd8a5491f2462cbb0a17a111",
      "title": "Recurrent Neural Network Based on Statistical Recurrent Unit for Remaining Useful Life Estimation",
      "venue": "Brazilian Conference on Intelligent Systems",
      "year": 2019,
      "referenceCount": 25,
      "citationCount": 7,
      "authors": [
        {
          "authorId": "1452353599",
          "name": "André Ribeiro de Miranda"
        },
        {
          "authorId": "1452356026",
          "name": "T. M. G. de Andrade Barbosa"
        },
        {
          "authorId": "30875045",
          "name": "A. G. Scolari Conceicao"
        },
        {
          "authorId": "1452353619",
          "name": "S. G. Soares Alcalá"
        }
      ]
    },
    {
      "paperId": "282b33ce23c5d694d87107ef34aafb445e27e962",
      "externalIds": {
        "MAG": "2994434049",
        "DBLP": "conf/bracis/MirandaBCA19",
        "DOI": "10.1109/BRACIS.2019.00081",
        "CorpusId": 210117708
      },
      "url": "https://www.semanticscholar.org/paper/282b33ce23c5d694d87107ef34aafb445e27e962",
      "title": "Recurrent Neural Network Based on Statistical Recurrent Unit for Remaining Useful Life Estimation",
      "venue": "Brazilian Conference on Intelligent Systems",
      "year": 2019,
      "referenceCount": 25,
      "citationCount": 0,
      "authors": [
        {
          "authorId": "2054256790",
          "name": "A. R. D. Miranda"
        },
        {
          "authorId": "1481709910",
          "name": "T. M. G. D. A. Barbosa"
        },
        {
          "authorId": "3207722",
          "name": "A. S. Conceição"
        },
        {
          "authorId": "30532639",
          "name": "S. G. S. Alcalá"
        }
      ]
    },
    {
      "paperId": "045d3bcd1ec9bb59eb269b2f12b3ebabaa93604d",
      "externalIds": {
        "DBLP": "journals/vtm/KimY23",
        "DOI": "10.1109/MVT.2023.3236480",
        "CorpusId": 256681064
      },
      "url": "https://www.semanticscholar.org/paper/045d3bcd1ec9bb59eb269b2f12b3ebabaa93604d",
      "title": "Lidar Object Perception Framework for Urban Autonomous Driving: Detection and State Tracking Based on Convolutional Gated Recurrent Unit and Statistical Approach",
      "venue": "IEEE Vehicular Technology Magazine",
      "year": 2023,
      "referenceCount": 15,
      "citationCount": 8,
      "authors": [
        {
          "authorId": "2117146000",
          "name": "Jongho Kim"
        },
        {
          "authorId": "34009399",
          "name": "K. Yi"
        }
      ]
    },
    {
      "paperId": "643191b234651aae966b66a9a8f0f9241edc3b6b",
      "externalIds": {
        "DBLP": "journals/esi/SamadianfardRMT25",
        "DOI": "10.1007/s12145-025-01947-1",
        "CorpusId": 279514685
      },
      "url": "https://www.semanticscholar.org/paper/643191b234651aae966b66a9a8f0f9241edc3b6b",
      "title": "Innovative strategies for hourly global horizontal irradiance forecasting using a hybrid gated recurrent unit and long short-term memory architecture with spatio-temporal attention mechanism",
      "venue": "Earth Science Informatics",
      "year": 2025,
      "referenceCount": 28,
      "citationCount": 5,
      "authors": [
        {
          "authorId": "2261833247",
          "name": "Saeed Samadianfard"
        },
        {
          "authorId": "107698440",
          "name": "Z. Rousta"
        },
        {
          "authorId": "2368065038",
          "name": "Mahdi Mohebbiyan"
        },
        {
          "authorId": "2199385209",
          "name": "Hamed Talebi"
        }
      ]
    },
    {
      "paperId": "907da0c87e4ca01315ad95d1e31afe6547de03d9",
      "externalIds": {
        "DOI": "10.1080/00051144.2023.2296790",
        "CorpusId": 266941451
      },
      "url": "https://www.semanticscholar.org/paper/907da0c87e4ca01315ad95d1e31afe6547de03d9",
      "title": "Effective deep learning based grade prediction system using gated recurrent unit (GRU) with feature optimization using analysis of variance (ANOVA)",
      "venue": "Automatika",
      "year": 2024,
      "referenceCount": 34,
      "citationCount": 14,
      "authors": [
        {
          "authorId": "2279101252",
          "name": "S. Lakshmi"
        },
        {
          "authorId": "2243996366",
          "name": "C. P. Maheswaran"
        }
      ]
    },
    {
      "paperId": "e673e98a482294c876b6a761438a7f536079e633",
      "externalIds": {
        "DBLP": "journals/tim/DingJDZ21",
        "DOI": "10.1109/TIM.2021.3056644",
        "CorpusId": 232062547
      },
      "url": "https://www.semanticscholar.org/paper/e673e98a482294c876b6a761438a7f536079e633",
      "title": "Statistical Alignment-Based Metagated Recurrent Unit for Cross-Domain Machinery Degradation Trend Prognostics Using Limited Data",
      "venue": "IEEE Transactions on Instrumentation and Measurement",
      "year": 2021,
      "referenceCount": 32,
      "citationCount": 21,
      "authors": [
        {
          "authorId": "143777872",
          "name": "Peng Ding"
        },
        {
          "authorId": "2814216",
          "name": "M. Jia"
        },
        {
          "authorId": "8844408",
          "name": "Yifei Ding"
        },
        {
          "authorId": "50062249",
          "name": "Xiaoli Zhao"
        }
      ]
    },
    {
      "paperId": "9bd81ceaae0a85f8d336ddc1d640d170d5bbf289",
      "externalIds": {
        "DBLP": "journals/ejasmp/SheferawMKM24",
        "DOI": "10.1186/s13636-023-00325-3",
        "CorpusId": 267064809
      },
      "url": "https://www.semanticscholar.org/paper/9bd81ceaae0a85f8d336ddc1d640d170d5bbf289",
      "title": "Gated recurrent unit predictor model-based adaptive differential pulse code modulation speech decoder",
      "venue": "EURASIP Journal on Audio, Speech, and Music Processing",
      "year": 2024,
      "referenceCount": 21,
      "citationCount": 5,
      "authors": [
        {
          "authorId": "2275886686",
          "name": "Gebremichael Kibret Sheferaw"
        },
        {
          "authorId": "145180839",
          "name": "W. Mwangi"
        },
        {
          "authorId": "2264452108",
          "name": "Michael W. Kimwele"
        },
        {
          "authorId": "7917541",
          "name": "A. Mamuye"
        }
      ]
    }
  ]
}