{
  "total": 15385,
  "offset": 0,
  "next": 10,
  "data": [
    {
      "paperId": "fafcaf5ca3fab8dc4fad15c2391c0fdb4a7dc005",
      "externalIds": {
        "DBLP": "conf/icml/CohenW16",
        "ArXiv": "1602.07576",
        "MAG": "2952054889",
        "CorpusId": 609898
      },
      "url": "https://www.semanticscholar.org/paper/fafcaf5ca3fab8dc4fad15c2391c0fdb4a7dc005",
      "title": "Group Equivariant Convolutional Networks",
      "venue": "International Conference on Machine Learning",
      "year": 2016,
      "referenceCount": 56,
      "citationCount": 2283,
      "authors": [
        {
          "authorId": "2056266",
          "name": "Taco Cohen"
        },
        {
          "authorId": "1678311",
          "name": "M. Welling"
        }
      ]
    },
    {
      "paperId": "18cf47f82dc044444d3a97e228b27e4bd381cbd1",
      "externalIds": {
        "ArXiv": "2511.17841",
        "DBLP": "journals/corr/abs-2511-17841",
        "DOI": "10.1109/6GNet68413.2025.11314083",
        "CorpusId": 283243886
      },
      "url": "https://www.semanticscholar.org/paper/18cf47f82dc044444d3a97e228b27e4bd381cbd1",
      "title": "Group Equivariant Convolutional Networks for Pathloss Estimation",
      "venue": "2025 4th International Conference on 6G Networking (6GNet)",
      "year": 2025,
      "referenceCount": 19,
      "citationCount": 1,
      "authors": [
        {
          "authorId": "2281250925",
          "name": "Ziyue Yang"
        },
        {
          "authorId": "2313682307",
          "name": "Feng Liu"
        },
        {
          "authorId": "2282240472",
          "name": "Yifei Jin"
        },
        {
          "authorId": "2328280874",
          "name": "Konstantinos Vandikas"
        }
      ]
    },
    {
      "paperId": "04bee920f4278bbdc86d53960daaaccaa56f0cce",
      "externalIds": {
        "MAG": "3035702705",
        "DBLP": "journals/corr/abs-2002-03830",
        "ArXiv": "2002.03830",
        "CorpusId": 211069317
      },
      "url": "https://www.semanticscholar.org/paper/04bee920f4278bbdc86d53960daaaccaa56f0cce",
      "title": "Attentive Group Equivariant Convolutional Networks",
      "venue": "International Conference on Machine Learning",
      "year": 2020,
      "referenceCount": 73,
      "citationCount": 98,
      "authors": [
        {
          "authorId": "2064243209",
          "name": "David W. Romero"
        },
        {
          "authorId": "2231179",
          "name": "E. Bekkers"
        },
        {
          "authorId": "1849327",
          "name": "J. Tomczak"
        },
        {
          "authorId": "144074133",
          "name": "M. Hoogendoorn"
        }
      ]
    },
    {
      "paperId": "2a3409b465df656726654ce8abcd6015f4514ad3",
      "externalIds": {
        "DBLP": "journals/ojcs/HanCWSF24",
        "DOI": "10.1109/OJCOMS.2024.3486459",
        "CorpusId": 273636078
      },
      "url": "https://www.semanticscholar.org/paper/2a3409b465df656726654ce8abcd6015f4514ad3",
      "title": "GP-DGECN: Geometric Prior Dynamic Group Equivariant Convolutional Networks for Specific Emitter Identification",
      "venue": "IEEE Open Journal of the Communications Society",
      "year": 2024,
      "referenceCount": 42,
      "citationCount": 1,
      "authors": [
        {
          "authorId": "2214485189",
          "name": "Yu Han"
        },
        {
          "authorId": "2322705290",
          "name": "Xiang Chen"
        },
        {
          "authorId": "2274492235",
          "name": "Manxi Wang"
        },
        {
          "authorId": "2322739896",
          "name": "Long Shi"
        },
        {
          "authorId": "2169659487",
          "name": "Zhongming Feng"
        }
      ]
    },
    {
      "paperId": "8c912509c6d0701f794e35ab4891b5b255e4b9ec",
      "externalIds": {
        "DBLP": "conf/bibm/LiC020",
        "DOI": "10.1109/BIBM49941.2020.9313601",
        "CorpusId": 231617874
      },
      "url": "https://www.semanticscholar.org/paper/8c912509c6d0701f794e35ab4891b5b255e4b9ec",
      "title": "A Dynamic Group Equivariant Convolutional Networks for Medical Image Analysis",
      "venue": "IEEE International Conference on Bioinformatics and Biomedicine",
      "year": 2020,
      "referenceCount": 34,
      "citationCount": 4,
      "authors": [
        {
          "authorId": "2152884403",
          "name": "Yan Li"
        },
        {
          "authorId": "1795677",
          "name": "Guitao Cao"
        },
        {
          "authorId": "2146492346",
          "name": "W. Cao"
        }
      ]
    },
    {
      "paperId": "cd731f6ae47458ff140e2d09087d587a89de161c",
      "externalIds": {
        "DOI": "10.1109/icac353642.2021.9697298",
        "CorpusId": 246658908
      },
      "url": "https://www.semanticscholar.org/paper/cd731f6ae47458ff140e2d09087d587a89de161c",
      "title": "Study of Group Equivariant Convolutional Networks For Image Classification",
      "venue": "2021 International Conference on Advances in Computing, Communication, and Control (ICAC3)",
      "year": 2021,
      "referenceCount": 0,
      "citationCount": 1,
      "authors": [
        {
          "authorId": "2153762544",
          "name": "Nishant Dave"
        },
        {
          "authorId": "2153760771",
          "name": "Vivek Vinze"
        },
        {
          "authorId": "2153761812",
          "name": "Jainam Dhami"
        },
        {
          "authorId": "9736190",
          "name": "Neha Katre"
        },
        {
          "authorId": "107947454",
          "name": "Stevina Correia"
        }
      ]
    },
    {
      "paperId": "2a4b3fd2c50c6b1ffb24f86b8d12f4914609dbab",
      "externalIds": {
        "CorpusId": 198167233
      },
      "url": "https://www.semanticscholar.org/paper/2a4b3fd2c50c6b1ffb24f86b8d12f4914609dbab",
      "title": "Ju n 20 16 Group Equivariant Convolutional Networks",
      "venue": "",
      "year": 2018,
      "referenceCount": 36,
      "citationCount": 0,
      "authors": [
        {
          "authorId": "2062517910",
          "name": "Cohen"
        }
      ]
    },
    {
      "paperId": "da83a3805ab28968eef8669d64b574ec9985abad",
      "externalIds": {
        "DBLP": "journals/corr/abs-2001-09046",
        "ArXiv": "2001.09046",
        "MAG": "3001808426",
        "DOI": "10.1007/s10851-022-01114-x",
        "CorpusId": 210911733
      },
      "url": "https://www.semanticscholar.org/paper/da83a3805ab28968eef8669d64b574ec9985abad",
      "title": "PDE-Based Group Equivariant Convolutional Neural Networks",
      "venue": "Journal of Mathematical Imaging and Vision",
      "year": 2020,
      "referenceCount": 112,
      "citationCount": 69,
      "authors": [
        {
          "authorId": "2001682094",
          "name": "B. Smets"
        },
        {
          "authorId": "51211783",
          "name": "J. Portegies"
        },
        {
          "authorId": "2231179",
          "name": "E. Bekkers"
        },
        {
          "authorId": "1772397",
          "name": "R. Duits"
        }
      ]
    },
    {
      "paperId": "7bc1814abcd6aa2f57e00837acaa4cbdcdd141ff",
      "externalIds": {
        "DBLP": "journals/remotesensing/LiaoL23",
        "DOI": "10.3390/rs15153758",
        "CorpusId": 260363502
      },
      "url": "https://www.semanticscholar.org/paper/7bc1814abcd6aa2f57e00837acaa4cbdcdd141ff",
      "title": "Lie Group Equivariant Convolutional Neural Network Based on Laplace Distribution",
      "venue": "Remote Sensing",
      "year": 2023,
      "referenceCount": 19,
      "citationCount": 8,
      "authors": [
        {
          "authorId": "2226351954",
          "name": "Dengfeng Liao"
        },
        {
          "authorId": "2152757958",
          "name": "Guangzhong Liu"
        }
      ]
    },
    {
      "paperId": "8e4463668333e95ff510ab13713eb80f789efe62",
      "externalIds": {
        "ArXiv": "2102.08252",
        "DOI": "10.1093/mnras/stab530",
        "CorpusId": 231933680
      },
      "url": "https://www.semanticscholar.org/paper/8e4463668333e95ff510ab13713eb80f789efe62",
      "title": "Fanaroff–Riley classification of radio galaxies using group-equivariant convolutional neural networks",
      "venue": "Monthly notices of the Royal Astronomical Society",
      "year": 2021,
      "referenceCount": 46,
      "citationCount": 26,
      "authors": [
        {
          "authorId": "48842480",
          "name": "A. Scaife"
        },
        {
          "authorId": "50071411",
          "name": "Fiona A. M. Porter"
        }
      ]
    }
  ]
}