{
  "total": 59,
  "offset": 0,
  "next": 10,
  "data": [
    {
      "paperId": "cbf5ecbc13060570afad479166e8b5cf6b7e48ea",
      "externalIds": {
        "MAG": "2266301203",
        "DBLP": "journals/corr/PatriniNNC16",
        "ArXiv": "1602.02450",
        "CorpusId": 865549
      },
      "url": "https://www.semanticscholar.org/paper/cbf5ecbc13060570afad479166e8b5cf6b7e48ea",
      "title": "Loss factorization, weakly supervised learning and label noise robustness",
      "venue": "International Conference on Machine Learning",
      "year": 2016,
      "referenceCount": 45,
      "citationCount": 121,
      "authors": [
        {
          "authorId": "49047270",
          "name": "Giorgio Patrini"
        },
        {
          "authorId": "144863930",
          "name": "F. Nielsen"
        },
        {
          "authorId": "1718786",
          "name": "R. Nock"
        },
        {
          "authorId": "3367357",
          "name": "M. Carioni"
        }
      ]
    },
    {
      "paperId": "4b1e5e06b407de59bc3185e497b05000d583ba60",
      "externalIds": {
        "CorpusId": 265997955
      },
      "url": "https://www.semanticscholar.org/paper/4b1e5e06b407de59bc3185e497b05000d583ba60",
      "title": "Supplement To: Loss Factorization, Weakly Supervised Learning and Label Noise Robustness",
      "venue": "",
      "year": null,
      "referenceCount": 7,
      "citationCount": 0,
      "authors": []
    },
    {
      "paperId": "f89cbcd783c13733bf0707e1a6284a532fac0a06",
      "externalIds": {
        "DOI": "10.1080/01431161.2024.2443612",
        "CorpusId": 275399035
      },
      "url": "https://www.semanticscholar.org/paper/f89cbcd783c13733bf0707e1a6284a532fac0a06",
      "title": "Weakly supervised land-cover classification of high-resolution images with low-resolution labels through optimized label refinement",
      "venue": "International Journal of Remote Sensing",
      "year": 2025,
      "referenceCount": 65,
      "citationCount": 7,
      "authors": [
        {
          "authorId": "2161723417",
          "name": "Yang Tang"
        },
        {
          "authorId": "2220145123",
          "name": "Guixiang Zhang"
        },
        {
          "authorId": "2281608725",
          "name": "Jung-Kuan Liu"
        },
        {
          "authorId": "2243192193",
          "name": "Rongjun Qin"
        }
      ]
    },
    {
      "paperId": "4597780eee4bb5925582e2021a62e9e5fe371a3c",
      "externalIds": {
        "DOI": "10.3724/sp.j.1089.2023.19332",
        "CorpusId": 281626733
      },
      "url": "https://www.semanticscholar.org/paper/4597780eee4bb5925582e2021a62e9e5fe371a3c",
      "title": "Weakly-Supervised Point Cloud Segmentation Combining Pseudo Label Generation and Noise Label Learning",
      "venue": "Journal of Computer-Aided Design &amp; Computer Graphics",
      "year": 2023,
      "referenceCount": 31,
      "citationCount": 0,
      "authors": [
        {
          "authorId": "2148548700",
          "name": "An Deng"
        },
        {
          "authorId": "2343780221",
          "name": "Peng Zhang"
        },
        {
          "authorId": "2026978222",
          "name": "Zhuheng Lu"
        },
        {
          "authorId": "2108716395",
          "name": "Weiqing Li"
        },
        {
          "authorId": "1859457",
          "name": "Zhiyong Su"
        }
      ]
    },
    {
      "paperId": "678d46d26037c5f5aa29dae49801572490a85a1c",
      "externalIds": {
        "DBLP": "journals/tgrs/LuJZ24",
        "DOI": "10.1109/TGRS.2024.3421890",
        "CorpusId": 270933297
      },
      "url": "https://www.semanticscholar.org/paper/678d46d26037c5f5aa29dae49801572490a85a1c",
      "title": "Weakly Supervised Remote Sensing Image Semantic Segmentation With Pseudo-Label Noise Suppression",
      "venue": "IEEE Transactions on Geoscience and Remote Sensing",
      "year": 2024,
      "referenceCount": 71,
      "citationCount": 21,
      "authors": [
        {
          "authorId": "2152840208",
          "name": "Xiaoyan Lu"
        },
        {
          "authorId": "2271747878",
          "name": "Zhiguo Jiang"
        },
        {
          "authorId": "2000351915",
          "name": "Haopeng Zhang"
        }
      ]
    },
    {
      "paperId": "b426c02dfeb73a2625e730752ec322d33c89af0c",
      "externalIds": {
        "DOI": "10.1109/JBHI.2025.3646371",
        "CorpusId": 284048186,
        "PubMed": "41417998"
      },
      "url": "https://www.semanticscholar.org/paper/b426c02dfeb73a2625e730752ec322d33c89af0c",
      "title": "Cell-Level Free Cervical Lesion Detection in Cytology Images Via Weakly Supervised Self-Correction.",
      "venue": "IEEE journal of biomedical and health informatics",
      "year": 2025,
      "referenceCount": 0,
      "citationCount": 1,
      "authors": [
        {
          "authorId": "47876497",
          "name": "Jiayi Wu"
        },
        {
          "authorId": "2119326519",
          "name": "Yan Zhao"
        },
        {
          "authorId": "2262863531",
          "name": "Chinmay Chakraborty"
        },
        {
          "authorId": "2383198489",
          "name": "S. Thota"
        },
        {
          "authorId": "2308018529",
          "name": "Jingmin Xin"
        },
        {
          "authorId": "2353722926",
          "name": "Keping Yu"
        }
      ]
    },
    {
      "paperId": "05ea8f5008355453c390637b31654b6c37da3bb9",
      "externalIds": {
        "DBLP": "journals/tsipn/ZhangJTL25",
        "DOI": "10.1109/TSIPN.2025.3525961",
        "CorpusId": 275399957
      },
      "url": "https://www.semanticscholar.org/paper/05ea8f5008355453c390637b31654b6c37da3bb9",
      "title": "Label Guided Graph Optimized Convolutional Network for Semi-Supervised Learning",
      "venue": "IEEE Transactions on Signal and Information Processing over Networks",
      "year": 2025,
      "referenceCount": 0,
      "citationCount": 1,
      "authors": [
        {
          "authorId": "152780956",
          "name": "Ziyan Zhang"
        },
        {
          "authorId": "2268847503",
          "name": "Bo Jiang"
        },
        {
          "authorId": "2260595835",
          "name": "Jin Tang"
        },
        {
          "authorId": "2288473027",
          "name": "Bin Luo"
        }
      ]
    },
    {
      "paperId": "0fc647b10c2d075909b7a523dca0cc3b8883da5c",
      "externalIds": {
        "DOI": "10.1109/NTCI67886.2025.11308538",
        "CorpusId": 284356626
      },
      "url": "https://www.semanticscholar.org/paper/0fc647b10c2d075909b7a523dca0cc3b8883da5c",
      "title": "Partial Label Learning via Meta-learning Bi-Level Optimization",
      "venue": "2025 International Conference on New Trends in Computational Intelligence (NTCI)",
      "year": 2025,
      "referenceCount": 21,
      "citationCount": 0,
      "authors": [
        {
          "authorId": "2315418461",
          "name": "Jiayin Song"
        },
        {
          "authorId": "2402476149",
          "name": "Yanzhuo Fu"
        },
        {
          "authorId": "2329351707",
          "name": "Wenpeng Lu"
        },
        {
          "authorId": "2398874200",
          "name": "Min Gan"
        },
        {
          "authorId": "2319964177",
          "name": "Linqing Huang"
        },
        {
          "authorId": "2308274540",
          "name": "Jinfu Fan"
        }
      ]
    },
    {
      "paperId": "0d9f5bdb0e7347d78c1ec80abf5675d8169cb5b5",
      "externalIds": {
        "DBLP": "journals/tgrs/LiuCLHLL24",
        "DOI": "10.1109/TGRS.2023.3302352",
        "CorpusId": 260720727
      },
      "url": "https://www.semanticscholar.org/paper/0d9f5bdb0e7347d78c1ec80abf5675d8169cb5b5",
      "title": "Robust Weakly Supervised Learning Prestack Multitrace Seismic Inversion",
      "venue": "IEEE Transactions on Geoscience and Remote Sensing",
      "year": 2024,
      "referenceCount": 50,
      "citationCount": 5,
      "authors": [
        {
          "authorId": "12907412",
          "name": "Zeyang Liu"
        },
        {
          "authorId": "2109197732",
          "name": "Xiaohong Chen"
        },
        {
          "authorId": "102227933",
          "name": "Jingye Li"
        },
        {
          "authorId": "2142535012",
          "name": "Siyun Hou"
        },
        {
          "authorId": "2319199949",
          "name": "Zihan Li"
        },
        {
          "authorId": "50084149",
          "name": "Guochang Liu"
        }
      ]
    },
    {
      "paperId": "79ec4a0a2fb8b216ca7c61a31cb3cda12fcef999",
      "externalIds": {
        "MAG": "3165710583",
        "DBLP": "conf/isbi/WuWHHW21",
        "DOI": "10.1109/ISBI48211.2021.9433883",
        "CorpusId": 235207583
      },
      "url": "https://www.semanticscholar.org/paper/79ec4a0a2fb8b216ca7c61a31cb3cda12fcef999",
      "title": "A Novel Weakly Supervised Framework Based On Noisy-Label Learning For Medical Image Segmentation",
      "venue": "IEEE International Symposium on Biomedical Imaging",
      "year": 2021,
      "referenceCount": 12,
      "citationCount": 6,
      "authors": [
        {
          "authorId": "89056283",
          "name": "Haoyang Wu"
        },
        {
          "authorId": "2113268860",
          "name": "Huan Wang"
        },
        {
          "authorId": "2110434779",
          "name": "Hao He"
        },
        {
          "authorId": "2108937375",
          "name": "Zixiao He"
        },
        {
          "authorId": "2107886449",
          "name": "Guotai Wang"
        }
      ]
    }
  ]
}