{
  "total": 42610,
  "offset": 0,
  "next": 10,
  "data": [
    {
      "paperId": "70920415b0c775e300a3e2279993e8535548c116",
      "externalIds": {
        "DBLP": "conf/icml/RainforthNLPMDW16",
        "ArXiv": "1602.05128",
        "MAG": "2279122170",
        "CorpusId": 5023062
      },
      "url": "https://www.semanticscholar.org/paper/70920415b0c775e300a3e2279993e8535548c116",
      "title": "Interacting Particle Markov Chain Monte Carlo",
      "venue": "International Conference on Machine Learning",
      "year": 2016,
      "referenceCount": 25,
      "citationCount": 35,
      "authors": [
        {
          "authorId": "2358794",
          "name": "Tom Rainforth"
        },
        {
          "authorId": "2328322",
          "name": "C. A. Naesseth"
        },
        {
          "authorId": "1759780",
          "name": "F. Lindsten"
        },
        {
          "authorId": "2885717",
          "name": "Brooks Paige"
        },
        {
          "authorId": "3237420",
          "name": "Jan-Willem van de Meent"
        },
        {
          "authorId": "1701800",
          "name": "A. Doucet"
        },
        {
          "authorId": "2347189",
          "name": "Frank D. Wood"
        }
      ]
    },
    {
      "paperId": "d2da3e35945ef1be2e13808ac06de37209c38880",
      "externalIds": {
        "CorpusId": 14625824
      },
      "url": "https://www.semanticscholar.org/paper/d2da3e35945ef1be2e13808ac06de37209c38880",
      "title": "Interacting Particle Markov Chain Monte Carlo - Supplementary Material",
      "venue": "",
      "year": 2016,
      "referenceCount": 3,
      "citationCount": 1,
      "authors": [
        {
          "authorId": "2328322",
          "name": "C. A. Naesseth"
        },
        {
          "authorId": "1759780",
          "name": "F. Lindsten"
        },
        {
          "authorId": "2885717",
          "name": "Brooks Paige"
        },
        {
          "authorId": "3237420",
          "name": "Jan-Willem van de Meent"
        },
        {
          "authorId": "1701800",
          "name": "A. Doucet"
        }
      ]
    },
    {
      "paperId": "f0b6490aaae1f2f1088ab58157f59c7aeafbd3b0",
      "externalIds": {
        "MAG": "1990093357",
        "DOI": "10.1007/S11009-013-9367-2",
        "CorpusId": 119859990
      },
      "url": "https://www.semanticscholar.org/paper/f0b6490aaae1f2f1088ab58157f59c7aeafbd3b0",
      "title": "On the Use of Particle Markov Chain Monte Carlo in Parameter Estimation of Space-Time Interacting Discs",
      "venue": "",
      "year": 2014,
      "referenceCount": 20,
      "citationCount": 3,
      "authors": [
        {
          "authorId": "10297982",
          "name": "M. Zikmundová"
        },
        {
          "authorId": "147256866",
          "name": "Kateřina Staňková Helisová"
        },
        {
          "authorId": "48716300",
          "name": "V. Beneš"
        }
      ]
    },
    {
      "paperId": "0558bfeccac2204ddcd8731ff513fdfdb23c205f",
      "externalIds": {
        "ArXiv": "2505.12599",
        "DBLP": "journals/corr/abs-2505-12599",
        "DOI": "10.48550/arXiv.2505.12599",
        "CorpusId": 278739660
      },
      "url": "https://www.semanticscholar.org/paper/0558bfeccac2204ddcd8731ff513fdfdb23c205f",
      "title": "Accelerated Markov Chain Monte Carlo Algorithms on Discrete States",
      "venue": "arXiv.org",
      "year": 2025,
      "referenceCount": 64,
      "citationCount": 0,
      "authors": [
        {
          "authorId": "92895967",
          "name": "Bohan Zhou"
        },
        {
          "authorId": "2281684616",
          "name": "Shu Liu"
        },
        {
          "authorId": "2281643409",
          "name": "Xinzhe Zuo"
        },
        {
          "authorId": "2282505330",
          "name": "Wuchen Li"
        }
      ]
    },
    {
      "paperId": "95da5241388d3f5d7cfc196d110b321d54616aa6",
      "externalIds": {
        "DOI": "10.1007/s11009-013-9367-2",
        "CorpusId": 254799784
      },
      "url": "https://www.semanticscholar.org/paper/95da5241388d3f5d7cfc196d110b321d54616aa6",
      "title": "On the Use of Particle Markov Chain Monte Carlo in Parameter Estimation of Space-Time Interacting Discs",
      "venue": "Methodology and Computing in Applied Probability",
      "year": 2013,
      "referenceCount": 19,
      "citationCount": 0,
      "authors": [
        {
          "authorId": "10297982",
          "name": "M. Zikmundová"
        },
        {
          "authorId": "147256866",
          "name": "Kateřina Staňková Helisová"
        },
        {
          "authorId": "48716300",
          "name": "V. Beneš"
        }
      ]
    },
    {
      "paperId": "2784ebc97a064bad57d8339e736754ac15f10bdd",
      "externalIds": {
        "DBLP": "conf/icip/SunderrajanKM13",
        "MAG": "2048310865",
        "DOI": "10.1109/ICIP.2013.6738608",
        "CorpusId": 7204086
      },
      "url": "https://www.semanticscholar.org/paper/2784ebc97a064bad57d8339e736754ac15f10bdd",
      "title": "Robust multiple object tracking by detection with interacting Markov chain Monte Carlo",
      "venue": "2013 IEEE International Conference on Image Processing",
      "year": 2013,
      "referenceCount": 20,
      "citationCount": 13,
      "authors": [
        {
          "authorId": "1703530",
          "name": "Santhoshkumar Sunderrajan"
        },
        {
          "authorId": "144943727",
          "name": "S. Karthikeyan"
        },
        {
          "authorId": "50591689",
          "name": "B. S. Manjunath"
        }
      ]
    },
    {
      "paperId": "3a444e7bec944f55f5c3594fe976625016e14cd2",
      "externalIds": {
        "MAG": "2955888632",
        "CorpusId": 13896133
      },
      "url": "https://www.semanticscholar.org/paper/3a444e7bec944f55f5c3594fe976625016e14cd2",
      "title": "On nonlinear Markov chain Monte Carlo via Self-interacting approximations.",
      "venue": "",
      "year": 2011,
      "referenceCount": 49,
      "citationCount": 17,
      "authors": [
        {
          "authorId": "40014328",
          "name": "P. Moral"
        },
        {
          "authorId": "1701800",
          "name": "A. Doucet"
        },
        {
          "authorId": "3011741",
          "name": "A. Jasra"
        },
        {
          "authorId": "49630843",
          "name": "C. Andrieu"
        }
      ]
    },
    {
      "paperId": "06e24273736622c25dda06c1648332ebd261a507",
      "externalIds": {
        "DBLP": "conf/uai/CorderoEncinarCA25",
        "ArXiv": "2406.14292",
        "CorpusId": 270620644
      },
      "url": "https://www.semanticscholar.org/paper/06e24273736622c25dda06c1648332ebd261a507",
      "title": "Proximal Interacting Particle Langevin Algorithms",
      "venue": "Conference on Uncertainty in Artificial Intelligence",
      "year": 2024,
      "referenceCount": 84,
      "citationCount": 10,
      "authors": [
        {
          "authorId": "2326115966",
          "name": "Paula Cordero-Encinar"
        },
        {
          "authorId": "89214304",
          "name": "F. R. Crucinio"
        },
        {
          "authorId": "3299459",
          "name": "Ömer Deniz Akyildiz"
        }
      ]
    },
    {
      "paperId": "4937aabda94038242146e34b9d572a22a89b1197",
      "externalIds": {
        "ArXiv": "2306.13059",
        "DOI": "10.1103/PhysRevX.14.041035",
        "CorpusId": 259224841
      },
      "url": "https://www.semanticscholar.org/paper/4937aabda94038242146e34b9d572a22a89b1197",
      "title": "Lifted TASEP: A Solvable Paradigm for Speeding up Many-Particle Markov Chains",
      "venue": "Physical Review X",
      "year": 2023,
      "referenceCount": 56,
      "citationCount": 9,
      "authors": [
        {
          "authorId": "9835881",
          "name": "F. Essler"
        },
        {
          "authorId": "1920907",
          "name": "W. Krauth"
        }
      ]
    },
    {
      "paperId": "1c1f1adc71d86af69fd8a5eab93af125a1a80ccf",
      "externalIds": {
        "ArXiv": "2406.00184",
        "DOI": "10.1063/5.0225561",
        "CorpusId": 270217809,
        "PubMed": "39230373"
      },
      "url": "https://www.semanticscholar.org/paper/1c1f1adc71d86af69fd8a5eab93af125a1a80ccf",
      "title": "Markov-chain sampling for long-range systems without evaluating the energy.",
      "venue": "Journal of Chemical Physics",
      "year": 2024,
      "referenceCount": 42,
      "citationCount": 2,
      "authors": [
        {
          "authorId": "2237982947",
          "name": "Gabriele Tartero"
        },
        {
          "authorId": "2237983077",
          "name": "Werner Krauth"
        }
      ]
    }
  ]
}