{
  "total": 725,
  "offset": 0,
  "next": 10,
  "data": [
    {
      "paperId": "cdfd24ba6166ad14c8680b7d2cade0a313c94792",
      "externalIds": {
        "MAG": "2798234853",
        "ArXiv": "1804.03184",
        "DBLP": "conf/icml/ChapfuwaTLPGCH18",
        "CorpusId": 4734635,
        "PubMed": "33834174"
      },
      "url": "https://www.semanticscholar.org/paper/cdfd24ba6166ad14c8680b7d2cade0a313c94792",
      "title": "Adversarial Time-to-Event Modeling",
      "venue": "International Conference on Machine Learning",
      "year": 2018,
      "referenceCount": 52,
      "citationCount": 97,
      "authors": [
        {
          "authorId": "41066349",
          "name": "Paidamoyo Chapfuwa"
        },
        {
          "authorId": "46387857",
          "name": "Chenyang Tao"
        },
        {
          "authorId": "2109737569",
          "name": "Chunyuan Li"
        },
        {
          "authorId": "2056021503",
          "name": "C. Page"
        },
        {
          "authorId": "2058980332",
          "name": "B. Goldstein"
        },
        {
          "authorId": "145006560",
          "name": "L. Carin"
        },
        {
          "authorId": "145153424",
          "name": "Ricardo Henao"
        }
      ]
    },
    {
      "paperId": "9d755ef1b9ac1048e28c108111f57a70fce6a0f5",
      "externalIds": {
        "MAG": "3097100221",
        "DBLP": "journals/tnn/ChapfuwaTLKCPCH23",
        "DOI": "10.1109/TNNLS.2020.3029631",
        "CorpusId": 226206386,
        "PubMed": "33119513"
      },
      "url": "https://www.semanticscholar.org/paper/9d755ef1b9ac1048e28c108111f57a70fce6a0f5",
      "title": "Calibration and Uncertainty in Neural Time-to-Event Modeling",
      "venue": "IEEE Transactions on Neural Networks and Learning Systems",
      "year": 2020,
      "referenceCount": 85,
      "citationCount": 19,
      "authors": [
        {
          "authorId": "41066349",
          "name": "Paidamoyo Chapfuwa"
        },
        {
          "authorId": "46387857",
          "name": "Chenyang Tao"
        },
        {
          "authorId": null,
          "name": "Chunyuan Li"
        },
        {
          "authorId": "152910589",
          "name": "Irfan M. Khan"
        },
        {
          "authorId": "4772503",
          "name": "K. Chandross"
        },
        {
          "authorId": "144529968",
          "name": "M. Pencina"
        },
        {
          "authorId": "145006560",
          "name": "L. Carin"
        },
        {
          "authorId": "145153424",
          "name": "Ricardo Henao"
        }
      ]
    },
    {
      "paperId": "81ef2f39f56a403091d0ce93c532cfb85264d677",
      "externalIds": {
        "DOI": "10.1109/CSITSS67709.2025.11295603",
        "CorpusId": 284024358
      },
      "url": "https://www.semanticscholar.org/paper/81ef2f39f56a403091d0ce93c532cfb85264d677",
      "title": "Adaptive Threat Modeling with MITRE ATT&CK: A Machine Learning Framework for Real-Time Adversarial Detection",
      "venue": "2025 9th International Conference on Computational System and Information Technology for Sustainable Solutions (CSITSS)",
      "year": 2025,
      "referenceCount": 24,
      "citationCount": 0,
      "authors": [
        {
          "authorId": "2399652513",
          "name": "Vinod B Maniyat"
        },
        {
          "authorId": "2358170326",
          "name": "Arun Kumar B R"
        }
      ]
    },
    {
      "paperId": "551d718398cd1869a0a634275fe86ee30ed735e0",
      "externalIds": {
        "ArXiv": "2510.02712",
        "DBLP": "journals/corr/abs-2510-02712",
        "DOI": "10.48550/arXiv.2510.02712",
        "CorpusId": 281829400
      },
      "url": "https://www.semanticscholar.org/paper/551d718398cd1869a0a634275fe86ee30ed735e0",
      "title": "Time-To-Inconsistency: A Survival Analysis of Large Language Model Robustness to Adversarial Attacks",
      "venue": "arXiv.org",
      "year": 2025,
      "referenceCount": 37,
      "citationCount": 2,
      "authors": [
        {
          "authorId": "2321670634",
          "name": "Yubo Li"
        },
        {
          "authorId": "2288908421",
          "name": "R. Krishnan"
        },
        {
          "authorId": "2350446478",
          "name": "R. Padman"
        }
      ]
    },
    {
      "paperId": "95288c5099a2904447b7a531a42b26eba7bed84f",
      "externalIds": {
        "DBLP": "journals/remotesensing/ArunK21",
        "DOI": "10.3390/rs13132477",
        "CorpusId": 236521093
      },
      "url": "https://www.semanticscholar.org/paper/95288c5099a2904447b7a531a42b26eba7bed84f",
      "title": "Deep Learning-Based Phenological Event Modeling for Classification of Crops",
      "venue": "Remote Sensing",
      "year": 2021,
      "referenceCount": 97,
      "citationCount": 9,
      "authors": [
        {
          "authorId": "144699610",
          "name": "P. V. Arun"
        },
        {
          "authorId": "3018815",
          "name": "A. Karnieli"
        }
      ]
    },
    {
      "paperId": "86cea5ec10ff1126d3f0592f6218b14ff5eb1a3c",
      "externalIds": {
        "DBLP": "journals/tsg/ZhangZGM25",
        "DOI": "10.1109/TSG.2025.3600655",
        "CorpusId": 280811730
      },
      "url": "https://www.semanticscholar.org/paper/86cea5ec10ff1126d3f0592f6218b14ff5eb1a3c",
      "title": "IGANs With Event-Driven Pseudo Features for Dynamic Response Modeling in Building Air Conditioning Systems",
      "venue": "IEEE Transactions on Smart Grid",
      "year": 2025,
      "referenceCount": 39,
      "citationCount": 0,
      "authors": [
        {
          "authorId": "2317544488",
          "name": "Yanan Zhang"
        },
        {
          "authorId": "2308671776",
          "name": "Gan Zhou"
        },
        {
          "authorId": "2385458784",
          "name": "Quanxi Guo"
        },
        {
          "authorId": "2239870536",
          "name": "Marco Merlo"
        }
      ]
    },
    {
      "paperId": "51129e31bb1273105c299c475e77e0ff15a9e115",
      "externalIds": {
        "DOI": "10.1109/TNSRE.2022.3150007",
        "CorpusId": 246678205,
        "PubMed": "35133966"
      },
      "url": "https://www.semanticscholar.org/paper/51129e31bb1273105c299c475e77e0ff15a9e115",
      "title": "Improving Cross-State and Cross-Subject Visual ERP-Based BCI With Temporal Modeling and Adversarial Training",
      "venue": "IEEE transactions on neural systems and rehabilitation engineering",
      "year": 2022,
      "referenceCount": 0,
      "citationCount": 11,
      "authors": [
        {
          "authorId": "2153838867",
          "name": "Ziyi Ni"
        },
        {
          "authorId": "2267430529",
          "name": "Jiaming Xu"
        },
        {
          "authorId": "2226702026",
          "name": "Yuwei Wu"
        },
        {
          "authorId": "49141182",
          "name": "Mengfan Li"
        },
        {
          "authorId": "2115702915",
          "name": "Guizhi Xu"
        },
        {
          "authorId": "145764891",
          "name": "Bo Xu"
        }
      ]
    },
    {
      "paperId": "ef1775b3b40ff22e16e39e16cf1b2f7c899516b3",
      "externalIds": {
        "DBLP": "journals/corr/abs-1911-04379",
        "MAG": "2989405438",
        "ArXiv": "1911.04379",
        "DOI": "10.1109/tnsre.2020.3006180",
        "CorpusId": 207852324,
        "PubMed": "32746311"
      },
      "url": "https://www.semanticscholar.org/paper/ef1775b3b40ff22e16e39e16cf1b2f7c899516b3",
      "title": "Modeling EEG Data Distribution With a Wasserstein Generative Adversarial Network to Predict RSVP Events",
      "venue": "IEEE transactions on neural systems and rehabilitation engineering",
      "year": 2019,
      "referenceCount": 47,
      "citationCount": 66,
      "authors": [
        {
          "authorId": "30097865",
          "name": "Sharaj Panwar"
        },
        {
          "authorId": "144095563",
          "name": "P. Rad"
        },
        {
          "authorId": "144437435",
          "name": "T. Jung"
        },
        {
          "authorId": "9221211",
          "name": "Yufei Huang"
        }
      ]
    },
    {
      "paperId": "b4b8b148d1a25ef09e7e4d53cd81663f00a62636",
      "externalIds": {
        "DOI": "10.1109/JIOT.2026.3657063",
        "CorpusId": 285038877
      },
      "url": "https://www.semanticscholar.org/paper/b4b8b148d1a25ef09e7e4d53cd81663f00a62636",
      "title": "Event-Triggered Resilient Bipartite Time-Varying Formation Tracking of Multiagent Systems Subject to Hybrid Network Attacks",
      "venue": "IEEE Internet of Things Journal",
      "year": 2026,
      "referenceCount": 38,
      "citationCount": 0,
      "authors": [
        {
          "authorId": "2304294560",
          "name": "Yan Xie"
        },
        {
          "authorId": "2380577790",
          "name": "Lianghao Ji"
        },
        {
          "authorId": "2265067515",
          "name": "Xing Guo"
        },
        {
          "authorId": "2153300165",
          "name": "Guo-Cheng Wu"
        },
        {
          "authorId": "2155416303",
          "name": "Yongfu Li"
        }
      ]
    },
    {
      "paperId": "578114ace29fdcefefe259795a020b3421cceb77",
      "externalIds": {
        "DOI": "10.1109/COMPAS67506.2025.11381778",
        "CorpusId": 285553555
      },
      "url": "https://www.semanticscholar.org/paper/578114ace29fdcefefe259795a020b3421cceb77",
      "title": "FSG: A Conditional Generative Adversarial Network for Censoring-Aware Survival Prediction in Allogeneic Hematopoietic Cell Transplantation",
      "venue": "2025 IEEE 2nd International Conference on Computing, Applications and Systems (COMPAS)",
      "year": 2025,
      "referenceCount": 17,
      "citationCount": 0,
      "authors": [
        {
          "authorId": "2410513628",
          "name": "Swandip Singha"
        },
        {
          "authorId": "2410516161",
          "name": "Kazi Aishikuzzaman"
        },
        {
          "authorId": "2397818487",
          "name": "Md Rashidul Islam"
        },
        {
          "authorId": "2410516159",
          "name": "Mahjabin Siddika Oyshi"
        },
        {
          "authorId": "2405396187",
          "name": "Mahmudul Hasan"
        },
        {
          "authorId": "2410517315",
          "name": "Abir Ehsan Evan"
        }
      ]
    }
  ]
}