{
  "total": 468,
  "offset": 0,
  "next": 10,
  "data": [
    {
      "paperId": "b3e628588c7be45776cbe72c5c2afe2fe386f8a7",
      "externalIds": {
        "MAG": "1837107809",
        "DBLP": "conf/icml/HuHDX15",
        "CorpusId": 17672767
      },
      "url": "https://www.semanticscholar.org/paper/b3e628588c7be45776cbe72c5c2afe2fe386f8a7",
      "title": "Large-scale Distributed Dependent Nonparametric Trees",
      "venue": "International Conference on Machine Learning",
      "year": 2015,
      "referenceCount": 29,
      "citationCount": 11,
      "authors": [
        {
          "authorId": "2749311",
          "name": "Zhiting Hu"
        },
        {
          "authorId": "1707357",
          "name": "Qirong Ho"
        },
        {
          "authorId": "89890133",
          "name": "Kumar Avinava Dubey"
        },
        {
          "authorId": "143977260",
          "name": "E. Xing"
        }
      ]
    },
    {
      "paperId": "f0008c83087db7165cf270f5d196d06b03d5e246",
      "externalIds": {
        "MAG": "2097322982",
        "DOI": "10.1016/J.JPROCONT.2015.07.009",
        "CorpusId": 54736167
      },
      "url": "https://www.semanticscholar.org/paper/f0008c83087db7165cf270f5d196d06b03d5e246",
      "title": "Data-driven model reduction-based nonlinear MPC for large-scale distributed parameter systems",
      "venue": "",
      "year": 2015,
      "referenceCount": 37,
      "citationCount": 47,
      "authors": [
        {
          "authorId": "46520597",
          "name": "W. Xie"
        },
        {
          "authorId": "2153165",
          "name": "Ioannis Bonis"
        },
        {
          "authorId": "4838460",
          "name": "Constantinos Theodoropoulos"
        }
      ]
    },
    {
      "paperId": "02c40125474d489115f1bbcbc87ab287f9db15fc",
      "externalIds": {
        "MAG": "2952751774",
        "ArXiv": "1504.07755",
        "DBLP": "journals/tac/PakazadHAR18",
        "DOI": "10.1109/TAC.2017.2739644",
        "CorpusId": 4559238
      },
      "url": "https://www.semanticscholar.org/paper/02c40125474d489115f1bbcbc87ab287f9db15fc",
      "title": "Distributed Semidefinite Programming With Application to Large-Scale System Analysis",
      "venue": "IEEE Transactions on Automatic Control",
      "year": 2015,
      "referenceCount": 50,
      "citationCount": 31,
      "authors": [
        {
          "authorId": "3030562",
          "name": "S. Pakazad"
        },
        {
          "authorId": "145298509",
          "name": "A. Hansson"
        },
        {
          "authorId": "2353300",
          "name": "Martin S. Andersen"
        },
        {
          "authorId": "1777623",
          "name": "A. Rantzer"
        }
      ]
    },
    {
      "paperId": "bfa67bc7b320cd1e59132add3b14f339a85e6ce8",
      "externalIds": {
        "MAG": "1992423495",
        "DOI": "10.1016/J.ASW.2014.11.001",
        "CorpusId": 62226377
      },
      "url": "https://www.semanticscholar.org/paper/bfa67bc7b320cd1e59132add3b14f339a85e6ce8",
      "title": "A new approach towards marking large-scale complex assessments: Developing a distributed marking system that uses an automatically scaffolding and rubric-targeted interface for guided peer-review",
      "venue": "",
      "year": 2015,
      "referenceCount": 27,
      "citationCount": 23,
      "authors": [
        {
          "authorId": "2610382",
          "name": "Alvin Vista"
        },
        {
          "authorId": "2249953",
          "name": "E. Care"
        },
        {
          "authorId": "47409436",
          "name": "P. Griffin"
        }
      ]
    },
    {
      "paperId": "0274194a70c528b76496d237e51997b941066788",
      "externalIds": {
        "MAG": "2795305513",
        "CorpusId": 125272720
      },
      "url": "https://www.semanticscholar.org/paper/0274194a70c528b76496d237e51997b941066788",
      "title": "Large-Scale Nonparametric and Semiparametric Inference for Large, Complex, and Noisy Datasets",
      "venue": "",
      "year": 2015,
      "referenceCount": 236,
      "citationCount": 0,
      "authors": [
        {
          "authorId": "49162465",
          "name": "Fang Han"
        }
      ]
    },
    {
      "paperId": "5d17673a1657064ad654be79164697b89695dcf2",
      "externalIds": {
        "DBLP": "journals/jip/UraTC15",
        "MAG": "2008517673",
        "DOI": "10.2197/ipsjjip.23.9",
        "CorpusId": 20516160
      },
      "url": "https://www.semanticscholar.org/paper/5d17673a1657064ad654be79164697b89695dcf2",
      "title": "Dynamic Prediction of Minimal Trees in Large-Scale Parallel Game Tree Search",
      "venue": "Journal of Information Processing",
      "year": 2015,
      "referenceCount": 20,
      "citationCount": 5,
      "authors": [
        {
          "authorId": "2079692582",
          "name": "Akira Ura"
        },
        {
          "authorId": "143946906",
          "name": "Yoshimasa Tsuruoka"
        },
        {
          "authorId": "1700631",
          "name": "T. Chikayama"
        }
      ]
    },
    {
      "paperId": "2e522c27f333d0b64b35710dee67dded571dc12c",
      "externalIds": {
        "MAG": "1970765881",
        "DBLP": "conf/aina/MoriyamaZ15",
        "DOI": "10.1109/AINA.2015.170",
        "CorpusId": 16803028
      },
      "url": "https://www.semanticscholar.org/paper/2e522c27f333d0b64b35710dee67dded571dc12c",
      "title": "An Efficient Distributed TDMA MAC Protocol for Large-Scale and High-Data-Rate Wireless Sensor Networks",
      "venue": "2015 IEEE 29th International Conference on Advanced Information Networking and Applications",
      "year": 2015,
      "referenceCount": 8,
      "citationCount": 7,
      "authors": [
        {
          "authorId": "40316754",
          "name": "Kouhei Moriyama"
        },
        {
          "authorId": "2108134517",
          "name": "Yongbing Zhang"
        }
      ]
    },
    {
      "paperId": "3782b2c89025ee44659808e57ad459dafbb8632f",
      "externalIds": {
        "MAG": "1511278436",
        "DBLP": "journals/corr/Pandurangan0S15",
        "CorpusId": 195346004
      },
      "url": "https://www.semanticscholar.org/paper/3782b2c89025ee44659808e57ad459dafbb8632f",
      "title": "Almost Optimal Distributed Algorithms for Large-Scale Graph Problems",
      "venue": "arXiv.org",
      "year": 2015,
      "referenceCount": 56,
      "citationCount": 5,
      "authors": [
        {
          "authorId": "1743842",
          "name": "Gopal Pandurangan"
        },
        {
          "authorId": "144681493",
          "name": "Peter Robinson"
        },
        {
          "authorId": "2265828",
          "name": "Michele Scquizzato"
        }
      ]
    },
    {
      "paperId": "f1c55256716a92fa996a4d9c0038f56a7f85637d",
      "externalIds": {
        "MAG": "1948519838",
        "DBLP": "conf/bdva/SchmauderB0W15",
        "DOI": "10.1109/BDVA.2015.7314291",
        "CorpusId": 14302093
      },
      "url": "https://www.semanticscholar.org/paper/f1c55256716a92fa996a4d9c0038f56a7f85637d",
      "title": "Distributed Visual Analytics on Large-Scale High-Resolution Displays",
      "venue": "International Symposium on Big Data Visual Analytics",
      "year": 2015,
      "referenceCount": 27,
      "citationCount": 3,
      "authors": [
        {
          "authorId": "47603104",
          "name": "H. Schmauder"
        },
        {
          "authorId": "144484816",
          "name": "Michael Burch"
        },
        {
          "authorId": "40364126",
          "name": "C. Müller"
        },
        {
          "authorId": "69863469",
          "name": "D. Weiskopf"
        }
      ]
    },
    {
      "paperId": "ab27ab35863d4ae0bf0f920b663d5eb4d46fd7df",
      "externalIds": {
        "CorpusId": 5473242
      },
      "url": "https://www.semanticscholar.org/paper/ab27ab35863d4ae0bf0f920b663d5eb4d46fd7df",
      "title": "AN INCREMENTAL AND DISTRIBUTED INFERENCE METHOD FOR LARGE-SCALE ONTOLOGIES USING ONE-CLASS CLUSTERING TREE",
      "venue": "",
      "year": 2015,
      "referenceCount": 15,
      "citationCount": 0,
      "authors": [
        {
          "authorId": "2287138983",
          "name": "Cheng Yu"
        },
        {
          "authorId": "2286923215",
          "name": "D. Kumar"
        },
        {
          "authorId": "2286786849",
          "name": "A.Vijayalakshmi"
        },
        {
          "authorId": "2286773900",
          "name": "Dr.S.Babu"
        }
      ]
    }
  ]
}