{
  "total": 579,
  "offset": 0,
  "next": 10,
  "data": [
    {
      "paperId": "2f8eb618406e5ae3fe73b9b4ffe2b346107febaa",
      "externalIds": {
        "MAG": "2953299420",
        "ArXiv": "1511.06251",
        "DBLP": "conf/icml/LiTE17",
        "CorpusId": 29603823
      },
      "url": "https://www.semanticscholar.org/paper/2f8eb618406e5ae3fe73b9b4ffe2b346107febaa",
      "title": "Stochastic Modified Equations and Adaptive Stochastic Gradient Algorithms",
      "venue": "International Conference on Machine Learning",
      "year": 2015,
      "referenceCount": 59,
      "citationCount": 324,
      "authors": [
        {
          "authorId": "1861517",
          "name": "Qianxiao Li"
        },
        {
          "authorId": "13035477",
          "name": "Cheng Tai"
        },
        {
          "authorId": "1789499",
          "name": "E. Weinan"
        }
      ]
    },
    {
      "paperId": "c0d770fa10b6510828afdde2040e5c63fb61c457",
      "externalIds": {
        "ArXiv": "1811.01558",
        "MAG": "2962798807",
        "DBLP": "journals/jmlr/LiTE19",
        "CorpusId": 53216242
      },
      "url": "https://www.semanticscholar.org/paper/c0d770fa10b6510828afdde2040e5c63fb61c457",
      "title": "Stochastic Modified Equations and Dynamics of Stochastic Gradient Algorithms I: Mathematical Foundations",
      "venue": "Journal of machine learning research",
      "year": 2018,
      "referenceCount": 38,
      "citationCount": 188,
      "authors": [
        {
          "authorId": "1861517",
          "name": "Qianxiao Li"
        },
        {
          "authorId": "13035477",
          "name": "Cheng Tai"
        },
        {
          "authorId": "1789499",
          "name": "E. Weinan"
        }
      ]
    },
    {
      "paperId": "a85fb9505074cc98a894ca2b652924a94e9f238a",
      "externalIds": {
        "CorpusId": 27747768
      },
      "url": "https://www.semanticscholar.org/paper/a85fb9505074cc98a894ca2b652924a94e9f238a",
      "title": "Stochastic modified equations and the dynamics of stochastic gradient algorithms",
      "venue": "",
      "year": 2017,
      "referenceCount": 25,
      "citationCount": 1,
      "authors": []
    },
    {
      "paperId": "1d4b6b093d74abb9b916bac9418db76081bd7130",
      "externalIds": {
        "ArXiv": "2511.20322",
        "DBLP": "journals/corr/abs-2511-20322",
        "DOI": "10.48550/arXiv.2511.20322",
        "CorpusId": 283251293
      },
      "url": "https://www.semanticscholar.org/paper/1d4b6b093d74abb9b916bac9418db76081bd7130",
      "title": "Modified Equations for Stochastic Optimization",
      "venue": "arXiv.org",
      "year": 2025,
      "referenceCount": 0,
      "citationCount": 0,
      "authors": [
        {
          "authorId": "2394170065",
          "name": "Stefan Perko"
        }
      ]
    },
    {
      "paperId": "4baabe81670772edb9952d6c15381a814af8d2a8",
      "externalIds": {
        "DBLP": "journals/corr/abs-2407-08100",
        "ArXiv": "2407.08100",
        "DOI": "10.48550/arXiv.2407.08100",
        "CorpusId": 271097389
      },
      "url": "https://www.semanticscholar.org/paper/4baabe81670772edb9952d6c15381a814af8d2a8",
      "title": "Non-convergence of Adam and other adaptive stochastic gradient descent optimization methods for non-vanishing learning rates",
      "venue": "arXiv.org",
      "year": 2024,
      "referenceCount": 0,
      "citationCount": 9,
      "authors": [
        {
          "authorId": "2307468824",
          "name": "Steffen Dereich"
        },
        {
          "authorId": "2148654888",
          "name": "R. Graeber"
        },
        {
          "authorId": "3151729",
          "name": "Arnulf Jentzen"
        }
      ]
    },
    {
      "paperId": "b7ff057dabd610ee14783af3b813bf78f517878c",
      "externalIds": {
        "ArXiv": "2509.21614",
        "DBLP": "journals/corr/abs-2509-21614",
        "DOI": "10.48550/arXiv.2509.21614",
        "CorpusId": 281658373
      },
      "url": "https://www.semanticscholar.org/paper/b7ff057dabd610ee14783af3b813bf78f517878c",
      "title": "Effective continuous equations for adaptive SGD: a stochastic analysis view",
      "venue": "arXiv.org",
      "year": 2025,
      "referenceCount": 39,
      "citationCount": 1,
      "authors": [
        {
          "authorId": "2382761534",
          "name": "Luca Callisti"
        },
        {
          "authorId": "2258959239",
          "name": "Marco Romito"
        },
        {
          "authorId": "2258960212",
          "name": "Francesco Triggiano"
        }
      ]
    },
    {
      "paperId": "b5e5d647b005bf65bb127f8005d473baa37c1626",
      "externalIds": {
        "DOI": "10.1002/num.22869",
        "CorpusId": 246563818
      },
      "url": "https://www.semanticscholar.org/paper/b5e5d647b005bf65bb127f8005d473baa37c1626",
      "title": "Adaptive stochastic gradient descent for optimal control of parabolic equations with random parameters",
      "venue": "Numerical Methods for Partial Differential Equations",
      "year": 2022,
      "referenceCount": 28,
      "citationCount": 6,
      "authors": [
        {
          "authorId": "39315361",
          "name": "Yanzhao Cao"
        },
        {
          "authorId": "2109605720",
          "name": "Somak Das"
        },
        {
          "authorId": "3147733",
          "name": "H. Wyk"
        }
      ]
    },
    {
      "paperId": "edf62ffd3d75ce79053a6b26b57125d570be4cb7",
      "externalIds": {
        "DBLP": "journals/corr/abs-2003-03532",
        "MAG": "3009641018",
        "ArXiv": "2003.03532",
        "CorpusId": 212633999
      },
      "url": "https://www.semanticscholar.org/paper/edf62ffd3d75ce79053a6b26b57125d570be4cb7",
      "title": "Stochastic Modified Equations for Continuous Limit of Stochastic ADMM",
      "venue": "arXiv.org",
      "year": 2020,
      "referenceCount": 21,
      "citationCount": 6,
      "authors": [
        {
          "authorId": "50177340",
          "name": "Xiang Zhou"
        },
        {
          "authorId": "46192070",
          "name": "Huizhuo Yuan"
        },
        {
          "authorId": "2109460766",
          "name": "C. Li"
        },
        {
          "authorId": "3422968",
          "name": "Qingyun Sun"
        }
      ]
    },
    {
      "paperId": "93d33ab53e3d093ebde1fcb2247bef95aa1f75c2",
      "externalIds": {
        "DBLP": "journals/tbd/Yang23",
        "DOI": "10.1109/TBDATA.2023.3300546",
        "CorpusId": 260416694
      },
      "url": "https://www.semanticscholar.org/paper/93d33ab53e3d093ebde1fcb2247bef95aa1f75c2",
      "title": "Adaptive Powerball Stochastic Conjugate Gradient for Large-Scale Learning",
      "venue": "IEEE Transactions on Big Data",
      "year": 2023,
      "referenceCount": 49,
      "citationCount": 8,
      "authors": [
        {
          "authorId": "50109329",
          "name": "Zhuang Yang"
        }
      ]
    },
    {
      "paperId": "28abb5434bacc63aa73ffd2142ebacf64234f6f8",
      "externalIds": {
        "ArXiv": "2002.09304",
        "DBLP": "conf/icpr/AyadiT20",
        "MAG": "3007925099",
        "DOI": "10.1109/ICPR48806.2021.9412831",
        "CorpusId": 211252769
      },
      "url": "https://www.semanticscholar.org/paper/28abb5434bacc63aa73ffd2142ebacf64234f6f8",
      "title": "Stochastic Runge-Kutta methods and adaptive SGD-G2 stochastic gradient descent",
      "venue": "International Conference on Pattern Recognition",
      "year": 2020,
      "referenceCount": 23,
      "citationCount": 9,
      "authors": [
        {
          "authorId": "2068972715",
          "name": "I. Ayadi"
        },
        {
          "authorId": "2963118",
          "name": "Gabriel Turinici"
        }
      ]
    }
  ]
}