{
  "total": 1222,
  "offset": 0,
  "next": 10,
  "data": [
    {
      "paperId": "79a4c59aed8da2803bedf318e308eaed1df8c309",
      "externalIds": {
        "DBLP": "conf/icml/QuXO16",
        "MAG": "2466384801",
        "CorpusId": 1988815
      },
      "url": "https://www.semanticscholar.org/paper/79a4c59aed8da2803bedf318e308eaed1df8c309",
      "title": "Fast Rate Analysis of Some Stochastic Optimization Algorithms",
      "venue": "International Conference on Machine Learning",
      "year": 2016,
      "referenceCount": 27,
      "citationCount": 5,
      "authors": [
        {
          "authorId": "2064702529",
          "name": "C. Qu"
        },
        {
          "authorId": "143719795",
          "name": "Huan Xu"
        },
        {
          "authorId": "2309615",
          "name": "C. Ong"
        }
      ]
    },
    {
      "paperId": "344b6f729c656844d27c4b9a70b86374b623d8d7",
      "externalIds": {
        "DOI": "10.1109/CSNT57126.2023.10134605",
        "CorpusId": 258992485
      },
      "url": "https://www.semanticscholar.org/paper/344b6f729c656844d27c4b9a70b86374b623d8d7",
      "title": "Performance Analysis of Large Scale Machine Learning Optimization Algorithms",
      "venue": "International Conference on Communication Systems and Network Technologies",
      "year": 2023,
      "referenceCount": 14,
      "citationCount": 3,
      "authors": [
        {
          "authorId": "2285430257",
          "name": "Kamal Singh"
        },
        {
          "authorId": "2312097627",
          "name": "Nitin Singh"
        }
      ]
    },
    {
      "paperId": "436e2f918eb95c4d4293670f12d509a27ca46e25",
      "externalIds": {
        "MAG": "2910569238",
        "DBLP": "journals/gandc/LiTXTWZG19",
        "DOI": "10.1016/J.CAGEO.2019.01.002",
        "CorpusId": 68218860
      },
      "url": "https://www.semanticscholar.org/paper/436e2f918eb95c4d4293670f12d509a27ca46e25",
      "title": "Waveform-based microseismic location using stochastic optimization algorithms: A parameter tuning workflow",
      "venue": "Computational Geosciences",
      "year": 2019,
      "referenceCount": 55,
      "citationCount": 22,
      "authors": [
        {
          "authorId": "46255707",
          "name": "Lei Li"
        },
        {
          "authorId": "78147880",
          "name": "Jingqiang Tan"
        },
        {
          "authorId": "10660346",
          "name": "Yujiang Xie"
        },
        {
          "authorId": "26371050",
          "name": "Yuyang Tan"
        },
        {
          "authorId": "73828736",
          "name": "J. Walda"
        },
        {
          "authorId": "3235347",
          "name": "Zhengguang Zhao"
        },
        {
          "authorId": "47429799",
          "name": "D. Gajewski"
        }
      ]
    },
    {
      "paperId": "c00127be71bf840c475486baf1236f8dea17a273",
      "externalIds": {
        "DBLP": "journals/corr/abs-1811-04194",
        "MAG": "2900348917",
        "ArXiv": "1811.04194",
        "CorpusId": 53282168
      },
      "url": "https://www.semanticscholar.org/paper/c00127be71bf840c475486baf1236f8dea17a273",
      "title": "R-SPIDER: A Fast Riemannian Stochastic Optimization Algorithm with Curvature Independent Rate",
      "venue": "arXiv.org",
      "year": 2018,
      "referenceCount": 46,
      "citationCount": 42,
      "authors": [
        {
          "authorId": "50561307",
          "name": "J. Zhang"
        },
        {
          "authorId": "2108880169",
          "name": "Hongyi Zhang"
        },
        {
          "authorId": "3072326",
          "name": "S. Sra"
        }
      ]
    },
    {
      "paperId": "7fe1860dbab35aa4f01860ceed1e5c3ca8a09469",
      "externalIds": {
        "ArXiv": "2002.05309",
        "DBLP": "journals/corr/abs-2002-05309",
        "MAG": "3006143972",
        "CorpusId": 211096733
      },
      "url": "https://www.semanticscholar.org/paper/7fe1860dbab35aa4f01860ceed1e5c3ca8a09469",
      "title": "Sharp Analysis of Epoch Stochastic Gradient Descent Ascent Methods for Min-Max Optimization",
      "venue": "arXiv.org",
      "year": 2020,
      "referenceCount": 45,
      "citationCount": 18,
      "authors": [
        {
          "authorId": "144761066",
          "name": "Yan Yan"
        },
        {
          "authorId": "2110289529",
          "name": "Yi Xu"
        },
        {
          "authorId": "39436683",
          "name": "Qihang Lin"
        },
        {
          "authorId": "2157221510",
          "name": "Wei Liu"
        },
        {
          "authorId": "40381920",
          "name": "Tianbao Yang"
        }
      ]
    },
    {
      "paperId": "301bc0a33a7a2fcaf5401e14e741178bc561d836",
      "externalIds": {
        "MAG": "2407904812",
        "DBLP": "journals/corr/ReddiSPS16a",
        "ArXiv": "1605.06900",
        "CorpusId": 2976644
      },
      "url": "https://www.semanticscholar.org/paper/301bc0a33a7a2fcaf5401e14e741178bc561d836",
      "title": "Fast Stochastic Methods for Nonsmooth Nonconvex Optimization",
      "venue": "arXiv.org",
      "year": 2016,
      "referenceCount": 37,
      "citationCount": 54,
      "authors": [
        {
          "authorId": "1981186",
          "name": "Sashank J. Reddi"
        },
        {
          "authorId": "3072326",
          "name": "S. Sra"
        },
        {
          "authorId": "1719347",
          "name": "B. Póczos"
        },
        {
          "authorId": "46234526",
          "name": "Alex Smola"
        }
      ]
    },
    {
      "paperId": "d6fc9983ba1c4483b7252349445c90602ba19cb2",
      "externalIds": {
        "MAG": "3035810502",
        "DBLP": "conf/nips/0006XL0Y20",
        "CorpusId": 226148475
      },
      "url": "https://www.semanticscholar.org/paper/d6fc9983ba1c4483b7252349445c90602ba19cb2",
      "title": "Optimal Epoch Stochastic Gradient Descent Ascent Methods for Min-Max Optimization",
      "venue": "Neural Information Processing Systems",
      "year": 2020,
      "referenceCount": 49,
      "citationCount": 69,
      "authors": [
        {
          "authorId": "1987128531",
          "name": "Yan Yan"
        },
        {
          "authorId": "2110289529",
          "name": "Yi Xu"
        },
        {
          "authorId": "39436683",
          "name": "Qihang Lin"
        },
        {
          "authorId": "46641573",
          "name": "W. Liu"
        },
        {
          "authorId": "40381920",
          "name": "Tianbao Yang"
        }
      ]
    },
    {
      "paperId": "55237913974c2967f2966beb692b5aa15718658e",
      "externalIds": {
        "DBLP": "journals/jns/Wojtowytsch23",
        "ArXiv": "2105.01650",
        "DOI": "10.1007/s00332-023-09903-3",
        "CorpusId": 233714813
      },
      "url": "https://www.semanticscholar.org/paper/55237913974c2967f2966beb692b5aa15718658e",
      "title": "Stochastic Gradient Descent with Noise of Machine Learning Type Part I: Discrete Time Analysis",
      "venue": "Journal of nonlinear science",
      "year": 2021,
      "referenceCount": 44,
      "citationCount": 59,
      "authors": [
        {
          "authorId": "102980121",
          "name": "Stephan Wojtowytsch"
        }
      ]
    },
    {
      "paperId": "8fc759bc88c38e951e65223ee771479fcdcf0618",
      "externalIds": {
        "MAG": "2556623528",
        "DBLP": "conf/nips/ReddiSPS16",
        "CorpusId": 1505522
      },
      "url": "https://www.semanticscholar.org/paper/8fc759bc88c38e951e65223ee771479fcdcf0618",
      "title": "Proximal Stochastic Methods for Nonsmooth Nonconvex Finite-Sum Optimization",
      "venue": "Neural Information Processing Systems",
      "year": 2016,
      "referenceCount": 32,
      "citationCount": 204,
      "authors": [
        {
          "authorId": "1981186",
          "name": "Sashank J. Reddi"
        },
        {
          "authorId": "3072326",
          "name": "S. Sra"
        },
        {
          "authorId": "1719347",
          "name": "B. Póczos"
        },
        {
          "authorId": "46234526",
          "name": "Alex Smola"
        }
      ]
    },
    {
      "paperId": "1f54d0ec57dc6008307a08a1df2b2853b0e546dd",
      "externalIds": {
        "DBLP": "journals/corr/abs-2504-19375",
        "ArXiv": "2504.19375",
        "DOI": "10.48550/arXiv.2504.19375",
        "CorpusId": 278165756
      },
      "url": "https://www.semanticscholar.org/paper/1f54d0ec57dc6008307a08a1df2b2853b0e546dd",
      "title": "O(1/k) Finite-Time Bound for Non-Linear Two-Time-Scale Stochastic Approximation",
      "venue": "arXiv.org",
      "year": 2025,
      "referenceCount": 33,
      "citationCount": 8,
      "authors": [
        {
          "authorId": "2047038763",
          "name": "Siddharth Chandak"
        }
      ]
    }
  ]
}