{
  "total": 45,
  "offset": 0,
  "next": 10,
  "data": [
    {
      "paperId": "e2820bffe5b42cb7d88b7f65c12171c62ab4aae2",
      "externalIds": {
        "MAG": "1868018859",
        "DBLP": "journals/corr/MaclaurinDA15",
        "ArXiv": "1502.03492",
        "CorpusId": 8540522
      },
      "url": "https://www.semanticscholar.org/paper/e2820bffe5b42cb7d88b7f65c12171c62ab4aae2",
      "title": "Gradient-based Hyperparameter Optimization through Reversible Learning",
      "venue": "International Conference on Machine Learning",
      "year": 2015,
      "referenceCount": 42,
      "citationCount": 1023,
      "authors": [
        {
          "authorId": "1683298",
          "name": "D. Maclaurin"
        },
        {
          "authorId": "1704657",
          "name": "D. Duvenaud"
        },
        {
          "authorId": "1722180",
          "name": "Ryan P. Adams"
        }
      ]
    },
    {
      "paperId": "ca74e160b47c669f889152935f27a72b4c205944",
      "externalIds": {
        "MAG": "2182070128",
        "DBLP": "conf/dsaa/WistubaSS15",
        "DOI": "10.1109/DSAA.2015.7344817",
        "CorpusId": 14863760
      },
      "url": "https://www.semanticscholar.org/paper/ca74e160b47c669f889152935f27a72b4c205944",
      "title": "Learning hyperparameter optimization initializations",
      "venue": "International Conference on Data Science and Advanced Analytics",
      "year": 2015,
      "referenceCount": 26,
      "citationCount": 106,
      "authors": [
        {
          "authorId": "2794970",
          "name": "Martin Wistuba"
        },
        {
          "authorId": "2385585",
          "name": "N. Schilling"
        },
        {
          "authorId": "1388781075",
          "name": "L. Schmidt-Thieme"
        }
      ]
    },
    {
      "paperId": "e7127ac404c981dff58d18c2527872eb0ed5ca7c",
      "externalIds": {
        "DBLP": "conf/cdc/XuZSX15",
        "MAG": "2291434103",
        "DOI": "10.1109/CDC.2015.7402509",
        "CorpusId": 31021329
      },
      "url": "https://www.semanticscholar.org/paper/e7127ac404c981dff58d18c2527872eb0ed5ca7c",
      "title": "Augmented distributed gradient methods for multi-agent optimization under uncoordinated constant stepsizes",
      "venue": "IEEE Conference on Decision and Control",
      "year": 2015,
      "referenceCount": 29,
      "citationCount": 366,
      "authors": [
        {
          "authorId": "46372343",
          "name": "Jinming Xu"
        },
        {
          "authorId": "2113136",
          "name": "Shanying Zhu"
        },
        {
          "authorId": "145850486",
          "name": "Y. Soh"
        },
        {
          "authorId": "145050702",
          "name": "Lihua Xie"
        }
      ]
    },
    {
      "paperId": "638a1255ed3fb34e67b9820f42d5c8710916ae07",
      "externalIds": {
        "MAG": "1516841795",
        "DOI": "10.1155/2015/670535",
        "CorpusId": 54008219
      },
      "url": "https://www.semanticscholar.org/paper/638a1255ed3fb34e67b9820f42d5c8710916ae07",
      "title": "Reversible Watermarking Using Prediction-Error Expansion and Extreme Learning Machine",
      "venue": "",
      "year": 2015,
      "referenceCount": 39,
      "citationCount": 2,
      "authors": [
        {
          "authorId": "33721540",
          "name": "Guangyong Gao"
        },
        {
          "authorId": "38982861",
          "name": "Cai-xue Zhou"
        },
        {
          "authorId": "2854740",
          "name": "Zongmin Cui"
        }
      ]
    },
    {
      "paperId": "28e323447be3e878b2ae3a1b380f921f8b07028a",
      "externalIds": {
        "MAG": "2569527682",
        "DBLP": "journals/ijrr/RamosO16",
        "DOI": "10.1177/0278364916684382",
        "CorpusId": 16873102
      },
      "url": "https://www.semanticscholar.org/paper/28e323447be3e878b2ae3a1b380f921f8b07028a",
      "title": "Hilbert maps: Scalable continuous occupancy mapping with stochastic gradient descent",
      "venue": "Robotics: Science and Systems",
      "year": 2015,
      "referenceCount": 36,
      "citationCount": 197,
      "authors": [
        {
          "authorId": "145726167",
          "name": "F. Ramos"
        },
        {
          "authorId": "2065760",
          "name": "Lionel Ott"
        }
      ]
    },
    {
      "paperId": "f7b02884d4f3a19cc5607224531c2cf4350b302d",
      "externalIds": {
        "ArXiv": "1506.06840",
        "DBLP": "conf/nips/ReddiHSPS15",
        "MAG": "2952528064",
        "CorpusId": 5530085
      },
      "url": "https://www.semanticscholar.org/paper/f7b02884d4f3a19cc5607224531c2cf4350b302d",
      "title": "On Variance Reduction in Stochastic Gradient Descent and its Asynchronous Variants",
      "venue": "Neural Information Processing Systems",
      "year": 2015,
      "referenceCount": 30,
      "citationCount": 199,
      "authors": [
        {
          "authorId": "1981186",
          "name": "Sashank J. Reddi"
        },
        {
          "authorId": "145253835",
          "name": "Ahmed S. Hefny"
        },
        {
          "authorId": "3072326",
          "name": "S. Sra"
        },
        {
          "authorId": "1719347",
          "name": "B. Póczos"
        },
        {
          "authorId": "46234526",
          "name": "Alex Smola"
        }
      ]
    },
    {
      "paperId": "c96235797e10f6965c4cd3ff45693e128f98ae4c",
      "externalIds": {
        "MAG": "2269908581",
        "DBLP": "journals/ijon/LiewHB16",
        "DOI": "10.1016/j.neucom.2015.12.076",
        "CorpusId": 34357121
      },
      "url": "https://www.semanticscholar.org/paper/c96235797e10f6965c4cd3ff45693e128f98ae4c",
      "title": "An optimized second order stochastic learning algorithm for neural network training",
      "venue": "Neurocomputing",
      "year": 2015,
      "referenceCount": 55,
      "citationCount": 45,
      "authors": [
        {
          "authorId": "3093501",
          "name": "Shan Sung Liew"
        },
        {
          "authorId": "2172325",
          "name": "M. Hani"
        },
        {
          "authorId": "1985268",
          "name": "R. Bakhteri"
        }
      ]
    },
    {
      "paperId": "f5faf052549ea585a4ac6132bb3f067e505c9954",
      "externalIds": {
        "DBLP": "conf/bigdataconf/HadguND15",
        "MAG": "2221538265",
        "DOI": "10.1109/BigData.2015.7364091",
        "CorpusId": 9091336
      },
      "url": "https://www.semanticscholar.org/paper/f5faf052549ea585a4ac6132bb3f067e505c9954",
      "title": "Large-scale learning with AdaGrad on Spark",
      "venue": "2015 IEEE International Conference on Big Data (Big Data)",
      "year": 2015,
      "referenceCount": 8,
      "citationCount": 57,
      "authors": [
        {
          "authorId": "1728556",
          "name": "Asmelash Teka Hadgu"
        },
        {
          "authorId": "1725537",
          "name": "Aastha Nigam"
        },
        {
          "authorId": "1399601671",
          "name": "Ernesto Diaz-Aviles"
        }
      ]
    },
    {
      "paperId": "f6ff8389dafe1c32a2f954b65ad24cf0ac44b2af",
      "externalIds": {
        "MAG": "1778717313",
        "DOI": "10.2991/ICECEE-15.2015.100",
        "CorpusId": 73677600
      },
      "url": "https://www.semanticscholar.org/paper/f6ff8389dafe1c32a2f954b65ad24cf0ac44b2af",
      "title": "Wavelet Neural Network Structure Optimization Method Based on Grey Relational-Sensitivity",
      "venue": "",
      "year": 2015,
      "referenceCount": 4,
      "citationCount": 0,
      "authors": [
        {
          "authorId": "2111780739",
          "name": "Shiying Pan"
        },
        {
          "authorId": "48630594",
          "name": "Xiuqing Wang"
        }
      ]
    },
    {
      "paperId": "aa825cbf9b034f8706f56a6935ec181fb2c7e4da",
      "externalIds": {
        "MAG": "1911647372",
        "DBLP": "journals/corr/BeckCHS15",
        "ArXiv": "1508.02131",
        "ACL": "Q15-1033",
        "DOI": "10.1162/tacl_a_00151",
        "CorpusId": 1031444
      },
      "url": "https://www.semanticscholar.org/paper/aa825cbf9b034f8706f56a6935ec181fb2c7e4da",
      "title": "Learning Structural Kernels for Natural Language Processing",
      "venue": "Transactions of the Association for Computational Linguistics",
      "year": 2015,
      "referenceCount": 57,
      "citationCount": 20,
      "authors": [
        {
          "authorId": "143984297",
          "name": "Daniel Beck"
        },
        {
          "authorId": "143620680",
          "name": "Trevor Cohn"
        },
        {
          "authorId": "2579449",
          "name": "Christian Hardmeier"
        },
        {
          "authorId": "1702974",
          "name": "Lucia Specia"
        }
      ]
    }
  ]
}