{
  "total": 43,
  "offset": 0,
  "next": 10,
  "data": [
    {
      "paperId": "883eef83e407434dfbda09a2276120b28628429a",
      "externalIds": {
        "DBLP": "conf/icml/ZhangLL16",
        "ArXiv": "1606.06582",
        "MAG": "2951633102",
        "CorpusId": 213980
      },
      "url": "https://www.semanticscholar.org/paper/883eef83e407434dfbda09a2276120b28628429a",
      "title": "Augmenting Supervised Neural Networks with Unsupervised Objectives for Large-scale Image Classification",
      "venue": "International Conference on Machine Learning",
      "year": 2016,
      "referenceCount": 50,
      "citationCount": 146,
      "authors": [
        {
          "authorId": "145489055",
          "name": "Y. Zhang"
        },
        {
          "authorId": "2208511",
          "name": "Kibok Lee"
        },
        {
          "authorId": "1697141",
          "name": "Honglak Lee"
        }
      ]
    },
    {
      "paperId": "7ebbdaaa3b5c1be5e0fb17247e792272463f1fcf",
      "externalIds": {
        "DBLP": "journals/corr/YangLC15a",
        "MAG": "763419999",
        "CorpusId": 10187311
      },
      "url": "https://www.semanticscholar.org/paper/7ebbdaaa3b5c1be5e0fb17247e792272463f1fcf",
      "title": "Supervised Learning of Semantics-Preserving Hashing via Deep Neural Networks for Large-Scale Image Search",
      "venue": "arXiv.org",
      "year": 2015,
      "referenceCount": 65,
      "citationCount": 31,
      "authors": [
        {
          "authorId": "35436145",
          "name": "Huei-Fang Yang"
        },
        {
          "authorId": "143786724",
          "name": "Kevin Lin"
        },
        {
          "authorId": "1720473",
          "name": "Chu-Song Chen"
        }
      ]
    },
    {
      "paperId": "2cc2da1ed0acc2d1a23fb147571f35b3c32b03c8",
      "externalIds": {
        "ArXiv": "2304.11042",
        "DBLP": "journals/corr/abs-2304-11042",
        "DOI": "10.1126/science.adi8474",
        "CorpusId": 258291953,
        "PubMed": "37995209"
      },
      "url": "https://www.semanticscholar.org/paper/2cc2da1ed0acc2d1a23fb147571f35b3c32b03c8",
      "title": "Backpropagation-free training of deep physical neural networks",
      "venue": "Science",
      "year": 2023,
      "referenceCount": 85,
      "citationCount": 130,
      "authors": [
        {
          "authorId": "116138083",
          "name": "A. Momeni"
        },
        {
          "authorId": "51247271",
          "name": "Babak Rahmani"
        },
        {
          "authorId": "1484247538",
          "name": "M. Malléjac"
        },
        {
          "authorId": "8502300",
          "name": "P. del Hougne"
        },
        {
          "authorId": "2215167828",
          "name": "Romain Fleury"
        }
      ]
    },
    {
      "paperId": "ea12899a82d01b346ff7c6da6be67235c8faa303",
      "externalIds": {
        "MAG": "3114767222",
        "DBLP": "journals/tgrs/ZhangZZD22",
        "DOI": "10.1109/TGRS.2020.3043191",
        "CorpusId": 234716808
      },
      "url": "https://www.semanticscholar.org/paper/ea12899a82d01b346ff7c6da6be67235c8faa303",
      "title": "Unsupervised Deep Representation Learning and Few-Shot Classification of PolSAR Images",
      "venue": "IEEE Transactions on Geoscience and Remote Sensing",
      "year": 2020,
      "referenceCount": 81,
      "citationCount": 47,
      "authors": [
        {
          "authorId": "47058824",
          "name": "Lamei Zhang"
        },
        {
          "authorId": "10763777",
          "name": "Siyu Zhang"
        },
        {
          "authorId": "143625022",
          "name": "B. Zou"
        },
        {
          "authorId": "39256302",
          "name": "Hongwei Dong"
        }
      ]
    },
    {
      "paperId": "43aa507e45b5b5c9077827adc7848eb53cbc840a",
      "externalIds": {
        "ArXiv": "2006.15351",
        "DBLP": "journals/corr/abs-2006-15351",
        "MAG": "3037053398",
        "CorpusId": 220250517
      },
      "url": "https://www.semanticscholar.org/paper/43aa507e45b5b5c9077827adc7848eb53cbc840a",
      "title": "PCLNet: A Practical Way for Unsupervised Deep PolSAR Representations and Few-Shot Classification",
      "venue": "arXiv.org",
      "year": 2020,
      "referenceCount": 72,
      "citationCount": 0,
      "authors": [
        {
          "authorId": "47058824",
          "name": "Lamei Zhang"
        },
        {
          "authorId": "10763777",
          "name": "Siyu Zhang"
        },
        {
          "authorId": "143625022",
          "name": "B. Zou"
        },
        {
          "authorId": "39256302",
          "name": "Hongwei Dong"
        }
      ]
    },
    {
      "paperId": "65a9f261ee525162549fdbd79327a8ac4b998232",
      "externalIds": {
        "CorpusId": 211838673
      },
      "url": "https://www.semanticscholar.org/paper/65a9f261ee525162549fdbd79327a8ac4b998232",
      "title": "Unsupervised learning of discriminative representation for image recognition",
      "venue": "",
      "year": 2019,
      "referenceCount": 13,
      "citationCount": 0,
      "authors": []
    },
    {
      "paperId": "d61fef0ca41c803355c61d520cfce7936f33b10c",
      "externalIds": {
        "DBLP": "conf/atsip/BakkouriA17",
        "MAG": "2766123424",
        "DOI": "10.1109/ATSIP.2017.8075562",
        "CorpusId": 206518143
      },
      "url": "https://www.semanticscholar.org/paper/d61fef0ca41c803355c61d520cfce7936f33b10c",
      "title": "Breast tumor classification based on deep convolutional neural networks",
      "venue": "International Conference on Advanced Technologies for Signal and Image Processing",
      "year": 2017,
      "referenceCount": 17,
      "citationCount": 26,
      "authors": [
        {
          "authorId": "26946124",
          "name": "I. Bakkouri"
        },
        {
          "authorId": "2505117",
          "name": "K. Afdel"
        }
      ]
    },
    {
      "paperId": "45346c3ec5ac368e86f63502fa87bbd98b12cc81",
      "externalIds": {
        "DBLP": "conf/cvpr/HuangYH21",
        "DOI": "10.1109/CVPR46437.2021.00764",
        "CorpusId": 235702840
      },
      "url": "https://www.semanticscholar.org/paper/45346c3ec5ac368e86f63502fa87bbd98b12cc81",
      "title": "Memory Oriented Transfer Learning for Semi-Supervised Image Deraining",
      "venue": "Computer Vision and Pattern Recognition",
      "year": 2021,
      "referenceCount": 42,
      "citationCount": 116,
      "authors": [
        {
          "authorId": "32885778",
          "name": "Huaibo Huang"
        },
        {
          "authorId": "1466509972",
          "name": "Aijing Yu"
        },
        {
          "authorId": "143712929",
          "name": "R. He"
        }
      ]
    },
    {
      "paperId": "50a8258d4dbea43e468ab6f1768f249480d0d8cc",
      "externalIds": {
        "DBLP": "journals/corr/abs-1907-03103",
        "MAG": "2954580816",
        "CorpusId": 195833103
      },
      "url": "https://www.semanticscholar.org/paper/50a8258d4dbea43e468ab6f1768f249480d0d8cc",
      "title": "Adversarial Fault Tolerant Training for Deep Neural Networks",
      "venue": "arXiv.org",
      "year": 2019,
      "referenceCount": 40,
      "citationCount": 11,
      "authors": [
        {
          "authorId": "40895513",
          "name": "Vasisht Duddu"
        },
        {
          "authorId": "2065290739",
          "name": "D. V. Rao"
        },
        {
          "authorId": "143721746",
          "name": "V. Balas"
        }
      ]
    },
    {
      "paperId": "a4a03dbc3c4835f59a2ec3b081732a1a4cd56d8c",
      "externalIds": {
        "CorpusId": 199522969
      },
      "url": "https://www.semanticscholar.org/paper/a4a03dbc3c4835f59a2ec3b081732a1a4cd56d8c",
      "title": "J ul 2 01 9 Adversarial Fault Tolerant Training for Deep Neural Networks",
      "venue": "",
      "year": 2019,
      "referenceCount": 39,
      "citationCount": 0,
      "authors": [
        {
          "authorId": "2067059432",
          "name": "Vasisht Duddu"
        },
        {
          "authorId": "2065290739",
          "name": "D. V. Rao"
        },
        {
          "authorId": "143721746",
          "name": "V. Balas"
        }
      ]
    }
  ]
}