{
  "total": 10616,
  "offset": 0,
  "next": 10,
  "data": [
    {
      "paperId": "f580b0e1020ad67bdbb11e8d99a59c21a8df1e7d",
      "externalIds": {
        "MAG": "2595294663",
        "DBLP": "conf/icml/BoraJPD17",
        "ArXiv": "1703.03208",
        "CorpusId": 9272289
      },
      "url": "https://www.semanticscholar.org/paper/f580b0e1020ad67bdbb11e8d99a59c21a8df1e7d",
      "title": "Compressed Sensing using Generative Models",
      "venue": "International Conference on Machine Learning",
      "year": 2017,
      "referenceCount": 45,
      "citationCount": 906,
      "authors": [
        {
          "authorId": "2346355",
          "name": "Ashish Bora"
        },
        {
          "authorId": "2021902",
          "name": "Ajil Jalal"
        },
        {
          "authorId": "4989538",
          "name": "Eric Price"
        },
        {
          "authorId": "1718469",
          "name": "A. Dimakis"
        }
      ]
    },
    {
      "paperId": "761ae5119e9daab5082575ac9c7c3cdd6b5c5782",
      "externalIds": {
        "CorpusId": 260499588
      },
      "url": "https://www.semanticscholar.org/paper/761ae5119e9daab5082575ac9c7c3cdd6b5c5782",
      "title": "Compressed Sensing using Generative Models",
      "venue": "",
      "year": 2017,
      "referenceCount": 0,
      "citationCount": 11,
      "authors": []
    },
    {
      "paperId": "de96cd450baca1a76d89a72081239935e0aa43a3",
      "externalIds": {
        "MAG": "2963031612",
        "ArXiv": "1807.01442",
        "DBLP": "conf/icml/DharGE18",
        "CorpusId": 49570496
      },
      "url": "https://www.semanticscholar.org/paper/de96cd450baca1a76d89a72081239935e0aa43a3",
      "title": "Modeling Sparse Deviations for Compressed Sensing using Generative Models",
      "venue": "International Conference on Machine Learning",
      "year": 2018,
      "referenceCount": 49,
      "citationCount": 86,
      "authors": [
        {
          "authorId": "10385023",
          "name": "Manik Dhar"
        },
        {
          "authorId": "1954250",
          "name": "Aditya Grover"
        },
        {
          "authorId": "2490652",
          "name": "Stefano Ermon"
        }
      ]
    },
    {
      "paperId": "1e8fbc9e028b26dd6aace38b950c2127bf9d3879",
      "externalIds": {
        "MAG": "3101297575",
        "DBLP": "conf/nips/JalalLDC20",
        "ArXiv": "2006.09461",
        "CorpusId": 227276278
      },
      "url": "https://www.semanticscholar.org/paper/1e8fbc9e028b26dd6aace38b950c2127bf9d3879",
      "title": "Robust compressed sensing using generative models",
      "venue": "Neural Information Processing Systems",
      "year": 2020,
      "referenceCount": 94,
      "citationCount": 50,
      "authors": [
        {
          "authorId": "2021902",
          "name": "Ajil Jalal"
        },
        {
          "authorId": "2109527994",
          "name": "Liu Liu"
        },
        {
          "authorId": "1718469",
          "name": "A. Dimakis"
        },
        {
          "authorId": "1764494",
          "name": "C. Caramanis"
        }
      ]
    },
    {
      "paperId": "5c6ba17df1b322120cdd0e5c9f5bfbfbde3700a0",
      "externalIds": {
        "DBLP": "journals/twc/JhaL24",
        "DOI": "10.1109/TWC.2023.3295449",
        "CorpusId": 260022782
      },
      "url": "https://www.semanticscholar.org/paper/5c6ba17df1b322120cdd0e5c9f5bfbfbde3700a0",
      "title": "Temporally Correlated Compressed Sensing Using Generative Models for Channel Estimation in Unmanned Aerial Vehicles",
      "venue": "IEEE Transactions on Wireless Communications",
      "year": 2024,
      "referenceCount": 49,
      "citationCount": 8,
      "authors": [
        {
          "authorId": "2054534580",
          "name": "N. Jha"
        },
        {
          "authorId": "145024542",
          "name": "V. Lau"
        }
      ]
    },
    {
      "paperId": "661a19c55f45a3e1855458ff01e70a2aed6355f9",
      "externalIds": {
        "DBLP": "journals/mlc/WangYNX21",
        "MAG": "3189696178",
        "DOI": "10.1007/s13042-021-01337-1",
        "CorpusId": 238664692
      },
      "url": "https://www.semanticscholar.org/paper/661a19c55f45a3e1855458ff01e70a2aed6355f9",
      "title": "Compressed sensing using generative models based on fisher information",
      "venue": "International Journal of Machine Learning and Cybernetics",
      "year": 2021,
      "referenceCount": 46,
      "citationCount": 3,
      "authors": [
        {
          "authorId": "2146058967",
          "name": "Meng Wang"
        },
        {
          "authorId": "2151009858",
          "name": "Jing Yu"
        },
        {
          "authorId": "2053976614",
          "name": "Zhen-Hu Ning"
        },
        {
          "authorId": "2863393",
          "name": "Chuangbai Xiao"
        }
      ]
    },
    {
      "paperId": "bea7e448c0621e34dcc3349d3f419125e9aceec0",
      "externalIds": {
        "MAG": "3016215810",
        "ArXiv": "2502.12762",
        "DBLP": "conf/icassp/JosephKV20",
        "DOI": "10.1109/ICASSP40776.2020.9054212",
        "CorpusId": 216523004
      },
      "url": "https://www.semanticscholar.org/paper/bea7e448c0621e34dcc3349d3f419125e9aceec0",
      "title": "One-Bit Compressed Sensing Using Generative Models",
      "venue": "IEEE International Conference on Acoustics, Speech, and Signal Processing",
      "year": 2020,
      "referenceCount": 53,
      "citationCount": 10,
      "authors": [
        {
          "authorId": "39828957",
          "name": "Geethu Joseph"
        },
        {
          "authorId": "10442546",
          "name": "Swatantra Kafle"
        },
        {
          "authorId": "1925309",
          "name": "P. Varshney"
        }
      ]
    },
    {
      "paperId": "f5a53107a936534f9fe18d7b647eeb1a5dcba083",
      "externalIds": {
        "CorpusId": 260495345
      },
      "url": "https://www.semanticscholar.org/paper/f5a53107a936534f9fe18d7b647eeb1a5dcba083",
      "title": "Modeling Sparse Deviations for Compressed Sensing using Generative Models",
      "venue": "",
      "year": null,
      "referenceCount": 0,
      "citationCount": 4,
      "authors": []
    },
    {
      "paperId": "dbc7c07181243ba7693a1e97962d390ca98ce426",
      "externalIds": {
        "DBLP": "conf/vcip/CaiFXZLZ20",
        "DOI": "10.1109/VCIP49819.2020.9301808",
        "CorpusId": 230513770
      },
      "url": "https://www.semanticscholar.org/paper/dbc7c07181243ba7693a1e97962d390ca98ce426",
      "title": "Fast compressed sensing recovery using generative models and sparse deviations modeling",
      "venue": "Visual Communications and Image Processing",
      "year": 2020,
      "referenceCount": 17,
      "citationCount": 0,
      "authors": [
        {
          "authorId": "2112830996",
          "name": "Lei Cai"
        },
        {
          "authorId": "2226066",
          "name": "Yuli Fu"
        },
        {
          "authorId": "2890280",
          "name": "Youjun Xiang"
        },
        {
          "authorId": "2142229270",
          "name": "Tao Zhu"
        },
        {
          "authorId": "2108137492",
          "name": "Xianfeng Li"
        },
        {
          "authorId": "72910910",
          "name": "Huanqiang Zeng"
        }
      ]
    },
    {
      "paperId": "325056a4b4ba7cb928fdf39994d0e492e9168e05",
      "externalIds": {
        "ArXiv": "2603.07357",
        "CorpusId": 286376571
      },
      "url": "https://www.semanticscholar.org/paper/325056a4b4ba7cb928fdf39994d0e492e9168e05",
      "title": "Latent Generative Models with Tunable Complexity for Compressed Sensing and other Inverse Problems",
      "venue": "",
      "year": 2026,
      "referenceCount": 49,
      "citationCount": 0,
      "authors": [
        {
          "authorId": "50342325",
          "name": "Sean Gunn"
        },
        {
          "authorId": "151394414",
          "name": "Jorio Cocola"
        },
        {
          "authorId": "2450752",
          "name": "Oliver De Candido"
        },
        {
          "authorId": "8769315",
          "name": "Vaggos Chatziafratis"
        },
        {
          "authorId": "32268990",
          "name": "Paul Hand"
        }
      ]
    }
  ]
}