{
  "total": 90,
  "offset": 0,
  "next": 10,
  "data": [
    {
      "paperId": "b0f7e146bff2f5be42c4d84eac2f7309310c54b7",
      "externalIds": {
        "DBLP": "conf/icml/LiuB17",
        "MAG": "2741977875",
        "CorpusId": 28313803
      },
      "url": "https://www.semanticscholar.org/paper/b0f7e146bff2f5be42c4d84eac2f7309310c54b7",
      "title": "Zero-Inflated Exponential Family Embeddings",
      "venue": "International Conference on Machine Learning",
      "year": 2017,
      "referenceCount": 22,
      "citationCount": 6,
      "authors": [
        {
          "authorId": "46458178",
          "name": "Li-Ping Liu"
        },
        {
          "authorId": "1796335",
          "name": "D. Blei"
        }
      ]
    },
    {
      "paperId": "0cd905a7ee8315b602265126993eabccc5244b6a",
      "externalIds": {
        "DOI": "10.1109/CDS52072.2021.00065",
        "CorpusId": 236185009
      },
      "url": "https://www.semanticscholar.org/paper/0cd905a7ee8315b602265126993eabccc5244b6a",
      "title": "Zero-Inflated Embeddings to Analyze Homicide Occurrence Patterns",
      "venue": "2021 2nd International Conference on Computing and Data Science (CDS)",
      "year": 2021,
      "referenceCount": 0,
      "citationCount": 0,
      "authors": [
        {
          "authorId": "2056756063",
          "name": "Hamadys L. Benavides Gutiérrez"
        },
        {
          "authorId": "2120313283",
          "name": "Óscar Gómez"
        },
        {
          "authorId": "113535737",
          "name": "Mateo Dulce Rubio"
        },
        {
          "authorId": "2058111606",
          "name": "Paula Rodríguez Díaz"
        },
        {
          "authorId": "2120321748",
          "name": "Álvaro J. Riascos Villegas"
        },
        {
          "authorId": "119773356",
          "name": "J. S. M. Pabón"
        }
      ]
    },
    {
      "paperId": "3f052874f6569d26694b270b2dfb615dd7affb39",
      "externalIds": {
        "MAG": "3146835578",
        "DOI": "10.1080/00949655.2021.1890732",
        "CorpusId": 233527324
      },
      "url": "https://www.semanticscholar.org/paper/3f052874f6569d26694b270b2dfb615dd7affb39",
      "title": "Modeling and inference for counts time series based on zero-inflated exponential family INGARCH models",
      "venue": "Journal of Statistical Computation and Simulation",
      "year": 2021,
      "referenceCount": 33,
      "citationCount": 9,
      "authors": [
        {
          "authorId": "30979289",
          "name": "Sangyeol Lee"
        },
        {
          "authorId": "2145138955",
          "name": "Dongwon Kim"
        },
        {
          "authorId": "116956934",
          "name": "Seong-Gyeong Seok"
        }
      ]
    },
    {
      "paperId": "37a2481ff4c721aed5e6a5d2fdbedb0ea80b7fe0",
      "externalIds": {
        "DOI": "10.1080/00949655.2025.2588591",
        "CorpusId": 283488368
      },
      "url": "https://www.semanticscholar.org/paper/37a2481ff4c721aed5e6a5d2fdbedb0ea80b7fe0",
      "title": "A unified joint modelling of zero-inflated longitudinal measurements and time-to-event outcomes with applications to HIV and colorectal cancer data",
      "venue": "Journal of Statistical Computation and Simulation",
      "year": 2025,
      "referenceCount": 108,
      "citationCount": 0,
      "authors": [
        {
          "authorId": "143623668",
          "name": "M. Ganjali"
        },
        {
          "authorId": "4274781",
          "name": "T. Baghfalaki"
        },
        {
          "authorId": "2238018094",
          "name": "N. Balakrishnan"
        },
        {
          "authorId": "2290917256",
          "name": "H. Jacqmin-Gadda"
        }
      ]
    },
    {
      "paperId": "04c7c5e51c40027f2e826e62a9ef8c15c0c46090",
      "externalIds": {
        "DOI": "10.1080/03610926.2025.2479650",
        "CorpusId": 277693063
      },
      "url": "https://www.semanticscholar.org/paper/04c7c5e51c40027f2e826e62a9ef8c15c0c46090",
      "title": "A unified Bayesian approach for modeling zero-inflated count and continuous outcomes",
      "venue": "Communications in Statistics - Theory and Methods",
      "year": 2025,
      "referenceCount": 62,
      "citationCount": 1,
      "authors": [
        {
          "authorId": "143623668",
          "name": "M. Ganjali"
        },
        {
          "authorId": "4274781",
          "name": "T. Baghfalaki"
        },
        {
          "authorId": "2261319605",
          "name": "Narayanaswamy Balakrishnan"
        }
      ]
    },
    {
      "paperId": "2a1f9b3cc34ec47c9abe63a23e1664f4d6e3be13",
      "externalIds": {
        "DBLP": "journals/sac/PiancastelliS25",
        "DOI": "10.1007/s11222-024-10549-8",
        "CorpusId": 275077297
      },
      "url": "https://www.semanticscholar.org/paper/2a1f9b3cc34ec47c9abe63a23e1664f4d6e3be13",
      "title": "Multivariate zero-inflated INGARCH models: Bayesian inference and composite likelihood approach",
      "venue": "Statistics and computing",
      "year": 2024,
      "referenceCount": 43,
      "citationCount": 1,
      "authors": [
        {
          "authorId": "121519135",
          "name": "Luiza S. C. Piancastelli"
        },
        {
          "authorId": "34117549",
          "name": "Rodrigo B. Silva"
        }
      ]
    },
    {
      "paperId": "24543ce17ea6615671a989e1671c3a77e3196ae8",
      "externalIds": {
        "DOI": "10.69793/ijmcs/02.2025/sirithip",
        "CorpusId": 276948085
      },
      "url": "https://www.semanticscholar.org/paper/24543ce17ea6615671a989e1671c3a77e3196ae8",
      "title": "Zero-One Inflated Bell Distribution and Its Application to Insurance Data",
      "venue": "International Journal of Mathematical and Computer Sciences",
      "year": 2025,
      "referenceCount": 0,
      "citationCount": 1,
      "authors": [
        {
          "authorId": "2332575999",
          "name": "Boonyarit Choopradit"
        },
        {
          "authorId": "102607363",
          "name": "S. Wasinrat"
        }
      ]
    },
    {
      "paperId": "17226f79dce13b78bff05c05e954c5067ed0ff9c",
      "externalIds": {
        "DOI": "10.1007/s42952-024-00269-0",
        "CorpusId": 270217871
      },
      "url": "https://www.semanticscholar.org/paper/17226f79dce13b78bff05c05e954c5067ed0ff9c",
      "title": "Multiple values-inflated bivariate INAR time series of counts: featuring zero–one inflated Poisson-Lindly case",
      "venue": "Journal of the Korean Statistical Society",
      "year": 2024,
      "referenceCount": 47,
      "citationCount": 0,
      "authors": [
        {
          "authorId": "2259588771",
          "name": "Sangyeol Lee"
        },
        {
          "authorId": "2036362046",
          "name": "Minyoung Jo"
        }
      ]
    },
    {
      "paperId": "ba5a9bd2d93c30e741d6e83deddf05a488f811fd",
      "externalIds": {
        "MAG": "2952725443",
        "ArXiv": "1707.08040",
        "DBLP": "conf/pkdd/VermaR17",
        "DOI": "10.1007/978-3-319-71246-8_48",
        "CorpusId": 19288109
      },
      "url": "https://www.semanticscholar.org/paper/ba5a9bd2d93c30e741d6e83deddf05a488f811fd",
      "title": "A Simple Exponential Family Framework for Zero-Shot Learning",
      "venue": "ECML/PKDD",
      "year": 2017,
      "referenceCount": 39,
      "citationCount": 206,
      "authors": [
        {
          "authorId": "153610266",
          "name": "V. Verma"
        },
        {
          "authorId": "145593549",
          "name": "Piyush Rai"
        }
      ]
    },
    {
      "paperId": "74ecefafa3ddb98ae39dba17c9e71e3b659915cc",
      "externalIds": {
        "CorpusId": 189799284
      },
      "url": "https://www.semanticscholar.org/paper/74ecefafa3ddb98ae39dba17c9e71e3b659915cc",
      "title": "Ja n 20 18 A Simple Exponential Family Framework for Zero-Shot Learning",
      "venue": "",
      "year": 2018,
      "referenceCount": 35,
      "citationCount": 0,
      "authors": [
        {
          "authorId": "153610266",
          "name": "V. Verma"
        },
        {
          "authorId": "2949560",
          "name": "P. Rai"
        }
      ]
    }
  ]
}