{
  "total": 187,
  "offset": 0,
  "next": 10,
  "data": [
    {
      "paperId": "d272d11c28242d4268b8f08fcda98f8fcc3583fe",
      "externalIds": {
        "MAG": "2953105550",
        "ArXiv": "1604.03853",
        "DBLP": "conf/icml/BasbugE16",
        "CorpusId": 330606
      },
      "url": "https://www.semanticscholar.org/paper/d272d11c28242d4268b8f08fcda98f8fcc3583fe",
      "title": "Hierarchical Compound Poisson Factorization",
      "venue": "International Conference on Machine Learning",
      "year": 2016,
      "referenceCount": 24,
      "citationCount": 34,
      "authors": [
        {
          "authorId": "2057316",
          "name": "M. Basbug"
        },
        {
          "authorId": "2053292",
          "name": "B. Engelhardt"
        }
      ]
    },
    {
      "paperId": "5040fbd12612bd1d5c630aea3c5cc0b53785b9fb",
      "externalIds": {
        "ArXiv": "1701.02058",
        "DBLP": "journals/corr/BasbugE17",
        "MAG": "2577474361",
        "CorpusId": 839206
      },
      "url": "https://www.semanticscholar.org/paper/5040fbd12612bd1d5c630aea3c5cc0b53785b9fb",
      "title": "Coupled Compound Poisson Factorization",
      "venue": "arXiv.org",
      "year": 2017,
      "referenceCount": 21,
      "citationCount": 7,
      "authors": [
        {
          "authorId": "2057316",
          "name": "M. Basbug"
        },
        {
          "authorId": "2053292",
          "name": "B. Engelhardt"
        }
      ]
    },
    {
      "paperId": "b5f224e9999d92e2721037fe49f756d6406ac57e",
      "externalIds": {
        "ArXiv": "1905.13128",
        "DBLP": "journals/corr/abs-1905-13128",
        "MAG": "2947506731",
        "CorpusId": 170078784
      },
      "url": "https://www.semanticscholar.org/paper/b5f224e9999d92e2721037fe49f756d6406ac57e",
      "title": "Recommendation from Raw Data with Adaptive Compound Poisson Factorization",
      "venue": "Conference on Uncertainty in Artificial Intelligence",
      "year": 2019,
      "referenceCount": 48,
      "citationCount": 13,
      "authors": [
        {
          "authorId": "35417168",
          "name": "Olivier Gouvert"
        },
        {
          "authorId": "3276186",
          "name": "T. Oberlin"
        },
        {
          "authorId": "1981204",
          "name": "C. Févotte"
        }
      ]
    },
    {
      "paperId": "57c039ba9bd5fd6f3f8262c5e0762a8773ed83b3",
      "externalIds": {
        "MAG": "2516456227",
        "DBLP": "journals/corr/JerfelBE16",
        "ArXiv": "1608.04839",
        "CorpusId": 5473430
      },
      "url": "https://www.semanticscholar.org/paper/57c039ba9bd5fd6f3f8262c5e0762a8773ed83b3",
      "title": "Dynamic Collaborative Filtering With Compound Poisson Factorization",
      "venue": "International Conference on Artificial Intelligence and Statistics",
      "year": 2016,
      "referenceCount": 32,
      "citationCount": 13,
      "authors": [
        {
          "authorId": "3451901",
          "name": "Ghassen Jerfel"
        },
        {
          "authorId": "2057316",
          "name": "M. Basbug"
        },
        {
          "authorId": "2053292",
          "name": "B. Engelhardt"
        }
      ]
    },
    {
      "paperId": "4660d8f2e8a8586d539f679feb0f4ba38157d705",
      "externalIds": {
        "DBLP": "journals/ojcs/MehriziC22",
        "DOI": "10.1109/ojcoms.2022.3158811",
        "CorpusId": 247459727
      },
      "url": "https://www.semanticscholar.org/paper/4660d8f2e8a8586d539f679feb0f4ba38157d705",
      "title": "Bayesian Poisson Factorization With Side Information for User Interest Prediction in Hierarchical Edge-Caching Systems",
      "venue": "IEEE Open Journal of the Communications Society",
      "year": 2022,
      "referenceCount": 0,
      "citationCount": 1,
      "authors": [
        {
          "authorId": "3388784",
          "name": "Sajad Mehrizi"
        },
        {
          "authorId": "1760292",
          "name": "S. Chatzinotas"
        }
      ]
    },
    {
      "paperId": "4275dce702c4ad1cd97d9be84cc12c6751c7b9a0",
      "externalIds": {
        "MAG": "2271817569",
        "DOI": "10.1002/sim.6884",
        "CorpusId": 4964896,
        "PubMed": "26869051"
      },
      "url": "https://www.semanticscholar.org/paper/4275dce702c4ad1cd97d9be84cc12c6751c7b9a0",
      "title": "Estimating effectiveness in HIV prevention trials with a Bayesian hierarchical compound Poisson frailty model",
      "venue": "Statistics in Medicine",
      "year": 2016,
      "referenceCount": 52,
      "citationCount": 9,
      "authors": [
        {
          "authorId": "144142836",
          "name": "R. Y. Coley"
        },
        {
          "authorId": "144807876",
          "name": "E. Brown"
        }
      ]
    },
    {
      "paperId": "daee15a01d7de6cc7841ab771574ff8794f94eb8",
      "externalIds": {
        "DOI": "10.1142/s0219467826500270",
        "CorpusId": 272765256
      },
      "url": "https://www.semanticscholar.org/paper/daee15a01d7de6cc7841ab771574ff8794f94eb8",
      "title": "Novel Computation-Efficient Single-Image Super-Resolution Based on Hierarchical Dirichlet Process Using Compound Poisson Process",
      "venue": "International Journal of Image and Graphics",
      "year": 2024,
      "referenceCount": 0,
      "citationCount": 0,
      "authors": [
        {
          "authorId": "2322042517",
          "name": "Abdol Vahab Khalili Sadaghiani"
        },
        {
          "authorId": "2322047583",
          "name": "Hamid Sargolzaei"
        },
        {
          "authorId": "2322042939",
          "name": "Behjat Forouzandeh"
        }
      ]
    },
    {
      "paperId": "ccc80d3faf943c35df1bb3a64e750192f9d06866",
      "externalIds": {
        "PubMedCentral": "6386217",
        "MAG": "2825066715",
        "DOI": "10.15252/msb.20188557",
        "CorpusId": 67858701,
        "PubMed": "30796088"
      },
      "url": "https://www.semanticscholar.org/paper/ccc80d3faf943c35df1bb3a64e750192f9d06866",
      "title": "De novo gene signature identification from single‐cell RNA‐seq with hierarchical Poisson factorization",
      "venue": "bioRxiv",
      "year": 2018,
      "referenceCount": 68,
      "citationCount": 100,
      "authors": [
        {
          "authorId": "40843172",
          "name": "H. M. Levitin"
        },
        {
          "authorId": "6163384",
          "name": "Jinzhou Yuan"
        },
        {
          "authorId": "40101801",
          "name": "Y. Cheng"
        },
        {
          "authorId": "144211059",
          "name": "Francisco J. R. Ruiz"
        },
        {
          "authorId": "40507077",
          "name": "Erin Bush"
        },
        {
          "authorId": "2300323",
          "name": "J. Bruce"
        },
        {
          "authorId": "3271503",
          "name": "P. Canoll"
        },
        {
          "authorId": "2700430",
          "name": "A. Iavarone"
        },
        {
          "authorId": "2053649",
          "name": "A. Lasorella"
        },
        {
          "authorId": "1796335",
          "name": "D. Blei"
        },
        {
          "authorId": "16713182",
          "name": "P. Sims"
        }
      ]
    },
    {
      "paperId": "65fc0ee866d49e65bd23c2a598fc85231ac5b8f0",
      "externalIds": {
        "MAG": "3119250865",
        "DOI": "10.1134/S1054661820040070",
        "CorpusId": 234667092
      },
      "url": "https://www.semanticscholar.org/paper/65fc0ee866d49e65bd23c2a598fc85231ac5b8f0",
      "title": "Time-Aware Social Hierarchical Poisson Factorization for Personalized Recommendation",
      "venue": "Pattern Recognition and Image Analysis",
      "year": 2020,
      "referenceCount": 27,
      "citationCount": 1,
      "authors": [
        {
          "authorId": "50579635",
          "name": "Yongheng Chen"
        },
        {
          "authorId": "1600667338",
          "name": "C. Yin"
        },
        {
          "authorId": "8580115",
          "name": "Wanli Zuo"
        }
      ]
    },
    {
      "paperId": "c6c5b95af5864ab9ddff40c26881537483026931",
      "externalIds": {
        "ArXiv": "2307.01060",
        "DOI": "10.1007/s42967-023-00352-z",
        "CorpusId": 259316125
      },
      "url": "https://www.semanticscholar.org/paper/c6c5b95af5864ab9ddff40c26881537483026931",
      "title": "Hierarchical Interpolative Factorization for Self Green’s Function in 3D Modified Poisson-Boltzmann Equations",
      "venue": "Communication on Applied Mathematics and Computation",
      "year": 2023,
      "referenceCount": 41,
      "citationCount": 1,
      "authors": [
        {
          "authorId": "16663661",
          "name": "Y. Tu"
        },
        {
          "authorId": "93695432",
          "name": "Zhenli Xu"
        },
        {
          "authorId": "2906086",
          "name": "Haizhao Yang"
        }
      ]
    }
  ]
}