{
  "total": 1561,
  "offset": 0,
  "next": 10,
  "data": [
    {
      "paperId": "dd9a4b3d589b7eab908994b2c52b67625c394417",
      "externalIds": {
        "MAG": "2964127409",
        "DBLP": "conf/icml/NeiswangerX17",
        "CorpusId": 33233880
      },
      "url": "https://www.semanticscholar.org/paper/dd9a4b3d589b7eab908994b2c52b67625c394417",
      "title": "Post-Inference Prior Swapping",
      "venue": "International Conference on Machine Learning",
      "year": 2016,
      "referenceCount": 56,
      "citationCount": 8,
      "authors": [
        {
          "authorId": "2934259",
          "name": "Willie Neiswanger"
        },
        {
          "authorId": "143977260",
          "name": "E. Xing"
        }
      ]
    },
    {
      "paperId": "aa31b21725f4ab29ee51b5e016fa3afc6307624c",
      "externalIds": {
        "MAG": "2416873004",
        "DBLP": "journals/corr/NeiswangerX16",
        "ArXiv": "1606.00787",
        "CorpusId": 14961797
      },
      "url": "https://www.semanticscholar.org/paper/aa31b21725f4ab29ee51b5e016fa3afc6307624c",
      "title": "Prior Swapping for Data-Independent Inference",
      "venue": "arXiv.org",
      "year": 2016,
      "referenceCount": 68,
      "citationCount": 1,
      "authors": [
        {
          "authorId": "2934259",
          "name": "Willie Neiswanger"
        },
        {
          "authorId": "143977260",
          "name": "E. Xing"
        }
      ]
    },
    {
      "paperId": "6b56b964f9281445f6a925b59afb4a0450568801",
      "externalIds": {
        "ArXiv": "2507.10373",
        "CorpusId": 280285963
      },
      "url": "https://www.semanticscholar.org/paper/6b56b964f9281445f6a925b59afb4a0450568801",
      "title": "Post-reduction inference for confidence sets of models",
      "venue": "",
      "year": 2025,
      "referenceCount": 43,
      "citationCount": 1,
      "authors": [
        {
          "authorId": "144193472",
          "name": "H. Battey"
        },
        {
          "authorId": "35272646",
          "name": "D. G. Rasines"
        },
        {
          "authorId": "3209531",
          "name": "Yanbo Tang"
        }
      ]
    },
    {
      "paperId": "9d838be3c7cb4deb2ff8d5feac78ce80284f3237",
      "externalIds": {
        "ArXiv": "2506.11564",
        "CorpusId": 279391310
      },
      "url": "https://www.semanticscholar.org/paper/9d838be3c7cb4deb2ff8d5feac78ce80284f3237",
      "title": "Inference post region selection",
      "venue": "",
      "year": 2025,
      "referenceCount": 18,
      "citationCount": 0,
      "authors": [
        {
          "authorId": "2367038609",
          "name": "Dominique Bontemps"
        },
        {
          "authorId": "118174862",
          "name": "F. Bachoc"
        },
        {
          "authorId": "2310434292",
          "name": "Pierre Neuvial"
        }
      ]
    },
    {
      "paperId": "6156f79bf18857e053da495d675613eb29e00b54",
      "externalIds": {
        "ArXiv": "2510.13763",
        "DBLP": "journals/corr/abs-2510-13763",
        "DOI": "10.48550/arXiv.2510.13763",
        "CorpusId": 282102610
      },
      "url": "https://www.semanticscholar.org/paper/6156f79bf18857e053da495d675613eb29e00b54",
      "title": "PriorGuide: Test-Time Prior Adaptation for Simulation-Based Inference",
      "venue": "arXiv.org",
      "year": 2025,
      "referenceCount": 85,
      "citationCount": 1,
      "authors": [
        {
          "authorId": "2385566848",
          "name": "Yang Yang"
        },
        {
          "authorId": "104147693",
          "name": "Severi Rissanen"
        },
        {
          "authorId": "2327507125",
          "name": "Paul E. Chang"
        },
        {
          "authorId": "35562705",
          "name": "Nasrulloh Loka"
        },
        {
          "authorId": "2182013412",
          "name": "Daolang Huang"
        },
        {
          "authorId": "2303464125",
          "name": "Arno Solin"
        },
        {
          "authorId": "2303463736",
          "name": "Markus Heinonen"
        },
        {
          "authorId": "2320154902",
          "name": "Luigi Acerbi"
        }
      ]
    },
    {
      "paperId": "e4e440e1b7632a2ef7d413f03cb960203fe10685",
      "externalIds": {
        "DOI": "10.1002/sim.10095",
        "CorpusId": 269500337,
        "PubMed": "38693559"
      },
      "url": "https://www.semanticscholar.org/paper/e4e440e1b7632a2ef7d413f03cb960203fe10685",
      "title": "Online causal inference with application to near real‐time post‐market vaccine safety surveillance",
      "venue": "Statistics in Medicine",
      "year": 2024,
      "referenceCount": 45,
      "citationCount": 9,
      "authors": [
        {
          "authorId": "2269695523",
          "name": "Lan Luo"
        },
        {
          "authorId": "2295497076",
          "name": "M. Risk"
        },
        {
          "authorId": "2110155859",
          "name": "Xu Shi"
        }
      ]
    },
    {
      "paperId": "6faad420f7f26a0082a650d2d8b0c583ea7d5166",
      "externalIds": {
        "DOI": "10.1080/10298436.2024.2381060",
        "CorpusId": 271823111
      },
      "url": "https://www.semanticscholar.org/paper/6faad420f7f26a0082a650d2d8b0c583ea7d5166",
      "title": "Appraising annual post-maintenance functional performance of asphalt roadway based on causal inference approach",
      "venue": "International Journal of Pavement Engineering",
      "year": 2024,
      "referenceCount": 45,
      "citationCount": 11,
      "authors": [
        {
          "authorId": "2137406905",
          "name": "Lingyun You"
        },
        {
          "authorId": "2157264123",
          "name": "Nanning Guo"
        },
        {
          "authorId": "2009768386",
          "name": "Zhengwu Long"
        },
        {
          "authorId": "2302373338",
          "name": "Fusong Wang"
        },
        {
          "authorId": "2302157825",
          "name": "Chundi Si"
        },
        {
          "authorId": "32221752",
          "name": "Aboelkasim Diab"
        }
      ]
    },
    {
      "paperId": "e65ac05bedf3f032675b3cd1bf23685116724bf0",
      "externalIds": {
        "PubMedCentral": "11466413",
        "DOI": "10.1371/journal.pbio.3002790",
        "CorpusId": 272551975,
        "PubMed": "39255328"
      },
      "url": "https://www.semanticscholar.org/paper/e65ac05bedf3f032675b3cd1bf23685116724bf0",
      "title": "Multisensory perceptual and causal inference is largely preserved in medicated post-acute individuals with schizophrenia",
      "venue": "PLoS Biology",
      "year": 2024,
      "referenceCount": 109,
      "citationCount": 4,
      "authors": [
        {
          "authorId": "49050175",
          "name": "Tim Rohe"
        },
        {
          "authorId": "2320489890",
          "name": "K. Hesse"
        },
        {
          "authorId": "1748713",
          "name": "A. Ehlis"
        },
        {
          "authorId": "143829574",
          "name": "U. Noppeney"
        }
      ]
    },
    {
      "paperId": "a08cc444fd9e547ab9e9836835d22f3d79b6353d",
      "externalIds": {
        "MAG": "2736230356",
        "DOI": "10.1101/122341",
        "CorpusId": 196064170
      },
      "url": "https://www.semanticscholar.org/paper/a08cc444fd9e547ab9e9836835d22f3d79b6353d",
      "title": "Post-inference Methods of Prior Knowledge Incorporation in Gene Regulatory Network Inference",
      "venue": "bioRxiv",
      "year": 2017,
      "referenceCount": 50,
      "citationCount": 0,
      "authors": [
        {
          "authorId": "2000397467",
          "name": "A. Nair"
        },
        {
          "authorId": "145812434",
          "name": "M. Chetty"
        }
      ]
    },
    {
      "paperId": "0b9ccd8df349537c98f704d61784aa5d276283ec",
      "externalIds": {
        "ArXiv": "2512.11550",
        "DBLP": "journals/corr/abs-2512-11550",
        "DOI": "10.48550/arXiv.2512.11550",
        "CorpusId": 283883070
      },
      "url": "https://www.semanticscholar.org/paper/0b9ccd8df349537c98f704d61784aa5d276283ec",
      "title": "PD-Swap: Prefill-Decode Logic Swapping for End-to-End LLM Inference on Edge FPGAs via Dynamic Partial Reconfiguration",
      "venue": "arXiv.org",
      "year": 2025,
      "referenceCount": 20,
      "citationCount": 0,
      "authors": [
        {
          "authorId": "2279762854",
          "name": "Yifan Zhang"
        },
        {
          "authorId": "2357855845",
          "name": "Zhiheng Chen"
        },
        {
          "authorId": "2056924898",
          "name": "Ye Qiao"
        },
        {
          "authorId": "2275755524",
          "name": "Sitao Huang"
        }
      ]
    }
  ]
}