{
  "total": 814,
  "offset": 0,
  "next": 10,
  "data": [
    {
      "paperId": "a0a0c17a3a6031aa49b303400d4275e3e5c624d5",
      "externalIds": {
        "MAG": "2963511616",
        "ArXiv": "1805.09185",
        "DBLP": "conf/icml/DiakonikolasO18",
        "CorpusId": 51869934
      },
      "url": "https://www.semanticscholar.org/paper/a0a0c17a3a6031aa49b303400d4275e3e5c624d5",
      "title": "Alternating Randomized Block Coordinate Descent",
      "venue": "International Conference on Machine Learning",
      "year": 2018,
      "referenceCount": 28,
      "citationCount": 33,
      "authors": [
        {
          "authorId": "2381725507",
          "name": "Jelena Diakonikolas"
        },
        {
          "authorId": "2399389153",
          "name": "Lorenzo Orecchia"
        }
      ]
    },
    {
      "paperId": "55cb5d20866d3bb5f059d9382e7e81d582973cc5",
      "externalIds": {
        "CorpusId": 260494134
      },
      "url": "https://www.semanticscholar.org/paper/55cb5d20866d3bb5f059d9382e7e81d582973cc5",
      "title": "Alternating Randomized Block Coordinate Descent",
      "venue": "",
      "year": 2018,
      "referenceCount": 0,
      "citationCount": 0,
      "authors": []
    },
    {
      "paperId": "6a558fe269ceeea4e78f0e811152552dc7782439",
      "externalIds": {
        "DBLP": "conf/pkdd/DengL20",
        "MAG": "2971541445",
        "ArXiv": "1909.00918",
        "DOI": "10.1007/978-3-030-67664-3_5",
        "CorpusId": 202541710
      },
      "url": "https://www.semanticscholar.org/paper/6a558fe269ceeea4e78f0e811152552dc7782439",
      "title": "Efficiency of Coordinate Descent Methods For Structured Nonconvex Optimization",
      "venue": "ECML/PKDD",
      "year": 2019,
      "referenceCount": 38,
      "citationCount": 11,
      "authors": [
        {
          "authorId": "2056197498",
          "name": "Qi Deng"
        },
        {
          "authorId": "103151302",
          "name": "Chen Lan"
        }
      ]
    },
    {
      "paperId": "63c646d576cbca90752539f29e25d1da7d1f7ec2",
      "externalIds": {
        "MAG": "2980701808",
        "DBLP": "journals/trob/WenYGL20",
        "DOI": "10.1109/TRO.2019.2943061",
        "CorpusId": 209976632
      },
      "url": "https://www.semanticscholar.org/paper/63c646d576cbca90752539f29e25d1da7d1f7ec2",
      "title": "Efficient Algorithms for Maximum Consensus Robust Fitting",
      "venue": "IEEE Transactions on robotics",
      "year": 2020,
      "referenceCount": 41,
      "citationCount": 16,
      "authors": [
        {
          "authorId": "38735298",
          "name": "Fei Wen"
        },
        {
          "authorId": "1803937",
          "name": "R. Ying"
        },
        {
          "authorId": "153537587",
          "name": "Zheng Gong"
        },
        {
          "authorId": "1752791",
          "name": "Peilin Liu"
        }
      ]
    },
    {
      "paperId": "5778713be60baff602fa00e1a4fc12e8b4ee6b2c",
      "externalIds": {
        "MAG": "2146574528",
        "DBLP": "conf/nips/WangBL14",
        "ArXiv": "1406.4064",
        "CorpusId": 14279817
      },
      "url": "https://www.semanticscholar.org/paper/5778713be60baff602fa00e1a4fc12e8b4ee6b2c",
      "title": "Parallel Direction Method of Multipliers",
      "venue": "Neural Information Processing Systems",
      "year": 2014,
      "referenceCount": 44,
      "citationCount": 53,
      "authors": [
        {
          "authorId": "3909454",
          "name": "Huahua Wang"
        },
        {
          "authorId": "144205696",
          "name": "A. Banerjee"
        },
        {
          "authorId": "144657347",
          "name": "Z. Luo"
        }
      ]
    },
    {
      "paperId": "f945225a5cf64fcb6e797a89484e9cdaf99aaef5",
      "externalIds": {
        "DBLP": "journals/corr/abs-2405-13340",
        "ArXiv": "2405.13340",
        "DOI": "10.1088/1361-6420/adb780",
        "CorpusId": 269983464
      },
      "url": "https://www.semanticscholar.org/paper/f945225a5cf64fcb6e797a89484e9cdaf99aaef5",
      "title": "Randomized block coordinate descent method for linear ill-posed problems",
      "venue": "Inverse Problems",
      "year": 2024,
      "referenceCount": 34,
      "citationCount": 1,
      "authors": [
        {
          "authorId": "2302786926",
          "name": "Qinian Jin"
        },
        {
          "authorId": "2302787687",
          "name": "Duo Liu"
        }
      ]
    },
    {
      "paperId": "6b74359d499e071043c9676afc6d836854b78999",
      "externalIds": {
        "DBLP": "journals/ol/MaiaG25",
        "ArXiv": "2403.08080",
        "DOI": "10.1007/s11590-024-02161-6",
        "CorpusId": 275785952
      },
      "url": "https://www.semanticscholar.org/paper/6b74359d499e071043c9676afc6d836854b78999",
      "title": "The randomized block coordinate descent method in the Hölder smooth setting",
      "venue": "Optimization Letters",
      "year": 2024,
      "referenceCount": 13,
      "citationCount": 0,
      "authors": [
        {
          "authorId": "2388719356",
          "name": "Leandro Farias Maia"
        },
        {
          "authorId": "2291067903",
          "name": "D. H. Gutman"
        }
      ]
    },
    {
      "paperId": "bd7ecf17dbc0ee0cb2afe55545bf8f8345d02775",
      "externalIds": {
        "PubMedCentral": "9845049",
        "DOI": "10.1155/2023/4765891",
        "CorpusId": 255905667,
        "PubMed": "36660559"
      },
      "url": "https://www.semanticscholar.org/paper/bd7ecf17dbc0ee0cb2afe55545bf8f8345d02775",
      "title": "An Improved Adam Optimization Algorithm Combining Adaptive Coefficients and Composite Gradients Based on Randomized Block Coordinate Descent",
      "venue": "Computational Intelligence and Neuroscience",
      "year": 2023,
      "referenceCount": 30,
      "citationCount": 55,
      "authors": [
        {
          "authorId": "2108511163",
          "name": "Miaomiao Liu"
        },
        {
          "authorId": "2166505347",
          "name": "Dan Yao"
        },
        {
          "authorId": "2201102289",
          "name": "Zhigang Liu"
        },
        {
          "authorId": "2526817",
          "name": "Jingfeng Guo"
        },
        {
          "authorId": "50762630",
          "name": "Jing Chen"
        }
      ]
    },
    {
      "paperId": "fa5dca1a1d2c6b2be4a6c3887d6efcc390a43c9d",
      "externalIds": {
        "DBLP": "journals/amc/TongZLL24",
        "DOI": "10.1016/j.amc.2024.128687",
        "CorpusId": 268718444
      },
      "url": "https://www.semanticscholar.org/paper/fa5dca1a1d2c6b2be4a6c3887d6efcc390a43c9d",
      "title": "Designing incoherent unit norm tight frames via block coordinate descent-based alternating projection",
      "venue": "Applied Mathematics and Computation",
      "year": 2024,
      "referenceCount": 28,
      "citationCount": 3,
      "authors": [
        {
          "authorId": "2058071331",
          "name": "Fenghua Tong"
        },
        {
          "authorId": "2186230986",
          "name": "Dawei Zhao"
        },
        {
          "authorId": "2233778859",
          "name": "Xin Li"
        },
        {
          "authorId": "2160957130",
          "name": "Lixiang Li"
        }
      ]
    },
    {
      "paperId": "efb319afc234ca75570fde63b0159c5f07324205",
      "externalIds": {
        "DBLP": "journals/appml/DuRS22",
        "MAG": "3203858329",
        "DOI": "10.1016/j.aml.2021.107689",
        "CorpusId": 244218253
      },
      "url": "https://www.semanticscholar.org/paper/efb319afc234ca75570fde63b0159c5f07324205",
      "title": "On the convergence of a randomized block coordinate descent algorithm for a matrix least squares problem",
      "venue": "Applied Mathematics Letters",
      "year": 2022,
      "referenceCount": 14,
      "citationCount": 24,
      "authors": [
        {
          "authorId": "34439066",
          "name": "Kui Du"
        },
        {
          "authorId": "2140683154",
          "name": "Cheng-Chao Ruan"
        },
        {
          "authorId": "1700585802",
          "name": "Xiaohui Sun"
        }
      ]
    }
  ]
}