{
  "total": 164,
  "offset": 0,
  "next": 10,
  "data": [
    {
      "paperId": "81bf7ef53a9a189cca97375c12d97faadd4f9e92",
      "externalIds": {
        "MAG": "2952145135",
        "ArXiv": "1805.04720",
        "DBLP": "journals/corr/abs-1805-04720",
        "CorpusId": 44125363
      },
      "url": "https://www.semanticscholar.org/paper/81bf7ef53a9a189cca97375c12d97faadd4f9e92",
      "title": "Do Outliers Ruin Collaboration?",
      "venue": "International Conference on Machine Learning",
      "year": 2018,
      "referenceCount": 13,
      "citationCount": 15,
      "authors": [
        {
          "authorId": "3451580",
          "name": "Mingda Qiao"
        }
      ]
    },
    {
      "paperId": "f66ebc1f0892b8cf9a98cda98790f5b22ce07ab2",
      "externalIds": {
        "DOI": "10.30598/baileofisipvol3iss2pp486-505",
        "CorpusId": 285520219
      },
      "url": "https://www.semanticscholar.org/paper/f66ebc1f0892b8cf9a98cda98790f5b22ce07ab2",
      "title": "Adaptive Collaboration Governance: A Sociological–Economic Study of Outliers, Communication Quality, and Partnership Sustainability",
      "venue": "JURNAL SOSIAL HUMANIORA",
      "year": 2025,
      "referenceCount": 0,
      "citationCount": 0,
      "authors": [
        {
          "authorId": "2410239842",
          "name": "Edwin Lumunon"
        },
        {
          "authorId": "2347114338",
          "name": "Juliet P. T. Makinggung"
        },
        {
          "authorId": "2410220942",
          "name": "J. Winokan"
        },
        {
          "authorId": "2022958983",
          "name": "Rolyke Tulangow"
        }
      ]
    },
    {
      "paperId": "6b893709b464abe191decff0b4d5bf0c55d11813",
      "externalIds": {
        "DOI": "10.33474/jisop.v6i1.21505",
        "CorpusId": 271055626
      },
      "url": "https://www.semanticscholar.org/paper/6b893709b464abe191decff0b4d5bf0c55d11813",
      "title": "The nexus between state and corporate: China-tencent ‘forced’ collaboration in governing game industry",
      "venue": "Jurnal Inovasi Ilmu Sosial dan Politik",
      "year": 2024,
      "referenceCount": 20,
      "citationCount": 0,
      "authors": [
        {
          "authorId": "2310358231",
          "name": "Bayu Fajar Nugroho"
        }
      ]
    },
    {
      "paperId": "f29a270381c8c746810ff0301fec30e05b73d6ce",
      "externalIds": {
        "DOI": "10.1177/02637758231185134",
        "CorpusId": 259852442
      },
      "url": "https://www.semanticscholar.org/paper/f29a270381c8c746810ff0301fec30e05b73d6ce",
      "title": "Going deep: Excavation, collaboration and imagination at the Kola Superdeep Borehole",
      "venue": "Environment & Planning. D, Society and Space",
      "year": 2023,
      "referenceCount": 52,
      "citationCount": 3,
      "authors": [
        {
          "authorId": "115930443",
          "name": "C. Wrigley"
        }
      ]
    },
    {
      "paperId": "1d2b1c453d005c52676ffc6c5394cbe01e5b6bd6",
      "externalIds": {
        "DOI": "10.5324/njsteme.v7i1.5093",
        "CorpusId": 263722931
      },
      "url": "https://www.semanticscholar.org/paper/1d2b1c453d005c52676ffc6c5394cbe01e5b6bd6",
      "title": "Student guides: supporting learning from laboratory experiments through across-course collaboration",
      "venue": "Nordic Journal of STEM Education",
      "year": 2023,
      "referenceCount": 14,
      "citationCount": 2,
      "authors": [
        {
          "authorId": "107984296",
          "name": "K. Daae"
        },
        {
          "authorId": "51114513",
          "name": "E. Darelius"
        },
        {
          "authorId": "2255656742",
          "name": "A. Årvik"
        },
        {
          "authorId": "1752097",
          "name": "M. Glessmer"
        }
      ]
    },
    {
      "paperId": "0e5765e7a6618b8aa98b744a035d2ced981cc80e",
      "externalIds": {
        "DOI": "10.1093/icb/icab166",
        "CorpusId": 236141897,
        "PubMed": "34283241"
      },
      "url": "https://www.semanticscholar.org/paper/0e5765e7a6618b8aa98b744a035d2ced981cc80e",
      "title": "The Philosophy of Outliers: Reintegrating Rare Events Into Biological Science.",
      "venue": "Integrative and Comparative Biology",
      "year": 2021,
      "referenceCount": 44,
      "citationCount": 13,
      "authors": [
        {
          "authorId": "48495358",
          "name": "C. Cook"
        },
        {
          "authorId": "26389310",
          "name": "Angela R. Freeman"
        },
        {
          "authorId": "117448869",
          "name": "James C. Liao"
        },
        {
          "authorId": "5293998",
          "name": "L. Mangiamele"
        }
      ]
    },
    {
      "paperId": "1047af4d25f675c93b93e575b0eb9556d460bc87",
      "externalIds": {
        "ArXiv": "2502.17747",
        "DOI": "10.1017/pasa.2025.10111",
        "CorpusId": 276581036
      },
      "url": "https://www.semanticscholar.org/paper/1047af4d25f675c93b93e575b0eb9556d460bc87",
      "title": "Dark sirens and the impact of redshift precision",
      "venue": "Publications Astronomical Society of Australia",
      "year": 2025,
      "referenceCount": 15,
      "citationCount": 3,
      "authors": [
        {
          "authorId": "2347044397",
          "name": "Madeline L. Cross-Parkin"
        },
        {
          "authorId": "88610854",
          "name": "C. Howlett"
        },
        {
          "authorId": "2247200797",
          "name": "T. Davis"
        },
        {
          "authorId": "2397651672",
          "name": "Nandita Khetan"
        }
      ]
    },
    {
      "paperId": "cb9dc78b6f52c21b7b944f57067fc4721cde0ee8",
      "externalIds": {
        "MAG": "2978182632",
        "DOI": "10.1093/annonc/mdz268.104",
        "CorpusId": 208398821
      },
      "url": "https://www.semanticscholar.org/paper/cb9dc78b6f52c21b7b944f57067fc4721cde0ee8",
      "title": "The Australian Exceptional Responders Program: A national collaboration",
      "venue": "Annals of Oncology",
      "year": 2019,
      "referenceCount": 0,
      "citationCount": 0,
      "authors": [
        {
          "authorId": "15307687",
          "name": "Megan B Barnet"
        },
        {
          "authorId": "12803787",
          "name": "S. Pathmanandavel"
        },
        {
          "authorId": "78944444",
          "name": "L. McCarthy"
        },
        {
          "authorId": "153689120",
          "name": "Christopher C. Goodnow"
        },
        {
          "authorId": "3783547",
          "name": "A. Joshua"
        }
      ]
    },
    {
      "paperId": "e038d666fb8dde2ef5e6942b2a50841f95592113",
      "externalIds": {
        "DBLP": "conf/icar/TerreranBEG21",
        "DOI": "10.1109/ICAR53236.2021.9659456",
        "CorpusId": 245707985
      },
      "url": "https://www.semanticscholar.org/paper/e038d666fb8dde2ef5e6942b2a50841f95592113",
      "title": "Multi-view Human Parsing for Human-Robot Collaboration",
      "venue": "International Conference on Advanced Robotics",
      "year": 2021,
      "referenceCount": 0,
      "citationCount": 4,
      "authors": [
        {
          "authorId": "1992906658",
          "name": "Matteo Terreran"
        },
        {
          "authorId": "1416667270",
          "name": "L. Barcellona"
        },
        {
          "authorId": "153035448",
          "name": "D. Evangelista"
        },
        {
          "authorId": "2335530",
          "name": "S. Ghidoni"
        }
      ]
    },
    {
      "paperId": "3eacfdec2cdbc9088a4729dfb675890a2ffc2f9b",
      "externalIds": {
        "DBLP": "journals/jasis/BoteOA13",
        "MAG": "1993663340",
        "DOI": "10.1002/ASI.22754",
        "CorpusId": 40387924
      },
      "url": "https://www.semanticscholar.org/paper/3eacfdec2cdbc9088a4729dfb675890a2ffc2f9b",
      "title": "Quantifying the benefits of international scientific collaboration",
      "venue": "J. Assoc. Inf. Sci. Technol.",
      "year": 2013,
      "referenceCount": 24,
      "citationCount": 155,
      "authors": [
        {
          "authorId": "1403874738",
          "name": "V. Guerrero-Bote"
        },
        {
          "authorId": "2065409163",
          "name": "Carlos Olmeda-Gómez"
        },
        {
          "authorId": "1402982696",
          "name": "F. Moya-Anegón"
        }
      ]
    }
  ]
}