{
  "total": 856,
  "offset": 0,
  "next": 10,
  "data": [
    {
      "paperId": "01218257f5871297755041551f25d77fed6b4c95",
      "externalIds": {
        "MAG": "2951054530",
        "ArXiv": "1804.09217",
        "DBLP": "conf/icml/NguyenSH18",
        "CorpusId": 13747493
      },
      "url": "https://www.semanticscholar.org/paper/01218257f5871297755041551f25d77fed6b4c95",
      "title": "On Learning Sparsely Used Dictionaries from Incomplete Samples",
      "venue": "International Conference on Machine Learning",
      "year": 2018,
      "referenceCount": 36,
      "citationCount": 2,
      "authors": [
        {
          "authorId": "47523387",
          "name": "THANH VAN NGUYEN"
        },
        {
          "authorId": "39016863",
          "name": "Akshay Soni"
        },
        {
          "authorId": "144398138",
          "name": "C. Hegde"
        }
      ]
    },
    {
      "paperId": "19243af02b9591cafd9ee634ebd0d6e85905e2c5",
      "externalIds": {
        "CorpusId": 260445958
      },
      "url": "https://www.semanticscholar.org/paper/19243af02b9591cafd9ee634ebd0d6e85905e2c5",
      "title": "On Learning Sparsely Used Dictionaries from Incomplete Samples",
      "venue": "",
      "year": 2018,
      "referenceCount": 0,
      "citationCount": 0,
      "authors": []
    },
    {
      "paperId": "780f98267e6432ad96ec25bb2fd59f8e4e1ab064",
      "externalIds": {
        "MAG": "3010897250",
        "DOI": "10.1109/SampTA45681.2019.9030976",
        "CorpusId": 211144000
      },
      "url": "https://www.semanticscholar.org/paper/780f98267e6432ad96ec25bb2fd59f8e4e1ab064",
      "title": "Tractable Learning of Sparsely Used Dictionaries from Incomplete Samples",
      "venue": "International Conference on Sampling Theory and Applications",
      "year": 2019,
      "referenceCount": 12,
      "citationCount": 0,
      "authors": [
        {
          "authorId": "2117823997",
          "name": "Thanh V. Nguyen"
        },
        {
          "authorId": "39016863",
          "name": "Akshay Soni"
        },
        {
          "authorId": "144398138",
          "name": "C. Hegde"
        }
      ]
    },
    {
      "paperId": "c600f8ec071280de7b24181f215f431c5b28f5ec",
      "externalIds": {
        "MAG": "2798622371",
        "DBLP": "journals/corr/abs-1804-08603",
        "ArXiv": "1804.08603",
        "DOI": "10.1109/FOCS.2018.00035",
        "CorpusId": 5055984
      },
      "url": "https://www.semanticscholar.org/paper/c600f8ec071280de7b24181f215f431c5b28f5ec",
      "title": "Towards Learning Sparsely Used Dictionaries with Arbitrary Supports",
      "venue": "IEEE Annual Symposium on Foundations of Computer Science",
      "year": 2018,
      "referenceCount": 55,
      "citationCount": 7,
      "authors": [
        {
          "authorId": "144030228",
          "name": "Pranjal Awasthi"
        },
        {
          "authorId": "1760467",
          "name": "Aravindan Vijayaraghavan"
        }
      ]
    },
    {
      "paperId": "96f385fc5775310316a2e1a82a6b141e35a41096",
      "externalIds": {
        "DOI": "10.32985/ijeces.13.3.1",
        "CorpusId": 248307732
      },
      "url": "https://www.semanticscholar.org/paper/96f385fc5775310316a2e1a82a6b141e35a41096",
      "title": "Sparse and Incomplete Signal Dictionaries for Reconstruction of MR Images",
      "venue": "International journal of electrical and computer engineering systems",
      "year": 2022,
      "referenceCount": 0,
      "citationCount": 1,
      "authors": [
        {
          "authorId": "2163128881",
          "name": "Deepak M. Devendrappa"
        },
        {
          "authorId": "2163130704",
          "name": "Karthik Pilani"
        },
        {
          "authorId": "2163131126",
          "name": "Deepak N. Ananth"
        }
      ]
    },
    {
      "paperId": "081cc2a20a42e0b39af14a2962ae3e270e10416b",
      "externalIds": {
        "DOI": "10.1109/JBHI.2025.3576786",
        "CorpusId": 279157175,
        "PubMed": "40465445"
      },
      "url": "https://www.semanticscholar.org/paper/081cc2a20a42e0b39af14a2962ae3e270e10416b",
      "title": "Incomplete Multi-view Data Learning via Adaptive Embedding and Partial l2,1 Norm Constraints for Parkinson's Disease Diagnosis.",
      "venue": "IEEE journal of biomedical and health informatics",
      "year": 2025,
      "referenceCount": 0,
      "citationCount": 1,
      "authors": [
        {
          "authorId": "2267155193",
          "name": "Zhongwei Huang"
        },
        {
          "authorId": "2352591944",
          "name": "Kai Wang"
        },
        {
          "authorId": "2371133241",
          "name": "Chao Chen"
        },
        {
          "authorId": "2326125544",
          "name": "Jianxia Chen"
        },
        {
          "authorId": "2320730741",
          "name": "Jun Wan"
        },
        {
          "authorId": "2109538506",
          "name": "Zhi Yang"
        },
        {
          "authorId": "2353204736",
          "name": "Ran Zhou"
        },
        {
          "authorId": "2267039860",
          "name": "Haitao Gan"
        }
      ]
    },
    {
      "paperId": "6c3a6ba981f695963cfdd50771d67cfd18afb371",
      "externalIds": {
        "DBLP": "journals/corr/abs-2310-04038",
        "ArXiv": "2310.04038",
        "DOI": "10.1109/TNNLS.2023.3306006",
        "CorpusId": 261312200,
        "PubMed": "37639411"
      },
      "url": "https://www.semanticscholar.org/paper/6c3a6ba981f695963cfdd50771d67cfd18afb371",
      "title": "Joint Projection Learning and Tensor Decomposition-Based Incomplete Multiview Clustering",
      "venue": "IEEE Transactions on Neural Networks and Learning Systems",
      "year": 2023,
      "referenceCount": 66,
      "citationCount": 29,
      "authors": [
        {
          "authorId": "1381193808",
          "name": "W. Lv"
        },
        {
          "authorId": "2152738281",
          "name": "Chao Zhang"
        },
        {
          "authorId": "2201663597",
          "name": "Huaxiong Li"
        },
        {
          "authorId": "1684067",
          "name": "Xiuyi Jia"
        },
        {
          "authorId": "2109521795",
          "name": "Chunlin Chen"
        }
      ]
    },
    {
      "paperId": "57699714d92ada4a118f2bc0c0ae35e5a401425c",
      "externalIds": {
        "DBLP": "conf/cvpr/CaiafaWSZ21",
        "DOI": "10.1109/CVPRW53098.2021.00296",
        "CorpusId": 235692188
      },
      "url": "https://www.semanticscholar.org/paper/57699714d92ada4a118f2bc0c0ae35e5a401425c",
      "title": "Learning from Incomplete Features by Simultaneous Training of Neural Networks and Sparse Coding",
      "venue": "2021 IEEE/CVF Conference on Computer Vision and Pattern Recognition Workshops (CVPRW)",
      "year": 2021,
      "referenceCount": 50,
      "citationCount": 2,
      "authors": [
        {
          "authorId": "1789919",
          "name": "C. Caiafa"
        },
        {
          "authorId": null,
          "name": "Ziyao Wang"
        },
        {
          "authorId": "36785590",
          "name": "Jordi Solé-Casals"
        },
        {
          "authorId": "144251712",
          "name": "Qibin Zhao"
        }
      ]
    },
    {
      "paperId": "00ccbf77f6d3ae8494abb02c88aae830a7635588",
      "externalIds": {
        "DBLP": "journals/tcas/ZhaoW19",
        "MAG": "2918318956",
        "DOI": "10.1109/TCSII.2018.2862900",
        "CorpusId": 67871614
      },
      "url": "https://www.semanticscholar.org/paper/00ccbf77f6d3ae8494abb02c88aae830a7635588",
      "title": "Learning Separable Dictionaries for Sparse Tensor Representation: An Online Approach",
      "venue": "IEEE Transactions on Circuits and Systems - II - Express Briefs",
      "year": 2019,
      "referenceCount": 35,
      "citationCount": 12,
      "authors": [
        {
          "authorId": "3418185",
          "name": "Rongqiang Zhao"
        },
        {
          "authorId": "145747532",
          "name": "Qiang Wang"
        }
      ]
    },
    {
      "paperId": "93d70c9a626bec60b15a7f8cc33dad13b853642d",
      "externalIds": {
        "MAG": "2919641947",
        "DOI": "10.1117/12.2507210",
        "CorpusId": 86717323
      },
      "url": "https://www.semanticscholar.org/paper/93d70c9a626bec60b15a7f8cc33dad13b853642d",
      "title": "Deep learning for photoacoustic image reconstruction from incomplete data (Conference Presentation)",
      "venue": "Photons Plus Ultrasound: Imaging and Sensing 2019",
      "year": 2019,
      "referenceCount": 0,
      "citationCount": 0,
      "authors": [
        {
          "authorId": "9257711",
          "name": "A. Hauptmann"
        },
        {
          "authorId": "153821051",
          "name": "B. Cox"
        },
        {
          "authorId": "3411051",
          "name": "F. Lucka"
        },
        {
          "authorId": "2803020",
          "name": "N. Huynh"
        },
        {
          "authorId": "29892069",
          "name": "M. Betcke"
        },
        {
          "authorId": "40523747",
          "name": "J. Adler"
        },
        {
          "authorId": "3209813",
          "name": "P. Beard"
        },
        {
          "authorId": "1693952",
          "name": "S. Arridge"
        }
      ]
    }
  ]
}