{
  "total": 824071,
  "offset": 0,
  "next": 10,
  "data": [
    {
      "paperId": "bf9d62357fb1e8cdfd97b62546e424524cc92bb2",
      "externalIds": {
        "DBLP": "conf/icml/JewellSB15",
        "MAG": "1865403236",
        "CorpusId": 13635012
      },
      "url": "https://www.semanticscholar.org/paper/bf9d62357fb1e8cdfd97b62546e424524cc92bb2",
      "title": "Atomic Spatial Processes",
      "venue": "International Conference on Machine Learning",
      "year": 2015,
      "referenceCount": 24,
      "citationCount": 2,
      "authors": [
        {
          "authorId": "34547990",
          "name": "Sean W Jewell"
        },
        {
          "authorId": "90515151",
          "name": "Neil A. Spencer"
        },
        {
          "authorId": "1398531195",
          "name": "A. Bouchard-Côté"
        }
      ]
    },
    {
      "paperId": "ea30e39cf3884295cd28152f9d25f288bf0a592c",
      "externalIds": {
        "DOI": "10.1093/bulcsj/uoae082",
        "CorpusId": 271265158
      },
      "url": "https://www.semanticscholar.org/paper/ea30e39cf3884295cd28152f9d25f288bf0a592c",
      "title": "High-Speed Imaging and Quantitative Analysis of Non-Equilibrium Stochastic Processes Using Atomic-Resolution Electron Microscopy",
      "venue": "Bulletin of the Chemical Society of Japan",
      "year": 2024,
      "referenceCount": 0,
      "citationCount": 19,
      "authors": [
        {
          "authorId": "11634424",
          "name": "Takayuki Nakamuro"
        }
      ]
    },
    {
      "paperId": "4a6cfdf31a9e9299fb1634e0c2902e1ba7e5c959",
      "externalIds": {
        "MAG": "3106194809",
        "ArXiv": "1611.02158",
        "DOI": "10.1364/OE.25.000284",
        "CorpusId": 16420182,
        "PubMed": "28085822"
      },
      "url": "https://www.semanticscholar.org/paper/4a6cfdf31a9e9299fb1634e0c2902e1ba7e5c959",
      "title": "Phase matching alters spatial multiphoton processes in dense atomic ensembles.",
      "venue": "Optics Express",
      "year": 2016,
      "referenceCount": 33,
      "citationCount": 12,
      "authors": [
        {
          "authorId": "2836971",
          "name": "Adam Leszczyński"
        },
        {
          "authorId": "88727198",
          "name": "Michał Parniak"
        },
        {
          "authorId": "5524742",
          "name": "W. Wasilewski"
        }
      ]
    },
    {
      "paperId": "2c3253cb562efee52f41cdeeb62b00be53e13c3d",
      "externalIds": {
        "DOI": "10.1038/s41586-024-07479-w",
        "CorpusId": 270616721,
        "PubMed": "38898295"
      },
      "url": "https://www.semanticscholar.org/paper/2c3253cb562efee52f41cdeeb62b00be53e13c3d",
      "title": "Atomic dynamics of electrified solid–liquid interfaces in liquid-cell TEM",
      "venue": "Nature",
      "year": 2024,
      "referenceCount": 38,
      "citationCount": 129,
      "authors": [
        {
          "authorId": "2144099183",
          "name": "Qiubo Zhang"
        },
        {
          "authorId": "2191643560",
          "name": "Zhigang Song"
        },
        {
          "authorId": "1475306882",
          "name": "Xianhu Sun"
        },
        {
          "authorId": "2307435342",
          "name": "Yang Liu"
        },
        {
          "authorId": "2244312421",
          "name": "Jiawei Wan"
        },
        {
          "authorId": "13639367",
          "name": "S. Betzler"
        },
        {
          "authorId": "2224585155",
          "name": "Qi Zheng"
        },
        {
          "authorId": "2219700772",
          "name": "Junyi Shangguan"
        },
        {
          "authorId": "2251027252",
          "name": "Karen C. Bustillo"
        },
        {
          "authorId": "2252463494",
          "name": "Peter Ercius"
        },
        {
          "authorId": "49203333",
          "name": "P. Narang"
        },
        {
          "authorId": "2118109016",
          "name": "Yu Huang"
        },
        {
          "authorId": "2244580245",
          "name": "Haimei Zheng"
        }
      ]
    },
    {
      "paperId": "e135366bcb1c7566b751692c398be19f54628f13",
      "externalIds": {
        "PubMedCentral": "7518416",
        "MAG": "3088376108",
        "DOI": "10.1038/s41598-020-72564-9",
        "CorpusId": 221917672,
        "PubMed": "32973235"
      },
      "url": "https://www.semanticscholar.org/paper/e135366bcb1c7566b751692c398be19f54628f13",
      "title": "Spatial mapping of the collagen distribution in human and mouse tissues by force volume atomic force microscopy",
      "venue": "Scientific Reports",
      "year": 2020,
      "referenceCount": 71,
      "citationCount": 48,
      "authors": [
        {
          "authorId": "27944549",
          "name": "A. Calò"
        },
        {
          "authorId": "3645052",
          "name": "Y. Romin"
        },
        {
          "authorId": "2097258783",
          "name": "Rami Srouji"
        },
        {
          "authorId": "4142691",
          "name": "C. Zambirinis"
        },
        {
          "authorId": "2066085207",
          "name": "Ning Fan"
        },
        {
          "authorId": "144341195",
          "name": "A. Santella"
        },
        {
          "authorId": "1399876874",
          "name": "Elvin Feng"
        },
        {
          "authorId": "48650277",
          "name": "S. Fujisawa"
        },
        {
          "authorId": "4387157",
          "name": "M. Turkekul"
        },
        {
          "authorId": "1965968019",
          "name": "Sharon Huang"
        },
        {
          "authorId": "1723040",
          "name": "Amber L. Simpson"
        },
        {
          "authorId": "1390183074",
          "name": "M. D'Angelica"
        },
        {
          "authorId": "3060752",
          "name": "W. Jarnagin"
        },
        {
          "authorId": "1398843582",
          "name": "K. Manova-Todorova"
        }
      ]
    },
    {
      "paperId": "470e6dfe8369a49c2a6876c04a21d9a37c4892b2",
      "externalIds": {
        "MAG": "3038249887",
        "PubMedCentral": "7408533",
        "DOI": "10.3390/nano10071322",
        "CorpusId": 220405165,
        "PubMed": "32635629"
      },
      "url": "https://www.semanticscholar.org/paper/470e6dfe8369a49c2a6876c04a21d9a37c4892b2",
      "title": "Effect of Annealing Temperature on Spatial Atomic Layer Deposited Titanium Oxide and Its Application in Perovskite Solar Cells",
      "venue": "Nanomaterials",
      "year": 2020,
      "referenceCount": 64,
      "citationCount": 23,
      "authors": [
        {
          "authorId": "49674066",
          "name": "Chia‐Hsun Hsu"
        },
        {
          "authorId": "2118440561",
          "name": "Ka-Te Chen"
        },
        {
          "authorId": "116421598",
          "name": "P. Huang"
        },
        {
          "authorId": "2790249",
          "name": "Wan‐Yu Wu"
        },
        {
          "authorId": "2109107698",
          "name": "Xiaoying Zhang"
        },
        {
          "authorId": "2154931226",
          "name": "Chen Wang"
        },
        {
          "authorId": "48700102",
          "name": "Lusheng Liang"
        },
        {
          "authorId": "144579872",
          "name": "P. Gao"
        },
        {
          "authorId": "145564747",
          "name": "Y. Qiu"
        },
        {
          "authorId": "35507335",
          "name": "Shui‐Yang Lien"
        },
        {
          "authorId": "92354313",
          "name": "Zhanmin Su"
        },
        {
          "authorId": "2117099688",
          "name": "Zi-Rong Chen"
        },
        {
          "authorId": "145273960",
          "name": "W. Zhu"
        }
      ]
    },
    {
      "paperId": "8bf568eedacae43a320cd8d0039e8cbe1f4237f9",
      "externalIds": {
        "MAG": "2771363614",
        "DOI": "10.1116/1.5006781",
        "CorpusId": 103973342
      },
      "url": "https://www.semanticscholar.org/paper/8bf568eedacae43a320cd8d0039e8cbe1f4237f9",
      "title": "Atmospheric pressure plasma enhanced spatial atomic layer deposition of SnOx as conductive gas diffusion barrier",
      "venue": "",
      "year": 2018,
      "referenceCount": 36,
      "citationCount": 35,
      "authors": [
        {
          "authorId": "2258584",
          "name": "L. Hoffmann"
        },
        {
          "authorId": "46385557",
          "name": "D. Theirich"
        },
        {
          "authorId": "13036377",
          "name": "Daniel Schlamm"
        },
        {
          "authorId": "11768845",
          "name": "Tim Hasselmann"
        },
        {
          "authorId": "2055549232",
          "name": "Sven Pack"
        },
        {
          "authorId": "13384330",
          "name": "K. Brinkmann"
        },
        {
          "authorId": "9596106",
          "name": "D. Rogalla"
        },
        {
          "authorId": "47112408",
          "name": "S. Peters"
        },
        {
          "authorId": "5071288",
          "name": "André Räupke"
        },
        {
          "authorId": "4540129",
          "name": "H. Gargouri"
        },
        {
          "authorId": "144887617",
          "name": "T. Riedl"
        }
      ]
    },
    {
      "paperId": "c4d00d1ffd9d875ace6e2452b01909afab8a6756",
      "externalIds": {
        "MAG": "2558904298",
        "DOI": "10.1116/1.4971173",
        "CorpusId": 99357987
      },
      "url": "https://www.semanticscholar.org/paper/c4d00d1ffd9d875ace6e2452b01909afab8a6756",
      "title": "Alumina films as gas barrier layers grown by spatial atomic layer deposition with trimethylaluminum and different oxygen sources",
      "venue": "",
      "year": 2017,
      "referenceCount": 31,
      "citationCount": 23,
      "authors": [
        {
          "authorId": "46770486",
          "name": "Sebastian Franke"
        },
        {
          "authorId": "93459539",
          "name": "Matthias Baumkötter"
        },
        {
          "authorId": "50239893",
          "name": "Carsten Monka"
        },
        {
          "authorId": "31236724",
          "name": "Sebastian Raabe"
        },
        {
          "authorId": "4884439",
          "name": "R. Caspary"
        },
        {
          "authorId": "144775080",
          "name": "H. Johannes"
        },
        {
          "authorId": "6442443",
          "name": "W. Kowalsky"
        },
        {
          "authorId": "48157853",
          "name": "S. Beck"
        },
        {
          "authorId": "3162002",
          "name": "A. Pucci"
        },
        {
          "authorId": "4540129",
          "name": "H. Gargouri"
        }
      ]
    },
    {
      "paperId": "be19797ca6c1217102037ba12c5ced91fad51d1c",
      "externalIds": {
        "DOI": "10.1002/anie.202317969",
        "CorpusId": 266596832,
        "PubMed": "38155103"
      },
      "url": "https://www.semanticscholar.org/paper/be19797ca6c1217102037ba12c5ced91fad51d1c",
      "title": "Accelerated Photocatalytic Carbon Dioxide Reduction and Water Oxidation under Spatial Synergy.",
      "venue": "Angewandte Chemie",
      "year": 2023,
      "referenceCount": 0,
      "citationCount": 82,
      "authors": [
        {
          "authorId": "2276672002",
          "name": "Wei Wang"
        },
        {
          "authorId": "2276823135",
          "name": "Wanyi Zhang"
        },
        {
          "authorId": "2004206902",
          "name": "Chaoyuan Deng"
        },
        {
          "authorId": "2156891206",
          "name": "Hua Sheng"
        },
        {
          "authorId": "2256928651",
          "name": "Jincai Zhao"
        }
      ]
    },
    {
      "paperId": "30fa183ec35afa4952b0066589a3918a8115ce7c",
      "externalIds": {
        "MAG": "2275142597",
        "DOI": "10.1016/J.IJHEATMASSTRANSFER.2016.01.034",
        "CorpusId": 123881522
      },
      "url": "https://www.semanticscholar.org/paper/30fa183ec35afa4952b0066589a3918a8115ce7c",
      "title": "Effects of gap size, temperature and pumping pressure on the fluid dynamics and chemical kinetics of in-line spatial atomic layer deposition of Al 2 O 3",
      "venue": "",
      "year": 2016,
      "referenceCount": 24,
      "citationCount": 37,
      "authors": [
        {
          "authorId": "2082551674",
          "name": "Dongqing Pan"
        },
        {
          "authorId": "46486117",
          "name": "T. Jen"
        },
        {
          "authorId": "144617801",
          "name": "C. Yuan"
        }
      ]
    }
  ]
}