{
  "total": 15,
  "offset": 0,
  "next": 10,
  "data": [
    {
      "paperId": "a0432c81cd30d818cdd53b13dee7f79dd21c30a5",
      "externalIds": {
        "DBLP": "conf/icml/BalkanskiMKS16",
        "MAG": "2422342495",
        "CorpusId": 780889
      },
      "url": "https://www.semanticscholar.org/paper/a0432c81cd30d818cdd53b13dee7f79dd21c30a5",
      "title": "Learning Sparse Combinatorial Representations via Two-stage Submodular Maximization",
      "venue": "International Conference on Machine Learning",
      "year": 2016,
      "referenceCount": 28,
      "citationCount": 27,
      "authors": [
        {
          "authorId": "1837833",
          "name": "Eric Balkanski"
        },
        {
          "authorId": "2389094",
          "name": "Baharan Mirzasoleiman"
        },
        {
          "authorId": "145343838",
          "name": "Andreas Krause"
        },
        {
          "authorId": "1778763",
          "name": "Yaron Singer"
        }
      ]
    },
    {
      "paperId": "45628c5135b5dc4bc56a9daa5bc85b0435b7421c",
      "externalIds": {
        "DBLP": "journals/corr/abs-2506-06682",
        "ArXiv": "2506.06682",
        "DOI": "10.48550/arXiv.2506.06682",
        "CorpusId": 279251107
      },
      "url": "https://www.semanticscholar.org/paper/45628c5135b5dc4bc56a9daa5bc85b0435b7421c",
      "title": "Learning Robust Heterogeneous Graph Representations via Contrastive-Reconstruction under Sparse Semantics",
      "venue": "arXiv.org",
      "year": 2025,
      "referenceCount": 35,
      "citationCount": 0,
      "authors": [
        {
          "authorId": "2368546255",
          "name": "Di Lin"
        },
        {
          "authorId": "2366572372",
          "name": "Wanjing Ren"
        },
        {
          "authorId": "2366157877",
          "name": "Xuanbin Li"
        },
        {
          "authorId": "2366142594",
          "name": "Rui Zhang"
        }
      ]
    },
    {
      "paperId": "22b4643273398e45b25990d1e367da390ca3289f",
      "externalIds": {
        "ArXiv": "2310.01519",
        "CorpusId": 263608639
      },
      "url": "https://www.semanticscholar.org/paper/22b4643273398e45b25990d1e367da390ca3289f",
      "title": "Decision-Oriented Learning Using Differentiable Submodular Maximization for Multi-Robot Coordination",
      "venue": "",
      "year": 2023,
      "referenceCount": 28,
      "citationCount": 0,
      "authors": [
        {
          "authorId": "101315646",
          "name": "Guan-Yu Shi"
        },
        {
          "authorId": "1500528055",
          "name": "Chak Lam Shek"
        },
        {
          "authorId": "48870626",
          "name": "Nare Karapetyan"
        },
        {
          "authorId": "2390456",
          "name": "Pratap Tokekar"
        }
      ]
    },
    {
      "paperId": "5fef654ee4d881de86a35c51bf40439186c16e43",
      "externalIds": {
        "MAG": "2936585638",
        "DBLP": "journals/corr/abs-1904-08827",
        "ArXiv": "1904.08827",
        "CorpusId": 121288690
      },
      "url": "https://www.semanticscholar.org/paper/5fef654ee4d881de86a35c51bf40439186c16e43",
      "title": "Deep Residual Auto-Encoders for Expectation Maximization-based Dictionary Learning",
      "venue": "arXiv.org",
      "year": 2019,
      "referenceCount": 49,
      "citationCount": 4,
      "authors": [
        {
          "authorId": "9133504",
          "name": "Bahareh Tolooshams"
        },
        {
          "authorId": "2143933297",
          "name": "Sourav Dey"
        },
        {
          "authorId": "137243233",
          "name": "Demba E. Ba"
        }
      ]
    },
    {
      "paperId": "fb9bdd0181edb41963c277d07624dd838ebcc1f1",
      "externalIds": {
        "ArXiv": "2603.01748",
        "DBLP": "journals/corr/abs-2603-01748",
        "DOI": "10.48550/arXiv.2603.01748",
        "CorpusId": 286224664
      },
      "url": "https://www.semanticscholar.org/paper/fb9bdd0181edb41963c277d07624dd838ebcc1f1",
      "title": "Discrete World Models via Regularization",
      "venue": "arXiv.org",
      "year": 2026,
      "referenceCount": 22,
      "citationCount": 0,
      "authors": [
        {
          "authorId": "2382767568",
          "name": "Davide Bizzaro"
        },
        {
          "authorId": "2335560732",
          "name": "Luciano Serafini"
        }
      ]
    },
    {
      "paperId": "37ef4d15ae685d3ff6aabeac689934d936fac903",
      "externalIds": {
        "ArXiv": "2512.11547",
        "DBLP": "journals/corr/abs-2512-11547",
        "DOI": "10.48550/arXiv.2512.11547",
        "CorpusId": 283883253
      },
      "url": "https://www.semanticscholar.org/paper/37ef4d15ae685d3ff6aabeac689934d936fac903",
      "title": "Elastic-Net Multiple Kernel Learning: Combining Multiple Data Sources for Prediction",
      "venue": "arXiv.org",
      "year": 2025,
      "referenceCount": 20,
      "citationCount": 0,
      "authors": [
        {
          "authorId": "2333349100",
          "name": "Janaina Mourão Miranda"
        },
        {
          "authorId": "2987564",
          "name": "Zakria Hussain"
        },
        {
          "authorId": "51288865",
          "name": "K. Tsirlis"
        },
        {
          "authorId": "2286164224",
          "name": "Christophe Phillips"
        },
        {
          "authorId": "2341060897",
          "name": "John Shawe-Taylor"
        }
      ]
    },
    {
      "paperId": "60bc796c1a8bee037d7cc63e732e88c2b3574842",
      "externalIds": {
        "DBLP": "conf/icml/KrauseC10",
        "MAG": "2141552007",
        "CorpusId": 7306662
      },
      "url": "https://www.semanticscholar.org/paper/60bc796c1a8bee037d7cc63e732e88c2b3574842",
      "title": "Submodular Dictionary Selection for Sparse Representation",
      "venue": "International Conference on Machine Learning",
      "year": 2010,
      "referenceCount": 16,
      "citationCount": 138,
      "authors": [
        {
          "authorId": "145343838",
          "name": "Andreas Krause"
        },
        {
          "authorId": "1678641",
          "name": "V. Cevher"
        }
      ]
    },
    {
      "paperId": "5887180d07dec7f2160ddf269ba596e95c66f0e6",
      "externalIds": {
        "DBLP": "journals/entropy/WeiL25",
        "PubMedCentral": "12468353",
        "DOI": "10.3390/e27090921",
        "CorpusId": 281097764,
        "PubMed": "41008047"
      },
      "url": "https://www.semanticscholar.org/paper/5887180d07dec7f2160ddf269ba596e95c66f0e6",
      "title": "A Graph Contrastive Learning Method for Enhancing Genome Recovery in Complex Microbial Communities",
      "venue": "Entropy",
      "year": 2025,
      "referenceCount": 62,
      "citationCount": 2,
      "authors": [
        {
          "authorId": "2215181221",
          "name": "Guo Wei"
        },
        {
          "authorId": "2327243059",
          "name": "Yan Liu"
        }
      ]
    },
    {
      "paperId": "9343bc7babc5c86268fcf30c8c6acc4893fd5b43",
      "externalIds": {
        "PubMedCentral": "10525369",
        "DOI": "10.3390/bioengineering10091101",
        "CorpusId": 262189824,
        "PubMed": "37760203"
      },
      "url": "https://www.semanticscholar.org/paper/9343bc7babc5c86268fcf30c8c6acc4893fd5b43",
      "title": "Improved Network and Training Scheme for Cross-Trial Surface Electromyography (sEMG)-Based Gesture Recognition",
      "venue": "Bioengineering",
      "year": 2023,
      "referenceCount": 55,
      "citationCount": 8,
      "authors": [
        {
          "authorId": "151496531",
          "name": "Qingfeng Dai"
        },
        {
          "authorId": "2237988918",
          "name": "Yongkang Wong"
        },
        {
          "authorId": "2244478846",
          "name": "Mohan Kankanhali"
        },
        {
          "authorId": "2244258066",
          "name": "Xiangdong Li"
        },
        {
          "authorId": "5504255",
          "name": "Wei-dong Geng"
        }
      ]
    },
    {
      "paperId": "ffcbedb92e76fbab083bb2c57d846a2a96b5ae30",
      "externalIds": {
        "CorpusId": 264226243
      },
      "url": "https://www.semanticscholar.org/paper/ffcbedb92e76fbab083bb2c57d846a2a96b5ae30",
      "title": "Sparse Dictionary Learning and Domain Adaptation for Face and Action Recognition",
      "venue": "",
      "year": 2012,
      "referenceCount": 0,
      "citationCount": 0,
      "authors": []
    }
  ]
}