{
  "total": 7521,
  "offset": 0,
  "next": 10,
  "data": [
    {
      "paperId": "03ee500a964592b7eaaf6e387d55c0db2e7251a5",
      "externalIds": {
        "MAG": "2949840000",
        "DBLP": "conf/icml/Streeter18",
        "ArXiv": "1802.07697",
        "CorpusId": 3624835
      },
      "url": "https://www.semanticscholar.org/paper/03ee500a964592b7eaaf6e387d55c0db2e7251a5",
      "title": "Approximation Algorithms for Cascading Prediction Models",
      "venue": "International Conference on Machine Learning",
      "year": 2018,
      "referenceCount": 22,
      "citationCount": 24,
      "authors": [
        {
          "authorId": "7977819",
          "name": "Matthew J. Streeter"
        }
      ]
    },
    {
      "paperId": "1c7b11c0973b9e002b6be8cf9813d413e0c73af4",
      "externalIds": {
        "DBLP": "journals/algorithms/KorkidisD25",
        "DOI": "10.3390/a19010046",
        "CorpusId": 284568999
      },
      "url": "https://www.semanticscholar.org/paper/1c7b11c0973b9e002b6be8cf9813d413e0c73af4",
      "title": "Bayesian Optimisation and Adaptive Evolutionary Algorithms for Higher-Order Fuzzy Models with Application on Wind Speed Prediction",
      "venue": "Algorithms",
      "year": 2026,
      "referenceCount": 61,
      "citationCount": 0,
      "authors": [
        {
          "authorId": "2130209932",
          "name": "Panagiotis Korkidis"
        },
        {
          "authorId": "2243310900",
          "name": "Anastasios Dounis"
        }
      ]
    },
    {
      "paperId": "6a6c706607ff24a4868d5f16497fe0ae3d8e6859",
      "externalIds": {
        "MAG": "2829536470",
        "DBLP": "journals/tnn/GaoZWCYW19",
        "DOI": "10.1109/TNNLS.2018.2846646",
        "CorpusId": 51625695,
        "PubMed": "30004892"
      },
      "url": "https://www.semanticscholar.org/paper/6a6c706607ff24a4868d5f16497fe0ae3d8e6859",
      "title": "Dendritic Neuron Model With Effective Learning Algorithms for Classification, Approximation, and Prediction",
      "venue": "IEEE Transactions on Neural Networks and Learning Systems",
      "year": 2019,
      "referenceCount": 81,
      "citationCount": 570,
      "authors": [
        {
          "authorId": "1791190",
          "name": "Shangce Gao"
        },
        {
          "authorId": "143849611",
          "name": "Mengchu Zhou"
        },
        {
          "authorId": "2107919803",
          "name": "Yirui Wang"
        },
        {
          "authorId": "40592106",
          "name": "Jiujun Cheng"
        },
        {
          "authorId": "47618082",
          "name": "Hanaki Yachi"
        },
        {
          "authorId": "2815388",
          "name": "Jiahai Wang"
        }
      ]
    },
    {
      "paperId": "b84a2c5a43b38b8a79d2a198320b1fdea50d513f",
      "externalIds": {
        "DOI": "10.3390/lubricants12060226",
        "CorpusId": 270627237
      },
      "url": "https://www.semanticscholar.org/paper/b84a2c5a43b38b8a79d2a198320b1fdea50d513f",
      "title": "Prediction of Lubrication Performances of Vegetable Oils by Genetic Functional Approximation Algorithm",
      "venue": "Lubricants",
      "year": 2024,
      "referenceCount": 0,
      "citationCount": 5,
      "authors": [
        {
          "authorId": "2299751889",
          "name": "Jianfang Liu"
        },
        {
          "authorId": "2189303844",
          "name": "Yaoyun Zhang"
        },
        {
          "authorId": "2260439830",
          "name": "Sicheng Yang"
        },
        {
          "authorId": "2204007601",
          "name": "Chenglingzi Yi"
        },
        {
          "authorId": "2209437506",
          "name": "Ting Liu"
        },
        {
          "authorId": "2209330294",
          "name": "Rongrong Zhang"
        },
        {
          "authorId": "2260430109",
          "name": "Dan Jia"
        },
        {
          "authorId": "2276329744",
          "name": "Shuai Peng"
        },
        {
          "authorId": "2276141421",
          "name": "Qing Yang"
        }
      ]
    },
    {
      "paperId": "04165890f4969a2f1124f042de8be3d769caa705",
      "externalIds": {
        "PubMedCentral": "11618430",
        "DOI": "10.1021/acsomega.4c06139",
        "CorpusId": 274271362,
        "PubMed": "39651106"
      },
      "url": "https://www.semanticscholar.org/paper/04165890f4969a2f1124f042de8be3d769caa705",
      "title": "Machine Learning Models for Efficient Property Prediction of ABX3 Materials: A High-Throughput Approach",
      "venue": "ACS Omega",
      "year": 2024,
      "referenceCount": 45,
      "citationCount": 18,
      "authors": [
        {
          "authorId": "2303310253",
          "name": "Soundous Touati"
        },
        {
          "authorId": "93111684",
          "name": "A. Benghia"
        },
        {
          "authorId": "96986456",
          "name": "Z. Hebboul"
        },
        {
          "authorId": "51079811",
          "name": "I. Lefkaier"
        },
        {
          "authorId": "34676266",
          "name": "M. Kanoun"
        },
        {
          "authorId": "1402594967",
          "name": "S. Goumri‐Said"
        }
      ]
    },
    {
      "paperId": "b6ebe44e8c2ec8a744f9d66099fb5296b401953e",
      "externalIds": {
        "DOI": "10.3390/app13053210",
        "CorpusId": 257348678
      },
      "url": "https://www.semanticscholar.org/paper/b6ebe44e8c2ec8a744f9d66099fb5296b401953e",
      "title": "Deep Ensemble-Based Approach Using Randomized Low-Rank Approximation for Sustainable Groundwater Level Prediction",
      "venue": "Applied Sciences",
      "year": 2023,
      "referenceCount": 0,
      "citationCount": 12,
      "authors": [
        {
          "authorId": "120627994",
          "name": "Tishya Manna"
        },
        {
          "authorId": "2131249226",
          "name": "A. A"
        }
      ]
    },
    {
      "paperId": "6b806dd424daf10eebb1bc59fbd5a73a2469f824",
      "externalIds": {
        "MAG": "64543266",
        "DOI": "10.1016/B978-044452044-9/50021-5",
        "CorpusId": 115614229
      },
      "url": "https://www.semanticscholar.org/paper/6b806dd424daf10eebb1bc59fbd5a73a2469f824",
      "title": "Stochastic Approximation Algorithms for Estimation of Spatial Mixed Models",
      "venue": "",
      "year": 2007,
      "referenceCount": 52,
      "citationCount": 7,
      "authors": [
        {
          "authorId": "2149668865",
          "name": "Hong-Tu Zhu"
        },
        {
          "authorId": "2518560",
          "name": "F. Liang"
        },
        {
          "authorId": "2644289",
          "name": "M. Gu"
        },
        {
          "authorId": "3286633",
          "name": "B. Peterson"
        }
      ]
    },
    {
      "paperId": "890998d43302686cda01f12dde01f76e6b34d4e7",
      "externalIds": {
        "DOI": "10.1109/TMECH.2023.3270901",
        "CorpusId": 258666955
      },
      "url": "https://www.semanticscholar.org/paper/890998d43302686cda01f12dde01f76e6b34d4e7",
      "title": "Machinery Probabilistic Few-Shot Prognostics Considering Prediction Uncertainty",
      "venue": "IEEE/ASME transactions on mechatronics",
      "year": 2024,
      "referenceCount": 36,
      "citationCount": 19,
      "authors": [
        {
          "authorId": "143777872",
          "name": "Peng Ding"
        },
        {
          "authorId": "2814216",
          "name": "M. Jia"
        },
        {
          "authorId": "8844408",
          "name": "Yifei Ding"
        },
        {
          "authorId": "2112823555",
          "name": "Yudong Cao"
        },
        {
          "authorId": "2135242844",
          "name": "Jichao Zhuang"
        },
        {
          "authorId": "50062249",
          "name": "Xiaoli Zhao"
        }
      ]
    },
    {
      "paperId": "d7c8cf7f86a8c11671930222dfad408ed33b3089",
      "externalIds": {
        "DBLP": "conf/aistats/0017W22",
        "ArXiv": "2110.00800",
        "CorpusId": 238259151
      },
      "url": "https://www.semanticscholar.org/paper/d7c8cf7f86a8c11671930222dfad408ed33b3089",
      "title": "State Dependent Performative Prediction with Stochastic Approximation",
      "venue": "International Conference on Artificial Intelligence and Statistics",
      "year": 2021,
      "referenceCount": 39,
      "citationCount": 53,
      "authors": [
        {
          "authorId": "2146262442",
          "name": "Qiang Li"
        },
        {
          "authorId": "2627442",
          "name": "Hoi-To Wai"
        }
      ]
    },
    {
      "paperId": "1c87f8ab646f7208f13a8bff681b2fc1ff39e311",
      "externalIds": {
        "DBLP": "journals/asc/BicerD16",
        "MAG": "2414101129",
        "DOI": "10.1016/j.asoc.2016.05.038",
        "CorpusId": 71827
      },
      "url": "https://www.semanticscholar.org/paper/1c87f8ab646f7208f13a8bff681b2fc1ff39e311",
      "title": "Defect prediction for Cascading Style Sheets",
      "venue": "Applied Soft Computing",
      "year": 2016,
      "referenceCount": 45,
      "citationCount": 15,
      "authors": [
        {
          "authorId": "2372542",
          "name": "S. Biçer"
        },
        {
          "authorId": "3278786",
          "name": "B. Diri"
        }
      ]
    }
  ]
}