{
  "total": 78,
  "offset": 0,
  "next": 10,
  "data": [
    {
      "paperId": "472c3d480f6ea65e56f0e219bf3a8b4fde93b838",
      "externalIds": {
        "DBLP": "conf/icml/GuL15",
        "MAG": "1838099784",
        "CorpusId": 13368056
      },
      "url": "https://www.semanticscholar.org/paper/472c3d480f6ea65e56f0e219bf3a8b4fde93b838",
      "title": "A New Generalized Error Path Algorithm for Model Selection",
      "venue": "International Conference on Machine Learning",
      "year": 2015,
      "referenceCount": 31,
      "citationCount": 20,
      "authors": [
        {
          "authorId": "1491240128",
          "name": "Bin Gu"
        },
        {
          "authorId": "1688204",
          "name": "C. Ling"
        }
      ]
    },
    {
      "paperId": "b4f2445b778110745d3237ba3a7568b3bb8fa4b9",
      "externalIds": {
        "DBLP": "journals/ijcon/BillingsW08",
        "MAG": "2044692866",
        "DOI": "10.1080/00207170701216311",
        "CorpusId": 40086555
      },
      "url": "https://www.semanticscholar.org/paper/b4f2445b778110745d3237ba3a7568b3bb8fa4b9",
      "title": "An adaptive orthogonal search algorithm for model subset selection and non-linear system identification",
      "venue": "International Journal of Control",
      "year": 2008,
      "referenceCount": 31,
      "citationCount": 98,
      "authors": [
        {
          "authorId": "1719377",
          "name": "S. Billings"
        },
        {
          "authorId": "39486168",
          "name": "Hua-Liang Wei"
        }
      ]
    },
    {
      "paperId": "2a42c9f7090c5bd57221cb92fee2764ccf825314",
      "externalIds": {
        "DOI": "10.70891/jair.2025.080001",
        "CorpusId": 280742344
      },
      "url": "https://www.semanticscholar.org/paper/2a42c9f7090c5bd57221cb92fee2764ccf825314",
      "title": "A Large-Model-Based Dual-Stage Reasoning QA Approach with Multi-Hop Path Selection",
      "venue": "Journal of Artificial Intelligence Research",
      "year": 2025,
      "referenceCount": 0,
      "citationCount": 0,
      "authors": [
        {
          "authorId": "2409144213",
          "name": "Xiangshi Li"
        },
        {
          "authorId": "2334891927",
          "name": "Yupeng Gao"
        },
        {
          "authorId": "2327655862",
          "name": "Zhe Zhan"
        },
        {
          "authorId": "2358059606",
          "name": "Hui Liu"
        }
      ]
    },
    {
      "paperId": "6644aef2916db230042fc2c0977f103f1c22a906",
      "externalIds": {
        "DOI": "10.15587/1729-4061.2023.293682",
        "CorpusId": 266679369
      },
      "url": "https://www.semanticscholar.org/paper/6644aef2916db230042fc2c0977f103f1c22a906",
      "title": "Construction of a neural network for handwritten digits recognition based on TensorFlow library applying an error backpropagation algorithm",
      "venue": "Eastern-European Journal of Enterprise Technologies",
      "year": 2023,
      "referenceCount": 15,
      "citationCount": 2,
      "authors": [
        {
          "authorId": "2277105243",
          "name": "Tetiana Filimonova"
        },
        {
          "authorId": "2086719122",
          "name": "H. Samoylenko"
        },
        {
          "authorId": "1564561545",
          "name": "A. Selivanova"
        },
        {
          "authorId": "2266112596",
          "name": "Yurii Yurchenko"
        },
        {
          "authorId": "2277106875",
          "name": "Alexei Parashchak"
        }
      ]
    },
    {
      "paperId": "c0133c55c63612b10c0045688d362f48978c20d3",
      "externalIds": {
        "CorpusId": 17220090
      },
      "url": "https://www.semanticscholar.org/paper/c0133c55c63612b10c0045688d362f48978c20d3",
      "title": "Improved Decision Tree Induction Algorithm with Feature Selection , Cross Validation , Model Complexity and Reduced Error Pruning",
      "venue": "",
      "year": 2012,
      "referenceCount": 25,
      "citationCount": 61,
      "authors": [
        {
          "authorId": "70065065",
          "name": "A. S. Galathiya"
        },
        {
          "authorId": "2889752",
          "name": "A. Ganatra"
        },
        {
          "authorId": "3056813",
          "name": "C. Bhensdadia"
        }
      ]
    },
    {
      "paperId": "b29d619f392c8b74b327770fa2bf9191aaa133cb",
      "externalIds": {
        "ArXiv": "1906.12072",
        "CorpusId": 245634709
      },
      "url": "https://www.semanticscholar.org/paper/b29d619f392c8b74b327770fa2bf9191aaa133cb",
      "title": "Multiple Testing and Variable Selection along the path of the Least Angle Regression",
      "venue": "",
      "year": 2019,
      "referenceCount": 35,
      "citationCount": 1,
      "authors": [
        {
          "authorId": "4283756",
          "name": "Jean-marc Azais"
        },
        {
          "authorId": "2697332",
          "name": "Y. D. Castro"
        }
      ]
    },
    {
      "paperId": "b7f0162e72c158415a07e55e0e11726d64e1a7d7",
      "externalIds": {
        "DBLP": "conf/uksim/MezherA12",
        "MAG": "2036040021",
        "DOI": "10.1109/UKSim.2012.107",
        "CorpusId": 9550029
      },
      "url": "https://www.semanticscholar.org/paper/b7f0162e72c158415a07e55e0e11726d64e1a7d7",
      "title": "A New Genetic Folding Algorithm for Regression Problems",
      "venue": "2012 UKSim 14th International Conference on Computer Modelling and Simulation",
      "year": 2012,
      "referenceCount": 14,
      "citationCount": 9,
      "authors": [
        {
          "authorId": "2005191",
          "name": "Mohammad A. Mezher"
        },
        {
          "authorId": "34743435",
          "name": "M. F. Abbod"
        }
      ]
    },
    {
      "paperId": "e04d7b4432fba3ad9d65d43c90ecd22fee4335ee",
      "externalIds": {
        "DBLP": "journals/jfr/WangFM23",
        "DOI": "10.1002/rob.22165",
        "CorpusId": 257037418
      },
      "url": "https://www.semanticscholar.org/paper/e04d7b4432fba3ad9d65d43c90ecd22fee4335ee",
      "title": "Learning‐based model predictive control for improved mobile robot path following using Gaussian processes and feedback linearization",
      "venue": "J. Field Robotics",
      "year": 2023,
      "referenceCount": 33,
      "citationCount": 48,
      "authors": [
        {
          "authorId": "2146043577",
          "name": "Jie Wang"
        },
        {
          "authorId": "2325566076",
          "name": "M. Fader"
        },
        {
          "authorId": "2569639",
          "name": "J. Marshall"
        }
      ]
    },
    {
      "paperId": "2cf0881fff5b7357a28469581fa8ef9eb5504c4f",
      "externalIds": {
        "MAG": "2612340775",
        "DBLP": "journals/sac/ThomasMBSSH18",
        "ArXiv": "1611.10171",
        "DOI": "10.1007/s11222-017-9754-6",
        "CorpusId": 3292001
      },
      "url": "https://www.semanticscholar.org/paper/2cf0881fff5b7357a28469581fa8ef9eb5504c4f",
      "title": "Gradient boosting for distributional regression: faster tuning and improved variable selection via noncyclical updates",
      "venue": "Statistics and computing",
      "year": 2016,
      "referenceCount": 43,
      "citationCount": 75,
      "authors": [
        {
          "authorId": "29252434",
          "name": "Janek Thomas"
        },
        {
          "authorId": "144831678",
          "name": "A. Mayr"
        },
        {
          "authorId": "1686924",
          "name": "B. Bischl"
        },
        {
          "authorId": "144323802",
          "name": "M. Schmid"
        },
        {
          "authorId": "2109353087",
          "name": "Adam Smith"
        },
        {
          "authorId": "1794782",
          "name": "B. Hofner"
        }
      ]
    },
    {
      "paperId": "875ac914c666667839ae87158e6249f711eb75cb",
      "externalIds": {
        "ArXiv": "1811.05096",
        "MAG": "2900848434",
        "CorpusId": 119436523
      },
      "url": "https://www.semanticscholar.org/paper/875ac914c666667839ae87158e6249f711eb75cb",
      "title": "Treating Wavefront Measurement Error in Estimation of Non-Common Path Aberration for Direct Imaging of Exoplanets",
      "venue": "",
      "year": 2018,
      "referenceCount": 24,
      "citationCount": 2,
      "authors": [
        {
          "authorId": "1769289",
          "name": "R. Frazin"
        }
      ]
    }
  ]
}