{
  "total": 533,
  "offset": 0,
  "next": 10,
  "data": [
    {
      "paperId": "9f431888e180883738a351cde48e0f492976b834",
      "externalIds": {
        "MAG": "2804252004",
        "DBLP": "conf/icml/KangP18",
        "CorpusId": 51878759
      },
      "url": "https://www.semanticscholar.org/paper/9f431888e180883738a351cde48e0f492976b834",
      "title": "Improving Sign Random Projections With Additional Information",
      "venue": "International Conference on Machine Learning",
      "year": 2018,
      "referenceCount": 16,
      "citationCount": 8,
      "authors": [
        {
          "authorId": "3246258",
          "name": "Keegan Kang"
        },
        {
          "authorId": "51136074",
          "name": "Wong Wei Pin"
        }
      ]
    },
    {
      "paperId": "8568884eb35ef18b2896a4ae2a82264b0918d2f9",
      "externalIds": {
        "DBLP": "journals/corr/abs-2306-01751",
        "ArXiv": "2306.01751",
        "DOI": "10.48550/arXiv.2306.01751",
        "CorpusId": 259075357
      },
      "url": "https://www.semanticscholar.org/paper/8568884eb35ef18b2896a4ae2a82264b0918d2f9",
      "title": "Differential Privacy with Random Projections and Sign Random Projections",
      "venue": "arXiv.org",
      "year": 2023,
      "referenceCount": 99,
      "citationCount": 11,
      "authors": [
        {
          "authorId": "2420746",
          "name": "P. Li"
        },
        {
          "authorId": "2141762434",
          "name": "Xiaoyun Li"
        }
      ]
    },
    {
      "paperId": "4a66c1694c2d8c0fa95e6b35e624193cf110b521",
      "externalIds": {
        "DBLP": "journals/access/LiKLK20",
        "MAG": "3021570911",
        "DOI": "10.1109/ACCESS.2020.2990422",
        "CorpusId": 218564435
      },
      "url": "https://www.semanticscholar.org/paper/4a66c1694c2d8c0fa95e6b35e624193cf110b521",
      "title": "Improving Random Projections With Extra Vectors to Approximate Inner Products",
      "venue": "IEEE Access",
      "year": 2020,
      "referenceCount": 31,
      "citationCount": 5,
      "authors": [
        {
          "authorId": "152998843",
          "name": "Yulong Li"
        },
        {
          "authorId": "2043262431",
          "name": "Zhihao Kuang"
        },
        {
          "authorId": "3893083",
          "name": "Jiang Li"
        },
        {
          "authorId": "3246258",
          "name": "Keegan Kang"
        }
      ]
    },
    {
      "paperId": "6978ccf6401810b7b82dcfe893c9196aa54e91c7",
      "externalIds": {
        "DOI": "10.51244/ijrsi.2025.120800344",
        "CorpusId": 282089510
      },
      "url": "https://www.semanticscholar.org/paper/6978ccf6401810b7b82dcfe893c9196aa54e91c7",
      "title": "QR-Specialized Information Guidance Nexus (QR-SIGN): Enhancing OTC Medication knowledge and Adherence of the Deaf Community",
      "venue": "International journal of research and scientific innovation",
      "year": 2025,
      "referenceCount": 0,
      "citationCount": 0,
      "authors": [
        {
          "authorId": "2385702086",
          "name": "Adolf D. Amoloria"
        },
        {
          "authorId": "2385702083",
          "name": "Jewel Lyre V. Ebon"
        },
        {
          "authorId": "2266318649",
          "name": "D. French"
        },
        {
          "authorId": "2385696498",
          "name": "Katrina Mae C. Jereme"
        },
        {
          "authorId": "2385699518",
          "name": "Apple Jane Siroy"
        }
      ]
    },
    {
      "paperId": "c0b736c753d7471d38048fb76fe328a41495b2ea",
      "externalIds": {
        "DBLP": "journals/corr/abs-1805-00533",
        "MAG": "2951148350",
        "ArXiv": "1805.00533",
        "DOI": "10.1609/aaai.v33i01.33014205",
        "CorpusId": 13746841
      },
      "url": "https://www.semanticscholar.org/paper/c0b736c753d7471d38048fb76fe328a41495b2ea",
      "title": "Sign-Full Random Projections",
      "venue": "AAAI Conference on Artificial Intelligence",
      "year": 2018,
      "referenceCount": 23,
      "citationCount": 20,
      "authors": [
        {
          "authorId": "144785135",
          "name": "Ping Li"
        }
      ]
    },
    {
      "paperId": "ea8b172f68b797b48e65785b0131d2d45bcb638a",
      "externalIds": {
        "DOI": "10.1215/00703370-12530362",
        "CorpusId": 287475599
      },
      "url": "https://www.semanticscholar.org/paper/ea8b172f68b797b48e65785b0131d2d45bcb638a",
      "title": "Can Incorporating Parity Information Improve the Reliability of Completed Cohort Fertility Projections? Insights From a Bayesian Generalized Additive Model Approach",
      "venue": "Demography",
      "year": 2026,
      "referenceCount": 0,
      "citationCount": 0,
      "authors": [
        {
          "authorId": "144343318",
          "name": "Joann Ellison"
        },
        {
          "authorId": "2304266222",
          "name": "Jakub Bijak"
        },
        {
          "authorId": "145822515",
          "name": "Erengul Dodd"
        }
      ]
    },
    {
      "paperId": "328806b544cec1d424081427304f5d216a9b890d",
      "externalIds": {
        "DOI": "10.1109/ICUIS67429.2025.11380303",
        "CorpusId": 285553143
      },
      "url": "https://www.semanticscholar.org/paper/328806b544cec1d424081427304f5d216a9b890d",
      "title": "Improving Heart Disease Prediction using Hybrid K-Means Clustering and Machine Learning Ensembles",
      "venue": "2025 5th International Conference on Ubiquitous Computing and Intelligent Information Systems (ICUIS)",
      "year": 2025,
      "referenceCount": 14,
      "citationCount": 0,
      "authors": [
        {
          "authorId": "2410513614",
          "name": "Krishna Nukala"
        },
        {
          "authorId": "2410514586",
          "name": "Sivvayalamarthi"
        },
        {
          "authorId": "2410518251",
          "name": "Dadinaboina A. K.Rao"
        },
        {
          "authorId": "2410514289",
          "name": "Shilpa Adla"
        },
        {
          "authorId": "2410515592",
          "name": "Hemanth Reddy Manasani"
        },
        {
          "authorId": "2360798224",
          "name": "N. Nagasoudhamani"
        }
      ]
    },
    {
      "paperId": "308647f22e3f1c80b7416b3c53fd56f9abfa904f",
      "externalIds": {
        "MAG": "2108059628",
        "DBLP": "conf/iccvw/SalaheldinME13",
        "DOI": "10.1109/ICCVW.2013.21",
        "CorpusId": 11568405
      },
      "url": "https://www.semanticscholar.org/paper/308647f22e3f1c80b7416b3c53fd56f9abfa904f",
      "title": "Robust Real-Time Tracking with Diverse Ensembles and Random Projections",
      "venue": "2013 IEEE International Conference on Computer Vision Workshops",
      "year": 2013,
      "referenceCount": 38,
      "citationCount": 16,
      "authors": [
        {
          "authorId": "2231394",
          "name": "A. Salaheldin"
        },
        {
          "authorId": "153420479",
          "name": "Sara Maher"
        },
        {
          "authorId": "1702711",
          "name": "M. Elhelw"
        }
      ]
    },
    {
      "paperId": "17460ff21c46c8f4811a271cb655a93443a86d72",
      "externalIds": {
        "DOI": "10.1080/15389588.2023.2250494",
        "CorpusId": 253756269,
        "PubMed": "37676065"
      },
      "url": "https://www.semanticscholar.org/paper/17460ff21c46c8f4811a271cb655a93443a86d72",
      "title": "How supplementary sign features can improve traffic safety among motorcyclists? The effect of capitalization and information length on road sign comprehension",
      "venue": "Traffic Injury Prevention",
      "year": 2023,
      "referenceCount": 65,
      "citationCount": 2,
      "authors": [
        {
          "authorId": "72314193",
          "name": "Dewi Maulina"
        },
        {
          "authorId": "1453758107",
          "name": "D. Y. Irwanda"
        },
        {
          "authorId": "2185985344",
          "name": "Shabrina Audinia"
        },
        {
          "authorId": "2191699622",
          "name": "Satwika Parama Nandini"
        },
        {
          "authorId": "118968909",
          "name": "D. Indirasari"
        }
      ]
    },
    {
      "paperId": "6682f1dd5faed57202e467cf4f03de56056638cb",
      "externalIds": {
        "DBLP": "conf/kdd/Kaban15",
        "MAG": "2060094367",
        "DOI": "10.1145/2783258.2783364",
        "CorpusId": 17534942
      },
      "url": "https://www.semanticscholar.org/paper/6682f1dd5faed57202e467cf4f03de56056638cb",
      "title": "Improved Bounds on the Dot Product under Random Projection and Random Sign Projection",
      "venue": "Knowledge Discovery and Data Mining",
      "year": 2015,
      "referenceCount": 42,
      "citationCount": 41,
      "authors": [
        {
          "authorId": "144191547",
          "name": "A. Kabán"
        }
      ]
    }
  ]
}