{
  "total": 936,
  "offset": 0,
  "next": 10,
  "data": [
    {
      "paperId": "098388c08ef7d23ab583819b793b0057c0396dc8",
      "externalIds": {
        "DBLP": "conf/icml/UbaruMS15",
        "MAG": "1870871427",
        "CorpusId": 7369990
      },
      "url": "https://www.semanticscholar.org/paper/098388c08ef7d23ab583819b793b0057c0396dc8",
      "title": "Low Rank Approximation using Error Correcting Coding Matrices",
      "venue": "International Conference on Machine Learning",
      "year": 2015,
      "referenceCount": 36,
      "citationCount": 12,
      "authors": [
        {
          "authorId": "2855794",
          "name": "Shashanka Ubaru"
        },
        {
          "authorId": "143764713",
          "name": "A. Mazumdar"
        },
        {
          "authorId": "1765199",
          "name": "Y. Saad"
        }
      ]
    },
    {
      "paperId": "b7dc15efe71d39dc27976f5c4d2e7a59445c5322",
      "externalIds": {
        "MAG": "3106046840",
        "ArXiv": "1512.09156",
        "DBLP": "journals/tit/UbaruMS17",
        "DOI": "10.1109/TIT.2017.2723898",
        "CorpusId": 1814892
      },
      "url": "https://www.semanticscholar.org/paper/b7dc15efe71d39dc27976f5c4d2e7a59445c5322",
      "title": "Low Rank Approximation and Decomposition of Large Matrices Using Error Correcting Codes",
      "venue": "IEEE Transactions on Information Theory",
      "year": 2015,
      "referenceCount": 61,
      "citationCount": 11,
      "authors": [
        {
          "authorId": "2855794",
          "name": "Shashanka Ubaru"
        },
        {
          "authorId": "143764713",
          "name": "A. Mazumdar"
        },
        {
          "authorId": "1765199",
          "name": "Y. Saad"
        }
      ]
    },
    {
      "paperId": "c5c6e40fd9e4272099d89e9f6e83246a5c2f086b",
      "externalIds": {
        "DOI": "10.54254/2753-8818/39/20240629",
        "CorpusId": 272159040
      },
      "url": "https://www.semanticscholar.org/paper/c5c6e40fd9e4272099d89e9f6e83246a5c2f086b",
      "title": "Fast audio signal denoising with low-rank approximation using windowed singular value decomposition of frequency division",
      "venue": "Theoretical and Natural Science",
      "year": 2024,
      "referenceCount": 0,
      "citationCount": 1,
      "authors": [
        {
          "authorId": "2318249128",
          "name": "Tieyun Li"
        }
      ]
    },
    {
      "paperId": "43cfc6e8aef76bccc07e0eb7037ea513cabe7731",
      "externalIds": {
        "DBLP": "journals/access/KwonP24",
        "DOI": "10.1109/ACCESS.2023.3347928",
        "CorpusId": 266645689
      },
      "url": "https://www.semanticscholar.org/paper/43cfc6e8aef76bccc07e0eb7037ea513cabe7731",
      "title": "Data Dissemination Framework Using Low-Rank Approximation in Edge Networks",
      "venue": "IEEE Access",
      "year": 2024,
      "referenceCount": 44,
      "citationCount": 1,
      "authors": [
        {
          "authorId": "9132284",
          "name": "Jungmin Kwon"
        },
        {
          "authorId": "2276844547",
          "name": "Hyunggon Park"
        }
      ]
    },
    {
      "paperId": "475d15325a1c2332427a1cc3300feb2837eecf75",
      "externalIds": {
        "DBLP": "journals/corr/abs-2509-14017",
        "ArXiv": "2509.14017",
        "DOI": "10.48550/arXiv.2509.14017",
        "CorpusId": 281332868
      },
      "url": "https://www.semanticscholar.org/paper/475d15325a1c2332427a1cc3300feb2837eecf75",
      "title": "Low-rank approximation of analytic kernels",
      "venue": "arXiv.org",
      "year": 2025,
      "referenceCount": 33,
      "citationCount": 0,
      "authors": [
        {
          "authorId": "2308361312",
          "name": "Marcus Webb"
        }
      ]
    },
    {
      "paperId": "3bfc9b3bb41ca97a8b534368749eb31ad19504f3",
      "externalIds": {
        "DBLP": "conf/nips/Modell24",
        "ArXiv": "2405.14494",
        "DOI": "10.48550/arXiv.2405.14494",
        "CorpusId": 269982857
      },
      "url": "https://www.semanticscholar.org/paper/3bfc9b3bb41ca97a8b534368749eb31ad19504f3",
      "title": "Entrywise error bounds for low-rank approximations of kernel matrices",
      "venue": "Neural Information Processing Systems",
      "year": 2024,
      "referenceCount": 107,
      "citationCount": 0,
      "authors": [
        {
          "authorId": "2364751279",
          "name": "Alexander Modell"
        }
      ]
    },
    {
      "paperId": "9efcffb8ceeff836a8ce417dbf71fa5fa9dd4b5f",
      "externalIds": {
        "DBLP": "journals/corr/abs-2601-11152",
        "ArXiv": "2601.11152",
        "DOI": "10.48550/arXiv.2601.11152",
        "CorpusId": 284860413
      },
      "url": "https://www.semanticscholar.org/paper/9efcffb8ceeff836a8ce417dbf71fa5fa9dd4b5f",
      "title": "An efficient solver based on low-rank approximation and Neumann matrix series for unsteady diffusion-type partial differential equations with random coefficients",
      "venue": "arXiv.org",
      "year": 2026,
      "referenceCount": 64,
      "citationCount": 0,
      "authors": [
        {
          "authorId": "2260364656",
          "name": "Yujun Zhu"
        },
        {
          "authorId": "2276454004",
          "name": "Min Li"
        },
        {
          "authorId": "2375140702",
          "name": "Yulan Ning"
        },
        {
          "authorId": "2260340424",
          "name": "Ju Ming"
        }
      ]
    },
    {
      "paperId": "cb34633c68e254907e9f8329cea710c9397cf76f",
      "externalIds": {
        "ArXiv": "2511.21418",
        "DBLP": "journals/corr/abs-2511-21418",
        "DOI": "10.48550/arXiv.2511.21418",
        "CorpusId": 283262472
      },
      "url": "https://www.semanticscholar.org/paper/cb34633c68e254907e9f8329cea710c9397cf76f",
      "title": "Sublinear Time Low-Rank Approximation of Hankel Matrices",
      "venue": "arXiv.org",
      "year": 2025,
      "referenceCount": 0,
      "citationCount": 1,
      "authors": [
        {
          "authorId": "143998907",
          "name": "Michael Kapralov"
        },
        {
          "authorId": "2032038",
          "name": "Cameron Musco"
        },
        {
          "authorId": "39827109",
          "name": "K. Sheth"
        }
      ]
    },
    {
      "paperId": "173b2389cba68831fe4bde289fb365bb2900c685",
      "externalIds": {
        "DBLP": "conf/soda/MuscoS24",
        "ArXiv": "2404.13757",
        "DOI": "10.1137/1.9781611977912.183",
        "CorpusId": 268988057
      },
      "url": "https://www.semanticscholar.org/paper/173b2389cba68831fe4bde289fb365bb2900c685",
      "title": "Sublinear Time Low-Rank Approximation of Toeplitz Matrices",
      "venue": "ACM-SIAM Symposium on Discrete Algorithms",
      "year": 2024,
      "referenceCount": 59,
      "citationCount": 3,
      "authors": [
        {
          "authorId": "2032038",
          "name": "Cameron Musco"
        },
        {
          "authorId": "39827109",
          "name": "K. Sheth"
        }
      ]
    },
    {
      "paperId": "ec497aa0bd92019a0a5d409b0024e9fd7d14bf15",
      "externalIds": {
        "ArXiv": "2511.08875",
        "CorpusId": 285872465
      },
      "url": "https://www.semanticscholar.org/paper/ec497aa0bd92019a0a5d409b0024e9fd7d14bf15",
      "title": "New perturbation bounds for low rank approximation of matrices: Beyond Eckart-Young-Mirsky",
      "venue": "",
      "year": 2025,
      "referenceCount": 68,
      "citationCount": 1,
      "authors": [
        {
          "authorId": "2388824453",
          "name": "Phuc Tran"
        },
        {
          "authorId": "2264012630",
          "name": "V. Vu"
        }
      ]
    }
  ]
}