{
  "total": 1028,
  "offset": 0,
  "next": 10,
  "data": [
    {
      "paperId": "004478d1d3cc55c16e1e483e4c6ddef03a862652",
      "externalIds": {
        "DBLP": "conf/icml/VojnovicY16",
        "MAG": "2428618018",
        "CorpusId": 1631404
      },
      "url": "https://www.semanticscholar.org/paper/004478d1d3cc55c16e1e483e4c6ddef03a862652",
      "title": "Parameter Estimation for Generalized Thurstone Choice Models",
      "venue": "International Conference on Machine Learning",
      "year": 2016,
      "referenceCount": 21,
      "citationCount": 25,
      "authors": [
        {
          "authorId": "1782150",
          "name": "M. Vojnović"
        },
        {
          "authorId": "145317736",
          "name": "Seyoung Yun"
        }
      ]
    },
    {
      "paperId": "e4fd95772e3a0084ef110d0011802110ab5f93e7",
      "externalIds": {
        "ArXiv": "2512.02912",
        "DBLP": "conf/icml/MakurS25",
        "DOI": "10.48550/arXiv.2512.02912",
        "CorpusId": 276245937
      },
      "url": "https://www.semanticscholar.org/paper/e4fd95772e3a0084ef110d0011802110ab5f93e7",
      "title": "Hypothesis Testing for Generalized Thurstone Models",
      "venue": "International Conference on Machine Learning",
      "year": 2025,
      "referenceCount": 71,
      "citationCount": 3,
      "authors": [
        {
          "authorId": "1730868",
          "name": "A. Makur"
        },
        {
          "authorId": "72137294",
          "name": "Japneet Singh"
        }
      ]
    },
    {
      "paperId": "c531c333b7eea6d6d5508705348957e3683b184b",
      "externalIds": {
        "PubMedCentral": "12805200",
        "DOI": "10.1017/psy.2025.10054",
        "CorpusId": 282990678,
        "PubMed": "41230633"
      },
      "url": "https://www.semanticscholar.org/paper/c531c333b7eea6d6d5508705348957e3683b184b",
      "title": "Multidimensional Generalized Partial Preference Model for Forced-Choice Items",
      "venue": "Psychometrika",
      "year": 2025,
      "referenceCount": 68,
      "citationCount": 0,
      "authors": [
        {
          "authorId": "2400644",
          "name": "Daniel Furr"
        },
        {
          "authorId": "2264099170",
          "name": "Jianbin Fu"
        }
      ]
    },
    {
      "paperId": "48488e24d4bbca0f40ee1c0461aa8c5ebf92a6d2",
      "externalIds": {
        "MAG": "2611513917",
        "ArXiv": "1705.00136",
        "DOI": "10.2172/1353026",
        "CorpusId": 88524113
      },
      "url": "https://www.semanticscholar.org/paper/48488e24d4bbca0f40ee1c0461aa8c5ebf92a6d2",
      "title": "Parameter Estimation for Thurstone Choice Models",
      "venue": "",
      "year": 2017,
      "referenceCount": 33,
      "citationCount": 5,
      "authors": [
        {
          "authorId": "1782150",
          "name": "M. Vojnović"
        },
        {
          "authorId": "145317736",
          "name": "Seyoung Yun"
        }
      ]
    },
    {
      "paperId": "3a43a43b76aa1c4b191067fb83369af2634a590b",
      "externalIds": {
        "DOI": "10.3102/10769986251369151",
        "CorpusId": 281377598
      },
      "url": "https://www.semanticscholar.org/paper/3a43a43b76aa1c4b191067fb83369af2634a590b",
      "title": "A Generalized Forced-Choice Diagnostic Classification Model Based on Thurstone’s Law of Comparative Judgment in Noncognitive Test: Theory and Application",
      "venue": "Journal of educational and behavioral statistics",
      "year": 2025,
      "referenceCount": 51,
      "citationCount": 0,
      "authors": [
        {
          "authorId": "2335670744",
          "name": "Yi-An Zhu"
        },
        {
          "authorId": "2204730707",
          "name": "Qin Wang"
        },
        {
          "authorId": "30366143",
          "name": "Daxun Wang"
        },
        {
          "authorId": "47182267",
          "name": "Yan Cai"
        },
        {
          "authorId": "26602983",
          "name": "Dongbo Tu"
        }
      ]
    },
    {
      "paperId": "870b67202699a1be1868bf6f2fce62ba01c50ba8",
      "externalIds": {
        "DOI": "10.1111/bmsp.12364",
        "CorpusId": 274303665,
        "PubMed": "39601492"
      },
      "url": "https://www.semanticscholar.org/paper/870b67202699a1be1868bf6f2fce62ba01c50ba8",
      "title": "Statistical foundations of person parameter estimation in the Thurstonian IRT model for forced-choice and pairwise comparison designs.",
      "venue": "British Journal of Mathematical & Statistical Psychology",
      "year": 2024,
      "referenceCount": 30,
      "citationCount": 1,
      "authors": [
        {
          "authorId": "72731840",
          "name": "S. Yousfi"
        }
      ]
    },
    {
      "paperId": "7197471a290f24508948a1798d990a43bb0a6975",
      "externalIds": {
        "ArXiv": "2511.02701",
        "DOI": "10.3982/QE2281",
        "CorpusId": 27429714
      },
      "url": "https://www.semanticscholar.org/paper/7197471a290f24508948a1798d990a43bb0a6975",
      "title": "Identification and estimation of continuous‐time dynamic discrete choice games",
      "venue": "Quantitative Economics",
      "year": 2025,
      "referenceCount": 82,
      "citationCount": 4,
      "authors": [
        {
          "authorId": "2244807935",
          "name": "Jason R. Blevins"
        }
      ]
    },
    {
      "paperId": "7e290730ecc903fa4df1e1b37d31122cf27a5b97",
      "externalIds": {
        "DOI": "10.1080/03610926.2025.2516083",
        "CorpusId": 279538315
      },
      "url": "https://www.semanticscholar.org/paper/7e290730ecc903fa4df1e1b37d31122cf27a5b97",
      "title": "Estimation for the coefficient of variation in Gamma distribution: A generalized confidence interval approach with applications to PM2.5 dispersion measurement",
      "venue": "Communications in Statistics - Theory and Methods",
      "year": 2025,
      "referenceCount": 28,
      "citationCount": 0,
      "authors": [
        {
          "authorId": "51340254",
          "name": "J. Chumnaul"
        }
      ]
    },
    {
      "paperId": "e6cda0ebaeb5ebf55b61646ffb7124e00ffaa3cf",
      "externalIds": {
        "DOI": "10.37905/jjom.v8i1.36518",
        "CorpusId": 286220730
      },
      "url": "https://www.semanticscholar.org/paper/e6cda0ebaeb5ebf55b61646ffb7124e00ffaa3cf",
      "title": "Parameter Estimation of Generalized Modified Weibull Using the Maximum Likelihood on Simulation and Real-World Data",
      "venue": "Jambura Journal of Mathematics",
      "year": 2026,
      "referenceCount": 0,
      "citationCount": 0,
      "authors": [
        {
          "authorId": "2097077376",
          "name": "Muhammad Luthfi Setiarno Putera"
        },
        {
          "authorId": "52064526",
          "name": "Purhadi Purhadi"
        }
      ]
    },
    {
      "paperId": "09e2703f40dc9b939b1205567c94af9cff7162c0",
      "externalIds": {
        "DBLP": "journals/corr/abs-2305-04341",
        "ArXiv": "2305.04341",
        "DOI": "10.1002/env.2845",
        "CorpusId": 258556901
      },
      "url": "https://www.semanticscholar.org/paper/09e2703f40dc9b939b1205567c94af9cff7162c0",
      "title": "Fast parameter estimation of generalized extreme value distribution using neural networks",
      "venue": "Environmetrics",
      "year": 2023,
      "referenceCount": 65,
      "citationCount": 16,
      "authors": [
        {
          "authorId": "2070806677",
          "name": "Sweta Rai"
        },
        {
          "authorId": "12286199",
          "name": "Alexis L Hoffman"
        },
        {
          "authorId": "39877807",
          "name": "S. Lahiri"
        },
        {
          "authorId": "1751657",
          "name": "D. Nychka"
        },
        {
          "authorId": "2246552",
          "name": "S. Sain"
        },
        {
          "authorId": "1746762",
          "name": "S. Bandyopadhyay"
        }
      ]
    }
  ]
}