{
  "total": 28,
  "offset": 0,
  "next": 10,
  "data": [
    {
      "paperId": "9e135a42b4c6be1f486c3ec67d3a4bd8e3bc50e4",
      "externalIds": {
        "MAG": "2803547033",
        "DBLP": "conf/icml/HoPW18",
        "CorpusId": 49275713
      },
      "url": "https://www.semanticscholar.org/paper/9e135a42b4c6be1f486c3ec67d3a4bd8e3bc50e4",
      "title": "Fast Bellman Updates for Robust MDPs",
      "venue": "International Conference on Machine Learning",
      "year": 2018,
      "referenceCount": 29,
      "citationCount": 71,
      "authors": [
        {
          "authorId": "20780816",
          "name": "C. Ho"
        },
        {
          "authorId": "145630605",
          "name": "Marek Petrik"
        },
        {
          "authorId": "7425260",
          "name": "W. Wiesemann"
        }
      ]
    },
    {
      "paperId": "fb4cf6e7fc20a6ce1933e92babe1e4b88f7c8d94",
      "externalIds": {
        "DBLP": "conf/nips/YuDXGH23",
        "DOI": "10.52202/075280-1332",
        "CorpusId": 268042028
      },
      "url": "https://www.semanticscholar.org/paper/fb4cf6e7fc20a6ce1933e92babe1e4b88f7c8d94",
      "title": "Fast Bellman Updates for Wasserstein Distributionally Robust MDPs",
      "venue": "Neural Information Processing Systems",
      "year": 2023,
      "referenceCount": 56,
      "citationCount": 12,
      "authors": [
        {
          "authorId": "2288041321",
          "name": "Zhuodong Yu"
        },
        {
          "authorId": "2410546991",
          "name": "Ling Dai"
        },
        {
          "authorId": "2291994054",
          "name": "Shaohang Xu"
        },
        {
          "authorId": "2288100694",
          "name": "Siyang Gao"
        },
        {
          "authorId": "2237090810",
          "name": "Chin Pang Ho"
        }
      ]
    },
    {
      "paperId": "62dfce78c714d01a6b977302fef40dbff70be64f",
      "externalIds": {
        "CorpusId": 245011121
      },
      "url": "https://www.semanticscholar.org/paper/62dfce78c714d01a6b977302fef40dbff70be64f",
      "title": "Fast Algorithms for L ∞ -Constrained S-Rectangular Robust MDPs",
      "venue": "",
      "year": 2021,
      "referenceCount": 27,
      "citationCount": 25,
      "authors": [
        {
          "authorId": "1850047",
          "name": "Bahram Behzadian"
        }
      ]
    },
    {
      "paperId": "948c760e66f24a24a94728fb1cf9e5f9d1ed61b1",
      "externalIds": {
        "ArXiv": "2205.14202",
        "CorpusId": 250352686
      },
      "url": "https://www.semanticscholar.org/paper/948c760e66f24a24a94728fb1cf9e5f9d1ed61b1",
      "title": "Robust Phi-Divergence MDPs",
      "venue": "",
      "year": 2022,
      "referenceCount": 72,
      "citationCount": 1,
      "authors": [
        {
          "authorId": "20780816",
          "name": "C. Ho"
        },
        {
          "authorId": "2070607702",
          "name": "Marek Petrik"
        },
        {
          "authorId": "144962618",
          "name": "Wolf Wiesemann"
        }
      ]
    },
    {
      "paperId": "b19e04cd37ba0623dd406d51e6930ef4c1ee4f40",
      "externalIds": {
        "DOI": "10.1109/ICRAS65818.2025.11108832",
        "CorpusId": 280695399
      },
      "url": "https://www.semanticscholar.org/paper/b19e04cd37ba0623dd406d51e6930ef4c1ee4f40",
      "title": "Fuzzy Q-Learning with Fuzzified Bellman Equation for Unmanned Ground Vehicle Navigation",
      "venue": "2025 9th International Conference on Robotics and Automation Sciences (ICRAS)",
      "year": 2025,
      "referenceCount": 11,
      "citationCount": 1,
      "authors": [
        {
          "authorId": "2332800245",
          "name": "Mohsen Jalaeian Farimani"
        },
        {
          "authorId": "2376343364",
          "name": "Davoud Nikkhouy"
        },
        {
          "authorId": "2376342944",
          "name": "Mahshad Rastegarmoghaddam"
        },
        {
          "authorId": "2370313056",
          "name": "Shima Samadzadeh"
        },
        {
          "authorId": "2689404",
          "name": "Saeed Mozaffari"
        },
        {
          "authorId": "2462355",
          "name": "S. Alirezaee"
        }
      ]
    },
    {
      "paperId": "8d67b4510301c606f8eafbaaf823692f5b5c65b7",
      "externalIds": {
        "ArXiv": "2312.05547",
        "DBLP": "conf/l4dc/OhnishiAXM024",
        "DOI": "10.48550/arXiv.2312.05547",
        "CorpusId": 266163019
      },
      "url": "https://www.semanticscholar.org/paper/8d67b4510301c606f8eafbaaf823692f5b5c65b7",
      "title": "Signatures Meet Dynamic Programming: Generalizing Bellman Equations for Trajectory Following",
      "venue": "Conference on Learning for Dynamics & Control",
      "year": 2023,
      "referenceCount": 63,
      "citationCount": 4,
      "authors": [
        {
          "authorId": "27243803",
          "name": "Motoya Ohnishi"
        },
        {
          "authorId": "2856639",
          "name": "Iretiayo Akinola"
        },
        {
          "authorId": "2273556820",
          "name": "Jie Xu"
        },
        {
          "authorId": "49686756",
          "name": "A. Mandlekar"
        },
        {
          "authorId": "2273548229",
          "name": "Fabio Ramos"
        }
      ]
    },
    {
      "paperId": "9b5f0f5d856d27b976338ef30f2d93324d827197",
      "externalIds": {
        "DBLP": "conf/icml/KumarWLM24",
        "CorpusId": 271066061
      },
      "url": "https://www.semanticscholar.org/paper/9b5f0f5d856d27b976338ef30f2d93324d827197",
      "title": "Efficient Value Iteration for s-rectangular Robust Markov Decision Processes",
      "venue": "International Conference on Machine Learning",
      "year": 2024,
      "referenceCount": 37,
      "citationCount": 4,
      "authors": [
        {
          "authorId": "2116961091",
          "name": "Navdeep Kumar"
        },
        {
          "authorId": "2283624439",
          "name": "Kaixin Wang"
        },
        {
          "authorId": "2886057",
          "name": "K. Levy"
        },
        {
          "authorId": "49185899",
          "name": "Shie Mannor"
        }
      ]
    },
    {
      "paperId": "db4b49f27bfd0506917720f9ab3ed4bc850fc6ec",
      "externalIds": {
        "DBLP": "journals/corr/abs-2006-09484",
        "MAG": "3036165382",
        "ArXiv": "2006.09484",
        "CorpusId": 219720996
      },
      "url": "https://www.semanticscholar.org/paper/db4b49f27bfd0506917720f9ab3ed4bc850fc6ec",
      "title": "Partial Policy Iteration for L1-Robust Markov Decision Processes",
      "venue": "Journal of machine learning research",
      "year": 2020,
      "referenceCount": 58,
      "citationCount": 61,
      "authors": [
        {
          "authorId": "20780816",
          "name": "C. Ho"
        },
        {
          "authorId": "145630605",
          "name": "Marek Petrik"
        },
        {
          "authorId": "7425260",
          "name": "W. Wiesemann"
        }
      ]
    },
    {
      "paperId": "4a27163eb7b29791dff33356b6d419a9ee65827f",
      "externalIds": {
        "DBLP": "journals/corr/abs-2301-13642",
        "ArXiv": "2301.13642",
        "DOI": "10.48550/arXiv.2301.13642",
        "CorpusId": 256415918
      },
      "url": "https://www.semanticscholar.org/paper/4a27163eb7b29791dff33356b6d419a9ee65827f",
      "title": "An Efficient Solution to s-Rectangular Robust Markov Decision Processes",
      "venue": "arXiv.org",
      "year": 2023,
      "referenceCount": 31,
      "citationCount": 7,
      "authors": [
        {
          "authorId": "2116961091",
          "name": "Navdeep Kumar"
        },
        {
          "authorId": "2886057",
          "name": "K. Levy"
        },
        {
          "authorId": "2283624439",
          "name": "Kaixin Wang"
        },
        {
          "authorId": "1712535",
          "name": "Shie Mannor"
        }
      ]
    },
    {
      "paperId": "91d2dd18d19837ae2bd15aa364d0825883eddcd5",
      "externalIds": {
        "DBLP": "journals/tmlr/Liu00L24",
        "ArXiv": "2307.07666",
        "DOI": "10.48550/arXiv.2307.07666",
        "CorpusId": 259937601
      },
      "url": "https://www.semanticscholar.org/paper/91d2dd18d19837ae2bd15aa364d0825883eddcd5",
      "title": "Efficient Action Robust Reinforcement Learning with Probabilistic Policy Execution Uncertainty",
      "venue": "Trans. Mach. Learn. Res.",
      "year": 2023,
      "referenceCount": 45,
      "citationCount": 5,
      "authors": [
        {
          "authorId": "2392464079",
          "name": "Guan-Horng Liu"
        },
        {
          "authorId": "50251585",
          "name": "Zhihan Zhou"
        },
        {
          "authorId": "2118960667",
          "name": "Han Liu"
        },
        {
          "authorId": "2153755469",
          "name": "Lifeng Lai"
        }
      ]
    }
  ]
}