{
  "total": 72,
  "offset": 0,
  "next": 10,
  "data": [
    {
      "paperId": "b7b6749bd99dee5762f70f1317106dc4f85c3090",
      "externalIds": {
        "MAG": "2146759922",
        "DBLP": "conf/icml/SzorenyiBWH15",
        "CorpusId": 4749918
      },
      "url": "https://www.semanticscholar.org/paper/b7b6749bd99dee5762f70f1317106dc4f85c3090",
      "title": "Qualitative Multi-Armed Bandits: A Quantile-Based Approach",
      "venue": "International Conference on Machine Learning",
      "year": 2015,
      "referenceCount": 27,
      "citationCount": 48,
      "authors": [
        {
          "authorId": "2206023",
          "name": "Balázs Szörényi"
        },
        {
          "authorId": "1398396696",
          "name": "R. Busa-Fekete"
        },
        {
          "authorId": "144834415",
          "name": "Paul Weng"
        },
        {
          "authorId": "1691955",
          "name": "Eyke Hüllermeier"
        }
      ]
    },
    {
      "paperId": "fe46d9f7b6c7f2785f2dc0ab8a2c961ed9a9d4c8",
      "externalIds": {
        "CorpusId": 263154643
      },
      "url": "https://www.semanticscholar.org/paper/fe46d9f7b6c7f2785f2dc0ab8a2c961ed9a9d4c8",
      "title": "Supplementary material for “ Qualitative Multi-Armed Bandits : A Quantile-Based Approach ”",
      "venue": "",
      "year": 2015,
      "referenceCount": 0,
      "citationCount": 0,
      "authors": []
    },
    {
      "paperId": "46733d3758c1440b019404f24001d8cd873e6a59",
      "externalIds": {
        "DOI": "10.1109/MoSICom67153.2025.11398259",
        "CorpusId": 286243587
      },
      "url": "https://www.semanticscholar.org/paper/46733d3758c1440b019404f24001d8cd873e6a59",
      "title": "Towards Personalized News Recommendation Using Collaborative Filtering and Multi-Armed Bandits (MABs)",
      "venue": "2025 International Conference on Modeling, Simulation & Intelligent Computing (MoSICom)",
      "year": 2025,
      "referenceCount": 15,
      "citationCount": 0,
      "authors": [
        {
          "authorId": "2791878",
          "name": "J. A. Mangai"
        },
        {
          "authorId": "2301339804",
          "name": "Z. A. Khan"
        },
        {
          "authorId": null,
          "name": "Sterlin Minish T. N"
        },
        {
          "authorId": "2372922600",
          "name": "Alvin Nishant"
        }
      ]
    },
    {
      "paperId": "da560b404070147cdfead6e3216c19e4085eb711",
      "externalIds": {
        "DBLP": "journals/datamine/ParambathAM24",
        "DOI": "10.1007/s10618-024-01057-4",
        "CorpusId": 271675055
      },
      "url": "https://www.semanticscholar.org/paper/da560b404070147cdfead6e3216c19e4085eb711",
      "title": "Sequential query prediction based on multi-armed bandits with ensemble of transformer experts and immediate feedback",
      "venue": "Data mining and knowledge discovery",
      "year": 2024,
      "referenceCount": 35,
      "citationCount": 3,
      "authors": [
        {
          "authorId": "2389055785",
          "name": "Shameem A. Puthiya Parambath"
        },
        {
          "authorId": "2314568659",
          "name": "Christos Anagnostopoulos"
        },
        {
          "authorId": "1404553867",
          "name": "R. Murray-Smith"
        }
      ]
    },
    {
      "paperId": "a0977398a709ff22dfd0442c68435b1ef1370ab9",
      "externalIds": {
        "ArXiv": "2304.09088",
        "DBLP": "conf/chi/LeqiZKLM23",
        "DOI": "10.1145/3544548.3580670",
        "CorpusId": 258187388
      },
      "url": "https://www.semanticscholar.org/paper/a0977398a709ff22dfd0442c68435b1ef1370ab9",
      "title": "A Field Test of Bandit Algorithms for Recommendations: Understanding the Validity of Assumptions on Human Preferences in Multi-armed Bandits",
      "venue": "International Conference on Human Factors in Computing Systems",
      "year": 2023,
      "referenceCount": 65,
      "citationCount": 6,
      "authors": [
        {
          "authorId": "51435222",
          "name": "Liu Leqi"
        },
        {
          "authorId": "2110394537",
          "name": "Giulio Zhou"
        },
        {
          "authorId": "1406562974",
          "name": "Fatma Kilincc-Karzan"
        },
        {
          "authorId": "32219137",
          "name": "Zachary Chase Lipton"
        },
        {
          "authorId": "1946128",
          "name": "A. Montgomery"
        }
      ]
    },
    {
      "paperId": "5bab61de56dacadbc72908e955971c22ef894861",
      "externalIds": {
        "MAG": "2740396279",
        "DBLP": "conf/ijcai/ZhangB17",
        "DOI": "10.24963/ijcai.2017/186",
        "CorpusId": 7913446
      },
      "url": "https://www.semanticscholar.org/paper/5bab61de56dacadbc72908e955971c22ef894861",
      "title": "Transfer Learning in Multi-Armed Bandits: A Causal Approach",
      "venue": "International Joint Conference on Artificial Intelligence",
      "year": 2017,
      "referenceCount": 29,
      "citationCount": 81,
      "authors": [
        {
          "authorId": "2107967532",
          "name": "Junzhe Zhang"
        },
        {
          "authorId": "2778721",
          "name": "E. Bareinboim"
        }
      ]
    },
    {
      "paperId": "2243ed3b631ac8d5d6807131761a1e07a1fb5e7b",
      "externalIds": {
        "MAG": "2787324491",
        "DOI": "10.1109/EPEC.2017.8286168",
        "CorpusId": 46810879
      },
      "url": "https://www.semanticscholar.org/paper/2243ed3b631ac8d5d6807131761a1e07a1fb5e7b",
      "title": "Dispatching thermostatically controlled loads for frequency regulation using adversarial multi-armed bandits",
      "venue": "Electrical Power and Energy Conference",
      "year": 2017,
      "referenceCount": 26,
      "citationCount": 5,
      "authors": [
        {
          "authorId": "2084595489",
          "name": "Amr Mohamed"
        },
        {
          "authorId": "1404763235",
          "name": "Antoine Lesage-Landry"
        },
        {
          "authorId": "2110315697",
          "name": "Joshua A. Taylor"
        }
      ]
    },
    {
      "paperId": "dc780a25a7d255570d51b576e9e8047246718c14",
      "externalIds": {
        "DBLP": "conf/www/VorobevLGS15",
        "MAG": "2208783499",
        "DOI": "10.1145/2736277.2741104",
        "CorpusId": 786420
      },
      "url": "https://www.semanticscholar.org/paper/dc780a25a7d255570d51b576e9e8047246718c14",
      "title": "Gathering Additional Feedback on Search Results by Multi-Armed Bandits with Respect to Production Ranking",
      "venue": "The Web Conference",
      "year": 2015,
      "referenceCount": 37,
      "citationCount": 24,
      "authors": [
        {
          "authorId": "144050382",
          "name": "A. Vorobev"
        },
        {
          "authorId": "1975509",
          "name": "Damien Lefortier"
        },
        {
          "authorId": "145004420",
          "name": "Gleb Gusev"
        },
        {
          "authorId": "1708801",
          "name": "P. Serdyukov"
        }
      ]
    },
    {
      "paperId": "e35af5afcbeb131b2812d51e3605e5c16831a594",
      "externalIds": {
        "CorpusId": 259311811
      },
      "url": "https://www.semanticscholar.org/paper/e35af5afcbeb131b2812d51e3605e5c16831a594",
      "title": "A Bandits Approach to Intelligent Tutoring Systems using Concept Evolution Estimation",
      "venue": "",
      "year": 2023,
      "referenceCount": 5,
      "citationCount": 0,
      "authors": [
        {
          "authorId": "143952254",
          "name": "A. Rajkumar"
        }
      ]
    },
    {
      "paperId": "0573c872a291dc9d3c4bd30f0f8c9feee9078a61",
      "externalIds": {
        "DBLP": "journals/access/MohammedZSML19",
        "MAG": "2944828911",
        "DOI": "10.1109/ACCESS.2019.2917123",
        "CorpusId": 182836207
      },
      "url": "https://www.semanticscholar.org/paper/0573c872a291dc9d3c4bd30f0f8c9feee9078a61",
      "title": "Influence Maximization Based Global Structural Properties: A Multi-Armed Bandit Approach",
      "venue": "IEEE Access",
      "year": 2019,
      "referenceCount": 45,
      "citationCount": 5,
      "authors": [
        {
          "authorId": "2089170925",
          "name": "Mohammed Alshahrani"
        },
        {
          "authorId": "2356356",
          "name": "Zhu Fuxi"
        },
        {
          "authorId": "90478319",
          "name": "A. Sameh"
        },
        {
          "authorId": "2806249",
          "name": "Soufiana Mekouar"
        },
        {
          "authorId": "2108640056",
          "name": "Sichao Liu"
        }
      ]
    }
  ]
}