{
  "total": 83,
  "offset": 0,
  "next": 10,
  "data": [
    {
      "paperId": "69ac3b35887eb42e8fe554619fc7255e6e95a4cb",
      "externalIds": {
        "MAG": "2795285343",
        "ArXiv": "1803.10049",
        "DBLP": "conf/icml/RaeDDL18",
        "CorpusId": 4347492
      },
      "url": "https://www.semanticscholar.org/paper/69ac3b35887eb42e8fe554619fc7255e6e95a4cb",
      "title": "Fast Parametric Learning with Activation Memorization",
      "venue": "International Conference on Machine Learning",
      "year": 2018,
      "referenceCount": 54,
      "citationCount": 47,
      "authors": [
        {
          "authorId": "34269227",
          "name": "Jack W. Rae"
        },
        {
          "authorId": "1745899",
          "name": "Chris Dyer"
        },
        {
          "authorId": "1790646",
          "name": "P. Dayan"
        },
        {
          "authorId": "2542999",
          "name": "T. Lillicrap"
        }
      ]
    },
    {
      "paperId": "3a107f5d8476f0d54b5861086c9abd6f6fa7eaa6",
      "externalIds": {
        "CorpusId": 260444133
      },
      "url": "https://www.semanticscholar.org/paper/3a107f5d8476f0d54b5861086c9abd6f6fa7eaa6",
      "title": "Fast Parametric Learning with Activation Memorization",
      "venue": "",
      "year": 2018,
      "referenceCount": 0,
      "citationCount": 0,
      "authors": []
    },
    {
      "paperId": "6942b1b6e9f031070d1ec99ab08d435d14381a59",
      "externalIds": {
        "ArXiv": "2507.20575",
        "DBLP": "journals/corr/abs-2507-20575",
        "DOI": "10.48550/arXiv.2507.20575",
        "CorpusId": 280323649
      },
      "url": "https://www.semanticscholar.org/paper/6942b1b6e9f031070d1ec99ab08d435d14381a59",
      "title": "Implicit Spatiotemporal Bandwidth Enhancement Filter by Sine-activated Deep Learning Model for Fast 3D Photoacoustic Tomography",
      "venue": "arXiv.org",
      "year": 2025,
      "referenceCount": 52,
      "citationCount": 2,
      "authors": [
        {
          "authorId": "2265681547",
          "name": "I. Gede"
        },
        {
          "authorId": "2265707816",
          "name": "Eka Sulistyawan"
        },
        {
          "authorId": "47696326",
          "name": "T. Ishii"
        },
        {
          "authorId": "2292810694",
          "name": "Riku Suzuki"
        },
        {
          "authorId": "34607913",
          "name": "Y. Saijo"
        }
      ]
    },
    {
      "paperId": "5673a22f17802194f025d4981a884e825fc0e50a",
      "externalIds": {
        "DBLP": "journals/ijcomputing/BodyanskiyDSB22",
        "DOI": "10.47839/ijc.21.1.2512",
        "CorpusId": 247889497
      },
      "url": "https://www.semanticscholar.org/paper/5673a22f17802194f025d4981a884e825fc0e50a",
      "title": "Deep Neural Network with Adaptive Parametric Rectified Linear Units and its Fast Learning",
      "venue": "Int. J. Comput.",
      "year": 2022,
      "referenceCount": 21,
      "citationCount": 13,
      "authors": [
        {
          "authorId": "2596392",
          "name": "Yevgeniy V. Bodyanskiy"
        },
        {
          "authorId": "32649309",
          "name": "A. Deineko"
        },
        {
          "authorId": "14874822",
          "name": "V. Škorík"
        },
        {
          "authorId": "2040923635",
          "name": "F. Brodetskyi"
        }
      ]
    },
    {
      "paperId": "1878abe68b12f3541d5d2d5171955b5f442948f5",
      "externalIds": {
        "DBLP": "journals/nca/KilicarslanC24",
        "DOI": "10.1007/s00521-024-09538-9",
        "CorpusId": 268171078
      },
      "url": "https://www.semanticscholar.org/paper/1878abe68b12f3541d5d2d5171955b5f442948f5",
      "title": "Parametric RSigELU: a new trainable activation function for deep learning",
      "venue": "Neural computing & applications (Print)",
      "year": 2024,
      "referenceCount": 47,
      "citationCount": 10,
      "authors": [
        {
          "authorId": "2260428874",
          "name": "Serhat Kılıçarslan"
        },
        {
          "authorId": "50011284",
          "name": "Mete Çelik"
        }
      ]
    },
    {
      "paperId": "989041496a72f30f587e08c77440d4d7eb317209",
      "externalIds": {
        "DOI": "10.1063/5.0264343",
        "CorpusId": 279894220
      },
      "url": "https://www.semanticscholar.org/paper/989041496a72f30f587e08c77440d4d7eb317209",
      "title": "Parametric study of plasma swirling flow based on magnetohydrodynamics informed deep learning",
      "venue": "The Physics of Fluids",
      "year": 2025,
      "referenceCount": 42,
      "citationCount": 1,
      "authors": [
        {
          "authorId": "2370635264",
          "name": "W. Luo"
        },
        {
          "authorId": "9159207",
          "name": "Jun-xue Ren"
        },
        {
          "authorId": "2135059748",
          "name": "Zhiyuan Chen"
        },
        {
          "authorId": "2210684168",
          "name": "Renfan Mao"
        },
        {
          "authorId": "2152801023",
          "name": "Guangchuan Zhang"
        },
        {
          "authorId": "97594820",
          "name": "Yibai Wang"
        },
        {
          "authorId": "2237736700",
          "name": "Hai-bin Tang"
        }
      ]
    },
    {
      "paperId": "7efb102722cddc1fbd28f9bc4b0792b58d41e854",
      "externalIds": {
        "DOI": "10.1109/MetaCom65502.2025.00044",
        "CorpusId": 281970213
      },
      "url": "https://www.semanticscholar.org/paper/7efb102722cddc1fbd28f9bc4b0792b58d41e854",
      "title": "PGELU: Metaverse-Driven Deep Learning Boosted by A Parametric GELU for Stable and Scalable Recognition of Emotions and 3D Objects",
      "venue": "2025 International Conference on Metaverse Computing, Networking and Applications (MetaCom)",
      "year": 2025,
      "referenceCount": 21,
      "citationCount": 0,
      "authors": [
        {
          "authorId": "2119563125",
          "name": "S. Nam"
        },
        {
          "authorId": "2287445976",
          "name": "Tuan Anh Nguyen"
        },
        {
          "authorId": "2385211145",
          "name": "Seunghyun Kang"
        },
        {
          "authorId": "2317233988",
          "name": "Dugki Min"
        }
      ]
    },
    {
      "paperId": "d463d28f4cb71f058d415982f9a4125aa3489624",
      "externalIds": {
        "MAG": "2978928295",
        "DBLP": "conf/ijcnn/TsaiJT19",
        "DOI": "10.1109/IJCNN.2019.8852023",
        "CorpusId": 203605696
      },
      "url": "https://www.semanticscholar.org/paper/d463d28f4cb71f058d415982f9a4125aa3489624",
      "title": "The Cramming, Softening and Integrating Learning Algorithm with Parametric ReLU Activation Function for Binary Input/Output Problems",
      "venue": "IEEE International Joint Conference on Neural Network",
      "year": 2019,
      "referenceCount": 25,
      "citationCount": 6,
      "authors": [
        {
          "authorId": "2383439343",
          "name": "Yu-Han Tsai"
        },
        {
          "authorId": "1393858155",
          "name": "Yu-Jie Jheng"
        },
        {
          "authorId": "2264831",
          "name": "R. Tsaih"
        }
      ]
    },
    {
      "paperId": "24807798863ae0f75544a0bcfc6a5b86cc7481b4",
      "externalIds": {
        "ArXiv": "2604.16426",
        "CorpusId": 287617869
      },
      "url": "https://www.semanticscholar.org/paper/24807798863ae0f75544a0bcfc6a5b86cc7481b4",
      "title": "Functional Similarity Metric for Neural Networks: Overcoming Parametric Ambiguity via Activation Region Analysis",
      "venue": "",
      "year": 2026,
      "referenceCount": 0,
      "citationCount": 0,
      "authors": [
        {
          "authorId": "2430555610",
          "name": "Kutomanov Hennadii"
        }
      ]
    },
    {
      "paperId": "72881fdef951d9fee318f0bb67e02e667b27bed3",
      "externalIds": {
        "MAG": "2956698489",
        "DBLP": "journals/eaai/BekeK19",
        "DOI": "10.1016/J.ENGAPPAI.2019.06.016",
        "CorpusId": 199002404
      },
      "url": "https://www.semanticscholar.org/paper/72881fdef951d9fee318f0bb67e02e667b27bed3",
      "title": "Learning with Type-2 Fuzzy activation functions to improve the performance of Deep Neural Networks",
      "venue": "Engineering applications of artificial intelligence",
      "year": 2019,
      "referenceCount": 52,
      "citationCount": 35,
      "authors": [
        {
          "authorId": "38790585",
          "name": "Aykut Beke"
        },
        {
          "authorId": "1776205",
          "name": "T. Kumbasar"
        }
      ]
    }
  ]
}