{
  "total": 19,
  "offset": 0,
  "next": 10,
  "data": [
    {
      "paperId": "e97ac50fb96921b5d0f8efff838c3ee0348fc22e",
      "externalIds": {
        "DBLP": "conf/icml/LiangP15",
        "MAG": "1879053045",
        "CorpusId": 9165091
      },
      "url": "https://www.semanticscholar.org/paper/e97ac50fb96921b5d0f8efff838c3ee0348fc22e",
      "title": "Landmarking Manifolds with Gaussian Processes",
      "venue": "International Conference on Machine Learning",
      "year": 2015,
      "referenceCount": 27,
      "citationCount": 14,
      "authors": [
        {
          "authorId": "1702877",
          "name": "Dawen Liang"
        },
        {
          "authorId": "143855009",
          "name": "J. Paisley"
        }
      ]
    },
    {
      "paperId": "c08d106e359ff7560472dd6c09c3b3d888e19eec",
      "externalIds": {
        "MAG": "2807718325",
        "DBLP": "phd/basesearch/Aye18",
        "CorpusId": 64855416
      },
      "url": "https://www.semanticscholar.org/paper/c08d106e359ff7560472dd6c09c3b3d888e19eec",
      "title": "Scaling learning algorithms using locality sensitive hashing",
      "venue": "",
      "year": 2018,
      "referenceCount": 126,
      "citationCount": 1,
      "authors": [
        {
          "authorId": "3376865",
          "name": "Zay Maung Maung Aye"
        }
      ]
    },
    {
      "paperId": "26de9a1e20fe89a781b99aaf7a572c21dfe82f96",
      "externalIds": {
        "MAG": "2953245671",
        "ArXiv": "1802.03479",
        "DBLP": "journals/simods/GaoKD19",
        "DOI": "10.1137/18M1184035",
        "CorpusId": 4912568
      },
      "url": "https://www.semanticscholar.org/paper/26de9a1e20fe89a781b99aaf7a572c21dfe82f96",
      "title": "Gaussian Process Landmarking on Manifolds",
      "venue": "SIAM Journal on Mathematics of Data Science",
      "year": 2018,
      "referenceCount": 180,
      "citationCount": 41,
      "authors": [
        {
          "authorId": "2134195",
          "name": "Tingran Gao"
        },
        {
          "authorId": "143860557",
          "name": "S. Kovalsky"
        },
        {
          "authorId": "4572336",
          "name": "D. Boyer"
        },
        {
          "authorId": "1737063",
          "name": "I. Daubechies"
        }
      ]
    },
    {
      "paperId": "3d697aa381a0ffa89c44c9279530c02dceca0663",
      "externalIds": {
        "MAG": "3000318836",
        "DOI": "10.1117/12.2542492",
        "CorpusId": 211553594,
        "PubMed": "33981127"
      },
      "url": "https://www.semanticscholar.org/paper/3d697aa381a0ffa89c44c9279530c02dceca0663",
      "title": "Morphometric Gaussian process for landmarking on grey matter tetrahedral models",
      "venue": "Symposium on Medical Information Processing and Analysis",
      "year": 2020,
      "referenceCount": 12,
      "citationCount": 3,
      "authors": [
        {
          "authorId": "1510774907",
          "name": "Yonghui Fan"
        },
        {
          "authorId": "1702792",
          "name": "N. Lepore"
        },
        {
          "authorId": "33973920",
          "name": "Yalin Wang"
        }
      ]
    },
    {
      "paperId": "9107f5613d93ba6e9db56099d14f124e7f93087e",
      "externalIds": {
        "MAG": "3030217630",
        "DBLP": "conf/pakdd/AyeRR18",
        "DOI": "10.1007/978-3-319-93040-4_36",
        "CorpusId": 49313248
      },
      "url": "https://www.semanticscholar.org/paper/9107f5613d93ba6e9db56099d14f124e7f93087e",
      "title": "Fast Manifold Landmarking Using Locality-Sensitive Hashing",
      "venue": "Pacific-Asia Conference on Knowledge Discovery and Data Mining",
      "year": 2018,
      "referenceCount": 15,
      "citationCount": 1,
      "authors": [
        {
          "authorId": "3376865",
          "name": "Zay Maung Maung Aye"
        },
        {
          "authorId": "1868067",
          "name": "Benjamin I. P. Rubinstein"
        },
        {
          "authorId": "1720142",
          "name": "K. Ramamohanarao"
        }
      ]
    },
    {
      "paperId": "c403d41799a96f659630e15d46487798d285ad53",
      "externalIds": {
        "CorpusId": 121155062
      },
      "url": "https://www.semanticscholar.org/paper/c403d41799a96f659630e15d46487798d285ad53",
      "title": "Probabilistic Riemannian Submanifold Learning with Wrapped Gaussian Process Latent Variable Models : Supplementary Material 1 Pseudo-Algorithm forWGPLVM",
      "venue": "",
      "year": 2019,
      "referenceCount": 0,
      "citationCount": 0,
      "authors": [
        {
          "authorId": "2103341319",
          "name": "Pseudo-Algorithm forWGPLVM"
        }
      ]
    },
    {
      "paperId": "e3e11b53551367c81c12e7a9ab849b794608999a",
      "externalIds": {
        "DOI": "10.1101/2023.01.10.523361",
        "CorpusId": 255750269
      },
      "url": "https://www.semanticscholar.org/paper/e3e11b53551367c81c12e7a9ab849b794608999a",
      "title": "Estimation of animal location from grid cell population activity using persistent cohomology",
      "venue": "bioRxiv",
      "year": 2023,
      "referenceCount": 44,
      "citationCount": 0,
      "authors": [
        {
          "authorId": "2368642",
          "name": "Daisuke Kawahara"
        },
        {
          "authorId": "5290540",
          "name": "Shigeyoshi Fujisawa"
        }
      ]
    },
    {
      "paperId": "5d4d640210fc6d37e2c5abe8b4dca82e8cad5498",
      "externalIds": {
        "DOI": "10.1002/cjs.11690",
        "CorpusId": 247151685
      },
      "url": "https://www.semanticscholar.org/paper/5d4d640210fc6d37e2c5abe8b4dca82e8cad5498",
      "title": "Special issue on “Functional and object data analysis”: Guest Editor's introduction",
      "venue": "Canadian journal of statistics",
      "year": 2022,
      "referenceCount": 70,
      "citationCount": 3,
      "authors": [
        {
          "authorId": "2151194700",
          "name": "H. Müller"
        }
      ]
    },
    {
      "paperId": "ae6e9d8fc36e9b682c7b70e9de8a18b9065c9c5c",
      "externalIds": {
        "MAG": "2111461298",
        "DBLP": "conf/cvpr/RudovicPP10",
        "DOI": "10.1109/CVPRW.2010.5543269",
        "CorpusId": 145290
      },
      "url": "https://www.semanticscholar.org/paper/ae6e9d8fc36e9b682c7b70e9de8a18b9065c9c5c",
      "title": "Facial expression invariant head pose normalization using Gaussian Process Regression",
      "venue": "2010 IEEE Computer Society Conference on Computer Vision and Pattern Recognition - Workshops",
      "year": 2010,
      "referenceCount": 17,
      "citationCount": 11,
      "authors": [
        {
          "authorId": "143776835",
          "name": "Ognjen Rudovic"
        },
        {
          "authorId": "50058816",
          "name": "I. Patras"
        },
        {
          "authorId": "145387780",
          "name": "M. Pantic"
        }
      ]
    },
    {
      "paperId": "3c75ef8f11b55e5423ad38db90fa8c141cff0b19",
      "externalIds": {
        "MAG": "1019822895",
        "DOI": "10.1201/b10620",
        "CorpusId": 118382739
      },
      "url": "https://www.semanticscholar.org/paper/3c75ef8f11b55e5423ad38db90fa8c141cff0b19",
      "title": "Pattern Theory: The Stochastic Analysis of Real-World Signals",
      "venue": "",
      "year": 2010,
      "referenceCount": 0,
      "citationCount": 143,
      "authors": [
        {
          "authorId": "117481816",
          "name": "D. Mumford"
        },
        {
          "authorId": "1796007",
          "name": "A. Desolneux"
        }
      ]
    }
  ]
}