{
  "total": 70101,
  "offset": 0,
  "next": 10,
  "data": [
    {
      "paperId": "b9768ad93215865254384ee10f404f11e273751f",
      "externalIds": {
        "DBLP": "conf/icml/HuQ17",
        "MAG": "2741166240",
        "CorpusId": 6272901
      },
      "url": "https://www.semanticscholar.org/paper/b9768ad93215865254384ee10f404f11e273751f",
      "title": "State-Frequency Memory Recurrent Neural Networks",
      "venue": "International Conference on Machine Learning",
      "year": 2017,
      "referenceCount": 38,
      "citationCount": 51,
      "authors": [
        {
          "authorId": "2118878214",
          "name": "Hao Hu"
        },
        {
          "authorId": "2272096",
          "name": "Guo-Jun Qi"
        }
      ]
    },
    {
      "paperId": "0001febe6e236e225124c23018b97b513beeb70b",
      "externalIds": {
        "DOI": "10.1109/EI252483.2021.9713456",
        "CorpusId": 247110356
      },
      "url": "https://www.semanticscholar.org/paper/0001febe6e236e225124c23018b97b513beeb70b",
      "title": "Time-Frequency Memory Recurrent Neural Networks Empowered Incipient Fault Detection in Power Distribution System",
      "venue": "2021 IEEE 5th Conference on Energy Internet and Energy System Integration (EI2)",
      "year": 2021,
      "referenceCount": 10,
      "citationCount": 2,
      "authors": [
        {
          "authorId": "2764166",
          "name": "Qiyue Li"
        },
        {
          "authorId": "2111233926",
          "name": "Yuxing Deng"
        },
        {
          "authorId": "19172169",
          "name": "Jinjin Ding"
        },
        {
          "authorId": "143779616",
          "name": "Wei Sun"
        },
        {
          "authorId": "2128137801",
          "name": "Weitao Li"
        }
      ]
    },
    {
      "paperId": "e5fc371f8b9f26ba8af3fec46ba70fad297b0f70",
      "externalIds": {
        "DOI": "10.1080/18824889.2025.2597566",
        "CorpusId": 284039389
      },
      "url": "https://www.semanticscholar.org/paper/e5fc371f8b9f26ba8af3fec46ba70fad297b0f70",
      "title": "Adaptive false data injection attack detection in load frequency control using recurrent neural networks",
      "venue": "SICE Journal of Control Measurement and System Integration",
      "year": 2025,
      "referenceCount": 28,
      "citationCount": 0,
      "authors": [
        {
          "authorId": "2268061444",
          "name": "Kisong Kim"
        },
        {
          "authorId": "2267956665",
          "name": "H. Sasahara"
        },
        {
          "authorId": "2271288877",
          "name": "Jun-ichi Imura"
        }
      ]
    },
    {
      "paperId": "85365b84f8e50a49afedff4afdf8a1de88038596",
      "externalIds": {
        "DOI": "10.1109/ISIE62713.2025.11124816",
        "CorpusId": 280872403
      },
      "url": "https://www.semanticscholar.org/paper/85365b84f8e50a49afedff4afdf8a1de88038596",
      "title": "Enhancing Memory-Limited Feedforward Neural Networks for State of Charge Estimation through Temporal Feature Engineering",
      "venue": "International Symposium on Industrial Electronics",
      "year": 2025,
      "referenceCount": 17,
      "citationCount": 0,
      "authors": [
        {
          "authorId": "2377322860",
          "name": "Mostafa Mahdi Yousef"
        },
        {
          "authorId": "1395966188",
          "name": "Mohammad Shaterabadi"
        },
        {
          "authorId": "2324126619",
          "name": "H. Karimi"
        }
      ]
    },
    {
      "paperId": "41dee8a1abecbcc5b8977dcf93fba8f169002b35",
      "externalIds": {
        "ArXiv": "2505.06250",
        "DBLP": "journals/corr/abs-2505-06250",
        "DOI": "10.1109/LMWT.2025.3565004",
        "CorpusId": 278501625
      },
      "url": "https://www.semanticscholar.org/paper/41dee8a1abecbcc5b8977dcf93fba8f169002b35",
      "title": "DeltaDPD: Exploiting Dynamic Temporal Sparsity in Recurrent Neural Networks for Energy-Efficient Wideband Digital Predistortion",
      "venue": "IEEE Microwave and Wireless Technology Letters",
      "year": 2025,
      "referenceCount": 19,
      "citationCount": 4,
      "authors": [
        {
          "authorId": "2279767556",
          "name": "Yizhuo Wu"
        },
        {
          "authorId": "2285512255",
          "name": "Yi Zhu"
        },
        {
          "authorId": "2302327979",
          "name": "Kun Qian"
        },
        {
          "authorId": "2297680991",
          "name": "Qinyu Chen"
        },
        {
          "authorId": "2210865223",
          "name": "A. Zhu"
        },
        {
          "authorId": "30938710",
          "name": "J. Gajadharsing"
        },
        {
          "authorId": "119986366",
          "name": "L. D. de Vreede"
        },
        {
          "authorId": "2279871862",
          "name": "Chang Gao"
        }
      ]
    },
    {
      "paperId": "9751c83f715ff3533cf78c11728a7b697242bd56",
      "externalIds": {
        "PubMedCentral": "8409333",
        "DBLP": "journals/peerj-cs/AliT21",
        "DOI": "10.7717/peerj-cs.682",
        "CorpusId": 237555205,
        "PubMed": "34541310"
      },
      "url": "https://www.semanticscholar.org/paper/9751c83f715ff3533cf78c11728a7b697242bd56",
      "title": "Channel state information estimation for 5G wireless communication systems: recurrent neural networks approach",
      "venue": "PeerJ Computer Science",
      "year": 2021,
      "referenceCount": 31,
      "citationCount": 27,
      "authors": [
        {
          "authorId": "2152557749",
          "name": "M. Ali"
        },
        {
          "authorId": "145792199",
          "name": "Ibrahim B. M. Taha"
        }
      ]
    },
    {
      "paperId": "c63e68d3f4eae341d14b265d8b3b15af7871a9e8",
      "externalIds": {
        "CorpusId": 234352359
      },
      "url": "https://www.semanticscholar.org/paper/c63e68d3f4eae341d14b265d8b3b15af7871a9e8",
      "title": "Bitcoin High-Frequency Trend Prediction with Convolutional and Recurrent Neural Networks",
      "venue": "",
      "year": 2021,
      "referenceCount": 3,
      "citationCount": 3,
      "authors": [
        {
          "authorId": "2090589469",
          "name": "Zihan Qiang"
        },
        {
          "authorId": "2109660421",
          "name": "Jingyu Shen"
        }
      ]
    },
    {
      "paperId": "bf2edec8b545c45acfb51f54d7111b0d8ca82df3",
      "externalIds": {
        "MAG": "2797767624",
        "DOI": "10.1016/J.TRC.2018.03.024",
        "CorpusId": 115837358
      },
      "url": "https://www.semanticscholar.org/paper/bf2edec8b545c45acfb51f54d7111b0d8ca82df3",
      "title": "Vehicle classification from low-frequency GPS data with recurrent neural networks",
      "venue": "Transportation Research Part C: Emerging Technologies",
      "year": 2018,
      "referenceCount": 23,
      "citationCount": 56,
      "authors": [
        {
          "authorId": "2533756",
          "name": "Matteo Simoncini"
        },
        {
          "authorId": "2616063",
          "name": "L. Taccari"
        },
        {
          "authorId": "1443777687",
          "name": "Francesco Sambo"
        },
        {
          "authorId": "1957206",
          "name": "L. Bravi"
        },
        {
          "authorId": "2607607",
          "name": "Samuele Salti"
        },
        {
          "authorId": "144241282",
          "name": "A. Lori"
        }
      ]
    },
    {
      "paperId": "5bb5bd647f305521d8549d4fcd2559a3b89149eb",
      "externalIds": {
        "DOI": "10.1144/gh2025-4",
        "CorpusId": 283780279
      },
      "url": "https://www.semanticscholar.org/paper/5bb5bd647f305521d8549d4fcd2559a3b89149eb",
      "title": "Unraveling the Power of Neural Networks for Flood Prediction Across Complex Hydrological Systems",
      "venue": "GeoHorizons",
      "year": 2025,
      "referenceCount": 0,
      "citationCount": 1,
      "authors": [
        {
          "authorId": "2334823423",
          "name": "Mostafa Saberian"
        },
        {
          "authorId": "2324867675",
          "name": "Nima Zafarmomen"
        },
        {
          "authorId": "2377203183",
          "name": "Krishna Panthi"
        },
        {
          "authorId": "2257984945",
          "name": "Vidya Samadi"
        }
      ]
    },
    {
      "paperId": "d56c422d488f9df3934a843fdef5495f95960ea5",
      "externalIds": {
        "DOI": "10.1109/IDSAC65763.2025.11170195",
        "CorpusId": 281603867
      },
      "url": "https://www.semanticscholar.org/paper/d56c422d488f9df3934a843fdef5495f95960ea5",
      "title": "Application of Temporal Neural Networks in Anomaly Detection and Restoration of Industrial Carbon Emission Data",
      "venue": "2025 International Conference on IOT, Data Science and Advanced Computing (IDSAC)",
      "year": 2025,
      "referenceCount": 13,
      "citationCount": 0,
      "authors": [
        {
          "authorId": "145779425",
          "name": "Man Luo"
        },
        {
          "authorId": "2382375283",
          "name": "Guoli Weng"
        },
        {
          "authorId": "2113391509",
          "name": "Deqiang Lian"
        },
        {
          "authorId": "2400188832",
          "name": "Bo Qin"
        },
        {
          "authorId": "2348276189",
          "name": "Jiabin Wang"
        }
      ]
    }
  ]
}