{
  "total": 328,
  "offset": 0,
  "next": 10,
  "data": [
    {
      "paperId": "212ddaf9aaf9a78dd1439b975206eab0dd1598d0",
      "externalIds": {
        "DBLP": "conf/icml/JasinskaDBPKH16",
        "MAG": "2437817353",
        "CorpusId": 4747258
      },
      "url": "https://www.semanticscholar.org/paper/212ddaf9aaf9a78dd1439b975206eab0dd1598d0",
      "title": "Extreme F-measure Maximization using Sparse Probability Estimates",
      "venue": "International Conference on Machine Learning",
      "year": 2016,
      "referenceCount": 37,
      "citationCount": 113,
      "authors": [
        {
          "authorId": "2066387693",
          "name": "Kalina Jasinska"
        },
        {
          "authorId": "1836428",
          "name": "K. Dembczynski"
        },
        {
          "authorId": "1398396696",
          "name": "R. Busa-Fekete"
        },
        {
          "authorId": "3413615",
          "name": "Karlson Pfannschmidt"
        },
        {
          "authorId": "1758399",
          "name": "Timo Klerx"
        },
        {
          "authorId": "1691955",
          "name": "Eyke Hüllermeier"
        }
      ]
    },
    {
      "paperId": "9919c30f9262cc421691d4640d5a34317c7d9eea",
      "externalIds": {
        "MAG": "2169398710",
        "DBLP": "conf/rsctc/ChengDHJW12",
        "DOI": "10.1007/978-3-642-32115-3_52",
        "CorpusId": 32011360
      },
      "url": "https://www.semanticscholar.org/paper/9919c30f9262cc421691d4640d5a34317c7d9eea",
      "title": "F-Measure Maximization in Topical Classification",
      "venue": "International Conference on Rough Sets and Current Trends in Computing",
      "year": 2012,
      "referenceCount": 8,
      "citationCount": 9,
      "authors": [
        {
          "authorId": "49767752",
          "name": "Weiwei Cheng"
        },
        {
          "authorId": "1836428",
          "name": "K. Dembczynski"
        },
        {
          "authorId": "1691955",
          "name": "Eyke Hüllermeier"
        },
        {
          "authorId": "101141811",
          "name": "Adriana Jaroszewicz"
        },
        {
          "authorId": "3249834",
          "name": "W. Waegeman"
        }
      ]
    },
    {
      "paperId": "b508e01a3be02c88287ba4a718aa03e95b836c71",
      "externalIds": {
        "ArXiv": "2110.11840",
        "DOI": "10.1016/j.cma.2022.114712",
        "CorpusId": 239616338
      },
      "url": "https://www.semanticscholar.org/paper/b508e01a3be02c88287ba4a718aa03e95b836c71",
      "title": "Variational Bayesian approximation of inverse problems using sparse precision matrices",
      "venue": "Computer Methods in Applied Mechanics and Engineering",
      "year": 2021,
      "referenceCount": 91,
      "citationCount": 32,
      "authors": [
        {
          "authorId": "1389557900",
          "name": "Jan Povala"
        },
        {
          "authorId": "36679513",
          "name": "Ieva Kazlauskaite"
        },
        {
          "authorId": "97565735",
          "name": "E. Febrianto"
        },
        {
          "authorId": "2484172",
          "name": "F. Cirak"
        },
        {
          "authorId": "50859190",
          "name": "M. Girolami"
        }
      ]
    },
    {
      "paperId": "95b4666c13515668395755393d2071f378b6dfd1",
      "externalIds": {
        "DOI": "10.59660/51112",
        "CorpusId": 282078156
      },
      "url": "https://www.semanticscholar.org/paper/95b4666c13515668395755393d2071f378b6dfd1",
      "title": "EXTREME SEA LEVEL ANALYSIS AND RETURN PERIOD ESTIMATION ALONG ALEXANDRIA COAST USING GUMBEL CUMULATIVE DISTRIBUTION FUNCTIONS",
      "venue": "AIN Journal",
      "year": 2026,
      "referenceCount": 0,
      "citationCount": 0,
      "authors": [
        {
          "authorId": "2385661454",
          "name": "Mohamed Mahmoud Mohamed Heiba"
        },
        {
          "authorId": "2197926349",
          "name": "Sameh Tawfik Abd Elfattah"
        },
        {
          "authorId": "2385657581",
          "name": "Tarek Mohamed El-Geziry"
        }
      ]
    },
    {
      "paperId": "d0dd4cafc24d3904dff5f392614fdd4f39aef4d3",
      "externalIds": {
        "DOI": "10.21272/jes.2022.9(2).e4",
        "CorpusId": 256497024
      },
      "url": "https://www.semanticscholar.org/paper/d0dd4cafc24d3904dff5f392614fdd4f39aef4d3",
      "title": "Information-Extreme Machine Learning of Wrist Prosthesis Control System Based on the Sparse Training Matrix",
      "venue": "Journal of Engineering Science",
      "year": 2022,
      "referenceCount": 15,
      "citationCount": 1,
      "authors": [
        {
          "authorId": "2329200719",
          "name": "M. Suprunenko"
        },
        {
          "authorId": "2204073751",
          "name": "O. P. Zborshchyk"
        },
        {
          "authorId": "143812756",
          "name": "O. Sokolov"
        }
      ]
    },
    {
      "paperId": "776916c1e3eb2c3a1f93e24c8688253f53b356c8",
      "externalIds": {
        "DBLP": "conf/icarcv/SureshBS06",
        "MAG": "2157316755",
        "DOI": "10.1109/ICARCV.2006.345467",
        "CorpusId": 18780610
      },
      "url": "https://www.semanticscholar.org/paper/776916c1e3eb2c3a1f93e24c8688253f53b356c8",
      "title": "Image Quality Measurement Using Sparse Extreme Learning Machine Classifier",
      "venue": "International Conference on Control, Automation, Robotics and Vision",
      "year": 2006,
      "referenceCount": 16,
      "citationCount": 21,
      "authors": [
        {
          "authorId": "145659720",
          "name": "S. Suresh"
        },
        {
          "authorId": "144682140",
          "name": "R. Venkatesh Babu"
        },
        {
          "authorId": "145411276",
          "name": "N. Sundararajan"
        }
      ]
    },
    {
      "paperId": "9418f790d7224c584babfd8bd7d6f19164cc6e07",
      "externalIds": {
        "DOI": "10.1007/s40333-024-0054-7",
        "CorpusId": 268154295
      },
      "url": "https://www.semanticscholar.org/paper/9418f790d7224c584babfd8bd7d6f19164cc6e07",
      "title": "Improving the accuracy of precipitation estimates in a typical inland arid region of China using a dynamic Bayesian model averaging approach",
      "venue": "Journal of Arid Land",
      "year": 2024,
      "referenceCount": 61,
      "citationCount": 2,
      "authors": [
        {
          "authorId": "2336860901",
          "name": "Wenjie Xu"
        },
        {
          "authorId": "2289803310",
          "name": "Jianli Ding"
        },
        {
          "authorId": "2134728239",
          "name": "Qingling Bao"
        },
        {
          "authorId": "49605648",
          "name": "Jinjie Wang"
        },
        {
          "authorId": "1444739620",
          "name": "Kun Xu"
        }
      ]
    },
    {
      "paperId": "ea15d343d79a2fea9950979dac2107cf6f3472c1",
      "externalIds": {
        "DOI": "10.1007/s44163-026-01266-4",
        "CorpusId": 287610638
      },
      "url": "https://www.semanticscholar.org/paper/ea15d343d79a2fea9950979dac2107cf6f3472c1",
      "title": "Cost-sensitive ensemble learning for bankruptcy prediction under extreme class imbalance",
      "venue": "Discover Artificial Intelligence",
      "year": 2026,
      "referenceCount": 15,
      "citationCount": 0,
      "authors": [
        {
          "authorId": "2369099403",
          "name": "Thanh Tu Dam"
        },
        {
          "authorId": "2338627824",
          "name": "Xuan Tho Dang"
        }
      ]
    },
    {
      "paperId": "b79a73e42d8eb8803a45a921ce592fbcdb6e4e64",
      "externalIds": {
        "PubMedCentral": "4334624",
        "MAG": "1992319160",
        "DBLP": "journals/cin/YeHL15",
        "DOI": "10.1155/2015/427965",
        "CorpusId": 14394476,
        "PubMed": "25722717"
      },
      "url": "https://www.semanticscholar.org/paper/b79a73e42d8eb8803a45a921ce592fbcdb6e4e64",
      "title": "A Framework for Final Drive Simultaneous Failure Diagnosis Based on Fuzzy Entropy and Sparse Bayesian Extreme Learning Machine",
      "venue": "Computational Intelligence and Neuroscience",
      "year": 2015,
      "referenceCount": 40,
      "citationCount": 6,
      "authors": [
        {
          "authorId": "2075311913",
          "name": "Qing Ye"
        },
        {
          "authorId": "2066225948",
          "name": "Pan Hao"
        },
        {
          "authorId": "1390584580",
          "name": "Changhua Liu"
        }
      ]
    },
    {
      "paperId": "1d03d9719e2524dc429f78875f815127aaa86176",
      "externalIds": {
        "ArXiv": "2405.08222",
        "CorpusId": 269761551
      },
      "url": "https://www.semanticscholar.org/paper/1d03d9719e2524dc429f78875f815127aaa86176",
      "title": "Random Utility Models with Skewed Random Components: the Smallest versus Largest Extreme Value Distribution",
      "venue": "",
      "year": 2024,
      "referenceCount": 0,
      "citationCount": 0,
      "authors": [
        {
          "authorId": "2301203773",
          "name": "Richard T. Carson"
        },
        {
          "authorId": "2330379121",
          "name": "D. H. Sun"
        },
        {
          "authorId": "2422277367",
          "name": "Yixiao Sun"
        }
      ]
    }
  ]
}