{
  "total": 26589,
  "offset": 0,
  "next": 10,
  "data": [
    {
      "paperId": "e2e81c568ac0aa067e32fbc9ca9396824fa04d66",
      "externalIds": {
        "MAG": "1911299338",
        "DBLP": "conf/icml/DeisenrothN15",
        "ArXiv": "1502.02843",
        "CorpusId": 17686175
      },
      "url": "https://www.semanticscholar.org/paper/e2e81c568ac0aa067e32fbc9ca9396824fa04d66",
      "title": "Distributed Gaussian Processes",
      "venue": "International Conference on Machine Learning",
      "year": 2015,
      "referenceCount": 33,
      "citationCount": 377,
      "authors": [
        {
          "authorId": "2261881",
          "name": "M. Deisenroth"
        },
        {
          "authorId": "2359200",
          "name": "Jun Wei Ng"
        }
      ]
    },
    {
      "paperId": "21f63fbf5d6684057111f0a8a92573a1fa645e44",
      "externalIds": {
        "MAG": "2550888690",
        "CorpusId": 125659404
      },
      "url": "https://www.semanticscholar.org/paper/21f63fbf5d6684057111f0a8a92573a1fa645e44",
      "title": "Distributed Gaussian Processes for Large-Scale Probabilistic Regression",
      "venue": "",
      "year": 2015,
      "referenceCount": 11,
      "citationCount": 1,
      "authors": [
        {
          "authorId": "2261881",
          "name": "M. Deisenroth"
        }
      ]
    },
    {
      "paperId": "0207dd3b195b73a7b72421e1595a39397a0b522c",
      "externalIds": {
        "MAG": "849918977",
        "DBLP": "conf/isess/HernandezS15",
        "DOI": "10.1007/978-3-319-15994-2_49",
        "CorpusId": 36340327
      },
      "url": "https://www.semanticscholar.org/paper/0207dd3b195b73a7b72421e1595a39397a0b522c",
      "title": "Distributed Minimum Temperature Prediction Using Mixtures of Gaussian Processes",
      "venue": "International Symposium on Environmental Software Systems",
      "year": 2015,
      "referenceCount": 18,
      "citationCount": 0,
      "authors": [
        {
          "authorId": "153503317",
          "name": "S. Hernández"
        },
        {
          "authorId": "1800176",
          "name": "P. Sallis"
        }
      ]
    },
    {
      "paperId": "1f9edb5d2779bbee8d99dcbb8d13c2a836a8e7b7",
      "externalIds": {
        "MAG": "2137135057",
        "ArXiv": "1511.01870",
        "DBLP": "journals/corr/WilsonDN15",
        "CorpusId": 11198138
      },
      "url": "https://www.semanticscholar.org/paper/1f9edb5d2779bbee8d99dcbb8d13c2a836a8e7b7",
      "title": "Thoughts on Massively Scalable Gaussian Processes",
      "venue": "arXiv.org",
      "year": 2015,
      "referenceCount": 29,
      "citationCount": 113,
      "authors": [
        {
          "authorId": "145771261",
          "name": "A. Wilson"
        },
        {
          "authorId": "2160071",
          "name": "Christoph Dann"
        },
        {
          "authorId": "1748758",
          "name": "H. Nickisch"
        }
      ]
    },
    {
      "paperId": "81d489c8e6f46a44acd3e5d27f3cae92602a7d43",
      "externalIds": {
        "MAG": "2963534788",
        "ArXiv": "1507.06977",
        "DBLP": "journals/jmlr/SamoR16",
        "CorpusId": 15863266
      },
      "url": "https://www.semanticscholar.org/paper/81d489c8e6f46a44acd3e5d27f3cae92602a7d43",
      "title": "String and Membrane Gaussian Processes",
      "venue": "Journal of machine learning research",
      "year": 2015,
      "referenceCount": 57,
      "citationCount": 19,
      "authors": [
        {
          "authorId": "2338329",
          "name": "Yves-Laurent Kom Samo"
        },
        {
          "authorId": "145029236",
          "name": "S. Roberts"
        }
      ]
    },
    {
      "paperId": "dab5f2b96125b1cc3607d8daff2db9693fa4b1ae",
      "externalIds": {
        "MAG": "2332391454",
        "DBLP": "conf/ssrr/MiyagusukuYA15",
        "DOI": "10.1109/SSRR.2015.7442993",
        "CorpusId": 786504
      },
      "url": "https://www.semanticscholar.org/paper/dab5f2b96125b1cc3607d8daff2db9693fa4b1ae",
      "title": "Gaussian processes with input-dependent noise variance for wireless signal strength-based localization",
      "venue": "IEEE International Symposium on Safety, Security and Rescue Robotics",
      "year": 2015,
      "referenceCount": 16,
      "citationCount": 13,
      "authors": [
        {
          "authorId": "3106842",
          "name": "Renato Miyagusuku"
        },
        {
          "authorId": "1748130",
          "name": "A. Yamashita"
        },
        {
          "authorId": "5312699",
          "name": "H. Asama"
        }
      ]
    },
    {
      "paperId": "d1988b10dfe0d59f09ea39d9c332f0cf07cbae7a",
      "externalIds": {
        "MAG": "1545619383",
        "CorpusId": 116921197
      },
      "url": "https://www.semanticscholar.org/paper/d1988b10dfe0d59f09ea39d9c332f0cf07cbae7a",
      "title": "String Gaussian Processes",
      "venue": "",
      "year": 2015,
      "referenceCount": 0,
      "citationCount": 1,
      "authors": [
        {
          "authorId": "2338329",
          "name": "Yves-Laurent Kom Samo"
        },
        {
          "authorId": "145029236",
          "name": "S. Roberts"
        }
      ]
    },
    {
      "paperId": "6e700413cd42d152f1bf1e042a8e41111ca03a6c",
      "externalIds": {
        "MAG": "1568471770",
        "DBLP": "conf/icc/VeldeAVRS15",
        "DOI": "10.1109/ICCW.2015.7247276",
        "CorpusId": 12538289
      },
      "url": "https://www.semanticscholar.org/paper/6e700413cd42d152f1bf1e042a8e41111ca03a6c",
      "title": "Cooperative hybrid localization using Gaussian processes and belief propagation",
      "venue": "2015 IEEE International Conference on Communication Workshop (ICCW)",
      "year": 2015,
      "referenceCount": 14,
      "citationCount": 9,
      "authors": [
        {
          "authorId": "7872934",
          "name": "S. V. D. Velde"
        },
        {
          "authorId": "3036607",
          "name": "Gundeep Arora"
        },
        {
          "authorId": "2498918",
          "name": "L. Vallozzi"
        },
        {
          "authorId": "1718993",
          "name": "H. Rogier"
        },
        {
          "authorId": "1740584",
          "name": "H. Steendam"
        }
      ]
    },
    {
      "paperId": "f4b3d2ccc400fcb5b8a8d347895477193cf9ad39",
      "externalIds": {
        "CorpusId": 36399425
      },
      "url": "https://www.semanticscholar.org/paper/f4b3d2ccc400fcb5b8a8d347895477193cf9ad39",
      "title": "Investigation of different features for predicting ionization efficiency of metabolites in mass spectrometry using Gaussian processes",
      "venue": "",
      "year": 2015,
      "referenceCount": 21,
      "citationCount": 0,
      "authors": [
        {
          "authorId": "104373567",
          "name": "N. Zhekov"
        }
      ]
    },
    {
      "paperId": "dde56158de44d181ad3a8f202c3689fa88a9da91",
      "externalIds": {
        "MAG": "2290862383",
        "DOI": "10.1088/1742-6596/659/1/012043",
        "CorpusId": 125068797
      },
      "url": "https://www.semanticscholar.org/paper/dde56158de44d181ad3a8f202c3689fa88a9da91",
      "title": "Statistical process control for AR(1) or non-Gaussian processes using wavelets coefficients",
      "venue": "",
      "year": 2015,
      "referenceCount": 44,
      "citationCount": 2,
      "authors": [
        {
          "authorId": "50428261",
          "name": "A. Cohen"
        },
        {
          "authorId": "2366478",
          "name": "T. Tiplica"
        },
        {
          "authorId": "2544366",
          "name": "A. Kobi"
        }
      ]
    }
  ]
}