{
  "total": 258,
  "offset": 0,
  "next": 10,
  "data": [
    {
      "paperId": "c94bd374151ad92db41a4c263810d0ddee25b8f6",
      "externalIds": {
        "ArXiv": "1703.04122",
        "DBLP": "conf/icml/BinkowskiMD18",
        "MAG": "2962788496",
        "CorpusId": 1520978
      },
      "url": "https://www.semanticscholar.org/paper/c94bd374151ad92db41a4c263810d0ddee25b8f6",
      "title": "Autoregressive Convolutional Neural Networks for Asynchronous Time Series",
      "venue": "International Conference on Machine Learning",
      "year": 2017,
      "referenceCount": 49,
      "citationCount": 159,
      "authors": [
        {
          "authorId": "9961753",
          "name": "Mikolaj Binkowski"
        },
        {
          "authorId": "26359157",
          "name": "Gautier Marti"
        },
        {
          "authorId": "2877686",
          "name": "Philippe Donnat"
        }
      ]
    },
    {
      "paperId": "7914996650957eab88e4ccef177938b945bfa6be",
      "externalIds": {
        "CorpusId": 53343941
      },
      "url": "https://www.semanticscholar.org/paper/7914996650957eab88e4ccef177938b945bfa6be",
      "title": "Supplementary material to ” Autoregressive Convolutional Neural Networks for Asynchronous Time Series ”-Appendices",
      "venue": "",
      "year": 2018,
      "referenceCount": 0,
      "citationCount": 0,
      "authors": [
        {
          "authorId": "90240028",
          "name": "M. Binkowski"
        },
        {
          "authorId": "26359157",
          "name": "Gautier Marti"
        },
        {
          "authorId": "2877686",
          "name": "Philippe Donnat"
        }
      ]
    },
    {
      "paperId": "6dc3fac899585ee75a25aea399c990476e5f3a25",
      "externalIds": {
        "DOI": "10.18860/cauchy.v10i2.32760",
        "CorpusId": 283453148
      },
      "url": "https://www.semanticscholar.org/paper/6dc3fac899585ee75a25aea399c990476e5f3a25",
      "title": "On the Approximation Capabilities of Deep Neural Networks for Multivariate Time Series Modeling",
      "venue": "CAUCHY",
      "year": 2025,
      "referenceCount": 0,
      "citationCount": 1,
      "authors": [
        {
          "authorId": "2095209406",
          "name": "Mohammad Jamhuri"
        },
        {
          "authorId": "2295446860",
          "name": "Mohammad Isa Irawan"
        },
        {
          "authorId": "2331118122",
          "name": "Ari Kusumastuti"
        },
        {
          "authorId": "34652002",
          "name": "K. Mondal"
        },
        {
          "authorId": "2086525776",
          "name": "Juhari Juhari"
        }
      ]
    },
    {
      "paperId": "8841ba819dcdb9984676a726cffccf3dd495fd69",
      "externalIds": {
        "DBLP": "conf/igarss/ShiZWZY24",
        "DOI": "10.1109/IGARSS53475.2024.10642855",
        "CorpusId": 272431403
      },
      "url": "https://www.semanticscholar.org/paper/8841ba819dcdb9984676a726cffccf3dd495fd69",
      "title": "Disentangling Vegetation Water Content and Surface Soil Moisture from Sentinel-1 Sar Time Series Through Asynchronous Convolutional Neural Network",
      "venue": "IEEE International Geoscience and Remote Sensing Symposium",
      "year": 2024,
      "referenceCount": 10,
      "citationCount": 0,
      "authors": [
        {
          "authorId": "2296224969",
          "name": "Changjiang Shi"
        },
        {
          "authorId": "2296133286",
          "name": "Zhijie Zhang"
        },
        {
          "authorId": "2290968440",
          "name": "Baohui Wang"
        },
        {
          "authorId": "2237824219",
          "name": "Wanchang Zhang"
        },
        {
          "authorId": "66613015",
          "name": "Yaning Yi"
        }
      ]
    },
    {
      "paperId": "ac91f692752a3e985d37d11bdbbf1d0236a40df6",
      "externalIds": {
        "DBLP": "journals/peerj-cs/AhmedMK25",
        "DOI": "10.7717/peerj-cs.3097",
        "CorpusId": 281635402
      },
      "url": "https://www.semanticscholar.org/paper/ac91f692752a3e985d37d11bdbbf1d0236a40df6",
      "title": "A survey on graph neural networks, machine learning and deep learning techniques for time series applications in industry",
      "venue": "PeerJ Computer Science",
      "year": 2025,
      "referenceCount": 178,
      "citationCount": 3,
      "authors": [
        {
          "authorId": "2115209057",
          "name": "Muhammad Jamal Ahmed"
        },
        {
          "authorId": "144214846",
          "name": "Alberto Mozo"
        },
        {
          "authorId": "73686726",
          "name": "Amit Karamchandani"
        }
      ]
    },
    {
      "paperId": "1fe176b00640aaea3e45e696efcf37ec7d850ddf",
      "externalIds": {
        "DOI": "10.37394/23209.2025.22.7",
        "CorpusId": 275379905
      },
      "url": "https://www.semanticscholar.org/paper/1fe176b00640aaea3e45e696efcf37ec7d850ddf",
      "title": "NARX-Based 1D Convolutional Neural Networks for Enhanced Earthquake Prediction Accuracy",
      "venue": "WSEAS Transactions on Information Science and Applications",
      "year": 2024,
      "referenceCount": 11,
      "citationCount": 1,
      "authors": [
        {
          "authorId": "2273221475",
          "name": "H. A. Nugroho"
        },
        {
          "authorId": "9287079",
          "name": "Aries Subiantoro"
        },
        {
          "authorId": "2313115190",
          "name": "Benyamin Kusumoputro"
        }
      ]
    },
    {
      "paperId": "1f42f1f94f9c23deab086887adf1340f3917ab59",
      "externalIds": {
        "ArXiv": "2308.16818",
        "DBLP": "conf/kdd/0003ZH0FZM024",
        "DOI": "10.1145/3637528.3671665",
        "CorpusId": 261394347
      },
      "url": "https://www.semanticscholar.org/paper/1f42f1f94f9c23deab086887adf1340f3917ab59",
      "title": "Irregular Traffic Time Series Forecasting Based on Asynchronous Spatio-Temporal Graph Convolutional Networks",
      "venue": "Knowledge Discovery and Data Mining",
      "year": 2023,
      "referenceCount": 62,
      "citationCount": 36,
      "authors": [
        {
          "authorId": "2108006797",
          "name": "Weijia Zhang"
        },
        {
          "authorId": "2142320817",
          "name": "Le Zhang"
        },
        {
          "authorId": "2146364807",
          "name": "Jindong Han"
        },
        {
          "authorId": "145127257",
          "name": "Hao Liu"
        },
        {
          "authorId": "2336606",
          "name": "Jingbo Zhou"
        },
        {
          "authorId": "2236623923",
          "name": "Yu Mei"
        },
        {
          "authorId": "2166454716",
          "name": "Hui Xiong"
        }
      ]
    },
    {
      "paperId": "01c03de32984444866c3cb94770170593b551c69",
      "externalIds": {
        "DBLP": "journals/corr/abs-1903-02540",
        "MAG": "3012996548",
        "ArXiv": "1903.02540",
        "CorpusId": 70349972
      },
      "url": "https://www.semanticscholar.org/paper/01c03de32984444866c3cb94770170593b551c69",
      "title": "Autoregressive Convolutional Recurrent Neural Network for Univariate and Multivariate Time Series Prediction",
      "venue": "The European Symposium on Artificial Neural Networks",
      "year": 2019,
      "referenceCount": 8,
      "citationCount": 11,
      "authors": [
        {
          "authorId": "79782293",
          "name": "Matteo Maggiolo"
        },
        {
          "authorId": "3266578",
          "name": "Gerasimos Spanakis"
        }
      ]
    },
    {
      "paperId": "11bfd12e730e186c4561f3db3896594536f952d6",
      "externalIds": {
        "MAG": "2898206393",
        "DOI": "10.21314/JCF.2019.358",
        "CorpusId": 143430176
      },
      "url": "https://www.semanticscholar.org/paper/11bfd12e730e186c4561f3db3896594536f952d6",
      "title": "Dilated convolutional neural networks for time series forecasting",
      "venue": "",
      "year": 2018,
      "referenceCount": 30,
      "citationCount": 116,
      "authors": [
        {
          "authorId": "41150632",
          "name": "A. Borovykh"
        },
        {
          "authorId": "1929254",
          "name": "S. Bohté"
        },
        {
          "authorId": "1784112",
          "name": "C. Oosterlee"
        }
      ]
    },
    {
      "paperId": "f270d3a564dfa0494f6556261827a1f546fe96ef",
      "externalIds": {
        "DOI": "10.1109/ICICKE65317.2025.11136325",
        "CorpusId": 281508197
      },
      "url": "https://www.semanticscholar.org/paper/f270d3a564dfa0494f6556261827a1f546fe96ef",
      "title": "Predictive Analytics in Financial Markets using Time-Series Data with Convolutional Neural Network and Graph Attention Network",
      "venue": "2025 International Conference on Intelligent Computing and Knowledge Extraction (ICICKE)",
      "year": 2025,
      "referenceCount": 15,
      "citationCount": 0,
      "authors": [
        {
          "authorId": "2372137921",
          "name": "Sri Meghana Potluri"
        },
        {
          "authorId": "2381852595",
          "name": "Shafeeq Sharara"
        },
        {
          "authorId": "2382072888",
          "name": "V. R"
        },
        {
          "authorId": "2374057525",
          "name": "Sahithi Donkina"
        },
        {
          "authorId": "2335128869",
          "name": "U. Esakkiammal"
        }
      ]
    }
  ]
}