{
  "total": 13,
  "offset": 0,
  "next": 10,
  "data": [
    {
      "paperId": "bbcedce8b685997357ee8410877659d163bd16f9",
      "externalIds": {
        "MAG": "2962934197",
        "CorpusId": 10071320
      },
      "url": "https://www.semanticscholar.org/paper/bbcedce8b685997357ee8410877659d163bd16f9",
      "title": "Multi-player bandits: a musical chairs approach",
      "venue": "International Conference on Machine Learning",
      "year": 2016,
      "referenceCount": 9,
      "citationCount": 167,
      "authors": [
        {
          "authorId": "2387306622",
          "name": "Jonathan Rosenski"
        },
        {
          "authorId": "1768909",
          "name": "Ohad Shamir"
        },
        {
          "authorId": "2402451",
          "name": "Liran Szlak"
        }
      ]
    },
    {
      "paperId": "6dfb641d146dfb6bf2eeaf5fb678848feadb88c4",
      "externalIds": {
        "DBLP": "journals/corr/RosenskiSS15",
        "MAG": "2949911127",
        "ArXiv": "1512.02866",
        "CorpusId": 263789260
      },
      "url": "https://www.semanticscholar.org/paper/6dfb641d146dfb6bf2eeaf5fb678848feadb88c4",
      "title": "Multi-Player Bandits - a Musical Chairs Approach",
      "venue": "International Conference on Machine Learning",
      "year": 2015,
      "referenceCount": 10,
      "citationCount": 0,
      "authors": [
        {
          "authorId": "2387306622",
          "name": "Jonathan Rosenski"
        },
        {
          "authorId": "1768909",
          "name": "Ohad Shamir"
        },
        {
          "authorId": "2402451",
          "name": "Liran Szlak"
        }
      ]
    },
    {
      "paperId": "6e8b72200a17316c5639a1e6bf00f200b03378b0",
      "externalIds": {
        "DOI": "10.1109/IS3C65361.2025.11131083",
        "CorpusId": 280976377
      },
      "url": "https://www.semanticscholar.org/paper/6e8b72200a17316c5639a1e6bf00f200b03378b0",
      "title": "Music Tactalizer: A Wearable Haptic Music Player with Multi-Feature Audio-Tactile Rendering",
      "venue": "2025 Seventh International Symposium on Computer, Consumer and Control (IS3C)",
      "year": 2025,
      "referenceCount": 15,
      "citationCount": 0,
      "authors": [
        {
          "authorId": "2352741034",
          "name": "A. R. See"
        },
        {
          "authorId": "2364193482",
          "name": "Aaron Benjmin R. Alcuitas"
        },
        {
          "authorId": "2332990829",
          "name": "T. J. Tiong"
        },
        {
          "authorId": "2364208192",
          "name": "V. J. Sasing"
        }
      ]
    },
    {
      "paperId": "79df45e9a4496958329eeb8e30b78e29123e7096",
      "externalIds": {
        "MAG": "3012146228",
        "DBLP": "conf/cit/SatapathySM19",
        "DOI": "10.1109/ICIT48102.2019.00015",
        "CorpusId": 212704799
      },
      "url": "https://www.semanticscholar.org/paper/79df45e9a4496958329eeb8e30b78e29123e7096",
      "title": "MCS: A Distributed Multi-User Channel Selection Algorithm for Cognitive Radio Networks",
      "venue": "2019 International Conference on Information Technology (ICIT)",
      "year": 2019,
      "referenceCount": 20,
      "citationCount": 0,
      "authors": [
        {
          "authorId": "148133224",
          "name": "S. Satapathy"
        },
        {
          "authorId": "150308280",
          "name": "Shivani Singh"
        },
        {
          "authorId": "1960471",
          "name": "D. Mishra"
        }
      ]
    },
    {
      "paperId": "816c38546a771ee53fe6d3ea68f7513a3f8878c4",
      "externalIds": {
        "CorpusId": 249669737
      },
      "url": "https://www.semanticscholar.org/paper/816c38546a771ee53fe6d3ea68f7513a3f8878c4",
      "title": "Sound as an Object. Considerations in the design of gestural musical instruments and vibro-acoustic furniture",
      "venue": "",
      "year": null,
      "referenceCount": 27,
      "citationCount": 0,
      "authors": [
        {
          "authorId": "40554167",
          "name": "Scott A. Hawkins"
        },
        {
          "authorId": "2113821727",
          "name": "Sheffield"
        }
      ]
    },
    {
      "paperId": "47674fc59286c3cb6bfbe85e838a4259c5bc5ab2",
      "externalIds": {
        "MAG": "2807842189",
        "DBLP": "conf/wcnc/Joshi0YD18",
        "DOI": "10.1109/WCNC.2018.8377315",
        "CorpusId": 49193706
      },
      "url": "https://www.semanticscholar.org/paper/47674fc59286c3cb6bfbe85e838a4259c5bc5ab2",
      "title": "Distributed algorithm for dynamic spectrum access in infrastructure-less cognitive radio network",
      "venue": "IEEE Wireless Communications and Networking Conference",
      "year": 2018,
      "referenceCount": 11,
      "citationCount": 10,
      "authors": [
        {
          "authorId": "49549444",
          "name": "H. Joshi"
        },
        {
          "authorId": "2108879462",
          "name": "Rohit Kumar"
        },
        {
          "authorId": "2069453038",
          "name": "Ankit Yadav"
        },
        {
          "authorId": "1744668",
          "name": "S. Darak"
        }
      ]
    },
    {
      "paperId": "f7bea27ba1d2d2dc127f3de04f34e96d92ae5c5e",
      "externalIds": {
        "CorpusId": 17187214
      },
      "url": "https://www.semanticscholar.org/paper/f7bea27ba1d2d2dc127f3de04f34e96d92ae5c5e",
      "title": "Ism 2008 Tenth Ieee International Symposium on Multimedia Tenth Ieee International Symposium on Multimedia Message from the Program Chairs Ism 2008 Feature Selection in Automatic Music Genre Classification",
      "venue": "",
      "year": 2008,
      "referenceCount": 25,
      "citationCount": 0,
      "authors": [
        {
          "authorId": "8196487",
          "name": "A. Bimbo"
        },
        {
          "authorId": "1696394",
          "name": "A. Ghafoor"
        },
        {
          "authorId": "31765472",
          "name": "J. Kishigami"
        }
      ]
    },
    {
      "paperId": "2f83818b7d40af216564b707a6ff1ea4c3e25d4c",
      "externalIds": {
        "ArXiv": "1810.02989",
        "MAG": "2894893614",
        "CorpusId": 70182966
      },
      "url": "https://www.semanticscholar.org/paper/2f83818b7d40af216564b707a6ff1ea4c3e25d4c",
      "title": "Distributed Learning Algorithms for Opportunistic Spectrum Access in Infrastructure-less Networks",
      "venue": "",
      "year": 2018,
      "referenceCount": 21,
      "citationCount": 0,
      "authors": [
        {
          "authorId": "2108879462",
          "name": "Rohit Kumar"
        },
        {
          "authorId": "1744668",
          "name": "S. Darak"
        },
        {
          "authorId": "2098597",
          "name": "M. Hanawal"
        },
        {
          "authorId": "2069453038",
          "name": "Ankit Yadav"
        }
      ]
    },
    {
      "paperId": "e9c530e28695d6bb0bb244df89651cf92119b440",
      "externalIds": {
        "CorpusId": 46528002
      },
      "url": "https://www.semanticscholar.org/paper/e9c530e28695d6bb0bb244df89651cf92119b440",
      "title": "Student Session 3 Baur Room “ The Performing Individual and Nation ”",
      "venue": "",
      "year": 2016,
      "referenceCount": 0,
      "citationCount": 0,
      "authors": [
        {
          "authorId": "98385843",
          "name": "D. Easterling"
        },
        {
          "authorId": "122025095",
          "name": "G. Lowther"
        },
        {
          "authorId": "11197723",
          "name": "N. Zaslaw"
        },
        {
          "authorId": "84145167",
          "name": "Stefan Fiol"
        }
      ]
    },
    {
      "paperId": "e83e6e355a93327b3d1aba13fe4f01fbbe4b2c02",
      "externalIds": {
        "MAG": "118508148",
        "CorpusId": 54209810
      },
      "url": "https://www.semanticscholar.org/paper/e83e6e355a93327b3d1aba13fe4f01fbbe4b2c02",
      "title": "MONTESSORI IN THE MOBILE ERA: BUILDING NEW LEARNING EXPERIENCES THROUGH TANGIBLE USER INTERFACES",
      "venue": "",
      "year": 2013,
      "referenceCount": 26,
      "citationCount": 6,
      "authors": [
        {
          "authorId": "2476416",
          "name": "P. Garaizar"
        },
        {
          "authorId": "145115733",
          "name": "O. Peña"
        },
        {
          "authorId": "145726814",
          "name": "J. A. Romero"
        }
      ]
    }
  ]
}