{
  "total": 59,
  "offset": 0,
  "next": 10,
  "data": [
    {
      "paperId": "e882d8cd15a8b6b9022930ef1dfe0305d3af77fa",
      "externalIds": {
        "MAG": "2950722241",
        "ArXiv": "1703.02624",
        "DBLP": "conf/icml/WangX17",
        "CorpusId": 2106238
      },
      "url": "https://www.semanticscholar.org/paper/e882d8cd15a8b6b9022930ef1dfe0305d3af77fa",
      "title": "Exploiting Strong Convexity from Data with Primal-Dual First-Order Algorithms",
      "venue": "International Conference on Machine Learning",
      "year": 2017,
      "referenceCount": 26,
      "citationCount": 42,
      "authors": [
        {
          "authorId": "1809306",
          "name": "Jialei Wang"
        },
        {
          "authorId": "145942106",
          "name": "Lin Xiao"
        }
      ]
    },
    {
      "paperId": "527cced6813114d9e0cd87b14a715d1bf2179e17",
      "externalIds": {
        "CorpusId": 260500559
      },
      "url": "https://www.semanticscholar.org/paper/527cced6813114d9e0cd87b14a715d1bf2179e17",
      "title": "Exploiting Strong Convexity from Data with Primal-Dual First-Order Algorithms",
      "venue": "",
      "year": 2017,
      "referenceCount": 0,
      "citationCount": 0,
      "authors": []
    },
    {
      "paperId": "7f2dda9a43c51139ca7d8dee33c8e63537fde136",
      "externalIds": {
        "ArXiv": "1912.12110",
        "DBLP": "journals/tac/YiZYCJ22",
        "MAG": "3022376764",
        "DOI": "10.1109/tac.2021.3108501",
        "CorpusId": 218538143
      },
      "url": "https://www.semanticscholar.org/paper/7f2dda9a43c51139ca7d8dee33c8e63537fde136",
      "title": "Linear Convergence of First- and Zeroth-Order Primal–Dual Algorithms for Distributed Nonconvex Optimization",
      "venue": "IEEE Transactions on Automatic Control",
      "year": 2019,
      "referenceCount": 99,
      "citationCount": 62,
      "authors": [
        {
          "authorId": "2116687",
          "name": "Xinlei Yi"
        },
        {
          "authorId": "5649887",
          "name": "Shengjun Zhang"
        },
        {
          "authorId": "144954290",
          "name": "Tao Yang"
        },
        {
          "authorId": "71569758",
          "name": "Tianyou Chai"
        },
        {
          "authorId": "1679177",
          "name": "K. Johansson"
        }
      ]
    },
    {
      "paperId": "86eb295209c5d819de6627db2f968af30db0577f",
      "externalIds": {
        "ArXiv": "2512.03947",
        "CorpusId": 283467227
      },
      "url": "https://www.semanticscholar.org/paper/86eb295209c5d819de6627db2f968af30db0577f",
      "title": "Data-Dependent Complexity of First-Order Methods for Binary Classification",
      "venue": "",
      "year": 2025,
      "referenceCount": 27,
      "citationCount": 0,
      "authors": [
        {
          "authorId": "2287926389",
          "name": "Matthew Hough"
        },
        {
          "authorId": "2340686214",
          "name": "Stephen A. Vavasis"
        }
      ]
    },
    {
      "paperId": "5a02374f6fa5ef2f36a96b555874e1a72fdeb20b",
      "externalIds": {
        "DBLP": "conf/icip/BonettiniBR14",
        "MAG": "1980221255",
        "DOI": "10.1109/ICIP.2014.7025844",
        "CorpusId": 16887500
      },
      "url": "https://www.semanticscholar.org/paper/5a02374f6fa5ef2f36a96b555874e1a72fdeb20b",
      "title": "Primal-dual first order methods for total variation image restoration in presence of poisson noise",
      "venue": "International Conference on Information Photonics",
      "year": 2014,
      "referenceCount": 21,
      "citationCount": 13,
      "authors": [
        {
          "authorId": "2725792",
          "name": "S. Bonettini"
        },
        {
          "authorId": "35120553",
          "name": "A. Benfenati"
        },
        {
          "authorId": "6092024",
          "name": "V. Ruggiero"
        }
      ]
    },
    {
      "paperId": "ac708aa2b85c067d3561649f6e916badea2cb6b9",
      "externalIds": {
        "DBLP": "journals/siamjo/Xu17",
        "ArXiv": "1606.09155",
        "MAG": "2951508998",
        "DOI": "10.1137/16M1082305",
        "CorpusId": 8894981
      },
      "url": "https://www.semanticscholar.org/paper/ac708aa2b85c067d3561649f6e916badea2cb6b9",
      "title": "Accelerated First-Order Primal-Dual Proximal Methods for Linearly Constrained Composite Convex Programming",
      "venue": "SIAM Journal on Optimization",
      "year": 2016,
      "referenceCount": 44,
      "citationCount": 130,
      "authors": [
        {
          "authorId": "47104078",
          "name": "Yangyang Xu"
        }
      ]
    },
    {
      "paperId": "2b7cb71a82969b317228b486b14167ffcfad4472",
      "externalIds": {
        "ArXiv": "2602.22421",
        "CorpusId": 286082999
      },
      "url": "https://www.semanticscholar.org/paper/2b7cb71a82969b317228b486b14167ffcfad4472",
      "title": "Huge-Scale Assortment Optimization with Customer Choice: A Parallel Primal-Dual Approach",
      "venue": "",
      "year": 2026,
      "referenceCount": 40,
      "citationCount": 0,
      "authors": [
        {
          "authorId": "152867081",
          "name": "Donghao Zhu"
        },
        {
          "authorId": "2348501647",
          "name": "Hanzhang Qin"
        },
        {
          "authorId": "37376821",
          "name": "Ching-pei Lee"
        },
        {
          "authorId": "2382597732",
          "name": "Yuki Saito"
        },
        {
          "authorId": "2268787834",
          "name": "Takahiro Kawashima"
        },
        {
          "authorId": "2288264032",
          "name": "K. Fukumizu"
        }
      ]
    },
    {
      "paperId": "326fcd2cad14b0fa1e72a26bac1f3119ebb8a98c",
      "externalIds": {
        "MAG": "2054466612",
        "DOI": "10.1109/NSSMIC.2012.6551542",
        "CorpusId": 19661254
      },
      "url": "https://www.semanticscholar.org/paper/326fcd2cad14b0fa1e72a26bac1f3119ebb8a98c",
      "title": "A first-order primal-dual reconstruction algorithm for few-view SPECT",
      "venue": "Nuclear Science Symposium and Medical Imaging Conference",
      "year": 2012,
      "referenceCount": 18,
      "citationCount": 1,
      "authors": [
        {
          "authorId": "30282915",
          "name": "P. Wolf"
        },
        {
          "authorId": "1402990170",
          "name": "J. Jørgensen"
        },
        {
          "authorId": "8440050",
          "name": "T. Schmidt"
        },
        {
          "authorId": "3309419",
          "name": "E. Sidky"
        }
      ]
    },
    {
      "paperId": "53e60d622d8708d792a3b234c4b455639e027204",
      "externalIds": {
        "DBLP": "journals/csysl/Ho-NguyenK18",
        "MAG": "2801307826",
        "DOI": "10.1109/LCSYS.2018.2831721",
        "CorpusId": 21676548
      },
      "url": "https://www.semanticscholar.org/paper/53e60d622d8708d792a3b234c4b455639e027204",
      "title": "Primal–Dual Algorithms for Convex Optimization via Regret Minimization",
      "venue": "IEEE Control Systems Letters",
      "year": 2018,
      "referenceCount": 14,
      "citationCount": 4,
      "authors": [
        {
          "authorId": "1422558966",
          "name": "Nam Ho-Nguyen"
        },
        {
          "authorId": "1398832591",
          "name": "F. Kılınç-Karzan"
        }
      ]
    },
    {
      "paperId": "3b51ced3f0363d00278ebfaacb9d206ee9d667fd",
      "externalIds": {
        "DOI": "10.23952/jano.2.2020.2.01",
        "CorpusId": 242485111
      },
      "url": "https://www.semanticscholar.org/paper/3b51ced3f0363d00278ebfaacb9d206ee9d667fd",
      "title": "Primal-dual algorithm for solving a convex image dejittering model with hybrid finite differences",
      "venue": "Journal of Applied and Numerical Optimization",
      "year": 2020,
      "referenceCount": 34,
      "citationCount": 1,
      "authors": [
        {
          "authorId": "2066621253",
          "name": "Weiwei Deng"
        },
        {
          "authorId": "143789288",
          "name": "Jie Liang"
        },
        {
          "authorId": "9022256",
          "name": "Wenxing Zhang"
        }
      ]
    }
  ]
}