{
  "total": 1967,
  "offset": 0,
  "next": 10,
  "data": [
    {
      "paperId": "fceb30afd10ee79c76fbcb811864fa9b696ded80",
      "externalIds": {
        "DBLP": "conf/icml/TaoCHFC18",
        "MAG": "2803713489",
        "CorpusId": 51875642
      },
      "url": "https://www.semanticscholar.org/paper/fceb30afd10ee79c76fbcb811864fa9b696ded80",
      "title": "Chi-square Generative Adversarial Network",
      "venue": "International Conference on Machine Learning",
      "year": 2018,
      "referenceCount": 12,
      "citationCount": 38,
      "authors": [
        {
          "authorId": "46387857",
          "name": "Chenyang Tao"
        },
        {
          "authorId": "2109077977",
          "name": "Liqun Chen"
        },
        {
          "authorId": "145153424",
          "name": "Ricardo Henao"
        },
        {
          "authorId": "145775107",
          "name": "Jianfeng Feng"
        },
        {
          "authorId": "145006560",
          "name": "L. Carin"
        }
      ]
    },
    {
      "paperId": "b81c4768c05edc30fe58fe9acf1107a29bd5aedd",
      "externalIds": {
        "DBLP": "journals/access/GuptaDBQRY25",
        "DOI": "10.1109/ACCESS.2024.3522847",
        "CorpusId": 275044999
      },
      "url": "https://www.semanticscholar.org/paper/b81c4768c05edc30fe58fe9acf1107a29bd5aedd",
      "title": "GANCE: Generative Adversarial Network Assisted Channel Estimation for Unmanned Aerial Vehicles Empowered 5G and Beyond Wireless Networks",
      "venue": "IEEE Access",
      "year": 2025,
      "referenceCount": 52,
      "citationCount": 7,
      "authors": [
        {
          "authorId": "2337280526",
          "name": "Chirag Gupta"
        },
        {
          "authorId": "2337283416",
          "name": "Ramani Kumar Das"
        },
        {
          "authorId": "2137345403",
          "name": "R. Barik"
        },
        {
          "authorId": "2120665917",
          "name": "S. N. Qurashi"
        },
        {
          "authorId": "2277354523",
          "name": "Diptendu Sinha Roy"
        },
        {
          "authorId": "9205388",
          "name": "S. Yadav"
        }
      ]
    },
    {
      "paperId": "4bb2ae3ad5c8f676d9209644df64848793dfbdf6",
      "externalIds": {
        "PubMedCentral": "9919127",
        "DBLP": "journals/sensors/GuoCLLAJ23",
        "DOI": "10.3390/s23031086",
        "CorpusId": 256023236,
        "PubMed": "36772126"
      },
      "url": "https://www.semanticscholar.org/paper/4bb2ae3ad5c8f676d9209644df64848793dfbdf6",
      "title": "Nonuniform Correction of Ground-Based Optical Telescope Image Based on Conditional Generative Adversarial Network",
      "venue": "Italian National Conference on Sensors",
      "year": 2023,
      "referenceCount": 48,
      "citationCount": 2,
      "authors": [
        {
          "authorId": "2165000073",
          "name": "Xiangji Guo"
        },
        {
          "authorId": "2157560737",
          "name": "Tao Chen"
        },
        {
          "authorId": "2338214441",
          "name": "Junchi Liu"
        },
        {
          "authorId": "97596708",
          "name": "Yuan-Jui Liu"
        },
        {
          "authorId": "9890973",
          "name": "Q. An"
        },
        {
          "authorId": "2115487243",
          "name": "Chunfeng Jiang"
        }
      ]
    },
    {
      "paperId": "1334e3b23bc960d60b613df4812c8d8bce495d9b",
      "externalIds": {
        "MAG": "3096949857",
        "ArXiv": "2004.00932",
        "DBLP": "conf/interspeech/LiF0Y20",
        "DOI": "10.21437/interspeech.2020-1016",
        "CorpusId": 214775022
      },
      "url": "https://www.semanticscholar.org/paper/1334e3b23bc960d60b613df4812c8d8bce495d9b",
      "title": "iMetricGAN: Intelligibility Enhancement for Speech-in-Noise using Generative Adversarial Network-based Metric Learning",
      "venue": "Interspeech",
      "year": 2020,
      "referenceCount": 21,
      "citationCount": 23,
      "authors": [
        {
          "authorId": "49404142",
          "name": "Haoyu Li"
        },
        {
          "authorId": "2777035",
          "name": "Szu-Wei Fu"
        },
        {
          "authorId": "145403933",
          "name": "Yu Tsao"
        },
        {
          "authorId": "1716857",
          "name": "J. Yamagishi"
        }
      ]
    },
    {
      "paperId": "3cbabe1b826ba48ffad1efb4091fb6c3c84709b4",
      "externalIds": {
        "MAG": "2908880179",
        "DOI": "10.3174/ajnr.A5927",
        "CorpusId": 58625918,
        "PubMed": "30630834"
      },
      "url": "https://www.semanticscholar.org/paper/3cbabe1b826ba48ffad1efb4091fb6c3c84709b4",
      "title": "Improving the Quality of Synthetic FLAIR Images with Deep Learning Using a Conditional Generative Adversarial Network for Pixel-by-Pixel Image Translation",
      "venue": "American Journal of Neuroradiology",
      "year": 2019,
      "referenceCount": 36,
      "citationCount": 71,
      "authors": [
        {
          "authorId": "2069990408",
          "name": "A. Hagiwara"
        },
        {
          "authorId": "145045753",
          "name": "Y. Otsuka"
        },
        {
          "authorId": "6779971",
          "name": "M. Hori"
        },
        {
          "authorId": "2250868009",
          "name": "Yasuhiko Tachibana"
        },
        {
          "authorId": "144730847",
          "name": "K. Yokoyama"
        },
        {
          "authorId": "2221127929",
          "name": "S. Fujita"
        },
        {
          "authorId": "3732877",
          "name": "C. Andica"
        },
        {
          "authorId": "2221207775",
          "name": "K. Kamagata"
        },
        {
          "authorId": "39960300",
          "name": "Ryusuke Irie"
        },
        {
          "authorId": "48681545",
          "name": "S. Koshino"
        },
        {
          "authorId": "7366452",
          "name": "Tomoko Maekawa"
        },
        {
          "authorId": "2268506602",
          "name": "Lydia Chougar"
        },
        {
          "authorId": "144948364",
          "name": "A. Wada"
        },
        {
          "authorId": "46678981",
          "name": "M. Y. Takemura"
        },
        {
          "authorId": "2240496396",
          "name": "Nobutaka Hattori"
        },
        {
          "authorId": "2249184106",
          "name": "S. Aoki"
        }
      ]
    },
    {
      "paperId": "710cb56ec0dfab4334275d1dc83d6f17ee8dae12",
      "externalIds": {
        "PubMedCentral": "9746633",
        "DOI": "10.5603/RPOR.a2022.0093",
        "CorpusId": 254387142,
        "PubMed": "36523807"
      },
      "url": "https://www.semanticscholar.org/paper/710cb56ec0dfab4334275d1dc83d6f17ee8dae12",
      "title": "Image synthesis of effective atomic number images using a deep convolutional neural network-based generative adversarial network",
      "venue": "Reports of Practical Oncology & Radiotherapy",
      "year": 2022,
      "referenceCount": 21,
      "citationCount": 2,
      "authors": [
        {
          "authorId": "2368642",
          "name": "Daisuke Kawahara"
        },
        {
          "authorId": "50640394",
          "name": "S. Ozawa"
        },
        {
          "authorId": "3082530",
          "name": "A. Saito"
        },
        {
          "authorId": "2112178088",
          "name": "Yasushi Nagata"
        }
      ]
    },
    {
      "paperId": "3f49db603c1a188769d99319d816ea9daa60e695",
      "externalIds": {
        "DBLP": "conf/mibam/TorkamanYSWMSLG21",
        "DOI": "10.1117/12.2580922",
        "CorpusId": 232260177,
        "PubMed": "33727759"
      },
      "url": "https://www.semanticscholar.org/paper/3f49db603c1a188769d99319d816ea9daa60e695",
      "title": "Direct image-based attenuation correction using conditional generative adversarial network for SPECT myocardial perfusion imaging",
      "venue": "Biomedical Applications in Molecular, Structural, and Functional Imaging",
      "year": 2021,
      "referenceCount": 23,
      "citationCount": 15,
      "authors": [
        {
          "authorId": "32511363",
          "name": "Mahsa Torkaman"
        },
        {
          "authorId": "2109792627",
          "name": "Jaewon Yang"
        },
        {
          "authorId": "3270239",
          "name": "Luyao Shi"
        },
        {
          "authorId": "2151038135",
          "name": "Rui Wang"
        },
        {
          "authorId": "74952515",
          "name": "E. Miller"
        },
        {
          "authorId": "1729449",
          "name": "A. Sinusas"
        },
        {
          "authorId": "144032035",
          "name": "Chi Liu"
        },
        {
          "authorId": "2943797",
          "name": "G. Gullberg"
        },
        {
          "authorId": "144892084",
          "name": "Youngho Seo"
        }
      ]
    },
    {
      "paperId": "5ef1cecc323b1ceb92a62fe5e7f6df1e71dce7d4",
      "externalIds": {
        "DOI": "10.1088/1361-6420/acc889",
        "CorpusId": 257842546
      },
      "url": "https://www.semanticscholar.org/paper/5ef1cecc323b1ceb92a62fe5e7f6df1e71dce7d4",
      "title": "Fluorescence image deconvolution microscopy via generative adversarial learning (FluoGAN)",
      "venue": "Inverse Problems",
      "year": 2023,
      "referenceCount": 37,
      "citationCount": 7,
      "authors": [
        {
          "authorId": "2213292267",
          "name": "Mayeul Cachia"
        },
        {
          "authorId": "2003640564",
          "name": "Vasiliki Stergiopoulou"
        },
        {
          "authorId": "2307884",
          "name": "Luca Calatroni"
        },
        {
          "authorId": "46387022",
          "name": "S. Schaub"
        },
        {
          "authorId": "1389816580",
          "name": "L. Blanc-Féraud"
        }
      ]
    },
    {
      "paperId": "48aaf6087c5794d249e2610d9d009ee531d1f65b",
      "externalIds": {
        "PubMedCentral": "8955512",
        "DOI": "10.3390/jpm12030361",
        "CorpusId": 247181221,
        "PubMed": "35330361"
      },
      "url": "https://www.semanticscholar.org/paper/48aaf6087c5794d249e2610d9d009ee531d1f65b",
      "title": "Magnetic Resonance-Based Synthetic Computed Tomography Using Generative Adversarial Networks for Intracranial Tumor Radiotherapy Treatment Planning",
      "venue": "Journal of Personalized Medicine",
      "year": 2022,
      "referenceCount": 30,
      "citationCount": 14,
      "authors": [
        {
          "authorId": "2157201885",
          "name": "Chun-Chieh Wang"
        },
        {
          "authorId": "2157179848",
          "name": "Pei-Huan Wu"
        },
        {
          "authorId": "2710670",
          "name": "Gigin Lin"
        },
        {
          "authorId": "48356119",
          "name": "Yen-ling Huang"
        },
        {
          "authorId": "2155853816",
          "name": "Yu-Chun Lin"
        },
        {
          "authorId": "1518610127",
          "name": "Yi-Peng Eve Chang"
        },
        {
          "authorId": "2354700",
          "name": "J. Weng"
        }
      ]
    },
    {
      "paperId": "f73a526b7fc1045aceec6641a3dcda469854c6b7",
      "externalIds": {
        "ArXiv": "2309.05776",
        "DBLP": "journals/wcl/RezaeiMTM24",
        "DOI": "10.1109/LWC.2024.3359578",
        "CorpusId": 267324568
      },
      "url": "https://www.semanticscholar.org/paper/f73a526b7fc1045aceec6641a3dcda469854c6b7",
      "title": "Adversarial Score-Based Generative Models for MMSE-Achieving AmBC Channel Estimation",
      "venue": "IEEE Wireless Communications Letters",
      "year": 2023,
      "referenceCount": 19,
      "citationCount": 6,
      "authors": [
        {
          "authorId": "47838170",
          "name": "Fatemeh Rezaei"
        },
        {
          "authorId": "1405053418",
          "name": "S. M. Marvasti-Zadeh"
        },
        {
          "authorId": "1738504",
          "name": "C. Tellambura"
        },
        {
          "authorId": "2266762631",
          "name": "A. Maaref"
        }
      ]
    }
  ]
}