{
  "total": 49,
  "offset": 0,
  "next": 10,
  "data": [
    {
      "paperId": "b5fa038000a81e55f1160136f401a9cde3be2f71",
      "externalIds": {
        "MAG": "2950471516",
        "DBLP": "journals/corr/LouizosW17",
        "ArXiv": "1703.01961",
        "CorpusId": 9280646
      },
      "url": "https://www.semanticscholar.org/paper/b5fa038000a81e55f1160136f401a9cde3be2f71",
      "title": "Multiplicative Normalizing Flows for Variational Bayesian Neural Networks",
      "venue": "International Conference on Machine Learning",
      "year": 2017,
      "referenceCount": 47,
      "citationCount": 487,
      "authors": [
        {
          "authorId": "2075783",
          "name": "Christos Louizos"
        },
        {
          "authorId": "1678311",
          "name": "M. Welling"
        }
      ]
    },
    {
      "paperId": "ad33b471cedc22a5c102dfb2d489e510847a41c3",
      "externalIds": {
        "DBLP": "journals/corr/abs-2301-03991",
        "ArXiv": "2301.03991",
        "DOI": "10.3389/fspas.2023.1139120",
        "CorpusId": 255570110
      },
      "url": "https://www.semanticscholar.org/paper/ad33b471cedc22a5c102dfb2d489e510847a41c3",
      "title": "Constraining cosmological parameters from N-body simulations with variational Bayesian neural networks",
      "venue": "Frontiers in Astronomy and Space Sciences",
      "year": 2023,
      "referenceCount": 46,
      "citationCount": 7,
      "authors": [
        {
          "authorId": "2065911329",
          "name": "H'ector J. Hort'ua"
        },
        {
          "authorId": "2150193007",
          "name": "L. '. Garc'ia"
        },
        {
          "authorId": "2226581170",
          "name": "Leonardo Castañeda C."
        }
      ]
    },
    {
      "paperId": "6879ecec797cd0f1319b54a963f91abb5f7325de",
      "externalIds": {
        "DBLP": "journals/corr/abs-1806-02315",
        "ArXiv": "1806.02315",
        "MAG": "2964630631",
        "CorpusId": 46950225
      },
      "url": "https://www.semanticscholar.org/paper/6879ecec797cd0f1319b54a963f91abb5f7325de",
      "title": "Randomized Value Functions via Multiplicative Normalizing Flows",
      "venue": "Conference on Uncertainty in Artificial Intelligence",
      "year": 2018,
      "referenceCount": 48,
      "citationCount": 40,
      "authors": [
        {
          "authorId": "145046554",
          "name": "Ahmed Touati"
        },
        {
          "authorId": "41017677",
          "name": "Harsh Satija"
        },
        {
          "authorId": "8365320",
          "name": "Joshua Romoff"
        },
        {
          "authorId": "145134886",
          "name": "Joelle Pineau"
        },
        {
          "authorId": "145467703",
          "name": "P. Vincent"
        }
      ]
    },
    {
      "paperId": "bc9f777afde9e903c7cf918b6d4b1b0ac11673e7",
      "externalIds": {
        "ArXiv": "2305.03395",
        "DBLP": "journals/corr/abs-2305-03395",
        "DOI": "10.48550/arXiv.2305.03395",
        "CorpusId": 258546818
      },
      "url": "https://www.semanticscholar.org/paper/bc9f777afde9e903c7cf918b6d4b1b0ac11673e7",
      "title": "Sparsifying Bayesian neural networks with latent binary variables and normalizing flows",
      "venue": "Trans. Mach. Learn. Res.",
      "year": 2023,
      "referenceCount": 82,
      "citationCount": 3,
      "authors": [
        {
          "authorId": "2216488625",
          "name": "Lars Skaaret-Lund"
        },
        {
          "authorId": "1926674",
          "name": "G. Storvik"
        },
        {
          "authorId": "51116121",
          "name": "A. Hubin"
        }
      ]
    },
    {
      "paperId": "a61d07a74d56d261f5add9825ced5dfc52d25787",
      "externalIds": {
        "DBLP": "journals/tsipn/SuLYFH25",
        "DOI": "10.1109/TSIPN.2025.3530350",
        "CorpusId": 275642837
      },
      "url": "https://www.semanticscholar.org/paper/a61d07a74d56d261f5add9825ced5dfc52d25787",
      "title": "Variational Graph Neural Network Based on Normalizing Flows",
      "venue": "IEEE Transactions on Signal and Information Processing over Networks",
      "year": 2025,
      "referenceCount": 52,
      "citationCount": 2,
      "authors": [
        {
          "authorId": "2152173374",
          "name": "Hailong Su"
        },
        {
          "authorId": "2135216758",
          "name": "Zhipeng Li"
        },
        {
          "authorId": "2267884240",
          "name": "Chang-An Yuan"
        },
        {
          "authorId": "2339469498",
          "name": "Vladimir F. Filaretov"
        },
        {
          "authorId": "2334344664",
          "name": "De-Shuang Huang"
        }
      ]
    },
    {
      "paperId": "39f2d0942f4457d718cb2c74ebdf5ec7b04ba7f5",
      "externalIds": {
        "DBLP": "journals/corr/abs-2602-19597",
        "ArXiv": "2602.19597",
        "DOI": "10.48550/arXiv.2602.19597",
        "CorpusId": 285974309
      },
      "url": "https://www.semanticscholar.org/paper/39f2d0942f4457d718cb2c74ebdf5ec7b04ba7f5",
      "title": "Neural Markov chain Monte Carlo: Bayesian inversion via normalizing flows and variational autoencoders",
      "venue": "arXiv.org",
      "year": 2026,
      "referenceCount": 56,
      "citationCount": 0,
      "authors": [
        {
          "authorId": "2387864990",
          "name": "Giacomo Bottacini"
        },
        {
          "authorId": "2060210274",
          "name": "Matteo Torzoni"
        },
        {
          "authorId": "2155762786",
          "name": "Andrea Manzoni"
        }
      ]
    },
    {
      "paperId": "eabf7206891804a96da88d27974fdc538db6f1e7",
      "externalIds": {
        "DBLP": "journals/corr/abs-2302-06035",
        "ArXiv": "2302.06035",
        "DOI": "10.1080/10618600.2024.2325455",
        "CorpusId": 256827153
      },
      "url": "https://www.semanticscholar.org/paper/eabf7206891804a96da88d27974fdc538db6f1e7",
      "title": "Variational Bayesian Neural Networks via Resolution of Singularities",
      "venue": "Journal of Computational And Graphical Statistics",
      "year": 2023,
      "referenceCount": 64,
      "citationCount": 4,
      "authors": [
        {
          "authorId": "49752592",
          "name": "Susan Wei"
        },
        {
          "authorId": "47241203",
          "name": "Edmund Lau"
        }
      ]
    },
    {
      "paperId": "8f471731de94c6567f682dc3da727d6473fe064a",
      "externalIds": {
        "DBLP": "journals/corr/abs-2404-13056",
        "ArXiv": "2404.13056",
        "DOI": "10.1016/j.cma.2024.117457",
        "CorpusId": 269293116
      },
      "url": "https://www.semanticscholar.org/paper/8f471731de94c6567f682dc3da727d6473fe064a",
      "title": "Variational Bayesian Optimal Experimental Design with Normalizing Flows",
      "venue": "Computer Methods in Applied Mechanics and Engineering",
      "year": 2024,
      "referenceCount": 69,
      "citationCount": 18,
      "authors": [
        {
          "authorId": "152531232",
          "name": "Jiayuan Dong"
        },
        {
          "authorId": "2275054282",
          "name": "Christian Jacobsen"
        },
        {
          "authorId": "2279754171",
          "name": "Mehdi Khalloufi"
        },
        {
          "authorId": "2279754417",
          "name": "Maryam Akram"
        },
        {
          "authorId": "2279776971",
          "name": "Wanjiao Liu"
        },
        {
          "authorId": "2259412549",
          "name": "Karthik Duraisamy"
        },
        {
          "authorId": "2279758795",
          "name": "Xun Huan"
        }
      ]
    },
    {
      "paperId": "33e9370b34073132f91eb8582bd3fe2aab8b031d",
      "externalIds": {
        "DBLP": "journals/corr/abs-2302-10448",
        "ArXiv": "2302.10448",
        "DOI": "10.1007/s10483-023-2997-7",
        "CorpusId": 257050224
      },
      "url": "https://www.semanticscholar.org/paper/33e9370b34073132f91eb8582bd3fe2aab8b031d",
      "title": "Variational inference in neural functional prior using normalizing flows: application to differential equation and operator learning problems",
      "venue": "Applied Mathematics and Mechanics",
      "year": 2023,
      "referenceCount": 32,
      "citationCount": 5,
      "authors": [
        {
          "authorId": "32526075",
          "name": "Xuhui Meng"
        }
      ]
    },
    {
      "paperId": "682ca607a85849f5aacaa09461f99d5a529943f9",
      "externalIds": {
        "DBLP": "journals/jcam/WuZZ24",
        "DOI": "10.1016/j.cam.2023.115659",
        "CorpusId": 265392322
      },
      "url": "https://www.semanticscholar.org/paper/682ca607a85849f5aacaa09461f99d5a529943f9",
      "title": "Reduced-order model-based variational inference with normalizing flows for Bayesian elliptic inverse problems",
      "venue": "Journal of Computational and Applied Mathematics",
      "year": 2023,
      "referenceCount": 51,
      "citationCount": 3,
      "authors": [
        {
          "authorId": "3412134",
          "name": "Zhizhang Wu"
        },
        {
          "authorId": "2238090423",
          "name": "Chengjian Zhang"
        },
        {
          "authorId": "2237395956",
          "name": "Zhiwen Zhang"
        }
      ]
    }
  ]
}