{
  "total": 25,
  "offset": 0,
  "next": 10,
  "data": [
    {
      "paperId": "4383095d2c61904feba295f8949e0108052b5dda",
      "externalIds": {
        "DBLP": "conf/icml/RamaswamyT015",
        "MAG": "1884004995",
        "CorpusId": 1038346
      },
      "url": "https://www.semanticscholar.org/paper/4383095d2c61904feba295f8949e0108052b5dda",
      "title": "Convex Calibrated Surrogates for Hierarchical Classification",
      "venue": "International Conference on Machine Learning",
      "year": 2015,
      "referenceCount": 22,
      "citationCount": 22,
      "authors": [
        {
          "authorId": "2508897",
          "name": "H. G. Ramaswamy"
        },
        {
          "authorId": "3064914",
          "name": "Ambuj Tewari"
        },
        {
          "authorId": "2797063",
          "name": "S. Agarwal"
        }
      ]
    },
    {
      "paperId": "b7677ef1ddf3d0bde7903e1268be114c5c6b6c29",
      "externalIds": {
        "CorpusId": 12765768
      },
      "url": "https://www.semanticscholar.org/paper/b7677ef1ddf3d0bde7903e1268be114c5c6b6c29",
      "title": "Convex Calibrated Surrogates for Hierarchical Classification Convex Calibrated Surrogates for Hierarchical Classification",
      "venue": "",
      "year": 2015,
      "referenceCount": 0,
      "citationCount": 0,
      "authors": []
    },
    {
      "paperId": "25c20f3fa0d162a83ae67be4ad81dd9556125e49",
      "externalIds": {
        "ArXiv": "2009.07801",
        "DBLP": "journals/corr/abs-2009-07801",
        "MAG": "3085515880",
        "CorpusId": 221081816,
        "PubMed": "34263176"
      },
      "url": "https://www.semanticscholar.org/paper/25c20f3fa0d162a83ae67be4ad81dd9556125e49",
      "title": "Convex Calibrated Surrogates for the Multi-Label F-Measure",
      "venue": "International Conference on Machine Learning",
      "year": 2020,
      "referenceCount": 26,
      "citationCount": 23,
      "authors": [
        {
          "authorId": "48984942",
          "name": "Mingyuan Zhang"
        },
        {
          "authorId": "2508897",
          "name": "H. G. Ramaswamy"
        },
        {
          "authorId": "2797063",
          "name": "S. Agarwal"
        }
      ]
    },
    {
      "paperId": "e25a58b04df648c104cb8b5d76edc6379811cd32",
      "externalIds": {
        "DBLP": "journals/corr/abs-2410-10736",
        "ArXiv": "2410.10736",
        "DOI": "10.48550/arXiv.2410.10736",
        "CorpusId": 273346077
      },
      "url": "https://www.semanticscholar.org/paper/e25a58b04df648c104cb8b5d76edc6379811cd32",
      "title": "Towards Calibrated Losses for Adversarial Robust Reject Option Classification",
      "venue": "Asian Conference on Machine Learning",
      "year": 2024,
      "referenceCount": 27,
      "citationCount": 1,
      "authors": [
        {
          "authorId": "2000691088",
          "name": "Vrund Shah"
        },
        {
          "authorId": "2325903657",
          "name": "T. Chaudhari"
        },
        {
          "authorId": "3222980",
          "name": "Naresh Manwani"
        }
      ]
    },
    {
      "paperId": "730bb754e8bf51e6faf1e10062e1bd4f4c653875",
      "externalIds": {
        "DBLP": "journals/corr/abs-2005-13748",
        "MAG": "3046664246",
        "ArXiv": "2005.13748",
        "CorpusId": 218971703
      },
      "url": "https://www.semanticscholar.org/paper/730bb754e8bf51e6faf1e10062e1bd4f4c653875",
      "title": "Calibrated Surrogate Losses for Adversarially Robust Classification",
      "venue": "Annual Conference Computational Learning Theory",
      "year": 2020,
      "referenceCount": 82,
      "citationCount": 48,
      "authors": [
        {
          "authorId": "2052378544",
          "name": "Han Bao"
        },
        {
          "authorId": "2403412732",
          "name": "C. Scott"
        },
        {
          "authorId": "67154907",
          "name": "Masashi Sugiyama"
        }
      ]
    },
    {
      "paperId": "4dd22c01add4ef967e543063abca50b2476de1fb",
      "externalIds": {
        "MAG": "2155964055",
        "DBLP": "conf/nips/NockN08",
        "CorpusId": 1502623
      },
      "url": "https://www.semanticscholar.org/paper/4dd22c01add4ef967e543063abca50b2476de1fb",
      "title": "On the Efficient Minimization of Classification Calibrated Surrogates",
      "venue": "Neural Information Processing Systems",
      "year": 2008,
      "referenceCount": 14,
      "citationCount": 49,
      "authors": [
        {
          "authorId": "1718786",
          "name": "R. Nock"
        },
        {
          "authorId": "144863930",
          "name": "F. Nielsen"
        }
      ]
    },
    {
      "paperId": "fca2021026d2afafc5bb696df1c8f2756e61d6fe",
      "externalIds": {
        "DBLP": "conf/nips/MeunierEPCA22",
        "ArXiv": "2205.10022",
        "DOI": "10.48550/arXiv.2205.10022",
        "CorpusId": 248964974
      },
      "url": "https://www.semanticscholar.org/paper/fca2021026d2afafc5bb696df1c8f2756e61d6fe",
      "title": "Towards Consistency in Adversarial Classification",
      "venue": "Neural Information Processing Systems",
      "year": 2022,
      "referenceCount": 22,
      "citationCount": 12,
      "authors": [
        {
          "authorId": "47516106",
          "name": "Laurent Meunier"
        },
        {
          "authorId": "1507575972",
          "name": "Raphael Ettedgui"
        },
        {
          "authorId": "35449300",
          "name": "Rafael Pinot"
        },
        {
          "authorId": "1705871",
          "name": "Y. Chevaleyre"
        },
        {
          "authorId": "1773774",
          "name": "J. Atif"
        }
      ]
    },
    {
      "paperId": "c41b4357b315e1196f13fd1d966309cc0024326f",
      "externalIds": {
        "DBLP": "journals/pami/NockN09",
        "MAG": "2154171475",
        "DOI": "10.1109/TPAMI.2008.225",
        "CorpusId": 243363,
        "PubMed": "19762930"
      },
      "url": "https://www.semanticscholar.org/paper/c41b4357b315e1196f13fd1d966309cc0024326f",
      "title": "Bregman Divergences and Surrogates for Learning",
      "venue": "IEEE Transactions on Pattern Analysis and Machine Intelligence",
      "year": 2009,
      "referenceCount": 26,
      "citationCount": 71,
      "authors": [
        {
          "authorId": "1718786",
          "name": "R. Nock"
        },
        {
          "authorId": "144863930",
          "name": "F. Nielsen"
        }
      ]
    },
    {
      "paperId": "a6f0a61579eb0760499cce60361c0981ec02061d",
      "externalIds": {
        "DOI": "10.1364/ao.573708",
        "CorpusId": 281875616,
        "PubMed": "41842404"
      },
      "url": "https://www.semanticscholar.org/paper/a6f0a61579eb0760499cce60361c0981ec02061d",
      "title": "Image classification using optical spiking neural networks based on VCSEL with saturable absorption region neurons.",
      "venue": "Applied Optics",
      "year": 2025,
      "referenceCount": 0,
      "citationCount": 0,
      "authors": [
        {
          "authorId": "2384808523",
          "name": "Jin Wen"
        },
        {
          "authorId": "2283941263",
          "name": "Lan Yin"
        },
        {
          "authorId": "2283780519",
          "name": "Shuangchao Qu"
        },
        {
          "authorId": "2283881361",
          "name": "Chenglong Wang"
        },
        {
          "authorId": "2345915132",
          "name": "Dingkang Zhang"
        },
        {
          "authorId": "2345803483",
          "name": "Hongsen Zhao"
        },
        {
          "authorId": "2345753649",
          "name": "Yuening Jiang"
        }
      ]
    },
    {
      "paperId": "26a7aa26974cbbd52f06cd7742d3e762efa7a9af",
      "externalIds": {
        "DBLP": "journals/corr/Ramaswamy014",
        "MAG": "2188209982",
        "ArXiv": "1408.2764",
        "CorpusId": 16190316
      },
      "url": "https://www.semanticscholar.org/paper/26a7aa26974cbbd52f06cd7742d3e762efa7a9af",
      "title": "Convex Calibration Dimension for Multiclass Loss Matrices",
      "venue": "Journal of machine learning research",
      "year": 2014,
      "referenceCount": 39,
      "citationCount": 47,
      "authors": [
        {
          "authorId": "2508897",
          "name": "H. G. Ramaswamy"
        },
        {
          "authorId": "2797063",
          "name": "S. Agarwal"
        }
      ]
    }
  ]
}