{
  "total": 295494,
  "offset": 0,
  "next": 10,
  "data": [
    {
      "paperId": "74d5b110579bd943fcb50381203bd290468998b9",
      "externalIds": {
        "MAG": "2949268353",
        "DBLP": "conf/icml/FrostigMMS16",
        "ArXiv": "1602.06872",
        "CorpusId": 9003176
      },
      "url": "https://www.semanticscholar.org/paper/74d5b110579bd943fcb50381203bd290468998b9",
      "title": "Principal Component Projection Without Principal Component Analysis",
      "venue": "International Conference on Machine Learning",
      "year": 2016,
      "referenceCount": 31,
      "citationCount": 33,
      "authors": [
        {
          "authorId": "34765463",
          "name": "Roy Frostig"
        },
        {
          "authorId": "2032038",
          "name": "Cameron Musco"
        },
        {
          "authorId": "2767340",
          "name": "Christopher Musco"
        },
        {
          "authorId": "2357926",
          "name": "Aaron Sidford"
        }
      ]
    },
    {
      "paperId": "74a5a8a06560833da50643e87d51711a45161595",
      "externalIds": {
        "ArXiv": "2603.13441",
        "CorpusId": 286568764
      },
      "url": "https://www.semanticscholar.org/paper/74a5a8a06560833da50643e87d51711a45161595",
      "title": "Filtered Spectral Projection for Quantum Principal Component Analysis",
      "venue": "",
      "year": 2026,
      "referenceCount": 12,
      "citationCount": 0,
      "authors": [
        {
          "authorId": "2350625390",
          "name": "Sk Mujaffar Hossain"
        },
        {
          "authorId": "48466420",
          "name": "S. Bhattacharjee"
        }
      ]
    },
    {
      "paperId": "fd032ac08275eafb15b76147384e7741652d5cd6",
      "externalIds": {
        "ArXiv": "2405.05150",
        "CorpusId": 269626379
      },
      "url": "https://www.semanticscholar.org/paper/fd032ac08275eafb15b76147384e7741652d5cd6",
      "title": "Principal Component Analysis for Spatial Phase Reconstruction in Atom Interferometry",
      "venue": "",
      "year": 2024,
      "referenceCount": 7,
      "citationCount": 1,
      "authors": [
        {
          "authorId": "14215687",
          "name": "S. Seckmeyer"
        },
        {
          "authorId": "49059469",
          "name": "H. Ahlers"
        },
        {
          "authorId": "2220214706",
          "name": "Jan-Niclas Kirsten-Siemß"
        },
        {
          "authorId": "102576692",
          "name": "M. Gersemann"
        },
        {
          "authorId": "2945985",
          "name": "E. Rasel"
        },
        {
          "authorId": "98117787",
          "name": "S. Abend"
        },
        {
          "authorId": "116853003",
          "name": "N. Gaaloul"
        }
      ]
    },
    {
      "paperId": "87bd83453b762f1e0c118eb83aa59dc16149bd24",
      "externalIds": {
        "DOI": "10.3390/electronics13245000",
        "CorpusId": 274914109
      },
      "url": "https://www.semanticscholar.org/paper/87bd83453b762f1e0c118eb83aa59dc16149bd24",
      "title": "Semi-Supervised Few-Shot Incremental Learning with k-Probabilistic Principal Component Analysis",
      "venue": "Electronics",
      "year": 2024,
      "referenceCount": 12,
      "citationCount": 0,
      "authors": [
        {
          "authorId": "2321665600",
          "name": "Ke Han"
        },
        {
          "authorId": "2285172483",
          "name": "A. Barbu"
        }
      ]
    },
    {
      "paperId": "6fc87d037342411eaac0ea1e6c82607785bbe116",
      "externalIds": {
        "MAG": "2811113867",
        "DOI": "10.1117/1.OE.57.6.064105",
        "CorpusId": 125871514
      },
      "url": "https://www.semanticscholar.org/paper/6fc87d037342411eaac0ea1e6c82607785bbe116",
      "title": "Exponential fringe projection for alleviating phase error caused by gamma distortion based on principal component analysis",
      "venue": "Optical Engineering: The Journal of SPIE",
      "year": 2018,
      "referenceCount": 25,
      "citationCount": 5,
      "authors": [
        {
          "authorId": "2145762370",
          "name": "Chao Chen"
        },
        {
          "authorId": "144984641",
          "name": "N. Gao"
        },
        {
          "authorId": "47119497",
          "name": "Xiangjun Wang"
        },
        {
          "authorId": "50316294",
          "name": "Zonghua Zhang"
        }
      ]
    },
    {
      "paperId": "159baffb22ecce24c466560ff3bb000f6c057983",
      "externalIds": {
        "MAG": "2462180801",
        "DOI": "10.1007/s11418-016-1004-2",
        "CorpusId": 15105430,
        "PubMed": "27164908"
      },
      "url": "https://www.semanticscholar.org/paper/159baffb22ecce24c466560ff3bb000f6c057983",
      "title": "Application of a new method, orthogonal projection to latent structure (OPLS) combined with principal component analysis (PCA), to screening of prostaglandin E2 production inhibitory flavonoids in Scutellaria Root",
      "venue": "Journal of Natural Medicines",
      "year": 2016,
      "referenceCount": 25,
      "citationCount": 10,
      "authors": [
        {
          "authorId": "2109048287",
          "name": "Lian Huang"
        },
        {
          "authorId": "3603772",
          "name": "H. Fuchino"
        },
        {
          "authorId": "24345118",
          "name": "N. Kawahara"
        },
        {
          "authorId": "2432320",
          "name": "Y. Narukawa"
        },
        {
          "authorId": "5116503",
          "name": "N. Hada"
        },
        {
          "authorId": "27071732",
          "name": "F. Kiuchi"
        }
      ]
    },
    {
      "paperId": "249d29025f50e2e0518f556980d82e9ffc20e1a8",
      "externalIds": {
        "DOI": "10.1007/s11418-016-1004-2",
        "CorpusId": 255164301
      },
      "url": "https://www.semanticscholar.org/paper/249d29025f50e2e0518f556980d82e9ffc20e1a8",
      "title": "Application of a new method, orthogonal projection to latent structure (OPLS) combined with principal component analysis (PCA), to screening of prostaglandin E2 production inhibitory flavonoids in Scutellaria Root",
      "venue": "Journal of Natural Medicines",
      "year": 2016,
      "referenceCount": 0,
      "citationCount": 0,
      "authors": [
        {
          "authorId": "2109048287",
          "name": "Lian Huang"
        },
        {
          "authorId": "3603772",
          "name": "H. Fuchino"
        },
        {
          "authorId": "24345118",
          "name": "N. Kawahara"
        },
        {
          "authorId": "2432320",
          "name": "Y. Narukawa"
        },
        {
          "authorId": "5116503",
          "name": "N. Hada"
        },
        {
          "authorId": "27071732",
          "name": "F. Kiuchi"
        }
      ]
    },
    {
      "paperId": "9552ac39a57daacf3d75865a268935b5a0df9bbb",
      "externalIds": {
        "MAG": "2078626246",
        "DBLP": "journals/nn/BaldiH89",
        "DOI": "10.1016/0893-6080(89)90014-2",
        "CorpusId": 14333248
      },
      "url": "https://www.semanticscholar.org/paper/9552ac39a57daacf3d75865a268935b5a0df9bbb",
      "title": "Neural networks and principal component analysis: Learning from examples without local minima",
      "venue": "Neural Networks",
      "year": 1989,
      "referenceCount": 13,
      "citationCount": 1618,
      "authors": [
        {
          "authorId": "144902513",
          "name": "P. Baldi"
        },
        {
          "authorId": "1764952",
          "name": "K. Hornik"
        }
      ]
    },
    {
      "paperId": "dd1ec56126f8217b77d2f06d9242238320c072e6",
      "externalIds": {
        "MAG": "2270708757",
        "DBLP": "journals/iet-cvi/AhmadkhaniA16",
        "DOI": "10.1049/iet-cvi.2014.0434",
        "CorpusId": 206185685
      },
      "url": "https://www.semanticscholar.org/paper/dd1ec56126f8217b77d2f06d9242238320c072e6",
      "title": "Face recognition using supervised probabilistic principal component analysis mixture model in dimensionality reduction without loss framework",
      "venue": "IET Computer Vision",
      "year": 2016,
      "referenceCount": 26,
      "citationCount": 24,
      "authors": [
        {
          "authorId": "30429177",
          "name": "S. Ahmadkhani"
        },
        {
          "authorId": "49277935",
          "name": "Peyman Adibi"
        }
      ]
    },
    {
      "paperId": "488d968e17f689d52a2ce4cc7e97f831a8b0f39c",
      "externalIds": {
        "MAG": "2973066737",
        "DOI": "10.1155/2019/8568920",
        "CorpusId": 203146191
      },
      "url": "https://www.semanticscholar.org/paper/488d968e17f689d52a2ce4cc7e97f831a8b0f39c",
      "title": "Effect of Spices on the Formation of VOCs in Roasted Mutton Based on GC-MS and Principal Component Analysis",
      "venue": "Journal of Food Quality",
      "year": 2019,
      "referenceCount": 46,
      "citationCount": 24,
      "authors": [
        {
          "authorId": "94707872",
          "name": "Jiapei Xi"
        },
        {
          "authorId": "2092053526",
          "name": "Ping Zhan"
        },
        {
          "authorId": "31253286",
          "name": "Honglei Tian"
        },
        {
          "authorId": "1490938689",
          "name": "Peng Wang"
        }
      ]
    }
  ]
}