{
  "total": 2053,
  "offset": 0,
  "next": 10,
  "data": [
    {
      "paperId": "d6cf7b88d17a90a14664d8dca8887889f622e51b",
      "externalIds": {
        "MAG": "2964112969",
        "DBLP": "conf/icml/YangRS17",
        "ArXiv": "1602.08610",
        "CorpusId": 6370390
      },
      "url": "https://www.semanticscholar.org/paper/d6cf7b88d17a90a14664d8dca8887889f622e51b",
      "title": "Scalable Bayesian Rule Lists",
      "venue": "International Conference on Machine Learning",
      "year": 2016,
      "referenceCount": 62,
      "citationCount": 228,
      "authors": [
        {
          "authorId": "2134725367",
          "name": "Hongyu Yang"
        },
        {
          "authorId": "48395540",
          "name": "C. Rudin"
        },
        {
          "authorId": "1745942",
          "name": "M. Seltzer"
        }
      ]
    },
    {
      "paperId": "4b14b16fa491cb920d9ea9f0256679693646c565",
      "externalIds": {
        "MAG": "3092304580",
        "PubMedCentral": "7553663",
        "DOI": "10.2147/CLEP.S265404",
        "CorpusId": 225076452,
        "PubMed": "33116900"
      },
      "url": "https://www.semanticscholar.org/paper/4b14b16fa491cb920d9ea9f0256679693646c565",
      "title": "A Novel Method for Quantifying Intestinal Inflammatory Burden in Inflammatory Bowel Disease Using Register Data",
      "venue": "Clinical Epidemiology",
      "year": 2020,
      "referenceCount": 55,
      "citationCount": 1,
      "authors": [
        {
          "authorId": "2243947344",
          "name": "J. Axelrad"
        },
        {
          "authorId": "49128490",
          "name": "M. Sachs"
        },
        {
          "authorId": "144310215",
          "name": "J. Ludvigsson"
        },
        {
          "authorId": "3852176",
          "name": "O. Olén"
        }
      ]
    },
    {
      "paperId": "c7aec795c4f595b0cfc923c6d48e0e54741824d0",
      "externalIds": {
        "MAG": "2980917175",
        "CorpusId": 208083936
      },
      "url": "https://www.semanticscholar.org/paper/c7aec795c4f595b0cfc923c6d48e0e54741824d0",
      "title": "QCBA: Postoptimization of Quantitative Attributes in Classifiers based on Association Rules",
      "venue": "",
      "year": 2017,
      "referenceCount": 46,
      "citationCount": 2,
      "authors": [
        {
          "authorId": "2005670",
          "name": "Tomáš Kliegr"
        }
      ]
    },
    {
      "paperId": "2f1e4034098a27290285409ddbb1fc9c22090954",
      "externalIds": {
        "DOI": "10.1109/bigdia53151.2021.9619695",
        "CorpusId": 244934753
      },
      "url": "https://www.semanticscholar.org/paper/2f1e4034098a27290285409ddbb1fc9c22090954",
      "title": "Self-interpretable Bayesian Rule Lists Model with Deep Prototype Layer",
      "venue": "2021 7th International Conference on Big Data and Information Analytics (BigDIA)",
      "year": 2021,
      "referenceCount": 0,
      "citationCount": 0,
      "authors": [
        {
          "authorId": "4621833",
          "name": "Haochen Qin"
        },
        {
          "authorId": "2289827887",
          "name": "Yu Gu"
        },
        {
          "authorId": "2355041",
          "name": "Weihui Deng"
        },
        {
          "authorId": "2332469152",
          "name": "Dong Xu"
        },
        {
          "authorId": "2107926840",
          "name": "Guoyin Wang"
        }
      ]
    },
    {
      "paperId": "51da88af7966119a9667521215f1e1a1aabb7375",
      "externalIds": {
        "MAG": "2954156455",
        "CorpusId": 198359803
      },
      "url": "https://www.semanticscholar.org/paper/51da88af7966119a9667521215f1e1a1aabb7375",
      "title": "Knowledge Discovery From Sensitive Data: Differentially Private Bayesian Rule Lists",
      "venue": "",
      "year": 2018,
      "referenceCount": 4,
      "citationCount": 0,
      "authors": [
        {
          "authorId": "150894111",
          "name": "A. Belardo"
        }
      ]
    },
    {
      "paperId": "39d6532fd2ddf5a98aa3f8bc0859379e19c27db2",
      "externalIds": {
        "DBLP": "journals/corr/abs-2406-12803",
        "ArXiv": "2406.12803",
        "DOI": "10.1145/3637528.3671989",
        "CorpusId": 270562819
      },
      "url": "https://www.semanticscholar.org/paper/39d6532fd2ddf5a98aa3f8bc0859379e19c27db2",
      "title": "Scalable Rule Lists Learning with Sampling",
      "venue": "Knowledge Discovery and Data Mining",
      "year": 2024,
      "referenceCount": 41,
      "citationCount": 3,
      "authors": [
        {
          "authorId": "9621781",
          "name": "Leonardo Pellegrina"
        },
        {
          "authorId": "2852175",
          "name": "Fabio Vandin"
        }
      ]
    },
    {
      "paperId": "fb2425fd534115c2d0144f11c610c07f3b6f7d4e",
      "externalIds": {
        "ArXiv": "2509.22677",
        "DBLP": "journals/corr/abs-2509-22677",
        "DOI": "10.48550/arXiv.2509.22677",
        "CorpusId": 281674045
      },
      "url": "https://www.semanticscholar.org/paper/fb2425fd534115c2d0144f11c610c07f3b6f7d4e",
      "title": "Profit over Proxies: A Scalable Bayesian Decision Framework for Optimizing Multi-Variant Online Experiments",
      "venue": "arXiv.org",
      "year": 2025,
      "referenceCount": 33,
      "citationCount": 0,
      "authors": [
        {
          "authorId": "2325987307",
          "name": "Srijesh Pillai"
        },
        {
          "authorId": "71899559",
          "name": "Rajesh Kumar Chandrawat"
        }
      ]
    },
    {
      "paperId": "fa2f0434fd9c1ab026e5f3959c74ad24fec35838",
      "externalIds": {
        "DBLP": "journals/titb/DongND25",
        "DOI": "10.1109/JBHI.2025.3567944",
        "CorpusId": 278393256,
        "PubMed": "40333101"
      },
      "url": "https://www.semanticscholar.org/paper/fa2f0434fd9c1ab026e5f3959c74ad24fec35838",
      "title": "Scalable Bayesian Nonparametric Method for Clinical Risk Prediction Using Large-Scale Data From Heterogeneous Populations",
      "venue": "IEEE journal of biomedical and health informatics",
      "year": 2025,
      "referenceCount": 40,
      "citationCount": 0,
      "authors": [
        {
          "authorId": "2053361648",
          "name": "N. Dong"
        },
        {
          "authorId": "2294985461",
          "name": "Nandini Nair"
        },
        {
          "authorId": "2191405313",
          "name": "Dongping Du"
        }
      ]
    },
    {
      "paperId": "e1223a4a1408c913b35bd42370ecc7ccaf50791a",
      "externalIds": {
        "DBLP": "conf/icpr/ShakurQWMH20",
        "DOI": "10.1109/ICPR48806.2021.9413157",
        "CorpusId": 233877612
      },
      "url": "https://www.semanticscholar.org/paper/e1223a4a1408c913b35bd42370ecc7ccaf50791a",
      "title": "GPSRL: Learning Semi-Parametric Bayesian Survival Rule Lists from Heterogeneous Patient Data",
      "venue": "International Conference on Pattern Recognition",
      "year": 2021,
      "referenceCount": 29,
      "citationCount": 2,
      "authors": [
        {
          "authorId": "2088844847",
          "name": "Ameer Hamza Shakur"
        },
        {
          "authorId": "145616431",
          "name": "Xiaoning Qian"
        },
        {
          "authorId": "2969311",
          "name": "Zhangyang Wang"
        },
        {
          "authorId": "2476394",
          "name": "B. Mortazavi"
        },
        {
          "authorId": "144297666",
          "name": "Shuai Huang"
        }
      ]
    },
    {
      "paperId": "ba81dcd885f6210d942a9ca457173f853b923d8c",
      "externalIds": {
        "ArXiv": "2411.06428",
        "DBLP": "journals/corr/abs-2411-06428",
        "DOI": "10.48550/arXiv.2411.06428",
        "CorpusId": 273963860
      },
      "url": "https://www.semanticscholar.org/paper/ba81dcd885f6210d942a9ca457173f853b923d8c",
      "title": "Neuro-Symbolic Rule Lists",
      "venue": "arXiv.org",
      "year": 2024,
      "referenceCount": 26,
      "citationCount": 2,
      "authors": [
        {
          "authorId": "2283356988",
          "name": "Sascha Xu"
        },
        {
          "authorId": "2271510300",
          "name": "Nils Philipp Walter"
        },
        {
          "authorId": "49688681",
          "name": "J. Vreeken"
        }
      ]
    }
  ]
}