{
  "total": 7398,
  "offset": 0,
  "next": 10,
  "data": [
    {
      "paperId": "acc43abe319bca7652a91f7d4ca6187049fb82e4",
      "externalIds": {
        "ArXiv": "1807.04225",
        "DBLP": "journals/corr/abs-1807-04225",
        "MAG": "2804180102",
        "CorpusId": 49665167
      },
      "url": "https://www.semanticscholar.org/paper/acc43abe319bca7652a91f7d4ca6187049fb82e4",
      "title": "Measuring abstract reasoning in neural networks",
      "venue": "International Conference on Machine Learning",
      "year": 2018,
      "referenceCount": 32,
      "citationCount": 399,
      "authors": [
        {
          "authorId": "35030998",
          "name": "Adam Santoro"
        },
        {
          "authorId": "145783676",
          "name": "Felix Hill"
        },
        {
          "authorId": "50181861",
          "name": "D. Barrett"
        },
        {
          "authorId": "4690624",
          "name": "Ari S. Morcos"
        },
        {
          "authorId": "2542999",
          "name": "T. Lillicrap"
        }
      ]
    },
    {
      "paperId": "8973582a30b6f8bf2106d2c9097a0904614c9318",
      "externalIds": {
        "DBLP": "journals/sncs/Wang21",
        "DOI": "10.1007/s42979-021-00758-7",
        "CorpusId": 237156178
      },
      "url": "https://www.semanticscholar.org/paper/8973582a30b6f8bf2106d2c9097a0904614c9318",
      "title": "Deep Residual Networks’ Abstract Reasoning Performance on Raven’s Progressive Matrices",
      "venue": "SN Computer Science",
      "year": 2021,
      "referenceCount": 32,
      "citationCount": 0,
      "authors": [
        {
          "authorId": "2108710556",
          "name": "Shuyu Wang"
        }
      ]
    },
    {
      "paperId": "8ae11f77fabd92ef64cee94f708bc71e1f8479bc",
      "externalIds": {
        "DBLP": "journals/corr/abs-2010-06746",
        "ArXiv": "2010.06746",
        "MAG": "3093025048",
        "CorpusId": 222341858
      },
      "url": "https://www.semanticscholar.org/paper/8ae11f77fabd92ef64cee94f708bc71e1f8479bc",
      "title": "Analogical and Relational Reasoning with Spiking Neural Networks",
      "venue": "arXiv.org",
      "year": 2020,
      "referenceCount": 24,
      "citationCount": 0,
      "authors": [
        {
          "authorId": "3468917",
          "name": "Rollin M. Omari"
        },
        {
          "authorId": "2099342549",
          "name": "R. McKay"
        },
        {
          "authorId": "27011207",
          "name": "Tom Gedeon"
        }
      ]
    },
    {
      "paperId": "8fa05631de38e72c4205ecd3d2c8fd843bf7b477",
      "externalIds": {
        "MAG": "2800767950",
        "DOI": "10.1016/J.SNA.2018.03.041",
        "CorpusId": 116591297
      },
      "url": "https://www.semanticscholar.org/paper/8fa05631de38e72c4205ecd3d2c8fd843bf7b477",
      "title": "Permittivity extraction of glucose solutions through artificial neural networks and non-invasive microwave glucose sensing",
      "venue": "Sensors and Actuators A: Physical",
      "year": 2018,
      "referenceCount": 28,
      "citationCount": 91,
      "authors": [
        {
          "authorId": "30545845",
          "name": "V. Turgul"
        },
        {
          "authorId": "1708095",
          "name": "I. Kale"
        }
      ]
    },
    {
      "paperId": "8ad426580d29cb2dc79651de87c83dfa92b0963f",
      "externalIds": {
        "DBLP": "conf/fllm/Mezher25",
        "DOI": "10.1109/FLLM67465.2025.11390986",
        "CorpusId": 285801656
      },
      "url": "https://www.semanticscholar.org/paper/8ad426580d29cb2dc79651de87c83dfa92b0963f",
      "title": "Comparative Analysis of Neural Network Architectures for Raven’s Progressive Matrices Pattern Recognition",
      "venue": "2025 3rd International Conference on Foundation and Large Language Models (FLLM)",
      "year": 2025,
      "referenceCount": 10,
      "citationCount": 0,
      "authors": [
        {
          "authorId": "2005191",
          "name": "Mohammad A. Mezher"
        }
      ]
    },
    {
      "paperId": "d16fa636f3c25e126690fab879b5db65c22939a0",
      "externalIds": {
        "DBLP": "journals/corr/abs-2407-17791",
        "DOI": "10.48550/arXiv.2407.17791",
        "CorpusId": 271432043
      },
      "url": "https://www.semanticscholar.org/paper/d16fa636f3c25e126690fab879b5db65c22939a0",
      "title": "Investigating learning-independent abstract reasoning in artificial neural networks",
      "venue": "arXiv.org",
      "year": 2024,
      "referenceCount": 48,
      "citationCount": 1,
      "authors": [
        {
          "authorId": "2066597096",
          "name": "T. Barak"
        },
        {
          "authorId": "2934154",
          "name": "Y. Loewenstein"
        }
      ]
    },
    {
      "paperId": "1b6c2d75c8147ba3873d58b1604a18638eb80598",
      "externalIds": {
        "PubMedCentral": "11549345",
        "ArXiv": "2407.17791",
        "DOI": "10.1038/s41598-024-78530-z",
        "CorpusId": 273929951,
        "PubMed": "39516540"
      },
      "url": "https://www.semanticscholar.org/paper/1b6c2d75c8147ba3873d58b1604a18638eb80598",
      "title": "Untrained neural networks can demonstrate memorization-independent abstract reasoning",
      "venue": "Scientific Reports",
      "year": 2024,
      "referenceCount": 21,
      "citationCount": 3,
      "authors": [
        {
          "authorId": "2066597096",
          "name": "T. Barak"
        },
        {
          "authorId": "2934154",
          "name": "Y. Loewenstein"
        }
      ]
    },
    {
      "paperId": "38bbac07cf6affca49a46f3b660a4f0e9d89b6fa",
      "externalIds": {
        "DBLP": "journals/corr/abs-2502-20332",
        "ArXiv": "2502.20332",
        "DOI": "10.48550/arXiv.2502.20332",
        "CorpusId": 276647110
      },
      "url": "https://www.semanticscholar.org/paper/38bbac07cf6affca49a46f3b660a4f0e9d89b6fa",
      "title": "Emergent Symbolic Mechanisms Support Abstract Reasoning in Large Language Models",
      "venue": "International Conference on Machine Learning",
      "year": 2025,
      "referenceCount": 52,
      "citationCount": 24,
      "authors": [
        {
          "authorId": "2297945681",
          "name": "Yukang Yang"
        },
        {
          "authorId": "2347537006",
          "name": "Declan Campbell"
        },
        {
          "authorId": "2242535459",
          "name": "Kaixuan Huang"
        },
        {
          "authorId": "2257417692",
          "name": "Mengdi Wang"
        },
        {
          "authorId": "2239196981",
          "name": "Jonathan D. Cohen"
        },
        {
          "authorId": "2239195790",
          "name": "Taylor Webb"
        }
      ]
    },
    {
      "paperId": "06d4f6bd5271eab3d33c892e21b9eb33395e9404",
      "externalIds": {
        "PubMedCentral": "11561310",
        "DBLP": "journals/corr/abs-2402-03507",
        "ArXiv": "2402.03507",
        "DOI": "10.1038/s41598-024-73582-7",
        "CorpusId": 267499786,
        "PubMed": "39537641"
      },
      "url": "https://www.semanticscholar.org/paper/06d4f6bd5271eab3d33c892e21b9eb33395e9404",
      "title": "Neural networks for abstraction and reasoning",
      "venue": "Scientific Reports",
      "year": 2024,
      "referenceCount": 53,
      "citationCount": 18,
      "authors": [
        {
          "authorId": "1387990552",
          "name": "Mikel Bober-Irizar"
        },
        {
          "authorId": "2283748687",
          "name": "Soumya Banerjee"
        }
      ]
    },
    {
      "paperId": "4995efba5ce21b3596e5d2697245c5a1d796abaf",
      "externalIds": {
        "DBLP": "conf/aaai/ZhaoXS24",
        "ArXiv": "2411.19451",
        "DOI": "10.1609/aaai.v38i15.29641",
        "CorpusId": 268699474
      },
      "url": "https://www.semanticscholar.org/paper/4995efba5ce21b3596e5d2697245c5a1d796abaf",
      "title": "Learning Visual Abstract Reasoning through Dual-Stream Networks",
      "venue": "AAAI Conference on Artificial Intelligence",
      "year": 2024,
      "referenceCount": 56,
      "citationCount": 10,
      "authors": [
        {
          "authorId": "2294777834",
          "name": "Kai Zhao"
        },
        {
          "authorId": "2293547091",
          "name": "Chang Xu"
        },
        {
          "authorId": "2293475704",
          "name": "Bailu Si"
        }
      ]
    }
  ]
}