{
  "total": 722,
  "offset": 0,
  "next": 10,
  "data": [
    {
      "paperId": "0d16298285eb347bf951b302e6f2c8e4dc472253",
      "externalIds": {
        "MAG": "2949692140",
        "DBLP": "journals/corr/ZhangGFCHSC17",
        "ArXiv": "1706.03850",
        "CorpusId": 26668832
      },
      "url": "https://www.semanticscholar.org/paper/0d16298285eb347bf951b302e6f2c8e4dc472253",
      "title": "Adversarial Feature Matching for Text Generation",
      "venue": "International Conference on Machine Learning",
      "year": 2017,
      "referenceCount": 56,
      "citationCount": 355,
      "authors": [
        {
          "authorId": "3272356",
          "name": "Yizhe Zhang"
        },
        {
          "authorId": "144702900",
          "name": "Zhe Gan"
        },
        {
          "authorId": "152124022",
          "name": "Kai Fan"
        },
        {
          "authorId": "2143786389",
          "name": "Zhi Chen"
        },
        {
          "authorId": "145153424",
          "name": "Ricardo Henao"
        },
        {
          "authorId": "19178763",
          "name": "Dinghan Shen"
        },
        {
          "authorId": "145006560",
          "name": "L. Carin"
        }
      ]
    },
    {
      "paperId": "87291216db08c61f6b02fe19e9adac2cf0ab88d5",
      "externalIds": {
        "DBLP": "journals/corr/abs-2005-03588",
        "ACL": "2020.acl-main.354",
        "MAG": "3022907967",
        "ArXiv": "2005.03588",
        "DOI": "10.18653/v1/2020.acl-main.354",
        "CorpusId": 218538329
      },
      "url": "https://www.semanticscholar.org/paper/87291216db08c61f6b02fe19e9adac2cf0ab88d5",
      "title": "Learning Implicit Text Generation via Feature Matching",
      "venue": "Annual Meeting of the Association for Computational Linguistics",
      "year": 2020,
      "referenceCount": 29,
      "citationCount": 1,
      "authors": [
        {
          "authorId": "8350409",
          "name": "Inkit Padhi"
        },
        {
          "authorId": "1839363",
          "name": "Pierre L. Dognin"
        },
        {
          "authorId": "144402849",
          "name": "Ke Bai"
        },
        {
          "authorId": "1790831",
          "name": "C. D. Santos"
        },
        {
          "authorId": "1776280",
          "name": "Vijil Chenthamarakshan"
        },
        {
          "authorId": "2211263",
          "name": "Youssef Mroueh"
        },
        {
          "authorId": "1730372",
          "name": "Payel Das"
        }
      ]
    },
    {
      "paperId": "b8f9862e981b0d06c57bbdcb76721eec1234940b",
      "externalIds": {
        "MAG": "2952456459",
        "DBLP": "journals/corr/abs-1809-06297",
        "ArXiv": "1809.06297",
        "CorpusId": 52292169
      },
      "url": "https://www.semanticscholar.org/paper/b8f9862e981b0d06c57bbdcb76721eec1234940b",
      "title": "Adversarial Text Generation via Feature-Mover's Distance",
      "venue": "Neural Information Processing Systems",
      "year": 2018,
      "referenceCount": 67,
      "citationCount": 130,
      "authors": [
        {
          "authorId": "2109077977",
          "name": "Liqun Chen"
        },
        {
          "authorId": "48141858",
          "name": "Shuyang Dai"
        },
        {
          "authorId": "46387857",
          "name": "Chenyang Tao"
        },
        {
          "authorId": "19178763",
          "name": "Dinghan Shen"
        },
        {
          "authorId": "144702900",
          "name": "Zhe Gan"
        },
        {
          "authorId": null,
          "name": "Haichao Zhang"
        },
        {
          "authorId": "3272356",
          "name": "Yizhe Zhang"
        },
        {
          "authorId": "1940556",
          "name": "Ruiyi Zhang"
        },
        {
          "authorId": "145006560",
          "name": "L. Carin"
        }
      ]
    },
    {
      "paperId": "2751eed0574bb099b0a009efa01d2b1b9ec4697b",
      "externalIds": {
        "DBLP": "conf/cvpr/ChengWTWT20",
        "MAG": "3035500781",
        "DOI": "10.1109/cvpr42600.2020.01092",
        "CorpusId": 219965481
      },
      "url": "https://www.semanticscholar.org/paper/2751eed0574bb099b0a009efa01d2b1b9ec4697b",
      "title": "RiFeGAN: Rich Feature Generation for Text-to-Image Synthesis From Prior Knowledge",
      "venue": "Computer Vision and Pattern Recognition",
      "year": 2020,
      "referenceCount": 38,
      "citationCount": 122,
      "authors": [
        {
          "authorId": "11729006",
          "name": "Jun Cheng"
        },
        {
          "authorId": "40362288",
          "name": "Fuxiang Wu"
        },
        {
          "authorId": "39402399",
          "name": "Yuandong Tian"
        },
        {
          "authorId": "2152509578",
          "name": "Lei Wang"
        },
        {
          "authorId": "1701119",
          "name": "Dapeng Tao"
        }
      ]
    },
    {
      "paperId": "a3a8575129ec8b9b1c7b93acc33fafc95a6072fe",
      "externalIds": {
        "DBLP": "conf/mm/WangTDCJ25",
        "DOI": "10.1145/3746027.3755123",
        "CorpusId": 282395067
      },
      "url": "https://www.semanticscholar.org/paper/a3a8575129ec8b9b1c7b93acc33fafc95a6072fe",
      "title": "GPT-ReID: Learning Fine-grained Representation with GPT for Text-based Person Retrieval",
      "venue": "ACM Multimedia",
      "year": 2025,
      "referenceCount": 45,
      "citationCount": 0,
      "authors": [
        {
          "authorId": "2261792750",
          "name": "Xudong Wang"
        },
        {
          "authorId": "2106350594",
          "name": "Lei Tan"
        },
        {
          "authorId": "2862577",
          "name": "Pingyang Dai"
        },
        {
          "authorId": "2293903286",
          "name": "Liujuan Cao"
        },
        {
          "authorId": "2251086358",
          "name": "Rongrong Ji"
        }
      ]
    },
    {
      "paperId": "a889bf3c3ec87b70528aa5fd66199b63899b6075",
      "externalIds": {
        "DBLP": "journals/npl/YuanZYWW24",
        "DOI": "10.1007/s11063-024-11503-5",
        "CorpusId": 267532922
      },
      "url": "https://www.semanticscholar.org/paper/a889bf3c3ec87b70528aa5fd66199b63899b6075",
      "title": "RII-GAN: Multi-scaled Aligning-Based Reversed Image Interaction Network for Text-to-Image Synthesis",
      "venue": "Neural Processing Letters",
      "year": 2024,
      "referenceCount": 37,
      "citationCount": 2,
      "authors": [
        {
          "authorId": "30885484",
          "name": "H. Yuan"
        },
        {
          "authorId": "2249091353",
          "name": "Hongqing Zhu"
        },
        {
          "authorId": "2051623953",
          "name": "Suyi Yang"
        },
        {
          "authorId": "2249432245",
          "name": "Ziying Wang"
        },
        {
          "authorId": "2167297982",
          "name": "Nan Wang"
        }
      ]
    },
    {
      "paperId": "e0d30d1f2d7e337ffacce0458529e6d896ea6113",
      "externalIds": {
        "DOI": "10.1109/ICNLP55136.2022.00077",
        "CorpusId": 252399391
      },
      "url": "https://www.semanticscholar.org/paper/e0d30d1f2d7e337ffacce0458529e6d896ea6113",
      "title": "Adversarial Rap Lyric Generation",
      "venue": "ICON",
      "year": 2022,
      "referenceCount": 37,
      "citationCount": 0,
      "authors": [
        {
          "authorId": "28948169",
          "name": "Yun-Yen Chuang"
        },
        {
          "authorId": "2100196",
          "name": "Hung-Min Hsu"
        },
        {
          "authorId": "2199658744",
          "name": "Ray-I Chang"
        },
        {
          "authorId": "1706104",
          "name": "Hung-yi Lee"
        }
      ]
    },
    {
      "paperId": "2989bdc41227742becd0490ac05fdad2bdfec1f4",
      "externalIds": {
        "DBLP": "conf/aaai/LeeYNKL21",
        "MAG": "3111791812",
        "ArXiv": "2012.07267",
        "DOI": "10.1609/aaai.v35i14.17559",
        "CorpusId": 229153264
      },
      "url": "https://www.semanticscholar.org/paper/2989bdc41227742becd0490ac05fdad2bdfec1f4",
      "title": "Multi-SpectroGAN: High-Diversity and High-Fidelity Spectrogram Generation with Adversarial Style Combination for Speech Synthesis",
      "venue": "AAAI Conference on Artificial Intelligence",
      "year": 2020,
      "referenceCount": 33,
      "citationCount": 60,
      "authors": [
        {
          "authorId": "2144573208",
          "name": "Sang-Hoon Lee"
        },
        {
          "authorId": "1879512618",
          "name": "Hyun-Wook Yoon"
        },
        {
          "authorId": "104299470",
          "name": "Hyeong-Rae Noh"
        },
        {
          "authorId": "2680879",
          "name": "Ji-Hoon Kim"
        },
        {
          "authorId": "50112753",
          "name": "Seong-Whan Lee"
        }
      ]
    },
    {
      "paperId": "e5b0a9bc3c5ce48608abe1cb9c4276eda9797e86",
      "externalIds": {
        "MAG": "3012970712",
        "DBLP": "journals/prl/AkLTK20",
        "DOI": "10.1016/j.patrec.2020.02.030",
        "CorpusId": 216180819
      },
      "url": "https://www.semanticscholar.org/paper/e5b0a9bc3c5ce48608abe1cb9c4276eda9797e86",
      "title": "Semantically consistent text to fashion image synthesis with an enhanced attentional generative adversarial network",
      "venue": "Pattern Recognition Letters",
      "year": 2020,
      "referenceCount": 38,
      "citationCount": 42,
      "authors": [
        {
          "authorId": "34226444",
          "name": "Kenan E. Ak"
        },
        {
          "authorId": "6516914",
          "name": "Joo-Hwee Lim"
        },
        {
          "authorId": "2461568",
          "name": "J. Y. Tham"
        },
        {
          "authorId": "1731233",
          "name": "A. Kassim"
        }
      ]
    },
    {
      "paperId": "93ecdcd41331f77343475db2cffa024b438fdb45",
      "externalIds": {
        "DBLP": "journals/corr/abs-2501-02167",
        "DOI": "10.1145/3757749.3757753",
        "CorpusId": 275336935
      },
      "url": "https://www.semanticscholar.org/paper/93ecdcd41331f77343475db2cffa024b438fdb45",
      "title": "Generating Multimodal Images with GAN: Integrating Text, Image, and Style",
      "venue": "Proceedings of the 2025 2nd International Conference on Computer and Multimedia Technology",
      "year": 2025,
      "referenceCount": 28,
      "citationCount": 11,
      "authors": [
        {
          "authorId": "2319859808",
          "name": "Chaoyi Tan"
        },
        {
          "authorId": "2319844018",
          "name": "Wenqing Zhang"
        },
        {
          "authorId": "2329088159",
          "name": "Zhen Qi"
        },
        {
          "authorId": "2338830745",
          "name": "Kowei Shih"
        },
        {
          "authorId": "2338859293",
          "name": "Xinshi Li"
        },
        {
          "authorId": "2329035771",
          "name": "Ao Xiang"
        }
      ]
    }
  ]
}