{
  "total": 23,
  "offset": 0,
  "next": 10,
  "data": [
    {
      "paperId": "eef70764d07cb4a24986a9609e968bc1aad84df5",
      "externalIds": {
        "ArXiv": "1709.06181",
        "MAG": "2804233805",
        "DBLP": "conf/icml/RainforthCYW18",
        "CorpusId": 51873415
      },
      "url": "https://www.semanticscholar.org/paper/eef70764d07cb4a24986a9609e968bc1aad84df5",
      "title": "On Nesting Monte Carlo Estimators",
      "venue": "International Conference on Machine Learning",
      "year": 2017,
      "referenceCount": 59,
      "citationCount": 158,
      "authors": [
        {
          "authorId": "2358794",
          "name": "Tom Rainforth"
        },
        {
          "authorId": "143710901",
          "name": "R. Cornish"
        },
        {
          "authorId": "34704380",
          "name": "Hongseok Yang"
        },
        {
          "authorId": "40108238",
          "name": "Andrew Warrington"
        }
      ]
    },
    {
      "paperId": "a9853bbbb557bfd14ebe79aa049c5ca62b15ae70",
      "externalIds": {
        "MAG": "2755284938",
        "CorpusId": 126392547
      },
      "url": "https://www.semanticscholar.org/paper/a9853bbbb557bfd14ebe79aa049c5ca62b15ae70",
      "title": "On the Opportunities and Pitfalls of Nesting Monte Carlo Estimators",
      "venue": "",
      "year": 2017,
      "referenceCount": 22,
      "citationCount": 9,
      "authors": [
        {
          "authorId": "2358794",
          "name": "Tom Rainforth"
        },
        {
          "authorId": "143710901",
          "name": "R. Cornish"
        },
        {
          "authorId": "34704380",
          "name": "Hongseok Yang"
        },
        {
          "authorId": "40108238",
          "name": "Andrew Warrington"
        },
        {
          "authorId": "2347189",
          "name": "Frank D. Wood"
        }
      ]
    },
    {
      "paperId": "3cc8162d8534d1ef167b4bcd5f00c88b007104af",
      "externalIds": {
        "CorpusId": 53445345
      },
      "url": "https://www.semanticscholar.org/paper/3cc8162d8534d1ef167b4bcd5f00c88b007104af",
      "title": "On Nesting Monte Carlo Estimators – Supplementary Material",
      "venue": "",
      "year": 2018,
      "referenceCount": 10,
      "citationCount": 0,
      "authors": [
        {
          "authorId": "2358794",
          "name": "Tom Rainforth"
        },
        {
          "authorId": "143710901",
          "name": "R. Cornish"
        },
        {
          "authorId": "34704380",
          "name": "Hongseok Yang"
        },
        {
          "authorId": "40108238",
          "name": "Andrew Warrington"
        },
        {
          "authorId": "2347189",
          "name": "Frank D. Wood"
        }
      ]
    },
    {
      "paperId": "d298b22971695dcd64c551e13cfd7e0bad4dfde1",
      "externalIds": {
        "DBLP": "conf/icml/IqbalCSA24",
        "ArXiv": "2402.07868",
        "DOI": "10.48550/arXiv.2402.07868",
        "CorpusId": 267627042
      },
      "url": "https://www.semanticscholar.org/paper/d298b22971695dcd64c551e13cfd7e0bad4dfde1",
      "title": "Nesting Particle Filters for Experimental Design in Dynamical Systems",
      "venue": "International Conference on Machine Learning",
      "year": 2024,
      "referenceCount": 61,
      "citationCount": 10,
      "authors": [
        {
          "authorId": "2275602443",
          "name": "Sahel Iqbal"
        },
        {
          "authorId": "2047549155",
          "name": "Adrien Corenflos"
        },
        {
          "authorId": "30443320",
          "name": "Simo Särkkä"
        },
        {
          "authorId": "2624923",
          "name": "Hany Abdulsamad"
        }
      ]
    },
    {
      "paperId": "d1b8ec9179b2695bb1084ea4b50b13a6796e4849",
      "externalIds": {
        "MAG": "124043511",
        "CorpusId": 81584118
      },
      "url": "https://www.semanticscholar.org/paper/d1b8ec9179b2695bb1084ea4b50b13a6796e4849",
      "title": "THE MAYFIELD METHOD OF ESTIMATING NESTING SUCCESS: A MODEL, ESTIMATORS AND SIMULATION RESULTS",
      "venue": "",
      "year": 1981,
      "referenceCount": 3,
      "citationCount": 436,
      "authors": [
        {
          "authorId": "33732721",
          "name": "G. Hensler"
        },
        {
          "authorId": "1928752",
          "name": "J. Nichols"
        }
      ]
    },
    {
      "paperId": "7baefe6131614aef667868d69bf00d69c5ff9b2d",
      "externalIds": {
        "MAG": "3098817453",
        "DOI": "10.2139/ssrn.3837774",
        "CorpusId": 226278195
      },
      "url": "https://www.semanticscholar.org/paper/7baefe6131614aef667868d69bf00d69c5ff9b2d",
      "title": "Conditional Quantile Estimators: A Small Sample Theory",
      "venue": "Social Science Research Network",
      "year": 2020,
      "referenceCount": 50,
      "citationCount": 3,
      "authors": [
        {
          "authorId": "103089632",
          "name": "Grigory Franguridi"
        },
        {
          "authorId": "90202936",
          "name": "B. Gafarov"
        },
        {
          "authorId": "51116158",
          "name": "Kaspar Wüthrich"
        }
      ]
    },
    {
      "paperId": "86ab733188cb05e47de17db214852e23a8a2066d",
      "externalIds": {
        "MAG": "1683698249",
        "CorpusId": 129546275
      },
      "url": "https://www.semanticscholar.org/paper/86ab733188cb05e47de17db214852e23a8a2066d",
      "title": "Une méthode simple et flexible de réduction du biais des estimateurs de maximum de vraisemblance des distributions GEV avec applications aux régressions hédoniques et à d'autres processus à valeurs extrêmes",
      "venue": "",
      "year": 2011,
      "referenceCount": 0,
      "citationCount": 0,
      "authors": [
        {
          "authorId": "104594962",
          "name": "V. Scourneau"
        }
      ]
    },
    {
      "paperId": "eae65fbf18278a4a7a21d6b4ad3acc08badfdb27",
      "externalIds": {
        "MAG": "2265559816",
        "DBLP": "journals/sma/SolaroF07",
        "DOI": "10.1007/S10260-006-0016-6",
        "CorpusId": 45061717
      },
      "url": "https://www.semanticscholar.org/paper/eae65fbf18278a4a7a21d6b4ad3acc08badfdb27",
      "title": "Robustness of Parameter Estimation Procedures in Multilevel Models When Random Effects are MEP Distributed",
      "venue": "Stat. Methods Appl.",
      "year": 2007,
      "referenceCount": 16,
      "citationCount": 7,
      "authors": [
        {
          "authorId": "2440211",
          "name": "Nadia Solaro"
        },
        {
          "authorId": "2420903",
          "name": "P. Ferrari"
        }
      ]
    },
    {
      "paperId": "96235a15fc01e36c10c87fba2204a189a53cf644",
      "externalIds": {
        "MAG": "2024533502",
        "DOI": "10.1017/S0266466600006897",
        "CorpusId": 121243407
      },
      "url": "https://www.semanticscholar.org/paper/96235a15fc01e36c10c87fba2204a189a53cf644",
      "title": "Multivariate Regression with Unequal Number of Observations",
      "venue": "Econometric Theory",
      "year": 1996,
      "referenceCount": 6,
      "citationCount": 2,
      "authors": [
        {
          "authorId": "67290688",
          "name": "Enrique Sentana"
        }
      ]
    },
    {
      "paperId": "3fbbd7cb892c203b6898dcda7acc9e5bd97cc486",
      "externalIds": {
        "ArXiv": "2508.17654",
        "DOI": "10.1088/1475-7516/2026/03/060",
        "CorpusId": 280710830
      },
      "url": "https://www.semanticscholar.org/paper/3fbbd7cb892c203b6898dcda7acc9e5bd97cc486",
      "title": "Calculating the power spectrum in stochastic inflation by Monte Carlo simulation and least squares curve fitting",
      "venue": "Journal of Cosmology and Astroparticle Physics",
      "year": 2025,
      "referenceCount": 88,
      "citationCount": 2,
      "authors": [
        {
          "authorId": "2324063369",
          "name": "Koichi Miyamoto"
        },
        {
          "authorId": "2324055905",
          "name": "Yuichiro Tada"
        }
      ]
    }
  ]
}