{
  "total": 320157,
  "offset": 0,
  "next": 10,
  "data": [
    {
      "paperId": "5f2be234935c8c4f201ccf755de658dbeea44e75",
      "externalIds": {
        "ArXiv": "1609.01000",
        "DBLP": "journals/corr/ZhangLW16b",
        "MAG": "2951781117",
        "CorpusId": 16216235
      },
      "url": "https://www.semanticscholar.org/paper/5f2be234935c8c4f201ccf755de658dbeea44e75",
      "title": "Convexified Convolutional Neural Networks",
      "venue": "International Conference on Machine Learning",
      "year": 2016,
      "referenceCount": 51,
      "citationCount": 66,
      "authors": [
        {
          "authorId": "2108471978",
          "name": "Yuchen Zhang"
        },
        {
          "authorId": "145419642",
          "name": "Percy Liang"
        },
        {
          "authorId": "1721860",
          "name": "M. Wainwright"
        }
      ]
    },
    {
      "paperId": "8275fc80f52515662841440b726c3765059b0583",
      "externalIds": {
        "DBLP": "journals/corr/abs-2205-14056",
        "ArXiv": "2205.14056",
        "DOI": "10.48550/arXiv.2205.14056",
        "CorpusId": 249151948
      },
      "url": "https://www.semanticscholar.org/paper/8275fc80f52515662841440b726c3765059b0583",
      "title": "Dual Convexified Convolutional Neural Networks",
      "venue": "arXiv.org",
      "year": 2022,
      "referenceCount": 32,
      "citationCount": 1,
      "authors": [
        {
          "authorId": "118108941",
          "name": "Cedar Site Bai"
        },
        {
          "authorId": "7423368",
          "name": "Chuyang Ke"
        },
        {
          "authorId": "1744068",
          "name": "Jean Honorio"
        }
      ]
    },
    {
      "paperId": "93f105f79e9af12590c129b7bc3755956262dc66",
      "externalIds": {
        "DBLP": "journals/tmlr/BaiKH24",
        "CorpusId": 271770606
      },
      "url": "https://www.semanticscholar.org/paper/93f105f79e9af12590c129b7bc3755956262dc66",
      "title": "On the Dual Problem of Convexified Convolutional Neural Networks",
      "venue": "Trans. Mach. Learn. Res.",
      "year": 2024,
      "referenceCount": 0,
      "citationCount": 0,
      "authors": [
        {
          "authorId": "118108941",
          "name": "Cedar Site Bai"
        },
        {
          "authorId": "7423368",
          "name": "Chuyang Ke"
        },
        {
          "authorId": "2295153589",
          "name": "Jean Honorio"
        }
      ]
    },
    {
      "paperId": "1b533197353c25814dde96bf5b0c7cfcb5fedc18",
      "externalIds": {
        "CorpusId": 268932945
      },
      "url": "https://www.semanticscholar.org/paper/1b533197353c25814dde96bf5b0c7cfcb5fedc18",
      "title": "On the Dual Problem of Convexiﬁed Convolutional Neural Networks",
      "venue": "",
      "year": null,
      "referenceCount": 36,
      "citationCount": 0,
      "authors": [
        {
          "authorId": "118108941",
          "name": "Cedar Site Bai"
        },
        {
          "authorId": "2295153589",
          "name": "Jean Honorio"
        }
      ]
    },
    {
      "paperId": "19d920c1f4ffd4d3d8b16160647d831cf074b639",
      "externalIds": {
        "CorpusId": 207811815
      },
      "url": "https://www.semanticscholar.org/paper/19d920c1f4ffd4d3d8b16160647d831cf074b639",
      "title": "APPLICATIONS OF THE CONVEXIFIED CONVOLUTIONAL NEURAL NETWORK Experiments on simulated and real data",
      "venue": "",
      "year": 2018,
      "referenceCount": 19,
      "citationCount": 1,
      "authors": [
        {
          "authorId": "147594520",
          "name": "M. V. Schaik"
        }
      ]
    },
    {
      "paperId": "3356701ae1a7b717017e5542104e3dfa1ffda839",
      "externalIds": {
        "DOI": "10.1088/3049-4761/ae1bac",
        "CorpusId": 283717934
      },
      "url": "https://www.semanticscholar.org/paper/3356701ae1a7b717017e5542104e3dfa1ffda839",
      "title": "Enhanced iCVD reactor optimization through convexified attention networks: improving liquid repellency in fluoropolymers",
      "venue": "Machine Learning: Engineering",
      "year": 2025,
      "referenceCount": 30,
      "citationCount": 0,
      "authors": [
        {
          "authorId": "2343953784",
          "name": "Daniel Schwartz"
        },
        {
          "authorId": "2301082666",
          "name": "Atieh Armin"
        },
        {
          "authorId": "2372011643",
          "name": "Ali Shokoufandeh"
        },
        {
          "authorId": "2260726055",
          "name": "Masoud Soroush"
        }
      ]
    },
    {
      "paperId": "39b37e6c3e74907ca3bdb778e4e878f205693c53",
      "externalIds": {
        "ArXiv": "2604.11833",
        "DBLP": "conf/aaai/DuBJ21",
        "DOI": "10.1609/aaai.v35i13.17434",
        "CorpusId": 235349234
      },
      "url": "https://www.semanticscholar.org/paper/39b37e6c3e74907ca3bdb778e4e878f205693c53",
      "title": "Uncertainty Quantification in CNN Through the Bootstrap of Convex Neural Networks",
      "venue": "AAAI Conference on Artificial Intelligence",
      "year": 2021,
      "referenceCount": 31,
      "citationCount": 11,
      "authors": [
        {
          "authorId": "2107018972",
          "name": "Hongfei Du"
        },
        {
          "authorId": "34974515",
          "name": "E. Barut"
        },
        {
          "authorId": "2068092111",
          "name": "Fang Jin"
        }
      ]
    },
    {
      "paperId": "6b8fdaeaa1dfd3ab4df57a2cb34f57d005147f74",
      "externalIds": {
        "MAG": "3090268382",
        "DBLP": "conf/miccai/ZhangDL20",
        "DOI": "10.1007/978-3-030-59719-1_32",
        "CorpusId": 222136166
      },
      "url": "https://www.semanticscholar.org/paper/6b8fdaeaa1dfd3ab4df57a2cb34f57d005147f74",
      "title": "Deep Active Contour Network for Medical Image Segmentation",
      "venue": "International Conference on Medical Image Computing and Computer-Assisted Intervention",
      "year": 2020,
      "referenceCount": 25,
      "citationCount": 39,
      "authors": [
        {
          "authorId": "150238792",
          "name": "Mo Zhang"
        },
        {
          "authorId": "145496882",
          "name": "Bin Dong"
        },
        {
          "authorId": "1762919",
          "name": "Quanzheng Li"
        }
      ]
    },
    {
      "paperId": "e33d9daa8e2cd89d1b8c755edd1ff5c5fc85870f",
      "externalIds": {
        "MAG": "2804306369",
        "DOI": "10.1080/24754269.2018.1466096",
        "CorpusId": 53292372,
        "PubMed": "30420972"
      },
      "url": "https://www.semanticscholar.org/paper/e33d9daa8e2cd89d1b8c755edd1ff5c5fc85870f",
      "title": "Deep advantage learning for optimal dynamic treatment regime",
      "venue": "Statistical Theory and Related Fields",
      "year": 2018,
      "referenceCount": 41,
      "citationCount": 9,
      "authors": [
        {
          "authorId": "10414222",
          "name": "Shuhan Liang"
        },
        {
          "authorId": "13864091",
          "name": "Wenbin Lu"
        },
        {
          "authorId": "145401373",
          "name": "Rui Song"
        }
      ]
    },
    {
      "paperId": "4f2eda8077dc7a69bb2b4e0a1a086cf054adb3f9",
      "externalIds": {
        "DBLP": "conf/icml/TanL19",
        "MAG": "2946948417",
        "ArXiv": "1905.11946",
        "CorpusId": 167217261
      },
      "url": "https://www.semanticscholar.org/paper/4f2eda8077dc7a69bb2b4e0a1a086cf054adb3f9",
      "title": "EfficientNet: Rethinking Model Scaling for Convolutional Neural Networks",
      "venue": "International Conference on Machine Learning",
      "year": 2019,
      "referenceCount": 54,
      "citationCount": 23409,
      "authors": [
        {
          "authorId": "120805419",
          "name": "Mingxing Tan"
        },
        {
          "authorId": "2827616",
          "name": "Quoc V. Le"
        }
      ]
    }
  ]
}