{
  "total": 16,
  "offset": 0,
  "next": 10,
  "data": [
    {
      "paperId": "322cf9bcde458a45eaeca989a1eec92f7c6db984",
      "externalIds": {
        "DBLP": "journals/corr/DaiDS16",
        "MAG": "2299115575",
        "ArXiv": "1603.05629",
        "CorpusId": 2708270
      },
      "url": "https://www.semanticscholar.org/paper/322cf9bcde458a45eaeca989a1eec92f7c6db984",
      "title": "Discriminative Embeddings of Latent Variable Models for Structured Data",
      "venue": "International Conference on Machine Learning",
      "year": 2016,
      "referenceCount": 60,
      "citationCount": 751,
      "authors": [
        {
          "authorId": "2791430",
          "name": "H. Dai"
        },
        {
          "authorId": "144445933",
          "name": "Bo Dai"
        },
        {
          "authorId": "1779453",
          "name": "Le Song"
        }
      ]
    },
    {
      "paperId": "04caa1a55b12d5f3830ed4a31c4b47921a3546f2",
      "externalIds": {
        "CorpusId": 268125275
      },
      "url": "https://www.semanticscholar.org/paper/04caa1a55b12d5f3830ed4a31c4b47921a3546f2",
      "title": "Discriminative Embeddings of Latent Variable Models for Structured Data Appendix A. More Related Work A.1. Comparison with Neural Networks on Graphs A.2. Comparison with Learning Message Estimator B. Derivation of the Fixed-point Condition for Loopy Bp",
      "venue": "",
      "year": null,
      "referenceCount": 1,
      "citationCount": 0,
      "authors": []
    },
    {
      "paperId": "968cfb42978a5344dbed15a1e15e3fdc76a14719",
      "externalIds": {
        "MAG": "2769162572",
        "DBLP": "journals/nca/HeidariM19",
        "DOI": "10.1007/s00521-017-3273-4",
        "CorpusId": 2228315
      },
      "url": "https://www.semanticscholar.org/paper/968cfb42978a5344dbed15a1e15e3fdc76a14719",
      "title": "Discriminative geodesic Gaussian process latent variable model for structure preserving dimension reduction in clustering and classification problems",
      "venue": "Neural computing & applications (Print)",
      "year": 2017,
      "referenceCount": 39,
      "citationCount": 8,
      "authors": [
        {
          "authorId": "2075159764",
          "name": "Mahdi Heidari"
        },
        {
          "authorId": "3343918",
          "name": "M. Moattar"
        }
      ]
    },
    {
      "paperId": "52c5393505a384aa251581c484f5198253a696b9",
      "externalIds": {
        "DBLP": "journals/corr/abs-2602-01924",
        "ArXiv": "2602.01924",
        "DOI": "10.48550/arXiv.2602.01924",
        "CorpusId": 285269347
      },
      "url": "https://www.semanticscholar.org/paper/52c5393505a384aa251581c484f5198253a696b9",
      "title": "Bayesian Integration of Nonlinear Incomplete Clinical Data",
      "venue": "arXiv.org",
      "year": 2026,
      "referenceCount": 43,
      "citationCount": 0,
      "authors": [
        {
          "authorId": "2408458067",
          "name": "Luc'ia Gonz'alez-Zamorano"
        },
        {
          "authorId": "2408458695",
          "name": "Nuria Balb'as-Esteban"
        },
        {
          "authorId": "2394071867",
          "name": "Vanessa G'omez-Verdejo"
        },
        {
          "authorId": "2156910016",
          "name": "Albert Belenguer-Llorens"
        },
        {
          "authorId": "1490854076",
          "name": "C. Sevilla-Salcedo"
        }
      ]
    },
    {
      "paperId": "ea00c9d67142c1ecf3caaadf8410d3d9981543c9",
      "externalIds": {
        "ArXiv": "2502.19642",
        "CorpusId": 276647870
      },
      "url": "https://www.semanticscholar.org/paper/ea00c9d67142c1ecf3caaadf8410d3d9981543c9",
      "title": "Contrastive MIM: A Contrastive Mutual Information Framework for Unified Generative and Discriminative Representation Learning",
      "venue": "",
      "year": 2025,
      "referenceCount": 35,
      "citationCount": 0,
      "authors": [
        {
          "authorId": "34536083",
          "name": "M. Livne"
        }
      ]
    },
    {
      "paperId": "95576d40ad3a58a1d1e0651db5db7938f13ec2ed",
      "externalIds": {
        "MAG": "3092585775",
        "DBLP": "journals/tnn/LiZLXWZ21",
        "DOI": "10.1109/TNNLS.2020.3026876",
        "CorpusId": 222217255,
        "PubMed": "33027008"
      },
      "url": "https://www.semanticscholar.org/paper/95576d40ad3a58a1d1e0651db5db7938f13ec2ed",
      "title": "Harmonization Shared Autoencoder Gaussian Process Latent Variable Model With Relaxed Hamming Distance",
      "venue": "IEEE Transactions on Neural Networks and Learning Systems",
      "year": 2020,
      "referenceCount": 0,
      "citationCount": 3,
      "authors": [
        {
          "authorId": "51223645",
          "name": "Jinxing Li"
        },
        {
          "authorId": "37437068",
          "name": "Bob Zhang"
        },
        {
          "authorId": "143911582",
          "name": "Guangming Lu"
        },
        {
          "authorId": "47103943",
          "name": "Yong Xu"
        },
        {
          "authorId": "1684705122",
          "name": "Feng Wu"
        },
        {
          "authorId": "71108051",
          "name": "Dafan Zhang"
        }
      ]
    },
    {
      "paperId": "8bb75c05c9e12b0f7ad64aa129d79b6de0d1e56f",
      "externalIds": {
        "ArXiv": "2502.10092",
        "CorpusId": 276395056
      },
      "url": "https://www.semanticscholar.org/paper/8bb75c05c9e12b0f7ad64aa129d79b6de0d1e56f",
      "title": "A novel approach to data generation in generative model",
      "venue": "",
      "year": 2025,
      "referenceCount": 0,
      "citationCount": 0,
      "authors": [
        {
          "authorId": "2345760530",
          "name": "Jaehong Kim"
        },
        {
          "authorId": "2345700420",
          "name": "Jaewon Shim Healthcare"
        },
        {
          "authorId": "17136603",
          "name": "Legal"
        },
        {
          "authorId": "2345700069",
          "name": "Policy Center"
        },
        {
          "authorId": "2345699365",
          "name": "Graduate school of Law"
        },
        {
          "authorId": "2314824018",
          "name": "Korea University"
        },
        {
          "authorId": "2345700677",
          "name": "Seoul 02841"
        },
        {
          "authorId": "66360176",
          "name": "Korea"
        },
        {
          "authorId": "2345700122",
          "name": "Human-Inspired AI Research"
        },
        {
          "authorId": "2345700418",
          "name": "Center for 0D Nanofluidics"
        },
        {
          "authorId": "2264656489",
          "name": "Institute of Applied Physics"
        },
        {
          "authorId": "2237985348",
          "name": "D. Physics"
        },
        {
          "authorId": "2254660649",
          "name": "Astronomy"
        },
        {
          "authorId": "102223147",
          "name": "Seoul National University"
        },
        {
          "authorId": "2134880388",
          "name": "Seoul 08826"
        }
      ]
    },
    {
      "paperId": "37391db2bc317fd7d86896ec492003b3db68346d",
      "externalIds": {
        "DBLP": "conf/cvpr/WangLZTL25",
        "ArXiv": "2503.24282",
        "DOI": "10.1109/CVPR52734.2025.00721",
        "CorpusId": 277467677
      },
      "url": "https://www.semanticscholar.org/paper/37391db2bc317fd7d86896ec492003b3db68346d",
      "title": "Style Quantization for Data-Efficient GAN Training",
      "venue": "Computer Vision and Pattern Recognition",
      "year": 2025,
      "referenceCount": 66,
      "citationCount": 3,
      "authors": [
        {
          "authorId": "2284126783",
          "name": "Jian Wang"
        },
        {
          "authorId": "2304778474",
          "name": "Xin Lan"
        },
        {
          "authorId": "2287798434",
          "name": "Jizhe Zhou"
        },
        {
          "authorId": "2237949974",
          "name": "Yuxin Tian"
        },
        {
          "authorId": "2307086739",
          "name": "Jiancheng Lv"
        }
      ]
    },
    {
      "paperId": "1294c8ab3a5c72457c5c3e205308fd0b01abe0ff",
      "externalIds": {
        "MAG": "2898695436",
        "DBLP": "conf/emnlp/ChenTLG18",
        "ACL": "D18-1020",
        "ArXiv": "1906.09535",
        "DOI": "10.18653/v1/D18-1020",
        "CorpusId": 52834274
      },
      "url": "https://www.semanticscholar.org/paper/1294c8ab3a5c72457c5c3e205308fd0b01abe0ff",
      "title": "Variational Sequential Labelers for Semi-Supervised Learning",
      "venue": "Conference on Empirical Methods in Natural Language Processing",
      "year": 2019,
      "referenceCount": 48,
      "citationCount": 39,
      "authors": [
        {
          "authorId": "46221498",
          "name": "Mingda Chen"
        },
        {
          "authorId": "49264864",
          "name": "Qingming Tang"
        },
        {
          "authorId": "2924113",
          "name": "Karen Livescu"
        },
        {
          "authorId": "1700980",
          "name": "Kevin Gimpel"
        }
      ]
    },
    {
      "paperId": "a46fc671dcbb906bb3321b37d7ee60f685676c09",
      "externalIds": {
        "DOI": "10.1145/3766918.3766931",
        "CorpusId": 282595175
      },
      "url": "https://www.semanticscholar.org/paper/a46fc671dcbb906bb3321b37d7ee60f685676c09",
      "title": "Research on the Application of Variational Autoencoders in Audit Risk Assessment and Visualization",
      "venue": "Proceedings of the 2025 International Conference on Generative Artificial Intelligence for Business",
      "year": 2025,
      "referenceCount": 11,
      "citationCount": 0,
      "authors": [
        {
          "authorId": "2005125664",
          "name": "Sijia Cheng"
        }
      ]
    }
  ]
}