{
  "total": 114,
  "offset": 0,
  "next": 10,
  "data": [
    {
      "paperId": "095fd8e698080ad8cccae571b7997e58b2849f50",
      "externalIds": {
        "MAG": "2952274070",
        "DBLP": "journals/corr/abs-1801-04153",
        "ArXiv": "1801.04153",
        "CorpusId": 3724121
      },
      "url": "https://www.semanticscholar.org/paper/095fd8e698080ad8cccae571b7997e58b2849f50",
      "title": "Bayesian Quadrature for Multiple Related Integrals",
      "venue": "International Conference on Machine Learning",
      "year": 2018,
      "referenceCount": 59,
      "citationCount": 43,
      "authors": [
        {
          "authorId": "2237992414",
          "name": "Xiaoyue Xi"
        },
        {
          "authorId": "3236600",
          "name": "François‐Xavier Briol"
        },
        {
          "authorId": "50859190",
          "name": "M. Girolami"
        }
      ]
    },
    {
      "paperId": "84d7647f99ec2dc66fa84bc554c3cf5c66c938bc",
      "externalIds": {
        "CorpusId": 260445896
      },
      "url": "https://www.semanticscholar.org/paper/84d7647f99ec2dc66fa84bc554c3cf5c66c938bc",
      "title": "Bayesian Quadrature for Multiple Related Integrals",
      "venue": "",
      "year": null,
      "referenceCount": 0,
      "citationCount": 1,
      "authors": []
    },
    {
      "paperId": "6abcd41e145e30639dfd43e426f9326f648bd2e5",
      "externalIds": {
        "DBLP": "journals/corr/abs-1903-11331",
        "ArXiv": "1903.11331",
        "MAG": "2966246399",
        "CorpusId": 85529968
      },
      "url": "https://www.semanticscholar.org/paper/6abcd41e145e30639dfd43e426f9326f648bd2e5",
      "title": "Active Multi-Information Source Bayesian Quadrature",
      "venue": "Conference on Uncertainty in Artificial Intelligence",
      "year": 2019,
      "referenceCount": 34,
      "citationCount": 32,
      "authors": [
        {
          "authorId": "2072378346",
          "name": "A. Gessner"
        },
        {
          "authorId": "1390665327",
          "name": "Javier I. González"
        },
        {
          "authorId": "3310425",
          "name": "Maren Mahsereci"
        }
      ]
    },
    {
      "paperId": "035007348f6f9590df8a95876da0ae18506f726a",
      "externalIds": {
        "MAG": "2950371714",
        "ArXiv": "1204.1664",
        "DBLP": "journals/corr/HuszarD14",
        "CorpusId": 7822
      },
      "url": "https://www.semanticscholar.org/paper/035007348f6f9590df8a95876da0ae18506f726a",
      "title": "Optimally-Weighted Herding is Bayesian Quadrature",
      "venue": "Conference on Uncertainty in Artificial Intelligence",
      "year": 2012,
      "referenceCount": 13,
      "citationCount": 111,
      "authors": [
        {
          "authorId": "3108066",
          "name": "Ferenc Huszár"
        },
        {
          "authorId": "1704657",
          "name": "D. Duvenaud"
        }
      ]
    },
    {
      "paperId": "b6d79350eebf4f136f17fe2fc8497495b2498fe0",
      "externalIds": {
        "MAG": "2898613550",
        "DOI": "10.1007/978-3-319-74808-5_46",
        "CorpusId": 126087826
      },
      "url": "https://www.semanticscholar.org/paper/b6d79350eebf4f136f17fe2fc8497495b2498fe0",
      "title": "Square Root Quadrature Information Filters for Multiple Sensor Fusion",
      "venue": "Advances in Intelligent Systems and Computing",
      "year": 2017,
      "referenceCount": 12,
      "citationCount": 0,
      "authors": [
        {
          "authorId": "3331862",
          "name": "Aritro Dey"
        },
        {
          "authorId": "3234438",
          "name": "S. Sadhu"
        },
        {
          "authorId": "34674131",
          "name": "T. Ghoshal"
        }
      ]
    },
    {
      "paperId": "ffd476ff32e676298fed2f405da1975420d0bb37",
      "externalIds": {
        "DOI": "10.29235/1561-2430-2019-55-4-457-466",
        "CorpusId": 241793232
      },
      "url": "https://www.semanticscholar.org/paper/ffd476ff32e676298fed2f405da1975420d0bb37",
      "title": "Integrals and integral transformations related to the vector Gaussian distribution",
      "venue": "Proceedings of the National Academy of Sciences of Belarus Physics and Mathematics Series",
      "year": 2020,
      "referenceCount": 2,
      "citationCount": 2,
      "authors": [
        {
          "authorId": "28640539",
          "name": "V. S. Mukha"
        },
        {
          "authorId": "21542082",
          "name": "N. Kako"
        }
      ]
    },
    {
      "paperId": "f26ca2af51022863caf475a1ab269e6c90ec4df1",
      "externalIds": {
        "ArXiv": "2503.23018",
        "DOI": "10.1016/j.cma.2025.118141",
        "CorpusId": 277452472
      },
      "url": "https://www.semanticscholar.org/paper/f26ca2af51022863caf475a1ab269e6c90ec4df1",
      "title": "Likelihood level adapted estimation of marginal likelihood for Bayesian model selection",
      "venue": "Computer Methods in Applied Mechanics and Engineering",
      "year": 2025,
      "referenceCount": 96,
      "citationCount": 4,
      "authors": [
        {
          "authorId": "2310212915",
          "name": "Subhayan De"
        },
        {
          "authorId": "2352943444",
          "name": "Reza Farzad"
        },
        {
          "authorId": "50878380",
          "name": "P. Brewick"
        },
        {
          "authorId": "2353257719",
          "name": "Erik A. Johnson"
        },
        {
          "authorId": "3287959",
          "name": "S. Wojtkiewicz"
        }
      ]
    },
    {
      "paperId": "b5830ad014a596b4a0051a760ae69ffa21e8cd84",
      "externalIds": {
        "MAG": "2090457109",
        "DOI": "10.1088/0305-4470/38/18/004",
        "CorpusId": 123510794
      },
      "url": "https://www.semanticscholar.org/paper/b5830ad014a596b4a0051a760ae69ffa21e8cd84",
      "title": "A new Gauss quadrature for multicentre integrals over STOs in the Gaussian integral transform approach",
      "venue": "",
      "year": 2005,
      "referenceCount": 70,
      "citationCount": 5,
      "authors": [
        {
          "authorId": "2447042",
          "name": "A. Bouferguene"
        }
      ]
    },
    {
      "paperId": "d7c329712ad5c53f834eb0d3da5a1b0d953d1c8e",
      "externalIds": {
        "DBLP": "conf/fuzzIEEE/KarczmarekDPGPC22",
        "DOI": "10.1109/FUZZ-IEEE55066.2022.9882684",
        "CorpusId": 252223693
      },
      "url": "https://www.semanticscholar.org/paper/d7c329712ad5c53f834eb0d3da5a1b0d953d1c8e",
      "title": "Quadrature-Inspired Generalized Choquet Integral",
      "venue": "IEEE International Conference on Fuzzy Systems",
      "year": 2022,
      "referenceCount": 45,
      "citationCount": 6,
      "authors": [
        {
          "authorId": "2811470",
          "name": "Paweł Karczmarek"
        },
        {
          "authorId": "36411211",
          "name": "Michał Dolecki"
        },
        {
          "authorId": "2174421293",
          "name": "Paweł Powroźnik"
        },
        {
          "authorId": "2185640094",
          "name": "Lukasz Galka"
        },
        {
          "authorId": "1731634",
          "name": "W. Pedrycz"
        },
        {
          "authorId": "2184786145",
          "name": "Dariusz Czerwiński"
        }
      ]
    },
    {
      "paperId": "f02e59d9bd9e5b2fd3720fc214c5357a6ed8622f",
      "externalIds": {
        "MAG": "1988446510",
        "DOI": "10.1214/SS/1177009938",
        "CorpusId": 7803364
      },
      "url": "https://www.semanticscholar.org/paper/f02e59d9bd9e5b2fd3720fc214c5357a6ed8622f",
      "title": "Methods for Approximating Integrals in Statistics with Special Emphasis on Bayesian Integration Problems",
      "venue": "",
      "year": 1995,
      "referenceCount": 126,
      "citationCount": 279,
      "authors": [
        {
          "authorId": "50181816",
          "name": "M. Evans"
        },
        {
          "authorId": "2941070",
          "name": "T. Swartz"
        }
      ]
    }
  ]
}