{
  "total": 521,
  "offset": 0,
  "next": 10,
  "data": [
    {
      "paperId": "072a813e75c7168abd8dc0c2f6b6451a30bc07eb",
      "externalIds": {
        "DBLP": "conf/icml/DunnerLGBHJ18",
        "ArXiv": "1806.07569",
        "MAG": "2953041362",
        "CorpusId": 49324224
      },
      "url": "https://www.semanticscholar.org/paper/072a813e75c7168abd8dc0c2f6b6451a30bc07eb",
      "title": "A Distributed Second-Order Algorithm You Can Trust",
      "venue": "International Conference on Machine Learning",
      "year": 2018,
      "referenceCount": 28,
      "citationCount": 33,
      "authors": [
        {
          "authorId": "1403842911",
          "name": "Celestine Mendler-Dünner"
        },
        {
          "authorId": "40401747",
          "name": "Aurélien Lucchi"
        },
        {
          "authorId": "50811693",
          "name": "Matilde Gargiani"
        },
        {
          "authorId": "41129308",
          "name": "An Bian"
        },
        {
          "authorId": "143936663",
          "name": "Thomas Hofmann"
        },
        {
          "authorId": "2456863",
          "name": "Martin Jaggi"
        }
      ]
    },
    {
      "paperId": "6a2c94cd5298c67e954644108d35e983cfc40069",
      "externalIds": {
        "MAG": "2621403192",
        "DOI": "10.1109/YEF-ECE.2017.7935637",
        "CorpusId": 23896437
      },
      "url": "https://www.semanticscholar.org/paper/6a2c94cd5298c67e954644108d35e983cfc40069",
      "title": "Performance analysis of a distributed algorithm for target localization in wireless sensor networks using hybrid measurements in a connection failure scenario",
      "venue": "2017 International Young Engineers Forum (YEF-­ECE)",
      "year": 2017,
      "referenceCount": 27,
      "citationCount": 3,
      "authors": [
        {
          "authorId": "2069944985",
          "name": "David Vicente"
        },
        {
          "authorId": "66901592",
          "name": "Slavisa Tomic"
        },
        {
          "authorId": "2565990",
          "name": "M. Beko"
        },
        {
          "authorId": "1729183",
          "name": "R. Dinis"
        }
      ]
    },
    {
      "paperId": "694e5a68febe2ae792cebc46c4aa73264b620b1c",
      "externalIds": {
        "MAG": "2527896777",
        "DBLP": "journals/percom/TomicBDM17",
        "DOI": "10.1016/J.PMCJ.2016.09.013",
        "CorpusId": 28048266
      },
      "url": "https://www.semanticscholar.org/paper/694e5a68febe2ae792cebc46c4aa73264b620b1c",
      "title": "Distributed algorithm for target localization in wireless sensor networks using RSS and AoA measurements",
      "venue": "Pervasive and Mobile Computing",
      "year": 2017,
      "referenceCount": 53,
      "citationCount": 80,
      "authors": [
        {
          "authorId": "66901592",
          "name": "Slavisa Tomic"
        },
        {
          "authorId": "2565990",
          "name": "M. Beko"
        },
        {
          "authorId": "1729183",
          "name": "R. Dinis"
        },
        {
          "authorId": "2035697",
          "name": "P. Montezuma"
        }
      ]
    },
    {
      "paperId": "c98ae6221fff780e5d926a2e0a1a42bf5ac89ecc",
      "externalIds": {
        "DOI": "10.1109/ICCECT57938.2023.10140278",
        "CorpusId": 259102026
      },
      "url": "https://www.semanticscholar.org/paper/c98ae6221fff780e5d926a2e0a1a42bf5ac89ecc",
      "title": "Defense against sybil attack in blockchain based on improved consensus algorithm",
      "venue": "2023 IEEE International Conference on Control, Electronics and Computer Technology (ICCECT)",
      "year": 2023,
      "referenceCount": 9,
      "citationCount": 12,
      "authors": [
        {
          "authorId": "2354389139",
          "name": "Yanting Wang"
        },
        {
          "authorId": "2068028894",
          "name": "Minsheng Tan"
        }
      ]
    },
    {
      "paperId": "0c02615a559852e98da36a76930794b24edb8032",
      "externalIds": {
        "MAG": "2544325784",
        "DBLP": "journals/tjs/JinLLC17",
        "DOI": "10.1007/s11227-016-1907-4",
        "CorpusId": 30662349
      },
      "url": "https://www.semanticscholar.org/paper/0c02615a559852e98da36a76930794b24edb8032",
      "title": "DLRankSVM: an efficient distributed algorithm for linear RankSVM",
      "venue": "Journal of Supercomputing",
      "year": 2017,
      "referenceCount": 59,
      "citationCount": 3,
      "authors": [
        {
          "authorId": "2115758127",
          "name": "Jing Jin"
        },
        {
          "authorId": "6699125",
          "name": "G. Lai"
        },
        {
          "authorId": "144136948",
          "name": "X. Lin"
        },
        {
          "authorId": "1684117",
          "name": "Xianggao Cai"
        }
      ]
    },
    {
      "paperId": "cf6ec54e249237611ed44482fecad98ec682a34c",
      "externalIds": {
        "DOI": "10.1007/s11227-016-1907-4",
        "CorpusId": 255073716
      },
      "url": "https://www.semanticscholar.org/paper/cf6ec54e249237611ed44482fecad98ec682a34c",
      "title": "DLRankSVM: an efficient distributed algorithm for linear RankSVM",
      "venue": "Journal of Supercomputing",
      "year": 2016,
      "referenceCount": 0,
      "citationCount": 0,
      "authors": [
        {
          "authorId": "2115758127",
          "name": "Jing Jin"
        },
        {
          "authorId": "6699125",
          "name": "G. Lai"
        },
        {
          "authorId": "144136948",
          "name": "X. Lin"
        },
        {
          "authorId": "1684117",
          "name": "Xianggao Cai"
        }
      ]
    },
    {
      "paperId": "7e7d5c40a2df9a51acb5d61619957a50a9f70765",
      "externalIds": {
        "DOI": "10.1145/3788763.3788786",
        "CorpusId": 286239932
      },
      "url": "https://www.semanticscholar.org/paper/7e7d5c40a2df9a51acb5d61619957a50a9f70765",
      "title": "Data Element Assetization and Transaction Mechanism Based on Blockchain Technology",
      "venue": "Proceedings of the International Conference on Digital Economy and Information Technology",
      "year": 2025,
      "referenceCount": 12,
      "citationCount": 0,
      "authors": [
        {
          "authorId": "2381903374",
          "name": "Xinjuan Wang"
        },
        {
          "authorId": "2381937312",
          "name": "Muge Zhang"
        },
        {
          "authorId": "2373563646",
          "name": "Wencheng Wang"
        }
      ]
    },
    {
      "paperId": "c6c5ebfa9f674a40b7d2e437eb051c820f1ebd91",
      "externalIds": {
        "MAG": "3082737198",
        "DBLP": "conf/icccsec/SheCHYLGLT20",
        "DOI": "10.1007/978-3-030-57881-7_49",
        "CorpusId": 221400026
      },
      "url": "https://www.semanticscholar.org/paper/c6c5ebfa9f674a40b7d2e437eb051c820f1ebd91",
      "title": "A Mutual Trust Method for Energy Internet Agent Nodes in Untrusted Environment",
      "venue": "International Conference on Adaptive and Intelligent Systems",
      "year": 2020,
      "referenceCount": 16,
      "citationCount": 0,
      "authors": [
        {
          "authorId": "48320719",
          "name": "Wei She"
        },
        {
          "authorId": "2108276410",
          "name": "Jian-Sen Chen"
        },
        {
          "authorId": "2065067148",
          "name": "Fenglin He"
        },
        {
          "authorId": "1801324",
          "name": "Xiaoyu Yang"
        },
        {
          "authorId": "1596657483",
          "name": "Xuhong Lu"
        },
        {
          "authorId": "121441859",
          "name": "Zhihao Gu"
        },
        {
          "authorId": "2157221144",
          "name": "Wei Liu"
        },
        {
          "authorId": "143825435",
          "name": "Zhao Tian"
        }
      ]
    },
    {
      "paperId": "388e1ef055db17e1cabea6fcc159a8b3031c3800",
      "externalIds": {
        "DBLP": "conf/smc/IslamKAS18",
        "MAG": "2908890736",
        "DOI": "10.1109/SMC.2018.00451",
        "CorpusId": 58672629
      },
      "url": "https://www.semanticscholar.org/paper/388e1ef055db17e1cabea6fcc159a8b3031c3800",
      "title": "Consensus Based Distributed Robust Adaptive Control for Second-Order Nonlinear Multi-agent Systems with Uncertainty",
      "venue": "IEEE International Conference on Systems, Man and Cybernetics",
      "year": 2018,
      "referenceCount": 40,
      "citationCount": 2,
      "authors": [
        {
          "authorId": "144652492",
          "name": "S. Islam"
        },
        {
          "authorId": "2963427",
          "name": "Toufik Al Khawli"
        },
        {
          "authorId": "2335935952",
          "name": "Abdelaziz Alzaabi"
        },
        {
          "authorId": "1398752384",
          "name": "A. Sunda-Meya"
        }
      ]
    },
    {
      "paperId": "2ba8f2a771d8dcf85f71315f01f4b91fec2f71e9",
      "externalIds": {
        "MAG": "2930251729",
        "DOI": "10.26480/JMERD.02.2019.06.09",
        "CorpusId": 133536499
      },
      "url": "https://www.semanticscholar.org/paper/2ba8f2a771d8dcf85f71315f01f4b91fec2f71e9",
      "title": "ALGORITHM DETERMINE TRUST VALUE TO THE DISTRIBUTED INFORMATION SYSTEMS ELEMENTS",
      "venue": "Journal of Mechanical Engineering Research and Developments",
      "year": 2019,
      "referenceCount": 16,
      "citationCount": 2,
      "authors": [
        {
          "authorId": "2140664305",
          "name": "A. A. Sychugov"
        },
        {
          "authorId": "97923243",
          "name": "E. Akhmetshin"
        },
        {
          "authorId": "37045274",
          "name": "V. M. Grishin"
        },
        {
          "authorId": "98603443",
          "name": "R. Shpakova"
        },
        {
          "authorId": null,
          "name": "Andrei V. Plotniko"
        }
      ]
    }
  ]
}