{
  "total": 26,
  "offset": 0,
  "next": 10,
  "data": [
    {
      "paperId": "1e9fa78406220579a5d7621d40c2671bbe71120d",
      "externalIds": {
        "MAG": "2962682778",
        "ArXiv": "1805.08610",
        "DBLP": "journals/corr/abs-1805-08610",
        "CorpusId": 44030072
      },
      "url": "https://www.semanticscholar.org/paper/1e9fa78406220579a5d7621d40c2671bbe71120d",
      "title": "Optimization, fast and slow: optimally switching between local and Bayesian optimization",
      "venue": "International Conference on Machine Learning",
      "year": 2018,
      "referenceCount": 19,
      "citationCount": 48,
      "authors": [
        {
          "authorId": "145960612",
          "name": "Mark McLeod"
        },
        {
          "authorId": "144484861",
          "name": "Michael A. Osborne"
        },
        {
          "authorId": "145029236",
          "name": "S. Roberts"
        }
      ]
    },
    {
      "paperId": "6bc356419cae576a5eef69c31a52028c803f5a55",
      "externalIds": {
        "DOI": "10.2514/1.j065673",
        "CorpusId": 281514016
      },
      "url": "https://www.semanticscholar.org/paper/6bc356419cae576a5eef69c31a52028c803f5a55",
      "title": "Bayesian-Optimization-Based Delay Control of Hypersonic Boundary-Layer Transition",
      "venue": "AIAA Journal",
      "year": 2025,
      "referenceCount": 47,
      "citationCount": 0,
      "authors": [
        {
          "authorId": "2209730003",
          "name": "GuoHui Zhuang"
        },
        {
          "authorId": "2335470824",
          "name": "Zhen-Hua Wan"
        },
        {
          "authorId": "2048899940",
          "name": "Peng-Jun-Yi Zhang"
        },
        {
          "authorId": "2428345151",
          "name": "Dejun Sun"
        },
        {
          "authorId": "2238393813",
          "name": "Xiyun Lu"
        },
        {
          "authorId": "2384087629",
          "name": "Meng-Qi Chang"
        }
      ]
    },
    {
      "paperId": "6c0eb85c99044d19cc59b2cf46b20eadb302ce0e",
      "externalIds": {
        "DBLP": "conf/cvpr/BristowEL13",
        "MAG": "2117259536",
        "DOI": "10.1109/CVPR.2013.57",
        "CorpusId": 4768032
      },
      "url": "https://www.semanticscholar.org/paper/6c0eb85c99044d19cc59b2cf46b20eadb302ce0e",
      "title": "Fast Convolutional Sparse Coding",
      "venue": "2013 IEEE Conference on Computer Vision and Pattern Recognition",
      "year": 2013,
      "referenceCount": 29,
      "citationCount": 359,
      "authors": [
        {
          "authorId": "145651495",
          "name": "H. Bristow"
        },
        {
          "authorId": "144213875",
          "name": "Anders P. Eriksson"
        },
        {
          "authorId": "1820249",
          "name": "Simon Lucey"
        }
      ]
    },
    {
      "paperId": "933c17e7623f0c0b71ecba23a03d106fd05fa95b",
      "externalIds": {
        "MAG": "2997642250",
        "DOI": "10.1016/j.trd.2019.102203",
        "CorpusId": 213246746
      },
      "url": "https://www.semanticscholar.org/paper/933c17e7623f0c0b71ecba23a03d106fd05fa95b",
      "title": "Using GPS-data to determine optimum electric vehicle ranges: A Michigan case study",
      "venue": "",
      "year": 2020,
      "referenceCount": 81,
      "citationCount": 33,
      "authors": [
        {
          "authorId": "5197368",
          "name": "C. Meinrenken"
        },
        {
          "authorId": "50611998",
          "name": "Zhenyu Shou"
        },
        {
          "authorId": "144438556",
          "name": "Xuan Di"
        }
      ]
    },
    {
      "paperId": "f2b821e266b2c79397e9ca360083943bb012ac0b",
      "externalIds": {
        "MAG": "2746441954",
        "DOI": "10.1007/978-3-642-85095-0",
        "CorpusId": 118291490
      },
      "url": "https://www.semanticscholar.org/paper/f2b821e266b2c79397e9ca360083943bb012ac0b",
      "title": "Discrete Structural Optimization",
      "venue": "",
      "year": 1970,
      "referenceCount": 0,
      "citationCount": 26,
      "authors": [
        {
          "authorId": "2533071",
          "name": "K. Reinschmidt"
        }
      ]
    },
    {
      "paperId": "bf10a658d11a3033022f3fd4905522f93ed4e9b9",
      "externalIds": {
        "MAG": "2027986323",
        "DOI": "10.1080/10916461003699218",
        "CorpusId": 95475923
      },
      "url": "https://www.semanticscholar.org/paper/bf10a658d11a3033022f3fd4905522f93ed4e9b9",
      "title": "Permeability Estimation of the Reservoir Based on Particle Swarm Optimization Coupled with Artificial Neural Networks",
      "venue": "",
      "year": 2011,
      "referenceCount": 23,
      "citationCount": 6,
      "authors": [
        {
          "authorId": "3071840",
          "name": "R. Nasimi"
        },
        {
          "authorId": "3055100",
          "name": "M. Shahbazian"
        },
        {
          "authorId": "2288901554",
          "name": "And R. Irani"
        }
      ]
    },
    {
      "paperId": "b4ed572e75e0cd861a6740e9c8a5e64283163b60",
      "externalIds": {
        "CorpusId": 249013019
      },
      "url": "https://www.semanticscholar.org/paper/b4ed572e75e0cd861a6740e9c8a5e64283163b60",
      "title": "Dual active bridge converter as a part of the DC microgrid",
      "venue": "",
      "year": null,
      "referenceCount": 0,
      "citationCount": 0,
      "authors": [
        {
          "authorId": "2135638668",
          "name": "G.V. Manko"
        },
        {
          "authorId": "2166120464",
          "name": "Krzysztof Anders"
        },
        {
          "authorId": "118439679",
          "name": "Bartłomiej Hryniewicki"
        }
      ]
    },
    {
      "paperId": "c5ee2d114af7ef870bc29a6a102af4300eb8e231",
      "externalIds": {
        "DBLP": "journals/cm/Chan20h",
        "MAG": "3092527655",
        "DOI": "10.1109/MCOM.2020.9214375",
        "CorpusId": 222413129
      },
      "url": "https://www.semanticscholar.org/paper/c5ee2d114af7ef870bc29a6a102af4300eb8e231",
      "title": "Multi-Layer Network Research: Optical Networks",
      "venue": "IEEE Communications Magazine",
      "year": 2020,
      "referenceCount": 2,
      "citationCount": 0,
      "authors": [
        {
          "authorId": "145157579",
          "name": "V. Chan"
        }
      ]
    },
    {
      "paperId": "b37baff7cfaa30988496a59d89024918ee6630e9",
      "externalIds": {
        "MAG": "1586828945",
        "CorpusId": 19994273
      },
      "url": "https://www.semanticscholar.org/paper/b37baff7cfaa30988496a59d89024918ee6630e9",
      "title": "Intelligent data engineering and automated learning - IDEAL 2004 : 5th International Conference, Exeter, UK, August 25-27, 2004 : proceedings",
      "venue": "",
      "year": 2004,
      "referenceCount": 6,
      "citationCount": 77,
      "authors": [
        {
          "authorId": "31272605",
          "name": "Z. Yang"
        },
        {
          "authorId": "1695079",
          "name": "R. Everson"
        },
        {
          "authorId": "1709042",
          "name": "Hujun Yin"
        }
      ]
    },
    {
      "paperId": "205a6050b746e5401e858446f4a59e4fa716b634",
      "externalIds": {
        "CorpusId": 32010189
      },
      "url": "https://www.semanticscholar.org/paper/205a6050b746e5401e858446f4a59e4fa716b634",
      "title": "Contrast Enhancement Based on BAT Algorithm",
      "venue": "",
      "year": 2015,
      "referenceCount": 8,
      "citationCount": 1,
      "authors": [
        {
          "authorId": "2144246922",
          "name": "J. Rani"
        },
        {
          "authorId": "2084029982",
          "name": "G. Bathinda"
        }
      ]
    }
  ]
}