{
  "total": 2732968,
  "offset": 0,
  "next": 10,
  "data": [
    {
      "paperId": "502cd34c2e31c6625eec05d280cca76411b7ae91",
      "externalIds": {
        "MAG": "2951917392",
        "DBLP": "journals/corr/GeZ15a",
        "ArXiv": "1507.03867",
        "CorpusId": 10640897
      },
      "url": "https://www.semanticscholar.org/paper/502cd34c2e31c6625eec05d280cca76411b7ae91",
      "title": "Rich Component Analysis",
      "venue": "International Conference on Machine Learning",
      "year": 2015,
      "referenceCount": 16,
      "citationCount": 16,
      "authors": [
        {
          "authorId": "144804200",
          "name": "Rong Ge"
        },
        {
          "authorId": "145085305",
          "name": "James Y. Zou"
        }
      ]
    },
    {
      "paperId": "5c457d7ce5e5544932bb1d2aa981397c6d8e69dd",
      "externalIds": {
        "MAG": "2981260300",
        "DOI": "10.1016/j.renene.2019.10.053",
        "CorpusId": 208830086
      },
      "url": "https://www.semanticscholar.org/paper/5c457d7ce5e5544932bb1d2aa981397c6d8e69dd",
      "title": "Formulation of synthetic bacterial consortia and their evaluation by principal component analysis for lignocellulose rich biomass degradation",
      "venue": "",
      "year": 2020,
      "referenceCount": 44,
      "citationCount": 24,
      "authors": [
        {
          "authorId": "1450686444",
          "name": "P. S. Sadalage"
        },
        {
          "authorId": "8865825",
          "name": "M. Dar"
        },
        {
          "authorId": "145214420",
          "name": "A. Chavan"
        },
        {
          "authorId": "31784804",
          "name": "K. Pawar"
        }
      ]
    },
    {
      "paperId": "bda0dbb58605530d122be63471b8b0b244787d59",
      "externalIds": {
        "MAG": "2569256304",
        "DOI": "10.1016/J.JNGSE.2017.01.014",
        "CorpusId": 113702418
      },
      "url": "https://www.semanticscholar.org/paper/bda0dbb58605530d122be63471b8b0b244787d59",
      "title": "New forecasting method for liquid rich shale gas condensate reservoirs with data driven approach using principal component analysis",
      "venue": "",
      "year": 2017,
      "referenceCount": 26,
      "citationCount": 34,
      "authors": [
        {
          "authorId": "97105788",
          "name": "A. Khanal"
        },
        {
          "authorId": "82243974",
          "name": "M. Khoshghadam"
        },
        {
          "authorId": "2355569177",
          "name": "W. J. Lee"
        },
        {
          "authorId": "3335330",
          "name": "M. Nikolaou"
        }
      ]
    },
    {
      "paperId": "4bf9a5d8acf04baa7e398d15b7210b3f5a0f341e",
      "externalIds": {
        "MAG": "2724191171",
        "DOI": "10.1007/s13197-017-2711-8",
        "CorpusId": 23345707,
        "PubMed": "28928514"
      },
      "url": "https://www.semanticscholar.org/paper/4bf9a5d8acf04baa7e398d15b7210b3f5a0f341e",
      "title": "Component analysis of nutritionally rich chloroplasts: recovery from conventional and unconventional green plant species",
      "venue": "Journal of food science and technology",
      "year": 2017,
      "referenceCount": 32,
      "citationCount": 35,
      "authors": [
        {
          "authorId": "25086064",
          "name": "Mohamed A. Gedi"
        },
        {
          "authorId": "13794280",
          "name": "Rhianna Briars"
        },
        {
          "authorId": "25065551",
          "name": "Felius Yuseli"
        },
        {
          "authorId": "47403187",
          "name": "N. Zainol"
        },
        {
          "authorId": "143722230",
          "name": "Randa Darwish"
        },
        {
          "authorId": "2371338",
          "name": "A. Salter"
        },
        {
          "authorId": "143969994",
          "name": "D. Gray"
        }
      ]
    },
    {
      "paperId": "3d97fd125088e98fd34ad4b882ef44bf1941e642",
      "externalIds": {
        "DOI": "10.1177/14759217231178457",
        "CorpusId": 259621244
      },
      "url": "https://www.semanticscholar.org/paper/3d97fd125088e98fd34ad4b882ef44bf1941e642",
      "title": "Crack detection in ultrahigh-performance concrete using robust principal component analysis and characteristic evaluation in the frequency domain",
      "venue": "Structural Health Monitoring",
      "year": 2023,
      "referenceCount": 39,
      "citationCount": 51,
      "authors": [
        {
          "authorId": "2304015443",
          "name": "Jixing Cao"
        },
        {
          "authorId": "12995627",
          "name": "Hai-jie He"
        },
        {
          "authorId": "2118392727",
          "name": "Yao Zhang"
        },
        {
          "authorId": "33887597",
          "name": "Weigang Zhao"
        },
        {
          "authorId": "2084091",
          "name": "Zhiguo Yan"
        },
        {
          "authorId": "50319527",
          "name": "Hehua Zhu"
        }
      ]
    },
    {
      "paperId": "deb236137473c858398b0ac7b57079094c0af7f8",
      "externalIds": {
        "PubMedCentral": "10767316",
        "DOI": "10.1016/j.crfs.2023.100656",
        "CorpusId": 266241361,
        "PubMed": "38188650"
      },
      "url": "https://www.semanticscholar.org/paper/deb236137473c858398b0ac7b57079094c0af7f8",
      "title": "Vegetable and fruit freshness detection based on deep features and principal component analysis",
      "venue": "Current Research in Food Science",
      "year": 2023,
      "referenceCount": 58,
      "citationCount": 47,
      "authors": [
        {
          "authorId": "2293451366",
          "name": "Yue Yuan"
        },
        {
          "authorId": "2594898",
          "name": "Xianlong Chen"
        }
      ]
    },
    {
      "paperId": "212c1395923c0ced838664b045a6178ace97dbee",
      "externalIds": {
        "ArXiv": "1406.4775",
        "MAG": "2952745913",
        "DBLP": "journals/tit/MontanariR16",
        "DOI": "10.1109/TIT.2015.2457942",
        "CorpusId": 2401745
      },
      "url": "https://www.semanticscholar.org/paper/212c1395923c0ced838664b045a6178ace97dbee",
      "title": "Non-Negative Principal Component Analysis: Message Passing Algorithms and Sharp Asymptotics",
      "venue": "IEEE Transactions on Information Theory",
      "year": 2014,
      "referenceCount": 85,
      "citationCount": 119,
      "authors": [
        {
          "authorId": "145071265",
          "name": "A. Montanari"
        },
        {
          "authorId": "144564166",
          "name": "E. Richard"
        }
      ]
    },
    {
      "paperId": "2d61ff467309c187ae288ce678fbc25edf4fdd30",
      "externalIds": {
        "DBLP": "journals/tgrs/RastiGG17",
        "MAG": "2606929568",
        "DOI": "10.1109/TGRS.2017.2686450",
        "CorpusId": 26329359
      },
      "url": "https://www.semanticscholar.org/paper/2d61ff467309c187ae288ce678fbc25edf4fdd30",
      "title": "Hyperspectral and LiDAR Fusion Using Extinction Profiles and Total Variation Component Analysis",
      "venue": "IEEE Transactions on Geoscience and Remote Sensing",
      "year": 2017,
      "referenceCount": 38,
      "citationCount": 188,
      "authors": [
        {
          "authorId": "2655698",
          "name": "Behnood Rasti"
        },
        {
          "authorId": "2370080",
          "name": "Pedram Ghamisi"
        },
        {
          "authorId": "2971695",
          "name": "R. Gloaguen"
        }
      ]
    },
    {
      "paperId": "192e9f61783556836111da92a5f93e7abdc3a087",
      "externalIds": {
        "MAG": "2799480710",
        "DOI": "10.1029/2018GC007511",
        "CorpusId": 133736080
      },
      "url": "https://www.semanticscholar.org/paper/192e9f61783556836111da92a5f93e7abdc3a087",
      "title": "An Improved Algorithm for Unmixing First‐Order Reversal Curve Diagrams Using Principal Component Analysis",
      "venue": "",
      "year": 2018,
      "referenceCount": 60,
      "citationCount": 84,
      "authors": [
        {
          "authorId": "144222968",
          "name": "R. Harrison"
        },
        {
          "authorId": "104911961",
          "name": "J. Muraszko"
        },
        {
          "authorId": "98855317",
          "name": "D. Heslop"
        },
        {
          "authorId": "5320689",
          "name": "I. Lascu"
        },
        {
          "authorId": "5152840",
          "name": "A. Muxworthy"
        },
        {
          "authorId": "12782924",
          "name": "A. Roberts"
        }
      ]
    },
    {
      "paperId": "524d8db439b9bf7f360ebdfe0ba9739c830cf305",
      "externalIds": {
        "PubMedCentral": "10098677",
        "MAG": "2956140275",
        "ArXiv": "1906.12125",
        "DOI": "10.1111/rssb.12550",
        "CorpusId": 195750781,
        "PubMed": "37065873"
      },
      "url": "https://www.semanticscholar.org/paper/524d8db439b9bf7f360ebdfe0ba9739c830cf305",
      "title": "High‐dimensional principal component analysis with heterogeneous missingness",
      "venue": "Journal of The Royal Statistical Society Series B-statistical Methodology",
      "year": 2019,
      "referenceCount": 61,
      "citationCount": 54,
      "authors": [
        {
          "authorId": "2109438309",
          "name": "Ziwei Zhu"
        },
        {
          "authorId": "2196654",
          "name": "Tengyao Wang"
        },
        {
          "authorId": "2788351",
          "name": "R. Samworth"
        }
      ]
    }
  ]
}