{
  "total": 1282,
  "offset": 0,
  "next": 10,
  "data": [
    {
      "paperId": "129d8e5cbf7c8c60631a1afa9779d9dad78940f6",
      "externalIds": {
        "MAG": "2740120517",
        "DBLP": "conf/icml/XieDZKYZX17",
        "CorpusId": 39213535
      },
      "url": "https://www.semanticscholar.org/paper/129d8e5cbf7c8c60631a1afa9779d9dad78940f6",
      "title": "Learning Latent Space Models with Angular Constraints",
      "venue": "International Conference on Machine Learning",
      "year": 2017,
      "referenceCount": 72,
      "citationCount": 24,
      "authors": [
        {
          "authorId": "40526720",
          "name": "Pengtao Xie"
        },
        {
          "authorId": "2505751",
          "name": "Yuntian Deng"
        },
        {
          "authorId": "2118764630",
          "name": "Yi Zhou"
        },
        {
          "authorId": "1776255",
          "name": "Abhimanu Kumar"
        },
        {
          "authorId": "40508553",
          "name": "Yaoliang Yu"
        },
        {
          "authorId": "145085305",
          "name": "James Y. Zou"
        },
        {
          "authorId": "143977260",
          "name": "E. Xing"
        }
      ]
    },
    {
      "paperId": "0fa7797d7b050b50855e68f758a60a2b43b8e7a5",
      "externalIds": {
        "DOI": "10.1115/imece2025-166864",
        "CorpusId": 286053679
      },
      "url": "https://www.semanticscholar.org/paper/0fa7797d7b050b50855e68f758a60a2b43b8e7a5",
      "title": "Latent Space Diffusion Models With Auxiliary Losses for Structural Topology Optimization",
      "venue": "Volume 8: Heat Transfer and Thermal Engineering; Mechanics of Solids, Structures and Fluids",
      "year": 2025,
      "referenceCount": 0,
      "citationCount": 0,
      "authors": [
        {
          "authorId": "2372774736",
          "name": "Aaron Lutheran"
        },
        {
          "authorId": "2375158297",
          "name": "Srijan Das"
        },
        {
          "authorId": "2377309470",
          "name": "Alireza Tabarraei"
        }
      ]
    },
    {
      "paperId": "fbcf94e6469ef108f859353017c896f54a100c63",
      "externalIds": {
        "ArXiv": "2505.07525",
        "CorpusId": 282384926
      },
      "url": "https://www.semanticscholar.org/paper/fbcf94e6469ef108f859353017c896f54a100c63",
      "title": "Adaptive Latent-Space Constraints in Personalized Federated Learning",
      "venue": "",
      "year": 2025,
      "referenceCount": 46,
      "citationCount": 0,
      "authors": [
        {
          "authorId": "2055028830",
          "name": "Sana Ayromlou"
        },
        {
          "authorId": "2249533136",
          "name": "Fatemeh Tavakoli"
        },
        {
          "authorId": "2249532835",
          "name": "D. B. Emerson"
        }
      ]
    },
    {
      "paperId": "181d84b5513586810bec37bca7c8b1814be3b95e",
      "externalIds": {
        "ArXiv": "2507.05540",
        "DBLP": "journals/corr/abs-2507-05540",
        "DOI": "10.48550/arXiv.2507.05540",
        "CorpusId": 280147738
      },
      "url": "https://www.semanticscholar.org/paper/181d84b5513586810bec37bca7c8b1814be3b95e",
      "title": "Robust Learning on Noisy Graphs via Latent Space Constraints with External Knowledge",
      "venue": "arXiv.org",
      "year": 2025,
      "referenceCount": 33,
      "citationCount": 0,
      "authors": [
        {
          "authorId": "2333542351",
          "name": "C. Gu"
        },
        {
          "authorId": "2159546266",
          "name": "M. Nasr"
        },
        {
          "authorId": "2243456098",
          "name": "James P. Long"
        },
        {
          "authorId": "2263879929",
          "name": "K.-A. Do"
        },
        {
          "authorId": "5908958",
          "name": "E. Irajizad"
        }
      ]
    },
    {
      "paperId": "1639c364ca7ee193a45dc9a6bad1d597b345043e",
      "externalIds": {
        "DBLP": "journals/corr/abs-2510-04006",
        "ArXiv": "2510.04006",
        "DOI": "10.48550/arXiv.2510.04006",
        "CorpusId": 281844084
      },
      "url": "https://www.semanticscholar.org/paper/1639c364ca7ee193a45dc9a6bad1d597b345043e",
      "title": "Incorporating Multivariate Consistency in ML-Based Weather Forecasting with Latent-space Constraints",
      "venue": "arXiv.org",
      "year": 2025,
      "referenceCount": 46,
      "citationCount": 3,
      "authors": [
        {
          "authorId": "2346468853",
          "name": "Hang Fan"
        },
        {
          "authorId": "2263035130",
          "name": "Yi Xiao"
        },
        {
          "authorId": "2282374891",
          "name": "Yongquan Qu"
        },
        {
          "authorId": "2006398365",
          "name": "Fenghua Ling"
        },
        {
          "authorId": "2330082502",
          "name": "Ben Fei"
        },
        {
          "authorId": "2334751722",
          "name": "Lei Bai"
        },
        {
          "authorId": "2259100083",
          "name": "Pierre Gentine"
        }
      ]
    },
    {
      "paperId": "9cfd8013a44b1d9bea90d0603a2cd566d5ec5132",
      "externalIds": {
        "PubMedCentral": "12757030",
        "ArXiv": "2502.02884",
        "DOI": "10.1126/sciadv.aea4248",
        "CorpusId": 276116345,
        "PubMed": "41477852"
      },
      "url": "https://www.semanticscholar.org/paper/9cfd8013a44b1d9bea90d0603a2cd566d5ec5132",
      "title": "Physically consistent global atmospheric data assimilation with machine learning in latent space",
      "venue": "Science Advances",
      "year": 2025,
      "referenceCount": 75,
      "citationCount": 13,
      "authors": [
        {
          "authorId": "2217878899",
          "name": "Hang Fan"
        },
        {
          "authorId": "2334751722",
          "name": "Lei Bai"
        },
        {
          "authorId": "2330082502",
          "name": "Ben Fei"
        },
        {
          "authorId": "2263035130",
          "name": "Yi Xiao"
        },
        {
          "authorId": "2275834177",
          "name": "Kun Chen"
        },
        {
          "authorId": "2266687537",
          "name": "Yubao Liu"
        },
        {
          "authorId": "2282374891",
          "name": "Yongquan Qu"
        },
        {
          "authorId": "2006398365",
          "name": "Fenghua Ling"
        },
        {
          "authorId": "2259100083",
          "name": "Pierre Gentine"
        }
      ]
    },
    {
      "paperId": "a0c0f8a8aa07122692e1f3983f13a6f9ed638876",
      "externalIds": {
        "DBLP": "journals/cbm/FuC25",
        "DOI": "10.1016/j.compbiomed.2025.111115",
        "CorpusId": 281839061,
        "PubMed": "41046682"
      },
      "url": "https://www.semanticscholar.org/paper/a0c0f8a8aa07122692e1f3983f13a6f9ed638876",
      "title": "Correlated latent space learning for structural differentiation modeling in single cell RNA data",
      "venue": "Comput. Biol. Medicine",
      "year": 2025,
      "referenceCount": 65,
      "citationCount": 0,
      "authors": [
        {
          "authorId": "2310796145",
          "name": "Zeyu Fu"
        },
        {
          "authorId": "2349428273",
          "name": "Chunlin Chen"
        }
      ]
    },
    {
      "paperId": "c6ab39a8fd101233dcb0fe02948fd5a80377be37",
      "externalIds": {
        "DBLP": "journals/corr/abs-2505-07525",
        "DOI": "10.48550/arXiv.2505.07525",
        "CorpusId": 278502065
      },
      "url": "https://www.semanticscholar.org/paper/c6ab39a8fd101233dcb0fe02948fd5a80377be37",
      "title": "Adaptive Latent-Space Constraints in Personalized FL",
      "venue": "arXiv.org",
      "year": 2025,
      "referenceCount": 33,
      "citationCount": 0,
      "authors": [
        {
          "authorId": "2055028830",
          "name": "Sana Ayromlou"
        },
        {
          "authorId": "2055879362",
          "name": "David B. Emerson"
        }
      ]
    },
    {
      "paperId": "c5dd90cab291ef122d34ac65bf4921ec6fc0b325",
      "externalIds": {
        "DOI": "10.1109/STSIVA66383.2025.11156506",
        "CorpusId": 281335010
      },
      "url": "https://www.semanticscholar.org/paper/c5dd90cab291ef122d34ac65bf4921ec6fc0b325",
      "title": "Learned Latent Space Initialization for ADMM with Generative Priors",
      "venue": "2025 XXV Symposium of Image, Signal Processing, and Artificial Vision (STSIVA)",
      "year": 2025,
      "referenceCount": 17,
      "citationCount": 0,
      "authors": [
        {
          "authorId": "2380697290",
          "name": "Julio Gutierrez-Rengifo"
        },
        {
          "authorId": "2380697279",
          "name": "Jose Barrios"
        },
        {
          "authorId": "2201170681",
          "name": "Sergio Urrea"
        },
        {
          "authorId": "2269565471",
          "name": "Karen Fonseca"
        },
        {
          "authorId": "2072673540",
          "name": "Emmanuel Martínez"
        },
        {
          "authorId": "2237289714",
          "name": "Henry Arguello"
        }
      ]
    },
    {
      "paperId": "c5e2d03af04cc2b1a8f2c89531c6003573bf2bee",
      "externalIds": {
        "DBLP": "journals/mva/KhanKSY25",
        "DOI": "10.1007/s00138-024-01654-9",
        "CorpusId": 275868405
      },
      "url": "https://www.semanticscholar.org/paper/c5e2d03af04cc2b1a8f2c89531c6003573bf2bee",
      "title": "End-to-end unsupervised learning of latent-space clustering for image segmentation via fully dense-UNet and fuzzy C-means loss",
      "venue": "Machine Vision and Applications",
      "year": 2025,
      "referenceCount": 50,
      "citationCount": 4,
      "authors": [
        {
          "authorId": "152329612",
          "name": "Zubair Khan"
        },
        {
          "authorId": "2341989690",
          "name": "Tehreem Khan"
        },
        {
          "authorId": "25400887",
          "name": "Mohsin Sattar"
        },
        {
          "authorId": "2288151656",
          "name": "Jie Yang"
        }
      ]
    }
  ]
}