{
  "total": 144116,
  "offset": 0,
  "next": 10,
  "data": [
    {
      "paperId": "06dc27ad53914b60f46202800141f5c88a8a52cb",
      "externalIds": {
        "DBLP": "journals/corr/ToshD17",
        "MAG": "2963834717",
        "ArXiv": "1702.08553",
        "CorpusId": 16888958
      },
      "url": "https://www.semanticscholar.org/paper/06dc27ad53914b60f46202800141f5c88a8a52cb",
      "title": "Diameter-Based Active Learning",
      "venue": "International Conference on Machine Learning",
      "year": 2017,
      "referenceCount": 29,
      "citationCount": 27,
      "authors": [
        {
          "authorId": "2603895",
          "name": "Christopher Tosh"
        },
        {
          "authorId": "1880237",
          "name": "S. Dasgupta"
        }
      ]
    },
    {
      "paperId": "d587171fba7697e3902f4df9d85561e941c2597b",
      "externalIds": {
        "PubMedCentral": "12471150",
        "DBLP": "journals/jimaging/IslamTMKHA25",
        "DOI": "10.3390/jimaging11090318",
        "CorpusId": 281442569,
        "PubMed": "41003368"
      },
      "url": "https://www.semanticscholar.org/paper/d587171fba7697e3902f4df9d85561e941c2597b",
      "title": "Uncertainty-Guided Active Learning for Access Route Segmentation and Planning in Transcatheter Aortic Valve Implantation",
      "venue": "Journal of Imaging",
      "year": 2025,
      "referenceCount": 32,
      "citationCount": 0,
      "authors": [
        {
          "authorId": "1990532",
          "name": "Mahdi Islam"
        },
        {
          "authorId": "2168976290",
          "name": "Musarrat Tabassum"
        },
        {
          "authorId": "2297186590",
          "name": "Agnes Mayr"
        },
        {
          "authorId": "2192262328",
          "name": "Christian Kremser"
        },
        {
          "authorId": "2362245542",
          "name": "Markus Haltmeier"
        },
        {
          "authorId": "2344752399",
          "name": "Enrique Almar-Munoz"
        }
      ]
    },
    {
      "paperId": "3f9930f76a3783b56f74ae8a6131ead9a43935fa",
      "externalIds": {
        "DOI": "10.3390/aerospace13040331",
        "CorpusId": 287187249
      },
      "url": "https://www.semanticscholar.org/paper/3f9930f76a3783b56f74ae8a6131ead9a43935fa",
      "title": "Intelligent Design and Optimization of a 3 mm Micro-Turbine Blade Profile Using Physics-Informed Neural Networks and Active Learning",
      "venue": "Aerospace",
      "year": 2026,
      "referenceCount": 23,
      "citationCount": 0,
      "authors": [
        {
          "authorId": "2274059998",
          "name": "Yi Hu"
        },
        {
          "authorId": "2290360274",
          "name": "Leheng Zhang"
        },
        {
          "authorId": "2047318685",
          "name": "Sirui Gong"
        },
        {
          "authorId": "2290317652",
          "name": "Zhenlong Wang"
        }
      ]
    },
    {
      "paperId": "ad2d21ad64d260dc8d83096aefb8e9dddc91f48d",
      "externalIds": {
        "DBLP": "conf/amcc/RenLWSL24",
        "DOI": "10.23919/ACC60939.2024.10645058",
        "CorpusId": 272429495
      },
      "url": "https://www.semanticscholar.org/paper/ad2d21ad64d260dc8d83096aefb8e9dddc91f48d",
      "title": "Iterative ESO-Based Data-Driven Active Disturbance Rejection Learning Control of Czochralski Silicon Single Crystal Growth Process",
      "venue": "American Control Conference",
      "year": 2024,
      "referenceCount": 19,
      "citationCount": 0,
      "authors": [
        {
          "authorId": "66088352",
          "name": "Jun-chao Ren"
        },
        {
          "authorId": "2168591140",
          "name": "Ding Liu"
        },
        {
          "authorId": "2075389514",
          "name": "Yin Wan"
        },
        {
          "authorId": "2072686277",
          "name": "Shuyan Shi"
        },
        {
          "authorId": "2284455682",
          "name": "Yuyu Liu"
        }
      ]
    },
    {
      "paperId": "b5596264c38018e25a54d9b8bcd562125737a074",
      "externalIds": {
        "ArXiv": "1906.02101",
        "MAG": "3011231328",
        "DBLP": "conf/aistats/Tosh020",
        "CorpusId": 214688621
      },
      "url": "https://www.semanticscholar.org/paper/b5596264c38018e25a54d9b8bcd562125737a074",
      "title": "Diameter-based Interactive Structure Discovery",
      "venue": "International Conference on Artificial Intelligence and Statistics",
      "year": 2019,
      "referenceCount": 35,
      "citationCount": 3,
      "authors": [
        {
          "authorId": "2603895",
          "name": "Christopher Tosh"
        },
        {
          "authorId": "143724861",
          "name": "Daniel J. Hsu"
        }
      ]
    },
    {
      "paperId": "cfa26284fd73546c1952d632516611970d45920b",
      "externalIds": {
        "MAG": "3001634733",
        "DOI": "10.1080/0305215x.2019.1702978",
        "CorpusId": 212893004
      },
      "url": "https://www.semanticscholar.org/paper/cfa26284fd73546c1952d632516611970d45920b",
      "title": "Robust design optimization of imperfect stiffened shells using an active learning method and a hybrid surrogate model",
      "venue": "",
      "year": 2020,
      "referenceCount": 51,
      "citationCount": 22,
      "authors": [
        {
          "authorId": "144046311",
          "name": "Zeng Meng"
        },
        {
          "authorId": "6177702",
          "name": "Zhuohui Zhang"
        },
        {
          "authorId": "2217674870",
          "name": "Huanlin Zhou"
        },
        {
          "authorId": "2118024588",
          "name": "Hanshu Chen"
        },
        {
          "authorId": "2110705511",
          "name": "Bo Yu"
        }
      ]
    },
    {
      "paperId": "117986bd4ebf95b4d9bf6912e0d989ffd9620d2a",
      "externalIds": {
        "MAG": "2948627167",
        "DBLP": "journals/corr/abs-1906-02101",
        "CorpusId": 174799424
      },
      "url": "https://www.semanticscholar.org/paper/117986bd4ebf95b4d9bf6912e0d989ffd9620d2a",
      "title": "Diameter-based Interactive Structure Search",
      "venue": "arXiv.org",
      "year": 2019,
      "referenceCount": 21,
      "citationCount": 0,
      "authors": [
        {
          "authorId": "2603895",
          "name": "Christopher Tosh"
        },
        {
          "authorId": "143724861",
          "name": "Daniel J. Hsu"
        }
      ]
    },
    {
      "paperId": "7869102154c8f1d28ac27f84b4462abbe2af301a",
      "externalIds": {
        "PubMedCentral": "12092499",
        "ArXiv": "2405.17655",
        "DOI": "10.1007/s10494-025-00642-x",
        "CorpusId": 270067718,
        "PubMed": "40406451"
      },
      "url": "https://www.semanticscholar.org/paper/7869102154c8f1d28ac27f84b4462abbe2af301a",
      "title": "Active Flow Control for Drag Reduction Through Multi-agent Reinforcement Learning on a Turbulent Cylinder at \\documentclass[12pt]{minimal} \\usepackage{amsmath} \\usepackage{wasysym} \\usepackage{amsfonts} \\usepackage{amssymb} \\usepackage{amsbsy} \\usepackage{mathrsfs} \\usepackage{upgreek} \\setlength{\\o",
      "venue": "Flow Turbulence and Combustion",
      "year": 2024,
      "referenceCount": 44,
      "citationCount": 18,
      "authors": [
        {
          "authorId": "2348835527",
          "name": "Pol Suárez"
        },
        {
          "authorId": "2303403096",
          "name": "F. Alcántara-Ávila"
        },
        {
          "authorId": "2088049117",
          "name": "Arnau Miró"
        },
        {
          "authorId": "2300174191",
          "name": "J. Rabault"
        },
        {
          "authorId": "2070717000",
          "name": "B. Font"
        },
        {
          "authorId": "2237984707",
          "name": "O. Lehmkuhl"
        },
        {
          "authorId": "2237984262",
          "name": "R. Vinuesa"
        }
      ]
    },
    {
      "paperId": "e6e68e0e1ff002e4907abe754b41b1def8601106",
      "externalIds": {
        "MAG": "3022645615",
        "DOI": "10.3390/su12093583",
        "CorpusId": 219062200
      },
      "url": "https://www.semanticscholar.org/paper/e6e68e0e1ff002e4907abe754b41b1def8601106",
      "title": "Sensorless Active and Reactive Control for DFIG Wind Turbines Using Opposition-Based Learning Technique",
      "venue": "Sustainability",
      "year": 2020,
      "referenceCount": 39,
      "citationCount": 34,
      "authors": [
        {
          "authorId": "49264644",
          "name": "A. Eltamaly"
        },
        {
          "authorId": "1403067038",
          "name": "M. Al-Saud"
        },
        {
          "authorId": "48872572",
          "name": "K. Sayed"
        },
        {
          "authorId": "67170214",
          "name": "A. G. Abo-Khalil"
        }
      ]
    },
    {
      "paperId": "1ff90a16c5e80c8f5d87f25594e68f627a063268",
      "externalIds": {
        "MAG": "2941616793",
        "DBLP": "journals/remotesensing/MalekMGNGD19",
        "DOI": "10.3390/RS11080949",
        "CorpusId": 144207436
      },
      "url": "https://www.semanticscholar.org/paper/1ff90a16c5e80c8f5d87f25594e68f627a063268",
      "title": "Optimizing Field Data Collection for Individual Tree Attribute Predictions Using Active Learning Methods",
      "venue": "Remote Sensing",
      "year": 2019,
      "referenceCount": 40,
      "citationCount": 6,
      "authors": [
        {
          "authorId": "2865182",
          "name": "S. Malek"
        },
        {
          "authorId": "50682775",
          "name": "F. Miglietta"
        },
        {
          "authorId": "2407430",
          "name": "T. Gobakken"
        },
        {
          "authorId": "2787911",
          "name": "E. Næsset"
        },
        {
          "authorId": "3001544",
          "name": "D. Gianelle"
        },
        {
          "authorId": "2841519",
          "name": "M. Dalponte"
        }
      ]
    }
  ]
}