{
  "total": 192,
  "offset": 0,
  "next": 10,
  "data": [
    {
      "paperId": "90fbb48392417ec101b8eda33c70537d94758248",
      "externalIds": {
        "MAG": "1677263269",
        "DBLP": "conf/icml/KuklianskyS15",
        "CorpusId": 713043
      },
      "url": "https://www.semanticscholar.org/paper/90fbb48392417ec101b8eda33c70537d94758248",
      "title": "Attribute Efficient Linear Regression with Distribution-Dependent Sampling",
      "venue": "International Conference on Machine Learning",
      "year": 2015,
      "referenceCount": 14,
      "citationCount": 14,
      "authors": [
        {
          "authorId": "2771709",
          "name": "Doron Kukliansky"
        },
        {
          "authorId": "1768909",
          "name": "Ohad Shamir"
        }
      ]
    },
    {
      "paperId": "8e31f365ef7a7ad309706997151dc717beaf42a5",
      "externalIds": {
        "CorpusId": 1461705
      },
      "url": "https://www.semanticscholar.org/paper/8e31f365ef7a7ad309706997151dc717beaf42a5",
      "title": "Attribute Efficient Linear Regression with Distribution-Dependent Sampling",
      "venue": "",
      "year": 2015,
      "referenceCount": 0,
      "citationCount": 1,
      "authors": [
        {
          "authorId": "2079677080",
          "name": "A. Two-Phased"
        },
        {
          "authorId": "2081712025",
          "name": "Ddaerr"
        }
      ]
    },
    {
      "paperId": "8a2278338d5887004fc2f026a38ac54148c72ea2",
      "externalIds": {
        "ArXiv": "1410.6382",
        "MAG": "1511670714",
        "DBLP": "journals/corr/KuklianskyS14",
        "CorpusId": 427850
      },
      "url": "https://www.semanticscholar.org/paper/8a2278338d5887004fc2f026a38ac54148c72ea2",
      "title": "Attribute Efficient Linear Regression with Data-Dependent Sampling",
      "venue": "arXiv.org",
      "year": 2014,
      "referenceCount": 13,
      "citationCount": 3,
      "authors": [
        {
          "authorId": "2771709",
          "name": "Doron Kukliansky"
        },
        {
          "authorId": "1768909",
          "name": "Ohad Shamir"
        }
      ]
    },
    {
      "paperId": "a6fb90b2baf73cf0071876da47836c341d554056",
      "externalIds": {
        "DOI": "10.1080/07474946.2025.2558113",
        "CorpusId": 281619435
      },
      "url": "https://www.semanticscholar.org/paper/a6fb90b2baf73cf0071876da47836c341d554056",
      "title": "Designing a generalized multiple dependent state repetitive sampling plan for the accelerated life test using the truncated lifetime distribution",
      "venue": "Sequential Analysis",
      "year": 2025,
      "referenceCount": 49,
      "citationCount": 0,
      "authors": [
        {
          "authorId": "3171227",
          "name": "Pramote Charongrattanasakul"
        },
        {
          "authorId": "2900132",
          "name": "Wimonmas Bamrungsetthapong"
        },
        {
          "authorId": "100587483",
          "name": "Kanittha Yimnak"
        }
      ]
    },
    {
      "paperId": "788a559d0ddd1255770483119bcba3751173c6f6",
      "externalIds": {
        "DOI": "10.37394/23203.2025.20.40",
        "CorpusId": 281587564
      },
      "url": "https://www.semanticscholar.org/paper/788a559d0ddd1255770483119bcba3751173c6f6",
      "title": "Designing a Multiple Dependent State-Triple Sampling Plan under Weibull-Modelled Accelerated Life Testing Conditions",
      "venue": "WSEAS transactions on systems and control",
      "year": 2025,
      "referenceCount": 27,
      "citationCount": 0,
      "authors": [
        {
          "authorId": "3171227",
          "name": "Pramote Charongrattanasakul"
        },
        {
          "authorId": "100587483",
          "name": "Kanittha Yimnak"
        },
        {
          "authorId": "2900132",
          "name": "Wimonmas Bamrungsetthapong"
        }
      ]
    },
    {
      "paperId": "295d4a77fb1a8fd5000ff6a83c33c21a528a58b9",
      "externalIds": {
        "DBLP": "conf/nips/Liu0KOS23",
        "DOI": "10.52202/075280-0998",
        "CorpusId": 268042192
      },
      "url": "https://www.semanticscholar.org/paper/295d4a77fb1a8fd5000ff6a83c33c21a528a58b9",
      "title": "Label Robust and Differentially Private Linear Regression: Computational and Statistical Efficiency",
      "venue": "Neural Information Processing Systems",
      "year": 2023,
      "referenceCount": 89,
      "citationCount": 10,
      "authors": [
        {
          "authorId": "2110649962",
          "name": "Xiyang Liu"
        },
        {
          "authorId": "2265583552",
          "name": "Prateek Jain"
        },
        {
          "authorId": "2287941830",
          "name": "Weihao Kong"
        },
        {
          "authorId": "2288233667",
          "name": "Sewoong Oh"
        },
        {
          "authorId": "2170091",
          "name": "A. Suggala"
        }
      ]
    },
    {
      "paperId": "e3b65ff5b86e0f5acad305eed5537dbbeff4351d",
      "externalIds": {
        "MAG": "1506294939",
        "CorpusId": 118388735
      },
      "url": "https://www.semanticscholar.org/paper/e3b65ff5b86e0f5acad305eed5537dbbeff4351d",
      "title": "The Effect of Sampling Methods for Linear Regression Estimation of Population Means of Dependent Variables",
      "venue": "",
      "year": 2013,
      "referenceCount": 9,
      "citationCount": 0,
      "authors": [
        {
          "authorId": "102762404",
          "name": "Natcha Buasiri"
        },
        {
          "authorId": "51980573",
          "name": "T. Mayureesawan"
        }
      ]
    },
    {
      "paperId": "23a57b9bca4718dfe5017a48855907e0edfafa61",
      "externalIds": {
        "DBLP": "journals/corr/abs-2007-14539",
        "MAG": "3104170515",
        "ArXiv": "2007.14539",
        "CorpusId": 220845848
      },
      "url": "https://www.semanticscholar.org/paper/23a57b9bca4718dfe5017a48855907e0edfafa61",
      "title": "Truncated Linear Regression in High Dimensions",
      "venue": "Neural Information Processing Systems",
      "year": 2020,
      "referenceCount": 29,
      "citationCount": 17,
      "authors": [
        {
          "authorId": "3806712",
          "name": "C. Daskalakis"
        },
        {
          "authorId": "51062464",
          "name": "Dhruv Rohatgi"
        },
        {
          "authorId": "3438946",
          "name": "M. Zampetakis"
        }
      ]
    },
    {
      "paperId": "fcad2b7c51444cd82da7b1536cf2a3748b4976d8",
      "externalIds": {
        "MAG": "2139766996",
        "DOI": "10.1016/0304-4076(86)90039-4",
        "CorpusId": 14608752
      },
      "url": "https://www.semanticscholar.org/paper/fcad2b7c51444cd82da7b1536cf2a3748b4976d8",
      "title": "A class of partially adaptive one-step m-estimators for the non-linear regression model with dependent observations",
      "venue": "",
      "year": 1986,
      "referenceCount": 40,
      "citationCount": 51,
      "authors": [
        {
          "authorId": "3294516",
          "name": "B. M. Pötscher"
        },
        {
          "authorId": "2634164",
          "name": "I. Prucha"
        }
      ]
    },
    {
      "paperId": "ac006ad3c04fea604d572dd28e2779b3a7abdc23",
      "externalIds": {
        "DBLP": "journals/cstat/WangCWLGH26",
        "DOI": "10.1007/s00180-025-01715-1",
        "CorpusId": 284875121
      },
      "url": "https://www.semanticscholar.org/paper/ac006ad3c04fea604d572dd28e2779b3a7abdc23",
      "title": "Bayesian weighted composite quantile regression in varying-coefficient partially linear mixed-effects model with ordinal longitudinal data",
      "venue": "Computational statistics (Zeitschrift)",
      "year": 2026,
      "referenceCount": 60,
      "citationCount": 0,
      "authors": [
        {
          "authorId": "2368100527",
          "name": "Xiaofan Wang"
        },
        {
          "authorId": "47740856",
          "name": "Jiaqing Chen"
        },
        {
          "authorId": "2368048157",
          "name": "Jinjing Wang"
        },
        {
          "authorId": "2368328630",
          "name": "Yibo Long"
        },
        {
          "authorId": "2367865932",
          "name": "Feng Gu"
        },
        {
          "authorId": "46843827",
          "name": "Yangxin Huang"
        }
      ]
    }
  ]
}