{
  "total": 97,
  "offset": 0,
  "next": 10,
  "data": [
    {
      "paperId": "5f0cc224b809981ae3ab0876fc48dbbf7c11c4f7",
      "externalIds": {
        "DBLP": "journals/corr/BounliphoneGB14",
        "MAG": "2963284811",
        "ArXiv": "1406.3852",
        "CorpusId": 1795942
      },
      "url": "https://www.semanticscholar.org/paper/5f0cc224b809981ae3ab0876fc48dbbf7c11c4f7",
      "title": "A low variance consistent test of relative dependency",
      "venue": "International Conference on Machine Learning",
      "year": 2014,
      "referenceCount": 46,
      "citationCount": 8,
      "authors": [
        {
          "authorId": "1992412",
          "name": "Wacha Bounliphone"
        },
        {
          "authorId": "1708497",
          "name": "A. Gretton"
        },
        {
          "authorId": "50186594",
          "name": "A. Tenenhaus"
        },
        {
          "authorId": "1758219",
          "name": "Matthew B. Blaschko"
        }
      ]
    },
    {
      "paperId": "01e183c4876bc8b44117df3f39ac82e56fe448e2",
      "externalIds": {
        "PubMedCentral": "11015654",
        "DOI": "10.1186/s12916-024-03383-2",
        "CorpusId": 269089351,
        "PubMed": "38609994"
      },
      "url": "https://www.semanticscholar.org/paper/01e183c4876bc8b44117df3f39ac82e56fe448e2",
      "title": "The effects of telehealth-delivered mindfulness meditation, cognitive therapy, and behavioral activation for chronic low back pain: a randomized clinical trial",
      "venue": "BMC Medicine",
      "year": 2024,
      "referenceCount": 69,
      "citationCount": 11,
      "authors": [
        {
          "authorId": "6706452",
          "name": "M. Day"
        },
        {
          "authorId": "2272666534",
          "name": "Marcia A. Ciol"
        },
        {
          "authorId": "2239498562",
          "name": "M. E. Mendoza"
        },
        {
          "authorId": "2296282543",
          "name": "Jeffrey J Borckardt"
        },
        {
          "authorId": "6993265",
          "name": "D. Ehde"
        },
        {
          "authorId": "2281868985",
          "name": "Andrea K. Newman"
        },
        {
          "authorId": "39999354",
          "name": "J. Chan"
        },
        {
          "authorId": "2296295816",
          "name": "Sydney A. Drever"
        },
        {
          "authorId": "2281869478",
          "name": "Janna L. Friedly"
        },
        {
          "authorId": "2251321787",
          "name": "John W. Burns"
        },
        {
          "authorId": "2251978969",
          "name": "Beverly E. Thorn"
        },
        {
          "authorId": "2241581138",
          "name": "Mark P. Jensen"
        }
      ]
    },
    {
      "paperId": "7380d66b726bc746dceba35f52b29b7457064d79",
      "externalIds": {
        "DOI": "10.2118/231587-ms",
        "CorpusId": 287695972
      },
      "url": "https://www.semanticscholar.org/paper/7380d66b726bc746dceba35f52b29b7457064d79",
      "title": "Relative Permeability for Immiscible & Near-Miscible Gas Flood in Tight Carbonate Reservoirs: Experimental Study and Numerical Interpretation",
      "venue": "SPE Improved Oil Recovery Conference",
      "year": 2026,
      "referenceCount": 9,
      "citationCount": 0,
      "authors": [
        {
          "authorId": "80634565",
          "name": "R. Nasralla"
        },
        {
          "authorId": "47878838",
          "name": "M. Sohrabi"
        },
        {
          "authorId": "2071825259",
          "name": "A. Farzaneh"
        },
        {
          "authorId": "9585689",
          "name": "Lingli Wei"
        },
        {
          "authorId": "107948204",
          "name": "A. Dhahli"
        }
      ]
    },
    {
      "paperId": "036b211d521bbcf13f885c2dbb3d3b4f8acbb71d",
      "externalIds": {
        "DBLP": "journals/corr/abs-2511-05253",
        "ArXiv": "2511.05253",
        "DOI": "10.48550/arXiv.2511.05253",
        "CorpusId": 282890090
      },
      "url": "https://www.semanticscholar.org/paper/036b211d521bbcf13f885c2dbb3d3b4f8acbb71d",
      "title": "Automatic segmentation of colorectal liver metastases for ultrasound-based navigated resection",
      "venue": "arXiv.org",
      "year": 2025,
      "referenceCount": 22,
      "citationCount": 0,
      "authors": [
        {
          "authorId": "2155775797",
          "name": "Tiziano Natali"
        },
        {
          "authorId": "2092873313",
          "name": "Karin A. Olthof"
        },
        {
          "authorId": "2299838835",
          "name": "Niels F. M. Kok"
        },
        {
          "authorId": "143835362",
          "name": "K. Kuhlmann"
        },
        {
          "authorId": "2279990651",
          "name": "T. Ruers"
        },
        {
          "authorId": "2313413473",
          "name": "Matteo Fusaglia"
        }
      ]
    },
    {
      "paperId": "9ec29b21d72ddad7bcefd6813977d1d591453615",
      "externalIds": {
        "DOI": "10.62411/jcta.15494",
        "CorpusId": 285354360
      },
      "url": "https://www.semanticscholar.org/paper/9ec29b21d72ddad7bcefd6813977d1d591453615",
      "title": "A Graph-Augmented Isolation Forest Using Node2Vec and GraphSAGE for Mobile User Behavior Anomaly Detection",
      "venue": "Journal of Computing Theories and Applications",
      "year": 2026,
      "referenceCount": 30,
      "citationCount": 1,
      "authors": [
        {
          "authorId": "2320174573",
          "name": "A. Binitie"
        },
        {
          "authorId": "2349513571",
          "name": "Sunny Innocent Onyemenem"
        },
        {
          "authorId": "100816053",
          "name": "Nneamaka Christiana Anujeonye"
        },
        {
          "authorId": "6663691",
          "name": "A. Ojugo"
        },
        {
          "authorId": "2385894889",
          "name": "Francesca Avwuru Egbokhare"
        },
        {
          "authorId": "2333373951",
          "name": "T. Aghaunor"
        }
      ]
    },
    {
      "paperId": "dfaf9bf9a815db54bda6266083abf9bcb42a2b5a",
      "externalIds": {
        "MAG": "2783537238",
        "DOI": "10.1002/2017RS006450",
        "CorpusId": 126113183
      },
      "url": "https://www.semanticscholar.org/paper/dfaf9bf9a815db54bda6266083abf9bcb42a2b5a",
      "title": "Statistically Self‐Consistent and Accurate Errors for SuperDARN Data",
      "venue": "",
      "year": 2018,
      "referenceCount": 29,
      "citationCount": 8,
      "authors": [
        {
          "authorId": "1887507",
          "name": "A. Reimer"
        },
        {
          "authorId": "49332345",
          "name": "G. Hussey"
        },
        {
          "authorId": "4713139",
          "name": "K. McWilliams"
        }
      ]
    },
    {
      "paperId": "db2dd839dc96b9970860d30ec1c991b201eb5f8b",
      "externalIds": {
        "PubMedCentral": "12195059",
        "DOI": "10.3390/medsci13020066",
        "CorpusId": 279113478,
        "PubMed": "40559224"
      },
      "url": "https://www.semanticscholar.org/paper/db2dd839dc96b9970860d30ec1c991b201eb5f8b",
      "title": "Trends and Disparities in Liver Transplantation in the United States: A Nationwide Analysis of Demographic, Clinical, and Socioeconomic Factors (2016–2021)",
      "venue": "Medical Science",
      "year": 2025,
      "referenceCount": 24,
      "citationCount": 0,
      "authors": [
        {
          "authorId": "2133082607",
          "name": "V. Nagesh"
        },
        {
          "authorId": "2159462820",
          "name": "V. Varughese"
        },
        {
          "authorId": "2361683350",
          "name": "Marina Basta"
        },
        {
          "authorId": "2300857609",
          "name": "Emelyn Martinez"
        },
        {
          "authorId": "2327651448",
          "name": "Shruthi Badam"
        },
        {
          "authorId": "2365013686",
          "name": "Lokaesh Subramani Shobana"
        },
        {
          "authorId": "2365370454",
          "name": "Abdifitah Mohamed"
        },
        {
          "authorId": "2246817393",
          "name": "A. J."
        },
        {
          "authorId": "2266723327",
          "name": "Simcha I Weissman"
        },
        {
          "authorId": "32640307",
          "name": "A. Atoot"
        }
      ]
    },
    {
      "paperId": "2402b27ad34eb723ad797681b28ec4d14ed3c2a7",
      "externalIds": {
        "MAG": "3044479633",
        "DOI": "10.1093/forestry/cpaa026",
        "CorpusId": 225473894
      },
      "url": "https://www.semanticscholar.org/paper/2402b27ad34eb723ad797681b28ec4d14ed3c2a7",
      "title": "Genetic variance distribution of SSR markers and economically important quantitative traits in a progeny trial of Prosopis chilensis (Leguminosae): implications for the ‘Algarrobo’ management programme",
      "venue": "",
      "year": 2020,
      "referenceCount": 63,
      "citationCount": 5,
      "authors": [
        {
          "authorId": "2422229165",
          "name": "Daniela Chequer Charan"
        },
        {
          "authorId": "5628925",
          "name": "C. Pometti"
        },
        {
          "authorId": "48874288",
          "name": "M. Cony"
        },
        {
          "authorId": "4313742",
          "name": "J. Vilardi"
        },
        {
          "authorId": "5189935",
          "name": "B. Saidman"
        },
        {
          "authorId": "5035427",
          "name": "C. Bessega"
        }
      ]
    },
    {
      "paperId": "2b7eef0a31c8fd32b98b4819245020e170441a34",
      "externalIds": {
        "DOI": "10.1016/j.spinee.2021.11.008",
        "CorpusId": 244472355,
        "PubMed": "34813956"
      },
      "url": "https://www.semanticscholar.org/paper/2b7eef0a31c8fd32b98b4819245020e170441a34",
      "title": "A Comparison of Treatment Signatures of High and Low Performing Physical Therapists for Patients with Lower Back Pain: Analysis of Spine Care from a Physical Therapy Outcomes Registry.",
      "venue": "The spine journal",
      "year": 2021,
      "referenceCount": 29,
      "citationCount": 8,
      "authors": [
        {
          "authorId": "1383121252",
          "name": "A. Lutz"
        },
        {
          "authorId": "7274668",
          "name": "Brett A. Windsor"
        },
        {
          "authorId": "143732375",
          "name": "E. Shanley"
        },
        {
          "authorId": "12461565",
          "name": "Thomas R. Denninger"
        },
        {
          "authorId": "47725246",
          "name": "Shana E. Harrington"
        },
        {
          "authorId": "5956750",
          "name": "C. Thigpen"
        }
      ]
    },
    {
      "paperId": "43554f39bf504f846ac2b4eecf4ede5237bd1129",
      "externalIds": {
        "MAG": "3201821930",
        "DOI": "10.1016/j.physa.2021.126459",
        "CorpusId": 244220622
      },
      "url": "https://www.semanticscholar.org/paper/43554f39bf504f846ac2b4eecf4ede5237bd1129",
      "title": "Early warning signals of financial crises using persistent homology",
      "venue": "Physica A: Statistical Mechanics and its Applications",
      "year": 2022,
      "referenceCount": 42,
      "citationCount": 31,
      "authors": [
        {
          "authorId": "2072818578",
          "name": "Mohd Sabri Ismail"
        },
        {
          "authorId": "97549598",
          "name": "M. Noorani"
        },
        {
          "authorId": "1575709615",
          "name": "M. Ismail"
        },
        {
          "authorId": "35121943",
          "name": "F. Razak"
        },
        {
          "authorId": "8663175",
          "name": "M. A. Alias"
        }
      ]
    }
  ]
}