{
  "total": 41297,
  "offset": 0,
  "next": 10,
  "data": [
    {
      "paperId": "a1172d0de6164bb7eaadbcdbc10e7b03b773b6ad",
      "externalIds": {
        "DBLP": "conf/icml/HartfordGLR18",
        "MAG": "2950633528",
        "ArXiv": "1803.02879",
        "CorpusId": 3819852
      },
      "url": "https://www.semanticscholar.org/paper/a1172d0de6164bb7eaadbcdbc10e7b03b773b6ad",
      "title": "Deep Models of Interactions Across Sets",
      "venue": "International Conference on Machine Learning",
      "year": 2018,
      "referenceCount": 34,
      "citationCount": 173,
      "authors": [
        {
          "authorId": "32745519",
          "name": "Jason S. Hartford"
        },
        {
          "authorId": "36770861",
          "name": "Devon R. Graham"
        },
        {
          "authorId": "1388404060",
          "name": "Kevin Leyton-Brown"
        },
        {
          "authorId": "2111187",
          "name": "Siamak Ravanbakhsh"
        }
      ]
    },
    {
      "paperId": "d69d8cd91131f05ec12f6820ef4d48a8b4ef7e4d",
      "externalIds": {
        "DOI": "10.21147/j.issn.1000-9604.2025.01.03",
        "CorpusId": 276846879,
        "PubMed": "40078559"
      },
      "url": "https://www.semanticscholar.org/paper/d69d8cd91131f05ec12f6820ef4d48a8b4ef7e4d",
      "title": "Deep learning-based multi-task prediction of response to neoadjuvant chemotherapy using multiscale whole slide images in breast cancer: A multicenter study.",
      "venue": "Chinese journal of cancer research = Chung-kuo yen cheng yen chiu",
      "year": 2025,
      "referenceCount": 0,
      "citationCount": 2,
      "authors": [
        {
          "authorId": "2333778683",
          "name": "Qin Wang"
        },
        {
          "authorId": "2283265857",
          "name": "Feng Zhao"
        },
        {
          "authorId": "2138063083",
          "name": "Haicheng Zhang"
        },
        {
          "authorId": "51207980",
          "name": "Tongpeng Chu"
        },
        {
          "authorId": "2317109459",
          "name": "Qi Wang"
        },
        {
          "authorId": "2350168447",
          "name": "Xipeng Pan"
        },
        {
          "authorId": "2238918000",
          "name": "Yuqian Chen"
        },
        {
          "authorId": "2225144281",
          "name": "Heng Zhou"
        },
        {
          "authorId": "2238750421",
          "name": "Tiantian Zheng"
        },
        {
          "authorId": "2430970115",
          "name": "Ziyin Li"
        },
        {
          "authorId": "48694767",
          "name": "Fan Lin"
        },
        {
          "authorId": "2404311890",
          "name": "Haizhu Xie"
        },
        {
          "authorId": "2238886654",
          "name": "Heng Ma"
        },
        {
          "authorId": "2282313361",
          "name": "Lan Liu"
        },
        {
          "authorId": "2349072976",
          "name": "Lina Zhang"
        },
        {
          "authorId": "2301387811",
          "name": "Qin Li"
        },
        {
          "authorId": "2348951877",
          "name": "Weiwei Wang"
        },
        {
          "authorId": "2106395496",
          "name": "Yi Dai"
        },
        {
          "authorId": "2298140612",
          "name": "R. Tang"
        },
        {
          "authorId": "2298927287",
          "name": "Jigang Wang"
        },
        {
          "authorId": "2256475058",
          "name": "Ping Yang"
        },
        {
          "authorId": "2330014006",
          "name": "Ning Mao"
        }
      ]
    },
    {
      "paperId": "33b163c3a22029ee8bf7ba3ea38bdd8a95a87abd",
      "externalIds": {
        "DBLP": "conf/icaart/CharlesPT25",
        "DOI": "10.5220/0013191900003890",
        "CorpusId": 276711946
      },
      "url": "https://www.semanticscholar.org/paper/33b163c3a22029ee8bf7ba3ea38bdd8a95a87abd",
      "title": "Meta-Ensemble Learning for Multi-Trait Optimization in Maize Breeding: Combining Gradient Boosting, Random Forests, and Deep Learning with SVM Integration",
      "venue": "International Conference on Agents and Artificial Intelligence",
      "year": 2025,
      "referenceCount": 20,
      "citationCount": 0,
      "authors": [
        {
          "authorId": "2289515726",
          "name": "Dupuy Rony Charles"
        },
        {
          "authorId": "2289578101",
          "name": "Pascal Pultrini"
        },
        {
          "authorId": "2289583038",
          "name": "Andrea Tettamanzi"
        }
      ]
    },
    {
      "paperId": "822857482839252e5b086cbcdaf50b8a0d4d9783",
      "externalIds": {
        "DBLP": "journals/jcisd/FuLDJCFS25",
        "DOI": "10.1021/acs.jcim.4c02438",
        "CorpusId": 277068569,
        "PubMed": "40091632"
      },
      "url": "https://www.semanticscholar.org/paper/822857482839252e5b086cbcdaf50b8a0d4d9783",
      "title": "Accurate Prediction of CRISPR/Cas13a Guide Activity Using Feature Selection and Deep Learning",
      "venue": "Journal of Chemical Information and Modeling",
      "year": 2025,
      "referenceCount": 33,
      "citationCount": 0,
      "authors": [
        {
          "authorId": "2351229413",
          "name": "Jiashun Fu"
        },
        {
          "authorId": "2239755397",
          "name": "Xuyang Liu"
        },
        {
          "authorId": "2294624337",
          "name": "Ruijie Deng"
        },
        {
          "authorId": "2296650728",
          "name": "Xiue Jiang"
        },
        {
          "authorId": "2113720340",
          "name": "Wensheng Cai"
        },
        {
          "authorId": "11258042",
          "name": "Haohao Fu"
        },
        {
          "authorId": "2131770289",
          "name": "Xueguang Shao"
        }
      ]
    },
    {
      "paperId": "dbe736d5974d301de69a07d7c56ff35877ee6ef6",
      "externalIds": {
        "DOI": "10.64898/2026.01.20.700530",
        "CorpusId": 285048308
      },
      "url": "https://www.semanticscholar.org/paper/dbe736d5974d301de69a07d7c56ff35877ee6ef6",
      "title": "ARID-sf: A physics-informed Deep Learning scoring function to improve Antibody-Antigen docking model ranking",
      "venue": "bioRxiv",
      "year": 2026,
      "referenceCount": 10,
      "citationCount": 0,
      "authors": [
        {
          "authorId": "2370680491",
          "name": "Ilyas Grandguillaume"
        },
        {
          "authorId": "2344736545",
          "name": "Catherine Etchebest"
        },
        {
          "authorId": "2054119930",
          "name": "Fernando B. R. da Silva"
        }
      ]
    },
    {
      "paperId": "f986b9713c2ed6d4a55aa2ee71898f3185bc444b",
      "externalIds": {
        "MAG": "3016986592",
        "DOI": "10.1101/2020.04.19.049585",
        "CorpusId": 216145419
      },
      "url": "https://www.semanticscholar.org/paper/f986b9713c2ed6d4a55aa2ee71898f3185bc444b",
      "title": "Identifying regulatory and spatial genomic architectural elements using cell type independent machine and deep learning models",
      "venue": "bioRxiv",
      "year": 2020,
      "referenceCount": 113,
      "citationCount": 1,
      "authors": [
        {
          "authorId": "1656872354",
          "name": "Laura D. Martens"
        },
        {
          "authorId": "1656871499",
          "name": "Oisin Faust"
        },
        {
          "authorId": "1621846189",
          "name": "L. Pirvan"
        },
        {
          "authorId": "2208900",
          "name": "D. Bihary"
        },
        {
          "authorId": "2573399",
          "name": "S. Samarajiwa"
        }
      ]
    },
    {
      "paperId": "5aa3cfc2c41c3a2e09a01bbf1f23a17511aa10ab",
      "externalIds": {
        "DOI": "10.1109/ICCIT60459.2023.10441173",
        "CorpusId": 268047098
      },
      "url": "https://www.semanticscholar.org/paper/5aa3cfc2c41c3a2e09a01bbf1f23a17511aa10ab",
      "title": "LieVis: A Visual Interactive Dashboard for Lie Detection Using Machine Learning and Deep Learning Techniques",
      "venue": "2023 26th International Conference on Computer and Information Technology (ICCIT)",
      "year": 2023,
      "referenceCount": 21,
      "citationCount": 1,
      "authors": [
        {
          "authorId": "2279732371",
          "name": "Shanjita Akter Prome"
        },
        {
          "authorId": "2287981083",
          "name": "Md Rafiqul Islam"
        },
        {
          "authorId": "2279735631",
          "name": "David Asirvatham"
        },
        {
          "authorId": "2287981255",
          "name": "Md. Kowsar Hossain Sakib"
        },
        {
          "authorId": "1393185571",
          "name": "Neethiahnanthan Ari Ragavan"
        }
      ]
    },
    {
      "paperId": "a8d5a90d6fbde60a58947281f1e44ebdd035763f",
      "externalIds": {
        "MAG": "2752879928",
        "DBLP": "conf/miccai/YaoZZH17",
        "DOI": "10.1007/978-3-319-66185-8_46",
        "CorpusId": 36033598
      },
      "url": "https://www.semanticscholar.org/paper/a8d5a90d6fbde60a58947281f1e44ebdd035763f",
      "title": "Deep Correlational Learning for Survival Prediction from Multi-modality Data",
      "venue": "International Conference on Medical Image Computing and Computer-Assisted Intervention",
      "year": 2017,
      "referenceCount": 20,
      "citationCount": 100,
      "authors": [
        {
          "authorId": "8248199",
          "name": "Jiawen Yao"
        },
        {
          "authorId": "8361760",
          "name": "Xinliang Zhu"
        },
        {
          "authorId": "37921272",
          "name": "Feiyun Zhu"
        },
        {
          "authorId": "1768190",
          "name": "Junzhou Huang"
        }
      ]
    },
    {
      "paperId": "95935f764b7e4b7ca7633af7aa997e5ebc5127ea",
      "externalIds": {
        "DBLP": "journals/ker/BaiGDXJYL25",
        "DOI": "10.1017/S0269888925000025",
        "CorpusId": 278744148
      },
      "url": "https://www.semanticscholar.org/paper/95935f764b7e4b7ca7633af7aa997e5ebc5127ea",
      "title": "A comprehensive survey on advertising click-through rate prediction algorithm",
      "venue": "Knowledge engineering review (Print)",
      "year": 2025,
      "referenceCount": 130,
      "citationCount": 8,
      "authors": [
        {
          "authorId": "2151699637",
          "name": "Jing Bai"
        },
        {
          "authorId": "2355678610",
          "name": "Xinyu Geng"
        },
        {
          "authorId": "2340475785",
          "name": "Jiaqi Deng"
        },
        {
          "authorId": "2072878703",
          "name": "Zhen Xia"
        },
        {
          "authorId": "2360836478",
          "name": "Hongxia Jiang"
        },
        {
          "authorId": "2312987192",
          "name": "Guoqiang Yan"
        },
        {
          "authorId": "2362756140",
          "name": "Jing Liang"
        }
      ]
    },
    {
      "paperId": "744e423be5c4c4c71df734b7f95180e08d72d0fa",
      "externalIds": {
        "ArXiv": "2508.04729",
        "CorpusId": 280546351
      },
      "url": "https://www.semanticscholar.org/paper/744e423be5c4c4c71df734b7f95180e08d72d0fa",
      "title": "Super-Resolution of Sentinel-2 Images Using a Geometry-Guided Back-Projection Network with Self-Attention",
      "venue": "",
      "year": 2025,
      "referenceCount": 71,
      "citationCount": 0,
      "authors": [
        {
          "authorId": "2319605682",
          "name": "Ivan Pereira-S'anchez"
        },
        {
          "authorId": "2289882421",
          "name": "Daniel Torres"
        },
        {
          "authorId": "2358260687",
          "name": "Francesc Alcover"
        },
        {
          "authorId": "2348445024",
          "name": "Bartomeu Garau"
        },
        {
          "authorId": "2289926527",
          "name": "Julia Navarro"
        },
        {
          "authorId": "2289884726",
          "name": "Catalina Sbert"
        },
        {
          "authorId": "2289881178",
          "name": "Joan Duran"
        }
      ]
    }
  ]
}