{
  "total": 26,
  "offset": 0,
  "next": 10,
  "data": [
    {
      "paperId": "87e623770e58a1e0ddba0367e81aaab51697dea7",
      "externalIds": {
        "MAG": "2460272027",
        "DBLP": "conf/icml/HashimotoGJ16",
        "CorpusId": 36896957
      },
      "url": "https://www.semanticscholar.org/paper/87e623770e58a1e0ddba0367e81aaab51697dea7",
      "title": "Learning Population-Level Diffusions with Generative RNNs",
      "venue": "International Conference on Machine Learning",
      "year": 2016,
      "referenceCount": 0,
      "citationCount": 71,
      "authors": [
        {
          "authorId": "3056528",
          "name": "Tatsunori B. Hashimoto"
        },
        {
          "authorId": "145253803",
          "name": "D. Gifford"
        },
        {
          "authorId": "35132120",
          "name": "T. Jaakkola"
        }
      ]
    },
    {
      "paperId": "a282365244ae6b44f56f38e28715df765965fe23",
      "externalIds": {
        "MAG": "2562202310",
        "CorpusId": 10764761
      },
      "url": "https://www.semanticscholar.org/paper/a282365244ae6b44f56f38e28715df765965fe23",
      "title": "Learning population-level diffusions with generative recurrent networks",
      "venue": "International Conference on Machine Learning",
      "year": 2016,
      "referenceCount": 36,
      "citationCount": 16,
      "authors": [
        {
          "authorId": "3056528",
          "name": "Tatsunori B. Hashimoto"
        },
        {
          "authorId": "145253803",
          "name": "D. Gifford"
        },
        {
          "authorId": "35132120",
          "name": "T. Jaakkola"
        }
      ]
    },
    {
      "paperId": "e72291c07440f626749a65e0e71db924431adb15",
      "externalIds": {
        "DBLP": "journals/corr/abs-2506-12303",
        "ArXiv": "2506.12303",
        "DOI": "10.48550/arXiv.2506.12303",
        "CorpusId": 279403240
      },
      "url": "https://www.semanticscholar.org/paper/e72291c07440f626749a65e0e71db924431adb15",
      "title": "SPIRE: Conditional Personalization for Federated Diffusion Generative Models",
      "venue": "arXiv.org",
      "year": 2025,
      "referenceCount": 33,
      "citationCount": 0,
      "authors": [
        {
          "authorId": "2051416279",
          "name": "Kaan Ozkara"
        },
        {
          "authorId": "2284824506",
          "name": "Ruida Zhou"
        },
        {
          "authorId": "143813023",
          "name": "S. Diggavi"
        }
      ]
    },
    {
      "paperId": "dc80df0c56e3a656b6031eabfcf2d3d3d5bf1572",
      "externalIds": {
        "DBLP": "conf/ipmi/NejatbakhshDVYPV23",
        "DOI": "10.1007/978-3-031-34048-2_26",
        "CorpusId": 259205459,
        "PubMed": "37476079"
      },
      "url": "https://www.semanticscholar.org/paper/dc80df0c56e3a656b6031eabfcf2d3d3d5bf1572",
      "title": "Learning Probabilistic Piecewise Rigid Atlases of Model Organisms via Generative Deep Networks",
      "venue": "Information Processing in Medical Imaging",
      "year": 2023,
      "referenceCount": 0,
      "citationCount": 0,
      "authors": [
        {
          "authorId": "133637710",
          "name": "Amin Nejatbakhsh"
        },
        {
          "authorId": "90235377",
          "name": "Neel Dey"
        },
        {
          "authorId": "40572235",
          "name": "Vivek Venkatachalam"
        },
        {
          "authorId": "91002032",
          "name": "Ev Yemini"
        },
        {
          "authorId": "1763504",
          "name": "L. Paninski"
        },
        {
          "authorId": "3055788",
          "name": "E. Varol"
        }
      ]
    },
    {
      "paperId": "01bd9276567bb13748e1f186a48e2d0685513832",
      "externalIds": {
        "DOI": "10.3389/fenvs.2024.1291327",
        "CorpusId": 267725369
      },
      "url": "https://www.semanticscholar.org/paper/01bd9276567bb13748e1f186a48e2d0685513832",
      "title": "Predicting groundwater level using traditional and deep machine learning algorithms",
      "venue": "Frontiers in Environmental Science",
      "year": 2024,
      "referenceCount": 92,
      "citationCount": 68,
      "authors": [
        {
          "authorId": "2061128850",
          "name": "Fan Feng"
        },
        {
          "authorId": null,
          "name": "Hamzeh Ghorbani"
        },
        {
          "authorId": "71333624",
          "name": "Ahmed E. Radwan"
        }
      ]
    },
    {
      "paperId": "eb1bf54a8e594f62b2f1d33927494ce8a0b187ae",
      "externalIds": {
        "MAG": "2752731013",
        "DOI": "10.5920/JCMS.2017.09",
        "CorpusId": 64521650
      },
      "url": "https://www.semanticscholar.org/paper/eb1bf54a8e594f62b2f1d33927494ce8a0b187ae",
      "title": "Taking the Models back to Music Practice: Evaluating Generative Transcription Models built using Deep Learning",
      "venue": "",
      "year": 2017,
      "referenceCount": 23,
      "citationCount": 46,
      "authors": [
        {
          "authorId": "2479962",
          "name": "Bob L. Sturm"
        },
        {
          "authorId": "1400943928",
          "name": "Oded Ben-Tal"
        }
      ]
    },
    {
      "paperId": "e57f844d31cadca71035ad4034f37f5bf4c71ac5",
      "externalIds": {
        "DOI": "10.3390/technologies13070261",
        "CorpusId": 279519450
      },
      "url": "https://www.semanticscholar.org/paper/e57f844d31cadca71035ad4034f37f5bf4c71ac5",
      "title": "Destructive Creation of New Invasive Technologies: Generative Artificial Intelligence Behaviour",
      "venue": "Technologies",
      "year": 2025,
      "referenceCount": 104,
      "citationCount": 4,
      "authors": [
        {
          "authorId": "2201244456",
          "name": "Mario Coccia"
        }
      ]
    },
    {
      "paperId": "9108d1ee2d6f347286c0c6a1f7389f190296bc12",
      "externalIds": {
        "ArXiv": "2511.17007",
        "DBLP": "journals/corr/abs-2511-17007",
        "DOI": "10.48550/arXiv.2511.17007",
        "CorpusId": 283225881
      },
      "url": "https://www.semanticscholar.org/paper/9108d1ee2d6f347286c0c6a1f7389f190296bc12",
      "title": "Generative MIMO Beam Map Construction for Location Recovery and Beam Tracking",
      "venue": "arXiv.org",
      "year": 2025,
      "referenceCount": 32,
      "citationCount": 0,
      "authors": [
        {
          "authorId": "2288045017",
          "name": "Wangqian Chen"
        },
        {
          "authorId": "2387808949",
          "name": "Junting Chen"
        },
        {
          "authorId": "2379613444",
          "name": "Shuguang Cui"
        }
      ]
    },
    {
      "paperId": "64fd981cc7b0621147bff710ff9c3bfedafa1e4c",
      "externalIds": {
        "DBLP": "conf/wsc/KangKIJK23",
        "DOI": "10.1109/WSC60868.2023.10408335",
        "CorpusId": 267338521
      },
      "url": "https://www.semanticscholar.org/paper/64fd981cc7b0621147bff710ff9c3bfedafa1e4c",
      "title": "Generating Population Synthesis Using a Diffusion Model",
      "venue": "Online World Conference on Soft Computing in Industrial Applications",
      "year": 2023,
      "referenceCount": 23,
      "citationCount": 6,
      "authors": [
        {
          "authorId": "2281999830",
          "name": "Jaewoong Kang"
        },
        {
          "authorId": "1768446",
          "name": "Young Kim"
        },
        {
          "authorId": "2215126923",
          "name": "Muhammad Mu’az Imran"
        },
        {
          "authorId": "145329012",
          "name": "Gisun Jung"
        },
        {
          "authorId": "2269047184",
          "name": "Y. Kim"
        }
      ]
    },
    {
      "paperId": "f3fe5738c667255b4c6313c7d6597066c4426d92",
      "externalIds": {
        "DOI": "10.63682/jns.v14i20s.5114",
        "CorpusId": 278356510
      },
      "url": "https://www.semanticscholar.org/paper/f3fe5738c667255b4c6313c7d6597066c4426d92",
      "title": "Multimodal Detection and Prognostic Modeling of Atypical Teratoid Rhabdoid Tumors Using Machine Learning and Time Series Analysis",
      "venue": "Journal of Neonatal Surgery",
      "year": 2025,
      "referenceCount": 58,
      "citationCount": 0,
      "authors": [
        {
          "authorId": "2235574194",
          "name": "Nadenlla RajamohanReddy"
        },
        {
          "authorId": "2359360672",
          "name": "G. M. G Muneeswari"
        }
      ]
    }
  ]
}