{
  "total": 540,
  "offset": 0,
  "next": 10,
  "data": [
    {
      "paperId": "449532187c94af3dd3aa55e16d2c50f7854d2199",
      "externalIds": {
        "MAG": "1771410628",
        "ArXiv": "1502.05477",
        "DBLP": "conf/icml/SchulmanLAJM15",
        "CorpusId": 16046818
      },
      "url": "https://www.semanticscholar.org/paper/449532187c94af3dd3aa55e16d2c50f7854d2199",
      "title": "Trust Region Policy Optimization",
      "venue": "International Conference on Machine Learning",
      "year": 2015,
      "referenceCount": 43,
      "citationCount": 7793,
      "authors": [
        {
          "authorId": "47971768",
          "name": "John Schulman"
        },
        {
          "authorId": "1736651",
          "name": "S. Levine"
        },
        {
          "authorId": "1689992",
          "name": "P. Abbeel"
        },
        {
          "authorId": "1694621",
          "name": "Michael I. Jordan"
        },
        {
          "authorId": "29912342",
          "name": "Philipp Moritz"
        }
      ]
    },
    {
      "paperId": "d316c82c12cf4c45f9e85211ef3d1fa62497bff8",
      "externalIds": {
        "MAG": "1191599655",
        "DBLP": "journals/corr/SchulmanMLJA15",
        "ArXiv": "1506.02438",
        "CorpusId": 3075448
      },
      "url": "https://www.semanticscholar.org/paper/d316c82c12cf4c45f9e85211ef3d1fa62497bff8",
      "title": "High-Dimensional Continuous Control Using Generalized Advantage Estimation",
      "venue": "International Conference on Learning Representations",
      "year": 2015,
      "referenceCount": 31,
      "citationCount": 4310,
      "authors": [
        {
          "authorId": "47971768",
          "name": "John Schulman"
        },
        {
          "authorId": "29912342",
          "name": "Philipp Moritz"
        },
        {
          "authorId": "1736651",
          "name": "S. Levine"
        },
        {
          "authorId": "1694621",
          "name": "Michael I. Jordan"
        },
        {
          "authorId": "1689992",
          "name": "P. Abbeel"
        }
      ]
    },
    {
      "paperId": "002156a54312b8a69009a034d04a28e16f2d6b84",
      "externalIds": {
        "ArXiv": "1504.04231",
        "MAG": "2963465983",
        "DBLP": "journals/mp/ChenMS18",
        "DOI": "10.1007/s10107-017-1141-8",
        "CorpusId": 13708337
      },
      "url": "https://www.semanticscholar.org/paper/002156a54312b8a69009a034d04a28e16f2d6b84",
      "title": "Stochastic optimization using a trust-region method and random models",
      "venue": "Mathematical programming",
      "year": 2015,
      "referenceCount": 38,
      "citationCount": 198,
      "authors": [
        {
          "authorId": "2993340",
          "name": "Ruobing Chen"
        },
        {
          "authorId": "2377562760",
          "name": "Matt Menickelly"
        },
        {
          "authorId": "2005127",
          "name": "K. Scheinberg"
        }
      ]
    },
    {
      "paperId": "03b28f9917ce71f9b3ab060df540e385b17903e6",
      "externalIds": {
        "MAG": "2225671745",
        "DBLP": "journals/mp/CarrizoLM16",
        "DOI": "10.1007/s10107-015-0962-6",
        "CorpusId": 6690776
      },
      "url": "https://www.semanticscholar.org/paper/03b28f9917ce71f9b3ab060df540e385b17903e6",
      "title": "Trust region globalization strategy for the nonconvex unconstrained multiobjective optimization problem",
      "venue": "Mathematical programming",
      "year": 2015,
      "referenceCount": 22,
      "citationCount": 72,
      "authors": [
        {
          "authorId": "143966754",
          "name": "G. Carrizo"
        },
        {
          "authorId": "1986750",
          "name": "P. Lotito"
        },
        {
          "authorId": "145463663",
          "name": "M. C. Maciel"
        }
      ]
    },
    {
      "paperId": "32e5899447c8d73d87a6ccdc2a863fc9bf28c567",
      "externalIds": {
        "MAG": "1964550805",
        "DOI": "10.1115/1.4029219",
        "CorpusId": 60973759
      },
      "url": "https://www.semanticscholar.org/paper/32e5899447c8d73d87a6ccdc2a863fc9bf28c567",
      "title": "Trust Region Based Mode Pursuing Sampling Method for Global Optimization of High Dimensional Design Problems",
      "venue": "",
      "year": 2015,
      "referenceCount": 31,
      "citationCount": 60,
      "authors": [
        {
          "authorId": "1453554028",
          "name": "George H. Cheng"
        },
        {
          "authorId": "2413122427",
          "name": "Adel Younis"
        },
        {
          "authorId": "30865571",
          "name": "K. H. Hajikolaei"
        },
        {
          "authorId": "50248800",
          "name": "G. Wang"
        }
      ]
    },
    {
      "paperId": "2783ec397370a2b42a083f19687ed9f595a65a12",
      "externalIds": {
        "CorpusId": 14103039
      },
      "url": "https://www.semanticscholar.org/paper/2783ec397370a2b42a083f19687ed9f595a65a12",
      "title": "ASTRO-DF: A CLASS OF ADAPTIVE SAMPLING TRUST-REGION ALGORITHMS FOR DERIVATIVE-FREE SIMULATION OPTIMIZATION",
      "venue": "",
      "year": 2015,
      "referenceCount": 57,
      "citationCount": 24,
      "authors": [
        {
          "authorId": "3160323",
          "name": "S. Shashaani"
        },
        {
          "authorId": "2083590762",
          "name": "F. Hashemi"
        },
        {
          "authorId": "12298838",
          "name": "R. Pasupathy"
        }
      ]
    },
    {
      "paperId": "1c940d39fa8fdb31be37b829d8bd03178fc8f7d5",
      "externalIds": {
        "DBLP": "journals/oms/ConejoKP15",
        "MAG": "2105289772",
        "DOI": "10.1080/10556788.2015.1026968",
        "CorpusId": 43505967
      },
      "url": "https://www.semanticscholar.org/paper/1c940d39fa8fdb31be37b829d8bd03178fc8f7d5",
      "title": "A trust-region derivative-free algorithm for constrained optimization",
      "venue": "Optim. Methods Softw.",
      "year": 2015,
      "referenceCount": 33,
      "citationCount": 24,
      "authors": [
        {
          "authorId": "34792968",
          "name": "P. D. Conejo"
        },
        {
          "authorId": "1780121",
          "name": "E. W. Karas"
        },
        {
          "authorId": "2074873903",
          "name": "L. G. Pedroso"
        }
      ]
    },
    {
      "paperId": "a71c4a23e57d7570904b1748f81a00965bccfadc",
      "externalIds": {
        "MAG": "2015060724",
        "DBLP": "journals/oms/WangY15",
        "DOI": "10.1080/10556788.2014.940947",
        "CorpusId": 29335858
      },
      "url": "https://www.semanticscholar.org/paper/a71c4a23e57d7570904b1748f81a00965bccfadc",
      "title": "An augmented Lagrangian trust region method for equality constrained optimization",
      "venue": "Optim. Methods Softw.",
      "year": 2015,
      "referenceCount": 35,
      "citationCount": 24,
      "authors": [
        {
          "authorId": "144129720",
          "name": "Xiao Wang"
        },
        {
          "authorId": "1790701",
          "name": "Ya-Xiang Yuan"
        }
      ]
    },
    {
      "paperId": "5da1cff6ddd50af9cc980090acad5899058134f3",
      "externalIds": {
        "DBLP": "journals/coap/PeyghamiT15",
        "MAG": "2024233567",
        "DOI": "10.1007/s10589-015-9726-8",
        "CorpusId": 33222891
      },
      "url": "https://www.semanticscholar.org/paper/5da1cff6ddd50af9cc980090acad5899058134f3",
      "title": "A relaxed nonmonotone adaptive trust region method for solving unconstrained optimization problems",
      "venue": "Computational optimization and applications",
      "year": 2015,
      "referenceCount": 35,
      "citationCount": 23,
      "authors": [
        {
          "authorId": "145870247",
          "name": "M. Peyghami"
        },
        {
          "authorId": "3281605",
          "name": "Davoud Ataee Tarzanagh"
        }
      ]
    },
    {
      "paperId": "a7983502fdf5f3b5251679c5fa5f04fda8bd63cc",
      "externalIds": {
        "MAG": "2292038200",
        "DOI": "10.1109/NEMO.2015.7415027",
        "CorpusId": 22326747
      },
      "url": "https://www.semanticscholar.org/paper/a7983502fdf5f3b5251679c5fa5f04fda8bd63cc",
      "title": "Statistical design centering of RF cavity linear accelerator via non-derivative trust region optimization",
      "venue": "IEEE MTT-S International Conference on Numerical Electromagnetic and Multiphysics Modeling and Optimization",
      "year": 2015,
      "referenceCount": 14,
      "citationCount": 18,
      "authors": [
        {
          "authorId": "3059780",
          "name": "A. K. Hassan"
        },
        {
          "authorId": "1398287172",
          "name": "H. L. Abdel-Malek"
        },
        {
          "authorId": "49586012",
          "name": "A. Mohamed"
        },
        {
          "authorId": "3458447",
          "name": "T. Abuelfadl"
        },
        {
          "authorId": "4756057",
          "name": "Ahmed E. Elqenawy"
        }
      ]
    }
  ]
}