{
  "total": 26505,
  "offset": 0,
  "next": 10,
  "data": [
    {
      "paperId": "389f57755023ec1cdfe15f057fcdc09a2ff551ff",
      "externalIds": {
        "DBLP": "conf/icml/RajanHSFJ15",
        "MAG": "636981986",
        "DOI": "10.7892/BORIS.69370",
        "CorpusId": 14667351
      },
      "url": "https://www.semanticscholar.org/paper/389f57755023ec1cdfe15f057fcdc09a2ff551ff",
      "title": "Bayesian Multiple Target Localization",
      "venue": "International Conference on Machine Learning",
      "year": 2015,
      "referenceCount": 26,
      "citationCount": 18,
      "authors": [
        {
          "authorId": "39130505",
          "name": "P. Rajan"
        },
        {
          "authorId": "48637191",
          "name": "Weidong Han"
        },
        {
          "authorId": "1824404",
          "name": "R. Sznitman"
        },
        {
          "authorId": "1922747",
          "name": "P. Frazier"
        },
        {
          "authorId": "2521020",
          "name": "B. Jedynak"
        }
      ]
    },
    {
      "paperId": "123af0f0334c63ba2842ed02c7d83fe7245fb859",
      "externalIds": {
        "CorpusId": 11342579
      },
      "url": "https://www.semanticscholar.org/paper/123af0f0334c63ba2842ed02c7d83fe7245fb859",
      "title": "Supplementary Materials for Bayesian Multiple Target Localization",
      "venue": "",
      "year": 2015,
      "referenceCount": 0,
      "citationCount": 0,
      "authors": []
    },
    {
      "paperId": "1ed2970a75ad17ec7d536dace22cb3bddda106cb",
      "externalIds": {
        "MAG": "2941118183",
        "DBLP": "journals/access/QianGLX19",
        "DOI": "10.1109/ACCESS.2019.2913369",
        "CorpusId": 148573163
      },
      "url": "https://www.semanticscholar.org/paper/1ed2970a75ad17ec7d536dace22cb3bddda106cb",
      "title": "Block Variational Bayesian Algorithm for Multiple Target Localization With Unknown and Time-Varying Transmit Powers in WSNs",
      "venue": "IEEE Access",
      "year": 2019,
      "referenceCount": 31,
      "citationCount": 5,
      "authors": [
        {
          "authorId": "2066135475",
          "name": "Peng Qian"
        },
        {
          "authorId": "37104595",
          "name": "Yan Guo"
        },
        {
          "authorId": "1492121686",
          "name": "Ning Li"
        },
        {
          "authorId": null,
          "name": "Zhengqin Xu"
        }
      ]
    },
    {
      "paperId": "b0870d4060e4fdb663bb56bd04639bf2baeec374",
      "externalIds": {
        "MAG": "2944398265",
        "DBLP": "journals/access/QianGLY19",
        "DOI": "10.1109/access.2019.2915657",
        "CorpusId": 159043233
      },
      "url": "https://www.semanticscholar.org/paper/b0870d4060e4fdb663bb56bd04639bf2baeec374",
      "title": "Variational Bayesian Inference-Based Multiple Target Localization in WSNs With Quantized Received Signal Strength",
      "venue": "IEEE Access",
      "year": 2019,
      "referenceCount": 41,
      "citationCount": 8,
      "authors": [
        {
          "authorId": "2066135475",
          "name": "Peng Qian"
        },
        {
          "authorId": "37104595",
          "name": "Yan Guo"
        },
        {
          "authorId": "1492121686",
          "name": "Ning Li"
        },
        {
          "authorId": "49080430",
          "name": "Sixing Yang"
        }
      ]
    },
    {
      "paperId": "ac43e046103e84df2c2e006e8de4250850adc22a",
      "externalIds": {
        "DBLP": "journals/jstsp/LiX25",
        "DOI": "10.1109/JSTSP.2025.3578213",
        "CorpusId": 279336999
      },
      "url": "https://www.semanticscholar.org/paper/ac43e046103e84df2c2e006e8de4250850adc22a",
      "title": "Extended Target Localization in Distributed MIMO Radars With Low-Resolution ADCs: A Diffusion-Aware Bayesian Approach",
      "venue": "IEEE Journal on Selected Topics in Signal Processing",
      "year": 2025,
      "referenceCount": 66,
      "citationCount": 1,
      "authors": [
        {
          "authorId": "2345452111",
          "name": "Jie Li"
        },
        {
          "authorId": "2345013048",
          "name": "Feng Xi"
        }
      ]
    },
    {
      "paperId": "ad61015d3aa17d62aa73d9b49f75c91f400f302d",
      "externalIds": {
        "DOI": "10.1109/ICWOC65853.2025.11151118",
        "CorpusId": 281263049
      },
      "url": "https://www.semanticscholar.org/paper/ad61015d3aa17d62aa73d9b49f75c91f400f302d",
      "title": "Two-Stage Sparse Bayesian Learning Algorithm for Multi-Target Localization in MIMO-FMCW Radar",
      "venue": "2025 13th International Conference on Intelligent Computing and Wireless Optical Communications (ICWOC)",
      "year": 2025,
      "referenceCount": 0,
      "citationCount": 1,
      "authors": [
        {
          "authorId": "2113959739",
          "name": "Yingquan Zou"
        },
        {
          "authorId": "2381802997",
          "name": "Haihan Ding"
        },
        {
          "authorId": "2373568579",
          "name": "Jingfu Li"
        }
      ]
    },
    {
      "paperId": "43b04b3d1499a953603ab116ea97ea95237b0a1c",
      "externalIds": {
        "MAG": "3011453130",
        "DOI": "10.1109/INMIC48123.2019.9022752",
        "CorpusId": 212649718
      },
      "url": "https://www.semanticscholar.org/paper/43b04b3d1499a953603ab116ea97ea95237b0a1c",
      "title": "A Received Signal Strength Based Localization Approach for Multiple Target Nodes via Bayesian Compressive Sensing",
      "venue": "International Multi-Topic Conference",
      "year": 2019,
      "referenceCount": 20,
      "citationCount": 8,
      "authors": [
        {
          "authorId": "2115773736",
          "name": "Muhammad Sajjad Khan"
        },
        {
          "authorId": "153187935",
          "name": "Junsu Kim"
        },
        {
          "authorId": "2115591454",
          "name": "E. Lee"
        },
        {
          "authorId": "2109739744",
          "name": "S. Kim"
        }
      ]
    },
    {
      "paperId": "8db92107aa1af18541d9ff4f440b1366d60f1e70",
      "externalIds": {
        "MAG": "2291495589",
        "DBLP": "conf/cdc/BaiDM15",
        "DOI": "10.1109/CDC.2015.7402571",
        "CorpusId": 736844
      },
      "url": "https://www.semanticscholar.org/paper/8db92107aa1af18541d9ff4f440b1366d60f1e70",
      "title": "A bayesian approach to multiple target localization",
      "venue": "IEEE Conference on Decision and Control",
      "year": 2015,
      "referenceCount": 19,
      "citationCount": 1,
      "authors": [
        {
          "authorId": "88827438",
          "name": "E. Bai"
        },
        {
          "authorId": "1737530",
          "name": "S. Dasgupta"
        },
        {
          "authorId": "5801919",
          "name": "R. Mudumbai"
        }
      ]
    },
    {
      "paperId": "ab260df5966c127197ee1acb19ca5709aa3f3093",
      "externalIds": {
        "MAG": "2607236313",
        "DBLP": "journals/tcom/SunGLF17",
        "DOI": "10.1109/TCOMM.2017.2695198",
        "CorpusId": 3729483
      },
      "url": "https://www.semanticscholar.org/paper/ab260df5966c127197ee1acb19ca5709aa3f3093",
      "title": "Multiple Target Counting and Localization Using Variational Bayesian EM Algorithm in Wireless Sensor Networks",
      "venue": "IEEE Transactions on Communications",
      "year": 2017,
      "referenceCount": 50,
      "citationCount": 53,
      "authors": [
        {
          "authorId": "3331708",
          "name": "Baoming Sun"
        },
        {
          "authorId": "37104595",
          "name": "Yan Guo"
        },
        {
          "authorId": "1492121686",
          "name": "Ning Li"
        },
        {
          "authorId": "2067988388",
          "name": "Dagang Fang"
        }
      ]
    },
    {
      "paperId": "d442f7f6e5be84b39e9e1c7a1fa407d7e3fd695c",
      "externalIds": {
        "MAG": "2920500850",
        "DBLP": "conf/acssc/Vila-VallsCBM18",
        "DOI": "10.1109/ACSSC.2018.8645554",
        "CorpusId": 67864960
      },
      "url": "https://www.semanticscholar.org/paper/d442f7f6e5be84b39e9e1c7a1fa407d7e3fd695c",
      "title": "Distributed Multiple Gaussian Filtering for Multiple Target Localization in Wireless Sensor Networks",
      "venue": "Asilomar Conference on Signals, Systems and Computers",
      "year": 2018,
      "referenceCount": 13,
      "citationCount": 2,
      "authors": [
        {
          "authorId": "1403108058",
          "name": "J. Vilà‐Valls"
        },
        {
          "authorId": "1791106",
          "name": "P. Closas"
        },
        {
          "authorId": "1754456",
          "name": "M. Bugallo"
        },
        {
          "authorId": "143686416",
          "name": "J. Míguez"
        }
      ]
    }
  ]
}