{
  "total": 254,
  "offset": 0,
  "next": 10,
  "data": [
    {
      "paperId": "5a1ab01694e42f0d23e0652f782392bf461761ea",
      "externalIds": {
        "ArXiv": "1706.04632",
        "DBLP": "conf/icml/MaFF17",
        "MAG": "2625645905",
        "CorpusId": 5359135
      },
      "url": "https://www.semanticscholar.org/paper/5a1ab01694e42f0d23e0652f782392bf461761ea",
      "title": "Stochastic Gradient MCMC Methods for Hidden Markov Models",
      "venue": "International Conference on Machine Learning",
      "year": 2017,
      "referenceCount": 30,
      "citationCount": 34,
      "authors": [
        {
          "authorId": "102791014",
          "name": "Yian Ma"
        },
        {
          "authorId": "2146275249",
          "name": "Yi-An Ma"
        },
        {
          "authorId": "40135449",
          "name": "N. Foti"
        },
        {
          "authorId": "2394622",
          "name": "E. Fox"
        }
      ]
    },
    {
      "paperId": "4f42926060fdf2a48b82223f80857421b216a71d",
      "externalIds": {
        "CorpusId": 41221428
      },
      "url": "https://www.semanticscholar.org/paper/4f42926060fdf2a48b82223f80857421b216a71d",
      "title": "Supplemental Materials for : Stochastic Gradient MCMC Methods for Hidden Markov Models",
      "venue": "",
      "year": 2017,
      "referenceCount": 0,
      "citationCount": 0,
      "authors": [
        {
          "authorId": "2146275249",
          "name": "Yi-An Ma"
        },
        {
          "authorId": "40135449",
          "name": "N. Foti"
        },
        {
          "authorId": "2394622",
          "name": "E. Fox"
        }
      ]
    },
    {
      "paperId": "1ddcfa401b41cb646a5e78dec6204eb46da9d91a",
      "externalIds": {
        "MAG": "2724488460",
        "DBLP": "journals/tnn/DuZZ18",
        "DOI": "10.1109/TNNLS.2017.2688499",
        "CorpusId": 33937340,
        "PubMed": "28678716"
      },
      "url": "https://www.semanticscholar.org/paper/1ddcfa401b41cb646a5e78dec6204eb46da9d91a",
      "title": "Learning Deep Generative Models With Doubly Stochastic Gradient MCMC",
      "venue": "IEEE Transactions on Neural Networks and Learning Systems",
      "year": 2018,
      "referenceCount": 62,
      "citationCount": 18,
      "authors": [
        {
          "authorId": "144369497",
          "name": "Chao Du"
        },
        {
          "authorId": "145254043",
          "name": "Jun Zhu"
        },
        {
          "authorId": "2154715180",
          "name": "Bo Zhang"
        }
      ]
    },
    {
      "paperId": "26606fae70c808d82190801c710d16654da46f33",
      "externalIds": {
        "MAG": "2919526556",
        "DBLP": "journals/corr/abs-1901-10568",
        "ArXiv": "1901.10568",
        "DOI": "10.1214/23-ba1395",
        "CorpusId": 59413901
      },
      "url": "https://www.semanticscholar.org/paper/26606fae70c808d82190801c710d16654da46f33",
      "title": "Stochastic Gradient MCMC for Nonlinear State Space Models",
      "venue": "Bayesian Analysis",
      "year": 2019,
      "referenceCount": 53,
      "citationCount": 8,
      "authors": [
        {
          "authorId": "2127534",
          "name": "Christopher Aicher"
        },
        {
          "authorId": "67183749",
          "name": "Srshti Putcha"
        },
        {
          "authorId": "2064196771",
          "name": "C. Nemeth"
        },
        {
          "authorId": "3246901",
          "name": "P. Fearnhead"
        },
        {
          "authorId": "2394622",
          "name": "E. Fox"
        }
      ]
    },
    {
      "paperId": "9b498924da18438e8b1a794e8af0a42ce021f6b1",
      "externalIds": {
        "DOI": "10.1214/22-aoas1685",
        "CorpusId": 252167835
      },
      "url": "https://www.semanticscholar.org/paper/9b498924da18438e8b1a794e8af0a42ce021f6b1",
      "title": "Variational Bayesian analysis of nonhomogeneous hidden Markov models with long and ultralong sequences",
      "venue": "Annals of Applied Statistics",
      "year": 2023,
      "referenceCount": 52,
      "citationCount": 1,
      "authors": [
        {
          "authorId": "2275751544",
          "name": "Xinyuan Chen"
        },
        {
          "authorId": "2285390637",
          "name": "Yiwei Li"
        },
        {
          "authorId": "2317721061",
          "name": "Xiangnan Feng"
        },
        {
          "authorId": "2116122910",
          "name": "J. T. Chang"
        }
      ]
    },
    {
      "paperId": "163c48055cc2d26a1a1251c257ab55070794c07b",
      "externalIds": {
        "MAG": "2787729803",
        "DOI": "10.1080/01621459.2017.1388244",
        "CorpusId": 126380197
      },
      "url": "https://www.semanticscholar.org/paper/163c48055cc2d26a1a1251c257ab55070794c07b",
      "title": "Comment: A Discussion of “Nonparametric Bayes Modeling of Populations of Networks”",
      "venue": "",
      "year": 2017,
      "referenceCount": 29,
      "citationCount": 0,
      "authors": [
        {
          "authorId": "2342841",
          "name": "Scott W. Linderman"
        },
        {
          "authorId": "1796335",
          "name": "D. Blei"
        }
      ]
    },
    {
      "paperId": "e0022414647659f75eb2db2ab523dc76dadd5c32",
      "externalIds": {
        "MAG": "2963763076",
        "DBLP": "journals/corr/abs-1810-13431",
        "CorpusId": 53109307
      },
      "url": "https://www.semanticscholar.org/paper/e0022414647659f75eb2db2ab523dc76dadd5c32",
      "title": "Clustering-Enhanced Stochastic Gradient MCMC for Hidden Markov Models with Rare States",
      "venue": "arXiv.org",
      "year": 2018,
      "referenceCount": 30,
      "citationCount": 2,
      "authors": [
        {
          "authorId": "81104193",
          "name": "Rihui Ou"
        },
        {
          "authorId": "51463097",
          "name": "Alexander L. Young"
        },
        {
          "authorId": "39775017",
          "name": "D. Dunson"
        }
      ]
    },
    {
      "paperId": "1c0e7a3b20f08fe50fad8e27f0bb128388d7bcdb",
      "externalIds": {
        "DBLP": "journals/corr/abs-2202-03770",
        "ArXiv": "2202.03770",
        "CorpusId": 246652497
      },
      "url": "https://www.semanticscholar.org/paper/1c0e7a3b20f08fe50fad8e27f0bb128388d7bcdb",
      "title": "Impact of Parameter Sparsity on Stochastic Gradient MCMC Methods for Bayesian Deep Learning",
      "venue": "arXiv.org",
      "year": 2022,
      "referenceCount": 42,
      "citationCount": 2,
      "authors": [
        {
          "authorId": "71008399",
          "name": "Meet P. Vadera"
        },
        {
          "authorId": "36119737",
          "name": "Adam D. Cobb"
        },
        {
          "authorId": "50039334",
          "name": "Brian Jalaian"
        },
        {
          "authorId": "1805742",
          "name": "Benjamin M Marlin"
        }
      ]
    },
    {
      "paperId": "32788b320c731e4f01442d2e2ad4ee3f694ce2f5",
      "externalIds": {
        "DBLP": "journals/softx/ThalerFCZ24",
        "ArXiv": "2505.11190",
        "DOI": "10.1016/j.softx.2024.101722",
        "CorpusId": 268900019
      },
      "url": "https://www.semanticscholar.org/paper/32788b320c731e4f01442d2e2ad4ee3f694ce2f5",
      "title": "JaxSGMC: Modular stochastic gradient MCMC in JAX",
      "venue": "SoftwareX",
      "year": 2024,
      "referenceCount": 49,
      "citationCount": 2,
      "authors": [
        {
          "authorId": "19892816",
          "name": "Stephan Thaler"
        },
        {
          "authorId": "2294941566",
          "name": "Paul Fuchs"
        },
        {
          "authorId": "2294969550",
          "name": "Ana Čukarska"
        },
        {
          "authorId": "4817767",
          "name": "J. Zavadlav"
        }
      ]
    },
    {
      "paperId": "b0cdbff69ecdfd518426ab59795ba7ed24c7093f",
      "externalIds": {
        "DBLP": "journals/corr/abs-2403-00044",
        "ArXiv": "2403.00044",
        "DOI": "10.48550/arXiv.2403.00044",
        "CorpusId": 268201536
      },
      "url": "https://www.semanticscholar.org/paper/b0cdbff69ecdfd518426ab59795ba7ed24c7093f",
      "title": "Scaling up Dynamic Edge Partition Models via Stochastic Gradient MCMC",
      "venue": "arXiv.org",
      "year": 2024,
      "referenceCount": 53,
      "citationCount": 0,
      "authors": [
        {
          "authorId": "3417775",
          "name": "Sikun Yang"
        },
        {
          "authorId": "2286874138",
          "name": "Heinz Koeppl"
        }
      ]
    }
  ]
}