{
  "total": 39411,
  "offset": 0,
  "next": 10,
  "data": [
    {
      "paperId": "1f600f213dbbd70f06093438855f39022957b4bf",
      "externalIds": {
        "DBLP": "conf/icml/ZhuSG15",
        "MAG": "1879966306",
        "CorpusId": 17748586
      },
      "url": "https://www.semanticscholar.org/paper/1f600f213dbbd70f06093438855f39022957b4bf",
      "title": "Long Short-Term Memory Over Recursive Structures",
      "venue": "International Conference on Machine Learning",
      "year": 2015,
      "referenceCount": 35,
      "citationCount": 345,
      "authors": [
        {
          "authorId": "1854999",
          "name": "Xiao-Dan Zhu"
        },
        {
          "authorId": "1690185",
          "name": "Parinaz Sobhani"
        },
        {
          "authorId": "1694050",
          "name": "Hongyu Guo"
        }
      ]
    },
    {
      "paperId": "b360bf87913a8b24f49ec04babb3751f88bbd90b",
      "externalIds": {
        "DOI": "10.1016/j.engstruct.2021.113406",
        "CorpusId": 239940016
      },
      "url": "https://www.semanticscholar.org/paper/b360bf87913a8b24f49ec04babb3751f88bbd90b",
      "title": "Recursive long short-term memory network for predicting nonlinear structural seismic response",
      "venue": "Engineering structures",
      "year": 2022,
      "referenceCount": 25,
      "citationCount": 95,
      "authors": [
        {
          "authorId": "2109069644",
          "name": "Zekun Xu"
        },
        {
          "authorId": "6457888",
          "name": "Jun Chen"
        },
        {
          "authorId": "1720764840",
          "name": "Jiaxu Shen"
        },
        {
          "authorId": "104455952",
          "name": "Mengjie Xiang"
        }
      ]
    },
    {
      "paperId": "4b9af9b9ed1bfb6b0688019d9fa79875bbcd8f3f",
      "externalIds": {
        "MAG": "2111369166",
        "DBLP": "journals/corr/ZhuSG15",
        "ArXiv": "1503.04881",
        "CorpusId": 17629631
      },
      "url": "https://www.semanticscholar.org/paper/4b9af9b9ed1bfb6b0688019d9fa79875bbcd8f3f",
      "title": "Long Short-Term Memory Over Tree Structures",
      "venue": "arXiv.org",
      "year": 2015,
      "referenceCount": 30,
      "citationCount": 72,
      "authors": [
        {
          "authorId": "1854999",
          "name": "Xiao-Dan Zhu"
        },
        {
          "authorId": "1690185",
          "name": "Parinaz Sobhani"
        },
        {
          "authorId": "1694050",
          "name": "Hongyu Guo"
        }
      ]
    },
    {
      "paperId": "500b4a673b738faaf90037c8f90c800a882f7e89",
      "externalIds": {
        "MAG": "2563044023",
        "DBLP": "journals/access/WuC17",
        "DOI": "10.1109/ACCESS.2016.2647384",
        "CorpusId": 24013591
      },
      "url": "https://www.semanticscholar.org/paper/500b4a673b738faaf90037c8f90c800a882f7e89",
      "title": "Long Short-Term Memory With Quadratic Connections in Recursive Neural Networks for Representing Compositional Semantics",
      "venue": "IEEE Access",
      "year": 2017,
      "referenceCount": 36,
      "citationCount": 31,
      "authors": [
        {
          "authorId": "2116668739",
          "name": "Dong Wu"
        },
        {
          "authorId": "1703272",
          "name": "M. Chi"
        }
      ]
    },
    {
      "paperId": "027f9695189355d18ec6be8e48f3d23ea25db35d",
      "externalIds": {
        "MAG": "2963580443",
        "DBLP": "conf/aaai/ChoiYL18",
        "ArXiv": "1707.02786",
        "DOI": "10.1609/aaai.v32i1.11975",
        "CorpusId": 24462966
      },
      "url": "https://www.semanticscholar.org/paper/027f9695189355d18ec6be8e48f3d23ea25db35d",
      "title": "Learning to Compose Task-Specific Tree Structures",
      "venue": "AAAI Conference on Artificial Intelligence",
      "year": 2017,
      "referenceCount": 54,
      "citationCount": 195,
      "authors": [
        {
          "authorId": "8889792",
          "name": "Jihun Choi"
        },
        {
          "authorId": "31760501",
          "name": "Kang Min Yoo"
        },
        {
          "authorId": "3013044",
          "name": "Sang-goo Lee"
        }
      ]
    },
    {
      "paperId": "2e0effd38a9b3f8b184057f4ee4a1c9fae95b453",
      "externalIds": {
        "PubMedCentral": "9357447",
        "DOI": "10.1016/j.aej.2022.07.029",
        "CorpusId": 37615957
      },
      "url": "https://www.semanticscholar.org/paper/2e0effd38a9b3f8b184057f4ee4a1c9fae95b453",
      "title": "Soft computing techniques for forecasting of COVID-19 in Pakistan",
      "venue": "Alexandria Engineering Journal",
      "year": 2022,
      "referenceCount": 52,
      "citationCount": 45,
      "authors": [
        {
          "authorId": "2005792248",
          "name": "Syarifah Inayati"
        },
        {
          "authorId": "2066134409",
          "name": "Nur Iriawan"
        }
      ]
    },
    {
      "paperId": "ea348b7712875bc2b811dbbc5489175b267b027d",
      "externalIds": {
        "DOI": "10.5194/hess-28-2107-2024",
        "CorpusId": 269826462
      },
      "url": "https://www.semanticscholar.org/paper/ea348b7712875bc2b811dbbc5489175b267b027d",
      "title": "Enhancing long short-term memory (LSTM)-based streamflow prediction with a spatially distributed approach",
      "venue": "Hydrology and Earth System Sciences",
      "year": 2024,
      "referenceCount": 41,
      "citationCount": 30,
      "authors": [
        {
          "authorId": "2275752685",
          "name": "Qiutong Yu"
        },
        {
          "authorId": "30797475",
          "name": "B. Tolson"
        },
        {
          "authorId": "46828901",
          "name": "Hongren Shen"
        },
        {
          "authorId": "2276211691",
          "name": "Ming Han"
        },
        {
          "authorId": "2237296755",
          "name": "Juliane Mai"
        },
        {
          "authorId": "2275532190",
          "name": "Jimmy Lin"
        }
      ]
    },
    {
      "paperId": "2e9d221c206e9503ceb452302d68d10e293f2a10",
      "externalIds": {
        "DBLP": "journals/neco/HochreiterS97",
        "MAG": "2064675550",
        "DOI": "10.1162/neco.1997.9.8.1735",
        "CorpusId": 1915014,
        "PubMed": "9377276"
      },
      "url": "https://www.semanticscholar.org/paper/2e9d221c206e9503ceb452302d68d10e293f2a10",
      "title": "Long Short-Term Memory",
      "venue": "Neural Computation",
      "year": 1997,
      "referenceCount": 48,
      "citationCount": 103523,
      "authors": [
        {
          "authorId": "3308557",
          "name": "Sepp Hochreiter"
        },
        {
          "authorId": "145341374",
          "name": "J. Schmidhuber"
        }
      ]
    },
    {
      "paperId": "1667ebd131a4a1ccbdbcf9daea1c6a775b036c71",
      "externalIds": {
        "PubMedCentral": "11861296",
        "DOI": "10.1038/s41598-025-91329-w",
        "CorpusId": 276613498,
        "PubMed": "40000767"
      },
      "url": "https://www.semanticscholar.org/paper/1667ebd131a4a1ccbdbcf9daea1c6a775b036c71",
      "title": "Assessing the effectiveness of long short-term memory and artificial neural network in predicting daily ozone concentrations in Liaocheng City",
      "venue": "Scientific Reports",
      "year": 2025,
      "referenceCount": 103,
      "citationCount": 116,
      "authors": [
        {
          "authorId": "2019982661",
          "name": "Qingchun Guo"
        },
        {
          "authorId": "9731058",
          "name": "Zhenfang He"
        },
        {
          "authorId": "50219232",
          "name": "Zhaosheng Wang"
        }
      ]
    },
    {
      "paperId": "7abae4c78d1fc9581ac6c18b7e4f110b0dd0a2f4",
      "externalIds": {
        "DBLP": "journals/remotesensing/WangMTX21",
        "DOI": "10.3390/rs13071284",
        "CorpusId": 233329854
      },
      "url": "https://www.semanticscholar.org/paper/7abae4c78d1fc9581ac6c18b7e4f110b0dd0a2f4",
      "title": "A Novel Recursive Model Based on a Convolutional Long Short-Term Memory Neural Network for Air Pollution Prediction",
      "venue": "Remote Sensing",
      "year": 2021,
      "referenceCount": 56,
      "citationCount": 47,
      "authors": [
        {
          "authorId": "2108488372",
          "name": "Weilin Wang"
        },
        {
          "authorId": "35325837",
          "name": "Wenjing Mao"
        },
        {
          "authorId": "2080060432",
          "name": "Xueli Tong"
        },
        {
          "authorId": "2110691353",
          "name": "Gang Xu"
        }
      ]
    }
  ]
}