{
  "total": 329,
  "offset": 0,
  "next": 10,
  "data": [
    {
      "paperId": "243c7f09bd5567682f67034c3e7c18597f3ce535",
      "externalIds": {
        "DBLP": "conf/icml/LiuFFM15",
        "MAG": "1821618570",
        "CorpusId": 5386264
      },
      "url": "https://www.semanticscholar.org/paper/243c7f09bd5567682f67034c3e7c18597f3ce535",
      "title": "Scalable Model Selection for Large-Scale Factorial Relational Models",
      "venue": "International Conference on Machine Learning",
      "year": 2015,
      "referenceCount": 43,
      "citationCount": 8,
      "authors": [
        {
          "authorId": "39879047",
          "name": "Chunchen Liu"
        },
        {
          "authorId": "2117842090",
          "name": "Lu Feng"
        },
        {
          "authorId": "1767586",
          "name": "R. Fujimaki"
        },
        {
          "authorId": "3247408",
          "name": "Yusuke Muraoka"
        }
      ]
    },
    {
      "paperId": "7bfcf405bdfbc93a977f65590d14fe1affe98eda",
      "externalIds": {
        "DBLP": "journals/tvt/GuoXHYS25",
        "DOI": "10.1109/TVT.2024.3516779",
        "CorpusId": 274743045
      },
      "url": "https://www.semanticscholar.org/paper/7bfcf405bdfbc93a977f65590d14fe1affe98eda",
      "title": "Lightweight Maximum-Capacity Path Selection for Delay-Sensitive Applications in Large-Scale LEO Satellite Networks",
      "venue": "IEEE Transactions on Vehicular Technology",
      "year": 2025,
      "referenceCount": 29,
      "citationCount": 6,
      "authors": [
        {
          "authorId": "2293358038",
          "name": "Binquan Guo"
        },
        {
          "authorId": "2287931732",
          "name": "Zehui Xiong"
        },
        {
          "authorId": "2237133208",
          "name": "Zhu Han"
        },
        {
          "authorId": "2240201374",
          "name": "Chau Yuen"
        },
        {
          "authorId": "2261684942",
          "name": "Sumei Sun"
        }
      ]
    },
    {
      "paperId": "06711f67d4cdb875074463ee705bb54c9c9f043d",
      "externalIds": {
        "DOI": "10.12677/mos.2025.142139",
        "CorpusId": 276625399
      },
      "url": "https://www.semanticscholar.org/paper/06711f67d4cdb875074463ee705bb54c9c9f043d",
      "title": "Research on Heterogeneous Capacitated Vehicle Routing Models Based on Linformer and Multi-Relational Decoder",
      "venue": "Modeling and Simulation",
      "year": 2025,
      "referenceCount": 10,
      "citationCount": 0,
      "authors": [
        {
          "authorId": "2347398944",
          "name": "顺龙 李"
        }
      ]
    },
    {
      "paperId": "1edaf3b77039730f8261be35a22d45de49809bd5",
      "externalIds": {
        "ArXiv": "2502.06146",
        "DBLP": "journals/corr/abs-2502-06146",
        "DOI": "10.48550/arXiv.2502.06146",
        "CorpusId": 276250199
      },
      "url": "https://www.semanticscholar.org/paper/1edaf3b77039730f8261be35a22d45de49809bd5",
      "title": "Guided Exploration for Efficient Relational Model Learning",
      "venue": "arXiv.org",
      "year": 2025,
      "referenceCount": 5,
      "citationCount": 0,
      "authors": [
        {
          "authorId": "2344759999",
          "name": "Annie Feng"
        },
        {
          "authorId": "2289644613",
          "name": "Nishanth Kumar"
        },
        {
          "authorId": "2256719663",
          "name": "T. Lozano-Pérez"
        },
        {
          "authorId": "1709512",
          "name": "L. Kaelbling"
        }
      ]
    },
    {
      "paperId": "ea441ea2e41064ec0c1f5674ea2d40cfea33039f",
      "externalIds": {
        "DBLP": "journals/access/ZhouSY24",
        "DOI": "10.1109/ACCESS.2024.3511037",
        "CorpusId": 274521789
      },
      "url": "https://www.semanticscholar.org/paper/ea441ea2e41064ec0c1f5674ea2d40cfea33039f",
      "title": "An Effective Author Name Disambiguation Framework for Large-Scale Publications",
      "venue": "IEEE Access",
      "year": 2024,
      "referenceCount": 53,
      "citationCount": 5,
      "authors": [
        {
          "authorId": "2333894116",
          "name": "Anji Zhou"
        },
        {
          "authorId": "2319460440",
          "name": "Minghui Shi"
        },
        {
          "authorId": "2333940509",
          "name": "Rui Yuan"
        }
      ]
    },
    {
      "paperId": "5865de84db2790c219c18784d830f841a3510a98",
      "externalIds": {
        "MAG": "3139032876",
        "DBLP": "journals/jors/Schosser22",
        "DOI": "10.1080/01605682.2021.1892460",
        "CorpusId": 233626220
      },
      "url": "https://www.semanticscholar.org/paper/5865de84db2790c219c18784d830f841a3510a98",
      "title": "Tensor extrapolation: Forecasting large-scale relational data",
      "venue": "Journal of the Operational Research Society",
      "year": 2021,
      "referenceCount": 55,
      "citationCount": 7,
      "authors": [
        {
          "authorId": "2096853361",
          "name": "Josef Schosser"
        }
      ]
    },
    {
      "paperId": "79068192bea0708a8c43cf1158a2538b196c512f",
      "externalIds": {
        "DOI": "10.1111/sode.12752",
        "CorpusId": 270328130
      },
      "url": "https://www.semanticscholar.org/paper/79068192bea0708a8c43cf1158a2538b196c512f",
      "title": "Dimensional model of socioemotional learning built on a large‐scale sample of Chilean students",
      "venue": "Social development (Oxford. Print)",
      "year": 2024,
      "referenceCount": 34,
      "citationCount": 1,
      "authors": [
        {
          "authorId": "2280361961",
          "name": "Christian Berger"
        },
        {
          "authorId": "2137006756",
          "name": "Lisandra Angulo Gallo"
        }
      ]
    },
    {
      "paperId": "386bca4db92993ec5d373768afdffc24621c128e",
      "externalIds": {
        "DOI": "10.3390/math13111700",
        "CorpusId": 278844835
      },
      "url": "https://www.semanticscholar.org/paper/386bca4db92993ec5d373768afdffc24621c128e",
      "title": "Efficient AI-Driven Query Optimization in Large-Scale Databases: A Reinforcement Learning and Graph-Based Approach",
      "venue": "Mathematics",
      "year": 2025,
      "referenceCount": 37,
      "citationCount": 7,
      "authors": [
        {
          "authorId": "2755178",
          "name": "Najla Sassi"
        },
        {
          "authorId": "1725207",
          "name": "W. Jaziri"
        }
      ]
    },
    {
      "paperId": "cd9838fdeedf47e80845d1d34a12ee7bd2422f3e",
      "externalIds": {
        "DOI": "10.1080/08824096.2024.2327547",
        "CorpusId": 268400801
      },
      "url": "https://www.semanticscholar.org/paper/cd9838fdeedf47e80845d1d34a12ee7bd2422f3e",
      "title": "From manual to machine: assessing the efficacy of large language models in content analysis",
      "venue": "Communication Research Reports",
      "year": 2024,
      "referenceCount": 12,
      "citationCount": 14,
      "authors": [
        {
          "authorId": "2390970",
          "name": "Andrew Pilny"
        },
        {
          "authorId": "114812254",
          "name": "Kelly McAninch"
        },
        {
          "authorId": "104250351",
          "name": "Amanda R. Slone"
        },
        {
          "authorId": "2090500231",
          "name": "Kelsey P. Moore"
        }
      ]
    },
    {
      "paperId": "7b7d0e75aa144af76e8837454edc10fa85ae1f6a",
      "externalIds": {
        "DOI": "10.1109/TFUZZ.2026.3657119",
        "CorpusId": 285044197
      },
      "url": "https://www.semanticscholar.org/paper/7b7d0e75aa144af76e8837454edc10fa85ae1f6a",
      "title": "Bilevel Consensus in Large-Scale Group Decision Making: Integrating Structural Holes and Community Dynamics",
      "venue": "IEEE transactions on fuzzy systems",
      "year": 2026,
      "referenceCount": 46,
      "citationCount": 0,
      "authors": [
        {
          "authorId": "2105837300",
          "name": "Zhen Hua"
        },
        {
          "authorId": "2237950203",
          "name": "Shijie Xu"
        },
        {
          "authorId": "2287028099",
          "name": "Jianji Wang"
        },
        {
          "authorId": "2406751155",
          "name": "Jingxuan Liu"
        },
        {
          "authorId": "2067713421",
          "name": "Luis Martínez"
        }
      ]
    }
  ]
}