{
  "total": 154,
  "offset": 0,
  "next": 10,
  "data": [
    {
      "paperId": "2798df47acbeb89a9e044e43e747782ec05968af",
      "externalIds": {
        "MAG": "2791172704",
        "DBLP": "conf/icml/MunkhdalaiYMT18",
        "CorpusId": 3759732
      },
      "url": "https://www.semanticscholar.org/paper/2798df47acbeb89a9e044e43e747782ec05968af",
      "title": "Rapid Adaptation with Conditionally Shifted Neurons",
      "venue": "International Conference on Machine Learning",
      "year": 2017,
      "referenceCount": 46,
      "citationCount": 322,
      "authors": [
        {
          "authorId": "2227827",
          "name": "Tsendsuren Munkhdalai"
        },
        {
          "authorId": "2854297",
          "name": "Xingdi Yuan"
        },
        {
          "authorId": "34719201",
          "name": "Soroush Mehri"
        },
        {
          "authorId": "3382568",
          "name": "Adam Trischler"
        }
      ]
    },
    {
      "paperId": "187c0211498acb5a82dac7c0d8a1781e5697b1d0",
      "externalIds": {
        "MAG": "3016442313",
        "DOI": "10.1101/636910",
        "CorpusId": 216075508,
        "PubMed": "32319837"
      },
      "url": "https://www.semanticscholar.org/paper/187c0211498acb5a82dac7c0d8a1781e5697b1d0",
      "title": "Rapid adaptation to elevated extracellular potassium in the pyloric circuit of the crab, Cancer borealis",
      "venue": "bioRxiv",
      "year": 2019,
      "referenceCount": 121,
      "citationCount": 21,
      "authors": [
        {
          "authorId": "1650010095",
          "name": "Lily S He"
        },
        {
          "authorId": "51139739",
          "name": "M. Rue"
        },
        {
          "authorId": "153174325",
          "name": "Ekaterina O. Morozova"
        },
        {
          "authorId": "1782747234",
          "name": "D.J. Powell"
        },
        {
          "authorId": "2052331894",
          "name": "E. J. James"
        },
        {
          "authorId": "2026979790",
          "name": "Manaswini Kar"
        },
        {
          "authorId": "2801096",
          "name": "E. Marder"
        }
      ]
    },
    {
      "paperId": "189d888ac7a62cfa946479e9dcb7535964a2f516",
      "externalIds": {
        "PubMedCentral": "11842591",
        "DOI": "10.1038/s41467-025-57049-5",
        "CorpusId": 276506300,
        "PubMed": "39979316"
      },
      "url": "https://www.semanticscholar.org/paper/189d888ac7a62cfa946479e9dcb7535964a2f516",
      "title": "Striatal arbitration between choice strategies guides few-shot adaptation",
      "venue": "Nature Communications",
      "year": 2025,
      "referenceCount": 91,
      "citationCount": 2,
      "authors": [
        {
          "authorId": "122694453",
          "name": "M. Yang"
        },
        {
          "authorId": "2335513586",
          "name": "Min Whan Jung"
        },
        {
          "authorId": "2261066255",
          "name": "Sang Wan Lee"
        }
      ]
    },
    {
      "paperId": "7775d34bbe5de407a3d27a5f9cf12b4561b84476",
      "externalIds": {
        "PubMedCentral": "12633359",
        "DOI": "10.1101/2025.10.22.684058",
        "CorpusId": 282387813,
        "PubMed": "41279932"
      },
      "url": "https://www.semanticscholar.org/paper/7775d34bbe5de407a3d27a5f9cf12b4561b84476",
      "title": "Persistent Adaptation through Dual-Timescale Regulation of Ion Channel Properties",
      "venue": "bioRxiv",
      "year": 2025,
      "referenceCount": 40,
      "citationCount": 1,
      "authors": [
        {
          "authorId": "2127630223",
          "name": "Yugarshi Mondal"
        },
        {
          "authorId": "2321742840",
          "name": "Ronald L. Calabrese"
        },
        {
          "authorId": "118508775",
          "name": "E. Marder"
        }
      ]
    },
    {
      "paperId": "b745b5bdc82c7a8d0f0a16664164afec8e1fbf9d",
      "externalIds": {
        "PubMedCentral": "12458127",
        "DOI": "10.1101/2025.09.18.677102",
        "CorpusId": 281521660,
        "PubMed": "41000651"
      },
      "url": "https://www.semanticscholar.org/paper/b745b5bdc82c7a8d0f0a16664164afec8e1fbf9d",
      "title": "Genomic plasticity drives olfactory adaptation in a pest fly",
      "venue": "bioRxiv",
      "year": 2025,
      "referenceCount": 26,
      "citationCount": 0,
      "authors": [
        {
          "authorId": "2346663574",
          "name": "Qi Xue"
        },
        {
          "authorId": "2238991824",
          "name": "Hany K. M. Dweck"
        }
      ]
    },
    {
      "paperId": "2af7ebe1426d0605ea152481c87ca46a306a6555",
      "externalIds": {
        "PubMedCentral": "11140847",
        "DOI": "10.3389/fnmol.2024.1350716",
        "CorpusId": 269863561,
        "PubMed": "38828281"
      },
      "url": "https://www.semanticscholar.org/paper/2af7ebe1426d0605ea152481c87ca46a306a6555",
      "title": "Ahnak in the prefrontal cortex mediates behavioral correlates of stress resilience and rapid antidepressant action in mice",
      "venue": "Frontiers in Molecular Neuroscience",
      "year": 2024,
      "referenceCount": 65,
      "citationCount": 3,
      "authors": [
        {
          "authorId": "5318056",
          "name": "Dionnet L. Bhatti"
        },
        {
          "authorId": "5781256",
          "name": "Junghee Jin"
        },
        {
          "authorId": "114675766",
          "name": "Jia Cheng"
        },
        {
          "authorId": "144509933",
          "name": "Kathryn A. McCabe"
        },
        {
          "authorId": "2251721249",
          "name": "Ko-Woon Lee"
        },
        {
          "authorId": "2241653632",
          "name": "Clara Berdasco"
        },
        {
          "authorId": "2302315785",
          "name": "Yu Young Jeong"
        },
        {
          "authorId": "2325499756",
          "name": "Subhash C. Sinha"
        },
        {
          "authorId": "2302337581",
          "name": "Yong Kim"
        }
      ]
    },
    {
      "paperId": "a202ac7b181e72c81dfbfab6bb22001fc14191b8",
      "externalIds": {
        "DBLP": "journals/corr/abs-2507-03222",
        "ArXiv": "2507.03222",
        "DOI": "10.48550/arXiv.2507.03222",
        "CorpusId": 280274212
      },
      "url": "https://www.semanticscholar.org/paper/a202ac7b181e72c81dfbfab6bb22001fc14191b8",
      "title": "The role of gain neuromodulation in layer-5 pyramidal neurons",
      "venue": "arXiv.org",
      "year": 2025,
      "referenceCount": 30,
      "citationCount": 2,
      "authors": [
        {
          "authorId": "2310237503",
          "name": "Alejandro Rodriguez-Garcia"
        },
        {
          "authorId": "2265732790",
          "name": "C. J. Whyte"
        },
        {
          "authorId": "48629125",
          "name": "Brandon R. Munn"
        },
        {
          "authorId": "2310235178",
          "name": "Jie Mei"
        },
        {
          "authorId": "2301329544",
          "name": "James M. Shine"
        },
        {
          "authorId": "2310237884",
          "name": "Srikanth Ramaswamy"
        }
      ]
    },
    {
      "paperId": "897be7802477059204830462656d8507f22ab180",
      "externalIds": {
        "ArXiv": "2604.09028",
        "CorpusId": 287351398
      },
      "url": "https://www.semanticscholar.org/paper/897be7802477059204830462656d8507f22ab180",
      "title": "Plasticity-Enhanced Multi-Agent Mixture of Experts for Dynamic Objective Adaptation in UAVs-Assisted Emergency Communication Networks",
      "venue": "",
      "year": 2026,
      "referenceCount": 56,
      "citationCount": 0,
      "authors": [
        {
          "authorId": "2310848243",
          "name": "Wen Qiu"
        },
        {
          "authorId": "2316921400",
          "name": "Zhiqiang He"
        },
        {
          "authorId": "2395562057",
          "name": "Wei Zhao"
        },
        {
          "authorId": "2069337781",
          "name": "Hiroshi Masui"
        }
      ]
    },
    {
      "paperId": "56f2136dbd563f4cb003e226b01d8c24f4edc7b5",
      "externalIds": {
        "MAG": "2912582499",
        "PubMedCentral": "6362200",
        "DOI": "10.1038/s41598-018-37227-w",
        "CorpusId": 59604041,
        "PubMed": "30718532"
      },
      "url": "https://www.semanticscholar.org/paper/56f2136dbd563f4cb003e226b01d8c24f4edc7b5",
      "title": "Behavioral correlates of activity of optogenetically identified locus coeruleus noradrenergic neurons in rats performing T-maze tasks",
      "venue": "Scientific Reports",
      "year": 2019,
      "referenceCount": 46,
      "citationCount": 39,
      "authors": [
        {
          "authorId": "122400979",
          "name": "Liyang Xiang"
        },
        {
          "authorId": "152723401",
          "name": "Antoine Harel"
        },
        {
          "authorId": "50200937",
          "name": "Hongying Gao"
        },
        {
          "authorId": "145085299",
          "name": "A. Pickering"
        },
        {
          "authorId": "145393156",
          "name": "S. Sara"
        },
        {
          "authorId": "34563595",
          "name": "S. Wiener"
        }
      ]
    },
    {
      "paperId": "68a9dbe864b66a88aac2a00a83acb0f59d08aa8c",
      "externalIds": {
        "PubMedCentral": "12639354",
        "DOI": "10.1111/jnc.70304",
        "CorpusId": 282310196,
        "PubMed": "41273063"
      },
      "url": "https://www.semanticscholar.org/paper/68a9dbe864b66a88aac2a00a83acb0f59d08aa8c",
      "title": "Metabolic Flexibility of Microglia: Energy Substrate Utilization and Impact on Neuronal Metabolism",
      "venue": "bioRxiv",
      "year": 2025,
      "referenceCount": 78,
      "citationCount": 2,
      "authors": [
        {
          "authorId": "1768225673",
          "name": "Emil W. Westi"
        },
        {
          "authorId": "2387290313",
          "name": "Rebecca Carlsen"
        },
        {
          "authorId": "32865547",
          "name": "J. V. Andersen"
        },
        {
          "authorId": "51382870",
          "name": "Z. Kılıç"
        },
        {
          "authorId": "2387286584",
          "name": "Dana Alnajar"
        },
        {
          "authorId": "2387288889",
          "name": "Nadia K Holmgaard"
        },
        {
          "authorId": "2387286447",
          "name": "Belén García Sintes"
        },
        {
          "authorId": "2387288555",
          "name": "Agustin Cota-Coronado"
        },
        {
          "authorId": "2237997496",
          "name": "S. S. Muñoz"
        },
        {
          "authorId": "5224041",
          "name": "C. Galvagnion"
        },
        {
          "authorId": "2325847331",
          "name": "Blanca I. Aldana"
        }
      ]
    }
  ]
}