{
  "total": 60,
  "offset": 0,
  "next": 10,
  "data": [
    {
      "paperId": "e4b7fd133ace959da4b4b4e8937fa98f67fe759c",
      "externalIds": {
        "MAG": "2950007139",
        "ArXiv": "1511.03243",
        "DOI": "10.17863/CAM.9689",
        "CorpusId": 13447461
      },
      "url": "https://www.semanticscholar.org/paper/e4b7fd133ace959da4b4b4e8937fa98f67fe759c",
      "title": "Black-box $\\alpha$-divergence Minimization",
      "venue": "International Conference on Machine Learning",
      "year": 2015,
      "referenceCount": 37,
      "citationCount": 149,
      "authors": [
        {
          "authorId": "1388574431",
          "name": "José Miguel Hernández-Lobato"
        },
        {
          "authorId": "2672661",
          "name": "Yingzhen Li"
        },
        {
          "authorId": "144845456",
          "name": "Mark Rowland"
        },
        {
          "authorId": "1388574404",
          "name": "D. Hernández-Lobato"
        },
        {
          "authorId": "23519191",
          "name": "T. Bui"
        },
        {
          "authorId": "145369890",
          "name": "Richard E. Turner"
        }
      ]
    },
    {
      "paperId": "a409c108e17b213c993ddc1415571920a5303295",
      "externalIds": {
        "DBLP": "conf/icml/Hernandez-Lobato16a",
        "MAG": "2962973320",
        "CorpusId": 38342008
      },
      "url": "https://www.semanticscholar.org/paper/a409c108e17b213c993ddc1415571920a5303295",
      "title": "Black-Box Alpha Divergence Minimization",
      "venue": "International Conference on Machine Learning",
      "year": 2016,
      "referenceCount": 0,
      "citationCount": 61,
      "authors": [
        {
          "authorId": "1388574431",
          "name": "José Miguel Hernández-Lobato"
        },
        {
          "authorId": "2672661",
          "name": "Yingzhen Li"
        },
        {
          "authorId": "144845456",
          "name": "Mark Rowland"
        },
        {
          "authorId": "23519191",
          "name": "T. Bui"
        },
        {
          "authorId": "1388574404",
          "name": "D. Hernández-Lobato"
        },
        {
          "authorId": "145369890",
          "name": "Richard E. Turner"
        }
      ]
    },
    {
      "paperId": "abb4f78abf0df5e7c1d95f0f4e5f682a071040e5",
      "externalIds": {
        "CorpusId": 46537637
      },
      "url": "https://www.semanticscholar.org/paper/abb4f78abf0df5e7c1d95f0f4e5f682a071040e5",
      "title": "M L ] 1 0 N ov 2 01 5 Black-box α-divergence Minimization",
      "venue": "",
      "year": 2015,
      "referenceCount": 12,
      "citationCount": 0,
      "authors": [
        {
          "authorId": "1388574431",
          "name": "José Miguel Hernández-Lobato"
        },
        {
          "authorId": "2672661",
          "name": "Yingzhen Li"
        },
        {
          "authorId": "1388574404",
          "name": "D. Hernández-Lobato"
        },
        {
          "authorId": "23519191",
          "name": "T. Bui"
        },
        {
          "authorId": "145369890",
          "name": "Richard E. Turner"
        }
      ]
    },
    {
      "paperId": "d5931cbe7c35f032bd88ffa6447941b3286290ca",
      "externalIds": {
        "CorpusId": 211223117
      },
      "url": "https://www.semanticscholar.org/paper/d5931cbe7c35f032bd88ffa6447941b3286290ca",
      "title": "Black-box Stein Divergence Minimization For Learning Latent Variable Models",
      "venue": "",
      "year": 2017,
      "referenceCount": 23,
      "citationCount": 1,
      "authors": [
        {
          "authorId": null,
          "name": "Chao Ma"
        }
      ]
    },
    {
      "paperId": "2dafd4cf8f9bfbbd7cc633dd71ecaba55216c8b4",
      "externalIds": {
        "CorpusId": 13028067
      },
      "url": "https://www.semanticscholar.org/paper/2dafd4cf8f9bfbbd7cc633dd71ecaba55216c8b4",
      "title": "Black-Box α-Divergence Minimization : Supplementary",
      "venue": "",
      "year": 2016,
      "referenceCount": 4,
      "citationCount": 0,
      "authors": [
        {
          "authorId": "1388574431",
          "name": "José Miguel Hernández-Lobato"
        },
        {
          "authorId": "1388574404",
          "name": "D. Hernández-Lobato"
        }
      ]
    },
    {
      "paperId": "9eeecebfb79a53210a3d38c2f6e197e47ef11f49",
      "externalIds": {
        "DOI": "10.70675/536d3384zb2e5z49dezbac5z0d67b916a5f5",
        "CorpusId": 287405364
      },
      "url": "https://www.semanticscholar.org/paper/9eeecebfb79a53210a3d38c2f6e197e47ef11f49",
      "title": "Divergence-minimization for variational inference, black-box global optimization, and importance sampling",
      "venue": "",
      "year": null,
      "referenceCount": 0,
      "citationCount": 0,
      "authors": [
        {
          "authorId": "2123952148",
          "name": "Thomas Guilmeau"
        }
      ]
    },
    {
      "paperId": "9a7fd14a92a0ee0ec734c0a21064a78eb16297ef",
      "externalIds": {
        "DBLP": "journals/tec/GuilmeauCE25",
        "ArXiv": "2402.01277",
        "DOI": "10.1109/TEVC.2024.3452420",
        "CorpusId": 267406419
      },
      "url": "https://www.semanticscholar.org/paper/9a7fd14a92a0ee0ec734c0a21064a78eb16297ef",
      "title": "A Divergence-Based Condition to Ensure Quantile Improvement in Black-Box Global Optimization",
      "venue": "IEEE Transactions on Evolutionary Computation",
      "year": 2024,
      "referenceCount": 46,
      "citationCount": 1,
      "authors": [
        {
          "authorId": "2123952148",
          "name": "Thomas Guilmeau"
        },
        {
          "authorId": "2256987493",
          "name": "Émilie Chouzenoux"
        },
        {
          "authorId": "2256996218",
          "name": "Víctor Elvira"
        }
      ]
    },
    {
      "paperId": "dc3e67671739f6feb8808c0773e1162ad6bba226",
      "externalIds": {
        "DBLP": "conf/icassp/GuilmeauCE23",
        "DOI": "10.1109/ICASSP49357.2023.10096619",
        "CorpusId": 258542961
      },
      "url": "https://www.semanticscholar.org/paper/dc3e67671739f6feb8808c0773e1162ad6bba226",
      "title": "Adaptive Simulated Annealing Through Alternating Rényi Divergence Minimization",
      "venue": "IEEE International Conference on Acoustics, Speech, and Signal Processing",
      "year": 2023,
      "referenceCount": 26,
      "citationCount": 0,
      "authors": [
        {
          "authorId": "2123952148",
          "name": "Thomas Guilmeau"
        },
        {
          "authorId": "102425592",
          "name": "É. Chouzenoux"
        },
        {
          "authorId": "145303926",
          "name": "V. Elvira"
        }
      ]
    },
    {
      "paperId": "81c6b4ec94eadb7431c58e21a747ad36583e49e5",
      "externalIds": {
        "DBLP": "conf/codit/DeleckiKK25",
        "DOI": "10.1109/CoDIT66093.2025.11321867",
        "CorpusId": 274446311
      },
      "url": "https://www.semanticscholar.org/paper/81c6b4ec94eadb7431c58e21a747ad36583e49e5",
      "title": "Failure Probability Estimation for Black-Box Autonomous Systems using State-Dependent Importance Sampling Proposals",
      "venue": "International Conference on Control, Decision and Information Technologies",
      "year": 2025,
      "referenceCount": 32,
      "citationCount": 2,
      "authors": [
        {
          "authorId": "2158817546",
          "name": "Harrison Delecki"
        },
        {
          "authorId": "46848925",
          "name": "Sydney M. Katz"
        },
        {
          "authorId": "79262652",
          "name": "M. Kochenderfer"
        }
      ]
    },
    {
      "paperId": "41e347649d5563d4af2e8ceeea9ff36b5c7faf8f",
      "externalIds": {
        "DBLP": "journals/corr/abs-2406-18695",
        "ArXiv": "2406.18695",
        "ACL": "2024.emnlp-main.504",
        "DOI": "10.48550/arXiv.2406.18695",
        "CorpusId": 270765050
      },
      "url": "https://www.semanticscholar.org/paper/41e347649d5563d4af2e8ceeea9ff36b5c7faf8f",
      "title": "Learning to Correct for QA Reasoning with Black-box LLMs",
      "venue": "Conference on Empirical Methods in Natural Language Processing",
      "year": 2024,
      "referenceCount": 47,
      "citationCount": 8,
      "authors": [
        {
          "authorId": "2308469893",
          "name": "Jaehyung Kim"
        },
        {
          "authorId": "2305564854",
          "name": "Dongyoung Kim"
        },
        {
          "authorId": "2396711511",
          "name": "Yiming Yang"
        }
      ]
    }
  ]
}