{
  "total": 3121,
  "offset": 0,
  "next": 10,
  "data": [
    {
      "paperId": "127cf09abf45c9d3cb4d859a72e6cc67acc2b57b",
      "externalIds": {
        "MAG": "1931027396",
        "DBLP": "conf/icml/ThomasTG15",
        "CorpusId": 17076881
      },
      "url": "https://www.semanticscholar.org/paper/127cf09abf45c9d3cb4d859a72e6cc67acc2b57b",
      "title": "High Confidence Policy Improvement",
      "venue": "International Conference on Machine Learning",
      "year": 2015,
      "referenceCount": 22,
      "citationCount": 197,
      "authors": [
        {
          "authorId": "143640165",
          "name": "P. Thomas"
        },
        {
          "authorId": "1709005",
          "name": "Georgios Theocharous"
        },
        {
          "authorId": "1678622",
          "name": "M. Ghavamzadeh"
        }
      ]
    },
    {
      "paperId": "7584edbee4f0a6aaffce5b094bd947d1b0dc5706",
      "externalIds": {
        "MAG": "2434821389",
        "CorpusId": 114755421
      },
      "url": "https://www.semanticscholar.org/paper/7584edbee4f0a6aaffce5b094bd947d1b0dc5706",
      "title": "조사논문 : 건강기능식품 관련 정책의 우선순위 평가에 관한 연구",
      "venue": "",
      "year": 2015,
      "referenceCount": 0,
      "citationCount": 0,
      "authors": [
        {
          "authorId": "52059586",
          "name": "김규호"
        },
        {
          "authorId": "52397365",
          "name": "박혜민"
        },
        {
          "authorId": "52079914",
          "name": "임정빈"
        }
      ]
    },
    {
      "paperId": "a8bbcf5ea723b1f9b7d2257dd6fd492cd280f0af",
      "externalIds": {
        "MAG": "2273088453",
        "DBLP": "conf/aaai/ThomasTG15",
        "DOI": "10.1609/aaai.v29i1.9541",
        "CorpusId": 380221
      },
      "url": "https://www.semanticscholar.org/paper/a8bbcf5ea723b1f9b7d2257dd6fd492cd280f0af",
      "title": "High-Confidence Off-Policy Evaluation",
      "venue": "AAAI Conference on Artificial Intelligence",
      "year": 2015,
      "referenceCount": 20,
      "citationCount": 303,
      "authors": [
        {
          "authorId": "143640165",
          "name": "P. Thomas"
        },
        {
          "authorId": "1709005",
          "name": "Georgios Theocharous"
        },
        {
          "authorId": "1678622",
          "name": "M. Ghavamzadeh"
        }
      ]
    },
    {
      "paperId": "f4913097094aa06002170076d08baf90b4efdecb",
      "externalIds": {
        "PubMedCentral": "4411800",
        "MAG": "2006590245",
        "DOI": "10.1186/s13690-015-0067-y",
        "CorpusId": 6405888,
        "PubMed": "25922669"
      },
      "url": "https://www.semanticscholar.org/paper/f4913097094aa06002170076d08baf90b4efdecb",
      "title": "Surveillance of Clostridium difficile infections in a long-term care psychogeriatric facility: outbreak analysis and policy improvement",
      "venue": "Archives of Public Health",
      "year": 2015,
      "referenceCount": 20,
      "citationCount": 7,
      "authors": [
        {
          "authorId": "6944466",
          "name": "G. Van Esch"
        },
        {
          "authorId": "3836407",
          "name": "J. van Broeck"
        },
        {
          "authorId": "6834437",
          "name": "M. Delmée"
        },
        {
          "authorId": "4083606",
          "name": "B. Catry"
        }
      ]
    },
    {
      "paperId": "a7e08cc50df04e21fdf88edc6c5f04c7b1f0adfe",
      "externalIds": {
        "MAG": "2424255253",
        "DOI": "10.1109/PIC.2015.7489804",
        "CorpusId": 14799467
      },
      "url": "https://www.semanticscholar.org/paper/a7e08cc50df04e21fdf88edc6c5f04c7b1f0adfe",
      "title": "Nearest regularized subspace based hyperspectral image classification with adaptive Markov Random Field and high confidence index rule",
      "venue": "IEEE International Conference on Progress in Informatics and Computing",
      "year": 2015,
      "referenceCount": 14,
      "citationCount": 3,
      "authors": [
        {
          "authorId": "2810500",
          "name": "Tianming Zhan"
        },
        {
          "authorId": "2115681716",
          "name": "Yang Xu"
        },
        {
          "authorId": "134909078",
          "name": "Zebin Wu"
        }
      ]
    },
    {
      "paperId": "8ca8b67c1b019fe34b9c5d2ecd3c788e2ee1a822",
      "externalIds": {
        "CorpusId": 208245673
      },
      "url": "https://www.semanticscholar.org/paper/8ca8b67c1b019fe34b9c5d2ecd3c788e2ee1a822",
      "title": "Market Watch Cybersecurity in the Energy Industry Companies Lack Confidence Despite Improvement",
      "venue": "",
      "year": 2015,
      "referenceCount": 0,
      "citationCount": 0,
      "authors": [
        {
          "authorId": "152972086",
          "name": "J. Kerner"
        }
      ]
    },
    {
      "paperId": "d316c82c12cf4c45f9e85211ef3d1fa62497bff8",
      "externalIds": {
        "MAG": "1191599655",
        "DBLP": "journals/corr/SchulmanMLJA15",
        "ArXiv": "1506.02438",
        "CorpusId": 3075448
      },
      "url": "https://www.semanticscholar.org/paper/d316c82c12cf4c45f9e85211ef3d1fa62497bff8",
      "title": "High-Dimensional Continuous Control Using Generalized Advantage Estimation",
      "venue": "International Conference on Learning Representations",
      "year": 2015,
      "referenceCount": 31,
      "citationCount": 4310,
      "authors": [
        {
          "authorId": "47971768",
          "name": "John Schulman"
        },
        {
          "authorId": "29912342",
          "name": "Philipp Moritz"
        },
        {
          "authorId": "1736651",
          "name": "S. Levine"
        },
        {
          "authorId": "1694621",
          "name": "Michael I. Jordan"
        },
        {
          "authorId": "1689992",
          "name": "P. Abbeel"
        }
      ]
    },
    {
      "paperId": "d0e0661bd2952f47b2962a04e2d65f52a4d6e9d8",
      "externalIds": {
        "DBLP": "conf/vcip/SrinivasanXKP15",
        "MAG": "2344968465",
        "DOI": "10.1109/VCIP.2015.7457878",
        "CorpusId": 18925144
      },
      "url": "https://www.semanticscholar.org/paper/d0e0661bd2952f47b2962a04e2d65f52a4d6e9d8",
      "title": "Confidence indicators based pose estimation for high-quality 3D reconstruction using depth image",
      "venue": "Visual Communications and Image Processing",
      "year": 2015,
      "referenceCount": 13,
      "citationCount": 1,
      "authors": [
        {
          "authorId": "3391978",
          "name": "Ranga Ramanujam Srinivasan"
        },
        {
          "authorId": "2072879395",
          "name": "Zhengyu Xia"
        },
        {
          "authorId": "1698095",
          "name": "Joohee Kim"
        },
        {
          "authorId": "145477196",
          "name": "Y. S. Park"
        }
      ]
    },
    {
      "paperId": "2fdb536da39a014c598ea67b0db88431fcd852a8",
      "externalIds": {
        "MAG": "2952690945",
        "DBLP": "conf/icml/JiangL16",
        "ArXiv": "1511.03722",
        "CorpusId": 5806691
      },
      "url": "https://www.semanticscholar.org/paper/2fdb536da39a014c598ea67b0db88431fcd852a8",
      "title": "Doubly Robust Off-policy Value Evaluation for Reinforcement Learning",
      "venue": "International Conference on Machine Learning",
      "year": 2015,
      "referenceCount": 44,
      "citationCount": 693,
      "authors": [
        {
          "authorId": "48272707",
          "name": "Nan Jiang"
        },
        {
          "authorId": "47681372",
          "name": "Lihong Li"
        }
      ]
    },
    {
      "paperId": "8ace0d6a5c800d933cff85d4ec8356d4c17d1a52",
      "externalIds": {
        "CorpusId": 262000687
      },
      "url": "https://www.semanticscholar.org/paper/8ace0d6a5c800d933cff85d4ec8356d4c17d1a52",
      "title": "NBER WORKING PAPER SERIES THE EFFECTS OF HIGH-SKILLED IMMIGRATION POLICY ON FIRMS: EVIDENCE FROM H-1B VISA LOTTERIES",
      "venue": "",
      "year": 2015,
      "referenceCount": 14,
      "citationCount": 23,
      "authors": [
        {
          "authorId": "2242623037",
          "name": "Kirk Doran"
        },
        {
          "authorId": "2287861788",
          "name": "Alexander M. Gelber"
        },
        {
          "authorId": "31616406",
          "name": "A. Isen"
        },
        {
          "authorId": "2418786669",
          "name": "Sunil Vidhani"
        },
        {
          "authorId": "6436459",
          "name": "G. Borjas"
        },
        {
          "authorId": "116953880",
          "name": "J. Bound"
        },
        {
          "authorId": "104820850",
          "name": "Sean Farhang"
        },
        {
          "authorId": "2411643620",
          "name": "Richard B. Freeman"
        },
        {
          "authorId": "2255806998",
          "name": "Hilary Hoynes"
        },
        {
          "authorId": "2242478370",
          "name": "Jenny Hunt"
        },
        {
          "authorId": "2243065696",
          "name": "Damon E. Jones"
        },
        {
          "authorId": "2240572804",
          "name": "Larry Katz"
        },
        {
          "authorId": "2242749828",
          "name": "Bill Kerr"
        },
        {
          "authorId": "2329556539",
          "name": "Norman Matloff"
        },
        {
          "authorId": "2412766546",
          "name": "Ankur Patel"
        },
        {
          "authorId": "2412820523",
          "name": "Dina Pomeranz"
        },
        {
          "authorId": "2411650271",
          "name": "Jesse Rothstein"
        },
        {
          "authorId": "4698709",
          "name": "Danny Yagan"
        }
      ]
    }
  ]
}