{
  "total": 13,
  "offset": 0,
  "next": 10,
  "data": [
    {
      "paperId": "c8acbcfa351da4c46c9b154e45c1f093c3b63ade",
      "externalIds": {
        "MAG": "2474440862",
        "DBLP": "conf/icml/HwangTC16",
        "CorpusId": 15798851
      },
      "url": "https://www.semanticscholar.org/paper/c8acbcfa351da4c46c9b154e45c1f093c3b63ade",
      "title": "Automatic Construction of Nonparametric Relational Regression Models for Multiple Time Series",
      "venue": "International Conference on Machine Learning",
      "year": 2016,
      "referenceCount": 33,
      "citationCount": 46,
      "authors": [
        {
          "authorId": "2522519",
          "name": "Yunseong Hwang"
        },
        {
          "authorId": "145331465",
          "name": "Anh Tong"
        },
        {
          "authorId": "7629367",
          "name": "Jaesik Choi"
        }
      ]
    },
    {
      "paperId": "396c56831c8503d7bfe7cb9cae09c3c1795e0579",
      "externalIds": {
        "ArXiv": "1511.08343",
        "DBLP": "journals/corr/HwangC15",
        "MAG": "2180094997",
        "CorpusId": 10690137
      },
      "url": "https://www.semanticscholar.org/paper/396c56831c8503d7bfe7cb9cae09c3c1795e0579",
      "title": "The Automatic Statistician: A Relational Perspective",
      "venue": "arXiv.org",
      "year": 2015,
      "referenceCount": 33,
      "citationCount": 5,
      "authors": [
        {
          "authorId": "2522519",
          "name": "Yunseong Hwang"
        },
        {
          "authorId": "7629367",
          "name": "Jaesik Choi"
        }
      ]
    },
    {
      "paperId": "c61d74519290ab66ad76b28b7d67da2808419bfa",
      "externalIds": {
        "MAG": "1605957057",
        "DBLP": "conf/pricai/2008",
        "DOI": "10.1007/978-3-540-89197-0",
        "CorpusId": 21281289
      },
      "url": "https://www.semanticscholar.org/paper/c61d74519290ab66ad76b28b7d67da2808419bfa",
      "title": "PRICAI 2008: Trends in Artificial Intelligence, 10th Pacific Rim International Conference on Artificial Intelligence, Hanoi, Vietnam, December 15-19, 2008. Proceedings",
      "venue": "Pacific Rim International Conference on Artificial Intelligence",
      "year": 2008,
      "referenceCount": 0,
      "citationCount": 48,
      "authors": [
        {
          "authorId": "1719940",
          "name": "T. Ho"
        },
        {
          "authorId": "145624000",
          "name": "Zhi-Hua Zhou"
        }
      ]
    },
    {
      "paperId": "a6c9ce757cd8765736cc0dec87d5809b13fa77c5",
      "externalIds": {
        "MAG": "563273930",
        "CorpusId": 60013717
      },
      "url": "https://www.semanticscholar.org/paper/a6c9ce757cd8765736cc0dec87d5809b13fa77c5",
      "title": "COMPSTAT : proceedings in computational statistics, 15th symposium held in Berlin, Germany, 2002",
      "venue": "",
      "year": 2002,
      "referenceCount": 0,
      "citationCount": 4,
      "authors": [
        {
          "authorId": "2015030",
          "name": "W. Härdle"
        },
        {
          "authorId": "2080504050",
          "name": "Bernd Rönz"
        }
      ]
    },
    {
      "paperId": "64c8cc4a6e384c745b9745948a92061507158828",
      "externalIds": {
        "MAG": "1583505058",
        "DBLP": "conf/ecml/2005",
        "DOI": "10.1007/11564096",
        "CorpusId": 5637411
      },
      "url": "https://www.semanticscholar.org/paper/64c8cc4a6e384c745b9745948a92061507158828",
      "title": "Machine Learning: ECML 2005, 16th European Conference on Machine Learning, Porto, Portugal, October 3-7, 2005, Proceedings",
      "venue": "European Conference on Machine Learning",
      "year": 2005,
      "referenceCount": 0,
      "citationCount": 12,
      "authors": [
        {
          "authorId": "143931014",
          "name": "João Gama"
        },
        {
          "authorId": "145733649",
          "name": "Rui Camacho"
        },
        {
          "authorId": "1712908",
          "name": "P. Brazdil"
        },
        {
          "authorId": "1772839",
          "name": "A. Jorge"
        },
        {
          "authorId": "66444903",
          "name": "Luís Torgo"
        }
      ]
    },
    {
      "paperId": "1b8f371244e5146dc3e8d6340ddf623a01e175b7",
      "externalIds": {
        "MAG": "1515202625",
        "CorpusId": 262282866
      },
      "url": "https://www.semanticscholar.org/paper/1b8f371244e5146dc3e8d6340ddf623a01e175b7",
      "title": "Advances in Knowledge Discovery and Data Mining, 12th Pacific-Asia Conference, PAKDD 2008, Osaka, Japan, May 20-23, 2008 Proceedings",
      "venue": "Pacific-Asia Conference on Knowledge Discovery and Data Mining",
      "year": 2008,
      "referenceCount": 0,
      "citationCount": 1,
      "authors": [
        {
          "authorId": "2245000229",
          "name": "Takashi Wahio"
        },
        {
          "authorId": "1690503",
          "name": "Einoshin Suzuki"
        },
        {
          "authorId": "35212893",
          "name": "K. Ting"
        },
        {
          "authorId": "2245002682",
          "name": "Akihiro Inokuchi"
        }
      ]
    },
    {
      "paperId": "772508e275e0d75b840936b8d9f6452af86c046a",
      "externalIds": {
        "MAG": "634553904",
        "DBLP": "conf/isnn/2009-4",
        "DOI": "10.1007/978-3-642-01216-7",
        "CorpusId": 39106616
      },
      "url": "https://www.semanticscholar.org/paper/772508e275e0d75b840936b8d9f6452af86c046a",
      "title": "The Sixth International Symposium on Neural Networks, ISNN 2009, Wuhan, China, May 26-29, 2009, Proceedings, Part IV",
      "venue": "International Symposium on Neural Networks",
      "year": 2009,
      "referenceCount": 0,
      "citationCount": 9,
      "authors": [
        {
          "authorId": "2108986557",
          "name": "Hongwei Wang"
        },
        {
          "authorId": "145187756",
          "name": "Yi Shen"
        },
        {
          "authorId": "50592545",
          "name": "Tingwen Huang"
        },
        {
          "authorId": "145043786",
          "name": "Z. Zeng"
        }
      ]
    },
    {
      "paperId": "680c2e84cd6dc97f0d925389facb1b9fe9c41a2c",
      "externalIds": {
        "MAG": "646754978",
        "CorpusId": 60131677
      },
      "url": "https://www.semanticscholar.org/paper/680c2e84cd6dc97f0d925389facb1b9fe9c41a2c",
      "title": "COMPSTAT : proceedings in computational statistics, 8th symposium held in Copenhagen 1988",
      "venue": "",
      "year": 1988,
      "referenceCount": 0,
      "citationCount": 0,
      "authors": [
        {
          "authorId": "145427423",
          "name": "N. Raun"
        },
        {
          "authorId": "145673139",
          "name": "D. Edwards"
        }
      ]
    },
    {
      "paperId": "841a96cfb6def89925642fb892220cfdc8970559",
      "externalIds": {
        "MAG": "1512719150",
        "DBLP": "conf/pakdd/2009",
        "CorpusId": 261088182
      },
      "url": "https://www.semanticscholar.org/paper/841a96cfb6def89925642fb892220cfdc8970559",
      "title": "Advances in Knowledge Discovery and Data Mining, 13th Pacific-Asia Conference, PAKDD 2009, Bangkok, Thailand, April 27-30, 2009, Proceedings",
      "venue": "Pacific-Asia Conference on Knowledge Discovery and Data Mining",
      "year": 2009,
      "referenceCount": 0,
      "citationCount": 1,
      "authors": [
        {
          "authorId": "1751558",
          "name": "T. Theeramunkong"
        },
        {
          "authorId": "1683540",
          "name": "B. Kijsirikul"
        },
        {
          "authorId": "2245554487",
          "name": "Nick Cercone"
        },
        {
          "authorId": "2245007266",
          "name": "T. Ho"
        }
      ]
    },
    {
      "paperId": "cc3c3f51b48b1feb1dec7fd92714ce8f9ff56bf7",
      "externalIds": {
        "MAG": "1574149514",
        "CorpusId": 60633392
      },
      "url": "https://www.semanticscholar.org/paper/cc3c3f51b48b1feb1dec7fd92714ce8f9ff56bf7",
      "title": "Research and development in knowledge discovery and data mining : Second Pacific-Asia Conference, PAKDD-98, Melbourne, Australia, April 15-17, 1998 : proceedings",
      "venue": "",
      "year": 1998,
      "referenceCount": 0,
      "citationCount": 0,
      "authors": [
        {
          "authorId": "1748808",
          "name": "Xindong Wu"
        },
        {
          "authorId": "1720142",
          "name": "K. Ramamohanarao"
        },
        {
          "authorId": "1730706",
          "name": "K. Korb"
        }
      ]
    }
  ]
}