{
  "total": 880,
  "offset": 0,
  "next": 10,
  "data": [
    {
      "paperId": "4ce25912f8f0b7bcac53cbc4d8e0ca867f2109bb",
      "externalIds": {
        "DBLP": "journals/corr/DuCLXZ17",
        "ArXiv": "1702.07944",
        "MAG": "2594203335",
        "CorpusId": 9189166
      },
      "url": "https://www.semanticscholar.org/paper/4ce25912f8f0b7bcac53cbc4d8e0ca867f2109bb",
      "title": "Stochastic Variance Reduction Methods for Policy Evaluation",
      "venue": "International Conference on Machine Learning",
      "year": 2017,
      "referenceCount": 37,
      "citationCount": 169,
      "authors": [
        {
          "authorId": "145697585",
          "name": "S. Du"
        },
        {
          "authorId": "1720246",
          "name": "Jianshu Chen"
        },
        {
          "authorId": "47681372",
          "name": "Lihong Li"
        },
        {
          "authorId": "145942106",
          "name": "Lin Xiao"
        },
        {
          "authorId": "24982365",
          "name": "Dengyong Zhou"
        }
      ]
    },
    {
      "paperId": "b14999975960871524fe531f10b1ed256b6b6703",
      "externalIds": {
        "CorpusId": 29465366
      },
      "url": "https://www.semanticscholar.org/paper/b14999975960871524fe531f10b1ed256b6b6703",
      "title": "Stochastic Variance Reduction Methods for Policy Evaluation",
      "venue": "",
      "year": 2017,
      "referenceCount": 0,
      "citationCount": 7,
      "authors": [
        {
          "authorId": "2078591744",
          "name": "A. Eigen-analysis"
        }
      ]
    },
    {
      "paperId": "a8eaa2098318cb5a5008ea9fa8042ac39886a59e",
      "externalIds": {
        "ArXiv": "2308.09604",
        "DBLP": "conf/aaai/LiuPDLLQ24",
        "DOI": "10.1609/aaai.v38i12.29300",
        "CorpusId": 261030894
      },
      "url": "https://www.semanticscholar.org/paper/a8eaa2098318cb5a5008ea9fa8042ac39886a59e",
      "title": "Faster Stochastic Variance Reduction Methods for Compositional MiniMax Optimization",
      "venue": "AAAI Conference on Artificial Intelligence",
      "year": 2023,
      "referenceCount": 52,
      "citationCount": 4,
      "authors": [
        {
          "authorId": "2232655446",
          "name": "Jin Liu"
        },
        {
          "authorId": "2115621207",
          "name": "Xiaokang Pan"
        },
        {
          "authorId": "2213554635",
          "name": "Junwen Duan"
        },
        {
          "authorId": "2232748446",
          "name": "Hongdong Li"
        },
        {
          "authorId": "2110859833",
          "name": "Youqi Li"
        },
        {
          "authorId": "2070846345",
          "name": "Zhe Qu"
        }
      ]
    },
    {
      "paperId": "5ce307297d7222addb8b498f34dec41ee79d41a1",
      "externalIds": {
        "ArXiv": "1909.06946",
        "DBLP": "journals/corr/abs-1909-06946",
        "MAG": "2972354402",
        "CorpusId": 202577675
      },
      "url": "https://www.semanticscholar.org/paper/5ce307297d7222addb8b498f34dec41ee79d41a1",
      "title": "A Stochastic Proximal Point Algorithm for Saddle-Point Problems",
      "venue": "arXiv.org",
      "year": 2019,
      "referenceCount": 38,
      "citationCount": 16,
      "authors": [
        {
          "authorId": "2020695",
          "name": "Luo Luo"
        },
        {
          "authorId": "2145775521",
          "name": "Cheng Chen"
        },
        {
          "authorId": "2110550930",
          "name": "Yujun Li"
        },
        {
          "authorId": "46211350",
          "name": "Guangzeng Xie"
        },
        {
          "authorId": "47294286",
          "name": "Zhihua Zhang"
        }
      ]
    },
    {
      "paperId": "99a501e2d7338b48c4e57a16f3c8d033b763ddfa",
      "externalIds": {
        "DBLP": "journals/tmlr/MustafinOP24",
        "ArXiv": "2211.16237",
        "DOI": "10.48550/arXiv.2211.16237",
        "CorpusId": 254069497
      },
      "url": "https://www.semanticscholar.org/paper/99a501e2d7338b48c4e57a16f3c8d033b763ddfa",
      "title": "Closing the gap between SVRG and TD-SVRG with Gradient Splitting",
      "venue": "Trans. Mach. Learn. Res.",
      "year": 2022,
      "referenceCount": 31,
      "citationCount": 3,
      "authors": [
        {
          "authorId": "2129036870",
          "name": "A. Mustafin"
        },
        {
          "authorId": "1705458",
          "name": "Alexander Olshevsky"
        },
        {
          "authorId": "1691402",
          "name": "I. Paschalidis"
        }
      ]
    },
    {
      "paperId": "9d9ef38240faef183083035ebc7b5fb364f35213",
      "externalIds": {
        "MAG": "2141448373",
        "DBLP": "conf/wsc/DionL10",
        "DOI": "10.1109/WSC.2010.5678966",
        "CorpusId": 63657
      },
      "url": "https://www.semanticscholar.org/paper/9d9ef38240faef183083035ebc7b5fb364f35213",
      "title": "American option pricing with randomized quasi-Monte Carlo simulations",
      "venue": "Proceedings of the 2010 Winter Simulation Conference",
      "year": 2010,
      "referenceCount": 44,
      "citationCount": 16,
      "authors": [
        {
          "authorId": "2065377822",
          "name": "Maxime Dion"
        },
        {
          "authorId": "115292111",
          "name": "P. L'Ecuyer"
        }
      ]
    },
    {
      "paperId": "e33700fefc7beae9524ab621ef0289e9a8fcd95c",
      "externalIds": {
        "DBLP": "journals/corr/abs-2202-07960",
        "CorpusId": 246867133
      },
      "url": "https://www.semanticscholar.org/paper/e33700fefc7beae9524ab621ef0289e9a8fcd95c",
      "title": "On a Variance Reduction Correction of the Temporal Difference for Policy Evaluation in the Stochastic Continuous Setting",
      "venue": "arXiv.org",
      "year": 2022,
      "referenceCount": 28,
      "citationCount": 2,
      "authors": [
        {
          "authorId": "66393329",
          "name": "Ziad Kobeissi"
        },
        {
          "authorId": "144570279",
          "name": "F. Bach"
        }
      ]
    },
    {
      "paperId": "3784e97b757aa1581cfd3a368ffe1fc053d1cc88",
      "externalIds": {
        "DBLP": "journals/informs/XuS24",
        "DOI": "10.1287/ijoc.2021.0324",
        "CorpusId": 266112501
      },
      "url": "https://www.semanticscholar.org/paper/3784e97b757aa1581cfd3a368ffe1fc053d1cc88",
      "title": "Ensemble Variance Reduction Methods for Stochastic Mixed-Integer Programming and their Application to the Stochastic Facility Location Problem",
      "venue": "INFORMS journal on computing",
      "year": 2023,
      "referenceCount": 11,
      "citationCount": 11,
      "authors": [
        {
          "authorId": "2238913967",
          "name": "Jiajun Xu"
        },
        {
          "authorId": "2238588572",
          "name": "Suvrajeet Sen"
        }
      ]
    },
    {
      "paperId": "cd68cc901a7d05b5218afe4f90b6599382ff7b45",
      "externalIds": {
        "ArXiv": "2603.08370",
        "CorpusId": 286376573
      },
      "url": "https://www.semanticscholar.org/paper/cd68cc901a7d05b5218afe4f90b6599382ff7b45",
      "title": "Unifying On- and Off-Policy Variance Reduction Methods",
      "venue": "",
      "year": 2026,
      "referenceCount": 24,
      "citationCount": 0,
      "authors": [
        {
          "authorId": "2355347446",
          "name": "Olivier Jeunen"
        }
      ]
    },
    {
      "paperId": "9b473ef61044c881d4e86cec71fdc971c8f0892c",
      "externalIds": {
        "DBLP": "journals/corr/abs-2309-10679",
        "ArXiv": "2309.10679",
        "DOI": "10.23919/ACC60939.2024.10644167",
        "CorpusId": 262054948
      },
      "url": "https://www.semanticscholar.org/paper/9b473ef61044c881d4e86cec71fdc971c8f0892c",
      "title": "Oracle Complexity Reduction for Model-Free LQR: A Stochastic Variance-Reduced Policy Gradient Approach",
      "venue": "American Control Conference",
      "year": 2023,
      "referenceCount": 29,
      "citationCount": 2,
      "authors": [
        {
          "authorId": "2185561609",
          "name": "Leonardo F. Toso"
        },
        {
          "authorId": "2243661133",
          "name": "Han Wang"
        },
        {
          "authorId": "2243176532",
          "name": "James Anderson"
        }
      ]
    }
  ]
}