{
  "total": 50,
  "offset": 0,
  "next": 10,
  "data": [
    {
      "paperId": "225ab689f41cef1dc18237ef5dab059a49950abf",
      "externalIds": {
        "MAG": "2963523627",
        "ArXiv": "1705.05363",
        "DBLP": "journals/corr/PathakAED17",
        "DOI": "10.1109/CVPRW.2017.70",
        "CorpusId": 20045336
      },
      "url": "https://www.semanticscholar.org/paper/225ab689f41cef1dc18237ef5dab059a49950abf",
      "title": "Curiosity-Driven Exploration by Self-Supervised Prediction",
      "venue": "2017 IEEE Conference on Computer Vision and Pattern Recognition Workshops (CVPRW)",
      "year": 2017,
      "referenceCount": 49,
      "citationCount": 2860,
      "authors": [
        {
          "authorId": "38236002",
          "name": "Deepak Pathak"
        },
        {
          "authorId": "33932184",
          "name": "Pulkit Agrawal"
        },
        {
          "authorId": "1763086",
          "name": "Alexei A. Efros"
        },
        {
          "authorId": "1753210",
          "name": "Trevor Darrell"
        }
      ]
    },
    {
      "paperId": "357f960bdf44ffb8a2facbb7ccb4ec6606b90238",
      "externalIds": {
        "DOI": "10.1109/DOCS63458.2024.10704242",
        "CorpusId": 273240676
      },
      "url": "https://www.semanticscholar.org/paper/357f960bdf44ffb8a2facbb7ccb4ec6606b90238",
      "title": "Intrinsic Motivation Exploration via Self-Supervised Prediction in Reinforcement Learning",
      "venue": "2024 6th International Conference on Data-driven Optimization of Complex Systems (DOCS)",
      "year": 2024,
      "referenceCount": 27,
      "citationCount": 1,
      "authors": [
        {
          "authorId": "2325787243",
          "name": "Zhiyou Yang"
        },
        {
          "authorId": "2325812363",
          "name": "Hongfei Du"
        },
        {
          "authorId": "2325467270",
          "name": "Yunhan Wu"
        },
        {
          "authorId": "2359589508",
          "name": "Zhuotong Jiang"
        },
        {
          "authorId": "2155489805",
          "name": "Hong Qu"
        }
      ]
    },
    {
      "paperId": "b10d5bcf0c41a00c8fae0f6862120b22e9cbf6d2",
      "externalIds": {
        "DBLP": "journals/computers/FarooqRWAWL25",
        "DOI": "10.3390/computers14100434",
        "CorpusId": 282187311
      },
      "url": "https://www.semanticscholar.org/paper/b10d5bcf0c41a00c8fae0f6862120b22e9cbf6d2",
      "title": "Curiosity-Driven Exploration in Reinforcement Learning: An Adaptive Self-Supervised Learning Approach for Playing Action Games",
      "venue": "De Computis",
      "year": 2025,
      "referenceCount": 63,
      "citationCount": 4,
      "authors": [
        {
          "authorId": "3209011",
          "name": "S. Farooq"
        },
        {
          "authorId": "2293612468",
          "name": "Hameedur Rahman"
        },
        {
          "authorId": "2198823395",
          "name": "Samiya Abdul Wahid"
        },
        {
          "authorId": "2384022491",
          "name": "Muhammad Alyan Ansari"
        },
        {
          "authorId": "2389170154",
          "name": "S. Wahid"
        },
        {
          "authorId": "3213436",
          "name": "Hosu Lee"
        }
      ]
    },
    {
      "paperId": "309fdeb3ca8d8f60a66390ace2290731c067595a",
      "externalIds": {
        "DBLP": "journals/corr/abs-2509-20648",
        "ArXiv": "2509.20648",
        "DOI": "10.48550/arXiv.2509.20648",
        "CorpusId": 281525435
      },
      "url": "https://www.semanticscholar.org/paper/309fdeb3ca8d8f60a66390ace2290731c067595a",
      "title": "Wonder Wins Ways: Curiosity-Driven Exploration through Multi-Agent Contextual Calibration",
      "venue": "arXiv.org",
      "year": 2025,
      "referenceCount": 45,
      "citationCount": 3,
      "authors": [
        {
          "authorId": "2316526437",
          "name": "Yiyuan Pan"
        },
        {
          "authorId": "2274060921",
          "name": "Zhe Liu"
        },
        {
          "authorId": "2316674851",
          "name": "Hesheng Wang"
        }
      ]
    },
    {
      "paperId": "e1609282cb724303f647eb0c99dc4e2bac65fffb",
      "externalIds": {
        "DBLP": "journals/corr/abs-2204-00035",
        "ArXiv": "2204.00035",
        "DOI": "10.48550/arXiv.2204.00035",
        "CorpusId": 247922549
      },
      "url": "https://www.semanticscholar.org/paper/e1609282cb724303f647eb0c99dc4e2bac65fffb",
      "title": "Curiosity Driven Self-supervised Tactile Exploration of Unknown Objects",
      "venue": "arXiv.org",
      "year": 2022,
      "referenceCount": 55,
      "citationCount": 4,
      "authors": [
        {
          "authorId": "47006228",
          "name": "Yujie Lu"
        },
        {
          "authorId": "2966240",
          "name": "Jianren Wang"
        },
        {
          "authorId": "2109446216",
          "name": "Vikash Kumar"
        }
      ]
    },
    {
      "paperId": "1e813c414b1beb93920d4031bd8472898a8d3886",
      "externalIds": {
        "PubMedCentral": "11527316",
        "DBLP": "journals/ploscb/PoliKVRMMRH24",
        "DOI": "10.1371/journal.pcbi.1012453",
        "CorpusId": 273750319,
        "PubMed": "39480751"
      },
      "url": "https://www.semanticscholar.org/paper/1e813c414b1beb93920d4031bd8472898a8d3886",
      "title": "Autistic traits foster effective curiosity-driven exploration",
      "venue": "PLoS Comput. Biol.",
      "year": 2024,
      "referenceCount": 62,
      "citationCount": 8,
      "authors": [
        {
          "authorId": "2062339710",
          "name": "F. Poli"
        },
        {
          "authorId": "2328634864",
          "name": "Maran Koolen"
        },
        {
          "authorId": "2223982460",
          "name": "Carlos A. Velázquez-Vargas"
        },
        {
          "authorId": "2314171541",
          "name": "Jessica Ramos-Sanchez"
        },
        {
          "authorId": "50410115",
          "name": "M. Meyer"
        },
        {
          "authorId": "2720394",
          "name": "R. Mars"
        },
        {
          "authorId": "2328634855",
          "name": "Nanda Rommelse"
        },
        {
          "authorId": "2252500987",
          "name": "S. Hunnius"
        }
      ]
    },
    {
      "paperId": "d9247b9eeedc5ef03efd31c0def31980d9a6a681",
      "externalIds": {
        "ArXiv": "2401.06771",
        "DBLP": "journals/corr/abs-2401-06771",
        "DOI": "10.1109/ICITRI59340.2023.10249596",
        "CorpusId": 262075254
      },
      "url": "https://www.semanticscholar.org/paper/d9247b9eeedc5ef03efd31c0def31980d9a6a681",
      "title": "Curiosity as a Self-Supervised Method to Improve Exploration in De Novo Drug Design",
      "venue": "2023 International Conference on Information Technology Research and Innovation (ICITRI)",
      "year": 2023,
      "referenceCount": 33,
      "citationCount": 2,
      "authors": [
        {
          "authorId": "104856634",
          "name": "M. Chadi"
        },
        {
          "authorId": "2431019",
          "name": "H. Mousannif"
        },
        {
          "authorId": "2242943445",
          "name": "Ahmed Aamouche"
        }
      ]
    },
    {
      "paperId": "475abace4df6644a65f888f6e4b6e569031c90e9",
      "externalIds": {
        "DBLP": "journals/corr/abs-2502-01809",
        "ArXiv": "2502.01809",
        "DOI": "10.48550/arXiv.2502.01809",
        "CorpusId": 276107031
      },
      "url": "https://www.semanticscholar.org/paper/475abace4df6644a65f888f6e4b6e569031c90e9",
      "title": "Self-supervised Subgraph Neural Network With Deep Reinforcement Walk Exploration",
      "venue": "arXiv.org",
      "year": 2025,
      "referenceCount": 0,
      "citationCount": 0,
      "authors": [
        {
          "authorId": "2135655989",
          "name": "Jianming Huang"
        },
        {
          "authorId": "2261672082",
          "name": "Hiroyuki Kasai"
        }
      ]
    },
    {
      "paperId": "98a6e5c8846016837fbf54f486671dd777b64d5c",
      "externalIds": {
        "DOI": "10.1007/s11053-024-10335-3",
        "CorpusId": 269960935
      },
      "url": "https://www.semanticscholar.org/paper/98a6e5c8846016837fbf54f486671dd777b64d5c",
      "title": "Mineral Prospectivity Prediction Based on Self-Supervised Contrastive Learning and Geochemical Data: A Case Study of the Gold Deposit in the Malanyu District, Hebei Province, China",
      "venue": "Natural Resources Research",
      "year": 2024,
      "referenceCount": 47,
      "citationCount": 5,
      "authors": [
        {
          "authorId": "115396033",
          "name": "Qunfeng Miao"
        },
        {
          "authorId": "2302703677",
          "name": "Pan Wang"
        },
        {
          "authorId": "2261675199",
          "name": "Hengqian Zhao"
        },
        {
          "authorId": "2109752925",
          "name": "Zhibin Li"
        },
        {
          "authorId": "2380447181",
          "name": "Yunfei Qi"
        },
        {
          "authorId": "2303241172",
          "name": "Jihua Mao"
        },
        {
          "authorId": "2254856659",
          "name": "Meiyu Li"
        },
        {
          "authorId": "2302648546",
          "name": "Guanglong Tang"
        }
      ]
    },
    {
      "paperId": "585ce6b0a8e14d7214d067bb58741979f805c892",
      "externalIds": {
        "MAG": "2955343573",
        "DOI": "10.11517/PJSAI.JSAI2019.0_2H4E201",
        "CorpusId": 198337534
      },
      "url": "https://www.semanticscholar.org/paper/585ce6b0a8e14d7214d067bb58741979f805c892",
      "title": "Curiosity Driven by Self Capability Prediction",
      "venue": "",
      "year": 2019,
      "referenceCount": 9,
      "citationCount": 0,
      "authors": [
        {
          "authorId": "32823060",
          "name": "Nicolas Bougie"
        }
      ]
    }
  ]
}