{
  "total": 104,
  "offset": 0,
  "next": 10,
  "data": [
    {
      "paperId": "799dd570e04bc96d0d6ed51497d9dec6bfaa886e",
      "externalIds": {
        "MAG": "2626373159",
        "DBLP": "journals/corr/HuangALS17",
        "ArXiv": "1706.04964",
        "CorpusId": 2187071
      },
      "url": "https://www.semanticscholar.org/paper/799dd570e04bc96d0d6ed51497d9dec6bfaa886e",
      "title": "Learning Deep ResNet Blocks Sequentially using Boosting Theory",
      "venue": "International Conference on Machine Learning",
      "year": 2017,
      "referenceCount": 48,
      "citationCount": 119,
      "authors": [
        {
          "authorId": "2117426487",
          "name": "Furong Huang"
        },
        {
          "authorId": "40401847",
          "name": "J. Ash"
        },
        {
          "authorId": "144162125",
          "name": "J. Langford"
        },
        {
          "authorId": "1716301",
          "name": "R. Schapire"
        }
      ]
    },
    {
      "paperId": "899fb5f48250dafa8d8016384109589e76fe8ed4",
      "externalIds": {
        "CorpusId": 20714902
      },
      "url": "https://www.semanticscholar.org/paper/899fb5f48250dafa8d8016384109589e76fe8ed4",
      "title": "LEARNING DEEP RESNET BLOCKS SEQUENTIALLY",
      "venue": "",
      "year": 2017,
      "referenceCount": 38,
      "citationCount": 1,
      "authors": []
    },
    {
      "paperId": "6bbf5d2ffa9d0876b269b4f4b00b0c914c1454f4",
      "externalIds": {
        "DOI": "10.3390/f16071198",
        "CorpusId": 280183388
      },
      "url": "https://www.semanticscholar.org/paper/6bbf5d2ffa9d0876b269b4f4b00b0c914c1454f4",
      "title": "Estimating Forest Carbon Stock Using Enhanced ResNet and Sentinel-2 Imagery",
      "venue": "Forests",
      "year": 2025,
      "referenceCount": 81,
      "citationCount": 4,
      "authors": [
        {
          "authorId": "2350313681",
          "name": "Jintong Ren"
        },
        {
          "authorId": "2316787640",
          "name": "Lizhi Liu"
        },
        {
          "authorId": "2374272830",
          "name": "You Wu"
        },
        {
          "authorId": "2161558157",
          "name": "Lijian Ouyang"
        },
        {
          "authorId": "152248949",
          "name": "Zhenyu Yu"
        }
      ]
    },
    {
      "paperId": "18c19aa2d4f8d58845a76943ec2536002382cbc8",
      "externalIds": {
        "DOI": "10.21015/vtse.v13i3.2230",
        "CorpusId": 281854348
      },
      "url": "https://www.semanticscholar.org/paper/18c19aa2d4f8d58845a76943ec2536002382cbc8",
      "title": "A Novel Approach toward Windspeed Forecasting using an Advanced Deep Learning Framework with Explainable AI",
      "venue": "VFAST Transactions on Software Engineering",
      "year": 2025,
      "referenceCount": 18,
      "citationCount": 11,
      "authors": [
        {
          "authorId": "115338385",
          "name": "Syed Azeem Inam"
        },
        {
          "authorId": "2278305241",
          "name": "Hassan Hashim"
        },
        {
          "authorId": "2381218777",
          "name": "Asif Mehmood Awan"
        },
        {
          "authorId": "2381218461",
          "name": "Haider Rajput"
        },
        {
          "authorId": "2381221903",
          "name": "Saddam Umer"
        }
      ]
    },
    {
      "paperId": "e0f35506167c3e8d44a4bf74e0ebc16881aa9d8e",
      "externalIds": {
        "DOI": "10.1109/ICECIT67774.2025.11451035",
        "CorpusId": 287005267
      },
      "url": "https://www.semanticscholar.org/paper/e0f35506167c3e8d44a4bf74e0ebc16881aa9d8e",
      "title": "Hybrid Deep Learning and Gradient Boosting Framework for Robust Inflation Forecasting",
      "venue": "2025 International Conference On Emerging Computation and Information Technologies (ICECIT)",
      "year": 2025,
      "referenceCount": 15,
      "citationCount": 0,
      "authors": [
        {
          "authorId": "143757622",
          "name": "S. K. Nanda"
        },
        {
          "authorId": "2047250093",
          "name": "Navaneetha Krishnan Rajagopal"
        },
        {
          "authorId": "2426217582",
          "name": "D. Shanmugam"
        },
        {
          "authorId": "77840867",
          "name": "V. Manimegalai"
        },
        {
          "authorId": "2377118799",
          "name": "M. Dharani"
        },
        {
          "authorId": "2325620864",
          "name": "M. Begum"
        }
      ]
    },
    {
      "paperId": "8a9ebaa7743c691951152043bd443c0a05414326",
      "externalIds": {
        "DBLP": "conf/avss/SinghP25",
        "DOI": "10.1109/AVSS65446.2025.11149952",
        "CorpusId": 281245073
      },
      "url": "https://www.semanticscholar.org/paper/8a9ebaa7743c691951152043bd443c0a05414326",
      "title": "Boosting Deepfake Video Detection Using Non-Local Attention and Sharpness-Aware Minimization",
      "venue": "Advanced Video and Signal Based Surveillance",
      "year": 2025,
      "referenceCount": 33,
      "citationCount": 0,
      "authors": [
        {
          "authorId": "2295512563",
          "name": "Pratibha Singh"
        },
        {
          "authorId": "2654478",
          "name": "Vinod Pankajakshan"
        }
      ]
    },
    {
      "paperId": "58273bc1c18bef4754b35967835c559bb80e3130",
      "externalIds": {
        "DBLP": "journals/corr/abs-2501-18283",
        "ArXiv": "2501.18283",
        "DOI": "10.48550/arXiv.2501.18283",
        "CorpusId": 275994110
      },
      "url": "https://www.semanticscholar.org/paper/58273bc1c18bef4754b35967835c559bb80e3130",
      "title": "Random Feature Representation Boosting",
      "venue": "International Conference on Machine Learning",
      "year": 2025,
      "referenceCount": 89,
      "citationCount": 4,
      "authors": [
        {
          "authorId": "2311500259",
          "name": "Nikita Zozoulenko"
        },
        {
          "authorId": "2311501860",
          "name": "Thomas Cass"
        },
        {
          "authorId": "49110267",
          "name": "Lukas Gonon"
        }
      ]
    },
    {
      "paperId": "b5d9ee2b8ff6588003adda29da157f91d72568f8",
      "externalIds": {
        "DBLP": "journals/access/DirekogluS25",
        "DOI": "10.1109/ACCESS.2025.3592037",
        "CorpusId": 280344120
      },
      "url": "https://www.semanticscholar.org/paper/b5d9ee2b8ff6588003adda29da157f91d72568f8",
      "title": "Quantum Vision Theory in Deep Learning for Object Recognition",
      "venue": "IEEE Access",
      "year": 2025,
      "referenceCount": 38,
      "citationCount": 1,
      "authors": [
        {
          "authorId": "1693835",
          "name": "Cem Direkoǧlu"
        },
        {
          "authorId": "144517467",
          "name": "Melike Šah"
        }
      ]
    },
    {
      "paperId": "3488af7b4c09ef88e727548f37ff6ccfa29349b4",
      "externalIds": {
        "DBLP": "journals/access/KathayatR25",
        "DOI": "10.1109/ACCESS.2025.3605279",
        "CorpusId": 281129418
      },
      "url": "https://www.semanticscholar.org/paper/3488af7b4c09ef88e727548f37ff6ccfa29349b4",
      "title": "Hybrid Deep Learning Model for Scalogram-Based ECG Classification of Cardiovascular Diseases",
      "venue": "IEEE Access",
      "year": 2025,
      "referenceCount": 21,
      "citationCount": 0,
      "authors": [
        {
          "authorId": "2380697520",
          "name": "Neeraj Singh Kathayat"
        },
        {
          "authorId": "2293819607",
          "name": "A. P. Renold"
        }
      ]
    },
    {
      "paperId": "46bc5b59e8b18aaf76134236a18285a7c66d03f5",
      "externalIds": {
        "DBLP": "conf/embc/MarcosQBA22",
        "DOI": "10.1109/EMBC48229.2022.9870993",
        "CorpusId": 252166127,
        "PubMed": "36086586"
      },
      "url": "https://www.semanticscholar.org/paper/46bc5b59e8b18aaf76134236a18285a7c66d03f5",
      "title": "Dilated Convolution ResNet with Boosting Attention Modules and Combined Loss Functions for LDCT Image Denoising",
      "venue": "Annual International Conference of the IEEE Engineering in Medicine and Biology Society",
      "year": 2022,
      "referenceCount": 15,
      "citationCount": 9,
      "authors": [
        {
          "authorId": "2142974409",
          "name": "Luella Marcos"
        },
        {
          "authorId": "1836223",
          "name": "F. Quint"
        },
        {
          "authorId": "14655510",
          "name": "P. Babyn"
        },
        {
          "authorId": "2041742",
          "name": "J. Alirezaie"
        }
      ]
    }
  ]
}