{
  "total": 265,
  "offset": 0,
  "next": 10,
  "data": [
    {
      "paperId": "c37b6e41d8e9b7a322a77441c52601581f1ce422",
      "externalIds": {
        "DBLP": "conf/icml/Villacampa-Calvo17",
        "ArXiv": "1706.07258",
        "MAG": "2951406811",
        "CorpusId": 19544131
      },
      "url": "https://www.semanticscholar.org/paper/c37b6e41d8e9b7a322a77441c52601581f1ce422",
      "title": "Scalable Multi-Class Gaussian Process Classification using Expectation Propagation",
      "venue": "International Conference on Machine Learning",
      "year": 2017,
      "referenceCount": 30,
      "citationCount": 20,
      "authors": [
        {
          "authorId": "1416838741",
          "name": "Carlos Villacampa-Calvo"
        },
        {
          "authorId": "1388574404",
          "name": "D. Hernández-Lobato"
        }
      ]
    },
    {
      "paperId": "13e1a43215b578e6ca31ea9ed5510eab2cdb6609",
      "externalIds": {
        "DBLP": "journals/ijon/Villacampa-Calvo20",
        "MAG": "2982286341",
        "DOI": "10.1016/j.neucom.2019.09.090",
        "CorpusId": 209941840
      },
      "url": "https://www.semanticscholar.org/paper/13e1a43215b578e6ca31ea9ed5510eab2cdb6609",
      "title": "Alpha divergence minimization in multi-class Gaussian process classification",
      "venue": "Neurocomputing",
      "year": 2020,
      "referenceCount": 39,
      "citationCount": 14,
      "authors": [
        {
          "authorId": "1416838741",
          "name": "Carlos Villacampa-Calvo"
        },
        {
          "authorId": "1388574404",
          "name": "D. Hernández-Lobato"
        }
      ]
    },
    {
      "paperId": "6d0b1a815f564262ebaf3706ebb1ca28b36f03c1",
      "externalIds": {
        "MAG": "2113571038",
        "DBLP": "conf/nips/Hernandez-LobatoHD11",
        "CorpusId": 817700
      },
      "url": "https://www.semanticscholar.org/paper/6d0b1a815f564262ebaf3706ebb1ca28b36f03c1",
      "title": "Robust Multi-Class Gaussian Process Classification",
      "venue": "Neural Information Processing Systems",
      "year": 2011,
      "referenceCount": 18,
      "citationCount": 69,
      "authors": [
        {
          "authorId": "1388574404",
          "name": "D. Hernández-Lobato"
        },
        {
          "authorId": "1388574431",
          "name": "José Miguel Hernández-Lobato"
        },
        {
          "authorId": "144487460",
          "name": "P. Dupont"
        }
      ]
    },
    {
      "paperId": "8de03e21a0ec3c6930f30950b896674ee2010082",
      "externalIds": {
        "MAG": "2953383968",
        "DBLP": "conf/aistats/Hernandez-Lobato16",
        "ArXiv": "1507.04513",
        "CorpusId": 8149268
      },
      "url": "https://www.semanticscholar.org/paper/8de03e21a0ec3c6930f30950b896674ee2010082",
      "title": "Scalable Gaussian Process Classification via Expectation Propagation",
      "venue": "International Conference on Artificial Intelligence and Statistics",
      "year": 2015,
      "referenceCount": 30,
      "citationCount": 54,
      "authors": [
        {
          "authorId": "1388574404",
          "name": "D. Hernández-Lobato"
        },
        {
          "authorId": "1388574431",
          "name": "José Miguel Hernández-Lobato"
        }
      ]
    },
    {
      "paperId": "bbc8928d933ce41013ec4e67498b7eeda0da781f",
      "externalIds": {
        "DOI": "10.1109/tdei.2021.009470",
        "CorpusId": 240460664
      },
      "url": "https://www.semanticscholar.org/paper/bbc8928d933ce41013ec4e67498b7eeda0da781f",
      "title": "Gaussian Process Multi-Class Classification for Transformer Fault Diagnosis Using Dissolved Gas Analysis",
      "venue": "IEEE transactions on dielectrics and electrical insulation",
      "year": 2021,
      "referenceCount": 0,
      "citationCount": 34,
      "authors": [
        {
          "authorId": "2144737170",
          "name": "Lin Wang"
        },
        {
          "authorId": "1683934",
          "name": "T. Littler"
        },
        {
          "authorId": "49543850",
          "name": "X. Liu"
        }
      ]
    },
    {
      "paperId": "f4b41879f846507ecfd709e67f97e1e5fde898b4",
      "externalIds": {
        "DBLP": "journals/ml/MaA23",
        "DOI": "10.1007/s10994-022-06289-3",
        "CorpusId": 256750826
      },
      "url": "https://www.semanticscholar.org/paper/f4b41879f846507ecfd709e67f97e1e5fde898b4",
      "title": "Large scale multi-output multi-class classification using Gaussian processes",
      "venue": "Machine-mediated learning",
      "year": 2023,
      "referenceCount": 34,
      "citationCount": 6,
      "authors": [
        {
          "authorId": "3241877",
          "name": "Chunchao Ma"
        },
        {
          "authorId": "144491954",
          "name": "Mauricio A Álvarez"
        }
      ]
    },
    {
      "paperId": "1f4f7e88aed4d555594ce2fb0e99bd4593b37b4a",
      "externalIds": {
        "MAG": "2951285466",
        "ArXiv": "1207.3649",
        "CorpusId": 15078310
      },
      "url": "https://www.semanticscholar.org/paper/1f4f7e88aed4d555594ce2fb0e99bd4593b37b4a",
      "title": "Nested Expectation Propagation for Gaussian Process Classification with a Multinomial Probit Likelihood",
      "venue": "",
      "year": 2012,
      "referenceCount": 29,
      "citationCount": 50,
      "authors": [
        {
          "authorId": "2740218",
          "name": "J. Riihimaki"
        },
        {
          "authorId": "47207045",
          "name": "Pasi Jylanki"
        },
        {
          "authorId": "3104170",
          "name": "Aki Vehtari"
        }
      ]
    },
    {
      "paperId": "9146d29dce981156f27a764205487e68c3cfe3f5",
      "externalIds": {
        "MAG": "1583700866",
        "DBLP": "journals/jmlr/RiihimakiJV13",
        "DOI": "10.5555/2567709.2502584",
        "CorpusId": 42087804
      },
      "url": "https://www.semanticscholar.org/paper/9146d29dce981156f27a764205487e68c3cfe3f5",
      "title": "Nested expectation propagation for Gaussian process classification",
      "venue": "Journal of machine learning research",
      "year": 2013,
      "referenceCount": 27,
      "citationCount": 15,
      "authors": [
        {
          "authorId": "40500935",
          "name": "J. Riihimäki"
        },
        {
          "authorId": "2206678",
          "name": "Pasi Jylänki"
        },
        {
          "authorId": "3104170",
          "name": "Aki Vehtari"
        }
      ]
    },
    {
      "paperId": "934d7731b1b5853223b5634d602b4e2d12b40091",
      "externalIds": {
        "DBLP": "conf/pkdd/WistubaR19",
        "MAG": "3022796796",
        "DOI": "10.1007/978-3-030-46147-8_30",
        "CorpusId": 218489744
      },
      "url": "https://www.semanticscholar.org/paper/934d7731b1b5853223b5634d602b4e2d12b40091",
      "title": "Scalable Large Margin Gaussian Process Classification",
      "venue": "ECML/PKDD",
      "year": 2019,
      "referenceCount": 36,
      "citationCount": 2,
      "authors": [
        {
          "authorId": "2794970",
          "name": "Martin Wistuba"
        },
        {
          "authorId": "22261698",
          "name": "Ambrish Rawat"
        }
      ]
    },
    {
      "paperId": "2e8b870ec73856ad57c6cb4a20b1be86446e441b",
      "externalIds": {
        "DBLP": "journals/pami/KimG06",
        "MAG": "2128973832",
        "DOI": "10.1109/TPAMI.2006.238",
        "CorpusId": 2548370,
        "PubMed": "17108369"
      },
      "url": "https://www.semanticscholar.org/paper/2e8b870ec73856ad57c6cb4a20b1be86446e441b",
      "title": "Bayesian Gaussian Process Classification with the EM-EP Algorithm",
      "venue": "IEEE Transactions on Pattern Analysis and Machine Intelligence",
      "year": 2006,
      "referenceCount": 35,
      "citationCount": 148,
      "authors": [
        {
          "authorId": "2109615811",
          "name": "Hyun-Chul Kim"
        },
        {
          "authorId": "1744700",
          "name": "Zoubin Ghahramani"
        }
      ]
    }
  ]
}