{
  "total": 1838,
  "offset": 0,
  "next": 10,
  "data": [
    {
      "paperId": "ff44d3c0b0d7a5c9efded13db41f688c7c85e74d",
      "externalIds": {
        "ArXiv": "1806.04245",
        "MAG": "2964294328",
        "DBLP": "journals/corr/abs-1806-04245",
        "CorpusId": 48361488
      },
      "url": "https://www.semanticscholar.org/paper/ff44d3c0b0d7a5c9efded13db41f688c7c85e74d",
      "title": "Learning to Speed Up Structured Output Prediction",
      "venue": "International Conference on Machine Learning",
      "year": 2018,
      "referenceCount": 34,
      "citationCount": 7,
      "authors": [
        {
          "authorId": "3265780",
          "name": "Xingyuan Pan"
        },
        {
          "authorId": "3052879",
          "name": "Vivek Srikumar"
        }
      ]
    },
    {
      "paperId": "58dc530b84ba74a88956cfd51fc88aa803f2f83a",
      "externalIds": {
        "DBLP": "journals/access/ZhangSTW19",
        "MAG": "2961142340",
        "DOI": "10.1109/ACCESS.2019.2927693",
        "CorpusId": 199007895
      },
      "url": "https://www.semanticscholar.org/paper/58dc530b84ba74a88956cfd51fc88aa803f2f83a",
      "title": "Structured Output Prediction Using Privileged Information",
      "venue": "IEEE Access",
      "year": 2019,
      "referenceCount": 23,
      "citationCount": 1,
      "authors": [
        {
          "authorId": "2868974",
          "name": "Chunhua Zhang"
        },
        {
          "authorId": "2115316578",
          "name": "Shiding Sun"
        },
        {
          "authorId": "143790318",
          "name": "Ying-jie Tian"
        },
        {
          "authorId": "2088511",
          "name": "Zeyuan Wang"
        }
      ]
    },
    {
      "paperId": "8693d6722673765c75020643735e4a4fe2554d01",
      "externalIds": {
        "DOI": "10.3390/machines13070570",
        "CorpusId": 279845325
      },
      "url": "https://www.semanticscholar.org/paper/8693d6722673765c75020643735e4a4fe2554d01",
      "title": "Ensemble Learning-Based Metamodel for Enhanced Surface Roughness Prediction in Polymeric Machining",
      "venue": "Machines",
      "year": 2025,
      "referenceCount": 43,
      "citationCount": 6,
      "authors": [
        {
          "authorId": "145394556",
          "name": "Elango Natarajan"
        },
        {
          "authorId": "1391523032",
          "name": "M. Ramasamy"
        },
        {
          "authorId": "40477044",
          "name": "S. Elango"
        },
        {
          "authorId": "2153748820",
          "name": "Karthikeyan Mohanraj"
        },
        {
          "authorId": "49447067",
          "name": "C. Ang"
        },
        {
          "authorId": "2304612425",
          "name": "A. Khalfallah"
        }
      ]
    },
    {
      "paperId": "b34e44d48c35750456d50d225c026536596b83fa",
      "externalIds": {
        "DBLP": "journals/corr/abs-1803-03376",
        "MAG": "2950885890",
        "ArXiv": "1803.03376",
        "CorpusId": 3790787
      },
      "url": "https://www.semanticscholar.org/paper/b34e44d48c35750456d50d225c026536596b83fa",
      "title": "Learning Approximate Inference Networks for Structured Prediction",
      "venue": "International Conference on Learning Representations",
      "year": 2018,
      "referenceCount": 46,
      "citationCount": 54,
      "authors": [
        {
          "authorId": "3376969",
          "name": "Lifu Tu"
        },
        {
          "authorId": "1700980",
          "name": "Kevin Gimpel"
        }
      ]
    },
    {
      "paperId": "9884278e08212632861e1fb8c289d1054557c300",
      "externalIds": {
        "MAG": "2965450789",
        "DBLP": "conf/ijcai/0001CDIDR19",
        "DOI": "10.24963/ijcai.2019/713",
        "CorpusId": 199465905
      },
      "url": "https://www.semanticscholar.org/paper/9884278e08212632861e1fb8c289d1054557c300",
      "title": "Randomized Greedy Search for Structured Prediction: Amortized Inference and Learning",
      "venue": "International Joint Conference on Artificial Intelligence",
      "year": 2019,
      "referenceCount": 36,
      "citationCount": 3,
      "authors": [
        {
          "authorId": "2112662072",
          "name": "Chao Ma"
        },
        {
          "authorId": "35774662",
          "name": "F. R. Chowdhury"
        },
        {
          "authorId": "151474453",
          "name": "Aryan Deshwal"
        },
        {
          "authorId": "2589314",
          "name": "M. R. Islam"
        },
        {
          "authorId": "2089333",
          "name": "J. Doppa"
        },
        {
          "authorId": "144590225",
          "name": "Dan Roth"
        }
      ]
    },
    {
      "paperId": "d84f158b54cffbab0e5976885c0f31ee90b47bde",
      "externalIds": {
        "DBLP": "journals/tvt/XiaXZW20",
        "MAG": "3002914655",
        "DOI": "10.1109/tvt.2020.2968637",
        "CorpusId": 213070760
      },
      "url": "https://www.semanticscholar.org/paper/d84f158b54cffbab0e5976885c0f31ee90b47bde",
      "title": "Learning the Time-Varying Massive MIMO Channels: Robust Estimation and Data-Aided Prediction",
      "venue": "IEEE Transactions on Vehicular Technology",
      "year": 2020,
      "referenceCount": 32,
      "citationCount": 34,
      "authors": [
        {
          "authorId": "1681740",
          "name": "Xiaochen Xia"
        },
        {
          "authorId": "145366579",
          "name": "Kui Xu"
        },
        {
          "authorId": "2111078327",
          "name": "Shaobo Zhao"
        },
        {
          "authorId": "2107935309",
          "name": "Yurong Wang"
        }
      ]
    },
    {
      "paperId": "a10c394cfd22eb0213e36973abd72c27f673cc57",
      "externalIds": {
        "MAG": "2963053969",
        "DBLP": "journals/corr/SokolovKR16",
        "ArXiv": "1606.00739",
        "CorpusId": 57680
      },
      "url": "https://www.semanticscholar.org/paper/a10c394cfd22eb0213e36973abd72c27f673cc57",
      "title": "Stochastic Structured Prediction under Bandit Feedback",
      "venue": "Neural Information Processing Systems",
      "year": 2016,
      "referenceCount": 33,
      "citationCount": 31,
      "authors": [
        {
          "authorId": "2297341",
          "name": "Artem Sokolov"
        },
        {
          "authorId": "3422710",
          "name": "Julia Kreutzer"
        },
        {
          "authorId": "3289329",
          "name": "S. Riezler"
        },
        {
          "authorId": "2069095709",
          "name": "Christopher Lo"
        }
      ]
    },
    {
      "paperId": "f0e9c96d42839c196293148e27d9f5710017ded8",
      "externalIds": {
        "MAG": "2341060221",
        "CorpusId": 15030409
      },
      "url": "https://www.semanticscholar.org/paper/f0e9c96d42839c196293148e27d9f5710017ded8",
      "title": "Structured Prediction with Perceptron: Theory and Algorithms",
      "venue": "",
      "year": 2014,
      "referenceCount": 35,
      "citationCount": 3,
      "authors": [
        {
          "authorId": "2074108341",
          "name": "Kai Zhao"
        }
      ]
    },
    {
      "paperId": "d1dfee1b1ab2655f154c31c1c88844859d91b63c",
      "externalIds": {
        "CorpusId": 500075
      },
      "url": "https://www.semanticscholar.org/paper/d1dfee1b1ab2655f154c31c1c88844859d91b63c",
      "title": "Learning Speed-Accuracy Tradeoffs in Nondeterministic Inference Algorithms",
      "venue": "",
      "year": 2011,
      "referenceCount": 11,
      "citationCount": 6,
      "authors": [
        {
          "authorId": "145043214",
          "name": "Jason Eisner"
        },
        {
          "authorId": "1722360",
          "name": "Hal Daumé"
        }
      ]
    },
    {
      "paperId": "c2edff20f0f64c2becbfb0c6365f9f2018d0ada5",
      "externalIds": {
        "MAG": "2182259890",
        "DBLP": "conf/dsaa/DuarteG15",
        "DOI": "10.1109/DSAA.2015.7344900",
        "CorpusId": 18262582
      },
      "url": "https://www.semanticscholar.org/paper/c2edff20f0f64c2becbfb0c6365f9f2018d0ada5",
      "title": "Multi-target regression from high-speed data streams with adaptive model rules",
      "venue": "International Conference on Data Science and Advanced Analytics",
      "year": 2015,
      "referenceCount": 26,
      "citationCount": 19,
      "authors": [
        {
          "authorId": "143991357",
          "name": "J. Duarte"
        },
        {
          "authorId": "143931014",
          "name": "João Gama"
        }
      ]
    }
  ]
}