{
  "total": 248221,
  "offset": 0,
  "next": 10,
  "data": [
    {
      "paperId": "f774cdbaa9f55aad3da680198d76acb7347258d1",
      "externalIds": {
        "ArXiv": "1806.06616",
        "DBLP": "conf/icml/HaghiriGL18",
        "MAG": "2963077570",
        "CorpusId": 49303271
      },
      "url": "https://www.semanticscholar.org/paper/f774cdbaa9f55aad3da680198d76acb7347258d1",
      "title": "Comparison-Based Random Forests",
      "venue": "International Conference on Machine Learning",
      "year": 2018,
      "referenceCount": 38,
      "citationCount": 26,
      "authors": [
        {
          "authorId": "1845169",
          "name": "Siavash Haghiri"
        },
        {
          "authorId": "29817320",
          "name": "D. Garreau"
        },
        {
          "authorId": "1728654",
          "name": "U. V. Luxburg"
        }
      ]
    },
    {
      "paperId": "0df03a2fdfc99a9f4bd835ceaba0fed2738e82a4",
      "externalIds": {
        "CorpusId": 53137874
      },
      "url": "https://www.semanticscholar.org/paper/0df03a2fdfc99a9f4bd835ceaba0fed2738e82a4",
      "title": "Supplementary material for the article : Comparison-Based Random Forests",
      "venue": "",
      "year": 2018,
      "referenceCount": 3,
      "citationCount": 0,
      "authors": [
        {
          "authorId": "1845169",
          "name": "Siavash Haghiri"
        },
        {
          "authorId": "29817320",
          "name": "D. Garreau"
        },
        {
          "authorId": "1728654",
          "name": "U. V. Luxburg"
        }
      ]
    },
    {
      "paperId": "5c9502c3be4c03d1721fab925622cc5a7eea5af9",
      "externalIds": {
        "DOI": "10.1007/s11069-024-06457-9",
        "CorpusId": 268215002
      },
      "url": "https://www.semanticscholar.org/paper/5c9502c3be4c03d1721fab925622cc5a7eea5af9",
      "title": "Forest fire mapping: a comparison between GIS-based random forest and Bayesian models",
      "venue": "Natural Hazards",
      "year": 2024,
      "referenceCount": 84,
      "citationCount": 23,
      "authors": [
        {
          "authorId": "52422295",
          "name": "Farzaneh Noroozi"
        },
        {
          "authorId": "24624804",
          "name": "Gholamabbas Ghanbarian"
        },
        {
          "authorId": "87902044",
          "name": "R. Safaeian"
        },
        {
          "authorId": "2858616",
          "name": "H. Pourghasemi"
        }
      ]
    },
    {
      "paperId": "e2c0437af6e2b4e4dd06ad09622b5fbc2f5d5083",
      "externalIds": {
        "MAG": "3003796892",
        "DBLP": "journals/remotesensing/Shirvani20",
        "DOI": "10.3390/rs12030434",
        "CorpusId": 210977031
      },
      "url": "https://www.semanticscholar.org/paper/e2c0437af6e2b4e4dd06ad09622b5fbc2f5d5083",
      "title": "A Holistic Analysis for Landslide Susceptibility Mapping Applying Geographic Object-Based Random Forest: A Comparison between Protected and Non-Protected Forests",
      "venue": "Remote Sensing",
      "year": 2020,
      "referenceCount": 172,
      "citationCount": 40,
      "authors": [
        {
          "authorId": "49396796",
          "name": "Z. Shirvani"
        }
      ]
    },
    {
      "paperId": "0b493399fa0567363997b6725e53f6617c20ba3d",
      "externalIds": {
        "ArXiv": "2110.09333",
        "DOI": "10.1080/00949655.2022.2163646",
        "CorpusId": 239016742
      },
      "url": "https://www.semanticscholar.org/paper/0b493399fa0567363997b6725e53f6617c20ba3d",
      "title": "Regression with missing data, a comparison study of techniques based on random forests",
      "venue": "Journal of Statistical Computation and Simulation",
      "year": 2021,
      "referenceCount": 26,
      "citationCount": 17,
      "authors": [
        {
          "authorId": "2104590021",
          "name": "Irving Gómez-Méndez"
        },
        {
          "authorId": "3960498",
          "name": "Émilien Joly"
        }
      ]
    },
    {
      "paperId": "475e342b6d0d400ea6dc53f6ff47feeda612e321",
      "externalIds": {
        "DBLP": "journals/gis/Jun21",
        "MAG": "3135468375",
        "DOI": "10.1080/13658816.2021.1887490",
        "CorpusId": 233769092
      },
      "url": "https://www.semanticscholar.org/paper/475e342b6d0d400ea6dc53f6ff47feeda612e321",
      "title": "A comparison of a gradient boosting decision tree, random forests, and artificial neural networks to model urban land use changes: the case of the Seoul metropolitan area",
      "venue": "International Journal of Geographical Information Science",
      "year": 2021,
      "referenceCount": 54,
      "citationCount": 117,
      "authors": [
        {
          "authorId": "52557786",
          "name": "M. Jun"
        }
      ]
    },
    {
      "paperId": "92da5a293f3bd3178bc1de5e714ace1adbc410ba",
      "externalIds": {
        "DBLP": "journals/neco/KumanoA22",
        "DOI": "10.1162/neco_a_01486",
        "CorpusId": 247190362,
        "PubMed": "35231936"
      },
      "url": "https://www.semanticscholar.org/paper/92da5a293f3bd3178bc1de5e714ace1adbc410ba",
      "title": "Comparison of the Representational Power of Random Forests, Binary Decision Diagrams, and Neural Networks",
      "venue": "Neural Computation",
      "year": 2022,
      "referenceCount": 31,
      "citationCount": 10,
      "authors": [
        {
          "authorId": null,
          "name": "So Kumano"
        },
        {
          "authorId": "145929645",
          "name": "T. Akutsu"
        }
      ]
    },
    {
      "paperId": "b8a9edd6a08f7457b56d1bed3257375523b36d35",
      "externalIds": {
        "DBLP": "journals/remotesensing/DabijaKZRKATPC21",
        "DOI": "10.3390/rs13040777",
        "CorpusId": 232314121
      },
      "url": "https://www.semanticscholar.org/paper/b8a9edd6a08f7457b56d1bed3257375523b36d35",
      "title": "Comparison of Support Vector Machines and Random Forests for Corine Land Cover Mapping",
      "venue": "Remote Sensing",
      "year": 2021,
      "referenceCount": 83,
      "citationCount": 79,
      "authors": [
        {
          "authorId": "9451062",
          "name": "Anca Dabija"
        },
        {
          "authorId": "2057058789",
          "name": "Marcin Kluczek"
        },
        {
          "authorId": "1872651",
          "name": "Bogdan Zagajewski"
        },
        {
          "authorId": "32713626",
          "name": "Edwin Raczko"
        },
        {
          "authorId": "37365324",
          "name": "Marlena Kycko"
        },
        {
          "authorId": "1412459380",
          "name": "A. Al-Sulttani"
        },
        {
          "authorId": "2372543",
          "name": "A. Tarda"
        },
        {
          "authorId": "145859072",
          "name": "L. Pineda"
        },
        {
          "authorId": "47871833",
          "name": "J. Corbera"
        }
      ]
    },
    {
      "paperId": "34c71ec6761f27c3a32329498e339037fe726448",
      "externalIds": {
        "DBLP": "journals/peerj-cs/Corrada-BravoBA17",
        "MAG": "2572565552",
        "DOI": "10.7717/PEERJ-CS.113",
        "CorpusId": 20062530
      },
      "url": "https://www.semanticscholar.org/paper/34c71ec6761f27c3a32329498e339037fe726448",
      "title": "Species-specific audio detection: a comparison of three template-based detection algorithms using random forests",
      "venue": "PeerJ Computer Science",
      "year": 2017,
      "referenceCount": 35,
      "citationCount": 24,
      "authors": [
        {
          "authorId": "2259141837",
          "name": "Carlos J. Corrada Bravo"
        },
        {
          "authorId": "2259140034",
          "name": "Rafael Álvarez Berríos"
        },
        {
          "authorId": "2242456785",
          "name": "T. Aide"
        }
      ]
    },
    {
      "paperId": "f01946b8a60bff1488e11b6e5ea58e54d1100e40",
      "externalIds": {
        "PubMedCentral": "5534080",
        "MAG": "2742025850",
        "DOI": "10.1186/s12874-017-0383-8",
        "CorpusId": 13925440,
        "PubMed": "28754093"
      },
      "url": "https://www.semanticscholar.org/paper/f01946b8a60bff1488e11b6e5ea58e54d1100e40",
      "title": "A comparison of the conditional inference survival forest model to random survival forests based on a simulation study as well as on two applications with time-to-event data",
      "venue": "BMC Medical Research Methodology",
      "year": 2017,
      "referenceCount": 50,
      "citationCount": 72,
      "authors": [
        {
          "authorId": "8019125",
          "name": "Justine B. Nasejje"
        },
        {
          "authorId": "2007413",
          "name": "H. Mwambi"
        },
        {
          "authorId": "2974331",
          "name": "K. Dheda"
        },
        {
          "authorId": "2353586",
          "name": "M. Lesosky"
        }
      ]
    }
  ]
}