{
  "total": 2501,
  "offset": 0,
  "next": 10,
  "data": [
    {
      "paperId": "6318b1950d21add48aff0b3e70ea4841d5ec130c",
      "externalIds": {
        "MAG": "2467681623",
        "DBLP": "conf/icml/ThomasSDB16",
        "CorpusId": 1011533
      },
      "url": "https://www.semanticscholar.org/paper/6318b1950d21add48aff0b3e70ea4841d5ec130c",
      "title": "Energetic Natural Gradient Descent",
      "venue": "International Conference on Machine Learning",
      "year": 2016,
      "referenceCount": 20,
      "citationCount": 22,
      "authors": [
        {
          "authorId": "143640165",
          "name": "P. Thomas"
        },
        {
          "authorId": "145471664",
          "name": "Bruno C. da Silva"
        },
        {
          "authorId": "2160071",
          "name": "Christoph Dann"
        },
        {
          "authorId": "2563117",
          "name": "E. Brunskill"
        }
      ]
    },
    {
      "paperId": "d266f6f16fb58d92520d430be39d6af393d80165",
      "externalIds": {
        "DBLP": "journals/concurrency/EnriquezBCBPMBDRHFM24",
        "DOI": "10.1002/cpe.8121",
        "CorpusId": 269346714
      },
      "url": "https://www.semanticscholar.org/paper/d266f6f16fb58d92520d430be39d6af393d80165",
      "title": "Quantum optimization algorithms: Energetic implications",
      "venue": "Concurrency and Computation",
      "year": 2024,
      "referenceCount": 44,
      "citationCount": 0,
      "authors": [
        {
          "authorId": "2248809084",
          "name": "R. H. Enriquez"
        },
        {
          "authorId": "2298160469",
          "name": "Rosa M. Badia"
        },
        {
          "authorId": "2298156130",
          "name": "Barbara Chapman"
        },
        {
          "authorId": "1854551",
          "name": "Kirk M. Bresniker"
        },
        {
          "authorId": "2298156383",
          "name": "Scott Pakin"
        },
        {
          "authorId": "2247830928",
          "name": "Alok Mishra"
        },
        {
          "authorId": "2283157551",
          "name": "P. Bruel"
        },
        {
          "authorId": "2247626342",
          "name": "Aditya Dhakal"
        },
        {
          "authorId": "8776771",
          "name": "Gourav Rattihalli"
        },
        {
          "authorId": "52141406",
          "name": "Ninad Hogade"
        },
        {
          "authorId": "1430784159",
          "name": "Eitan Frachtenberg"
        },
        {
          "authorId": "2263733652",
          "name": "D. Milojicic"
        }
      ]
    },
    {
      "paperId": "07ad07e7a037798fc983dced5e260d1a71e13136",
      "externalIds": {
        "MAG": "2058079403",
        "DOI": "10.1117/12.188914",
        "CorpusId": 62565515
      },
      "url": "https://www.semanticscholar.org/paper/07ad07e7a037798fc983dced5e260d1a71e13136",
      "title": "Neural-network-based fuzzy logic decision systems",
      "venue": "Other Conferences",
      "year": 1994,
      "referenceCount": 0,
      "citationCount": 0,
      "authors": [
        {
          "authorId": "145097669",
          "name": "A. Kulkarni"
        },
        {
          "authorId": "146797964",
          "name": "G. Giridhar"
        },
        {
          "authorId": "153492243",
          "name": "Praveen Coca"
        }
      ]
    },
    {
      "paperId": "108c1821046c36b1272e1b9cb09e7b0e877db2d7",
      "externalIds": {
        "DBLP": "journals/corr/abs-2505-12149",
        "ArXiv": "2505.12149",
        "DOI": "10.48550/arXiv.2505.12149",
        "CorpusId": 278740593
      },
      "url": "https://www.semanticscholar.org/paper/108c1821046c36b1272e1b9cb09e7b0e877db2d7",
      "title": "Improving Energy Natural Gradient Descent through Woodbury, Momentum, and Randomization",
      "venue": "arXiv.org",
      "year": 2025,
      "referenceCount": 49,
      "citationCount": 8,
      "authors": [
        {
          "authorId": "2362305674",
          "name": "Andr'es Guzm'an-Cordero"
        },
        {
          "authorId": "68973039",
          "name": "Felix Dangel"
        },
        {
          "authorId": "27033855",
          "name": "Gil Goldshlager"
        },
        {
          "authorId": "2362312972",
          "name": "Marius Zeinhofer"
        }
      ]
    },
    {
      "paperId": "58d311856a7800b1c1880d966f1d4e703f4f51e9",
      "externalIds": {
        "ArXiv": "2508.13898",
        "DBLP": "conf/aaai/LuA26",
        "DOI": "10.1609/aaai.v40i29.39590",
        "CorpusId": 280686620
      },
      "url": "https://www.semanticscholar.org/paper/58d311856a7800b1c1880d966f1d4e703f4f51e9",
      "title": "Beyond the Mean: Fisher-Orthogonal Projection for Natural Gradient Descent in Large Batch Training",
      "venue": "AAAI Conference on Artificial Intelligence",
      "year": 2025,
      "referenceCount": 34,
      "citationCount": 2,
      "authors": [
        {
          "authorId": "2297009412",
          "name": "Yishun Lu"
        },
        {
          "authorId": "2269736342",
          "name": "Wesley Armour"
        }
      ]
    },
    {
      "paperId": "bb85b2dcbcbecde7b35352b88ac60702338a147f",
      "externalIds": {
        "DBLP": "journals/corr/abs-2505-21404",
        "ArXiv": "2505.21404",
        "DOI": "10.48550/arXiv.2505.21404",
        "CorpusId": 278912003
      },
      "url": "https://www.semanticscholar.org/paper/bb85b2dcbcbecde7b35352b88ac60702338a147f",
      "title": "Dual Natural Gradient Descent for Scalable Training of Physics-Informed Neural Networks",
      "venue": "Trans. Mach. Learn. Res.",
      "year": 2025,
      "referenceCount": 49,
      "citationCount": 3,
      "authors": [
        {
          "authorId": "2284594240",
          "name": "Anas Jnini"
        },
        {
          "authorId": "2284590797",
          "name": "Flavio Vella"
        }
      ]
    },
    {
      "paperId": "8ea284b184ea541c8ffd0823bafca6af7ea1cf07",
      "externalIds": {
        "ArXiv": "2511.13224",
        "CorpusId": 283073043
      },
      "url": "https://www.semanticscholar.org/paper/8ea284b184ea541c8ffd0823bafca6af7ea1cf07",
      "title": "Natural gradient descent for improving variational inference based classification of radio galaxies",
      "venue": "",
      "year": 2025,
      "referenceCount": 31,
      "citationCount": 1,
      "authors": [
        {
          "authorId": "29289358",
          "name": "Devina Mohan"
        },
        {
          "authorId": "2266466078",
          "name": "Anna Scaife"
        }
      ]
    },
    {
      "paperId": "47d0592ccf0425a20cb3709239aeb1e9cc0fd5be",
      "externalIds": {
        "DBLP": "journals/corr/abs-2503-06070",
        "ArXiv": "2503.06070",
        "DOI": "10.48550/arXiv.2503.06070",
        "CorpusId": 276902631
      },
      "url": "https://www.semanticscholar.org/paper/47d0592ccf0425a20cb3709239aeb1e9cc0fd5be",
      "title": "Natural Gradient Descent for Control",
      "venue": "arXiv.org",
      "year": 2025,
      "referenceCount": 27,
      "citationCount": 2,
      "authors": [
        {
          "authorId": "40866311",
          "name": "Ramin Esmzad"
        },
        {
          "authorId": "2439318",
          "name": "F. Yaghmaie"
        },
        {
          "authorId": "2204634",
          "name": "H. Modares"
        }
      ]
    },
    {
      "paperId": "d79a2e18bcefff32b5ae0eef79104f0bd21004e3",
      "externalIds": {
        "ArXiv": "2511.14511",
        "CorpusId": 283080994
      },
      "url": "https://www.semanticscholar.org/paper/d79a2e18bcefff32b5ae0eef79104f0bd21004e3",
      "title": "Efficient Hamiltonian-aware Quantum Natural Gradient Descent for Variational Quantum Eigensolvers",
      "venue": "",
      "year": 2025,
      "referenceCount": 49,
      "citationCount": 0,
      "authors": [
        {
          "authorId": "2349308451",
          "name": "Chenyu Shi"
        },
        {
          "authorId": "2349935656",
          "name": "Hao Wang"
        }
      ]
    },
    {
      "paperId": "1a24aea7202b28453132e5a61850ca8ccee3e7fd",
      "externalIds": {
        "DOI": "10.1109/NTCI67886.2025.11308205",
        "CorpusId": 284353965
      },
      "url": "https://www.semanticscholar.org/paper/1a24aea7202b28453132e5a61850ca8ccee3e7fd",
      "title": "Second-order Volterra Adaptive Filtering Based on Natural Gradient Descent",
      "venue": "2025 International Conference on New Trends in Computational Intelligence (NTCI)",
      "year": 2025,
      "referenceCount": 23,
      "citationCount": 0,
      "authors": [
        {
          "authorId": "2402998010",
          "name": "Zhaoyang Chen"
        },
        {
          "authorId": "2153390956",
          "name": "Ying Zhang"
        },
        {
          "authorId": "2304713818",
          "name": "Huisheng Zhang"
        }
      ]
    }
  ]
}