{
  "total": 24,
  "offset": 0,
  "next": 10,
  "data": [
    {
      "paperId": "3b75dc4cc2db84d2fa12d14daf50e458f958a909",
      "externalIds": {
        "MAG": "2741317041",
        "CorpusId": 34439549
      },
      "url": "https://www.semanticscholar.org/paper/3b75dc4cc2db84d2fa12d14daf50e458f958a909",
      "title": "Learning Infinite-Layer Networks: Without the Kernel Trick",
      "venue": "",
      "year": 2016,
      "referenceCount": 33,
      "citationCount": 7,
      "authors": [
        {
          "authorId": "2679024",
          "name": "Roi Livni"
        },
        {
          "authorId": "5582533",
          "name": "Dan Carmon"
        },
        {
          "authorId": "1786843",
          "name": "A. Globerson"
        }
      ]
    },
    {
      "paperId": "99310d6bd05507e17e0c0defbd6200484881c763",
      "externalIds": {
        "MAG": "2424072982",
        "ArXiv": "1606.05316",
        "DBLP": "journals/corr/GlobersonL16",
        "CorpusId": 18820498
      },
      "url": "https://www.semanticscholar.org/paper/99310d6bd05507e17e0c0defbd6200484881c763",
      "title": "Learning Infinite-Layer Networks: Beyond the Kernel Trick",
      "venue": "arXiv.org",
      "year": 2016,
      "referenceCount": 33,
      "citationCount": 7,
      "authors": [
        {
          "authorId": "1786843",
          "name": "A. Globerson"
        },
        {
          "authorId": "2679024",
          "name": "Roi Livni"
        }
      ]
    },
    {
      "paperId": "88f865d29b691045ae9f3aa7718492011dad9bb7",
      "externalIds": {
        "CorpusId": 247012103
      },
      "url": "https://www.semanticscholar.org/paper/88f865d29b691045ae9f3aa7718492011dad9bb7",
      "title": "Deep kernel machines: exact inference with representation learning in inﬁnite Bayesian neural networks",
      "venue": "",
      "year": 2022,
      "referenceCount": 37,
      "citationCount": 0,
      "authors": [
        {
          "authorId": "1985862476",
          "name": "Adam X. Yang"
        },
        {
          "authorId": "2155503163",
          "name": "Maxime Robeyns"
        },
        {
          "authorId": "1485377354",
          "name": "Nandi Schoots"
        },
        {
          "authorId": "2724259",
          "name": "L. Aitchison"
        }
      ]
    },
    {
      "paperId": "191a96a11e0cac30c2e074059841fc3c87cf9b01",
      "externalIds": {
        "ArXiv": "2307.11807",
        "PubMedCentral": "11724055",
        "DBLP": "journals/corr/abs-2307-11807",
        "DOI": "10.1038/s41467-024-55229-3",
        "CorpusId": 260125263,
        "PubMed": "39794337"
      },
      "url": "https://www.semanticscholar.org/paper/191a96a11e0cac30c2e074059841fc3c87cf9b01",
      "title": "Local kernel renormalization as a mechanism for feature learning in overparametrized convolutional neural networks",
      "venue": "Nature Communications",
      "year": 2023,
      "referenceCount": 77,
      "citationCount": 29,
      "authors": [
        {
          "authorId": "2213249078",
          "name": "R. Aiudi"
        },
        {
          "authorId": "2130579870",
          "name": "R. Pacelli"
        },
        {
          "authorId": "2329745652",
          "name": "P. Baglioni"
        },
        {
          "authorId": "47050236",
          "name": "A. Vezzani"
        },
        {
          "authorId": "2374232556",
          "name": "R. Burioni"
        },
        {
          "authorId": "2280144091",
          "name": "P. Rotondo"
        }
      ]
    },
    {
      "paperId": "0f312e7aeca9c11781867479387c08b7a306c492",
      "externalIds": {
        "MAG": "1563671628",
        "DBLP": "conf/iberamia/GarciaM04a",
        "DOI": "10.1007/978-3-540-30498-2_87",
        "CorpusId": 31350714
      },
      "url": "https://www.semanticscholar.org/paper/0f312e7aeca9c11781867479387c08b7a306c492",
      "title": "The Hopfield Associative Memory Network: Improving Performance with the Kernel \"Trick\"",
      "venue": "Ibero-American Conference on AI",
      "year": 2004,
      "referenceCount": 12,
      "citationCount": 20,
      "authors": [
        {
          "authorId": "145437291",
          "name": "Cristina García"
        },
        {
          "authorId": "1705217",
          "name": "J. A. Moreno"
        }
      ]
    },
    {
      "paperId": "a80efffaa77e1f5ed7ccbbc16af7258b70c2356e",
      "externalIds": {
        "DOI": "10.1109/eStream61684.2024.10542602",
        "CorpusId": 270260679
      },
      "url": "https://www.semanticscholar.org/paper/a80efffaa77e1f5ed7ccbbc16af7258b70c2356e",
      "title": "Kernel Filter-Based Image Construction from Scanning Electrochemical Microscopy Approach Curves",
      "venue": "2024 IEEE Open Conference of Electrical, Electronic and Information Sciences (eStream)",
      "year": 2024,
      "referenceCount": 19,
      "citationCount": 0,
      "authors": [
        {
          "authorId": "2284312513",
          "name": "Vadimas Ivinskij"
        },
        {
          "authorId": "1403254578",
          "name": "I. Morkvėnaitė-Vilkončienė"
        }
      ]
    },
    {
      "paperId": "3d4a52cc9afe5ec1848b57d74d77baa3e4a9480f",
      "externalIds": {
        "ArXiv": "2603.07698",
        "CorpusId": 286376882
      },
      "url": "https://www.semanticscholar.org/paper/3d4a52cc9afe5ec1848b57d74d77baa3e4a9480f",
      "title": "Global Convergence of Average Reward Constrained MDPs with Neural Critic and General Policy Parameterization",
      "venue": "",
      "year": 2026,
      "referenceCount": 38,
      "citationCount": 0,
      "authors": [
        {
          "authorId": "2211810584",
          "name": "Anirudh Satheesh"
        },
        {
          "authorId": "2212330535",
          "name": "P. Barman"
        },
        {
          "authorId": "19267820",
          "name": "Washim Uddin Mondal"
        },
        {
          "authorId": "2257032704",
          "name": "Vaneet Aggarwal"
        }
      ]
    },
    {
      "paperId": "e495a2043143572e3a6adfbd13754a2b150d9fff",
      "externalIds": {
        "DBLP": "journals/corr/abs-2507-03560",
        "ArXiv": "2507.03560",
        "DOI": "10.48550/arXiv.2507.03560",
        "CorpusId": 280151362
      },
      "url": "https://www.semanticscholar.org/paper/e495a2043143572e3a6adfbd13754a2b150d9fff",
      "title": "Simplifying Graph Kernels for Efficient",
      "venue": "arXiv.org",
      "year": 2025,
      "referenceCount": 49,
      "citationCount": 0,
      "authors": [
        {
          "authorId": "2259791162",
          "name": "Lin Wang"
        },
        {
          "authorId": "2174270307",
          "name": "Shijie Wang"
        },
        {
          "authorId": "2306947309",
          "name": "Sirui Huang"
        },
        {
          "authorId": "2338862410",
          "name": "Qing Li"
        }
      ]
    },
    {
      "paperId": "34057175515cc44d1669834542ee7aa66c182024",
      "externalIds": {
        "DBLP": "journals/corr/abs-1711-09219",
        "MAG": "2769415053",
        "ArXiv": "1711.09219",
        "CorpusId": 9339738
      },
      "url": "https://www.semanticscholar.org/paper/34057175515cc44d1669834542ee7aa66c182024",
      "title": "Stacked Kernel Network",
      "venue": "arXiv.org",
      "year": 2017,
      "referenceCount": 28,
      "citationCount": 9,
      "authors": [
        {
          "authorId": "2108433304",
          "name": "Shuai Zhang"
        },
        {
          "authorId": "1492113939",
          "name": "Jianxin Li"
        },
        {
          "authorId": "40526720",
          "name": "Pengtao Xie"
        },
        {
          "authorId": "2108104879",
          "name": "Yingchun Zhang"
        },
        {
          "authorId": "19066746",
          "name": "Minglai Shao"
        },
        {
          "authorId": "2395143",
          "name": "Haoyi Zhou"
        },
        {
          "authorId": "2114009320",
          "name": "Mengyi Yan"
        }
      ]
    },
    {
      "paperId": "c7a16a5973600457c402b30d723149f5c93db6d7",
      "externalIds": {
        "DBLP": "conf/ijcnn/ShiCW21",
        "DOI": "10.1109/IJCNN52387.2021.9533641",
        "CorpusId": 237597683
      },
      "url": "https://www.semanticscholar.org/paper/c7a16a5973600457c402b30d723149f5c93db6d7",
      "title": "Heuristic Search for Activation Functions of Neural Networks Based on Gaussian Processes",
      "venue": "IEEE International Joint Conference on Neural Network",
      "year": 2021,
      "referenceCount": 37,
      "citationCount": 1,
      "authors": [
        {
          "authorId": "3102220",
          "name": "Xinxing Shi"
        },
        {
          "authorId": "2108089924",
          "name": "Jialin Chen"
        },
        {
          "authorId": "2151976301",
          "name": "Lingli Wang"
        }
      ]
    }
  ]
}