{
  "total": 14,
  "offset": 0,
  "next": 10,
  "data": [
    {
      "paperId": "1fc787a2b8d7605aca7f1c182cd92043cfeed369",
      "externalIds": {
        "MAG": "2950519572",
        "ArXiv": "1502.01176",
        "DBLP": "journals/corr/FetayaU15",
        "CorpusId": 11856316
      },
      "url": "https://www.semanticscholar.org/paper/1fc787a2b8d7605aca7f1c182cd92043cfeed369",
      "title": "Learning Local Invariant Mahalanobis Distances",
      "venue": "International Conference on Machine Learning",
      "year": 2015,
      "referenceCount": 23,
      "citationCount": 16,
      "authors": [
        {
          "authorId": "2645055",
          "name": "Ethan Fetaya"
        },
        {
          "authorId": "1743045",
          "name": "S. Ullman"
        }
      ]
    },
    {
      "paperId": "c13d16b76644574803606bc1f70aec78c3cbcd1f",
      "externalIds": {
        "MAG": "2212197243",
        "DBLP": "conf/iccvw/SaxenaV15",
        "DOI": "10.1109/ICCVW.2015.56",
        "CorpusId": 15945887
      },
      "url": "https://www.semanticscholar.org/paper/c13d16b76644574803606bc1f70aec78c3cbcd1f",
      "title": "Coordinated Local Metric Learning",
      "venue": "2015 IEEE International Conference on Computer Vision Workshop (ICCVW)",
      "year": 2015,
      "referenceCount": 42,
      "citationCount": 16,
      "authors": [
        {
          "authorId": "46708564",
          "name": "S. Saxena"
        },
        {
          "authorId": "34602236",
          "name": "Jakob Verbeek"
        }
      ]
    },
    {
      "paperId": "7d51c673cd068724cb5888957ff84a63a0b2d61f",
      "externalIds": {
        "MAG": "1981036287",
        "DBLP": "journals/tnn/LiLLL15",
        "DOI": "10.1109/TNNLS.2014.2339100",
        "CorpusId": 16079057,
        "PubMed": "25163071"
      },
      "url": "https://www.semanticscholar.org/paper/7d51c673cd068724cb5888957ff84a63a0b2d61f",
      "title": "Ordinal Distance Metric Learning for Image Ranking",
      "venue": "IEEE Transactions on Neural Networks and Learning Systems",
      "year": 2015,
      "referenceCount": 38,
      "citationCount": 55,
      "authors": [
        {
          "authorId": "49673319",
          "name": "Changsheng Li"
        },
        {
          "authorId": "2145921810",
          "name": "Qingshan Liu"
        },
        {
          "authorId": "46701354",
          "name": "J. Liu"
        },
        {
          "authorId": "1694235",
          "name": "Hanqing Lu"
        }
      ]
    },
    {
      "paperId": "f801010aa927fdd4fad4e9ce2da8af77d0a627d3",
      "externalIds": {
        "MAG": "2228002889",
        "DBLP": "conf/iccv/KaranamLR15",
        "DOI": "10.1109/ICCV.2015.513",
        "CorpusId": 317526
      },
      "url": "https://www.semanticscholar.org/paper/f801010aa927fdd4fad4e9ce2da8af77d0a627d3",
      "title": "Person Re-Identification with Discriminatively Trained Viewpoint Invariant Dictionaries",
      "venue": "IEEE International Conference on Computer Vision",
      "year": 2015,
      "referenceCount": 44,
      "citationCount": 208,
      "authors": [
        {
          "authorId": "1976152",
          "name": "S. Karanam"
        },
        {
          "authorId": "98177814",
          "name": "Y. Li"
        },
        {
          "authorId": "1772337",
          "name": "R. Radke"
        }
      ]
    },
    {
      "paperId": "bfec95482dc40936cbb33d386890aad48483adc4",
      "externalIds": {
        "DBLP": "conf/mmsp/ChenLHHY15",
        "MAG": "2184477270",
        "DOI": "10.1109/MMSP.2015.7340791",
        "CorpusId": 299746
      },
      "url": "https://www.semanticscholar.org/paper/bfec95482dc40936cbb33d386890aad48483adc4",
      "title": "An ensemble of invariant features for person re-identification",
      "venue": "IEEE International Workshop on Multimedia Signal Processing",
      "year": 2015,
      "referenceCount": 19,
      "citationCount": 6,
      "authors": [
        {
          "authorId": "1762602",
          "name": "Shen-Chi Chen"
        },
        {
          "authorId": "49380020",
          "name": "Young-Gun Lee"
        },
        {
          "authorId": "145159381",
          "name": "Jenq-Neng Hwang"
        },
        {
          "authorId": "145458451",
          "name": "Y. Hung"
        },
        {
          "authorId": "1819119",
          "name": "Jang-Hee Yoo"
        }
      ]
    },
    {
      "paperId": "4cf6353c2d84073ddb61b2b2487dd85605c7b311",
      "externalIds": {
        "MAG": "2004834787",
        "DBLP": "journals/tkde/HeMCC15",
        "DOI": "10.1109/TKDE.2014.2384522",
        "CorpusId": 5808484
      },
      "url": "https://www.semanticscholar.org/paper/4cf6353c2d84073ddb61b2b2487dd85605c7b311",
      "title": "Nonlinear Metric Learning with Kernel Density Estimation",
      "venue": "IEEE Transactions on Knowledge and Data Engineering",
      "year": 2015,
      "referenceCount": 44,
      "citationCount": 21,
      "authors": [
        {
          "authorId": "2119288790",
          "name": "Yujie He"
        },
        {
          "authorId": "2087355981",
          "name": "Yi Mao"
        },
        {
          "authorId": null,
          "name": "Wenlin Chen"
        },
        {
          "authorId": "9527255",
          "name": "Yixin Chen"
        }
      ]
    },
    {
      "paperId": "34cb1c9c2b53b779d0eaeeaf511f039e635967f8",
      "externalIds": {
        "DBLP": "journals/jvcir/Lian15",
        "MAG": "839638475",
        "DOI": "10.1016/j.jvcir.2015.05.003",
        "CorpusId": 41790876
      },
      "url": "https://www.semanticscholar.org/paper/34cb1c9c2b53b779d0eaeeaf511f039e635967f8",
      "title": "Rotation invariant color texture classification using multiple sub-DLBPs",
      "venue": "Journal of Visual Communication and Image Representation",
      "year": 2015,
      "referenceCount": 39,
      "citationCount": 5,
      "authors": [
        {
          "authorId": "34775294",
          "name": "Guoyun Lian"
        }
      ]
    },
    {
      "paperId": "b61cf5daf24c5d66110cf0ec6c32ca39f252c0ae",
      "externalIds": {
        "MAG": "1973379115",
        "DBLP": "journals/vc/HouDMWLH16",
        "DOI": "10.1007/s00371-015-1079-x",
        "CorpusId": 6401097
      },
      "url": "https://www.semanticscholar.org/paper/b61cf5daf24c5d66110cf0ec6c32ca39f252c0ae",
      "title": "Similarity metric learning for face verification using sigmoid decision function",
      "venue": "The Visual Computer",
      "year": 2015,
      "referenceCount": 45,
      "citationCount": 10,
      "authors": [
        {
          "authorId": "3370809",
          "name": "Xiao-Nan Hou"
        },
        {
          "authorId": "7406856",
          "name": "Shouhong Ding"
        },
        {
          "authorId": "8452947",
          "name": "Lizhuang Ma"
        },
        {
          "authorId": "2192339815",
          "name": "Chengjie Wang"
        },
        {
          "authorId": "49298244",
          "name": "Jilin Li"
        },
        {
          "authorId": "1835006",
          "name": "Feiyue Huang"
        }
      ]
    },
    {
      "paperId": "04289ef07866fa6807ee22a353e927855d4e8acb",
      "externalIds": {
        "MAG": "1987549295",
        "DBLP": "journals/pr/NurunnabiWB15",
        "DOI": "10.1016/j.patcog.2014.10.014",
        "CorpusId": 1051825
      },
      "url": "https://www.semanticscholar.org/paper/04289ef07866fa6807ee22a353e927855d4e8acb",
      "title": "Outlier detection and robust normal-curvature estimation in mobile laser scanning 3D point cloud data",
      "venue": "Pattern Recognition",
      "year": 2015,
      "referenceCount": 61,
      "citationCount": 179,
      "authors": [
        {
          "authorId": "1983259",
          "name": "A. Nurunnabi"
        },
        {
          "authorId": "145227675",
          "name": "G. West"
        },
        {
          "authorId": "144281740",
          "name": "D. Belton"
        }
      ]
    },
    {
      "paperId": "92efd228d1df3015d6106c27d4a087d419932642",
      "externalIds": {
        "MAG": "2022518651",
        "DBLP": "journals/pr/IodiceP15",
        "DOI": "10.1016/j.patcog.2014.09.011",
        "CorpusId": 9316888
      },
      "url": "https://www.semanticscholar.org/paper/92efd228d1df3015d6106c27d4a087d419932642",
      "title": "Salient feature based graph matching for person re-identification",
      "venue": "Pattern Recognition",
      "year": 2015,
      "referenceCount": 24,
      "citationCount": 23,
      "authors": [
        {
          "authorId": "29887545",
          "name": "Sara Iodice"
        },
        {
          "authorId": "1686028",
          "name": "A. Petrosino"
        }
      ]
    }
  ]
}