{
  "total": 5084,
  "offset": 0,
  "next": 10,
  "data": [
    {
      "paperId": "b73f638961dbfe7094dd8620f378d21897176ea4",
      "externalIds": {
        "DBLP": "journals/corr/DaiGKHS17",
        "ArXiv": "1701.02815",
        "MAG": "2573350151",
        "CorpusId": 18554757
      },
      "url": "https://www.semanticscholar.org/paper/b73f638961dbfe7094dd8620f378d21897176ea4",
      "title": "Stochastic Generative Hashing",
      "venue": "International Conference on Machine Learning",
      "year": 2017,
      "referenceCount": 51,
      "citationCount": 112,
      "authors": [
        {
          "authorId": "144445933",
          "name": "Bo Dai"
        },
        {
          "authorId": "37495246",
          "name": "Ruiqi Guo"
        },
        {
          "authorId": "152663162",
          "name": "Sanjiv Kumar"
        },
        {
          "authorId": "2903347",
          "name": "Niao He"
        },
        {
          "authorId": "1779453",
          "name": "Le Song"
        }
      ]
    },
    {
      "paperId": "4f3f6a054b4688944964abda6338308576e320b4",
      "externalIds": {
        "MAG": "2894544503",
        "DBLP": "conf/bmvc/Shen0017",
        "DOI": "10.5244/C.31.103",
        "CorpusId": 52271135
      },
      "url": "https://www.semanticscholar.org/paper/4f3f6a054b4688944964abda6338308576e320b4",
      "title": "Unsupervised Deep Generative Hashing",
      "venue": "British Machine Vision Conference",
      "year": 2017,
      "referenceCount": 47,
      "citationCount": 4,
      "authors": [
        {
          "authorId": "144820063",
          "name": "Yuming Shen"
        },
        {
          "authorId": "40241836",
          "name": "Li Liu"
        },
        {
          "authorId": "144082425",
          "name": "Ling Shao"
        }
      ]
    },
    {
      "paperId": "1b2e5884521e9ad9c7110a9d43d42e3c594ff91e",
      "externalIds": {
        "MAG": "2808389123",
        "DBLP": "conf/ijcai/DuXDW18",
        "DOI": "10.24963/ijcai.2018/696",
        "CorpusId": 51607731
      },
      "url": "https://www.semanticscholar.org/paper/1b2e5884521e9ad9c7110a9d43d42e3c594ff91e",
      "title": "Redundancy-resistant Generative Hashing for Image Retrieval",
      "venue": "International Joint Conference on Artificial Intelligence",
      "year": 2018,
      "referenceCount": 34,
      "citationCount": 2,
      "authors": [
        {
          "authorId": "2281806",
          "name": "Changying Du"
        },
        {
          "authorId": "2543387",
          "name": "Xingyu Xie"
        },
        {
          "authorId": "3383868",
          "name": "Changde Du"
        },
        {
          "authorId": "2144221509",
          "name": "Hao Wang"
        }
      ]
    },
    {
      "paperId": "34bcf09de5df81f9c75ed5f4f904c73d63664fe7",
      "externalIds": {
        "MAG": "2791978127",
        "DBLP": "journals/remotesensing/ZhangCZLL18",
        "DOI": "10.3390/rs10020271",
        "CorpusId": 3375221
      },
      "url": "https://www.semanticscholar.org/paper/34bcf09de5df81f9c75ed5f4f904c73d63664fe7",
      "title": "An Efficient Hyperspectral Image Retrieval Method: Deep Spectral-Spatial Feature Extraction with DCGAN and Dimensionality Reduction Using t-SNE-Based NM Hashing",
      "venue": "Remote Sensing",
      "year": 2018,
      "referenceCount": 45,
      "citationCount": 30,
      "authors": [
        {
          "authorId": "2158143984",
          "name": "Jing Zhang"
        },
        {
          "authorId": "2118402274",
          "name": "Lu Chen"
        },
        {
          "authorId": "145210913",
          "name": "L. Zhuo"
        },
        {
          "authorId": "2412252295",
          "name": "Xi Liang"
        },
        {
          "authorId": "3117925",
          "name": "Jiafeng Li"
        }
      ]
    },
    {
      "paperId": "18c9e95905fa7d18b4b9eba0f2b23fd1a9938057",
      "externalIds": {
        "MAG": "2912500592",
        "DOI": "10.1117/1.JRS.13.018501",
        "CorpusId": 127771554
      },
      "url": "https://www.semanticscholar.org/paper/18c9e95905fa7d18b4b9eba0f2b23fd1a9938057",
      "title": "Hyperspectral image secure retrieval based on encrypted deep spectral–spatial features",
      "venue": "Journal of Applied Remote Sensing",
      "year": 2019,
      "referenceCount": 40,
      "citationCount": 6,
      "authors": [
        {
          "authorId": "2158143984",
          "name": "Jing Zhang"
        },
        {
          "authorId": "2118402274",
          "name": "Lu Chen"
        },
        {
          "authorId": "2412252295",
          "name": "Xi Liang"
        },
        {
          "authorId": "145210913",
          "name": "L. Zhuo"
        },
        {
          "authorId": "144876831",
          "name": "Q. Tian"
        }
      ]
    },
    {
      "paperId": "633e2fbfc0b21e959a244100937c5853afca4853",
      "externalIds": {
        "ArXiv": "2011.13456",
        "DBLP": "journals/corr/abs-2011-13456",
        "MAG": "3110257065",
        "CorpusId": 227209335
      },
      "url": "https://www.semanticscholar.org/paper/633e2fbfc0b21e959a244100937c5853afca4853",
      "title": "Score-Based Generative Modeling through Stochastic Differential Equations",
      "venue": "International Conference on Learning Representations",
      "year": 2020,
      "referenceCount": 65,
      "citationCount": 10123,
      "authors": [
        {
          "authorId": "115504645",
          "name": "Yang Song"
        },
        {
          "authorId": "1407546424",
          "name": "Jascha Narain Sohl-Dickstein"
        },
        {
          "authorId": "1726807",
          "name": "Diederik P. Kingma"
        },
        {
          "authorId": "2109224633",
          "name": "Abhishek Kumar"
        },
        {
          "authorId": "2490652",
          "name": "Stefano Ermon"
        },
        {
          "authorId": "16443937",
          "name": "Ben Poole"
        }
      ]
    },
    {
      "paperId": "34c9d7bb2c75c1f29730cacf78fc79d297b03040",
      "externalIds": {
        "DBLP": "journals/corr/abs-2409-08861",
        "ArXiv": "2409.08861",
        "DOI": "10.48550/arXiv.2409.08861",
        "CorpusId": 272654106
      },
      "url": "https://www.semanticscholar.org/paper/34c9d7bb2c75c1f29730cacf78fc79d297b03040",
      "title": "Adjoint Matching: Fine-tuning Flow and Diffusion Generative Models with Memoryless Stochastic Optimal Control",
      "venue": "arXiv.org",
      "year": 2024,
      "referenceCount": 0,
      "citationCount": 149,
      "authors": [
        {
          "authorId": "1459933481",
          "name": "Carles Domingo-Enrich"
        },
        {
          "authorId": "2321178251",
          "name": "Michal Drozdzal"
        },
        {
          "authorId": "2253591308",
          "name": "Brian Karrer"
        },
        {
          "authorId": "2269713817",
          "name": "Ricky T. Q. Chen"
        }
      ]
    },
    {
      "paperId": "62d752fb40035031aaf6927acbbbb72eeee13ceb",
      "externalIds": {
        "DBLP": "journals/corr/abs-2504-05852",
        "ArXiv": "2504.05852",
        "DOI": "10.48550/arXiv.2504.05852",
        "CorpusId": 277626805
      },
      "url": "https://www.semanticscholar.org/paper/62d752fb40035031aaf6927acbbbb72eeee13ceb",
      "title": "Physics-aware generative models for turbulent fluid flows through energy-consistent stochastic interpolants",
      "venue": "arXiv.org",
      "year": 2025,
      "referenceCount": 0,
      "citationCount": 9,
      "authors": [
        {
          "authorId": "1659982827",
          "name": "N. T. Mücke"
        },
        {
          "authorId": "2364749135",
          "name": "Benjamin Sanderse"
        }
      ]
    },
    {
      "paperId": "4852c5a4a22ffb49fe6e40336d06c9af236350b1",
      "externalIds": {
        "DBLP": "journals/tifs/YingXQLQZ25",
        "DOI": "10.1109/TIFS.2025.3547566",
        "CorpusId": 276804382
      },
      "url": "https://www.semanticscholar.org/paper/4852c5a4a22ffb49fe6e40336d06c9af236350b1",
      "title": "Generative Collision Attack on Deep Image Hashing",
      "venue": "IEEE Transactions on Information Forensics and Security",
      "year": 2025,
      "referenceCount": 42,
      "citationCount": 2,
      "authors": [
        {
          "authorId": "2348745294",
          "name": "Luyang Ying"
        },
        {
          "authorId": "2149472272",
          "name": "Cheng Xiong"
        },
        {
          "authorId": "2299805133",
          "name": "Chuan Qin"
        },
        {
          "authorId": "2283881183",
          "name": "Xiangyang Luo"
        },
        {
          "authorId": "3243117",
          "name": "Zhenxing Qian"
        },
        {
          "authorId": "2291859034",
          "name": "Xinpeng Zhang"
        }
      ]
    },
    {
      "paperId": "5f0ad449a75e717c34495c00e6375b38dca244ab",
      "externalIds": {
        "DBLP": "journals/tcsv/LiWWZC25",
        "DOI": "10.1109/TCSVT.2025.3588769",
        "CorpusId": 280106667
      },
      "url": "https://www.semanticscholar.org/paper/5f0ad449a75e717c34495c00e6375b38dca244ab",
      "title": "Generative Augmentation Hashing for Few-Shot Cross-Modal Retrieval",
      "venue": "IEEE transactions on circuits and systems for video technology (Print)",
      "year": 2025,
      "referenceCount": 40,
      "citationCount": 2,
      "authors": [
        {
          "authorId": "2211944242",
          "name": "Fengling Li"
        },
        {
          "authorId": "2372332045",
          "name": "Zequn Wang"
        },
        {
          "authorId": "1391165194",
          "name": "Tianshi Wang"
        },
        {
          "authorId": "2196940207",
          "name": "Lei Zhu"
        },
        {
          "authorId": "2237199647",
          "name": "Xiaojun Chang"
        }
      ]
    }
  ]
}