{
  "total": 34,
  "offset": 0,
  "next": 10,
  "data": [
    {
      "paperId": "5218e7da3b13d097e8a9fdc9fdb5d68ff619edc0",
      "externalIds": {
        "DBLP": "journals/corr/abs-1804-01118",
        "MAG": "2951429808",
        "ArXiv": "1804.01118",
        "CorpusId": 4588394
      },
      "url": "https://www.semanticscholar.org/paper/5218e7da3b13d097e8a9fdc9fdb5d68ff619edc0",
      "title": "Synthesizing Programs for Images using Reinforced Adversarial Learning",
      "venue": "International Conference on Machine Learning",
      "year": 2018,
      "referenceCount": 53,
      "citationCount": 242,
      "authors": [
        {
          "authorId": "2825246",
          "name": "Yaroslav Ganin"
        },
        {
          "authorId": "1954876",
          "name": "Tejas D. Kulkarni"
        },
        {
          "authorId": "2256699276",
          "name": "Igor Babuschkin"
        },
        {
          "authorId": "49961426",
          "name": "A. Eslami"
        },
        {
          "authorId": "1689108",
          "name": "O. Vinyals"
        }
      ]
    },
    {
      "paperId": "66f55dc04aaf4eefdecef202211ad7563f7a703b",
      "externalIds": {
        "CorpusId": 260495801
      },
      "url": "https://www.semanticscholar.org/paper/66f55dc04aaf4eefdecef202211ad7563f7a703b",
      "title": "Synthesizing Programs for Images using Reinforced Adversarial Learning",
      "venue": "",
      "year": 2018,
      "referenceCount": 0,
      "citationCount": 0,
      "authors": []
    },
    {
      "paperId": "f74d8a80bd8749259073665217fd0a744372d364",
      "externalIds": {
        "DBLP": "journals/corr/abs-1812-00898",
        "ArXiv": "1812.00898",
        "MAG": "2902505553",
        "CorpusId": 54194296
      },
      "url": "https://www.semanticscholar.org/paper/f74d8a80bd8749259073665217fd0a744372d364",
      "title": "Generating Diverse Programs with Instruction Conditioned Reinforced Adversarial Learning",
      "venue": "arXiv.org",
      "year": 2018,
      "referenceCount": 31,
      "citationCount": 4,
      "authors": [
        {
          "authorId": "2801949",
          "name": "Aishwarya Agrawal"
        },
        {
          "authorId": "145478807",
          "name": "Mateusz Malinowski"
        },
        {
          "authorId": "145783676",
          "name": "Felix Hill"
        },
        {
          "authorId": "143648071",
          "name": "S. Eslami"
        },
        {
          "authorId": "1689108",
          "name": "O. Vinyals"
        },
        {
          "authorId": "1954876",
          "name": "Tejas D. Kulkarni"
        }
      ]
    },
    {
      "paperId": "14ad80d9a194624f9dbbf354d7f8878d86d8cc0d",
      "externalIds": {
        "DOI": "10.1093/neuonc/noaf193.163",
        "CorpusId": 281845793
      },
      "url": "https://www.semanticscholar.org/paper/14ad80d9a194624f9dbbf354d7f8878d86d8cc0d",
      "title": "P03.04.A TRANSFER LEARNING WITH A CONDITIONAL GAN AND DISTANCE-BASED LOSS FOR GENERATING SYNTHETIC MRI CONTRASTS IN GLIOMA IMAGING",
      "venue": "Neuro-Oncology",
      "year": 2025,
      "referenceCount": 0,
      "citationCount": 0,
      "authors": [
        {
          "authorId": "2273477254",
          "name": "S. Hadad"
        },
        {
          "authorId": "2384168627",
          "name": "O. Genc"
        },
        {
          "authorId": "2389590888",
          "name": "B. Liu"
        },
        {
          "authorId": "40792662",
          "name": "P. Chunduru"
        },
        {
          "authorId": "2238689292",
          "name": "A. Molinaro"
        },
        {
          "authorId": "2318121885",
          "name": "J. Lupo"
        }
      ]
    },
    {
      "paperId": "fdc595efd4ef7fd40acbfa70c26123b2740d1685",
      "externalIds": {
        "MAG": "3128591383",
        "DBLP": "journals/vc/JiaXW22",
        "DOI": "10.1007/s00371-021-02061-1",
        "CorpusId": 233900494
      },
      "url": "https://www.semanticscholar.org/paper/fdc595efd4ef7fd40acbfa70c26123b2740d1685",
      "title": "TICS: text–image-based semantic CAPTCHA synthesis via multi-condition adversarial learning",
      "venue": "The Visual Computer",
      "year": 2021,
      "referenceCount": 43,
      "citationCount": 14,
      "authors": [
        {
          "authorId": "1782322107",
          "name": "Xinkang Jia"
        },
        {
          "authorId": "2111222729",
          "name": "Jun Xiao"
        },
        {
          "authorId": "2115422697",
          "name": "Chao Wu"
        }
      ]
    },
    {
      "paperId": "515c827de8094730a8e4bd5f7334563d1b5cca7f",
      "externalIds": {
        "DOI": "10.1177/13694332261433703",
        "CorpusId": 286558613
      },
      "url": "https://www.semanticscholar.org/paper/515c827de8094730a8e4bd5f7334563d1b5cca7f",
      "title": "CrackGAN: Generative adversarial networks based predictive visualization mechanism of crack propagation in RC bridge elements",
      "venue": "Advances in Structural Engineering",
      "year": 2026,
      "referenceCount": 23,
      "citationCount": 0,
      "authors": [
        {
          "authorId": "2339805922",
          "name": "Waleed Ahmed Khan"
        },
        {
          "authorId": "2381624023",
          "name": "Raafe Bin Asad"
        },
        {
          "authorId": "96190409",
          "name": "F. Arif"
        },
        {
          "authorId": "2339981532",
          "name": "Asad-ur-Rehman Khan"
        },
        {
          "authorId": "101297675",
          "name": "S. Fareed"
        }
      ]
    },
    {
      "paperId": "cc2e702d2e6158f00b36e156b286ac566e7004ca",
      "externalIds": {
        "DBLP": "journals/mia/KhalilALWPB23",
        "DOI": "10.1016/j.media.2022.102688",
        "CorpusId": 253663240,
        "PubMed": "36493702"
      },
      "url": "https://www.semanticscholar.org/paper/cc2e702d2e6158f00b36e156b286ac566e7004ca",
      "title": "On the usability of synthetic data for improving the robustness of deep learning-based segmentation of cardiac magnetic resonance images",
      "venue": "Medical Image Anal.",
      "year": 2022,
      "referenceCount": 55,
      "citationCount": 57,
      "authors": [
        {
          "authorId": "1990128",
          "name": "Yasmina Alkhalil"
        },
        {
          "authorId": "1492180050",
          "name": "S. Amirrajab"
        },
        {
          "authorId": "144335086",
          "name": "C. Lorenz"
        },
        {
          "authorId": "143788078",
          "name": "J. Weese"
        },
        {
          "authorId": "48811334",
          "name": "J. Pluim"
        },
        {
          "authorId": "1704640",
          "name": "M. Breeuwer"
        }
      ]
    },
    {
      "paperId": "83d0b4ac15ad139f0f9e0973ae5b98f74bf3f3d1",
      "externalIds": {
        "DBLP": "conf/asiaccs/GuoY23",
        "DOI": "10.1145/3579856.3592828",
        "CorpusId": 259328005
      },
      "url": "https://www.semanticscholar.org/paper/83d0b4ac15ad139f0f9e0973ae5b98f74bf3f3d1",
      "title": "POSTER: On searching information leakage of Python model execution to detect adversarial examples",
      "venue": "ACM Asia Conference on Computer and Communications Security",
      "year": 2023,
      "referenceCount": 15,
      "citationCount": 0,
      "authors": [
        {
          "authorId": "2199043865",
          "name": "Chenghua Guo"
        },
        {
          "authorId": "2155387945",
          "name": "Fang Yu"
        }
      ]
    },
    {
      "paperId": "445365e42bc7303537a8d02558e2ac31307f8e36",
      "externalIds": {
        "MAG": "3004661948",
        "DBLP": "conf/acivs/KaplanLLU20",
        "DOI": "10.1007/978-3-030-40605-9_23",
        "CorpusId": 211061559
      },
      "url": "https://www.semanticscholar.org/paper/445365e42bc7303537a8d02558e2ac31307f8e36",
      "title": "Evaluation of Unconditioned Deep Generative Synthesis of Retinal Images",
      "venue": "Advanced Concepts for Intelligent Vision Systems Conference",
      "year": 2020,
      "referenceCount": 33,
      "citationCount": 5,
      "authors": [
        {
          "authorId": "25943325",
          "name": "Sinan Kaplan"
        },
        {
          "authorId": "1688468",
          "name": "L. Lensu"
        },
        {
          "authorId": "33640161",
          "name": "L. Laaksonen"
        },
        {
          "authorId": "47037941",
          "name": "H. Uusitalo"
        }
      ]
    },
    {
      "paperId": "909039b141fe60faf4d33979869a4fab45ac1aab",
      "externalIds": {
        "DOI": "10.22214/ijraset.2024.61016",
        "CorpusId": 269452469
      },
      "url": "https://www.semanticscholar.org/paper/909039b141fe60faf4d33979869a4fab45ac1aab",
      "title": "Comprehensive Overview of GAN Technology: Architecture, Training, and Applications",
      "venue": "International Journal for Research in Applied Science and Engineering Technology",
      "year": 2024,
      "referenceCount": 0,
      "citationCount": 0,
      "authors": [
        {
          "authorId": "2302591262",
          "name": "V. Bhavani"
        }
      ]
    }
  ]
}