{
  "total": 25,
  "offset": 0,
  "next": 10,
  "data": [
    {
      "paperId": "bb184a6de06a888d136089bc8d76cc70c7401a6e",
      "externalIds": {
        "MAG": "2134264591",
        "DBLP": "conf/icml/ClarkS15",
        "CorpusId": 6254050
      },
      "url": "https://www.semanticscholar.org/paper/bb184a6de06a888d136089bc8d76cc70c7401a6e",
      "title": "Training Deep Convolutional Neural Networks to Play Go",
      "venue": "International Conference on Machine Learning",
      "year": 2015,
      "referenceCount": 20,
      "citationCount": 177,
      "authors": [
        {
          "authorId": "143997772",
          "name": "Christopher Clark"
        },
        {
          "authorId": "1728216",
          "name": "A. Storkey"
        }
      ]
    },
    {
      "paperId": "b0a02fecff9300f09fff77122290a9f570a43673",
      "externalIds": {
        "MAG": "2962957157",
        "DBLP": "journals/corr/WiatowskiB15a",
        "ArXiv": "1512.06293",
        "DOI": "10.1109/TIT.2017.2776228",
        "CorpusId": 3388071
      },
      "url": "https://www.semanticscholar.org/paper/b0a02fecff9300f09fff77122290a9f570a43673",
      "title": "A Mathematical Theory of Deep Convolutional Neural Networks for Feature Extraction",
      "venue": "IEEE Transactions on Information Theory",
      "year": 2015,
      "referenceCount": 95,
      "citationCount": 390,
      "authors": [
        {
          "authorId": "2076040",
          "name": "Thomas Wiatowski"
        },
        {
          "authorId": "1691809",
          "name": "H. Bölcskei"
        }
      ]
    },
    {
      "paperId": "03a90c2dca09ee050156ca2eaa7ba1d13b2f5e51",
      "externalIds": {
        "DBLP": "journals/ipsjtcva/ChenXLP15",
        "MAG": "2058821277",
        "DOI": "10.2197/ipsjtcva.7.10",
        "CorpusId": 4602766
      },
      "url": "https://www.semanticscholar.org/paper/03a90c2dca09ee050156ca2eaa7ba1d13b2f5e51",
      "title": "Aircraft Detection by Deep Convolutional Neural Networks",
      "venue": "IPSJ Transactions on Computer Vision and Applications",
      "year": 2015,
      "referenceCount": 38,
      "citationCount": 21,
      "authors": [
        {
          "authorId": "8081981",
          "name": "Xueyun Chen"
        },
        {
          "authorId": "1683738",
          "name": "Shiming Xiang"
        },
        {
          "authorId": "1689269",
          "name": "Chenglin Liu"
        },
        {
          "authorId": "144809241",
          "name": "Chunhong Pan"
        }
      ]
    },
    {
      "paperId": "604e5b979a35b76e86643293b9130e465af3332b",
      "externalIds": {
        "DBLP": "conf/aaai/RenX15",
        "MAG": "1575935080",
        "ArXiv": "1501.07338",
        "DOI": "10.1609/aaai.v29i1.9488",
        "CorpusId": 8924441
      },
      "url": "https://www.semanticscholar.org/paper/604e5b979a35b76e86643293b9130e465af3332b",
      "title": "On Vectorization of Deep Convolutional Neural Networks for Vision Tasks",
      "venue": "AAAI Conference on Artificial Intelligence",
      "year": 2015,
      "referenceCount": 27,
      "citationCount": 88,
      "authors": [
        {
          "authorId": "145335572",
          "name": "Jimmy S. J. Ren"
        },
        {
          "authorId": "144574904",
          "name": "Li Xu"
        }
      ]
    },
    {
      "paperId": "94ebfd63a2f8133220cd5e4ad011002270b1489b",
      "externalIds": {
        "MAG": "2554518797",
        "CorpusId": 14895359
      },
      "url": "https://www.semanticscholar.org/paper/94ebfd63a2f8133220cd5e4ad011002270b1489b",
      "title": "A Tutorial on Deep Learning Part 2: Autoencoders, Convolutional Neural Networks and Recurrent Neural Networks",
      "venue": "",
      "year": 2015,
      "referenceCount": 41,
      "citationCount": 145,
      "authors": [
        {
          "authorId": "2827616",
          "name": "Quoc V. Le"
        }
      ]
    },
    {
      "paperId": "4b88e948121a87f00fb5aa0081d2044dde51ee36",
      "externalIds": {
        "DBLP": "journals/corr/LeeGT15",
        "MAG": "2220894487",
        "ArXiv": "1509.08985",
        "CorpusId": 31884
      },
      "url": "https://www.semanticscholar.org/paper/4b88e948121a87f00fb5aa0081d2044dde51ee36",
      "title": "Generalizing Pooling Functions in Convolutional Neural Networks: Mixed, Gated, and Tree",
      "venue": "International Conference on Artificial Intelligence and Statistics",
      "year": 2015,
      "referenceCount": 44,
      "citationCount": 515,
      "authors": [
        {
          "authorId": "50521003",
          "name": "Chen-Yu Lee"
        },
        {
          "authorId": "21561136",
          "name": "Patrick W. Gallagher"
        },
        {
          "authorId": "144035504",
          "name": "Z. Tu"
        }
      ]
    },
    {
      "paperId": "fd63c4c803475637af146c5bc2d85bc99e7f2a07",
      "externalIds": {
        "DBLP": "conf/icip/ZhangWWW15",
        "MAG": "2295892444",
        "DOI": "10.1109/ICIP.2015.7351229",
        "CorpusId": 14579345
      },
      "url": "https://www.semanticscholar.org/paper/fd63c4c803475637af146c5bc2d85bc99e7f2a07",
      "title": "Scene text recognition with deeper convolutional neural networks",
      "venue": "International Conference on Information Photonics",
      "year": 2015,
      "referenceCount": 22,
      "citationCount": 6,
      "authors": [
        {
          "authorId": "2108445791",
          "name": "Yuqi Zhang"
        },
        {
          "authorId": null,
          "name": "Wei Wang"
        },
        {
          "authorId": "123865558",
          "name": "Liang Wang"
        },
        {
          "authorId": "1996385488",
          "name": "Liuan Wang"
        }
      ]
    },
    {
      "paperId": "07026178c39fdf18126e976543394e1d8e85b254",
      "externalIds": {
        "DBLP": "journals/ejasmp/Toth15",
        "MAG": "2125496931",
        "DOI": "10.1186/S13636-015-0068-3",
        "CorpusId": 217950236
      },
      "url": "https://www.semanticscholar.org/paper/07026178c39fdf18126e976543394e1d8e85b254",
      "title": "Phone recognition with hierarchical convolutional deep maxout networks",
      "venue": "EURASIP Journal on Audio, Speech, and Music Processing",
      "year": 2015,
      "referenceCount": 56,
      "citationCount": 94,
      "authors": [
        {
          "authorId": "145307542",
          "name": "L. Tóth"
        }
      ]
    },
    {
      "paperId": "83eba2f478a7e0cef6979f275c9c960b859bf99a",
      "externalIds": {
        "MAG": "2244142460",
        "ArXiv": "1511.04110",
        "DBLP": "conf/wacv/MollahosseiniCM16",
        "DOI": "10.1109/WACV.2016.7477450",
        "CorpusId": 10647804
      },
      "url": "https://www.semanticscholar.org/paper/83eba2f478a7e0cef6979f275c9c960b859bf99a",
      "title": "Going deeper in facial expression recognition using deep neural networks",
      "venue": "IEEE Workshop/Winter Conference on Applications of Computer Vision",
      "year": 2015,
      "referenceCount": 56,
      "citationCount": 941,
      "authors": [
        {
          "authorId": "2314025",
          "name": "A. Mollahosseini"
        },
        {
          "authorId": "152502885",
          "name": "David Chan"
        },
        {
          "authorId": "145531712",
          "name": "M. Mahoor"
        }
      ]
    },
    {
      "paperId": "f7a7f27516a219122000b9b915289b7127dca2f2",
      "externalIds": {
        "MAG": "2963460857",
        "ArXiv": "1511.02683",
        "DBLP": "journals/tifs/WuHST18",
        "DOI": "10.1109/TIFS.2018.2833032",
        "CorpusId": 5351802
      },
      "url": "https://www.semanticscholar.org/paper/f7a7f27516a219122000b9b915289b7127dca2f2",
      "title": "A Light CNN for Deep Face Representation With Noisy Labels",
      "venue": "IEEE Transactions on Information Forensics and Security",
      "year": 2015,
      "referenceCount": 90,
      "citationCount": 1140,
      "authors": [
        {
          "authorId": "144589611",
          "name": "Xiang Wu"
        },
        {
          "authorId": "143712929",
          "name": "R. He"
        },
        {
          "authorId": "1757186",
          "name": "Zhenan Sun"
        },
        {
          "authorId": "143874948",
          "name": "T. Tan"
        }
      ]
    }
  ]
}