{
  "total": 89,
  "offset": 0,
  "next": 10,
  "data": [
    {
      "paperId": "c639f330e8985ef0bfb3c624c2ea63735c037997",
      "externalIds": {
        "MAG": "1889945169",
        "DBLP": "conf/icml/JerniteRS15",
        "CorpusId": 6204745
      },
      "url": "https://www.semanticscholar.org/paper/c639f330e8985ef0bfb3c624c2ea63735c037997",
      "title": "A Fast Variational Approach for Learning Markov Random Field Language Models",
      "venue": "International Conference on Machine Learning",
      "year": 2015,
      "referenceCount": 21,
      "citationCount": 20,
      "authors": [
        {
          "authorId": "2262249",
          "name": "Yacine Jernite"
        },
        {
          "authorId": "2531268",
          "name": "Alexander M. Rush"
        },
        {
          "authorId": "1746662",
          "name": "D. Sontag"
        }
      ]
    },
    {
      "paperId": "a8b826b62bf20d267e4e86bed1e8ec0c4298957d",
      "externalIds": {
        "DBLP": "conf/cvpr/GuanW024",
        "ArXiv": "2403.11193",
        "DOI": "10.1109/CVPR52733.2024.00522",
        "CorpusId": 268512998
      },
      "url": "https://www.semanticscholar.org/paper/a8b826b62bf20d267e4e86bed1e8ec0c4298957d",
      "title": "Neural Markov Random Field for Stereo Matching",
      "venue": "Computer Vision and Pattern Recognition",
      "year": 2024,
      "referenceCount": 65,
      "citationCount": 53,
      "authors": [
        {
          "authorId": "2292029757",
          "name": "Tongfan Guan"
        },
        {
          "authorId": "2292199631",
          "name": "Chen Wang"
        },
        {
          "authorId": "2261731949",
          "name": "Yunchun Liu"
        }
      ]
    },
    {
      "paperId": "393de3ee8e1015e6ad12b13f90e6a00b4dffb59e",
      "externalIds": {
        "DOI": "10.11591/ijai.v15.i1.pp780-787",
        "CorpusId": 285886325
      },
      "url": "https://www.semanticscholar.org/paper/393de3ee8e1015e6ad12b13f90e6a00b4dffb59e",
      "title": "Hybrid convolutional networks, hidden Markov models, and autoencoders for enhanced recognition",
      "venue": "IAES International Journal of Artificial Intelligence (IJ-AI)",
      "year": 2026,
      "referenceCount": 32,
      "citationCount": 0,
      "authors": [
        {
          "authorId": "34667209",
          "name": "Driss Naji"
        },
        {
          "authorId": "2167627850",
          "name": "Kamal Elhattab"
        },
        {
          "authorId": "103310591",
          "name": "A. Joumad"
        },
        {
          "authorId": "2363274669",
          "name": "Abdelouahed Ait ider"
        },
        {
          "authorId": "133642534",
          "name": "A. Ouisaadane"
        },
        {
          "authorId": "2294940417",
          "name": "Azzeddine Idhmad"
        }
      ]
    },
    {
      "paperId": "424466feb5f124d7d75877be1dd94c6823907f36",
      "externalIds": {
        "MAG": "18242629",
        "CorpusId": 59766479
      },
      "url": "https://www.semanticscholar.org/paper/424466feb5f124d7d75877be1dd94c6823907f36",
      "title": "Parts of speech tagging using hidden Markov model, maximum entropy model and conditional random field",
      "venue": "",
      "year": 2014,
      "referenceCount": 7,
      "citationCount": 0,
      "authors": [
        {
          "authorId": "2064200025",
          "name": "A. Anand"
        }
      ]
    },
    {
      "paperId": "9719f2be1bdad6bd2f634d8a222a6c0fa2f37b7e",
      "externalIds": {
        "ArXiv": "2109.15169",
        "DBLP": "journals/corr/abs-2109-15169",
        "PubMedCentral": "9386107",
        "DOI": "10.1016/j.isci.2022.104707",
        "CorpusId": 238226928,
        "PubMed": "35992070"
      },
      "url": "https://www.semanticscholar.org/paper/9719f2be1bdad6bd2f634d8a222a6c0fa2f37b7e",
      "title": "Variational learning of quantum ground states on spiking neuromorphic hardware",
      "venue": "iScience",
      "year": 2021,
      "referenceCount": 85,
      "citationCount": 9,
      "authors": [
        {
          "authorId": "2130181693",
          "name": "Robert Klassert"
        },
        {
          "authorId": "46708045",
          "name": "A. Baumbach"
        },
        {
          "authorId": "2238320235",
          "name": "Mihai A. Petrovici"
        },
        {
          "authorId": "3488831",
          "name": "M. Gärttner"
        }
      ]
    },
    {
      "paperId": "59071a0e8da6a16b45b3a3ab8125e8f298c5c11c",
      "externalIds": {
        "MAG": "1927271208",
        "DBLP": "conf/icml/KhanAFS13",
        "CorpusId": 15639573
      },
      "url": "https://www.semanticscholar.org/paper/59071a0e8da6a16b45b3a3ab8125e8f298c5c11c",
      "title": "Fast Dual Variational Inference for Non-Conjugate Latent Gaussian Models",
      "venue": "International Conference on Machine Learning",
      "year": 2013,
      "referenceCount": 25,
      "citationCount": 39,
      "authors": [
        {
          "authorId": "145901278",
          "name": "M. E. Khan"
        },
        {
          "authorId": "3386308",
          "name": "A. Aravkin"
        },
        {
          "authorId": "143725917",
          "name": "M. Friedlander"
        },
        {
          "authorId": "1680574",
          "name": "M. Seeger"
        }
      ]
    },
    {
      "paperId": "0a7f57eed91d4752759d63dccc2ab247a322f98a",
      "externalIds": {
        "DOI": "10.55708/js0307005",
        "CorpusId": 271398257
      },
      "url": "https://www.semanticscholar.org/paper/0a7f57eed91d4752759d63dccc2ab247a322f98a",
      "title": "A Flourished Approach for Recognizing Text in Digital and Natural Frames",
      "venue": "Journal of Engineering Research and Sciences",
      "year": 2024,
      "referenceCount": 14,
      "citationCount": 0,
      "authors": [
        {
          "authorId": "1800251",
          "name": "M. Dutta"
        },
        {
          "authorId": "2139839313",
          "name": "Dhonita Tripura"
        },
        {
          "authorId": "2296876832",
          "name": "Jugal Krishna Das"
        }
      ]
    },
    {
      "paperId": "68e825fdf36ef6d443603852da790b71360f31b0",
      "externalIds": {
        "DOI": "10.62441/nano-ntp.v20is6.12",
        "CorpusId": 271729955
      },
      "url": "https://www.semanticscholar.org/paper/68e825fdf36ef6d443603852da790b71360f31b0",
      "title": "Utilizing Deep Learning for the Rapid Detection of COVID-19 in Ultrasound",
      "venue": "Nanotechnology Perceptions",
      "year": 2024,
      "referenceCount": 0,
      "citationCount": 0,
      "authors": [
        {
          "authorId": "2334141584",
          "name": "Logu K"
        },
        {
          "authorId": "2334142230",
          "name": "S. John Justin Thangaraj"
        }
      ]
    },
    {
      "paperId": "4815b17b0f451c81c01b8f96c155754d919bfa0b",
      "externalIds": {
        "DBLP": "conf/dsit/ZhuangLLX23",
        "DOI": "10.1109/DSIT60026.2023.00058",
        "CorpusId": 267660052
      },
      "url": "https://www.semanticscholar.org/paper/4815b17b0f451c81c01b8f96c155754d919bfa0b",
      "title": "V-SBERT: A Mixture Model for Closed-Domain Question-Answering Systems Based on Natural Language Processing and Deep Learning",
      "venue": "International Conference on Data Science and Information Technology",
      "year": 2023,
      "referenceCount": 27,
      "citationCount": 2,
      "authors": [
        {
          "authorId": "2302511961",
          "name": "Zhuang Yuan"
        },
        {
          "authorId": "2284503464",
          "name": "Boyan Liu"
        },
        {
          "authorId": "2383290096",
          "name": "Xiaotao Lin"
        },
        {
          "authorId": "2314338554",
          "name": "Can Xu"
        }
      ]
    },
    {
      "paperId": "90c7ef375f2717a93a00c6ace58b6cd10e96464f",
      "externalIds": {
        "MAG": "1817933328",
        "ArXiv": "1306.1052",
        "CorpusId": 88513971
      },
      "url": "https://www.semanticscholar.org/paper/90c7ef375f2717a93a00c6ace58b6cd10e96464f",
      "title": "Fast Dual Variational Inference for Non-Conjugate LGMs",
      "venue": "",
      "year": 2013,
      "referenceCount": 25,
      "citationCount": 4,
      "authors": [
        {
          "authorId": "145901278",
          "name": "M. E. Khan"
        },
        {
          "authorId": "3386308",
          "name": "A. Aravkin"
        },
        {
          "authorId": "143725917",
          "name": "M. Friedlander"
        },
        {
          "authorId": "1680574",
          "name": "M. Seeger"
        }
      ]
    }
  ]
}