{
  "total": 3441,
  "offset": 0,
  "next": 10,
  "data": [
    {
      "paperId": "9c135a28d84c59ea3b2ea048de6cfa94c6f958b4",
      "externalIds": {
        "MAG": "1948596984",
        "ArXiv": "1502.06668",
        "DBLP": "conf/icml/SteinhardtL15a",
        "CorpusId": 263795035
      },
      "url": "https://www.semanticscholar.org/paper/9c135a28d84c59ea3b2ea048de6cfa94c6f958b4",
      "title": "Learning Fast-Mixing Models for Structured Prediction",
      "venue": "International Conference on Machine Learning",
      "year": 2015,
      "referenceCount": 36,
      "citationCount": 11,
      "authors": [
        {
          "authorId": "2288262462",
          "name": "Jacob Steinhardt"
        },
        {
          "authorId": "2325905225",
          "name": "Percy Liang"
        }
      ]
    },
    {
      "paperId": "34b2fab867d8d25eca7ef08720ada6d9cd79af6d",
      "externalIds": {
        "DBLP": "journals/jcisd/XuO24",
        "DOI": "10.1021/acs.jcim.3c01202",
        "CorpusId": 264517459,
        "PubMed": "37883249"
      },
      "url": "https://www.semanticscholar.org/paper/34b2fab867d8d25eca7ef08720ada6d9cd79af6d",
      "title": "Accurate and Fast Prediction of Intrinsically Disordered Protein by Multiple Protein Language Models and Ensemble Learning",
      "venue": "Journal of Chemical Information and Modeling",
      "year": 2023,
      "referenceCount": 42,
      "citationCount": 16,
      "authors": [
        {
          "authorId": "2188456981",
          "name": "Shijie Xu"
        },
        {
          "authorId": "2188372750",
          "name": "Akira Onoda"
        }
      ]
    },
    {
      "paperId": "93d43adfe51d6939aa4b65065711937f3603282d",
      "externalIds": {
        "PubMedCentral": "9252760",
        "DBLP": "journals/nar/HoieKPNWNHM22",
        "DOI": "10.1093/nar/gkac439",
        "CorpusId": 249235373,
        "PubMed": "35648435"
      },
      "url": "https://www.semanticscholar.org/paper/93d43adfe51d6939aa4b65065711937f3603282d",
      "title": "NetSurfP-3.0: accurate and fast prediction of protein structural features by protein language models and deep learning",
      "venue": "Nucleic Acids Res.",
      "year": 2022,
      "referenceCount": 25,
      "citationCount": 261,
      "authors": [
        {
          "authorId": "2117177133",
          "name": "M. H. Høie"
        },
        {
          "authorId": "2167278388",
          "name": "Erik Nicolas Kiehl"
        },
        {
          "authorId": "2056586253",
          "name": "Bent Petersen"
        },
        {
          "authorId": "2069768997",
          "name": "Morten Nielsen"
        },
        {
          "authorId": "1724252",
          "name": "O. Winther"
        },
        {
          "authorId": "47827007",
          "name": "Henrik Nielsen"
        },
        {
          "authorId": "2162345161",
          "name": "Jeppe Hallgren"
        },
        {
          "authorId": "47542371",
          "name": "P. Marcatili"
        }
      ]
    },
    {
      "paperId": "3b431b6726d497a5d24d244d7a3f0bf70d920de0",
      "externalIds": {
        "DOI": "10.1017/s1049023x26108310",
        "CorpusId": 286870505
      },
      "url": "https://www.semanticscholar.org/paper/3b431b6726d497a5d24d244d7a3f0bf70d920de0",
      "title": "Machine Learning-Based Models for Prediction of Emergency Triage Criticality",
      "venue": "Prehospital and Disaster Medicine",
      "year": 2026,
      "referenceCount": 0,
      "citationCount": 0,
      "authors": [
        {
          "authorId": "2107902813",
          "name": "Linyuan Zhang"
        },
        {
          "authorId": "47086745",
          "name": "Hongjuan Lang"
        },
        {
          "authorId": "2350234541",
          "name": "Chao Wu"
        },
        {
          "authorId": "15591345",
          "name": "Xiangni Su"
        },
        {
          "authorId": "2284488188",
          "name": "Changchang Chen"
        }
      ]
    },
    {
      "paperId": "3f25e17eb717e5894e0404ea634451332f85d287",
      "externalIds": {
        "MAG": "2188365844",
        "DBLP": "conf/nips/SohnLY15",
        "CorpusId": 13936837
      },
      "url": "https://www.semanticscholar.org/paper/3f25e17eb717e5894e0404ea634451332f85d287",
      "title": "Learning Structured Output Representation using Deep Conditional Generative Models",
      "venue": "Neural Information Processing Systems",
      "year": 2015,
      "referenceCount": 37,
      "citationCount": 3766,
      "authors": [
        {
          "authorId": "1729571",
          "name": "Kihyuk Sohn"
        },
        {
          "authorId": "1697141",
          "name": "Honglak Lee"
        },
        {
          "authorId": "3084614",
          "name": "Xinchen Yan"
        }
      ]
    },
    {
      "paperId": "9a53cef33ff39893b22dc08ee045541925ba2214",
      "externalIds": {
        "MAG": "2951922091",
        "DBLP": "journals/corr/abs-1805-09213",
        "ArXiv": "1805.09213",
        "CorpusId": 43921191
      },
      "url": "https://www.semanticscholar.org/paper/9a53cef33ff39893b22dc08ee045541925ba2214",
      "title": "Learning latent variable structured prediction models with Gaussian perturbations",
      "venue": "Neural Information Processing Systems",
      "year": 2018,
      "referenceCount": 33,
      "citationCount": 4,
      "authors": [
        {
          "authorId": "143682534",
          "name": "Kevin Bello"
        },
        {
          "authorId": "1744068",
          "name": "Jean Honorio"
        }
      ]
    },
    {
      "paperId": "41b9f3af41b9460292176dfd4e0aaae31602e278",
      "externalIds": {
        "PubMedCentral": "9860028",
        "DOI": "10.1038/s41598-023-28076-3",
        "CorpusId": 256045014,
        "PubMed": "36670171"
      },
      "url": "https://www.semanticscholar.org/paper/41b9f3af41b9460292176dfd4e0aaae31602e278",
      "title": "A comprehensive deep learning method for empirical spectral prediction and its quantitative validation of nano-structured dimers",
      "venue": "Scientific Reports",
      "year": 2023,
      "referenceCount": 73,
      "citationCount": 28,
      "authors": [
        {
          "authorId": "153877968",
          "name": "Sneha Verma"
        },
        {
          "authorId": "78336882",
          "name": "Sunny Chugh"
        },
        {
          "authorId": "2155615532",
          "name": "Souvik Ghosh"
        },
        {
          "authorId": "2113392583",
          "name": "B. Rahman"
        }
      ]
    },
    {
      "paperId": "1a9c125edce216f074cfdeadc5af7a3fe0de9d64",
      "externalIds": {
        "DBLP": "journals/corr/abs-2512-18251",
        "ArXiv": "2512.18251",
        "DOI": "10.48550/arXiv.2512.18251",
        "CorpusId": 284078307
      },
      "url": "https://www.semanticscholar.org/paper/1a9c125edce216f074cfdeadc5af7a3fe0de9d64",
      "title": "CrystalFormer-CSP: Thinking Fast and Slow for Crystal Structure Prediction",
      "venue": "arXiv.org",
      "year": 2025,
      "referenceCount": 48,
      "citationCount": 1,
      "authors": [
        {
          "authorId": "2294152566",
          "name": "Zhendong Cao"
        },
        {
          "authorId": "2400153247",
          "name": "Shigang Ou"
        },
        {
          "authorId": "2293342267",
          "name": "Lei Wang"
        }
      ]
    },
    {
      "paperId": "ce264bc13d74da5673f23743a61a522065d6d542",
      "externalIds": {
        "DOI": "10.1007/s41024-025-00636-2",
        "CorpusId": 279218970
      },
      "url": "https://www.semanticscholar.org/paper/ce264bc13d74da5673f23743a61a522065d6d542",
      "title": "A review of machine learning models for concrete strength prediction and mix optimization",
      "venue": "Journal of Building Pathology and Rehabilitation",
      "year": 2025,
      "referenceCount": 62,
      "citationCount": 5,
      "authors": [
        {
          "authorId": "2365854740",
          "name": "Shaik Lal Mohiddin"
        },
        {
          "authorId": "1392645408",
          "name": "D. Ravi Prasad"
        },
        {
          "authorId": "2365861973",
          "name": "D. Ramaseshu"
        }
      ]
    },
    {
      "paperId": "d587266f185cb7e9ef9d47226a27710338ec3041",
      "externalIds": {
        "DOI": "10.1101/2025.06.12.659353",
        "CorpusId": 279448660
      },
      "url": "https://www.semanticscholar.org/paper/d587266f185cb7e9ef9d47226a27710338ec3041",
      "title": "RocketSHP: Ultra-fast Proteome-scale Prediction of Protein Dynamics",
      "venue": "bioRxiv",
      "year": 2025,
      "referenceCount": 67,
      "citationCount": 3,
      "authors": [
        {
          "authorId": "1441515936",
          "name": "Samuel Sledzieski"
        },
        {
          "authorId": "2264209725",
          "name": "Sonya M. Hanson"
        }
      ]
    }
  ]
}