{
  "total": 15,
  "offset": 0,
  "next": 10,
  "data": [
    {
      "paperId": "03df3c827e6597f41bd31d64883686b33d792e9d",
      "externalIds": {
        "MAG": "2402218232",
        "DBLP": "conf/icml/SongGC16",
        "ArXiv": "1605.06715",
        "CorpusId": 10625978
      },
      "url": "https://www.semanticscholar.org/paper/03df3c827e6597f41bd31d64883686b33d792e9d",
      "title": "Factored Temporal Sigmoid Belief Networks for Sequence Learning",
      "venue": "International Conference on Machine Learning",
      "year": 2016,
      "referenceCount": 35,
      "citationCount": 10,
      "authors": [
        {
          "authorId": "51453887",
          "name": "Jiaming Song"
        },
        {
          "authorId": "144702900",
          "name": "Zhe Gan"
        },
        {
          "authorId": "145006560",
          "name": "L. Carin"
        }
      ]
    },
    {
      "paperId": "0ac2b379fe9b2bf9d5b8129d6117adbb0ab595fb",
      "externalIds": {
        "MAG": "2951244767",
        "ArXiv": "1509.07087",
        "DBLP": "journals/corr/GanLHCC15",
        "CorpusId": 9880391
      },
      "url": "https://www.semanticscholar.org/paper/0ac2b379fe9b2bf9d5b8129d6117adbb0ab595fb",
      "title": "Deep Temporal Sigmoid Belief Networks for Sequence Modeling",
      "venue": "Neural Information Processing Systems",
      "year": 2015,
      "referenceCount": 33,
      "citationCount": 89,
      "authors": [
        {
          "authorId": "144702900",
          "name": "Zhe Gan"
        },
        {
          "authorId": "2109737569",
          "name": "Chunyuan Li"
        },
        {
          "authorId": "145153424",
          "name": "Ricardo Henao"
        },
        {
          "authorId": "144752689",
          "name": "David Edwin Carlson"
        },
        {
          "authorId": "145006560",
          "name": "L. Carin"
        }
      ]
    },
    {
      "paperId": "cb15c206991929844420c7f257ec3e0245f69cab",
      "externalIds": {
        "DOI": "10.1109/ICHCESWIDR54323.2021.9656461",
        "CorpusId": 245541520
      },
      "url": "https://www.semanticscholar.org/paper/cb15c206991929844420c7f257ec3e0245f69cab",
      "title": "The reconstruction of lake water levels with a deep belief network based method considering the spatial and temporal heterogeneity in contributions of the driving factors",
      "venue": "2021 7th International Conference on Hydraulic and Civil Engineering & Smart Water Conservancy and Intelligent Disaster Reduction Forum (ICHCE & SWIDR)",
      "year": 2021,
      "referenceCount": 0,
      "citationCount": 0,
      "authors": [
        {
          "authorId": "2148565491",
          "name": "Fangqing Zan"
        },
        {
          "authorId": "2405366",
          "name": "Linwei Yue"
        },
        {
          "authorId": "2157944572",
          "name": "Zheng Zhou"
        },
        {
          "authorId": "2109303328",
          "name": "Xiuguo Liu"
        }
      ]
    },
    {
      "paperId": "e5a34cdc28e1db2ad1583abf3dcb1e64bd37b999",
      "externalIds": {
        "MAG": "2887470972",
        "DOI": "10.20944/PREPRINTS201808.0194.V1",
        "CorpusId": 52221831
      },
      "url": "https://www.semanticscholar.org/paper/e5a34cdc28e1db2ad1583abf3dcb1e64bd37b999",
      "title": "An Integrative Systems Model for Oil and Gas Pipeline Data Prediction and Monitoring Using a Machine Intelligence and Sequence Learning Neural Technique",
      "venue": "",
      "year": 2018,
      "referenceCount": 31,
      "citationCount": 1,
      "authors": [
        {
          "authorId": "2301390812",
          "name": "Chinwe Onukwugha"
        },
        {
          "authorId": "8793037",
          "name": "E. N. Osegi"
        }
      ]
    },
    {
      "paperId": "9468e310ae65251900b65306870c30d94d8891a7",
      "externalIds": {
        "DBLP": "journals/ijis/WangLZ26",
        "DOI": "10.1155/int/3037960",
        "CorpusId": 286401531
      },
      "url": "https://www.semanticscholar.org/paper/9468e310ae65251900b65306870c30d94d8891a7",
      "title": "GCKT: Context-Aware Gating of Heterogeneous Learning Features With Transformer for Cognitive Knowledge Tracing in Intelligent Tutoring Systems",
      "venue": "International Journal of Intelligent Systems",
      "year": 2026,
      "referenceCount": 21,
      "citationCount": 0,
      "authors": [
        {
          "authorId": "2261258362",
          "name": "Zhifeng Wang"
        },
        {
          "authorId": "2301260349",
          "name": "Jinyu Liu"
        },
        {
          "authorId": "2169487804",
          "name": "Chunyan Zeng"
        }
      ]
    },
    {
      "paperId": "df5830f7fa059e4a51a5217010bc5760da2bec8e",
      "externalIds": {
        "DOI": "10.1109/ISRIMT67769.2025.11413226",
        "CorpusId": 286327659
      },
      "url": "https://www.semanticscholar.org/paper/df5830f7fa059e4a51a5217010bc5760da2bec8e",
      "title": "SGU-SLAM: Semantic-Geometric Fusion and Uncertainty Embedding for Dynamic SLAM",
      "venue": "2025 7th International Symposium on Robotics and Intelligent Manufacturing Technology (ISRIMT)",
      "year": 2025,
      "referenceCount": 15,
      "citationCount": 0,
      "authors": [
        {
          "authorId": "2422640438",
          "name": "Shaobo Zheng"
        },
        {
          "authorId": "2370138497",
          "name": "Zexi Hua"
        },
        {
          "authorId": "2356478403",
          "name": "Yongchuan Tang"
        }
      ]
    },
    {
      "paperId": "5b66de47a658fa281782deefb8beb016bb33b89a",
      "externalIds": {
        "DOI": "10.2118/211284-ms",
        "CorpusId": 253306172
      },
      "url": "https://www.semanticscholar.org/paper/5b66de47a658fa281782deefb8beb016bb33b89a",
      "title": "Physics-Informed Spatio-Temporal Graph Neural Network for Waterflood Management",
      "venue": "Day 1 Mon, October 31, 2022",
      "year": 2022,
      "referenceCount": 15,
      "citationCount": 2,
      "authors": [
        {
          "authorId": "48035613",
          "name": "H. Darabi"
        },
        {
          "authorId": "92888501",
          "name": "A. Kianinejad"
        },
        {
          "authorId": "4116259",
          "name": "A. Salehi"
        }
      ]
    },
    {
      "paperId": "c0eea10daa528887c363db154daaa20997c0dcfa",
      "externalIds": {
        "CorpusId": 235817002
      },
      "url": "https://www.semanticscholar.org/paper/c0eea10daa528887c363db154daaa20997c0dcfa",
      "title": "Drowsy Driving Detection via Hybrid Deep Learning",
      "venue": "",
      "year": 2020,
      "referenceCount": 6,
      "citationCount": 2,
      "authors": [
        {
          "authorId": "2362405195",
          "name": "Najla"
        }
      ]
    },
    {
      "paperId": "d97c4539dcb3f4793b5b2d81d3caf92206c6346d",
      "externalIds": {
        "MAG": "2914689246",
        "DBLP": "conf/wilf/2007",
        "DOI": "10.1007/978-3-540-73400-0",
        "CorpusId": 29065387
      },
      "url": "https://www.semanticscholar.org/paper/d97c4539dcb3f4793b5b2d81d3caf92206c6346d",
      "title": "Applications of Fuzzy Sets Theory, 7th International Workshop on Fuzzy Logic and Applications, WILF 2007, Camogli, Italy, July 7-10, 2007, Proceedings",
      "venue": "International Workshop on Fuzzy Logic and Applications",
      "year": 2007,
      "referenceCount": 0,
      "citationCount": 89,
      "authors": [
        {
          "authorId": "144493859",
          "name": "F. Masulli"
        },
        {
          "authorId": "2286446193",
          "name": "S. Mitra"
        },
        {
          "authorId": "145645971",
          "name": "G. Pasi"
        }
      ]
    },
    {
      "paperId": "ff66ab7db7ac31b8ba1831a8e038a756a4467ee1",
      "externalIds": {
        "MAG": "1502473039",
        "CorpusId": 27688012
      },
      "url": "https://www.semanticscholar.org/paper/ff66ab7db7ac31b8ba1831a8e038a756a4467ee1",
      "title": "AI 2007 : Advances in artificial intelligence : 20th Australian Joint Conference on Artificial Intelligence Gold Coast, Australia, December 2-6, 2007 : proceedings",
      "venue": "",
      "year": 2007,
      "referenceCount": 0,
      "citationCount": 88,
      "authors": [
        {
          "authorId": "145572420",
          "name": "M. Orgun"
        },
        {
          "authorId": "145161436",
          "name": "J. Thornton"
        }
      ]
    }
  ]
}