{
  "total": 322,
  "offset": 0,
  "next": 10,
  "data": [
    {
      "paperId": "9a7a3d4ca7e2ca91cddcca12f03a84ddf2c52a76",
      "externalIds": {
        "DBLP": "conf/icml/BenavoliCMZ15",
        "MAG": "2130670110",
        "CorpusId": 14267877
      },
      "url": "https://www.semanticscholar.org/paper/9a7a3d4ca7e2ca91cddcca12f03a84ddf2c52a76",
      "title": "A Bayesian nonparametric procedure for comparing algorithms",
      "venue": "International Conference on Machine Learning",
      "year": 2015,
      "referenceCount": 22,
      "citationCount": 10,
      "authors": [
        {
          "authorId": "1792368",
          "name": "A. Benavoli"
        },
        {
          "authorId": "1680295",
          "name": "Giorgio Corani"
        },
        {
          "authorId": "32441746",
          "name": "F. Mangili"
        },
        {
          "authorId": "1825163",
          "name": "Marco Zaffalon"
        }
      ]
    },
    {
      "paperId": "472c1e7aeee74117dc1ecea725434462475d16e0",
      "externalIds": {
        "MAG": "2791149733",
        "DOI": "10.1134/S0001433817090171",
        "CorpusId": 125745284
      },
      "url": "https://www.semanticscholar.org/paper/472c1e7aeee74117dc1ecea725434462475d16e0",
      "title": "Comparison Analysis of Recognition Algorithms of Forest-Cover Objects on Hyperspectral Air-Borne and Space-Borne Images",
      "venue": "Izvestiya, Atmospheric and Oceanic Physics",
      "year": 2017,
      "referenceCount": 19,
      "citationCount": 2,
      "authors": [
        {
          "authorId": "14181499",
          "name": "V. Kozoderov"
        },
        {
          "authorId": "13773295",
          "name": "T. V. Kondranin"
        },
        {
          "authorId": "98419001",
          "name": "E. Dmitriev"
        }
      ]
    },
    {
      "paperId": "7214e925d5614de5abd63396e71dfaf9502d4447",
      "externalIds": {
        "MAG": "3005096726",
        "DOI": "10.1111/biom.13234",
        "CorpusId": 211022909,
        "PubMed": "32012223"
      },
      "url": "https://www.semanticscholar.org/paper/7214e925d5614de5abd63396e71dfaf9502d4447",
      "title": "A Bayesian nonparametric testing procedure for paired samples",
      "venue": "Biometrics",
      "year": 2020,
      "referenceCount": 56,
      "citationCount": 8,
      "authors": [
        {
          "authorId": "2072920486",
          "name": "L. A. Pereira"
        },
        {
          "authorId": "1402268731",
          "name": "D. Taylor-Rodríguez"
        },
        {
          "authorId": "153702594",
          "name": "Luis Gutiérrez"
        }
      ]
    },
    {
      "paperId": "c54b5a8d7520e51f921adec1f148a3f3a8b559e6",
      "externalIds": {
        "DOI": "10.1007/s11018-024-02288-z",
        "CorpusId": 269079409
      },
      "url": "https://www.semanticscholar.org/paper/c54b5a8d7520e51f921adec1f148a3f3a8b559e6",
      "title": "Application of a nonparametric procedure for testing the hypothesis about the independence of random variables given a large amount of statistical data",
      "venue": "Measurement techniques",
      "year": 2024,
      "referenceCount": 21,
      "citationCount": 1,
      "authors": [
        {
          "authorId": "67073593",
          "name": "A. V. Lapko"
        },
        {
          "authorId": "66233561",
          "name": "V. A. Lapko"
        },
        {
          "authorId": "2129552149",
          "name": "A. V. Bakhtina"
        }
      ]
    },
    {
      "paperId": "f2dabd68ad5f2535f6098425ca675ddd54dcd96b",
      "externalIds": {
        "DOI": "10.1037/met0000728",
        "CorpusId": 277190214,
        "PubMed": "40111827"
      },
      "url": "https://www.semanticscholar.org/paper/f2dabd68ad5f2535f6098425ca675ddd54dcd96b",
      "title": "Bayesian nonparametric latent class analysis with different item types.",
      "venue": "Psychological methods",
      "year": 2025,
      "referenceCount": 0,
      "citationCount": 4,
      "authors": [
        {
          "authorId": "2193581299",
          "name": "Meng Qiu"
        },
        {
          "authorId": "2351243712",
          "name": "Sally Paganin"
        },
        {
          "authorId": "52192727",
          "name": "Ilsang Ohn"
        },
        {
          "authorId": "2324400713",
          "name": "Lizhen Lin"
        }
      ]
    },
    {
      "paperId": "df4ceb63c1cd82c4fa90883ae09dc8cfab028abc",
      "externalIds": {
        "DBLP": "journals/jcb/LijoiMP08",
        "MAG": "2130255858",
        "DOI": "10.1089/cmb.2008.0043",
        "CorpusId": 14466667,
        "PubMed": "19040366"
      },
      "url": "https://www.semanticscholar.org/paper/df4ceb63c1cd82c4fa90883ae09dc8cfab028abc",
      "title": "A Bayesian Nonparametric Approach for Comparing Clustering Structures in EST Libraries",
      "venue": "J. Comput. Biol.",
      "year": 2008,
      "referenceCount": 25,
      "citationCount": 18,
      "authors": [
        {
          "authorId": "3026286",
          "name": "Antonio Lijoi"
        },
        {
          "authorId": "2438054",
          "name": "Ramsés H. Mena"
        },
        {
          "authorId": "2310304",
          "name": "Igor Prünster"
        }
      ]
    },
    {
      "paperId": "6e194569eb9799a47fb91e253bfbea9b76c18891",
      "externalIds": {
        "ArXiv": "1905.05022",
        "DBLP": "conf/pakdd/HuangLPH21",
        "DOI": "10.1007/978-3-030-75768-7_17",
        "CorpusId": 232080786
      },
      "url": "https://www.semanticscholar.org/paper/6e194569eb9799a47fb91e253bfbea9b76c18891",
      "title": "Inferring Hierarchical Mixture Structures: A Bayesian Nonparametric Approach",
      "venue": "Pacific-Asia Conference on Knowledge Discovery and Data Mining",
      "year": 2019,
      "referenceCount": 32,
      "citationCount": 2,
      "authors": [
        {
          "authorId": "23716403",
          "name": "Weipéng Huáng"
        },
        {
          "authorId": "3386475",
          "name": "Nishma Laitonjam"
        },
        {
          "authorId": "3374319",
          "name": "Guangyuan Piao"
        },
        {
          "authorId": "1725433",
          "name": "N. Hurley"
        }
      ]
    },
    {
      "paperId": "5982109d37abb31c43da95ba6e59d52c232044d0",
      "externalIds": {
        "DBLP": "journals/corr/abs-2602-07411",
        "ArXiv": "2602.07411",
        "DOI": "10.48550/arXiv.2602.07411",
        "CorpusId": 285452056
      },
      "url": "https://www.semanticscholar.org/paper/5982109d37abb31c43da95ba6e59d52c232044d0",
      "title": "Nonparametric Bayesian Optimization for General Rewards",
      "venue": "arXiv.org",
      "year": 2026,
      "referenceCount": 0,
      "citationCount": 0,
      "authors": [
        {
          "authorId": "2283120527",
          "name": "Zishi Zhang"
        },
        {
          "authorId": "2283841222",
          "name": "Tao Ren"
        },
        {
          "authorId": "2409973097",
          "name": "Yijie Peng"
        }
      ]
    },
    {
      "paperId": "1fbf0e493367ba4f0989f69bf2cb585a6bc140e1",
      "externalIds": {
        "DOI": "10.3390/psf2025012011",
        "CorpusId": 282348699
      },
      "url": "https://www.semanticscholar.org/paper/1fbf0e493367ba4f0989f69bf2cb585a6bc140e1",
      "title": "Nonparametric Full Bayesian Significance Testing for Bayesian Histograms",
      "venue": "The 43rd International Workshop on Bayesian Inference and Maximum Entropy Methods in Science and Engineering",
      "year": 2025,
      "referenceCount": 13,
      "citationCount": 0,
      "authors": [
        {
          "authorId": "2353956218",
          "name": "Fernando Correa"
        },
        {
          "authorId": "2058756346",
          "name": "J. M. Stern"
        },
        {
          "authorId": "2353955808",
          "name": "Rafael Bassi Stern"
        }
      ]
    },
    {
      "paperId": "50954614d74ecd11c289d80099cb754281242744",
      "externalIds": {
        "CorpusId": 260592346
      },
      "url": "https://www.semanticscholar.org/paper/50954614d74ecd11c289d80099cb754281242744",
      "title": "A Bayesian Nonparametric Conditional Two-sample Test with an Application to Local Causal Discovery",
      "venue": "",
      "year": 2020,
      "referenceCount": 31,
      "citationCount": 0,
      "authors": [
        {
          "authorId": "1879513779",
          "name": "P. Boeken"
        },
        {
          "authorId": "2232364838",
          "name": "J. Mooij"
        }
      ]
    }
  ]
}