{
  "total": 23,
  "offset": 0,
  "next": 10,
  "data": [
    {
      "paperId": "4bed96c83ef5821481ad3201df885c15b2f0376a",
      "externalIds": {
        "DBLP": "conf/icml/Soltanmohammadi15",
        "MAG": "2170319814",
        "CorpusId": 8304558
      },
      "url": "https://www.semanticscholar.org/paper/4bed96c83ef5821481ad3201df885c15b2f0376a",
      "title": "Context-based Unsupervised Data Fusion for Decision Making",
      "venue": "International Conference on Machine Learning",
      "year": 2015,
      "referenceCount": 25,
      "citationCount": 3,
      "authors": [
        {
          "authorId": "2803419",
          "name": "Erfan Soltanmohammadi"
        },
        {
          "authorId": "1399257383",
          "name": "M. Naraghi-Pour"
        },
        {
          "authorId": "1729969",
          "name": "M. Schaar"
        }
      ]
    },
    {
      "paperId": "10d021ce687fcea5cd972dcc0dc206ecbd6c2ad8",
      "externalIds": {
        "MAG": "1669730594",
        "DOI": "10.1109/MGRS.2015.2443494",
        "CorpusId": 11842017
      },
      "url": "https://www.semanticscholar.org/paper/10d021ce687fcea5cd972dcc0dc206ecbd6c2ad8",
      "title": "The Time Variable in Data Fusion: A Change Detection Perspective",
      "venue": "IEEE Geoscience and Remote Sensing Magazine",
      "year": 2015,
      "referenceCount": 138,
      "citationCount": 158,
      "authors": [
        {
          "authorId": "2963826",
          "name": "F. Bovolo"
        },
        {
          "authorId": "1698844",
          "name": "L. Bruzzone"
        }
      ]
    },
    {
      "paperId": "381eae103192fc6056c7a0f4a35c3cceabe97151",
      "externalIds": {
        "MAG": "2343286975",
        "DOI": "10.1109/MAMI.2015.7456588",
        "CorpusId": 41712489
      },
      "url": "https://www.semanticscholar.org/paper/381eae103192fc6056c7a0f4a35c3cceabe97151",
      "title": "Classifier fusion for liver function test based Indian jaundice classification",
      "venue": "2015 International Conference on Man and Machine Interfacing (MAMI)",
      "year": 2015,
      "referenceCount": 17,
      "citationCount": 9,
      "authors": [
        {
          "authorId": "9085985",
          "name": "Shiladitya Saha"
        },
        {
          "authorId": "152623602",
          "name": "S. Saha"
        },
        {
          "authorId": "2280251",
          "name": "P. Bhattacharyya"
        }
      ]
    },
    {
      "paperId": "0f8418926c089e273a1f443fb76a40b77c79e9d8",
      "externalIds": {
        "DBLP": "journals/cars/BetrouniMLMVP15",
        "MAG": "2028626854",
        "DOI": "10.1007/s11548-015-1151-z",
        "CorpusId": 1059012,
        "PubMed": "25605298"
      },
      "url": "https://www.semanticscholar.org/paper/0f8418926c089e273a1f443fb76a40b77c79e9d8",
      "title": "Computer-aided analysis of prostate multiparametric MR images: an unsupervised fusion-based approach",
      "venue": "International Journal of Computer Assisted Radiology and Surgery",
      "year": 2015,
      "referenceCount": 29,
      "citationCount": 3,
      "authors": [
        {
          "authorId": "2087869",
          "name": "N. Betrouni"
        },
        {
          "authorId": "49231954",
          "name": "N. Makni"
        },
        {
          "authorId": "31845471",
          "name": "S. Lakroum"
        },
        {
          "authorId": "2409769",
          "name": "S. Mordon"
        },
        {
          "authorId": "2919320",
          "name": "A. Villers"
        },
        {
          "authorId": "145297660",
          "name": "P. Puech"
        }
      ]
    },
    {
      "paperId": "30b7a198a3d65fc0331c691909cb0d3ffd646553",
      "externalIds": {
        "DBLP": "journals/staeors/LuLCZXK15",
        "MAG": "2099166894",
        "DOI": "10.1109/JSTARS.2015.2416635",
        "CorpusId": 13518811
      },
      "url": "https://www.semanticscholar.org/paper/30b7a198a3d65fc0331c691909cb0d3ffd646553",
      "title": "Improving Pixel-Based Change Detection Accuracy Using an Object-Based Approach in Multitemporal SAR Flood Images",
      "venue": "IEEE Journal of Selected Topics in Applied Earth Observations and Remote Sensing",
      "year": 2015,
      "referenceCount": 50,
      "citationCount": 75,
      "authors": [
        {
          "authorId": "2151164924",
          "name": "Jun Lu"
        },
        {
          "authorId": "2124950899",
          "name": "Jonathan Li"
        },
        {
          "authorId": "2146661421",
          "name": "Gang Chen"
        },
        {
          "authorId": "9724130",
          "name": "Linjun Zhao"
        },
        {
          "authorId": "2867630",
          "name": "Boli Xiong"
        },
        {
          "authorId": "30745213",
          "name": "Gaoyao Kuang"
        }
      ]
    },
    {
      "paperId": "c047aa822306b808c280be67d19761fb7379cd54",
      "externalIds": {
        "DBLP": "conf/fusion/GrossLPLN15",
        "MAG": "1576685647",
        "CorpusId": 8999225
      },
      "url": "https://www.semanticscholar.org/paper/c047aa822306b808c280be67d19761fb7379cd54",
      "title": "Application of multi-level fusion for pattern of life analysis",
      "venue": "Fusion",
      "year": 2015,
      "referenceCount": 35,
      "citationCount": 2,
      "authors": [
        {
          "authorId": "38205440",
          "name": "Geoff A. Gross"
        },
        {
          "authorId": "145110898",
          "name": "E. Little"
        },
        {
          "authorId": "104687087",
          "name": "B. Park"
        },
        {
          "authorId": "145829692",
          "name": "J. Llinas"
        },
        {
          "authorId": "1722963",
          "name": "R. Nagi"
        }
      ]
    },
    {
      "paperId": "332408747e9b425d9f63cdc14658a9430d916a2a",
      "externalIds": {
        "DBLP": "journals/jucs/Torre-BastidaVG15",
        "MAG": "2405113240",
        "CorpusId": 11665501
      },
      "url": "https://www.semanticscholar.org/paper/332408747e9b425d9f63cdc14658a9430d916a2a",
      "title": "Design and Implementation of an Extended Corporate CRMDatabase System with Big Data Analytical Functionalities",
      "venue": "Journal of universal computer science (Online)",
      "year": 2015,
      "referenceCount": 37,
      "citationCount": 7,
      "authors": [
        {
          "authorId": "1402291336",
          "name": "Ana I. Torre-Bastida"
        },
        {
          "authorId": "1399096304",
          "name": "Esther Villar-Rodriguez"
        },
        {
          "authorId": "1402195255",
          "name": "S. Gil-Lopez"
        },
        {
          "authorId": "9221552",
          "name": "J. Ser"
        }
      ]
    },
    {
      "paperId": "cfb10a99a80c775de9f111ea36533d00e276a739",
      "externalIds": {
        "DBLP": "conf/safeprocess/HondaLESAPI15",
        "DOI": "10.36001/phmconf.2015.v7i1.2673",
        "CorpusId": 3170935
      },
      "url": "https://www.semanticscholar.org/paper/cfb10a99a80c775de9f111ea36533d00e276a739",
      "title": "Device Health Estimation by Combining Contextual Control Information with Sensor Data",
      "venue": "Workshop on Principles of Diagnosis",
      "year": 2015,
      "referenceCount": 23,
      "citationCount": 1,
      "authors": [
        {
          "authorId": "2727268",
          "name": "Tomonori Honda"
        },
        {
          "authorId": "40323529",
          "name": "Linxia Liao"
        },
        {
          "authorId": "3355952",
          "name": "Hoda Eldardiry"
        },
        {
          "authorId": "144712835",
          "name": "B. Saha"
        },
        {
          "authorId": "144837389",
          "name": "Rui Abreu"
        },
        {
          "authorId": "145420004",
          "name": "R. Pavel"
        },
        {
          "authorId": "114259871",
          "name": "J. Iverson"
        }
      ]
    },
    {
      "paperId": "fa47f8b38004150438dbc0c26b99feb3a0d75e30",
      "externalIds": {
        "DBLP": "phd/dnb/Kurdyukova15",
        "MAG": "2461305526",
        "CorpusId": 38905412
      },
      "url": "https://www.semanticscholar.org/paper/fa47f8b38004150438dbc0c26b99feb3a0d75e30",
      "title": "Adaptation on personalized public displays driven by social context",
      "venue": "",
      "year": 2015,
      "referenceCount": 202,
      "citationCount": 1,
      "authors": [
        {
          "authorId": "144711735",
          "name": "Ekaterina Kurdyukova"
        }
      ]
    },
    {
      "paperId": "720c8521a78cf3f12a49f8254502408fa7023aaa",
      "externalIds": {
        "MAG": "2237737312",
        "CorpusId": 10452030
      },
      "url": "https://www.semanticscholar.org/paper/720c8521a78cf3f12a49f8254502408fa7023aaa",
      "title": "A Random Matrix Theoretical Approach to Early Event Detection in Smart Grid",
      "venue": "",
      "year": 2015,
      "referenceCount": 54,
      "citationCount": 5,
      "authors": [
        {
          "authorId": "3026184",
          "name": "Xing He"
        },
        {
          "authorId": "1709488",
          "name": "R. Qiu"
        },
        {
          "authorId": "1816765",
          "name": "Q. Ai"
        },
        {
          "authorId": "2244782180",
          "name": "Yi-jia Cao"
        },
        {
          "authorId": "2107515614",
          "name": "J. Gu"
        },
        {
          "authorId": "31314973",
          "name": "Zhijian Jin"
        }
      ]
    }
  ]
}