{
  "total": 2460,
  "offset": 0,
  "next": 10,
  "data": [
    {
      "paperId": "1790d5bca94851c383745087efb932ee505e03b1",
      "externalIds": {
        "ArXiv": "1602.02285",
        "MAG": "2266169473",
        "DBLP": "conf/icml/ShahamCDJNCK16",
        "CorpusId": 14953022
      },
      "url": "https://www.semanticscholar.org/paper/1790d5bca94851c383745087efb932ee505e03b1",
      "title": "A Deep Learning Approach to Unsupervised Ensemble Learning",
      "venue": "International Conference on Machine Learning",
      "year": 2016,
      "referenceCount": 35,
      "citationCount": 42,
      "authors": [
        {
          "authorId": "1762788",
          "name": "Uri Shaham"
        },
        {
          "authorId": "1823644",
          "name": "Xiuyuan Cheng"
        },
        {
          "authorId": "33639963",
          "name": "Omer Dror"
        },
        {
          "authorId": "38415036",
          "name": "Ariel Jaffe"
        },
        {
          "authorId": "1786884",
          "name": "B. Nadler"
        },
        {
          "authorId": "1780789",
          "name": "Joseph T. Chang"
        },
        {
          "authorId": "40021520",
          "name": "Y. Kluger"
        }
      ]
    },
    {
      "paperId": "98737af0d071a4412639a51b8fb34ca3c4fa7411",
      "externalIds": {
        "ArXiv": "2207.07903",
        "DBLP": "journals/corr/abs-2207-07903",
        "DOI": "10.1002/cpe.7338",
        "CorpusId": 250627325
      },
      "url": "https://www.semanticscholar.org/paper/98737af0d071a4412639a51b8fb34ca3c4fa7411",
      "title": "Unsupervised ensemble based deep learning approach for attack detection in IoT network",
      "venue": "Concurrency and Computation",
      "year": 2022,
      "referenceCount": 55,
      "citationCount": 22,
      "authors": [
        {
          "authorId": "2176835954",
          "name": "Mir Shahnawaz Ahmed"
        },
        {
          "authorId": "34372910",
          "name": "S. M. Shah"
        }
      ]
    },
    {
      "paperId": "d2d25c104117149ab84100b22d234f778eec34c5",
      "externalIds": {
        "DBLP": "journals/tgrs/WangHZ22",
        "DOI": "10.1109/TGRS.2022.3225809",
        "CorpusId": 254176945
      },
      "url": "https://www.semanticscholar.org/paper/d2d25c104117149ab84100b22d234f778eec34c5",
      "title": "An Unsupervised Deep Neural Network Approach Based on Ensemble Learning to Suppress Seismic Surface-Related Multiples",
      "venue": "IEEE Transactions on Geoscience and Remote Sensing",
      "year": 2022,
      "referenceCount": 55,
      "citationCount": 19,
      "authors": [
        {
          "authorId": "2155022507",
          "name": "Kunxi Wang"
        },
        {
          "authorId": "34278932",
          "name": "T. Hu"
        },
        {
          "authorId": "103333609",
          "name": "Bangliu Zhao"
        }
      ]
    },
    {
      "paperId": "7f740d5841b7ec29be2a8b69439021ed80150b19",
      "externalIds": {
        "DBLP": "journals/corr/abs-2601-20556",
        "ArXiv": "2601.20556",
        "DOI": "10.48550/arXiv.2601.20556",
        "CorpusId": 285101814
      },
      "url": "https://www.semanticscholar.org/paper/7f740d5841b7ec29be2a8b69439021ed80150b19",
      "title": "Unsupervised Ensemble Learning Through Deep Energy-based Models",
      "venue": "arXiv.org",
      "year": 2026,
      "referenceCount": 63,
      "citationCount": 0,
      "authors": [
        {
          "authorId": "2407201754",
          "name": "Ariel Maymon"
        },
        {
          "authorId": "2407201501",
          "name": "Yanir Buznah"
        },
        {
          "authorId": "2288878875",
          "name": "Uri Shaham"
        }
      ]
    },
    {
      "paperId": "d737431ac15b782e426e168ec58145a3d7653871",
      "externalIds": {
        "PubMedCentral": "11898877",
        "DOI": "10.3390/healthcare13050507",
        "CorpusId": 276652654,
        "PubMed": "40077069"
      },
      "url": "https://www.semanticscholar.org/paper/d737431ac15b782e426e168ec58145a3d7653871",
      "title": "HeartEnsembleNet: An Innovative Hybrid Ensemble Learning Approach for Cardiovascular Risk Prediction",
      "venue": "Healthcare",
      "year": 2025,
      "referenceCount": 42,
      "citationCount": 44,
      "authors": [
        {
          "authorId": "2291297526",
          "name": "Syed Ali Jafar Zaidi"
        },
        {
          "authorId": "2347591945",
          "name": "Attia Ghafoor"
        },
        {
          "authorId": "2347674362",
          "name": "Jun Kim"
        },
        {
          "authorId": "26635236",
          "name": "Zeeshan Abbas"
        },
        {
          "authorId": "2108211250",
          "name": "S. Lee"
        }
      ]
    },
    {
      "paperId": "5dce95ffca7a43371894326d64497c858ae77e86",
      "externalIds": {
        "DOI": "10.1109/STCR62650.2025.11019900",
        "CorpusId": 279127133
      },
      "url": "https://www.semanticscholar.org/paper/5dce95ffca7a43371894326d64497c858ae77e86",
      "title": "Hybrid Deep Learning Framework for Emotion Classification of BCI Data Using Autoencoder-Based Feature Extraction and Stacked Ensemble Learning",
      "venue": "2025 Fourth International Conference on Smart Technologies, Communication and Robotics (STCR)",
      "year": 2025,
      "referenceCount": 13,
      "citationCount": 0,
      "authors": [
        {
          "authorId": "2133501824",
          "name": "Sannasi Chakravarthy S R"
        },
        {
          "authorId": "1850290",
          "name": "H. Rajaguru"
        }
      ]
    },
    {
      "paperId": "3d1f984cd0954d2861da7aa3e9ac056682f4893a",
      "externalIds": {
        "DOI": "10.5121/csit.2023.132415",
        "CorpusId": 266781618
      },
      "url": "https://www.semanticscholar.org/paper/3d1f984cd0954d2861da7aa3e9ac056682f4893a",
      "title": "Unsupervised Multi-Scale Image Enhancement using Generative Deep Learning Approach",
      "venue": "Soft Computing, Artificial Intelligence and Applications",
      "year": 2023,
      "referenceCount": 0,
      "citationCount": 1,
      "authors": [
        {
          "authorId": "2268018815",
          "name": "Preeti Sharma"
        },
        {
          "authorId": "2278216462",
          "name": "Manoj Kumar"
        },
        {
          "authorId": "2065486140",
          "name": "Hiteshwari Sharma"
        }
      ]
    },
    {
      "paperId": "8960851fe0d1843650c7ef846a6cbeae848b1978",
      "externalIds": {
        "DBLP": "journals/tcbb/ShenZDLW23",
        "DOI": "10.1109/TCBB.2022.3201295",
        "CorpusId": 251767233,
        "PubMed": "36001521"
      },
      "url": "https://www.semanticscholar.org/paper/8960851fe0d1843650c7ef846a6cbeae848b1978",
      "title": "EnsDeepDP: An Ensemble Deep Learning Approach for Disease Prediction Through Metagenomics",
      "venue": "IEEE/ACM Transactions on Computational Biology & Bioinformatics",
      "year": 2022,
      "referenceCount": 61,
      "citationCount": 27,
      "authors": [
        {
          "authorId": "2182629049",
          "name": "Yang Shen"
        },
        {
          "authorId": "2146272043",
          "name": "Jinlin Zhu"
        },
        {
          "authorId": "1741614",
          "name": "Zhaohong Deng"
        },
        {
          "authorId": "1902476",
          "name": "Wenwei Lu"
        },
        {
          "authorId": "1843769",
          "name": "Hongchao Wang"
        }
      ]
    },
    {
      "paperId": "aa17729f8029919998dda402e2e76e0afedebe38",
      "externalIds": {
        "DOI": "10.1088/1748-9326/ad66e6",
        "CorpusId": 271439697
      },
      "url": "https://www.semanticscholar.org/paper/aa17729f8029919998dda402e2e76e0afedebe38",
      "title": "Unsupervised deep learning bias correction of CMIP6 global ensemble precipitation predictions with cycle generative adversarial network",
      "venue": "Environmental Research Letters",
      "year": 2024,
      "referenceCount": 38,
      "citationCount": 10,
      "authors": [
        {
          "authorId": "2272973828",
          "name": "Bohan Huang"
        },
        {
          "authorId": "2144264597",
          "name": "Zhuo Liu"
        },
        {
          "authorId": "2312962884",
          "name": "Qingyun Duan"
        },
        {
          "authorId": "72058867",
          "name": "A. Rajib"
        },
        {
          "authorId": "2313504055",
          "name": "Jina Yin"
        }
      ]
    },
    {
      "paperId": "908d86b030071c01781b36d56a85e9b782980d56",
      "externalIds": {
        "DOI": "10.1002/mp.16087",
        "CorpusId": 253383552,
        "PubMed": "36336718"
      },
      "url": "https://www.semanticscholar.org/paper/908d86b030071c01781b36d56a85e9b782980d56",
      "title": "Ensemble learning and personalized training for the improvement of unsupervised deep learning-based synthetic CT reconstruction.",
      "venue": "Medical Physics (Lancaster)",
      "year": 2022,
      "referenceCount": 0,
      "citationCount": 7,
      "authors": [
        {
          "authorId": "49437015",
          "name": "S. Olberg"
        },
        {
          "authorId": "2166306252",
          "name": "B. Choi"
        },
        {
          "authorId": "31590476",
          "name": "I. Park"
        },
        {
          "authorId": "2153398189",
          "name": "Xiao Liang"
        },
        {
          "authorId": "2152676244",
          "name": "Jin Sung Kim"
        },
        {
          "authorId": "2153627350",
          "name": "Jie Deng"
        },
        {
          "authorId": "9721464",
          "name": "Yulong Yan"
        },
        {
          "authorId": "2158474095",
          "name": "Steve B. Jiang"
        },
        {
          "authorId": "1409743072",
          "name": "Justin C. Park"
        }
      ]
    }
  ]
}