{
  "total": 19899,
  "offset": 0,
  "next": 10,
  "data": [
    {
      "paperId": "f64e2a037a19110dd599403bf11a9475d8cbeb12",
      "externalIds": {
        "DBLP": "conf/icml/DeshpandeMST18",
        "MAG": "2962852748",
        "ArXiv": "1712.06695",
        "CorpusId": 26395459
      },
      "url": "https://www.semanticscholar.org/paper/f64e2a037a19110dd599403bf11a9475d8cbeb12",
      "title": "Accurate Inference for Adaptive Linear Models",
      "venue": "International Conference on Machine Learning",
      "year": 2017,
      "referenceCount": 55,
      "citationCount": 72,
      "authors": [
        {
          "authorId": "15350545",
          "name": "Y. Deshpande"
        },
        {
          "authorId": "143722101",
          "name": "Lester W. Mackey"
        },
        {
          "authorId": "3043674",
          "name": "Vasilis Syrgkanis"
        },
        {
          "authorId": "32407682",
          "name": "Matt Taddy"
        }
      ]
    },
    {
      "paperId": "fdda8161b7644b95415f8b357967ab717e48db52",
      "externalIds": {
        "DOI": "10.1177/13694332251346848",
        "CorpusId": 279334570
      },
      "url": "https://www.semanticscholar.org/paper/fdda8161b7644b95415f8b357967ab717e48db52",
      "title": "Parallelized adaptive Bayesian updating with structural reliability methods for inference of large engineering models",
      "venue": "Advances in Structural Engineering",
      "year": 2025,
      "referenceCount": 80,
      "citationCount": 0,
      "authors": [
        {
          "authorId": "2308737339",
          "name": "P. Simon"
        },
        {
          "authorId": "2308813320",
          "name": "R. Schneider"
        },
        {
          "authorId": "2264823136",
          "name": "Matthias Baeßler"
        },
        {
          "authorId": "2308893528",
          "name": "Guido Morgenthal"
        }
      ]
    },
    {
      "paperId": "3f617fe511bc54e65bcac24aabe406b3c05426f4",
      "externalIds": {
        "DOI": "10.1016/j.scitotenv.2023.165269",
        "CorpusId": 259323337,
        "PubMed": "37400033"
      },
      "url": "https://www.semanticscholar.org/paper/3f617fe511bc54e65bcac24aabe406b3c05426f4",
      "title": "The combination of multiple linear regression and adaptive neuro-fuzzy inference system can accurately predict trihalomethane levels in tap water with fewer water quality parameters.",
      "venue": "Science of the Total Environment",
      "year": 2023,
      "referenceCount": 54,
      "citationCount": 19,
      "authors": [
        {
          "authorId": "2128691417",
          "name": "Jianzhen Zhang"
        },
        {
          "authorId": "2373249109",
          "name": "Duo Ye"
        },
        {
          "authorId": "145415586",
          "name": "Quanyou Fu"
        },
        {
          "authorId": "2124477477",
          "name": "Minjie Chen"
        },
        {
          "authorId": "145780722",
          "name": "Hongjun Lin"
        },
        {
          "authorId": "2155797708",
          "name": "Xiaoling Zhou"
        },
        {
          "authorId": "46778872",
          "name": "W. Deng"
        },
        {
          "authorId": "13788630",
          "name": "Zeqiong Xu"
        },
        {
          "authorId": "47217684",
          "name": "Hongjie Sun"
        },
        {
          "authorId": "9910170",
          "name": "H. Hong"
        }
      ]
    },
    {
      "paperId": "411f3a2eb29b7d7aba1b1b7ca498b0736258890c",
      "externalIds": {
        "DBLP": "journals/corr/abs-2602-01285",
        "ArXiv": "2602.01285",
        "DOI": "10.48550/arXiv.2602.01285",
        "CorpusId": 285269063
      },
      "url": "https://www.semanticscholar.org/paper/411f3a2eb29b7d7aba1b1b7ca498b0736258890c",
      "title": "Multi-LLM Adaptive Conformal Inference for Reliable LLM Responses",
      "venue": "arXiv.org",
      "year": 2026,
      "referenceCount": 39,
      "citationCount": 0,
      "authors": [
        {
          "authorId": "2316485885",
          "name": "Kangjun Noh"
        },
        {
          "authorId": "2327257825",
          "name": "Seongchan Lee"
        },
        {
          "authorId": "2219391841",
          "name": "Ilmun Kim"
        },
        {
          "authorId": "2361666465",
          "name": "Kyungwoo Song"
        }
      ]
    },
    {
      "paperId": "650a37564509213680e4f0eb2de2555479ca8e46",
      "externalIds": {
        "DBLP": "journals/corr/abs-2411-10958",
        "DOI": "10.48550/arXiv.2411.10958",
        "CorpusId": 275213566
      },
      "url": "https://www.semanticscholar.org/paper/650a37564509213680e4f0eb2de2555479ca8e46",
      "title": "SageAttention2 Technical Report: Accurate 4 Bit Attention for Plug-and-play Inference Acceleration",
      "venue": "arXiv.org",
      "year": 2024,
      "referenceCount": 45,
      "citationCount": 9,
      "authors": [
        {
          "authorId": "2324058513",
          "name": "Jintao Zhang"
        },
        {
          "authorId": "2331494647",
          "name": "Haofeng Huang"
        },
        {
          "authorId": "2324080276",
          "name": "Pengle Zhang"
        },
        {
          "authorId": "2324564942",
          "name": "Jia Wei"
        },
        {
          "authorId": "2287800407",
          "name": "Jun Zhu"
        },
        {
          "authorId": "2276707",
          "name": "Jianfei Chen"
        }
      ]
    },
    {
      "paperId": "d7729825f7dd7e70440923406676ab1fdb28a1b7",
      "externalIds": {
        "DOI": "10.3390/en19061495",
        "CorpusId": 286661722
      },
      "url": "https://www.semanticscholar.org/paper/d7729825f7dd7e70440923406676ab1fdb28a1b7",
      "title": "Model-Agnostic, Probabilistic, Hour-Ahead Solar PV Forecasting Using Adaptive Conformal Inference",
      "venue": "Energies",
      "year": 2026,
      "referenceCount": 25,
      "citationCount": 0,
      "authors": [
        {
          "authorId": "89226675",
          "name": "V. Suresh"
        }
      ]
    },
    {
      "paperId": "1650961a6ac720140e66696690320430e3c054d3",
      "externalIds": {
        "MAG": "2767523907",
        "DOI": "10.1016/J.MEASUREMENT.2017.11.023",
        "CorpusId": 116414189
      },
      "url": "https://www.semanticscholar.org/paper/1650961a6ac720140e66696690320430e3c054d3",
      "title": "Development of more accurate discharge coefficient prediction equations for rectangular side weirs using adaptive neuro-fuzzy inference system and generalized group method of data handling",
      "venue": "",
      "year": 2018,
      "referenceCount": 43,
      "citationCount": 68,
      "authors": [
        {
          "authorId": "2976582",
          "name": "Isa Ebtehaj"
        },
        {
          "authorId": "2250223",
          "name": "H. Bonakdari"
        },
        {
          "authorId": "10373145",
          "name": "Bahram Gharabaghi"
        }
      ]
    },
    {
      "paperId": "25c94602eb63d61c853550412fbf033c82c24d30",
      "externalIds": {
        "ArXiv": "2503.07654",
        "DBLP": "journals/corr/abs-2503-07654",
        "DOI": "10.48550/arXiv.2503.07654",
        "CorpusId": 276929250
      },
      "url": "https://www.semanticscholar.org/paper/25c94602eb63d61c853550412fbf033c82c24d30",
      "title": "MergeQuant: Accurate 4-bit Static Quantization of Large Language Models by Channel-wise Calibration",
      "venue": "arXiv.org",
      "year": 2025,
      "referenceCount": 54,
      "citationCount": 3,
      "authors": [
        {
          "authorId": "2349560192",
          "name": "Jinguang Wang"
        },
        {
          "authorId": "2328635232",
          "name": "Jingyu Wang"
        },
        {
          "authorId": "3211546",
          "name": "Haifeng Sun"
        },
        {
          "authorId": "2308796956",
          "name": "Tingting Yang"
        },
        {
          "authorId": "70647186",
          "name": "Zirui Zhuang"
        },
        {
          "authorId": "2137322624",
          "name": "Wanyi Ning"
        },
        {
          "authorId": "2308625999",
          "name": "Yuexi Yin"
        },
        {
          "authorId": "2253567598",
          "name": "Qi Qi"
        },
        {
          "authorId": "2153704848",
          "name": "Jianxin Liao"
        }
      ]
    },
    {
      "paperId": "29c1dc840c06d66cf3fc103521f057807c627e69",
      "externalIds": {
        "MAG": "3034060666",
        "DOI": "10.5013/ijssst.a.21.02.17",
        "CorpusId": 220903104
      },
      "url": "https://www.semanticscholar.org/paper/29c1dc840c06d66cf3fc103521f057807c627e69",
      "title": "Modelling Trip Generation Using Adaptive Neuro-Fuzzy Inference System in Comparison with Traditional Multiple Linear Regression Approach",
      "venue": "International journal of simulation. Systems, Science and Technology",
      "year": 2020,
      "referenceCount": 14,
      "citationCount": 6,
      "authors": [
        {
          "authorId": "1422233385",
          "name": "S. Abu-Eisheh"
        },
        {
          "authorId": "2272221295",
          "name": "Mohammad Irshaid"
        }
      ]
    },
    {
      "paperId": "2c6675cb628a97d24416f302117dde7406f460d6",
      "externalIds": {
        "DBLP": "journals/corr/abs-2404-04498",
        "ArXiv": "2404.04498",
        "DOI": "10.48550/arXiv.2404.04498",
        "CorpusId": 269005809
      },
      "url": "https://www.semanticscholar.org/paper/2c6675cb628a97d24416f302117dde7406f460d6",
      "title": "Bayesian Inference for Consistent Predictions in Overparameterized Nonlinear Regression",
      "venue": "arXiv.org",
      "year": 2024,
      "referenceCount": 53,
      "citationCount": 0,
      "authors": [
        {
          "authorId": "101092850",
          "name": "Tomoya Wakayama"
        }
      ]
    }
  ]
}