{
  "total": 8515,
  "offset": 0,
  "next": 10,
  "data": [
    {
      "paperId": "408570c02ba213a856bc8186c62a4e5bf91a18de",
      "externalIds": {
        "MAG": "2963074410",
        "DBLP": "conf/icml/DoerrDSNSTT18",
        "ArXiv": "1801.10395",
        "CorpusId": 45425492
      },
      "url": "https://www.semanticscholar.org/paper/408570c02ba213a856bc8186c62a4e5bf91a18de",
      "title": "Probabilistic Recurrent State-Space Models",
      "venue": "International Conference on Machine Learning",
      "year": 2018,
      "referenceCount": 58,
      "citationCount": 145,
      "authors": [
        {
          "authorId": "35177479",
          "name": "Andreas Doerr"
        },
        {
          "authorId": "37755468",
          "name": "Christian Daniel"
        },
        {
          "authorId": "1725192",
          "name": "Martin Schiegg"
        },
        {
          "authorId": "1403827878",
          "name": "D. Nguyen-Tuong"
        },
        {
          "authorId": "1745219",
          "name": "S. Schaal"
        },
        {
          "authorId": "144918851",
          "name": "Marc Toussaint"
        },
        {
          "authorId": "2377795003",
          "name": "Sebastian Trimpe"
        }
      ]
    },
    {
      "paperId": "d8bb9d6095b53eb1ba621862c63ef2b1956074dd",
      "externalIds": {
        "CorpusId": 53538625
      },
      "url": "https://www.semanticscholar.org/paper/d8bb9d6095b53eb1ba621862c63ef2b1956074dd",
      "title": "Supplementary Material for Probabilistic Recurrent State-Space Models",
      "venue": "",
      "year": 2018,
      "referenceCount": 15,
      "citationCount": 0,
      "authors": [
        {
          "authorId": "35177479",
          "name": "Andreas Doerr"
        },
        {
          "authorId": "37755468",
          "name": "Christian Daniel"
        },
        {
          "authorId": "1725192",
          "name": "Martin Schiegg"
        },
        {
          "authorId": "1403827878",
          "name": "D. Nguyen-Tuong"
        },
        {
          "authorId": "1745219",
          "name": "S. Schaal"
        },
        {
          "authorId": "144918851",
          "name": "Marc Toussaint"
        },
        {
          "authorId": "2377795003",
          "name": "Sebastian Trimpe"
        }
      ]
    },
    {
      "paperId": "414babfd38e9edd97a946efb85db13639b09f454",
      "externalIds": {
        "ArXiv": "2512.12183",
        "DBLP": "journals/corr/abs-2512-12183",
        "DOI": "10.48550/arXiv.2512.12183",
        "CorpusId": 283897364
      },
      "url": "https://www.semanticscholar.org/paper/414babfd38e9edd97a946efb85db13639b09f454",
      "title": "HydroDiffusion: Diffusion-Based Probabilistic Streamflow Forecasting with a State Space Backbone",
      "venue": "arXiv.org",
      "year": 2025,
      "referenceCount": 65,
      "citationCount": 1,
      "authors": [
        {
          "authorId": "2296951220",
          "name": "Yihan Wang"
        },
        {
          "authorId": "2253472377",
          "name": "Annan Yu"
        },
        {
          "authorId": "2298101002",
          "name": "Lujun Zhang"
        },
        {
          "authorId": "11914137",
          "name": "C. Varadharajan"
        },
        {
          "authorId": "2351997895",
          "name": "N. Erichson"
        }
      ]
    },
    {
      "paperId": "5ff4d11041b3d64763f3e6ef7f9005978e4dc22a",
      "externalIds": {
        "DOI": "10.71465/csb210",
        "CorpusId": 285644082
      },
      "url": "https://www.semanticscholar.org/paper/5ff4d11041b3d64763f3e6ef7f9005978e4dc22a",
      "title": "CAPTURING REGIME SHIFTS IN DIGITAL ASSET MARKETS WITH GATED STATE SPACE MODELS AND ADAPTIVE MEMORY MECHANISMS",
      "venue": "Computer Science Bulletin",
      "year": 2026,
      "referenceCount": 0,
      "citationCount": 0,
      "authors": [
        {
          "authorId": "2411259250",
          "name": "Alejandro Morales"
        },
        {
          "authorId": "2411259223",
          "name": "Clara Domènech"
        }
      ]
    },
    {
      "paperId": "ba79ab646311ef70e169a75078c05e5f6c589626",
      "externalIds": {
        "DBLP": "conf/emnlp/SveteC23",
        "ArXiv": "2310.05161",
        "DOI": "10.48550/arXiv.2310.05161",
        "CorpusId": 263828918
      },
      "url": "https://www.semanticscholar.org/paper/ba79ab646311ef70e169a75078c05e5f6c589626",
      "title": "Recurrent Neural Language Models as Probabilistic Finite-state Automata",
      "venue": "Conference on Empirical Methods in Natural Language Processing",
      "year": 2023,
      "referenceCount": 58,
      "citationCount": 6,
      "authors": [
        {
          "authorId": "1492179067",
          "name": "Anej Svete"
        },
        {
          "authorId": "2256986716",
          "name": "Ryan Cotterell"
        }
      ]
    },
    {
      "paperId": "ae4df460a413f3b1d9a0dfa47917751af9db2597",
      "externalIds": {
        "DBLP": "conf/nips/RangapuramSGSWJ18",
        "MAG": "2889928394",
        "CorpusId": 53991169
      },
      "url": "https://www.semanticscholar.org/paper/ae4df460a413f3b1d9a0dfa47917751af9db2597",
      "title": "Deep State Space Models for Time Series Forecasting",
      "venue": "Neural Information Processing Systems",
      "year": 2018,
      "referenceCount": 28,
      "citationCount": 861,
      "authors": [
        {
          "authorId": "26320653",
          "name": "Syama Sundar Rangapuram"
        },
        {
          "authorId": "1680574",
          "name": "M. Seeger"
        },
        {
          "authorId": "2113062",
          "name": "Jan Gasthaus"
        },
        {
          "authorId": "2066263165",
          "name": "Lorenzo Stella"
        },
        {
          "authorId": "49416149",
          "name": "Bernie Wang"
        },
        {
          "authorId": "2166235",
          "name": "Tim Januschowski"
        }
      ]
    },
    {
      "paperId": "e9fc8aec2698c7b4eb94302f3472628eb00d494c",
      "externalIds": {
        "DBLP": "journals/tetci/AroraKPS22",
        "MAG": "3142426520",
        "DOI": "10.1109/TETCI.2021.3064028",
        "CorpusId": 234140383
      },
      "url": "https://www.semanticscholar.org/paper/e9fc8aec2698c7b4eb94302f3472628eb00d494c",
      "title": "Remodelling State-Space Prediction With Deep Neural Networks for Probabilistic Load Forecasting",
      "venue": "IEEE Transactions on Emerging Topics in Computational Intelligence",
      "year": 2022,
      "referenceCount": 0,
      "citationCount": 19,
      "authors": [
        {
          "authorId": "50128189",
          "name": "Parul Arora"
        },
        {
          "authorId": "145434108",
          "name": "A. Khosravi"
        },
        {
          "authorId": "41074425",
          "name": "B. Panigrahi"
        },
        {
          "authorId": "1688355",
          "name": "P. Suganthan"
        }
      ]
    },
    {
      "paperId": "a6d2e26d8540c43e4db83a9c23a5565262908849",
      "externalIds": {
        "DBLP": "conf/aaai/WangXTZZ022",
        "DOI": "10.1609/aaai.v36i11.21480",
        "CorpusId": 250293428
      },
      "url": "https://www.semanticscholar.org/paper/a6d2e26d8540c43e4db83a9c23a5565262908849",
      "title": "PrEF: Probabilistic Electricity Forecasting via Copula-Augmented State Space Model",
      "venue": "AAAI Conference on Artificial Intelligence",
      "year": 2022,
      "referenceCount": 31,
      "citationCount": 12,
      "authors": [
        {
          "authorId": "2108503941",
          "name": "Zhiyuan Wang"
        },
        {
          "authorId": "1593903641",
          "name": "Xovee Xu"
        },
        {
          "authorId": "1776969",
          "name": "Goce Trajcevski"
        },
        {
          "authorId": "51149567",
          "name": "Kunpeng Zhang"
        },
        {
          "authorId": "46456474",
          "name": "Ting Zhong"
        },
        {
          "authorId": "144315735",
          "name": "Fan Zhou"
        }
      ]
    },
    {
      "paperId": "2af17f153e3fd71e15db9216b972aef222f46617",
      "externalIds": {
        "MAG": "2951228804",
        "ArXiv": "1609.09869",
        "DBLP": "journals/corr/KrishnanSS16a",
        "DOI": "10.1609/aaai.v31i1.10779",
        "CorpusId": 2901305
      },
      "url": "https://www.semanticscholar.org/paper/2af17f153e3fd71e15db9216b972aef222f46617",
      "title": "Structured Inference Networks for Nonlinear State Space Models",
      "venue": "AAAI Conference on Artificial Intelligence",
      "year": 2016,
      "referenceCount": 40,
      "citationCount": 517,
      "authors": [
        {
          "authorId": "145253891",
          "name": "R. G. Krishnan"
        },
        {
          "authorId": "2304764",
          "name": "Uri Shalit"
        },
        {
          "authorId": "1746662",
          "name": "D. Sontag"
        }
      ]
    },
    {
      "paperId": "b10e24c77899616e25c7033de4e8f474cd9b1b4e",
      "externalIds": {
        "ArXiv": "2409.16824",
        "DBLP": "journals/tmlr/LuisBVB025",
        "DOI": "10.48550/arXiv.2409.16824",
        "CorpusId": 272880720
      },
      "url": "https://www.semanticscholar.org/paper/b10e24c77899616e25c7033de4e8f474cd9b1b4e",
      "title": "Uncertainty Representations in State-Space Layers for Deep Reinforcement Learning under Partial Observability",
      "venue": "Trans. Mach. Learn. Res.",
      "year": 2024,
      "referenceCount": 81,
      "citationCount": 2,
      "authors": [
        {
          "authorId": "2470985",
          "name": "Carlos E. Luis"
        },
        {
          "authorId": "47846973",
          "name": "A. Bottero"
        },
        {
          "authorId": "3428828",
          "name": "Julia Vinogradska"
        },
        {
          "authorId": "2064772",
          "name": "Felix Berkenkamp"
        },
        {
          "authorId": "2270868380",
          "name": "Jan Peters"
        }
      ]
    }
  ]
}