{
  "total": 109,
  "offset": 0,
  "next": 10,
  "data": [
    {
      "paperId": "dac1c3f055a4bd8f12d9b9a2a0d3e47490f71bc1",
      "externalIds": {
        "MAG": "1848872188",
        "DBLP": "conf/icml/SibonyCJ15",
        "CorpusId": 14193209
      },
      "url": "https://www.semanticscholar.org/paper/dac1c3f055a4bd8f12d9b9a2a0d3e47490f71bc1",
      "title": "MRA-based Statistical Learning from Incomplete Rankings",
      "venue": "International Conference on Machine Learning",
      "year": 2015,
      "referenceCount": 36,
      "citationCount": 11,
      "authors": [
        {
          "authorId": "2073593",
          "name": "Eric Sibony"
        },
        {
          "authorId": "1696620",
          "name": "S. Clémençon"
        },
        {
          "authorId": "34913672",
          "name": "J. Jakubowicz"
        }
      ]
    },
    {
      "paperId": "feb66e5fc21a3faa7a53ebcdc0cda6cd337de617",
      "externalIds": {
        "CorpusId": 15087214
      },
      "url": "https://www.semanticscholar.org/paper/feb66e5fc21a3faa7a53ebcdc0cda6cd337de617",
      "title": "Material for the paper “ MRA-based Statistical Learning from Incomplete Rankings ”",
      "venue": "",
      "year": 2015,
      "referenceCount": 3,
      "citationCount": 0,
      "authors": [
        {
          "authorId": "2073593",
          "name": "Eric Sibony"
        }
      ]
    },
    {
      "paperId": "cb11de9d3eb6604a528902ed199214fde2b19b3b",
      "externalIds": {
        "DBLP": "conf/nips/PapaCB15",
        "MAG": "2185959272",
        "CorpusId": 14152305
      },
      "url": "https://www.semanticscholar.org/paper/cb11de9d3eb6604a528902ed199214fde2b19b3b",
      "title": "SGD Algorithms based on Incomplete U-statistics: Large-Scale Minimization of Empirical Risk",
      "venue": "Neural Information Processing Systems",
      "year": 2015,
      "referenceCount": 28,
      "citationCount": 20,
      "authors": [
        {
          "authorId": "19690874",
          "name": "Guillaume Papa"
        },
        {
          "authorId": "1696620",
          "name": "S. Clémençon"
        },
        {
          "authorId": "1702915",
          "name": "A. Bellet"
        }
      ]
    },
    {
      "paperId": "3acee7f2df544e5ff0d6b91a12a4e6b4fe4dfed0",
      "externalIds": {
        "MAG": "2284155916",
        "DBLP": "journals/lalc/FarziF17",
        "DOI": "10.1093/llc/fqv032",
        "CorpusId": 11154808
      },
      "url": "https://www.semanticscholar.org/paper/3acee7f2df544e5ff0d6b91a12a4e6b4fe4dfed0",
      "title": "Improving statistical machine translation using syntax-based learning-to-rank system",
      "venue": "Digital Scholarship in the Humanities",
      "year": 2015,
      "referenceCount": 42,
      "citationCount": 6,
      "authors": [
        {
          "authorId": "2548531",
          "name": "Saeed Farzi"
        },
        {
          "authorId": "3054779",
          "name": "Heshaam Faili"
        }
      ]
    },
    {
      "paperId": "03012c75859a24df7b57da1c8a1e0abf8e0bc81c",
      "externalIds": {
        "MAG": "2403002117",
        "DOI": "10.1063/1.4905984",
        "CorpusId": 8448294
      },
      "url": "https://www.semanticscholar.org/paper/03012c75859a24df7b57da1c8a1e0abf8e0bc81c",
      "title": "On learning statistical mixtures maximizing the complete likelihood The k-MLE methodology using geometric hard clustering",
      "venue": "",
      "year": 2015,
      "referenceCount": 51,
      "citationCount": 1,
      "authors": [
        {
          "authorId": "144863930",
          "name": "F. Nielsen"
        }
      ]
    },
    {
      "paperId": "796226fc480bf9eb1764a29fda00949e91e8d096",
      "externalIds": {
        "MAG": "2963834123",
        "DBLP": "journals/corr/ClemenconBC15",
        "ArXiv": "1501.02629",
        "CorpusId": 15802704
      },
      "url": "https://www.semanticscholar.org/paper/796226fc480bf9eb1764a29fda00949e91e8d096",
      "title": "Scaling-up Empirical Risk Minimization: Optimization of Incomplete $U$-statistics",
      "venue": "Journal of machine learning research",
      "year": 2015,
      "referenceCount": 52,
      "citationCount": 47,
      "authors": [
        {
          "authorId": "1696620",
          "name": "S. Clémençon"
        },
        {
          "authorId": "35175926",
          "name": "Igor Colin"
        },
        {
          "authorId": "1702915",
          "name": "A. Bellet"
        }
      ]
    },
    {
      "paperId": "d45d6ae53f0f61de0639cc59c57db5d2a15d9a32",
      "externalIds": {
        "DBLP": "journals/tkde/WangCLLKLZ18",
        "MAG": "2296153795",
        "DOI": "10.1145/2820783.2820843",
        "CorpusId": 3356421
      },
      "url": "https://www.semanticscholar.org/paper/d45d6ae53f0f61de0639cc59c57db5d2a15d9a32",
      "title": "TaxiRec: Recommending Road Clusters to Taxi Drivers Using Ranking-Based Extreme Learning Machines",
      "venue": "IEEE Transactions on Knowledge and Data Engineering",
      "year": 2015,
      "referenceCount": 56,
      "citationCount": 74,
      "authors": [
        {
          "authorId": "1641475641",
          "name": "Ran Wang"
        },
        {
          "authorId": "40043945",
          "name": "Chi-Yin Chow"
        },
        {
          "authorId": "48036771",
          "name": "Yan Lyu"
        },
        {
          "authorId": "1709223",
          "name": "V. Lee"
        },
        {
          "authorId": "1687386",
          "name": "S. Kwong"
        },
        {
          "authorId": "50025199",
          "name": "Yanhua Li"
        },
        {
          "authorId": "152280479",
          "name": "Jia Zeng"
        }
      ]
    },
    {
      "paperId": "4dfe53b7283cbfe9fb4e1782f7e5c4c80a128171",
      "externalIds": {
        "DBLP": "journals/cea/GorgensMR15",
        "MAG": "901507695",
        "DOI": "10.1016/j.compag.2015.07.004",
        "CorpusId": 30366584
      },
      "url": "https://www.semanticscholar.org/paper/4dfe53b7283cbfe9fb4e1782f7e5c4c80a128171",
      "title": "A performance comparison of machine learning methods to estimate the fast-growing forest plantation yield based on laser scanning metrics",
      "venue": "Computers and Electronics in Agriculture",
      "year": 2015,
      "referenceCount": 48,
      "citationCount": 65,
      "authors": [
        {
          "authorId": "3368577",
          "name": "E. B. Görgens"
        },
        {
          "authorId": "3338656",
          "name": "A. Montaghi"
        },
        {
          "authorId": "2151134958",
          "name": "L. Rodriguez"
        }
      ]
    },
    {
      "paperId": "a4887d9be7f256401fe10507dd9f5afd4f428acb",
      "externalIds": {
        "MAG": "2084510706",
        "DBLP": "conf/mm/ChatterjeeL15",
        "DOI": "10.1145/2733373.2806368",
        "CorpusId": 12778804
      },
      "url": "https://www.semanticscholar.org/paper/a4887d9be7f256401fe10507dd9f5afd4f428acb",
      "title": "A Novel Statistical Approach for Image and Video Retrieval and Its Adaption for Active Learning",
      "venue": "ACM Multimedia",
      "year": 2015,
      "referenceCount": 12,
      "citationCount": 6,
      "authors": [
        {
          "authorId": "2479187",
          "name": "Moitreya Chatterjee"
        },
        {
          "authorId": "3201827",
          "name": "Anton Leuski"
        }
      ]
    },
    {
      "paperId": "96b4eab6dd369f3fb86a35320cc533a899e9231f",
      "externalIds": {
        "MAG": "1978626895",
        "DOI": "10.1007/s00414-014-1070-5",
        "CorpusId": 20711728,
        "PubMed": "25186617"
      },
      "url": "https://www.semanticscholar.org/paper/96b4eab6dd369f3fb86a35320cc533a899e9231f",
      "title": "Sex estimation from the tarsal bones in a Portuguese sample: a machine learning approach",
      "venue": "Zeitschrift für Rechtsmedizin",
      "year": 2015,
      "referenceCount": 39,
      "citationCount": 94,
      "authors": [
        {
          "authorId": "5289540",
          "name": "D. Navega"
        },
        {
          "authorId": "78091304",
          "name": "R. Vicente"
        },
        {
          "authorId": "145618248",
          "name": "D. Vieira"
        },
        {
          "authorId": "33834161",
          "name": "A. Ross"
        },
        {
          "authorId": "144587569",
          "name": "E. Cunha"
        }
      ]
    }
  ]
}