{
  "total": 60,
  "offset": 0,
  "next": 10,
  "data": [
    {
      "paperId": "25fe7ac348a93fe2940a225f3921cf3475c5c8fe",
      "externalIds": {
        "MAG": "2963557510",
        "ArXiv": "1512.00442",
        "DBLP": "journals/corr/LiM15b",
        "CorpusId": 2883127
      },
      "url": "https://www.semanticscholar.org/paper/25fe7ac348a93fe2940a225f3921cf3475c5c8fe",
      "title": "Fast k-Nearest Neighbour Search via Dynamic Continuous Indexing",
      "venue": "International Conference on Machine Learning",
      "year": 2015,
      "referenceCount": 30,
      "citationCount": 34,
      "authors": [
        {
          "authorId": "2149140383",
          "name": "Ke Li"
        },
        {
          "authorId": "143751119",
          "name": "Jitendra Malik"
        }
      ]
    },
    {
      "paperId": "8b5e539a6a802b6547f2cc34e95fb0b2efabe48f",
      "externalIds": {
        "CorpusId": 265097130
      },
      "url": "https://www.semanticscholar.org/paper/8b5e539a6a802b6547f2cc34e95fb0b2efabe48f",
      "title": "Fast k-Nearest Neighbour Search via Dynamic Continuous Indexing Supplementary Material",
      "venue": "",
      "year": 2016,
      "referenceCount": 0,
      "citationCount": 1,
      "authors": [
        {
          "authorId": "2304236449",
          "name": "LI KE."
        }
      ]
    },
    {
      "paperId": "36ec448cd2d202e0d0652d61770f8505e14e61fd",
      "externalIds": {
        "MAG": "2949544693",
        "DBLP": "conf/icml/LiM17",
        "ArXiv": "1703.00440",
        "CorpusId": 17072096
      },
      "url": "https://www.semanticscholar.org/paper/36ec448cd2d202e0d0652d61770f8505e14e61fd",
      "title": "Fast k-Nearest Neighbour Search via Prioritized DCI",
      "venue": "International Conference on Machine Learning",
      "year": 2017,
      "referenceCount": 34,
      "citationCount": 37,
      "authors": [
        {
          "authorId": "49243436",
          "name": "Ke Li"
        },
        {
          "authorId": "143751119",
          "name": "Jitendra Malik"
        }
      ]
    },
    {
      "paperId": "e82d936aefa1c4973bcb8662bf4818f73b80e016",
      "externalIds": {
        "DBLP": "journals/corr/abs-2404-19284",
        "ArXiv": "2404.19284",
        "DOI": "10.1007/978-981-96-0351-0_8",
        "CorpusId": 269457207
      },
      "url": "https://www.semanticscholar.org/paper/e82d936aefa1c4973bcb8662bf4818f73b80e016",
      "title": "Approximate Nearest Neighbour Search on Dynamic Datasets: An Investigation",
      "venue": "Applied Informatics",
      "year": 2024,
      "referenceCount": 22,
      "citationCount": 2,
      "authors": [
        {
          "authorId": "2298968297",
          "name": "Ben Harwood"
        },
        {
          "authorId": "2298968193",
          "name": "Amir Dezfouli"
        },
        {
          "authorId": "2262950269",
          "name": "Iadine Chadès"
        },
        {
          "authorId": "144228552",
          "name": "Conrad Sanderson"
        }
      ]
    },
    {
      "paperId": "e2e12a2afc8139ec80f2da85c6d8b8b9c9d7f3ac",
      "externalIds": {
        "MAG": "2990874390",
        "DBLP": "phd/us/Li19b",
        "CorpusId": 214551039
      },
      "url": "https://www.semanticscholar.org/paper/e2e12a2afc8139ec80f2da85c6d8b8b9c9d7f3ac",
      "title": "Advances in Machine Learning: Nearest Neighbour Search, Learning to Optimize and Generative Modelling",
      "venue": "",
      "year": 2019,
      "referenceCount": 126,
      "citationCount": 3,
      "authors": [
        {
          "authorId": "2149140383",
          "name": "Ke Li"
        }
      ]
    },
    {
      "paperId": "1502ca0da477db5785a275f9e02799315c98ad38",
      "externalIds": {
        "DBLP": "journals/ijgi/BarecheX22",
        "DOI": "10.3390/ijgi11040264",
        "CorpusId": 248247237
      },
      "url": "https://www.semanticscholar.org/paper/1502ca0da477db5785a275f9e02799315c98ad38",
      "title": "A Distributed Hybrid Indexing for Continuous KNN Query Processing over Moving Objects",
      "venue": "ISPRS Int. J. Geo Inf.",
      "year": 2022,
      "referenceCount": 19,
      "citationCount": 10,
      "authors": [
        {
          "authorId": "1490966355",
          "name": "Imene Bareche"
        },
        {
          "authorId": "2111056200",
          "name": "Ying Xia"
        }
      ]
    },
    {
      "paperId": "8db9bf4cc83411fb9b02f46130c9f985f44ca826",
      "externalIds": {
        "DOI": "10.1109/ICFTIC68075.2025.11324666",
        "CorpusId": 284891675
      },
      "url": "https://www.semanticscholar.org/paper/8db9bf4cc83411fb9b02f46130c9f985f44ca826",
      "title": "Optimizing Graph Navigability in Dynamic Environments: Local Connectivity Repair and Incremental Sampling",
      "venue": "2025 7th International Conference on Frontier Technologies of Information and Computer (ICFTIC)",
      "year": 2025,
      "referenceCount": 9,
      "citationCount": 0,
      "authors": [
        {
          "authorId": "2379183677",
          "name": "Shihao Zhao"
        },
        {
          "authorId": "2406928766",
          "name": "Zifan Chen"
        }
      ]
    },
    {
      "paperId": "109067b2e5d73cf984f952ba44c5ea962184f07a",
      "externalIds": {
        "DBLP": "journals/pacmmod/ZhuWYZ23",
        "DOI": "10.1145/3617326",
        "CorpusId": 265161586
      },
      "url": "https://www.semanticscholar.org/paper/109067b2e5d73cf984f952ba44c5ea962184f07a",
      "title": "Closest Pairs Search Over Data Stream",
      "venue": "Proc. ACM Manag. Data",
      "year": 2023,
      "referenceCount": 46,
      "citationCount": 6,
      "authors": [
        {
          "authorId": "144649569",
          "name": "Rui Zhu"
        },
        {
          "authorId": "2152592629",
          "name": "Bin Wang"
        },
        {
          "authorId": "1685393",
          "name": "Xiaochun Yang"
        },
        {
          "authorId": "2266496311",
          "name": "Baihua Zheng"
        }
      ]
    },
    {
      "paperId": "270b2296725e5a4215d11149e6aa400ff9328e20",
      "externalIds": {
        "DBLP": "journals/corr/abs-2509-19767",
        "ArXiv": "2509.19767",
        "DOI": "10.48550/arXiv.2509.19767",
        "CorpusId": 281505993
      },
      "url": "https://www.semanticscholar.org/paper/270b2296725e5a4215d11149e6aa400ff9328e20",
      "title": "FusedANN: Convexified Hybrid ANN via Attribute-Vector Fusion",
      "venue": "arXiv.org",
      "year": 2025,
      "referenceCount": 0,
      "citationCount": 1,
      "authors": [
        {
          "authorId": "2313647077",
          "name": "Alireza Heidari"
        },
        {
          "authorId": "2313754237",
          "name": "Wei Zhang"
        },
        {
          "authorId": "2384324402",
          "name": "Ying Xiong"
        }
      ]
    },
    {
      "paperId": "be787480553e0166cfb0ca3dba59b1f4c894e2a0",
      "externalIds": {
        "DOI": "10.1111/tgis.70241",
        "CorpusId": 286902692
      },
      "url": "https://www.semanticscholar.org/paper/be787480553e0166cfb0ca3dba59b1f4c894e2a0",
      "title": "DSPI\n : Spatial Learned Index Leveraging Data‐Aware Pivots",
      "venue": "Transactions on GIS",
      "year": 2026,
      "referenceCount": 15,
      "citationCount": 0,
      "authors": [
        {
          "authorId": "2394257813",
          "name": "Yuhang Meng"
        },
        {
          "authorId": "2214671386",
          "name": "Peng Tang"
        },
        {
          "authorId": "2391880572",
          "name": "Yusen Hu"
        },
        {
          "authorId": "1576126786",
          "name": "Linshu Hu"
        },
        {
          "authorId": "2183797169",
          "name": "Feng Zhang"
        },
        {
          "authorId": "50268261",
          "name": "Ren-yi Liu"
        }
      ]
    }
  ]
}