{
  "total": 2810,
  "offset": 0,
  "next": 10,
  "data": [
    {
      "paperId": "12002c640cac2a8852236719a8cbccc47aafd1c8",
      "externalIds": {
        "MAG": "2951034261",
        "ArXiv": "1612.05571",
        "DBLP": "journals/corr/NeilLDL16",
        "CorpusId": 10279374
      },
      "url": "https://www.semanticscholar.org/paper/12002c640cac2a8852236719a8cbccc47aafd1c8",
      "title": "Delta Networks for Optimized Recurrent Network Computation",
      "venue": "International Conference on Machine Learning",
      "year": 2016,
      "referenceCount": 34,
      "citationCount": 71,
      "authors": [
        {
          "authorId": "145243593",
          "name": "Daniel Neil"
        },
        {
          "authorId": "2108454655",
          "name": "Junhaeng Lee"
        },
        {
          "authorId": "5548576",
          "name": "Tobi Delbruck"
        },
        {
          "authorId": "1704961",
          "name": "Shih-Chii Liu"
        }
      ]
    },
    {
      "paperId": "c88a7ab1e3833a58d3f9dd2ba1109b1897e3a8fc",
      "externalIds": {
        "DOI": "10.1109/ICIMIA67127.2025.11200821",
        "CorpusId": 282263350
      },
      "url": "https://www.semanticscholar.org/paper/c88a7ab1e3833a58d3f9dd2ba1109b1897e3a8fc",
      "title": "Metaheuristic-Optimized Recurrent Neural Networks for Stock Market Forecasting",
      "venue": "International Conference on Innovative Mechanisms for Industry Applications",
      "year": 2025,
      "referenceCount": 27,
      "citationCount": 0,
      "authors": [
        {
          "authorId": "2358513415",
          "name": "A. Vennela"
        },
        {
          "authorId": "72012161",
          "name": "Radha Mohan Pattanayak"
        }
      ]
    },
    {
      "paperId": "6780f8e593074f1b6fb9285ed03856cafb302c6b",
      "externalIds": {
        "DOI": "10.1109/ICSPS66615.2025.11347902",
        "CorpusId": 285111333
      },
      "url": "https://www.semanticscholar.org/paper/6780f8e593074f1b6fb9285ed03856cafb302c6b",
      "title": "Brain-Machine Interface Decoding Using Optimized Recurrent Spiking Neural Networks on MCU",
      "venue": "International Conference on Signal Processing Systems",
      "year": 2025,
      "referenceCount": 18,
      "citationCount": 0,
      "authors": [
        {
          "authorId": "2128017359",
          "name": "Eraraya Morenzo Muten"
        },
        {
          "authorId": "2342706170",
          "name": "Nur Ahmadi"
        },
        {
          "authorId": "2306453147",
          "name": "Timothy G. Constandinou"
        },
        {
          "authorId": "2274524409",
          "name": "T. Adiono"
        }
      ]
    },
    {
      "paperId": "c81cb3d190816ea7b91733eac8486b9eb508d603",
      "externalIds": {
        "DBLP": "journals/access/HadiDAQA24",
        "DOI": "10.1109/ACCESS.2024.3360298",
        "CorpusId": 267452825
      },
      "url": "https://www.semanticscholar.org/paper/c81cb3d190816ea7b91733eac8486b9eb508d603",
      "title": "Digital Predistortion Based Experimental Evaluation of Optimized Recurrent Neural Network for 5G Analog Radio Over Fiber Links",
      "venue": "IEEE Access",
      "year": 2024,
      "referenceCount": 51,
      "citationCount": 15,
      "authors": [
        {
          "authorId": "2214823312",
          "name": "Muhammad Usman Hadi"
        },
        {
          "authorId": "3074983",
          "name": "K. U. Danyaro"
        },
        {
          "authorId": "1750927725",
          "name": "Alawi Alqushaibi"
        },
        {
          "authorId": "40702132",
          "name": "Rizwan Qureshi"
        },
        {
          "authorId": "2237688666",
          "name": "Tanvir Alam"
        }
      ]
    },
    {
      "paperId": "7ea646e6ce9b9aa761605e3bcdaa75a4c581871d",
      "externalIds": {
        "DBLP": "journals/cas/SreedeviM24",
        "DOI": "10.1080/01969722.2022.2122004",
        "CorpusId": 252351919
      },
      "url": "https://www.semanticscholar.org/paper/7ea646e6ce9b9aa761605e3bcdaa75a4c581871d",
      "title": "A Smart Solution for Tomato Leaf Disease Classification by Modified Recurrent Neural Network with Severity Computation",
      "venue": "Cybernetics and systems",
      "year": 2022,
      "referenceCount": 44,
      "citationCount": 36,
      "authors": [
        {
          "authorId": "48901218",
          "name": "Alampally Sreedevi"
        },
        {
          "authorId": "2569508",
          "name": "C. Manike"
        }
      ]
    },
    {
      "paperId": "a1b355ea16ccf71e93fd8f00b895534e95e4df04",
      "externalIds": {
        "DBLP": "journals/cbm/BalakrishnanPPS25",
        "DOI": "10.1016/j.compbiomed.2025.109810",
        "CorpusId": 276285269,
        "PubMed": "39933270"
      },
      "url": "https://www.semanticscholar.org/paper/a1b355ea16ccf71e93fd8f00b895534e95e4df04",
      "title": "Alzheimer's Disease detection and classification using optimized neural network",
      "venue": "Comput. Biol. Medicine",
      "year": 2025,
      "referenceCount": 43,
      "citationCount": 12,
      "authors": [
        {
          "authorId": "2213883808",
          "name": "N. Balakrishnan"
        },
        {
          "authorId": "2350943",
          "name": "A. S. Pillai"
        },
        {
          "authorId": "1900296",
          "name": "Jisha Jose Panackal"
        },
        {
          "authorId": "2289046327",
          "name": "P. Sreeja"
        }
      ]
    },
    {
      "paperId": "12e0144a35ea3ee0623997c4e1dbc02362e62e3b",
      "externalIds": {
        "DOI": "10.3390/electronics13234659",
        "CorpusId": 274314798
      },
      "url": "https://www.semanticscholar.org/paper/12e0144a35ea3ee0623997c4e1dbc02362e62e3b",
      "title": "TS-GRU: A Stock Gated Recurrent Unit Model Driven via Neuro-Inspired Computation",
      "venue": "Electronics",
      "year": 2024,
      "referenceCount": 33,
      "citationCount": 5,
      "authors": [
        {
          "authorId": "2256641794",
          "name": "Yuanfang Zhang"
        },
        {
          "authorId": "2332608830",
          "name": "Heinz D. Fill"
        }
      ]
    },
    {
      "paperId": "0facf93391ae473ee91365bd8be755ccfadbb3fc",
      "externalIds": {
        "DBLP": "journals/sivp/IqbalZIYIZHZG25",
        "DOI": "10.1007/s11760-025-04534-5",
        "CorpusId": 281171584
      },
      "url": "https://www.semanticscholar.org/paper/0facf93391ae473ee91365bd8be755ccfadbb3fc",
      "title": "Speech enhancement using complex depthwise convolutional recurrent network with self-attention mechanism",
      "venue": "Signal, Image and Video Processing",
      "year": 2025,
      "referenceCount": 46,
      "citationCount": 6,
      "authors": [
        {
          "authorId": "2318105665",
          "name": "Yasir Iqbal"
        },
        {
          "authorId": "2318768576",
          "name": "Tao Zhang"
        },
        {
          "authorId": "2317977997",
          "name": "Anjum Iqbal"
        },
        {
          "authorId": "2378671994",
          "name": "Jiajia Yan"
        },
        {
          "authorId": "2321848652",
          "name": "Azaz Ikram"
        },
        {
          "authorId": "2355224660",
          "name": "Qiyun Zhang"
        },
        {
          "authorId": "2374530345",
          "name": "Ijaz Hussain"
        },
        {
          "authorId": "2301381983",
          "name": "Xin Zhao"
        },
        {
          "authorId": "120805203",
          "name": "Yanzhang Geng"
        }
      ]
    },
    {
      "paperId": "f0611c419ae4ac06069c33c0a3d6876d3de31029",
      "externalIds": {
        "DBLP": "journals/concurrency/SuganthyAMS23",
        "DOI": "10.1002/cpe.7729",
        "CorpusId": 258515987
      },
      "url": "https://www.semanticscholar.org/paper/f0611c419ae4ac06069c33c0a3d6876d3de31029",
      "title": "Recalling‐enhanced recurrent neural network optimized with wood pecker mating algorithm for brain tumor classification",
      "venue": "Concurrency and Computation",
      "year": 2023,
      "referenceCount": 45,
      "citationCount": 4,
      "authors": [
        {
          "authorId": "2304626334",
          "name": "M. Suganthy"
        },
        {
          "authorId": "22649336",
          "name": "S. Ashok"
        },
        {
          "authorId": "145977436",
          "name": "A. Maheswari"
        },
        {
          "authorId": "2246759265",
          "name": "T. D. Subha"
        }
      ]
    },
    {
      "paperId": "5d3837538c51b258a3b1bbe45e30ea53868921ea",
      "externalIds": {
        "DOI": "10.1109/ICICNIS66685.2025.11315795",
        "CorpusId": 284375664
      },
      "url": "https://www.semanticscholar.org/paper/5d3837538c51b258a3b1bbe45e30ea53868921ea",
      "title": "Deep Learning-Driven Epileptic Seizure Detection using Optimized LSTM Networks",
      "venue": "2025 6th International Conference on IoT Based Control Networks and Intelligent Systems (ICICNIS)",
      "year": 2025,
      "referenceCount": 8,
      "citationCount": 0,
      "authors": [
        {
          "authorId": "2402065781",
          "name": "Dr.R.Sujatha"
        },
        {
          "authorId": "2402065785",
          "name": "S.Mouritha"
        },
        {
          "authorId": "2402064950",
          "name": "V.Shridharshini"
        },
        {
          "authorId": "2402065293",
          "name": "B.S.Sivadharana"
        },
        {
          "authorId": "2402064715",
          "name": "D.Soundarya"
        }
      ]
    }
  ]
}