{
  "total": 1312,
  "offset": 0,
  "next": 10,
  "data": [
    {
      "paperId": "9dbc218e182665300e4d2e8e9abae14c2cf9374e",
      "externalIds": {
        "DBLP": "conf/icml/Jiang17a",
        "MAG": "2741081039",
        "CorpusId": 6496783
      },
      "url": "https://www.semanticscholar.org/paper/9dbc218e182665300e4d2e8e9abae14c2cf9374e",
      "title": "Uniform Convergence Rates for Kernel Density Estimation",
      "venue": "International Conference on Machine Learning",
      "year": 2017,
      "referenceCount": 52,
      "citationCount": 98,
      "authors": [
        {
          "authorId": "34710991",
          "name": "Heinrich Jiang"
        }
      ]
    },
    {
      "paperId": "ac5617b1da115797aea7378da06de6b800d2f4e9",
      "externalIds": {
        "ArXiv": "2010.08838",
        "MAG": "3093173857",
        "DOI": "10.1080/07350015.2022.2080684",
        "CorpusId": 224704586
      },
      "url": "https://www.semanticscholar.org/paper/ac5617b1da115797aea7378da06de6b800d2f4e9",
      "title": "Empirical Likelihood and Uniform Convergence Rates for Dyadic Kernel Density Estimation",
      "venue": "Journal of Business &amp; Economic Statistics",
      "year": 2020,
      "referenceCount": 69,
      "citationCount": 4,
      "authors": [
        {
          "authorId": "144588838",
          "name": "Harold D. Chiang"
        },
        {
          "authorId": "51225484",
          "name": "Bing Tan"
        }
      ]
    },
    {
      "paperId": "49515776b8906ce6acf1189bdf115d2515d00a63",
      "externalIds": {
        "MAG": "2113037782",
        "DOI": "10.1017/S0266466608080304",
        "CorpusId": 122961948
      },
      "url": "https://www.semanticscholar.org/paper/49515776b8906ce6acf1189bdf115d2515d00a63",
      "title": "UNIFORM CONVERGENCE RATES FOR KERNEL ESTIMATION WITH DEPENDENT DATA",
      "venue": "Econometric Theory",
      "year": 2008,
      "referenceCount": 24,
      "citationCount": 473,
      "authors": [
        {
          "authorId": "88741081",
          "name": "B. Hansen"
        }
      ]
    },
    {
      "paperId": "fa4bc91a4fee1d7619f233f181bd96c2dc663e32",
      "externalIds": {
        "DOI": "10.2139/ssrn.3833861",
        "CorpusId": 242728338
      },
      "url": "https://www.semanticscholar.org/paper/fa4bc91a4fee1d7619f233f181bd96c2dc663e32",
      "title": "Uniform Convergence Rates for Nonparametric Estimators of a Density Function and its Derivatives when the Density has a Known Pole",
      "venue": "Social Science Research Network",
      "year": 2025,
      "referenceCount": 22,
      "citationCount": 1,
      "authors": [
        {
          "authorId": "88742617",
          "name": "Sorawoot Srisuma"
        }
      ]
    },
    {
      "paperId": "d6ad05048e9570f765e30e131a33c7a5c54d280d",
      "externalIds": {
        "DOI": "10.1111/sjos.12573",
        "CorpusId": 245861167
      },
      "url": "https://www.semanticscholar.org/paper/d6ad05048e9570f765e30e131a33c7a5c54d280d",
      "title": "Uniform convergence rates for nonparametric estimators smoothed by the beta kernel",
      "venue": "Scandinavian Journal of Statistics",
      "year": 2022,
      "referenceCount": 37,
      "citationCount": 12,
      "authors": [
        {
          "authorId": "1952565",
          "name": "Masayuki Hirukawa"
        },
        {
          "authorId": "92248816",
          "name": "Irina Murtazashvili"
        },
        {
          "authorId": "145018867",
          "name": "Artem Prokhorov"
        }
      ]
    },
    {
      "paperId": "7963a5616a8205bebd268c51b90cc5f23b521088",
      "externalIds": {
        "MAG": "3040717409",
        "ArXiv": "2007.06408",
        "DOI": "10.1093/IMAIAI/IAAB014",
        "CorpusId": 220496126
      },
      "url": "https://www.semanticscholar.org/paper/7963a5616a8205bebd268c51b90cc5f23b521088",
      "title": "Strong uniform consistency with rates for kernel density estimators with general kernels on manifolds",
      "venue": "Information and Inference A Journal of the IMA",
      "year": 2020,
      "referenceCount": 33,
      "citationCount": 11,
      "authors": [
        {
          "authorId": "49498848",
          "name": "Hau‐Tieng Wu"
        },
        {
          "authorId": "1400315832",
          "name": "Nan Wu"
        }
      ]
    },
    {
      "paperId": "38a69462ce2cc1972e55dea8c87c1a4b6952f671",
      "externalIds": {
        "DOI": "10.1007/s10463-024-00923-8",
        "CorpusId": 276440089
      },
      "url": "https://www.semanticscholar.org/paper/38a69462ce2cc1972e55dea8c87c1a4b6952f671",
      "title": "On uniform consistency of nonparametric estimators smoothed by the gamma kernel",
      "venue": "Annals of the Institute of Statistical Mathematics",
      "year": 2025,
      "referenceCount": 37,
      "citationCount": 6,
      "authors": [
        {
          "authorId": "2274495781",
          "name": "Benedikt Funke"
        },
        {
          "authorId": "2274521202",
          "name": "Masayuki Hirukawa"
        }
      ]
    },
    {
      "paperId": "85b859aa74cb891814fd5f2c7dc20d7793bbfa4f",
      "externalIds": {
        "MAG": "1851036371",
        "DOI": "10.1017/S0266466609090744",
        "CorpusId": 125000397
      },
      "url": "https://www.semanticscholar.org/paper/85b859aa74cb891814fd5f2c7dc20d7793bbfa4f",
      "title": "UNIFORM CONVERGENCE RATES OF KERNEL ESTIMATORS WITH HETEROGENEOUS DEPENDENT DATA",
      "venue": "Econometric Theory",
      "year": 2009,
      "referenceCount": 22,
      "citationCount": 96,
      "authors": [
        {
          "authorId": "145464398",
          "name": "Dennis Kristensen"
        }
      ]
    },
    {
      "paperId": "eeb3a0e0c735ecde0eadfde10701a2ee58c297f7",
      "externalIds": {
        "DOI": "10.1007/s42519-025-00528-1",
        "CorpusId": 284958976
      },
      "url": "https://www.semanticscholar.org/paper/eeb3a0e0c735ecde0eadfde10701a2ee58c297f7",
      "title": "Kernel Density Methods for Locally Stationary Processes",
      "venue": "Journal of Statistical Theory and Practice",
      "year": 2026,
      "referenceCount": 42,
      "citationCount": 0,
      "authors": [
        {
          "authorId": "2075932609",
          "name": "Hamdi Fathallah"
        },
        {
          "authorId": "2406188202",
          "name": "Syrine Hlaoua"
        },
        {
          "authorId": "2237922607",
          "name": "Yousri Slaoui"
        }
      ]
    },
    {
      "paperId": "e325e856f8d6df765f585f7c0e1e4927c6059674",
      "externalIds": {
        "CorpusId": 221264108
      },
      "url": "https://www.semanticscholar.org/paper/e325e856f8d6df765f585f7c0e1e4927c6059674",
      "title": "Strong uniform consistency rates of conditional den- sity estimation in the single functional index model for Functional Data Under Random Censorship",
      "venue": "",
      "year": 2020,
      "referenceCount": 32,
      "citationCount": 1,
      "authors": [
        {
          "authorId": "4286777",
          "name": "Nadia Kadiri"
        },
        {
          "authorId": "104300022",
          "name": "Mustapha Meghnafi"
        }
      ]
    }
  ]
}