{
  "total": 448,
  "offset": 0,
  "next": 10,
  "data": [
    {
      "paperId": "e2d3329c4e07823b56ff9c4899cd324277b0e2a6",
      "externalIds": {
        "MAG": "2741475451",
        "DBLP": "conf/icml/DembczynskiKKN17",
        "CorpusId": 30213210
      },
      "url": "https://www.semanticscholar.org/paper/e2d3329c4e07823b56ff9c4899cd324277b0e2a6",
      "title": "Consistency Analysis for Binary Classification Revisited",
      "venue": "International Conference on Machine Learning",
      "year": 2017,
      "referenceCount": 19,
      "citationCount": 34,
      "authors": [
        {
          "authorId": "1836428",
          "name": "K. Dembczynski"
        },
        {
          "authorId": "2305834",
          "name": "W. Kotłowski"
        },
        {
          "authorId": "143812875",
          "name": "Oluwasanmi Koyejo"
        },
        {
          "authorId": "145328735",
          "name": "Nagarajan Natarajan"
        }
      ]
    },
    {
      "paperId": "97bd26422c3d13d7e7786218bfc3c4f64cdb89da",
      "externalIds": {
        "DOI": "10.3390/math12233856",
        "CorpusId": 274620403
      },
      "url": "https://www.semanticscholar.org/paper/97bd26422c3d13d7e7786218bfc3c4f64cdb89da",
      "title": "A Hybrid Deep Learning Approach for Enhanced Sentiment Classification and Consistency Analysis in Customer Reviews",
      "venue": "Mathematics",
      "year": 2024,
      "referenceCount": 61,
      "citationCount": 12,
      "authors": [
        {
          "authorId": "39684139",
          "name": "Shaymaa E. Sorour"
        },
        {
          "authorId": "2369001944",
          "name": "Abdulrahman Alojail"
        },
        {
          "authorId": "2334633196",
          "name": "A. El‐Shora"
        },
        {
          "authorId": "2334848080",
          "name": "Ahmed E. Amin"
        },
        {
          "authorId": "35437555",
          "name": "A. Abohany"
        }
      ]
    },
    {
      "paperId": "f4e6d8b461c998c30afd59247fc1f67b25cab71f",
      "externalIds": {
        "DOI": "10.56705/ijodas.v4i2.77",
        "CorpusId": 260598990
      },
      "url": "https://www.semanticscholar.org/paper/f4e6d8b461c998c30afd59247fc1f67b25cab71f",
      "title": "Performance Comparison Analysis of Classifiers on Binary Classification Dataset",
      "venue": "Indonesian Journal of Data and Science",
      "year": 2023,
      "referenceCount": 0,
      "citationCount": 8,
      "authors": [
        {
          "authorId": "2229436212",
          "name": "Rahmat Fuadi Syam"
        },
        {
          "authorId": "2092311812",
          "name": "Rahmadani"
        }
      ]
    },
    {
      "paperId": "b13e4b5462781e2448a450bcc7b4087de0f5d9a1",
      "externalIds": {
        "DOI": "10.1016/j.labinv.2025.104134",
        "CorpusId": 277285294,
        "PubMed": "40132671"
      },
      "url": "https://www.semanticscholar.org/paper/b13e4b5462781e2448a450bcc7b4087de0f5d9a1",
      "title": "Systematic Analysis of Factors Affecting HER2 Interpretation Consistency: Staining Protocols, AI-Based Image Standardization, and Classification Criteria.",
      "venue": "Laboratory investigation; a journal of technical methods and pathology",
      "year": 2025,
      "referenceCount": 35,
      "citationCount": 2,
      "authors": [
        {
          "authorId": "2273991568",
          "name": "Chen Jiang"
        },
        {
          "authorId": "2291966629",
          "name": "Mei Li"
        },
        {
          "authorId": "2291979224",
          "name": "Chengyou Zheng"
        },
        {
          "authorId": "145362628",
          "name": "Shumei Yan"
        },
        {
          "authorId": "2163741160",
          "name": "Lingzhi Kong"
        },
        {
          "authorId": "2291759418",
          "name": "Yu Wu"
        },
        {
          "authorId": "2144129350",
          "name": "Jinhui Zhang"
        },
        {
          "authorId": "2351912499",
          "name": "Xue Chao"
        },
        {
          "authorId": "2353207818",
          "name": "Xi Cai"
        },
        {
          "authorId": "2354198466",
          "name": "Wentai Feng"
        },
        {
          "authorId": "2223465754",
          "name": "Jiehua He"
        },
        {
          "authorId": "83817757",
          "name": "Rongzhen Luo"
        },
        {
          "authorId": "2352836765",
          "name": "Shuoyu Xu"
        },
        {
          "authorId": "2311110366",
          "name": "Yuanzhong Yang"
        },
        {
          "authorId": "2292092697",
          "name": "Peng Sun"
        }
      ]
    },
    {
      "paperId": "456e4f9c4e68792620117425a335128a2b939aa9",
      "externalIds": {
        "DBLP": "journals/amai/CortesDM24",
        "DOI": "10.1007/s10472-023-09899-2",
        "CorpusId": 266252172
      },
      "url": "https://www.semanticscholar.org/paper/456e4f9c4e68792620117425a335128a2b939aa9",
      "title": "Theory and algorithms for learning with rejection in binary classification",
      "venue": "Annals of Mathematics and Artificial Intelligence",
      "year": 2023,
      "referenceCount": 48,
      "citationCount": 25,
      "authors": [
        {
          "authorId": "2252314306",
          "name": "Corinna Cortes"
        },
        {
          "authorId": "3186812",
          "name": "Giulia DeSalvo"
        },
        {
          "authorId": "81080659",
          "name": "M. Mohri"
        }
      ]
    },
    {
      "paperId": "9393226216f4825b49bb1828b0b05d7ec99e27ae",
      "externalIds": {
        "DOI": "10.1007/s00701-023-05867-1",
        "CorpusId": 265607383,
        "PubMed": "38044374"
      },
      "url": "https://www.semanticscholar.org/paper/9393226216f4825b49bb1828b0b05d7ec99e27ae",
      "title": "Utility of texture analysis for objective quantitative ex vivo assessment of meningioma consistency: method proposal and validation",
      "venue": "Acta Neurochirurgica",
      "year": 2023,
      "referenceCount": 37,
      "citationCount": 3,
      "authors": [
        {
          "authorId": "2216181711",
          "name": "M. Černý"
        },
        {
          "authorId": "11922128",
          "name": "V. Lesáková"
        },
        {
          "authorId": "2269444781",
          "name": "Jiri Soukup"
        },
        {
          "authorId": "2073657052",
          "name": "V. Sedlák"
        },
        {
          "authorId": "2269447466",
          "name": "Luděk Šíma"
        },
        {
          "authorId": "2248071040",
          "name": "Michaela May"
        },
        {
          "authorId": "4097494",
          "name": "D. Netuka"
        },
        {
          "authorId": "2265420385",
          "name": "František Štěpánek"
        },
        {
          "authorId": "2259389998",
          "name": "V. Beneš"
        }
      ]
    },
    {
      "paperId": "cb54067c8784f4cd0bc7301a5d1923a3fe598aa4",
      "externalIds": {
        "ArXiv": "2511.19499",
        "DBLP": "conf/aaai/Nguyen-LeTNL26",
        "DOI": "10.48550/arXiv.2511.19499",
        "CorpusId": 283251498
      },
      "url": "https://www.semanticscholar.org/paper/cb54067c8784f4cd0bc7301a5d1923a3fe598aa4",
      "title": "Beyond Binary Classification: A Semi-supervised Approach to Generalized AI-generated Image Detection",
      "venue": "AAAI Conference on Artificial Intelligence",
      "year": 2025,
      "referenceCount": 63,
      "citationCount": 0,
      "authors": [
        {
          "authorId": "2182371521",
          "name": "Hong-Hanh Nguyen-Le"
        },
        {
          "authorId": "2320419092",
          "name": "Van-Tuan Tran"
        },
        {
          "authorId": "2321493205",
          "name": "Dinh-Thuc Nguyen"
        },
        {
          "authorId": "1388632905",
          "name": "Nhien-An Le-Khac"
        }
      ]
    },
    {
      "paperId": "394fe1339b3e6b89a5f733e482a85bb66ce8f054",
      "externalIds": {
        "ArXiv": "2503.15133",
        "DBLP": "journals/corr/abs-2503-15133",
        "DOI": "10.1007/s13278-026-01585-5",
        "CorpusId": 277113549
      },
      "url": "https://www.semanticscholar.org/paper/394fe1339b3e6b89a5f733e482a85bb66ce8f054",
      "title": "EmoGRACE: aspect-based emotion analysis for social media data",
      "venue": "Social Network Analysis and Mining",
      "year": 2025,
      "referenceCount": 103,
      "citationCount": 4,
      "authors": [
        {
          "authorId": "2174252239",
          "name": "Christina Zorenböhmer"
        },
        {
          "authorId": "2203462986",
          "name": "Sebastian Schmidt"
        },
        {
          "authorId": "2295208917",
          "name": "David Hanny"
        },
        {
          "authorId": "2290812318",
          "name": "Bernd Resch"
        }
      ]
    },
    {
      "paperId": "7dff2d2c47d3fab29c231105dde8ae2cc5af5151",
      "externalIds": {
        "DBLP": "journals/apin/Wu000P24",
        "DOI": "10.1007/s10489-024-05280-w",
        "CorpusId": 267183599
      },
      "url": "https://www.semanticscholar.org/paper/7dff2d2c47d3fab29c231105dde8ae2cc5af5151",
      "title": "MBSSA-Bi-AESN: Classification prediction of bi-directional adaptive echo state network based on modified binary salp swarm algorithm and feature selection",
      "venue": "Applied intelligence (Boston)",
      "year": 2024,
      "referenceCount": 60,
      "citationCount": 9,
      "authors": [
        {
          "authorId": "2145346105",
          "name": "Xunjin Wu"
        },
        {
          "authorId": "2056779663",
          "name": "Jianming Zhan"
        },
        {
          "authorId": "2268356275",
          "name": "Tianrui Li"
        },
        {
          "authorId": "2152131013",
          "name": "Weiping Ding"
        },
        {
          "authorId": "2184502084",
          "name": "W. Pedrycz"
        }
      ]
    },
    {
      "paperId": "430f2d24bfa89b92671466e2e03d3c04abce1496",
      "externalIds": {
        "ArXiv": "2109.14282",
        "DBLP": "journals/corr/abs-2109-14282",
        "CorpusId": 238215392
      },
      "url": "https://www.semanticscholar.org/paper/430f2d24bfa89b92671466e2e03d3c04abce1496",
      "title": "A gradient-based variable selection for binary classification in reproducing kernel Hilbert space",
      "venue": "arXiv.org",
      "year": 2021,
      "referenceCount": 29,
      "citationCount": 0,
      "authors": [
        {
          "authorId": "2988123",
          "name": "Jongkyeong Kang"
        },
        {
          "authorId": "48038101",
          "name": "S. Shin"
        }
      ]
    }
  ]
}