{
  "total": 105,
  "offset": 0,
  "next": 10,
  "data": [
    {
      "paperId": "9b0e36f838682ebe1d80a09436f6ac52f6b15b4d",
      "externalIds": {
        "MAG": "2891034835",
        "DBLP": "conf/icml/LiuZO16",
        "ArXiv": "1512.02181",
        "CorpusId": 3844057
      },
      "url": "https://www.semanticscholar.org/paper/9b0e36f838682ebe1d80a09436f6ac52f6b15b4d",
      "title": "The Teaching Dimension of Linear Learners",
      "venue": "International Conference on Machine Learning",
      "year": 2015,
      "referenceCount": 35,
      "citationCount": 69,
      "authors": [
        {
          "authorId": "40478933",
          "name": "Ji Liu"
        },
        {
          "authorId": "1832364",
          "name": "Xiaojin Zhu"
        },
        {
          "authorId": "41153355",
          "name": "H. Ohannessian"
        }
      ]
    },
    {
      "paperId": "431180d176cccc2e5169622a359f6e4fbf303c25",
      "externalIds": {
        "DBLP": "conf/icml/QianLSZ022",
        "CorpusId": 250340645
      },
      "url": "https://www.semanticscholar.org/paper/431180d176cccc2e5169622a359f6e4fbf303c25",
      "title": "The Teaching Dimension of Regularized Kernel Learners",
      "venue": "International Conference on Machine Learning",
      "year": 2022,
      "referenceCount": 31,
      "citationCount": 5,
      "authors": [
        {
          "authorId": "2112125670",
          "name": "Hong Qian"
        },
        {
          "authorId": "2108707316",
          "name": "Xu-Hui Liu"
        },
        {
          "authorId": "2390197641",
          "name": "C. Su"
        },
        {
          "authorId": "145927131",
          "name": "Aimin Zhou"
        },
        {
          "authorId": "2175474316",
          "name": "Yang Yu"
        }
      ]
    },
    {
      "paperId": "e54e05096776dd4446a0195afd89fa6980eab6ae",
      "externalIds": {
        "DBLP": "conf/nips/BhartiWSZ24",
        "DOI": "10.52202/079017-3302",
        "CorpusId": 276288447
      },
      "url": "https://www.semanticscholar.org/paper/e54e05096776dd4446a0195afd89fa6980eab6ae",
      "title": "On the Complexity of Teaching a Family of Linear Behavior Cloning Learners",
      "venue": "Neural Information Processing Systems",
      "year": 2024,
      "referenceCount": 35,
      "citationCount": 1,
      "authors": [
        {
          "authorId": "1456174103",
          "name": "S. Bharti"
        },
        {
          "authorId": "2268412113",
          "name": "Stephen Wright"
        },
        {
          "authorId": "1703727",
          "name": "A. Singla"
        },
        {
          "authorId": "2268416651",
          "name": "Xiaojin Zhu"
        }
      ]
    },
    {
      "paperId": "4c786255103f3b322c12cbe5cef7b1bb723fe461",
      "externalIds": {
        "DBLP": "journals/corr/abs-2010-14043",
        "MAG": "3095396108",
        "ArXiv": "2010.14043",
        "CorpusId": 225076282
      },
      "url": "https://www.semanticscholar.org/paper/4c786255103f3b322c12cbe5cef7b1bb723fe461",
      "title": "The Teaching Dimension of Kernel Perceptron",
      "venue": "International Conference on Artificial Intelligence and Statistics",
      "year": 2020,
      "referenceCount": 36,
      "citationCount": 8,
      "authors": [
        {
          "authorId": "48822993",
          "name": "Akash Kumar"
        },
        {
          "authorId": "2119078600",
          "name": "Hanqi Zhang"
        },
        {
          "authorId": "1703727",
          "name": "A. Singla"
        },
        {
          "authorId": "50580847",
          "name": "Yuxin Chen"
        }
      ]
    },
    {
      "paperId": "918713fda8cd9ef4bba207780d2359dbc2e8b581",
      "externalIds": {
        "MAG": "2029731972",
        "DBLP": "journals/tcs/Balbach08",
        "DOI": "10.1016/j.tcs.2008.02.025",
        "CorpusId": 1841194
      },
      "url": "https://www.semanticscholar.org/paper/918713fda8cd9ef4bba207780d2359dbc2e8b581",
      "title": "Measuring teachability using variants of the teaching dimension",
      "venue": "Theoretical Computer Science",
      "year": 2008,
      "referenceCount": 32,
      "citationCount": 52,
      "authors": [
        {
          "authorId": "32517155",
          "name": "F. Balbach"
        }
      ]
    },
    {
      "paperId": "08ce2664053f0585d3798807a558d0569e3cb773",
      "externalIds": {
        "CorpusId": 56008025
      },
      "url": "https://www.semanticscholar.org/paper/08ce2664053f0585d3798807a558d0569e3cb773",
      "title": "2 Classic Teaching Dimension and its Limitations",
      "venue": "",
      "year": 2018,
      "referenceCount": 26,
      "citationCount": 0,
      "authors": [
        {
          "authorId": "40478933",
          "name": "Ji Liu"
        },
        {
          "authorId": "1832364",
          "name": "Xiaojin Zhu"
        }
      ]
    },
    {
      "paperId": "17cb1c97afb026ce169d15cd17009246edcbb73d",
      "externalIds": {
        "ArXiv": "2311.15399",
        "DBLP": "journals/corr/abs-2311-15399",
        "DOI": "10.48550/arXiv.2311.15399",
        "CorpusId": 265457060
      },
      "url": "https://www.semanticscholar.org/paper/17cb1c97afb026ce169d15cd17009246edcbb73d",
      "title": "Optimally Teaching a Linear Behavior Cloning Agent",
      "venue": "arXiv.org",
      "year": 2023,
      "referenceCount": 24,
      "citationCount": 0,
      "authors": [
        {
          "authorId": "1456174103",
          "name": "S. Bharti"
        },
        {
          "authorId": "2268412113",
          "name": "Stephen Wright"
        },
        {
          "authorId": "1703727",
          "name": "A. Singla"
        },
        {
          "authorId": "2268416651",
          "name": "Xiaojin Zhu"
        }
      ]
    },
    {
      "paperId": "e96048a9e40238d48745f8807927d8a5eaa8f9f4",
      "externalIds": {
        "DBLP": "conf/ijcai/ZhuLL17",
        "MAG": "2740785418",
        "DOI": "10.24963/ijcai.2017/502",
        "CorpusId": 2633607
      },
      "url": "https://www.semanticscholar.org/paper/e96048a9e40238d48745f8807927d8a5eaa8f9f4",
      "title": "No Learner Left Behind: On the Complexity of Teaching Multiple Learners Simultaneously",
      "venue": "International Joint Conference on Artificial Intelligence",
      "year": 2017,
      "referenceCount": 32,
      "citationCount": 25,
      "authors": [
        {
          "authorId": "1832364",
          "name": "Xiaojin Zhu"
        },
        {
          "authorId": "40478933",
          "name": "Ji Liu"
        },
        {
          "authorId": "144518313",
          "name": "M. Lopes"
        }
      ]
    },
    {
      "paperId": "2bbca4da9b0a64d6879fc29219f022d2179f9768",
      "externalIds": {
        "DBLP": "conf/colt/Balbach05",
        "MAG": "1545709628",
        "DOI": "10.1007/11503415_45",
        "CorpusId": 28770621
      },
      "url": "https://www.semanticscholar.org/paper/2bbca4da9b0a64d6879fc29219f022d2179f9768",
      "title": "Teaching Classes with High Teaching Dimension Using Few Examples",
      "venue": "Annual Conference Computational Learning Theory",
      "year": 2005,
      "referenceCount": 20,
      "citationCount": 8,
      "authors": [
        {
          "authorId": "32517155",
          "name": "F. Balbach"
        }
      ]
    },
    {
      "paperId": "27d92a01f3af6dbb56c1b1282007bedfc1745e0d",
      "externalIds": {
        "DOI": "10.1155/2022/2334544",
        "CorpusId": 251535935
      },
      "url": "https://www.semanticscholar.org/paper/27d92a01f3af6dbb56c1b1282007bedfc1745e0d",
      "title": "Analysis of Affective Factors and Optimization Strategies of Emotion in Online Teaching Based on Improved SVM Model",
      "venue": "Security and Communication Networks",
      "year": 2022,
      "referenceCount": 24,
      "citationCount": 3,
      "authors": [
        {
          "authorId": "2149178135",
          "name": "Hong Wu"
        },
        {
          "authorId": "2169520930",
          "name": "Trip Huwan"
        }
      ]
    }
  ]
}