{
  "total": 1335,
  "offset": 0,
  "next": 10,
  "data": [
    {
      "paperId": "6e1b2e05fe043046ccda1d5065e113f035c3c98b",
      "externalIds": {
        "MAG": "2949532887",
        "DBLP": "conf/icml/PentinaL17",
        "ArXiv": "1602.06518",
        "CorpusId": 7091982
      },
      "url": "https://www.semanticscholar.org/paper/6e1b2e05fe043046ccda1d5065e113f035c3c98b",
      "title": "Multi-task Learning with Labeled and Unlabeled Tasks",
      "venue": "International Conference on Machine Learning",
      "year": 2016,
      "referenceCount": 44,
      "citationCount": 42,
      "authors": [
        {
          "authorId": "2989149",
          "name": "Anastasia Pentina"
        },
        {
          "authorId": "1787591",
          "name": "Christoph H. Lampert"
        }
      ]
    },
    {
      "paperId": "9cf6b0d0cb15c3cf58f8fd7a1b2f692754469552",
      "externalIds": {
        "DOI": "10.1109/QPAIN66474.2025.11172072",
        "CorpusId": 281707805
      },
      "url": "https://www.semanticscholar.org/paper/9cf6b0d0cb15c3cf58f8fd7a1b2f692754469552",
      "title": "Enhancing Sarcasm Detection Using GAN-BERT with Multi-Task Learning",
      "venue": "2025 International Conference on Quantum Photonics, Artificial Intelligence, and Networking (QPAIN)",
      "year": 2025,
      "referenceCount": 32,
      "citationCount": 0,
      "authors": [
        {
          "authorId": "2355616285",
          "name": "Afif Hossain Irfan"
        },
        {
          "authorId": "2354913235",
          "name": "Shrabani Das"
        },
        {
          "authorId": "70656282",
          "name": "Jannatul Ferdaus"
        },
        {
          "authorId": "2154947994",
          "name": "Md. Tabil Ahammed"
        }
      ]
    },
    {
      "paperId": "aa277592d30af676e7092c38093046f8b101a4f8",
      "externalIds": {
        "ArXiv": "2306.08839",
        "DBLP": "journals/corr/abs-2306-08839",
        "DOI": "10.48550/arXiv.2306.08839",
        "CorpusId": 259165306
      },
      "url": "https://www.semanticscholar.org/paper/aa277592d30af676e7092c38093046f8b101a4f8",
      "title": "Knowledge Assembly: Semi-Supervised Multi-Task Learning from Multiple Datasets with Disjoint Labels",
      "venue": "arXiv.org",
      "year": 2023,
      "referenceCount": 30,
      "citationCount": 2,
      "authors": [
        {
          "authorId": "2134737584",
          "name": "Federica Spinola"
        },
        {
          "authorId": "47374754",
          "name": "Philipp Benz"
        },
        {
          "authorId": "2220626712",
          "name": "Minhyeong Yu"
        },
        {
          "authorId": "2111276542",
          "name": "Tae-Hoon Kim"
        }
      ]
    },
    {
      "paperId": "b7e89c4378a1ea4e4c6581645a5fe9bd502aa574",
      "externalIds": {
        "DBLP": "journals/corr/abs-2110-13185",
        "ArXiv": "2110.13185",
        "DOI": "10.59275/j.melba.2021-d8a3",
        "CorpusId": 239885894
      },
      "url": "https://www.semanticscholar.org/paper/b7e89c4378a1ea4e4c6581645a5fe9bd502aa574",
      "title": "Generalized Multi-Task Learning from Substantially Unlabeled Multi-Source Medical Image Data",
      "venue": "Machine Learning for Biomedical Imaging",
      "year": 2021,
      "referenceCount": 37,
      "citationCount": 11,
      "authors": [
        {
          "authorId": "2004070008",
          "name": "Ayaan Haque"
        },
        {
          "authorId": "9434948",
          "name": "Abdullah-Al-Zubaer Imran"
        },
        {
          "authorId": "36019824",
          "name": "Adam S. Wang"
        },
        {
          "authorId": "70287739",
          "name": "D. Terzopoulos"
        }
      ]
    },
    {
      "paperId": "375f1eca2699dbc566bf77048b5a89e05f707dc1",
      "externalIds": {
        "DBLP": "journals/inffus/WangDV24",
        "DOI": "10.1016/j.inffus.2024.102414",
        "CorpusId": 269017907
      },
      "url": "https://www.semanticscholar.org/paper/375f1eca2699dbc566bf77048b5a89e05f707dc1",
      "title": "A general image fusion framework using multi-task semi-supervised learning",
      "venue": "Information Fusion",
      "year": 2024,
      "referenceCount": 72,
      "citationCount": 55,
      "authors": [
        {
          "authorId": "2237813226",
          "name": "Wu Wang"
        },
        {
          "authorId": "2238216951",
          "name": "Liang-jian Deng"
        },
        {
          "authorId": "1701553",
          "name": "G. Vivone"
        }
      ]
    },
    {
      "paperId": "d29ee2e1cd0533a6923625861ec9093264fbc0a4",
      "externalIds": {
        "DBLP": "conf/cvpr/YeX24",
        "ArXiv": "2403.15389",
        "DOI": "10.1109/CVPR52733.2024.02641",
        "CorpusId": 268667312
      },
      "url": "https://www.semanticscholar.org/paper/d29ee2e1cd0533a6923625861ec9093264fbc0a4",
      "title": "DiffusionMTL: Learning Multi-Task Denoising Diffusion Model from Partially Annotated Data",
      "venue": "Computer Vision and Pattern Recognition",
      "year": 2024,
      "referenceCount": 55,
      "citationCount": 20,
      "authors": [
        {
          "authorId": "51225284",
          "name": "Hanrong Ye"
        },
        {
          "authorId": "2265622879",
          "name": "Dan Xu"
        }
      ]
    },
    {
      "paperId": "5f1ad89c6fb753a88622fedbc09be95520478ccf",
      "externalIds": {
        "MAG": "2072942628",
        "DBLP": "conf/kdd/ZhangH12",
        "DOI": "10.1145/2339530.2339617",
        "CorpusId": 6252604
      },
      "url": "https://www.semanticscholar.org/paper/5f1ad89c6fb753a88622fedbc09be95520478ccf",
      "title": "Inductive multi-task learning with multiple view data",
      "venue": "Knowledge Discovery and Data Mining",
      "year": 2012,
      "referenceCount": 26,
      "citationCount": 124,
      "authors": [
        {
          "authorId": "50560709",
          "name": "Jintao Zhang"
        },
        {
          "authorId": "144733837",
          "name": "Jun Huan"
        }
      ]
    },
    {
      "paperId": "5186a3c9023174caa606dcca9142fb4efbfc0614",
      "externalIds": {
        "DBLP": "journals/kais/PhamYMZZ23",
        "DOI": "10.1007/s10115-022-01813-2",
        "CorpusId": 255076659,
        "PubMed": "36998311"
      },
      "url": "https://www.semanticscholar.org/paper/5186a3c9023174caa606dcca9142fb4efbfc0614",
      "title": "A fair and interpretable network for clinical risk prediction: a regularized multi-view multi-task learning approach",
      "venue": "Knowledge and Information Systems",
      "year": 2022,
      "referenceCount": 72,
      "citationCount": 9,
      "authors": [
        {
          "authorId": "40421524",
          "name": "Thai-Hoang Pham"
        },
        {
          "authorId": "1896799084",
          "name": "Changchang Yin"
        },
        {
          "authorId": "145636013",
          "name": "L. Mehta"
        },
        {
          "authorId": "1845782244",
          "name": "Xueru Zhang"
        },
        {
          "authorId": "2157210256",
          "name": "Ping Zhang"
        }
      ]
    },
    {
      "paperId": "f7fe12e32edc465300cd9da197f54276e5822a60",
      "externalIds": {
        "DBLP": "conf/bibm/LouZLF24",
        "DOI": "10.1109/BIBM62325.2024.10821748",
        "CorpusId": 275439797
      },
      "url": "https://www.semanticscholar.org/paper/f7fe12e32edc465300cd9da197f54276e5822a60",
      "title": "MTL-SSU: A Multi-Task Self-Supervised Learning Framework for Epileptic Seizure Prediction",
      "venue": "IEEE International Conference on Bioinformatics and Biomedicine",
      "year": 2024,
      "referenceCount": 12,
      "citationCount": 4,
      "authors": [
        {
          "authorId": "2339470947",
          "name": "Jionghao Lou"
        },
        {
          "authorId": "2339693248",
          "name": "Jian Zhang"
        },
        {
          "authorId": "2339728539",
          "name": "Zhongmei Li"
        },
        {
          "authorId": "2339479066",
          "name": "Enbo Feng"
        }
      ]
    },
    {
      "paperId": "0ee4c52b7670cebdfd4b47a84a379fb2439c2876",
      "externalIds": {
        "DBLP": "conf/ncc/Kumar22",
        "DOI": "10.1109/NCC55593.2022.9806811",
        "CorpusId": 250300109
      },
      "url": "https://www.semanticscholar.org/paper/0ee4c52b7670cebdfd4b47a84a379fb2439c2876",
      "title": "Unsupervised Learning of Spatio-Temporal Representation with Multi-Task Learning for Video Retrieval",
      "venue": "National Conference on Communications",
      "year": 2022,
      "referenceCount": 44,
      "citationCount": 4,
      "authors": [
        {
          "authorId": "2107882107",
          "name": "Vidit Kumar"
        }
      ]
    }
  ]
}