{
  "total": 53,
  "offset": 0,
  "next": 10,
  "data": [
    {
      "paperId": "149b7e87045c5bdcc0f44c8bf3903760037f00f7",
      "externalIds": {
        "MAG": "1826892964",
        "DBLP": "conf/icml/ChaoSMS15",
        "CorpusId": 6107212
      },
      "url": "https://www.semanticscholar.org/paper/149b7e87045c5bdcc0f44c8bf3903760037f00f7",
      "title": "Exponential Integration for Hamiltonian Monte Carlo",
      "venue": "International Conference on Machine Learning",
      "year": 2015,
      "referenceCount": 34,
      "citationCount": 20,
      "authors": [
        {
          "authorId": "38784892",
          "name": "Wei-Lun Chao"
        },
        {
          "authorId": "1932072",
          "name": "J. Solomon"
        },
        {
          "authorId": "1872043",
          "name": "D. Michels"
        },
        {
          "authorId": "145757665",
          "name": "Fei Sha"
        }
      ]
    },
    {
      "paperId": "1a3e6764a6983a40a7c9f1724295701499411ff2",
      "externalIds": {
        "CorpusId": 6002118
      },
      "url": "https://www.semanticscholar.org/paper/1a3e6764a6983a40a7c9f1724295701499411ff2",
      "title": "Exponential Integration for Hamiltonian Monte Carlo Supplementary Material",
      "venue": "",
      "year": 2015,
      "referenceCount": 3,
      "citationCount": 0,
      "authors": [
        {
          "authorId": "38784892",
          "name": "Wei-Lun Chao"
        },
        {
          "authorId": "1932072",
          "name": "J. Solomon"
        },
        {
          "authorId": "1872043",
          "name": "D. Michels"
        }
      ]
    },
    {
      "paperId": "33a2fefcda2f934b94cebc1b8cf0e22306db27ae",
      "externalIds": {
        "MAG": "2953023416",
        "ArXiv": "1506.02564",
        "DBLP": "conf/nips/StrathmannSLSG15",
        "CorpusId": 10688057
      },
      "url": "https://www.semanticscholar.org/paper/33a2fefcda2f934b94cebc1b8cf0e22306db27ae",
      "title": "Gradient-free Hamiltonian Monte Carlo with Efficient Kernel Exponential Families",
      "venue": "Neural Information Processing Systems",
      "year": 2015,
      "referenceCount": 34,
      "citationCount": 77,
      "authors": [
        {
          "authorId": "1679743",
          "name": "Heiko Strathmann"
        },
        {
          "authorId": "1698032",
          "name": "D. Sejdinovic"
        },
        {
          "authorId": "34822144",
          "name": "Samuel Livingstone"
        },
        {
          "authorId": "145675507",
          "name": "Z. Szabó"
        },
        {
          "authorId": "1708497",
          "name": "A. Gretton"
        }
      ]
    },
    {
      "paperId": "baa5a0f6a1f55d7a5a90494872ea143997f08239",
      "externalIds": {
        "MAG": "3100888967",
        "ArXiv": "1511.09382",
        "DOI": "10.1214/16-AAP1255",
        "CorpusId": 48932392
      },
      "url": "https://www.semanticscholar.org/paper/baa5a0f6a1f55d7a5a90494872ea143997f08239",
      "title": "Randomized Hamiltonian Monte Carlo",
      "venue": "",
      "year": 2015,
      "referenceCount": 40,
      "citationCount": 119,
      "authors": [
        {
          "authorId": "1405068683",
          "name": "Nawaf Bou-Rabee"
        },
        {
          "authorId": "1399510610",
          "name": "J. Sanz-Serna"
        }
      ]
    },
    {
      "paperId": "b2f56ae82d73cd5c86dc8d9507d0cde18bbdfd14",
      "externalIds": {
        "ArXiv": "1505.07176",
        "MAG": "2964255064",
        "DOI": "10.1515/udt-2017-0001",
        "CorpusId": 5297224
      },
      "url": "https://www.semanticscholar.org/paper/b2f56ae82d73cd5c86dc8d9507d0cde18bbdfd14",
      "title": "The Bb-adic Symmetrization of Digital Nets for Quasi-Monte Carlo Integration",
      "venue": "",
      "year": 2015,
      "referenceCount": 30,
      "citationCount": 2,
      "authors": [
        {
          "authorId": "2532416",
          "name": "T. Goda"
        }
      ]
    },
    {
      "paperId": "0e9125400ab7ca982a6191b53d1e58a455dd477e",
      "externalIds": {
        "MAG": "651384464",
        "DBLP": "journals/sac/BacalladoDH15",
        "DOI": "10.1007/s11222-015-9562-9",
        "CorpusId": 2031686,
        "PubMed": "26412947"
      },
      "url": "https://www.semanticscholar.org/paper/0e9125400ab7ca982a6191b53d1e58a455dd477e",
      "title": "de Finetti Priors using Markov chain Monte Carlo computations",
      "venue": "Statistics and computing",
      "year": 2015,
      "referenceCount": 21,
      "citationCount": 12,
      "authors": [
        {
          "authorId": "3228094",
          "name": "S. Bacallado"
        },
        {
          "authorId": "2796350",
          "name": "P. Diaconis"
        },
        {
          "authorId": "47849596",
          "name": "Susan P. Holmes"
        }
      ]
    },
    {
      "paperId": "55cf92bab4c56077cec0b715ee7665921e405cb6",
      "externalIds": {
        "MAG": "2330445947",
        "DOI": "10.1103/PHYSREVLETT.114.033001",
        "CorpusId": 3017601,
        "PubMed": "25658996"
      },
      "url": "https://www.semanticscholar.org/paper/55cf92bab4c56077cec0b715ee7665921e405cb6",
      "title": "Accurate Ab initio calculation of ionization potentials of the first-row transition metals with the configuration-interaction quantum Monte Carlo technique.",
      "venue": "Physical Review Letters",
      "year": 2015,
      "referenceCount": 0,
      "citationCount": 36,
      "authors": [
        {
          "authorId": "2110940863",
          "name": "Robert E. Thomas"
        },
        {
          "authorId": "38476714",
          "name": "George H. Booth"
        },
        {
          "authorId": "144056311",
          "name": "A. Alavi"
        }
      ]
    },
    {
      "paperId": "8ab3437df26df35f94a20ddd55837f057ba693ea",
      "externalIds": {
        "MAG": "2031215690",
        "DOI": "10.1016/J.CPLETT.2014.11.054",
        "CorpusId": 95724067
      },
      "url": "https://www.semanticscholar.org/paper/8ab3437df26df35f94a20ddd55837f057ba693ea",
      "title": "On the fly nodal searches in importance sampled fixed-node diffusion Monte Carlo using a parallel, fine-grained, genetic algorithm",
      "venue": "",
      "year": 2015,
      "referenceCount": 46,
      "citationCount": 1,
      "authors": [
        {
          "authorId": "14512330",
          "name": "Angeline Wairegi"
        },
        {
          "authorId": "2237352",
          "name": "D. Farrelly"
        }
      ]
    },
    {
      "paperId": "485b366a09ce8ea1e5800926930e393baf804758",
      "externalIds": {
        "ArXiv": "1507.06994",
        "MAG": "1009332291",
        "CorpusId": 117744582
      },
      "url": "https://www.semanticscholar.org/paper/485b366a09ce8ea1e5800926930e393baf804758",
      "title": "Simulating the Generalized Gibbs Ensemble (GGE): a Hilbert space Monte Carlo approach",
      "venue": "",
      "year": 2015,
      "referenceCount": 1,
      "citationCount": 19,
      "authors": [
        {
          "authorId": "39893249",
          "name": "V. Alba"
        }
      ]
    },
    {
      "paperId": "7132ece3888e6d1a16826132826588addc5b1ed6",
      "externalIds": {
        "MAG": "2088811455",
        "DBLP": "journals/jcphy/EscribanoARA15",
        "DOI": "10.1016/j.jcp.2014.08.052",
        "CorpusId": 15158774
      },
      "url": "https://www.semanticscholar.org/paper/7132ece3888e6d1a16826132826588addc5b1ed6",
      "title": "Multiple-time-stepping generalized hybrid Monte Carlo methods",
      "venue": "Journal of Computational Physics",
      "year": 2015,
      "referenceCount": 51,
      "citationCount": 14,
      "authors": [
        {
          "authorId": "34748379",
          "name": "B. Escribano"
        },
        {
          "authorId": "2783191",
          "name": "E. Akhmatskaya"
        },
        {
          "authorId": "39203137",
          "name": "S. Reich"
        },
        {
          "authorId": "35226395",
          "name": "J. Azpiroz"
        }
      ]
    }
  ]
}