{
  "total": 4391,
  "offset": 0,
  "next": 10,
  "data": [
    {
      "paperId": "da5c65b0ac8b525c3d3d4889bf44d8a48d254a07",
      "externalIds": {
        "DBLP": "conf/icml/GalIG17",
        "MAG": "2951786554",
        "ArXiv": "1703.02910",
        "DOI": "10.17863/CAM.11070",
        "CorpusId": 6318455
      },
      "url": "https://www.semanticscholar.org/paper/da5c65b0ac8b525c3d3d4889bf44d8a48d254a07",
      "title": "Deep Bayesian Active Learning with Image Data",
      "venue": "International Conference on Machine Learning",
      "year": 2017,
      "referenceCount": 43,
      "citationCount": 1964,
      "authors": [
        {
          "authorId": "2681954",
          "name": "Y. Gal"
        },
        {
          "authorId": "18014232",
          "name": "Riashat Islam"
        },
        {
          "authorId": "1744700",
          "name": "Zoubin Ghahramani"
        }
      ]
    },
    {
      "paperId": "c3a3079391ff4e9e8c75b4110a169e19d845e471",
      "externalIds": {
        "ArXiv": "2208.03020",
        "DBLP": "journals/corr/abs-2208-03020",
        "DOI": "10.1007/978-3-031-12053-4_45",
        "CorpusId": 251137843
      },
      "url": "https://www.semanticscholar.org/paper/c3a3079391ff4e9e8c75b4110a169e19d845e471",
      "title": "Deep Bayesian Active-Learning-to-Rank for Endoscopic Image Data",
      "venue": "Annual Conference on Medical Image Understanding and Analysis",
      "year": 2022,
      "referenceCount": 17,
      "citationCount": 3,
      "authors": [
        {
          "authorId": "2061745971",
          "name": "T. Kadota"
        },
        {
          "authorId": "1381961694",
          "name": "Hideaki Hayashi"
        },
        {
          "authorId": "46941187",
          "name": "R. Bise"
        },
        {
          "authorId": "14689351",
          "name": "Kiyohito Tanaka"
        },
        {
          "authorId": "2144256440",
          "name": "Seiichi Uchida"
        }
      ]
    },
    {
      "paperId": "cc37e4b4ef0ba40e7d7ebbc05f612e7d8b593654",
      "externalIds": {
        "DBLP": "journals/corr/abs-2409-04952",
        "ArXiv": "2409.04952",
        "DOI": "10.1016/j.media.2024.103262",
        "CorpusId": 270951379,
        "PubMed": "38986351"
      },
      "url": "https://www.semanticscholar.org/paper/cc37e4b4ef0ba40e7d7ebbc05f612e7d8b593654",
      "title": "Deep Bayesian active learning-to-rank with relative annotation for estimation of ulcerative colitis severity",
      "venue": "Medical Image Anal.",
      "year": 2024,
      "referenceCount": 42,
      "citationCount": 6,
      "authors": [
        {
          "authorId": "2061745971",
          "name": "T. Kadota"
        },
        {
          "authorId": "1381961694",
          "name": "Hideaki Hayashi"
        },
        {
          "authorId": "2261295283",
          "name": "Ryoma Bise"
        },
        {
          "authorId": "2244585704",
          "name": "Kiyohito Tanaka"
        },
        {
          "authorId": "2261295763",
          "name": "Seiichi Uchida"
        }
      ]
    },
    {
      "paperId": "107ec9f06b9a53e20a91fcf9b31a6e40518ac3de",
      "externalIds": {
        "ArXiv": "2301.05490",
        "DBLP": "journals/corr/abs-2301-05490",
        "DOI": "10.48550/arXiv.2301.05490",
        "CorpusId": 255825811
      },
      "url": "https://www.semanticscholar.org/paper/107ec9f06b9a53e20a91fcf9b31a6e40518ac3de",
      "title": "Scalable Batch Acquisition for Deep Bayesian Active Learning",
      "venue": "SDM",
      "year": 2023,
      "referenceCount": 38,
      "citationCount": 3,
      "authors": [
        {
          "authorId": "92783033",
          "name": "A. Rubashevskii"
        },
        {
          "authorId": "2146147013",
          "name": "Daria A. Kotova"
        },
        {
          "authorId": "144180694",
          "name": "Maxim Panov"
        }
      ]
    },
    {
      "paperId": "7867c28459e0e88f0e58543ded17b294666397fc",
      "externalIds": {
        "DOI": "10.58496/mjbd/2023/008",
        "CorpusId": 259789319
      },
      "url": "https://www.semanticscholar.org/paper/7867c28459e0e88f0e58543ded17b294666397fc",
      "title": "Active learning with Bayesian CNN using the BALD method for Hyperspectral Image Classification",
      "venue": "Mesopotamian Journal of Big Data",
      "year": 2023,
      "referenceCount": 23,
      "citationCount": 9,
      "authors": [
        {
          "authorId": "2222642330",
          "name": "Mahmood Siddeeq Qadir"
        },
        {
          "authorId": "9142072",
          "name": "G. Bilgin"
        }
      ]
    },
    {
      "paperId": "bc943ba41c7542f1f5845638b92284e87cf39e74",
      "externalIds": {
        "CorpusId": 253417513
      },
      "url": "https://www.semanticscholar.org/paper/bc943ba41c7542f1f5845638b92284e87cf39e74",
      "title": "Evaluation of Cross-modality Image Synthesis and Bayesian Active Learning in Segmentation of Lower Limb Muscles in MR Images",
      "venue": "",
      "year": 2022,
      "referenceCount": 0,
      "citationCount": 0,
      "authors": []
    },
    {
      "paperId": "802e0873a85afa7723ecce56892bf55de3f3bfc3",
      "externalIds": {
        "DBLP": "journals/tmlr/HuseljicHNRSS24",
        "CorpusId": 271647377
      },
      "url": "https://www.semanticscholar.org/paper/802e0873a85afa7723ecce56892bf55de3f3bfc3",
      "title": "The Interplay of Uncertainty Modeling and Deep Active Learning: An Empirical Analysis in Image Classification",
      "venue": "Trans. Mach. Learn. Res.",
      "year": 2024,
      "referenceCount": 46,
      "citationCount": 2,
      "authors": [
        {
          "authorId": "25891432",
          "name": "Denis Huseljic"
        },
        {
          "authorId": "79325054",
          "name": "M. Herde"
        },
        {
          "authorId": "2314387378",
          "name": "Yannick Nagel"
        },
        {
          "authorId": "2190436773",
          "name": "Lukas Rauch"
        },
        {
          "authorId": "2314398738",
          "name": "Paulius Strimaitis"
        },
        {
          "authorId": "2237782654",
          "name": "Bernhard Sick"
        }
      ]
    },
    {
      "paperId": "291fcdcdceb7255457098675725ca4d787f586f7",
      "externalIds": {
        "ArXiv": "1811.03897",
        "DBLP": "journals/corr/abs-1811-03897",
        "MAG": "2899575464",
        "CorpusId": 53250539
      },
      "url": "https://www.semanticscholar.org/paper/291fcdcdceb7255457098675725ca4d787f586f7",
      "title": "Deep Ensemble Bayesian Active Learning : Addressing the Mode Collapse issue in Monte Carlo dropout via Ensembles",
      "venue": "arXiv.org",
      "year": 2018,
      "referenceCount": 47,
      "citationCount": 48,
      "authors": [
        {
          "authorId": "46746304",
          "name": "Remus Pop"
        },
        {
          "authorId": "51912858",
          "name": "Patric Fulop"
        }
      ]
    },
    {
      "paperId": "a71906ef1f526bc6dc7628fda100eca4ae6da0c7",
      "externalIds": {
        "DOI": "10.1109/JBHI.2025.3633513",
        "CorpusId": 283249657,
        "PubMed": "41284431"
      },
      "url": "https://www.semanticscholar.org/paper/a71906ef1f526bc6dc7628fda100eca4ae6da0c7",
      "title": "Foundation Model With Uncertainty Estimation-Based Active Learning for Retinal Image Classification.",
      "venue": "IEEE journal of biomedical and health informatics",
      "year": 2025,
      "referenceCount": 0,
      "citationCount": 0,
      "authors": [
        {
          "authorId": "2328265183",
          "name": "Yilong Luo"
        },
        {
          "authorId": "145494496",
          "name": "Aidi Lin"
        },
        {
          "authorId": "1796227131",
          "name": "Yuanyuan Peng"
        },
        {
          "authorId": "2143608834",
          "name": "Tian Lin"
        },
        {
          "authorId": "2287452111",
          "name": "Haoyu Chen"
        }
      ]
    },
    {
      "paperId": "4a9bc2ef17b211ede1dc73ac9b24a31612f88735",
      "externalIds": {
        "MAG": "2809113079",
        "DBLP": "journals/tgrs/HautPPLP18",
        "DOI": "10.1109/TGRS.2018.2838665",
        "CorpusId": 49546820
      },
      "url": "https://www.semanticscholar.org/paper/4a9bc2ef17b211ede1dc73ac9b24a31612f88735",
      "title": "Active Learning With Convolutional Neural Networks for Hyperspectral Image Classification Using a New Bayesian Approach",
      "venue": "IEEE Transactions on Geoscience and Remote Sensing",
      "year": 2018,
      "referenceCount": 107,
      "citationCount": 253,
      "authors": [
        {
          "authorId": "21248079",
          "name": "J. Haut"
        },
        {
          "authorId": "31715636",
          "name": "Mercedes Eugenia Paoletti"
        },
        {
          "authorId": "116066665",
          "name": "J. Plaza"
        },
        {
          "authorId": "46276037",
          "name": "Jun Yu Li"
        },
        {
          "authorId": "143767945",
          "name": "A. Plaza"
        }
      ]
    }
  ]
}