{
  "total": 3898,
  "offset": 0,
  "next": 10,
  "data": [
    {
      "paperId": "58f6be50d3e372af372e7d4b77bb80c017661d4d",
      "externalIds": {
        "MAG": "2473169921",
        "DBLP": "conf/icml/LibertyLS16",
        "CorpusId": 1427241
      },
      "url": "https://www.semanticscholar.org/paper/58f6be50d3e372af372e7d4b77bb80c017661d4d",
      "title": "Stratified Sampling Meets Machine Learning",
      "venue": "International Conference on Machine Learning",
      "year": 2016,
      "referenceCount": 21,
      "citationCount": 56,
      "authors": [
        {
          "authorId": "2941680",
          "name": "Edo Liberty"
        },
        {
          "authorId": "49464494",
          "name": "Kevin J. Lang"
        },
        {
          "authorId": "102308676",
          "name": "K. Shmakov"
        }
      ]
    },
    {
      "paperId": "69b4fa20cb677f1631a486e203b95ce58a919b7b",
      "externalIds": {
        "DBLP": "journals/corr/abs-2508-00734",
        "ArXiv": "2508.00734",
        "DOI": "10.48550/arXiv.2508.00734",
        "CorpusId": 280417521
      },
      "url": "https://www.semanticscholar.org/paper/69b4fa20cb677f1631a486e203b95ce58a919b7b",
      "title": "Adaptive Machine Learning-Driven Multi-Fidelity Stratified Sampling for Failure Analysis of Nonlinear Stochastic Systems",
      "venue": "Structural Safety",
      "year": 2025,
      "referenceCount": 73,
      "citationCount": 0,
      "authors": [
        {
          "authorId": "2305027449",
          "name": "Liuyun Xu"
        },
        {
          "authorId": "2305043788",
          "name": "S. M. Spence"
        }
      ]
    },
    {
      "paperId": "6614d4aedb4d16e09162a771794bbe85e1934fc0",
      "externalIds": {
        "DOI": "10.55041/isjem03377",
        "CorpusId": 279176643
      },
      "url": "https://www.semanticscholar.org/paper/6614d4aedb4d16e09162a771794bbe85e1934fc0",
      "title": "Stratified sampling in Cohort-based data for Machine learning Model development",
      "venue": "International Scientific Journal of Engineering and Management",
      "year": 2025,
      "referenceCount": 0,
      "citationCount": 0,
      "authors": [
        {
          "authorId": "2365658688",
          "name": "Vaibhav Tummalapalli"
        }
      ]
    },
    {
      "paperId": "b684af322c1ec4bfd448856d77d9f4e19fab1bc8",
      "externalIds": {
        "DBLP": "journals/jscic/AvilesOJ25",
        "ArXiv": "2405.15686",
        "DOI": "10.1007/s10915-025-03024-7",
        "CorpusId": 270045733
      },
      "url": "https://www.semanticscholar.org/paper/b684af322c1ec4bfd448856d77d9f4e19fab1bc8",
      "title": "Stratified Sampling Algorithms for Machine Learning Methods in Solving Two-scale Partial Differential Equations",
      "venue": "Journal of Scientific Computing",
      "year": 2024,
      "referenceCount": 49,
      "citationCount": 3,
      "authors": [
        {
          "authorId": "2389122461",
          "name": "Eddel Elí Ojeda Avilés"
        },
        {
          "authorId": "2389112279",
          "name": "Daniel Olmos Liceaga"
        },
        {
          "authorId": "2257136367",
          "name": "Jae-Hun Jung"
        }
      ]
    },
    {
      "paperId": "08383bc711a0f5c81493ed8f06bd79c64a5bbbe6",
      "externalIds": {
        "ArXiv": "2307.13710",
        "DOI": "10.1038/s41524-024-01227-4",
        "CorpusId": 260164509
      },
      "url": "https://www.semanticscholar.org/paper/08383bc711a0f5c81493ed8f06bd79c64a5bbbe6",
      "title": "Robust training of machine learning interatomic potentials with dimensionality reduction and stratified sampling",
      "venue": "npj Computational Materials",
      "year": 2023,
      "referenceCount": 64,
      "citationCount": 91,
      "authors": [
        {
          "authorId": "102257877",
          "name": "Ji Qi"
        },
        {
          "authorId": "96448726",
          "name": "Tsz Wai Ko"
        },
        {
          "authorId": "2064495202",
          "name": "Brandon Wood"
        },
        {
          "authorId": "47408677",
          "name": "T. Pham"
        },
        {
          "authorId": "2381325",
          "name": "S. Ong"
        }
      ]
    },
    {
      "paperId": "506cebeb185c53c69b28caed7504b9b4721995a2",
      "externalIds": {
        "DOI": "10.21928/uhdjst.v9n1y2025.pp149-168",
        "CorpusId": 279146098
      },
      "url": "https://www.semanticscholar.org/paper/506cebeb185c53c69b28caed7504b9b4721995a2",
      "title": "Improving Cardiovascular Disease Prediction through Stratified Machine Learning Models and Combined Datasets",
      "venue": "UHD Journal of Science and Technology",
      "year": 2025,
      "referenceCount": 0,
      "citationCount": 4,
      "authors": [
        {
          "authorId": "2365224662",
          "name": "Tara Yousif Mawlood"
        },
        {
          "authorId": "2151613987",
          "name": "A. Hassan"
        },
        {
          "authorId": "2308060124",
          "name": "R. Muhammed"
        },
        {
          "authorId": "65818042",
          "name": "A. Aladdin"
        },
        {
          "authorId": "1908725",
          "name": "Rebwar Khalid Hamad"
        },
        {
          "authorId": "121429904",
          "name": "B. Hassan"
        }
      ]
    },
    {
      "paperId": "d25b8b1d0db88d89673807543694292962a0a132",
      "externalIds": {
        "PubMedCentral": "11908643",
        "DOI": "10.1093/bioadv/vbaf002",
        "CorpusId": 276560506,
        "PubMed": "40092529"
      },
      "url": "https://www.semanticscholar.org/paper/d25b8b1d0db88d89673807543694292962a0a132",
      "title": "A new ensemble learning method stratified sampling blending optimizes conventional blending and improves prediction performance",
      "venue": "Bioinformatics Advances",
      "year": 2025,
      "referenceCount": 43,
      "citationCount": 3,
      "authors": [
        {
          "authorId": "2309308526",
          "name": "Na Miao"
        },
        {
          "authorId": "2257252409",
          "name": "Mengke Yang"
        },
        {
          "authorId": "2194308356",
          "name": "Pingping Han"
        },
        {
          "authorId": "2309302665",
          "name": "Jiakun Qiao"
        },
        {
          "authorId": "2320397673",
          "name": "Zhaoxuan Che"
        },
        {
          "authorId": "2310297075",
          "name": "Fangjun Xu"
        },
        {
          "authorId": "2309680439",
          "name": "Xiangyu Dai"
        },
        {
          "authorId": "2283980748",
          "name": "Mengjin Zhu"
        }
      ]
    },
    {
      "paperId": "e7b6f308e57563b1d834c67a6541cffa4d698837",
      "externalIds": {
        "PubMedCentral": "10987159",
        "DOI": "10.1002/advs.202305277",
        "CorpusId": 267268853,
        "PubMed": "38279508"
      },
      "url": "https://www.semanticscholar.org/paper/e7b6f308e57563b1d834c67a6541cffa4d698837",
      "title": "When Machine Learning Meets 2D Materials: A Review",
      "venue": "Advancement of science",
      "year": 2024,
      "referenceCount": 205,
      "citationCount": 108,
      "authors": [
        {
          "authorId": "2271339915",
          "name": "Bin Lu"
        },
        {
          "authorId": "2269766101",
          "name": "Yuze Xia"
        },
        {
          "authorId": "2281463739",
          "name": "Yuqian Ren"
        },
        {
          "authorId": "2281608526",
          "name": "Miaomiao Xie"
        },
        {
          "authorId": "2181002720",
          "name": "Liguo Zhou"
        },
        {
          "authorId": "7243744",
          "name": "G. Vinai"
        },
        {
          "authorId": "48746431",
          "name": "S. Morton"
        },
        {
          "authorId": "2252867338",
          "name": "A. Wee"
        },
        {
          "authorId": "8915654",
          "name": "W. G. van der Wiel"
        },
        {
          "authorId": "2269691998",
          "name": "Wen Zhang"
        },
        {
          "authorId": "48692955",
          "name": "P. Wong"
        }
      ]
    },
    {
      "paperId": "eafd537b11f3269c4206f91c4721b008d456b4fc",
      "externalIds": {
        "PubMedCentral": "12586011",
        "DOI": "10.3389/fnagi.2025.1687925",
        "CorpusId": 282345778,
        "PubMed": "41200275"
      },
      "url": "https://www.semanticscholar.org/paper/eafd537b11f3269c4206f91c4721b008d456b4fc",
      "title": "Diagnostic classification of mild cognitive impairment in Parkinson's disease using subject-level stratified machine-learning analysis",
      "venue": "Frontiers in Aging Neuroscience",
      "year": 2025,
      "referenceCount": 53,
      "citationCount": 0,
      "authors": [
        {
          "authorId": "2155547004",
          "name": "Jing Wang"
        },
        {
          "authorId": "2115986343",
          "name": "Yanfang Chen"
        },
        {
          "authorId": "2341667908",
          "name": "Xiao Xie"
        },
        {
          "authorId": "2341668363",
          "name": "Pengwei Wang"
        },
        {
          "authorId": "2286166709",
          "name": "Hang Hu"
        },
        {
          "authorId": "50434202",
          "name": "Hongfang Han"
        },
        {
          "authorId": "2267005802",
          "name": "Lihan Wang"
        },
        {
          "authorId": "2254936950",
          "name": "Li Zhang"
        }
      ]
    },
    {
      "paperId": "1b9e089dcef4503276292779b78c5c7812189724",
      "externalIds": {
        "DOI": "10.1016/j.foodchem.2025.145007",
        "CorpusId": 279084458,
        "PubMed": "40482483"
      },
      "url": "https://www.semanticscholar.org/paper/1b9e089dcef4503276292779b78c5c7812189724",
      "title": "Benchtop Vis-NIR spectroscopy meets machine learning for multi-task analysis in Hongmeiren citrus: Geographical origin identification and antioxidant component quantification.",
      "venue": "Food Chemistry",
      "year": 2025,
      "referenceCount": 50,
      "citationCount": 8,
      "authors": [
        {
          "authorId": "2338871633",
          "name": "Tao Jiang"
        },
        {
          "authorId": "2332709182",
          "name": "Jianjun Ding"
        },
        {
          "authorId": "1725626329",
          "name": "Shaofeng Yuan"
        },
        {
          "authorId": "9414232",
          "name": "Yuliang Cheng"
        },
        {
          "authorId": "30206655",
          "name": "Yahui Guo"
        },
        {
          "authorId": "2307776168",
          "name": "Hang Yu"
        },
        {
          "authorId": "8195160",
          "name": "Weirong Yao"
        }
      ]
    }
  ]
}