{
  "total": 31768,
  "offset": 0,
  "next": 10,
  "data": [
    {
      "paperId": "c114c8cac5614987bed85aa4c97407dd76c6297f",
      "externalIds": {
        "MAG": "2963612511",
        "DBLP": "conf/icml/ImaniW18",
        "ArXiv": "1806.04613",
        "CorpusId": 48365278
      },
      "url": "https://www.semanticscholar.org/paper/c114c8cac5614987bed85aa4c97407dd76c6297f",
      "title": "Improving Regression Performance with Distributional Losses",
      "venue": "International Conference on Machine Learning",
      "year": 2018,
      "referenceCount": 32,
      "citationCount": 90,
      "authors": [
        {
          "authorId": "29905816",
          "name": "Ehsan Imani"
        },
        {
          "authorId": "144542337",
          "name": "Martha White"
        }
      ]
    },
    {
      "paperId": "4c45bd82afcf1585105eca6a0d5d82412fb66f67",
      "externalIds": {
        "PubMedCentral": "12642113",
        "DOI": "10.1016/j.gloepi.2025.100227",
        "CorpusId": 282284552,
        "PubMed": "41293397"
      },
      "url": "https://www.semanticscholar.org/paper/4c45bd82afcf1585105eca6a0d5d82412fb66f67",
      "title": "Factors related to sleep quality in the adult population of Shahroud; Comparison of adjusted distributional and multivariable logistic regression analysis",
      "venue": "Global Epidemiology",
      "year": 2025,
      "referenceCount": 58,
      "citationCount": 0,
      "authors": [
        {
          "authorId": "2255370833",
          "name": "Hajar Golbabaei Pasandi"
        },
        {
          "authorId": "2249457712",
          "name": "Ahmad Khosravi"
        },
        {
          "authorId": "5641826",
          "name": "M. Emamian"
        },
        {
          "authorId": "39841298",
          "name": "S. Mousavi"
        },
        {
          "authorId": "2259002584",
          "name": "Hassan Hashemi"
        },
        {
          "authorId": "2251500176",
          "name": "Akbar Fotouhi"
        }
      ]
    },
    {
      "paperId": "e523e597e99fe591650e53aafc9016893b1b61c0",
      "externalIds": {
        "ArXiv": "2511.08314",
        "DBLP": "journals/corr/abs-2511-08314",
        "DOI": "10.48550/arXiv.2511.08314",
        "CorpusId": 282922144
      },
      "url": "https://www.semanticscholar.org/paper/e523e597e99fe591650e53aafc9016893b1b61c0",
      "title": "Improving the accuracy and generalizability of molecular property regression models with a substructure-substitution-rule-informed framework",
      "venue": "arXiv.org",
      "year": 2025,
      "referenceCount": 71,
      "citationCount": 0,
      "authors": [
        {
          "authorId": "2233393266",
          "name": "Xiaoyu Fan"
        },
        {
          "authorId": "2348179399",
          "name": "Lin Guo"
        },
        {
          "authorId": "46754904",
          "name": "Ruizhen Jia"
        },
        {
          "authorId": "2232029859",
          "name": "Yang Tian"
        },
        {
          "authorId": "2109493667",
          "name": "Zhihao Yang"
        },
        {
          "authorId": "2391811656",
          "name": "Boxue Tian"
        }
      ]
    },
    {
      "paperId": "c71c72e29c8e5b1e0a32fc90d24bdc66726c3d24",
      "externalIds": {
        "ArXiv": "2305.16877",
        "DBLP": "conf/uai/JullienDRGR25",
        "DOI": "10.48550/arXiv.2305.16877",
        "CorpusId": 271866067
      },
      "url": "https://www.semanticscholar.org/paper/c71c72e29c8e5b1e0a32fc90d24bdc66726c3d24",
      "title": "Distributional Reinforcement Learning with Dual Expectile-Quantile Regression",
      "venue": "Conference on Uncertainty in Artificial Intelligence",
      "year": 2023,
      "referenceCount": 41,
      "citationCount": 0,
      "authors": [
        {
          "authorId": "2130153188",
          "name": "Sami Jullien"
        },
        {
          "authorId": "2189225090",
          "name": "Romain Deffayet"
        },
        {
          "authorId": "2822140",
          "name": "J. Renders"
        },
        {
          "authorId": "2297217789",
          "name": "P. Groth"
        },
        {
          "authorId": "2265490493",
          "name": "M. D. Rijke"
        }
      ]
    },
    {
      "paperId": "10808558b52d341d03050a142884d898eca34b35",
      "externalIds": {
        "DOI": "10.1063/5.0191683",
        "CorpusId": 268134697
      },
      "url": "https://www.semanticscholar.org/paper/10808558b52d341d03050a142884d898eca34b35",
      "title": "Improving the hydraulic performance of a high-speed submersible axial flow pump based on CFD technology",
      "venue": "International Journal of Fluid Engineering",
      "year": 2024,
      "referenceCount": 29,
      "citationCount": 39,
      "authors": [
        {
          "authorId": "2056652679",
          "name": "Lu Rong"
        },
        {
          "authorId": "2289207530",
          "name": "Martin Böhle"
        },
        {
          "authorId": "2244150490",
          "name": "Yandong Gu"
        }
      ]
    },
    {
      "paperId": "e68c5d0f3773ddb619e24dae5210eec72eddf775",
      "externalIds": {
        "DOI": "10.1029/2025jh000635",
        "CorpusId": 279302165
      },
      "url": "https://www.semanticscholar.org/paper/e68c5d0f3773ddb619e24dae5210eec72eddf775",
      "title": "A Distributional Regression Network With Data Transformation for Calibrating Rainfall Forecasts",
      "venue": "Journal of Geophysical Research",
      "year": 2025,
      "referenceCount": 19,
      "citationCount": 2,
      "authors": [
        {
          "authorId": "2159323981",
          "name": "Zeqing Huang"
        },
        {
          "authorId": "91151747",
          "name": "A. Schepen"
        },
        {
          "authorId": "2248087105",
          "name": "James C. Bennett"
        },
        {
          "authorId": "2244385802",
          "name": "David E. Robertson"
        },
        {
          "authorId": "2294109334",
          "name": "Tongtiegang Zhao"
        },
        {
          "authorId": "2237767662",
          "name": "Eun‐Soon Im"
        },
        {
          "authorId": "2239963983",
          "name": "Quan J. Wang"
        }
      ]
    },
    {
      "paperId": "2cdbddb14304434aef9fdb3d22e04fb89a742330",
      "externalIds": {
        "DBLP": "conf/aistats/LheritierB22",
        "ArXiv": "2110.00535",
        "CorpusId": 247025972
      },
      "url": "https://www.semanticscholar.org/paper/2cdbddb14304434aef9fdb3d22e04fb89a742330",
      "title": "A Cramér Distance perspective on Quantile Regression based Distributional Reinforcement Learning",
      "venue": "International Conference on Artificial Intelligence and Statistics",
      "year": 2021,
      "referenceCount": 30,
      "citationCount": 7,
      "authors": [
        {
          "authorId": "40961545",
          "name": "Alix Lhéritier"
        },
        {
          "authorId": "122981950",
          "name": "Nicolas Bondoux"
        }
      ]
    },
    {
      "paperId": "29882eb4f73055cae5cb703beefff64b032471e6",
      "externalIds": {
        "ArXiv": "2301.08915",
        "DBLP": "conf/iclr/ZhangYMZY23",
        "DOI": "10.48550/arXiv.2301.08915",
        "CorpusId": 256105154
      },
      "url": "https://www.semanticscholar.org/paper/29882eb4f73055cae5cb703beefff64b032471e6",
      "title": "Improving Deep Regression with Ordinal Entropy",
      "venue": "International Conference on Learning Representations",
      "year": 2023,
      "referenceCount": 31,
      "citationCount": 60,
      "authors": [
        {
          "authorId": null,
          "name": "Shihao Zhang"
        },
        {
          "authorId": "120378243",
          "name": "Linlin Yang"
        },
        {
          "authorId": "90805657",
          "name": "Michael Mi"
        },
        {
          "authorId": "1753669202",
          "name": "Xiaoxu Zheng"
        },
        {
          "authorId": "79393598",
          "name": "A. Yao"
        }
      ]
    },
    {
      "paperId": "8fa167d0db69e90b376b608acf534a640ff3d870",
      "externalIds": {
        "DBLP": "journals/corr/abs-2110-00535",
        "CorpusId": 238253409
      },
      "url": "https://www.semanticscholar.org/paper/8fa167d0db69e90b376b608acf534a640ff3d870",
      "title": "A Cramér Distance perspective on Non-crossing Quantile Regression in Distributional Reinforcement Learning",
      "venue": "arXiv.org",
      "year": 2021,
      "referenceCount": 30,
      "citationCount": 1,
      "authors": [
        {
          "authorId": "40961545",
          "name": "Alix Lhéritier"
        },
        {
          "authorId": "122981950",
          "name": "Nicolas Bondoux"
        }
      ]
    },
    {
      "paperId": "0aaae33bbbeb2659f66e0ef797312ef88ac43c25",
      "externalIds": {
        "ArXiv": "2407.01623",
        "DOI": "10.1016/j.mlwa.2024.100615",
        "CorpusId": 270878703
      },
      "url": "https://www.semanticscholar.org/paper/0aaae33bbbeb2659f66e0ef797312ef88ac43c25",
      "title": "Combinations of distributional regression algorithms with application in uncertainty estimation of corrected satellite precipitation products",
      "venue": "Machine Learning with Applications",
      "year": 2024,
      "referenceCount": 74,
      "citationCount": 5,
      "authors": [
        {
          "authorId": "40529406",
          "name": "Georgia A. Papacharalampous"
        },
        {
          "authorId": "2132005050",
          "name": "Hristos Tyralis"
        },
        {
          "authorId": "120205775",
          "name": "N. Doulamis"
        },
        {
          "authorId": "2237786332",
          "name": "Anastasios Doulamis"
        }
      ]
    }
  ]
}