{
  "total": 14310,
  "offset": 0,
  "next": 10,
  "data": [
    {
      "paperId": "8d6ed8b6d49097660408179eb20362c5f55d638c",
      "externalIds": {
        "DBLP": "conf/icml/WehrmannCB18",
        "MAG": "2803270043",
        "CorpusId": 51881472
      },
      "url": "https://www.semanticscholar.org/paper/8d6ed8b6d49097660408179eb20362c5f55d638c",
      "title": "Hierarchical Multi-Label Classification Networks",
      "venue": "International Conference on Machine Learning",
      "year": 2018,
      "referenceCount": 36,
      "citationCount": 317,
      "authors": [
        {
          "authorId": "8599825",
          "name": "Jonatas Wehrmann"
        },
        {
          "authorId": "34973658",
          "name": "R. Cerri"
        },
        {
          "authorId": "143914916",
          "name": "Rodrigo C. Barros"
        }
      ]
    },
    {
      "paperId": "eedd6bb9cc3c0ea77acc61cc5cb945ad46d0c167",
      "externalIds": {
        "MAG": "3104057403",
        "DBLP": "conf/nips/GiunchigliaL20",
        "ArXiv": "2010.10151",
        "CorpusId": 224803614
      },
      "url": "https://www.semanticscholar.org/paper/eedd6bb9cc3c0ea77acc61cc5cb945ad46d0c167",
      "title": "Coherent Hierarchical Multi-Label Classification Networks",
      "venue": "Neural Information Processing Systems",
      "year": 2020,
      "referenceCount": 34,
      "citationCount": 127,
      "authors": [
        {
          "authorId": "31847520",
          "name": "Eleonora Giunchiglia"
        },
        {
          "authorId": "1690572",
          "name": "Thomas Lukasiewicz"
        }
      ]
    },
    {
      "paperId": "859ae4bc454ddc1b5c2b7cb0764a051408b6581e",
      "externalIds": {
        "PubMedCentral": "12144110",
        "DOI": "10.1038/s41598-025-05076-z",
        "CorpusId": 279164741,
        "PubMed": "40481146"
      },
      "url": "https://www.semanticscholar.org/paper/859ae4bc454ddc1b5c2b7cb0764a051408b6581e",
      "title": "Machine learning of automatic hierarchical multi-label classification method for identifying metal failure mechanisms",
      "venue": "Scientific Reports",
      "year": 2025,
      "referenceCount": 43,
      "citationCount": 1,
      "authors": [
        {
          "authorId": "2316927454",
          "name": "Ruitong Han"
        },
        {
          "authorId": "2316956629",
          "name": "Chang-Bo Liu"
        },
        {
          "authorId": "2253847025",
          "name": "Wanting Sun"
        },
        {
          "authorId": "2289600834",
          "name": "Shuai Yu"
        },
        {
          "authorId": "2317358424",
          "name": "Haoran Zheng"
        },
        {
          "authorId": "2318939595",
          "name": "Lin Deng"
        }
      ]
    },
    {
      "paperId": "7085ddb7969d9a8748fa49243411b8da7e25e7b6",
      "externalIds": {
        "DBLP": "conf/ijcnn/GaoZS25",
        "DOI": "10.1109/IJCNN64981.2025.11228195",
        "CorpusId": 283014504
      },
      "url": "https://www.semanticscholar.org/paper/7085ddb7969d9a8748fa49243411b8da7e25e7b6",
      "title": "HiGATA: Hierarchy-aware Graph Attention Networks Enhanced by Topological Analysis for Hierarchical Multi-Label Text Classification",
      "venue": "IEEE International Joint Conference on Neural Network",
      "year": 2025,
      "referenceCount": 38,
      "citationCount": 0,
      "authors": [
        {
          "authorId": "2392461626",
          "name": "Yali Gao"
        },
        {
          "authorId": "2325125455",
          "name": "Xinhao Zheng"
        },
        {
          "authorId": "2393084671",
          "name": "Haowen Sun"
        }
      ]
    },
    {
      "paperId": "7e436d77e78b1ecbe271b546a5b1f434cca155f4",
      "externalIds": {
        "DBLP": "conf/aaai/YuanLZZZWX24",
        "DOI": "10.1609/aaai.v38i15.29601",
        "CorpusId": 268709084
      },
      "url": "https://www.semanticscholar.org/paper/7e436d77e78b1ecbe271b546a5b1f434cca155f4",
      "title": "Self-Paced Unified Representation Learning for Hierarchical Multi-Label Classification",
      "venue": "AAAI Conference on Artificial Intelligence",
      "year": 2024,
      "referenceCount": 33,
      "citationCount": 3,
      "authors": [
        {
          "authorId": "1830453178",
          "name": "Zixuan Yuan"
        },
        {
          "authorId": "2247930299",
          "name": "Hao Liu"
        },
        {
          "authorId": "2272162594",
          "name": "Haoyi Zhou"
        },
        {
          "authorId": "2271806932",
          "name": "Denghui Zhang"
        },
        {
          "authorId": "2383144924",
          "name": "Xiao Zhang"
        },
        {
          "authorId": "2317037003",
          "name": "Hao Wang"
        },
        {
          "authorId": "2293483399",
          "name": "Hui Xiong"
        }
      ]
    },
    {
      "paperId": "58203813610b866483ffc2bd1181f616ae38107c",
      "externalIds": {
        "MAG": "2949448715",
        "ACL": "P19-2045",
        "DBLP": "conf/acl/AlyRB19",
        "DOI": "10.18653/v1/P19-2045",
        "CorpusId": 196196857
      },
      "url": "https://www.semanticscholar.org/paper/58203813610b866483ffc2bd1181f616ae38107c",
      "title": "Hierarchical Multi-label Classification of Text with Capsule Networks",
      "venue": "Annual Meeting of the Association for Computational Linguistics",
      "year": 2019,
      "referenceCount": 25,
      "citationCount": 95,
      "authors": [
        {
          "authorId": "2384334335",
          "name": "Rami Aly"
        },
        {
          "authorId": "2194679",
          "name": "Steffen Remus"
        },
        {
          "authorId": "31565315",
          "name": "Chris Biemann"
        }
      ]
    },
    {
      "paperId": "a0971a49eebd3e81d02bc94b053acaa0e9535502",
      "externalIds": {
        "DBLP": "journals/corr/abs-2203-12569",
        "ArXiv": "2203.12569",
        "DOI": "10.1007/s41109-022-00445-3",
        "CorpusId": 246704337
      },
      "url": "https://www.semanticscholar.org/paper/a0971a49eebd3e81d02bc94b053acaa0e9535502",
      "title": "A top-down supervised learning approach to hierarchical multi-label classification in networks",
      "venue": "Applied Network Science",
      "year": 2022,
      "referenceCount": 38,
      "citationCount": 17,
      "authors": [
        {
          "authorId": "2125685674",
          "name": "Miguel Romero"
        },
        {
          "authorId": "3329519",
          "name": "J. Finke"
        },
        {
          "authorId": "145453781",
          "name": "Camilo Rocha"
        }
      ]
    },
    {
      "paperId": "f085fce370441cfbb046035c803f77b3bce4817b",
      "externalIds": {
        "DOI": "10.1109/NNICE61279.2024.10498462",
        "CorpusId": 269309762
      },
      "url": "https://www.semanticscholar.org/paper/f085fce370441cfbb046035c803f77b3bce4817b",
      "title": "Hierarchical Multi-label Classification Method for Maritime Distress Safety Information",
      "venue": "2024 4th International Conference on Neural Networks, Information and Communication (NNICE)",
      "year": 2024,
      "referenceCount": 13,
      "citationCount": 0,
      "authors": [
        {
          "authorId": "2194616952",
          "name": "Minxing Zhu"
        },
        {
          "authorId": "2297895966",
          "name": "Yuan Gao"
        },
        {
          "authorId": "2338359895",
          "name": "Lianfeng Hu"
        },
        {
          "authorId": "2292351704",
          "name": "Jiwei Hu"
        }
      ]
    },
    {
      "paperId": "82b308d97abb401d8aaba1c6e4e335e172d12fe3",
      "externalIds": {
        "DBLP": "journals/access/LanMOH23",
        "DOI": "10.1109/ACCESS.2023.3265728",
        "CorpusId": 258070177
      },
      "url": "https://www.semanticscholar.org/paper/82b308d97abb401d8aaba1c6e4e335e172d12fe3",
      "title": "Hierarchical Multi-Label Attribute Classification With Graph Convolutional Networks on Anime Illustration",
      "venue": "IEEE Access",
      "year": 2023,
      "referenceCount": 36,
      "citationCount": 4,
      "authors": [
        {
          "authorId": "2142676215",
          "name": "Ziwen Lan"
        },
        {
          "authorId": "47761580",
          "name": "Keisuke Maeda"
        },
        {
          "authorId": "144392699",
          "name": "Takahiro Ogawa"
        },
        {
          "authorId": "144029207",
          "name": "M. Haseyama"
        }
      ]
    },
    {
      "paperId": "e76472632a5ed7219d33f551fd07a5669d0f0f50",
      "externalIds": {
        "MAG": "2621169022",
        "DBLP": "conf/sac/WehrmannBDC17",
        "DOI": "10.1145/3019612.3019664",
        "CorpusId": 29623632
      },
      "url": "https://www.semanticscholar.org/paper/e76472632a5ed7219d33f551fd07a5669d0f0f50",
      "title": "Hierarchical multi-label classification with chained neural networks",
      "venue": "ACM Symposium on Applied Computing",
      "year": 2017,
      "referenceCount": 19,
      "citationCount": 49,
      "authors": [
        {
          "authorId": "8599825",
          "name": "Jonatas Wehrmann"
        },
        {
          "authorId": "143914916",
          "name": "Rodrigo C. Barros"
        },
        {
          "authorId": "48969971",
          "name": "S. N. D. Dôres"
        },
        {
          "authorId": "34973658",
          "name": "R. Cerri"
        }
      ]
    }
  ]
}