{
  "total": 18,
  "offset": 0,
  "next": 10,
  "data": [
    {
      "paperId": "770a4d136d77b96ec4189477929eea92a6f74382",
      "externalIds": {
        "DBLP": "conf/icml/SunTLZ18",
        "MAG": "2887030119",
        "CorpusId": 51874362
      },
      "url": "https://www.semanticscholar.org/paper/770a4d136d77b96ec4189477929eea92a6f74382",
      "title": "Graphical Nonconvex Optimization via an Adaptive Convex Relaxation",
      "venue": "International Conference on Machine Learning",
      "year": 2018,
      "referenceCount": 22,
      "citationCount": 16,
      "authors": [
        {
          "authorId": "145268319",
          "name": "Qiang Sun"
        },
        {
          "authorId": "2397447",
          "name": "Kean Ming Tan"
        },
        {
          "authorId": "49957601",
          "name": "Han Liu"
        },
        {
          "authorId": "2146324552",
          "name": "Tong Zhang"
        }
      ]
    },
    {
      "paperId": "d08e0077038050a85e53c5645c295e09f1ee12f2",
      "externalIds": {
        "DOI": "10.2514/1.g008688",
        "CorpusId": 278112903
      },
      "url": "https://www.semanticscholar.org/paper/d08e0077038050a85e53c5645c295e09f1ee12f2",
      "title": "Unified Trajectory Optimization Method for Multipass Aeroassisted Maneuvers via Convex Optimization",
      "venue": "Journal of Guidance Control and Dynamics",
      "year": 2025,
      "referenceCount": 22,
      "citationCount": 1,
      "authors": [
        {
          "authorId": "2332210467",
          "name": "Xiangdong Feng"
        },
        {
          "authorId": "2310740165",
          "name": "Dong Qiao"
        },
        {
          "authorId": "2112505099",
          "name": "Hongwei Han"
        },
        {
          "authorId": "2280257648",
          "name": "Jilin Chen"
        }
      ]
    },
    {
      "paperId": "e2d54746ec8359804c27d1e89dfb324d00e0aa95",
      "externalIds": {
        "DBLP": "journals/corr/abs-2505-03899",
        "ArXiv": "2505.03899",
        "DOI": "10.48550/arXiv.2505.03899",
        "CorpusId": 278367803
      },
      "url": "https://www.semanticscholar.org/paper/e2d54746ec8359804c27d1e89dfb324d00e0aa95",
      "title": "A Graphical Global Optimization Framework for Parameter Estimation of Statistical Models with Nonconvex Regularization Functions",
      "venue": "International Conference on Artificial Intelligence and Statistics",
      "year": 2025,
      "referenceCount": 48,
      "citationCount": 2,
      "authors": [
        {
          "authorId": "26905163",
          "name": "D. Davarnia"
        },
        {
          "authorId": "2323514886",
          "name": "M. Kiaghadi"
        }
      ]
    },
    {
      "paperId": "f24716424fdcf82486f66042295838d5c5fef0ae",
      "externalIds": {
        "DBLP": "journals/corr/XuMG17",
        "ArXiv": "1702.08651",
        "MAG": "2594924640",
        "CorpusId": 3331779
      },
      "url": "https://www.semanticscholar.org/paper/f24716424fdcf82486f66042295838d5c5fef0ae",
      "title": "Speeding Up Latent Variable Gaussian Graphical Model Estimation via Nonconvex Optimization",
      "venue": "Neural Information Processing Systems",
      "year": 2017,
      "referenceCount": 46,
      "citationCount": 25,
      "authors": [
        {
          "authorId": "47568847",
          "name": "Pan Xu"
        },
        {
          "authorId": "2146392673",
          "name": "Jian Ma"
        },
        {
          "authorId": "9937103",
          "name": "Quanquan Gu"
        }
      ]
    },
    {
      "paperId": "79a92606f751a86a46dcc956eb7beeae265b9312",
      "externalIds": {
        "DBLP": "journals/jgo/NagarajanLWBS19",
        "MAG": "2963990227",
        "ArXiv": "1707.02514",
        "DOI": "10.1007/s10898-018-00734-1",
        "CorpusId": 38173545
      },
      "url": "https://www.semanticscholar.org/paper/79a92606f751a86a46dcc956eb7beeae265b9312",
      "title": "An adaptive, multivariate partitioning algorithm for global optimization of nonconvex programs",
      "venue": "Journal of Global Optimization",
      "year": 2017,
      "referenceCount": 65,
      "citationCount": 86,
      "authors": [
        {
          "authorId": "2991860",
          "name": "Harsha Nagarajan"
        },
        {
          "authorId": "3422592",
          "name": "Mowen Lu"
        },
        {
          "authorId": "22204207",
          "name": "Site Wang"
        },
        {
          "authorId": "145038580",
          "name": "R. Bent"
        },
        {
          "authorId": "144126548",
          "name": "K. Sundar"
        }
      ]
    },
    {
      "paperId": "2cacf190a3d1a5ef1693b03cbc5cc84f96d52006",
      "externalIds": {
        "ArXiv": "1802.08397",
        "MAG": "2810541051",
        "DBLP": "journals/spm/ChenC18",
        "DOI": "10.1109/MSP.2018.2821706",
        "CorpusId": 3637066
      },
      "url": "https://www.semanticscholar.org/paper/2cacf190a3d1a5ef1693b03cbc5cc84f96d52006",
      "title": "Harnessing Structures in Big Data via Guaranteed Low-Rank Matrix Estimation: Recent Theory and Fast Algorithms via Convex and Nonconvex Optimization",
      "venue": "IEEE Signal Processing Magazine",
      "year": 2018,
      "referenceCount": 97,
      "citationCount": 180,
      "authors": [
        {
          "authorId": "51310474",
          "name": "Yudong Chen"
        },
        {
          "authorId": "1784472",
          "name": "Yuejie Chi"
        }
      ]
    },
    {
      "paperId": "68ee03f5c4420a46e5437287a4480f1457c562b0",
      "externalIds": {
        "MAG": "2736398265",
        "DBLP": "conf/icic/LiBLZJY17",
        "DOI": "10.1007/978-3-319-63315-2_67",
        "CorpusId": 5105801
      },
      "url": "https://www.semanticscholar.org/paper/68ee03f5c4420a46e5437287a4480f1457c562b0",
      "title": "Local Sensitive Low Rank Matrix Approximation via Nonconvex Optimization",
      "venue": "International Conference on Intelligent Computing",
      "year": 2017,
      "referenceCount": 27,
      "citationCount": 0,
      "authors": [
        {
          "authorId": "19285062",
          "name": "Chong-Ya Li"
        },
        {
          "authorId": "2739754",
          "name": "Wenzheng Bao"
        },
        {
          "authorId": "2109679615",
          "name": "Zhi-peng Li"
        },
        {
          "authorId": "2108399077",
          "name": "Youhua Zhang"
        },
        {
          "authorId": "47240694",
          "name": "Yong-Li Jiang"
        },
        {
          "authorId": "48688656",
          "name": "Chang-an Yuan"
        }
      ]
    },
    {
      "paperId": "e83c82154554d2206076bea96cd2e417d65ff31f",
      "externalIds": {
        "MAG": "562372631",
        "DBLP": "books/cu/10/PE2010",
        "DOI": "10.1017/CBO9780511804458",
        "CorpusId": 218632992
      },
      "url": "https://www.semanticscholar.org/paper/e83c82154554d2206076bea96cd2e417d65ff31f",
      "title": "Convex Optimization in Signal Processing and Communications",
      "venue": "",
      "year": 2009,
      "referenceCount": 230,
      "citationCount": 608,
      "authors": [
        {
          "authorId": "2264325637",
          "name": "D. P. Palomar"
        },
        {
          "authorId": "152959240",
          "name": "Y. Eldar"
        }
      ]
    },
    {
      "paperId": "8402194eafb3fe7140eac6cefd0f866255ba6104",
      "externalIds": {
        "DOI": "10.1016/j.ijrobp.2023.06.306",
        "CorpusId": 263283703,
        "PubMed": "37784486"
      },
      "url": "https://www.semanticscholar.org/paper/8402194eafb3fe7140eac6cefd0f866255ba6104",
      "title": "An Effective Dose Rate Optimization Algorithm for Efficient Conventional-Dose-Rate Proton Therapy and Ultra-High-Dose-Rate FLASH Proton Therapy.",
      "venue": "International Journal of Radiation Oncology, Biology, Physics",
      "year": 2023,
      "referenceCount": 0,
      "citationCount": 0,
      "authors": [
        {
          "authorId": "2253844765",
          "name": "Y. Zhu"
        },
        {
          "authorId": "2383052796",
          "name": "X. Zhang"
        },
        {
          "authorId": "2136110201",
          "name": "Y. Lin"
        },
        {
          "authorId": "2249282438",
          "name": "C. Lominska"
        },
        {
          "authorId": "2215945205",
          "name": "H. Gao"
        }
      ]
    },
    {
      "paperId": "f817c5741acd7d4a3bed98de3912db5d1bbe5f95",
      "externalIds": {
        "MAG": "3033735471",
        "DBLP": "journals/icl/Chen0Z20",
        "DOI": "10.1109/LCOMM.2020.2999718",
        "CorpusId": 222296872
      },
      "url": "https://www.semanticscholar.org/paper/f817c5741acd7d4a3bed98de3912db5d1bbe5f95",
      "title": "High-Mobility Multi-Modal Sensing for IoT Network via MIMO AirComp: A Mixed-Timescale Optimization Approach",
      "venue": "IEEE Communications Letters",
      "year": 2020,
      "referenceCount": 22,
      "citationCount": 8,
      "authors": [
        {
          "authorId": "2109188963",
          "name": "Xihan Chen"
        },
        {
          "authorId": "144806512",
          "name": "An Liu"
        },
        {
          "authorId": "153072794",
          "name": "Min-Jian Zhao"
        }
      ]
    }
  ]
}