{
  "total": 835,
  "offset": 0,
  "next": 10,
  "data": [
    {
      "paperId": "489b5ace5c119e82d9f8270204883c5863d581ad",
      "externalIds": {
        "DBLP": "conf/icml/ChenQ16",
        "MAG": "2414134241",
        "CorpusId": 15904055
      },
      "url": "https://www.semanticscholar.org/paper/489b5ace5c119e82d9f8270204883c5863d581ad",
      "title": "Clustering High Dimensional Categorical Data via Topographical Features",
      "venue": "International Conference on Machine Learning",
      "year": 2016,
      "referenceCount": 39,
      "citationCount": 13,
      "authors": [
        {
          "authorId": "2151049906",
          "name": "Chao Chen"
        },
        {
          "authorId": "1704531",
          "name": "Novi Quadrianto"
        }
      ]
    },
    {
      "paperId": "0f21df0d420716e1dd49dad4017c2dfd5a867bd1",
      "externalIds": {
        "DOI": "10.3390/math13152374",
        "CorpusId": 280458755
      },
      "url": "https://www.semanticscholar.org/paper/0f21df0d420716e1dd49dad4017c2dfd5a867bd1",
      "title": "A Statistical Framework for Modeling Behavioral Engagement via Topic and Psycholinguistic Features: Evidence from High-Dimensional Text Data",
      "venue": "Mathematics",
      "year": 2025,
      "referenceCount": 71,
      "citationCount": 0,
      "authors": [
        {
          "authorId": "2159506434",
          "name": "Dan Li"
        },
        {
          "authorId": "2304326710",
          "name": "Yi Zhang"
        }
      ]
    },
    {
      "paperId": "89162cb9e3ae7febda0c10a611b31a4629c86b81",
      "externalIds": {
        "PubMedCentral": "12220089",
        "DBLP": "journals/bmcbi/WenSLWL25",
        "DOI": "10.1186/s12859-025-06193-2",
        "CorpusId": 279798964,
        "PubMed": "40597613"
      },
      "url": "https://www.semanticscholar.org/paper/89162cb9e3ae7febda0c10a611b31a4629c86b81",
      "title": "Automated sparse feature selection in high-dimensional proteomics data via 1-bit compressed sensing and K-Medoids clustering",
      "venue": "BMC Bioinformatics",
      "year": 2025,
      "referenceCount": 26,
      "citationCount": 0,
      "authors": [
        {
          "authorId": "2308710551",
          "name": "FuDong Wen"
        },
        {
          "authorId": "2309077298",
          "name": "Yue Su"
        },
        {
          "authorId": "2263061859",
          "name": "Dan Liu"
        },
        {
          "authorId": "2308723266",
          "name": "YuPeng Wang"
        },
        {
          "authorId": "1875574",
          "name": "Meina Liu"
        }
      ]
    },
    {
      "paperId": "9f82097997c69a3e182d871e2a9db7ce37840001",
      "externalIds": {
        "MAG": "2549524411",
        "DOI": "10.1007/978-981-10-1540-3_15",
        "CorpusId": 126257920
      },
      "url": "https://www.semanticscholar.org/paper/9f82097997c69a3e182d871e2a9db7ce37840001",
      "title": "A New Stratified Immune Based Approach for Clustering High Dimensional Categorical Data",
      "venue": "",
      "year": 2017,
      "referenceCount": 10,
      "citationCount": 0,
      "authors": [
        {
          "authorId": "34641289",
          "name": "G. S. Narayana"
        },
        {
          "authorId": "9183023",
          "name": "D. Vasumathi"
        },
        {
          "authorId": "120073075",
          "name": "K. Prasanna"
        }
      ]
    },
    {
      "paperId": "46b342f370a1a1b91187ad87667bd3ec6f40e45b",
      "externalIds": {
        "ArXiv": "2210.15801",
        "DOI": "10.1111/biom.13665",
        "CorpusId": 247713716,
        "PubMed": "35338489"
      },
      "url": "https://www.semanticscholar.org/paper/46b342f370a1a1b91187ad87667bd3ec6f40e45b",
      "title": "Clustering high‐dimensional data via feature selection",
      "venue": "Biometrics",
      "year": 2022,
      "referenceCount": 56,
      "citationCount": 24,
      "authors": [
        {
          "authorId": "2115346248",
          "name": "Tianqi Liu"
        },
        {
          "authorId": "2411432546",
          "name": "Yu Lu"
        },
        {
          "authorId": "8658975",
          "name": "B. Zhu"
        },
        {
          "authorId": "46431059",
          "name": "Hongyu Zhao"
        }
      ]
    },
    {
      "paperId": "261da6495abc0e116f779a051c78f462b3442131",
      "externalIds": {
        "ArXiv": "2311.14655",
        "DOI": "10.1002/sim.10151",
        "CorpusId": 265445552,
        "PubMed": "38885953"
      },
      "url": "https://www.semanticscholar.org/paper/261da6495abc0e116f779a051c78f462b3442131",
      "title": "A sparse factor model for clustering high‐dimensional longitudinal data",
      "venue": "Statistics in Medicine",
      "year": 2023,
      "referenceCount": 56,
      "citationCount": 4,
      "authors": [
        {
          "authorId": "2268378093",
          "name": "Zihang Lu"
        },
        {
          "authorId": "82640866",
          "name": "N. K. Chandra"
        }
      ]
    },
    {
      "paperId": "2da669851e0e184a4a071318cfc91583609df393",
      "externalIds": {
        "DBLP": "phd/es/Pereira24",
        "DOI": "10.5821/dissertation-2117-405576",
        "CorpusId": 268761242
      },
      "url": "https://www.semanticscholar.org/paper/2da669851e0e184a4a071318cfc91583609df393",
      "title": "Clustering large dimensional data via second order statistics: applications in wireless communications",
      "venue": "",
      "year": 2024,
      "referenceCount": 0,
      "citationCount": 0,
      "authors": [
        {
          "authorId": "2350454390",
          "name": "Roberto Pereira"
        }
      ]
    },
    {
      "paperId": "6e4726eabca59c9fec247404124b412b092b996c",
      "externalIds": {
        "DBLP": "conf/dsit/JiaW22",
        "DOI": "10.1109/DSIT55514.2022.9943819",
        "CorpusId": 253630363
      },
      "url": "https://www.semanticscholar.org/paper/6e4726eabca59c9fec247404124b412b092b996c",
      "title": "Unsupervised Feature Selection via Adaptive Feature Clustering for High-dimensional Data",
      "venue": "International Conference on Data Science and Information Technology",
      "year": 2022,
      "referenceCount": 18,
      "citationCount": 3,
      "authors": [
        {
          "authorId": "143951596",
          "name": "Hong Jia"
        },
        {
          "authorId": "2191239854",
          "name": "Yubin Weng"
        }
      ]
    },
    {
      "paperId": "729bf54fab6acdcd729dad6caaa9cafbfbf44393",
      "externalIds": {
        "PubMedCentral": "13036275",
        "DOI": "10.1177/09622802251406584",
        "CorpusId": 284932837,
        "PubMed": "41564216"
      },
      "url": "https://www.semanticscholar.org/paper/729bf54fab6acdcd729dad6caaa9cafbfbf44393",
      "title": "A fast integrative clustering and feature selection approach for high-dimensional multiview data",
      "venue": "Statistical Methods in Medical Research",
      "year": 2026,
      "referenceCount": 62,
      "citationCount": 0,
      "authors": [
        {
          "authorId": "2335560540",
          "name": "Abdalkarim Alnajjar"
        },
        {
          "authorId": "2279548067",
          "name": "Helen Bian"
        },
        {
          "authorId": "2268378093",
          "name": "Zihang Lu"
        }
      ]
    },
    {
      "paperId": "a1bdea63d1eab7d61d9ef9cbfa06bb26e1684192",
      "externalIds": {
        "PubMedCentral": "12340809",
        "DOI": "10.1101/2025.08.05.668514",
        "CorpusId": 280637147,
        "PubMed": "40799531"
      },
      "url": "https://www.semanticscholar.org/paper/a1bdea63d1eab7d61d9ef9cbfa06bb26e1684192",
      "title": "TPClust: Temporal Profile-Guided Subtyping Using High-Dimensional Omics Data",
      "venue": "bioRxiv",
      "year": 2025,
      "referenceCount": 1,
      "citationCount": 0,
      "authors": [
        {
          "authorId": "2376091141",
          "name": "Boyi Hu"
        },
        {
          "authorId": "2276216177",
          "name": "Philip L. De Jager"
        },
        {
          "authorId": "2375023359",
          "name": "David A. Bennett"
        },
        {
          "authorId": "3549190",
          "name": "B. Vardarajan"
        },
        {
          "authorId": "2375957217",
          "name": "Yuanjia Wang"
        },
        {
          "authorId": "2326447054",
          "name": "Annie J. Lee"
        }
      ]
    }
  ]
}