{
  "total": 102,
  "offset": 0,
  "next": 10,
  "data": [
    {
      "paperId": "6eb5c71aeaf2588a965ad48b48ae827988c4a061",
      "externalIds": {
        "DBLP": "journals/corr/BeygelzimerKL15",
        "ArXiv": "1502.02651",
        "MAG": "1876956220",
        "CorpusId": 6618074
      },
      "url": "https://www.semanticscholar.org/paper/6eb5c71aeaf2588a965ad48b48ae827988c4a061",
      "title": "Optimal and Adaptive Algorithms for Online Boosting",
      "venue": "International Conference on Machine Learning",
      "year": 2015,
      "referenceCount": 36,
      "citationCount": 82,
      "authors": [
        {
          "authorId": "2624289",
          "name": "A. Beygelzimer"
        },
        {
          "authorId": "144055676",
          "name": "Satyen Kale"
        },
        {
          "authorId": "2131127",
          "name": "Haipeng Luo"
        }
      ]
    },
    {
      "paperId": "88970d1df29bd5949c3226e074cc52a741e1afeb",
      "externalIds": {
        "CorpusId": 14359633
      },
      "url": "https://www.semanticscholar.org/paper/88970d1df29bd5949c3226e074cc52a741e1afeb",
      "title": "Optimal and Adaptive Algorithms for Online Boosting Supplementary Material",
      "venue": "",
      "year": 2015,
      "referenceCount": 2,
      "citationCount": 1,
      "authors": []
    },
    {
      "paperId": "bf3359483905e0e502dcaa091e5076752acb8e47",
      "externalIds": {
        "DBLP": "conf/alt/LiautaudGW25",
        "ArXiv": "2410.03363",
        "DOI": "10.48550/arXiv.2410.03363",
        "CorpusId": 276961351
      },
      "url": "https://www.semanticscholar.org/paper/bf3359483905e0e502dcaa091e5076752acb8e47",
      "title": "Minimax-optimal and Locally-adaptive Online Nonparametric Regression",
      "venue": "International Conference on Algorithmic Learning Theory",
      "year": 2024,
      "referenceCount": 30,
      "citationCount": 1,
      "authors": [
        {
          "authorId": "2311740784",
          "name": "Paul Liautaud"
        },
        {
          "authorId": "2311737079",
          "name": "Pierre Gaillard"
        },
        {
          "authorId": "3161869",
          "name": "Olivier Wintenberger"
        }
      ]
    },
    {
      "paperId": "02ef87d2cc29f65139975056a69832fdd27ef535",
      "externalIds": {
        "MAG": "2766377147",
        "DBLP": "journals/corr/abs-1710-08079",
        "ArXiv": "1710.08079",
        "CorpusId": 3539650
      },
      "url": "https://www.semanticscholar.org/paper/02ef87d2cc29f65139975056a69832fdd27ef535",
      "title": "Online Boosting Algorithms for Multi-label Ranking",
      "venue": "International Conference on Artificial Intelligence and Statistics",
      "year": 2017,
      "referenceCount": 22,
      "citationCount": 22,
      "authors": [
        {
          "authorId": "5088558",
          "name": "Young Hun Jung"
        },
        {
          "authorId": "3064914",
          "name": "Ambuj Tewari"
        }
      ]
    },
    {
      "paperId": "0eb308aebf6dbbf7b3ad070ba4ddefa14920a1c3",
      "externalIds": {
        "MAG": "2952363025",
        "DBLP": "conf/nips/JungGT17",
        "ArXiv": "1702.07305",
        "CorpusId": 3538058
      },
      "url": "https://www.semanticscholar.org/paper/0eb308aebf6dbbf7b3ad070ba4ddefa14920a1c3",
      "title": "Online multiclass boosting",
      "venue": "Neural Information Processing Systems",
      "year": 2017,
      "referenceCount": 29,
      "citationCount": 30,
      "authors": [
        {
          "authorId": "5088558",
          "name": "Young Hun Jung"
        },
        {
          "authorId": "153633441",
          "name": "Jack Goetz"
        },
        {
          "authorId": "3064914",
          "name": "Ambuj Tewari"
        }
      ]
    },
    {
      "paperId": "4c6b4c6fd7d417e93d107e01728429a2ee5ded77",
      "externalIds": {
        "DOI": "10.26555/jiteki.v9i4.27014",
        "CorpusId": 276058007
      },
      "url": "https://www.semanticscholar.org/paper/4c6b4c6fd7d417e93d107e01728429a2ee5ded77",
      "title": "A Hybrid Genetic Algorithm-Random Forest Regression Method for Optimum Driver Selection in Online Food Delivery",
      "venue": "Jurnal Ilmiah Teknik Elektro Komputer dan Informatika",
      "year": 2023,
      "referenceCount": 0,
      "citationCount": 9,
      "authors": [
        {
          "authorId": "31355382",
          "name": "A. G. Putrada"
        },
        {
          "authorId": "2196860295",
          "name": "Nur Alamsyah"
        },
        {
          "authorId": "2188495535",
          "name": "Ikke Dian Oktaviani"
        },
        {
          "authorId": "2196330069",
          "name": "Mohamad Nurkamal Fauzan"
        }
      ]
    },
    {
      "paperId": "5f03ccb92960b7c7aca47ab66ab56633d8db32ea",
      "externalIds": {
        "DOI": "10.14710/j.gauss.14.2.608-618",
        "CorpusId": 284570607
      },
      "url": "https://www.semanticscholar.org/paper/5f03ccb92960b7c7aca47ab66ab56633d8db32ea",
      "title": "PENERAPAN METODE ADAPTIVE BOOSTING (ADABOOST) PADA DECISION TREE UNTUK ANALISIS SENTIMEN PELANGGAN MAXIM",
      "venue": "Jurnal  Gaussian",
      "year": 2025,
      "referenceCount": 10,
      "citationCount": 0,
      "authors": [
        {
          "authorId": "2045462542",
          "name": "Ernita Triana"
        },
        {
          "authorId": "66312112",
          "name": "Mustafid Mustafid"
        },
        {
          "authorId": "68987177",
          "name": "Rukun Santoso"
        }
      ]
    },
    {
      "paperId": "0c4b665d119fd65f4d852e375cb09bca95951d73",
      "externalIds": {
        "DOI": "10.3390/fractalfract9110704",
        "CorpusId": 282778943
      },
      "url": "https://www.semanticscholar.org/paper/0c4b665d119fd65f4d852e375cb09bca95951d73",
      "title": "A Novel Red-Billed Blue Magpie Optimizer Tuned Adaptive Fractional-Order for Hybrid PV-TEG Systems Green Energy Harvesting-Based MPPT Algorithms",
      "venue": "Fractal and Fractional",
      "year": 2025,
      "referenceCount": 64,
      "citationCount": 3,
      "authors": [
        {
          "authorId": "2344771562",
          "name": "Al-Wesabi Ibrahim"
        },
        {
          "authorId": "2166183037",
          "name": "Abdullrahman A. Al-Shamma’a"
        },
        {
          "authorId": "2267161622",
          "name": "Jiazhu Xu"
        },
        {
          "authorId": "2267182141",
          "name": "Danhu Li"
        },
        {
          "authorId": "2161168183",
          "name": "H. M. Farh"
        },
        {
          "authorId": "2334755986",
          "name": "Khaled Alwesabi"
        }
      ]
    },
    {
      "paperId": "0312637e931c8125d897d2687bc8c9e8d767d4ce",
      "externalIds": {
        "DBLP": "phd/us/Luo16",
        "MAG": "2548190307",
        "CorpusId": 63774553
      },
      "url": "https://www.semanticscholar.org/paper/0312637e931c8125d897d2687bc8c9e8d767d4ce",
      "title": "Optimal and Adaptive Online Learning",
      "venue": "",
      "year": 2016,
      "referenceCount": 110,
      "citationCount": 0,
      "authors": [
        {
          "authorId": "2131127",
          "name": "Haipeng Luo"
        }
      ]
    },
    {
      "paperId": "f92a397e8927958416e87c4513bc62f969227413",
      "externalIds": {
        "DBLP": "conf/msn/KuhnleLT14",
        "MAG": "2033163697",
        "DOI": "10.1109/MSN.2014.24",
        "CorpusId": 16454757
      },
      "url": "https://www.semanticscholar.org/paper/f92a397e8927958416e87c4513bc62f969227413",
      "title": "Online Algorithms for Optimal Resource Management in Dynamic D2D Communications",
      "venue": "International Conference on Mobile Ad-hoc and Sensor Networks",
      "year": 2014,
      "referenceCount": 15,
      "citationCount": 8,
      "authors": [
        {
          "authorId": "2154609",
          "name": "Alan Kuhnle"
        },
        {
          "authorId": "50879544",
          "name": "Xiang Li"
        },
        {
          "authorId": "1698253",
          "name": "M. Thai"
        }
      ]
    }
  ]
}