{
  "total": 78155,
  "offset": 0,
  "next": 10,
  "data": [
    {
      "paperId": "6ef21c777cdfd4de7119e62d5430dadfa9272fad",
      "externalIds": {
        "DBLP": "journals/corr/BravermanFLSY17",
        "MAG": "2963597289",
        "ArXiv": "1706.03887",
        "CorpusId": 2783362
      },
      "url": "https://www.semanticscholar.org/paper/6ef21c777cdfd4de7119e62d5430dadfa9272fad",
      "title": "Clustering High Dimensional Dynamic Data Streams",
      "venue": "International Conference on Machine Learning",
      "year": 2017,
      "referenceCount": 29,
      "citationCount": 55,
      "authors": [
        {
          "authorId": "1808863",
          "name": "V. Braverman"
        },
        {
          "authorId": "3098847",
          "name": "Gereon Frahling"
        },
        {
          "authorId": "2054810583",
          "name": "Harry Lang"
        },
        {
          "authorId": "1701715",
          "name": "C. Sohler"
        },
        {
          "authorId": "40577530",
          "name": "Lin F. Yang"
        }
      ]
    },
    {
      "paperId": "f37b7519fa481dc3403ee074b13f0249b9322ddf",
      "externalIds": {
        "CorpusId": 260499146
      },
      "url": "https://www.semanticscholar.org/paper/f37b7519fa481dc3403ee074b13f0249b9322ddf",
      "title": "Clustering High Dimensional Dynamic Data Streams",
      "venue": "",
      "year": 2017,
      "referenceCount": 0,
      "citationCount": 0,
      "authors": []
    },
    {
      "paperId": "9b93f4508f26447a904051a8cfea0e091298ac46",
      "externalIds": {
        "DOI": "10.1109/SIU66497.2025.11112480",
        "CorpusId": 280664399
      },
      "url": "https://www.semanticscholar.org/paper/9b93f4508f26447a904051a8cfea0e091298ac46",
      "title": "CDBC: Continuous Distribution-based Clustering for High-Dimensional Data Streams",
      "venue": "Signal Processing and Communications Applications Conference",
      "year": 2025,
      "referenceCount": 45,
      "citationCount": 0,
      "authors": [
        {
          "authorId": "117481171",
          "name": "M. Fidan"
        }
      ]
    },
    {
      "paperId": "7f5333d7b8622cb738c95d135079676ae7aae536",
      "externalIds": {
        "MAG": "2965015324",
        "DBLP": "journals/access/FahyY19",
        "DOI": "10.1109/ACCESS.2019.2932308",
        "CorpusId": 201128232
      },
      "url": "https://www.semanticscholar.org/paper/7f5333d7b8622cb738c95d135079676ae7aae536",
      "title": "Dynamic Feature Selection for Clustering High Dimensional Data Streams",
      "venue": "IEEE Access",
      "year": 2019,
      "referenceCount": 50,
      "citationCount": 32,
      "authors": [
        {
          "authorId": "34490104",
          "name": "Conor Fahy"
        },
        {
          "authorId": "1769252",
          "name": "Shengxiang Yang"
        }
      ]
    },
    {
      "paperId": "c8a797cc02d28507584244176e1d0310a69ec2e7",
      "externalIds": {
        "MAG": "3110217891",
        "DBLP": "journals/tcyb/SuiLLJL22",
        "DOI": "10.1109/TCYB.2020.3023973",
        "CorpusId": 227165775,
        "PubMed": "33232249"
      },
      "url": "https://www.semanticscholar.org/paper/c8a797cc02d28507584244176e1d0310a69ec2e7",
      "title": "Dynamic Sparse Subspace Clustering for Evolving High-Dimensional Data Streams",
      "venue": "IEEE Transactions on Cybernetics",
      "year": 2020,
      "referenceCount": 75,
      "citationCount": 41,
      "authors": [
        {
          "authorId": "2446825",
          "name": "Jinping Sui"
        },
        {
          "authorId": "2109341376",
          "name": "Zhen Liu"
        },
        {
          "authorId": "2150978975",
          "name": "Li Liu"
        },
        {
          "authorId": "145438916",
          "name": "A. Jung"
        },
        {
          "authorId": null,
          "name": "Xiang Li"
        }
      ]
    },
    {
      "paperId": "c976d75cfd87a219b75fe9860bb3e67b3001b5e9",
      "externalIds": {
        "DOI": "10.1109/TIM.2025.3617399",
        "CorpusId": 281847069
      },
      "url": "https://www.semanticscholar.org/paper/c976d75cfd87a219b75fe9860bb3e67b3001b5e9",
      "title": "NADHS: Online Anomaly Detection for High-Dimensional Data Streams",
      "venue": "IEEE Transactions on Instrumentation and Measurement",
      "year": 2025,
      "referenceCount": 53,
      "citationCount": 1,
      "authors": [
        {
          "authorId": "2261150249",
          "name": "Q. Ma"
        },
        {
          "authorId": "2311315001",
          "name": "Qiuyang Li"
        },
        {
          "authorId": "103576342",
          "name": "Xingshu Liu"
        },
        {
          "authorId": "2389551279",
          "name": "Toufiq Imran Khoshnobish"
        },
        {
          "authorId": "2283624262",
          "name": "Mei Bai"
        },
        {
          "authorId": "2108045438",
          "name": "Xite Wang"
        },
        {
          "authorId": "2353891010",
          "name": "Bo Ning"
        },
        {
          "authorId": "2242857384",
          "name": "Shikai Guo"
        }
      ]
    },
    {
      "paperId": "889a19e0d4ba4423c15d7c92d45134f59225d158",
      "externalIds": {
        "DBLP": "journals/jdssv/MarchelloDCB24",
        "DOI": "10.52933/jdssv.v4i4.106",
        "CorpusId": 272240205
      },
      "url": "https://www.semanticscholar.org/paper/889a19e0d4ba4423c15d7c92d45134f59225d158",
      "title": "Deep dynamic co-clustering of count data streams: application to pharmacovigilance",
      "venue": "Journal of Data Science Statistics and Visualisation",
      "year": 2024,
      "referenceCount": 35,
      "citationCount": 0,
      "authors": [
        {
          "authorId": "2005865523",
          "name": "Giulia Marchello"
        },
        {
          "authorId": "83347163",
          "name": "Alexandre Destere"
        },
        {
          "authorId": "2625409",
          "name": "Marco Corneli"
        },
        {
          "authorId": "2243235600",
          "name": "C. Bouveyron"
        }
      ]
    },
    {
      "paperId": "1d245748fd3d46738a05123d75b57a84fa061df3",
      "externalIds": {
        "DOI": "10.1145/3786694",
        "CorpusId": 287210245
      },
      "url": "https://www.semanticscholar.org/paper/1d245748fd3d46738a05123d75b57a84fa061df3",
      "title": "Scalable Clustering Over High Dimensional Vector Streams",
      "venue": "Proceedings of the ACM on Management of Data",
      "year": 2026,
      "referenceCount": 41,
      "citationCount": 0,
      "authors": [
        {
          "authorId": "2428376047",
          "name": "Han Han"
        },
        {
          "authorId": "2249073999",
          "name": "Beichuan Zhang"
        },
        {
          "authorId": "2327033684",
          "name": "Lei Cao"
        }
      ]
    },
    {
      "paperId": "7df16420a733cad344afe80ec08d471137fe1511",
      "externalIds": {
        "MAG": "2994977269",
        "DOI": "10.3390/math7121229",
        "CorpusId": 210867077
      },
      "url": "https://www.semanticscholar.org/paper/7df16420a733cad344afe80ec08d471137fe1511",
      "title": "A Clustering System for Dynamic Data Streams Based on Metaheuristic Optimisation",
      "venue": "",
      "year": 2019,
      "referenceCount": 57,
      "citationCount": 25,
      "authors": [
        {
          "authorId": "1576585937",
          "name": "Jia Ming Yeoh"
        },
        {
          "authorId": "2377380",
          "name": "Fabio Caraffini"
        },
        {
          "authorId": "122788502",
          "name": "Elmina Homapour"
        },
        {
          "authorId": "39763617",
          "name": "V. Santucci"
        },
        {
          "authorId": "1986966",
          "name": "A. Milani"
        }
      ]
    },
    {
      "paperId": "c82190e3fa6def32da4b3f4a9bef845ceb718994",
      "externalIds": {
        "DOI": "10.1109/ICCBDAI66607.2025.11388769",
        "CorpusId": 285735759
      },
      "url": "https://www.semanticscholar.org/paper/c82190e3fa6def32da4b3f4a9bef845ceb718994",
      "title": "Interactive Visual Analytics for High-Dimensional Stellar Substructure Identification",
      "venue": "2025 IEEE 6th International Conference on Computer, Big Data, Artificial Intelligence (ICCBD+AI)",
      "year": 2025,
      "referenceCount": 21,
      "citationCount": 0,
      "authors": [
        {
          "authorId": "2345480476",
          "name": "Xinrui Wu"
        },
        {
          "authorId": "2364548011",
          "name": "Chunyu Jiang"
        },
        {
          "authorId": "2269709501",
          "name": "Yushi Li"
        },
        {
          "authorId": "2115940311",
          "name": "Yunzhe Wang"
        },
        {
          "authorId": "2221257228",
          "name": "Chengtao Ji"
        }
      ]
    }
  ]
}