{
  "total": 2873,
  "offset": 0,
  "next": 10,
  "data": [
    {
      "paperId": "2d8b5f56b5ab82628ab3e05ef1224061325f97d6",
      "externalIds": {
        "ArXiv": "2502.06044",
        "DBLP": "journals/corr/abs-2502-06044",
        "DOI": "10.48550/arXiv.2502.06044",
        "CorpusId": 276250375
      },
      "url": "https://www.semanticscholar.org/paper/2d8b5f56b5ab82628ab3e05ef1224061325f97d6",
      "title": "Scalable Differentially Private Bayesian Optimization",
      "venue": "arXiv.org",
      "year": 2025,
      "referenceCount": 31,
      "citationCount": 0,
      "authors": [
        {
          "authorId": "2306649928",
          "name": "Getoar Sopa"
        },
        {
          "authorId": "2344763375",
          "name": "Juraj Marusic"
        },
        {
          "authorId": "2275965184",
          "name": "Marco Avella-Medina"
        },
        {
          "authorId": "2344749702",
          "name": "John P. Cunningham"
        }
      ]
    },
    {
      "paperId": "48d8f84ca5b493dc7022b5ac22dc10701d9faa34",
      "externalIds": {
        "MAG": "1535019556",
        "DBLP": "conf/icml/KusnerGGW15",
        "ArXiv": "1501.04080",
        "CorpusId": 5709962
      },
      "url": "https://www.semanticscholar.org/paper/48d8f84ca5b493dc7022b5ac22dc10701d9faa34",
      "title": "Differentially Private Bayesian Optimization",
      "venue": "International Conference on Machine Learning",
      "year": 2015,
      "referenceCount": 50,
      "citationCount": 59,
      "authors": [
        {
          "authorId": "1940272",
          "name": "Matt J. Kusner"
        },
        {
          "authorId": "31693738",
          "name": "J. Gardner"
        },
        {
          "authorId": "145974030",
          "name": "R. Garnett"
        },
        {
          "authorId": "7446832",
          "name": "Kilian Q. Weinberger"
        }
      ]
    },
    {
      "paperId": "4ddc726e2d33c8f5b2876c53fe18b0d373e10a3c",
      "externalIds": {
        "DBLP": "conf/nips/DaiLJ21",
        "ArXiv": "2110.14153",
        "CorpusId": 239998449
      },
      "url": "https://www.semanticscholar.org/paper/4ddc726e2d33c8f5b2876c53fe18b0d373e10a3c",
      "title": "Differentially Private Federated Bayesian Optimization with Distributed Exploration",
      "venue": "Neural Information Processing Systems",
      "year": 2021,
      "referenceCount": 80,
      "citationCount": 61,
      "authors": [
        {
          "authorId": "3042111",
          "name": "Zhongxiang Dai"
        },
        {
          "authorId": "145454065",
          "name": "K. H. Low"
        },
        {
          "authorId": "2066231840",
          "name": "P. Jaillet"
        }
      ]
    },
    {
      "paperId": "b7c23ca6aa5d851bffb253a8fb64b888bbb0ea39",
      "externalIds": {
        "DOI": "10.1038/s41598-026-49077-y",
        "CorpusId": 287679538
      },
      "url": "https://www.semanticscholar.org/paper/b7c23ca6aa5d851bffb253a8fb64b888bbb0ea39",
      "title": "Automating differentially private tabular data synthesis via Bayesian optimization",
      "venue": "Scientific Reports",
      "year": 2026,
      "referenceCount": 10,
      "citationCount": 0,
      "authors": [
        {
          "authorId": "2431036476",
          "name": "Shaochong Pang"
        },
        {
          "authorId": "2334368311",
          "name": "Yabo Yin"
        },
        {
          "authorId": "2357742870",
          "name": "Wenzhong Yang"
        },
        {
          "authorId": "2396328703",
          "name": "Zhishan Feng"
        },
        {
          "authorId": "2208410340",
          "name": "Xiaodan Tian"
        },
        {
          "authorId": "50030968",
          "name": "Xiaoping Yang"
        }
      ]
    },
    {
      "paperId": "8b3122a2df9fbc522d048a578153bf5a301fae29",
      "externalIds": {
        "DOI": "10.32985/ijeces.16.5.3",
        "CorpusId": 279115295
      },
      "url": "https://www.semanticscholar.org/paper/8b3122a2df9fbc522d048a578153bf5a301fae29",
      "title": "Efficient Privacy-Utility Optimization for Differentially Private Deep Learning",
      "venue": "International journal of electrical and computer engineering systems",
      "year": 2025,
      "referenceCount": 35,
      "citationCount": 2,
      "authors": [
        {
          "authorId": "2365023910",
          "name": "Rafika Benladgham"
        },
        {
          "authorId": "73771478",
          "name": "Fethallah Hadjila"
        },
        {
          "authorId": "2301314632",
          "name": "Adam Belloum"
        }
      ]
    },
    {
      "paperId": "c0289c4435f85c8ffd0f2e17e19b972a9e0777b2",
      "externalIds": {
        "DOI": "10.60087/jaigs.v3i1.383",
        "CorpusId": 279835365
      },
      "url": "https://www.semanticscholar.org/paper/c0289c4435f85c8ffd0f2e17e19b972a9e0777b2",
      "title": "Differentially Private Canary Optimization via Thompson Sampling for SQL Performance Fixes",
      "venue": "Journal of Artificial Intelligence General science (JAIGS) ISSN:3006-4023",
      "year": 2024,
      "referenceCount": 0,
      "citationCount": 0,
      "authors": [
        {
          "authorId": "2370688206",
          "name": "C. Devi"
        },
        {
          "authorId": "2369726509",
          "name": "P. Manivannan"
        },
        {
          "authorId": "2367414558",
          "name": "Radhakrishnan Pachyappan"
        }
      ]
    },
    {
      "paperId": "90b9e1acb40ff9cb10e6cd9a0cba25187e76e3b2",
      "externalIds": {
        "DBLP": "journals/corr/abs-2108-03888",
        "ArXiv": "2108.03888",
        "CorpusId": 236956808
      },
      "url": "https://www.semanticscholar.org/paper/90b9e1acb40ff9cb10e6cd9a0cba25187e76e3b2",
      "title": "Efficient Hyperparameter Optimization for Differentially Private Deep Learning",
      "venue": "arXiv.org",
      "year": 2021,
      "referenceCount": 21,
      "citationCount": 11,
      "authors": [
        {
          "authorId": "2000976326",
          "name": "Aman Priyanshu"
        },
        {
          "authorId": "1767752585",
          "name": "Rakshit Naidu"
        },
        {
          "authorId": "2115471757",
          "name": "Fatemehsadat Mireshghallah"
        },
        {
          "authorId": "79583109",
          "name": "M. Malekzadeh"
        }
      ]
    },
    {
      "paperId": "d1b006449af655a2afa54d84dd239f345e6c6e1a",
      "externalIds": {
        "DBLP": "conf/infocom/XuZ024",
        "DOI": "10.1109/INFOCOMWKSHPS61880.2024.10620900",
        "CorpusId": 271868105
      },
      "url": "https://www.semanticscholar.org/paper/d1b006449af655a2afa54d84dd239f345e6c6e1a",
      "title": "Joint Client Selection and Privacy Compensation for Differentially Private Federated Learning",
      "venue": "Conference on Computer Communications Workshops",
      "year": 2024,
      "referenceCount": 17,
      "citationCount": 1,
      "authors": [
        {
          "authorId": "2275870299",
          "name": "Ruichen Xu"
        },
        {
          "authorId": "2281041976",
          "name": "Ying-Jun Angela Zhang"
        },
        {
          "authorId": "2177384547",
          "name": "Jianwei Huang"
        }
      ]
    },
    {
      "paperId": "6659db1fafc55d0cbdb8b84c4200e117c55e95b0",
      "externalIds": {
        "DBLP": "journals/corr/abs-2602-21844",
        "ArXiv": "2602.21844",
        "DOI": "10.48550/arXiv.2602.21844",
        "CorpusId": 286011602
      },
      "url": "https://www.semanticscholar.org/paper/6659db1fafc55d0cbdb8b84c4200e117c55e95b0",
      "title": "JSAM: Privacy Straggler-Resilient Joint Client Selection and Incentive Mechanism Design in Differentially Private Federated Learning",
      "venue": "arXiv.org",
      "year": 2026,
      "referenceCount": 0,
      "citationCount": 0,
      "authors": [
        {
          "authorId": "2275870299",
          "name": "Ruichen Xu"
        },
        {
          "authorId": "2281041976",
          "name": "Ying-Jun Angela Zhang"
        },
        {
          "authorId": "2144374801",
          "name": "Jianwei Huang"
        }
      ]
    },
    {
      "paperId": "73d5b879d4584683cb50d41b7b1f91dec885058d",
      "externalIds": {
        "ArXiv": "2204.07352",
        "DBLP": "journals/corr/abs-2204-07352",
        "DOI": "10.59275/j.melba.2022-7175",
        "CorpusId": 248218653
      },
      "url": "https://www.semanticscholar.org/paper/73d5b879d4584683cb50d41b7b1f91dec885058d",
      "title": "A Differentially Private Probabilistic Framework for Modeling the Variability Across Federated Datasets of Heterogeneous Multi-View Observations",
      "venue": "Machine Learning for Biomedical Imaging",
      "year": 2022,
      "referenceCount": 44,
      "citationCount": 5,
      "authors": [
        {
          "authorId": "2407797058",
          "name": "Irene Balelli"
        },
        {
          "authorId": "2187505476",
          "name": "Santiago Silva"
        },
        {
          "authorId": "2091912011",
          "name": "Marco Lorenzi"
        }
      ]
    }
  ]
}