{
  "total": 12,
  "offset": 0,
  "next": 10,
  "data": [
    {
      "paperId": "3e4acf3f2d112fc6516abcdddbe9e17d839f5d9b",
      "externalIds": {
        "DBLP": "journals/corr/GygliNA17",
        "ArXiv": "1703.04363",
        "MAG": "2604538595",
        "CorpusId": 3693763
      },
      "url": "https://www.semanticscholar.org/paper/3e4acf3f2d112fc6516abcdddbe9e17d839f5d9b",
      "title": "Deep Value Networks Learn to Evaluate and Iteratively Refine Structured Outputs",
      "venue": "International Conference on Machine Learning",
      "year": 2017,
      "referenceCount": 60,
      "citationCount": 68,
      "authors": [
        {
          "authorId": "3037160",
          "name": "Michael Gygli"
        },
        {
          "authorId": "144739074",
          "name": "Mohammad Norouzi"
        },
        {
          "authorId": "145426908",
          "name": "A. Angelova"
        }
      ]
    },
    {
      "paperId": "f32e3c510e7e4187b52fb2b943c187e68b085347",
      "externalIds": {
        "DOI": "10.1109/DELCON68055.2025.11400211",
        "CorpusId": 286134150
      },
      "url": "https://www.semanticscholar.org/paper/f32e3c510e7e4187b52fb2b943c187e68b085347",
      "title": "Enhancing Missing Data Recovery via Statistical-Deep Learning Hybridization",
      "venue": "2025 IEEE DELCON - International Conference on Recent Smart Technologies in Engineering for Sustainable Development",
      "year": 2025,
      "referenceCount": 23,
      "citationCount": 0,
      "authors": [
        {
          "authorId": "2390800869",
          "name": "Ananya Raj"
        },
        {
          "authorId": "2362800864",
          "name": "Vaishnavi Bisen"
        },
        {
          "authorId": "2268599923",
          "name": "M. Bharti"
        },
        {
          "authorId": "2390886689",
          "name": "Vaibhav Sharma"
        }
      ]
    },
    {
      "paperId": "dc69e9dced01738fcdc0a6363e7b14717741ce3a",
      "externalIds": {
        "DBLP": "journals/jdi/WangZN19",
        "MAG": "2910109268",
        "DOI": "10.1007/s10278-018-0140-5",
        "CorpusId": 57765111,
        "PubMed": "30631979"
      },
      "url": "https://www.semanticscholar.org/paper/dc69e9dced01738fcdc0a6363e7b14717741ce3a",
      "title": "Automatic Vertebrae Localization and Identification by Combining Deep SSAE Contextual Features and Structured Regression Forest",
      "venue": "Journal of digital imaging",
      "year": 2019,
      "referenceCount": 29,
      "citationCount": 24,
      "authors": [
        {
          "authorId": "2108004952",
          "name": "Xuchu Wang"
        },
        {
          "authorId": "67150024",
          "name": "Suiqiang Zhai"
        },
        {
          "authorId": "2629294",
          "name": "Yanmin Niu"
        }
      ]
    },
    {
      "paperId": "a2862643b3ac24d393feaf3a6acdc73f88fc1086",
      "externalIds": {
        "PubMedCentral": "10798084",
        "DOI": "10.1177/20552076231220123",
        "CorpusId": 267050113,
        "PubMed": "38250147"
      },
      "url": "https://www.semanticscholar.org/paper/a2862643b3ac24d393feaf3a6acdc73f88fc1086",
      "title": "Deep convolutional neural network and IoT technology for healthcare",
      "venue": "Digital Health",
      "year": 2024,
      "referenceCount": 42,
      "citationCount": 18,
      "authors": [
        {
          "authorId": "1580387082",
          "name": "Sobia Wassan"
        },
        {
          "authorId": "2280054086",
          "name": "Dongyan Hu"
        },
        {
          "authorId": "2153085172",
          "name": "Beenish Suhail"
        },
        {
          "authorId": "2244710472",
          "name": "N. Jhanjhi"
        },
        {
          "authorId": "2286341333",
          "name": "G. Xiao"
        },
        {
          "authorId": "2306110777",
          "name": "Suhail Ahmed"
        },
        {
          "authorId": "2279967520",
          "name": "Raja Kumar Murugesan"
        }
      ]
    },
    {
      "paperId": "27d0453039b0fe68d263c32998226bc61579ef0b",
      "externalIds": {
        "DOI": "10.1002/ima.70319",
        "CorpusId": 285978266
      },
      "url": "https://www.semanticscholar.org/paper/27d0453039b0fe68d263c32998226bc61579ef0b",
      "title": "SAM2‐FNet: Medical Image Lesion Segmentation Model Based on Frequency Domain Expert Fusion Network",
      "venue": "International journal of imaging systems and technology (Print)",
      "year": 2026,
      "referenceCount": 42,
      "citationCount": 0,
      "authors": [
        {
          "authorId": "2410461211",
          "name": "Shaoli Li"
        },
        {
          "authorId": "2309141706",
          "name": "Zihua Zhang"
        },
        {
          "authorId": "2310945828",
          "name": "Dejian Li"
        },
        {
          "authorId": "2366151401",
          "name": "Bin Liu"
        },
        {
          "authorId": "2274577165",
          "name": "L. He"
        },
        {
          "authorId": "2238947715",
          "name": "Siying Guo"
        }
      ]
    },
    {
      "paperId": "2581d21d2b75ae770e7c70ff41af3a4cc2a7826b",
      "externalIds": {
        "DBLP": "journals/mta/ZiyaK25",
        "DOI": "10.1007/s11042-024-20123-z",
        "CorpusId": 272312815
      },
      "url": "https://www.semanticscholar.org/paper/2581d21d2b75ae770e7c70ff41af3a4cc2a7826b",
      "title": "GSVAELP: integrating graphSAGE and variational autoencoder for link prediction",
      "venue": "Multimedia tools and applications",
      "year": 2024,
      "referenceCount": 59,
      "citationCount": 7,
      "authors": [
        {
          "authorId": "2319005318",
          "name": "Fatima Ziya"
        },
        {
          "authorId": "2292850762",
          "name": "Sanjay Kumar"
        }
      ]
    },
    {
      "paperId": "bd27503217117fc3d724dac1439211061149e6ba",
      "externalIds": {
        "DBLP": "conf/mm/WangZGY23",
        "DOI": "10.1145/3581783.3612271",
        "CorpusId": 264492621
      },
      "url": "https://www.semanticscholar.org/paper/bd27503217117fc3d724dac1439211061149e6ba",
      "title": "Personalized Single Image Reflection Removal Network through Adaptive Cascade Refinement",
      "venue": "ACM Multimedia",
      "year": 2023,
      "referenceCount": 46,
      "citationCount": 6,
      "authors": [
        {
          "authorId": "2325202632",
          "name": "Mengyi Wang"
        },
        {
          "authorId": "2108216621",
          "name": "Xinxin Zhang"
        },
        {
          "authorId": "2114981360",
          "name": "Yongshun Gong"
        },
        {
          "authorId": "2238405556",
          "name": "Yilong Yin"
        }
      ]
    },
    {
      "paperId": "4781e843fb7b956fb1870da887d2b8e0abacb84a",
      "externalIds": {
        "DBLP": "journals/mia/PaceDBGPWMG22",
        "DOI": "10.1016/j.media.2022.102469",
        "CorpusId": 248791571,
        "PubMed": "35640385"
      },
      "url": "https://www.semanticscholar.org/paper/4781e843fb7b956fb1870da887d2b8e0abacb84a",
      "title": "Learned iterative segmentation of highly variable anatomy from limited data: Applications to whole heart segmentation for congenital heart disease",
      "venue": "Medical Image Anal.",
      "year": 2022,
      "referenceCount": 87,
      "citationCount": 13,
      "authors": [
        {
          "authorId": "2871467",
          "name": "Danielle Frances Pace"
        },
        {
          "authorId": "3046516",
          "name": "Adrian V. Dalca"
        },
        {
          "authorId": "12710958",
          "name": "T. Brosch"
        },
        {
          "authorId": "1759079",
          "name": "T. Geva"
        },
        {
          "authorId": "145272270",
          "name": "A. Powell"
        },
        {
          "authorId": "143788078",
          "name": "J. Weese"
        },
        {
          "authorId": "38883493",
          "name": "M. Moghari"
        },
        {
          "authorId": "1729630",
          "name": "P. Golland"
        }
      ]
    },
    {
      "paperId": "9b87223668707f2eaa6e98cdfd6e0ceec358f243",
      "externalIds": {
        "DBLP": "journals/corr/abs-2106-03793",
        "ArXiv": "2106.03793",
        "CorpusId": 235364012
      },
      "url": "https://www.semanticscholar.org/paper/9b87223668707f2eaa6e98cdfd6e0ceec358f243",
      "title": "Pointwise visual field estimation from optical coherence tomography in glaucoma: a structure-function analysis using deep learning",
      "venue": "arXiv.org",
      "year": 2021,
      "referenceCount": 36,
      "citationCount": 2,
      "authors": [
        {
          "authorId": "150276990",
          "name": "Ruben Hemelings"
        },
        {
          "authorId": "3738339",
          "name": "B. Elen"
        },
        {
          "authorId": "32303987",
          "name": "J. Breda"
        },
        {
          "authorId": "152980580",
          "name": "Erwin Bellon"
        },
        {
          "authorId": "1758219",
          "name": "Matthew B. Blaschko"
        },
        {
          "authorId": "25680968",
          "name": "P. Boever"
        },
        {
          "authorId": "3564120",
          "name": "I. Stalmans"
        }
      ]
    },
    {
      "paperId": "2966ecd82505ecd55ead0e6a327a304c8f9868e3",
      "externalIds": {
        "CorpusId": 260470817
      },
      "url": "https://www.semanticscholar.org/paper/2966ecd82505ecd55ead0e6a327a304c8f9868e3",
      "title": "Reward Next action State MC searchG D Generate True data Train G Real World D Reward Reward Reward Policy Gradient",
      "venue": "",
      "year": 2018,
      "referenceCount": 26,
      "citationCount": 0,
      "authors": [
        {
          "authorId": "3469209",
          "name": "Lantao Yu"
        },
        {
          "authorId": "2108309275",
          "name": "Weinan Zhang"
        },
        {
          "authorId": "66063792",
          "name": "J. Wang"
        },
        {
          "authorId": "2156098229",
          "name": "Yong Yu"
        }
      ]
    }
  ]
}