{
  "total": 425,
  "offset": 0,
  "next": 10,
  "data": [
    {
      "paperId": "97f376ba661a33b83f0d02c2651bfd4a74b8340b",
      "externalIds": {
        "MAG": "2785863721",
        "DBLP": "conf/icml/DoikovR18",
        "ArXiv": "1802.04084",
        "CorpusId": 51876381
      },
      "url": "https://www.semanticscholar.org/paper/97f376ba661a33b83f0d02c2651bfd4a74b8340b",
      "title": "Randomized Block Cubic Newton Method",
      "venue": "International Conference on Machine Learning",
      "year": 2018,
      "referenceCount": 28,
      "citationCount": 40,
      "authors": [
        {
          "authorId": "51127990",
          "name": "N. Doikov"
        },
        {
          "authorId": "2662221",
          "name": "Peter Richtárik"
        }
      ]
    },
    {
      "paperId": "0826e9d3d2ae86904c4febecc30adbce59a1d189",
      "externalIds": {
        "ArXiv": "2407.18150",
        "CorpusId": 271431929
      },
      "url": "https://www.semanticscholar.org/paper/0826e9d3d2ae86904c4febecc30adbce59a1d189",
      "title": "Block cubic Newton with greedy selection",
      "venue": "",
      "year": 2024,
      "referenceCount": 41,
      "citationCount": 0,
      "authors": [
        {
          "authorId": "8820544",
          "name": "A. Cristofari"
        }
      ]
    },
    {
      "paperId": "0278c32bd8065bf9b55c90112f257cbf2c70cdf2",
      "externalIds": {
        "DBLP": "journals/corr/abs-2002-09526",
        "ArXiv": "2002.09526",
        "MAG": "3007545624",
        "CorpusId": 211258671
      },
      "url": "https://www.semanticscholar.org/paper/0278c32bd8065bf9b55c90112f257cbf2c70cdf2",
      "title": "Stochastic Subspace Cubic Newton Method",
      "venue": "International Conference on Machine Learning",
      "year": 2020,
      "referenceCount": 60,
      "citationCount": 62,
      "authors": [
        {
          "authorId": "7775606",
          "name": "Filip Hanzely"
        },
        {
          "authorId": "51127990",
          "name": "N. Doikov"
        },
        {
          "authorId": "2662221",
          "name": "Peter Richtárik"
        },
        {
          "authorId": "143676697",
          "name": "Y. Nesterov"
        }
      ]
    },
    {
      "paperId": "c0c4a122f8771c22101750583cef65bf06124a31",
      "externalIds": {
        "ArXiv": "1607.00101",
        "DBLP": "journals/siamjo/Lu17",
        "MAG": "2472831545",
        "DOI": "10.1137/16M1082767",
        "CorpusId": 7148543
      },
      "url": "https://www.semanticscholar.org/paper/c0c4a122f8771c22101750583cef65bf06124a31",
      "title": "Randomized Block Proximal Damped Newton Method for Composite Self-Concordant Minimization",
      "venue": "SIAM Journal on Optimization",
      "year": 2016,
      "referenceCount": 41,
      "citationCount": 13,
      "authors": [
        {
          "authorId": "6201715",
          "name": "Zhaosong Lu"
        }
      ]
    },
    {
      "paperId": "7efc4d1d5079cc5dcd4d2c4cecf0d0832e3b2122",
      "externalIds": {
        "ArXiv": "2412.18394",
        "CorpusId": 274992318
      },
      "url": "https://www.semanticscholar.org/paper/7efc4d1d5079cc5dcd4d2c4cecf0d0832e3b2122",
      "title": "A Stochastic Block-coordinate Proximal Newton Method for Nonconvex Composite Minimization",
      "venue": "",
      "year": 2024,
      "referenceCount": 50,
      "citationCount": 0,
      "authors": [
        {
          "authorId": "2337232836",
          "name": "Hong Zhu"
        },
        {
          "authorId": "49258493",
          "name": "Xun Qian"
        }
      ]
    },
    {
      "paperId": "8bfabd25621f3d8264cf51b5c96abe08d97274ad",
      "externalIds": {
        "DBLP": "journals/corr/abs-2406-16666",
        "ArXiv": "2406.16666",
        "DOI": "10.48550/arXiv.2406.16666",
        "CorpusId": 270702610
      },
      "url": "https://www.semanticscholar.org/paper/8bfabd25621f3d8264cf51b5c96abe08d97274ad",
      "title": "Cubic regularized subspace Newton for non-convex optimization",
      "venue": "International Conference on Artificial Intelligence and Statistics",
      "year": 2024,
      "referenceCount": 39,
      "citationCount": 7,
      "authors": [
        {
          "authorId": "2308067249",
          "name": "Jim Zhao"
        },
        {
          "authorId": "40401747",
          "name": "Aurélien Lucchi"
        },
        {
          "authorId": "51127990",
          "name": "N. Doikov"
        }
      ]
    },
    {
      "paperId": "e246070d81bab01804bd573b173ca9bfe1a3c03a",
      "externalIds": {
        "DBLP": "journals/corr/abs-2401-03058",
        "ArXiv": "2401.03058",
        "DOI": "10.48550/arXiv.2401.03058",
        "CorpusId": 266844258
      },
      "url": "https://www.semanticscholar.org/paper/e246070d81bab01804bd573b173ca9bfe1a3c03a",
      "title": "Krylov Cubic Regularized Newton: A Subspace Second-Order Method with Dimension-Free Convergence Rate",
      "venue": "International Conference on Artificial Intelligence and Statistics",
      "year": 2024,
      "referenceCount": 30,
      "citationCount": 5,
      "authors": [
        {
          "authorId": "2051263313",
          "name": "Ruichen Jiang"
        },
        {
          "authorId": "2278430539",
          "name": "Parameswaran Raman"
        },
        {
          "authorId": "3218963",
          "name": "Shoham Sabach"
        },
        {
          "authorId": "2278430442",
          "name": "Aryan Mokhtari"
        },
        {
          "authorId": "2278433136",
          "name": "Mingyi Hong"
        },
        {
          "authorId": "1678641",
          "name": "V. Cevher"
        }
      ]
    },
    {
      "paperId": "3d33db15a17969c061b3e28372ec399fc4c9e1e6",
      "externalIds": {
        "DBLP": "journals/corr/abs-2009-09315",
        "ArXiv": "2009.09315",
        "MAG": "3087694753",
        "DOI": "10.1109/LSP.2021.3050708",
        "CorpusId": 221819281
      },
      "url": "https://www.semanticscholar.org/paper/3d33db15a17969c061b3e28372ec399fc4c9e1e6",
      "title": "Randomized Subspace Newton Convex Method Applied to Data-Driven Sensor Selection Problem",
      "venue": "IEEE Signal Processing Letters",
      "year": 2020,
      "referenceCount": 20,
      "citationCount": 29,
      "authors": [
        {
          "authorId": "51037826",
          "name": "T. Nonomura"
        },
        {
          "authorId": "2193320",
          "name": "Shunsuke Ono"
        },
        {
          "authorId": "2093123627",
          "name": "Kumi Nakai"
        },
        {
          "authorId": "50068947",
          "name": "Y. Saito"
        }
      ]
    },
    {
      "paperId": "823f49864871ea680bee6a17f260c933ac5ac051",
      "externalIds": {
        "MAG": "2981837634",
        "DBLP": "journals/corr/abs-1910-11561",
        "CorpusId": 204915886
      },
      "url": "https://www.semanticscholar.org/paper/823f49864871ea680bee6a17f260c933ac5ac051",
      "title": "Convergence Analysis of the Randomized Newton Method with Determinantal Sampling",
      "venue": "arXiv.org",
      "year": 2019,
      "referenceCount": 36,
      "citationCount": 6,
      "authors": [
        {
          "authorId": "2065846094",
          "name": "Mojm'ir Mutn'y"
        },
        {
          "authorId": "3285647",
          "name": "Michal Derezinski"
        },
        {
          "authorId": "153243248",
          "name": "A. Krause"
        }
      ]
    },
    {
      "paperId": "5f65153113bdd027e42c4310c21a5702d62129e1",
      "externalIds": {
        "ArXiv": "1912.01597",
        "DBLP": "journals/corr/abs-1912-01597",
        "MAG": "2992166204",
        "CorpusId": 208547672
      },
      "url": "https://www.semanticscholar.org/paper/5f65153113bdd027e42c4310c21a5702d62129e1",
      "title": "Stochastic Newton and Cubic Newton Methods with Simple Local Linear-Quadratic Rates",
      "venue": "arXiv.org",
      "year": 2019,
      "referenceCount": 48,
      "citationCount": 53,
      "authors": [
        {
          "authorId": "152307988",
          "name": "Dmitry Kovalev"
        },
        {
          "authorId": "144950781",
          "name": "Konstantin Mishchenko"
        },
        {
          "authorId": "2662221",
          "name": "Peter Richtárik"
        }
      ]
    }
  ]
}