{
  "total": 22,
  "offset": 0,
  "next": 10,
  "data": [
    {
      "paperId": "c7e07cf8ba4ad956483f9dd37a168355ef16a041",
      "externalIds": {
        "CorpusId": 216078910
      },
      "url": "https://www.semanticscholar.org/paper/c7e07cf8ba4ad956483f9dd37a168355ef16a041",
      "title": "Markov Chain Monte Carlo and Variational Inference: Bridging the Gap",
      "venue": "",
      "year": 2014,
      "referenceCount": 15,
      "citationCount": 555,
      "authors": [
        {
          "authorId": "2887364",
          "name": "Tim Salimans"
        },
        {
          "authorId": "1726807",
          "name": "Diederik P. Kingma"
        },
        {
          "authorId": "1678311",
          "name": "M. Welling"
        }
      ]
    },
    {
      "paperId": "c15eaeafb092ed2b4887303208095465d83190e0",
      "externalIds": {
        "MAG": "1906598733",
        "DBLP": "conf/icml/SalimansKW15",
        "ArXiv": "1410.6460",
        "CorpusId": 260837451
      },
      "url": "https://www.semanticscholar.org/paper/c15eaeafb092ed2b4887303208095465d83190e0",
      "title": "Markov Chain Monte Carlo and Variational Inference: Bridging the Gap",
      "venue": "International Conference on Machine Learning",
      "year": 2014,
      "referenceCount": 20,
      "citationCount": 16,
      "authors": [
        {
          "authorId": "2887364",
          "name": "Tim Salimans"
        },
        {
          "authorId": "1726807",
          "name": "Diederik P. Kingma"
        }
      ]
    },
    {
      "paperId": "83e71c7620ba09a990cd5d730e8c9a9af75e83c3",
      "externalIds": {
        "CorpusId": 260837436
      },
      "url": "https://www.semanticscholar.org/paper/83e71c7620ba09a990cd5d730e8c9a9af75e83c3",
      "title": "Markov Chain Monte Carlo and Variational Inference : Bridging the Gap",
      "venue": "",
      "year": 2015,
      "referenceCount": 14,
      "citationCount": 12,
      "authors": [
        {
          "authorId": "2887364",
          "name": "Tim Salimans"
        },
        {
          "authorId": "2230329800",
          "name": "Algoritmica Diederik"
        },
        {
          "authorId": "2175331576",
          "name": "P. Kingma"
        },
        {
          "authorId": "1678311",
          "name": "M. Welling"
        },
        {
          "authorId": "1726807",
          "name": "Diederik P. Kingma"
        },
        {
          "authorId": "2190823412",
          "name": "M. Welling"
        },
        {
          "authorId": "2231209432",
          "name": "Uva Nl"
        }
      ]
    },
    {
      "paperId": "2ad089f45e501a145c019f0c22518a678fba4815",
      "externalIds": {
        "CorpusId": 267801717
      },
      "url": "https://www.semanticscholar.org/paper/2ad089f45e501a145c019f0c22518a678fba4815",
      "title": "Markov Chain Monte Carlo and Variational Inference: Bridging the Gap",
      "venue": "",
      "year": 2015,
      "referenceCount": 15,
      "citationCount": 8,
      "authors": [
        {
          "authorId": "2887364",
          "name": "Tim Salimans"
        },
        {
          "authorId": "1726807",
          "name": "Diederik P. Kingma"
        },
        {
          "authorId": "2286919637",
          "name": "Max Welling"
        },
        {
          "authorId": "2285289366",
          "name": "NL UVA."
        }
      ]
    },
    {
      "paperId": "d2ec39c8408230bb9e716de57600897d7a27d191",
      "externalIds": {
        "CorpusId": 265754905
      },
      "url": "https://www.semanticscholar.org/paper/d2ec39c8408230bb9e716de57600897d7a27d191",
      "title": "Markov Chain Monte Carlo and Variational Inference: Bridging the Gap",
      "venue": "",
      "year": 2014,
      "referenceCount": 15,
      "citationCount": 2,
      "authors": [
        {
          "authorId": "2231438357",
          "name": "Salimans"
        }
      ]
    },
    {
      "paperId": "65fe0b0a723aed35d4c0da5e6066478ea098a837",
      "externalIds": {
        "MAG": "3008391717",
        "DBLP": "journals/corr/abs-2002-12253",
        "ArXiv": "2002.12253",
        "CorpusId": 211532638
      },
      "url": "https://www.semanticscholar.org/paper/65fe0b0a723aed35d4c0da5e6066478ea098a837",
      "title": "MetFlow: A New Efficient Method for Bridging the Gap between Markov Chain Monte Carlo and Variational Inference",
      "venue": "arXiv.org",
      "year": 2020,
      "referenceCount": 43,
      "citationCount": 17,
      "authors": [
        {
          "authorId": "1509417744",
          "name": "Achille Thin"
        },
        {
          "authorId": "1509418352",
          "name": "N. Kotelevskii"
        },
        {
          "authorId": "1509417780",
          "name": "Jean-Stanislas Denain"
        },
        {
          "authorId": "2274940713",
          "name": "Léo Grinsztajn"
        },
        {
          "authorId": "35501788",
          "name": "A. Durmus"
        },
        {
          "authorId": "144180694",
          "name": "Maxim Panov"
        },
        {
          "authorId": "2313661",
          "name": "É. Moulines"
        }
      ]
    },
    {
      "paperId": "40091f03a93260dd1cbbf2b74cd1d0f44ab58f3e",
      "externalIds": {
        "CorpusId": 260837448
      },
      "url": "https://www.semanticscholar.org/paper/40091f03a93260dd1cbbf2b74cd1d0f44ab58f3e",
      "title": "UvA-DARE (Digital Academic Markov Chain Monte Carlo and Variational Inference: Bridging the Gap",
      "venue": "",
      "year": null,
      "referenceCount": 0,
      "citationCount": 0,
      "authors": []
    },
    {
      "paperId": "32d88e91412ea757203c9a5fe0853a826e18df1b",
      "externalIds": {
        "CorpusId": 260837444
      },
      "url": "https://www.semanticscholar.org/paper/32d88e91412ea757203c9a5fe0853a826e18df1b",
      "title": "UvA-DARE (Digital Academic Markov Chain Monte Carlo and Variational Inference: Bridging the Gap",
      "venue": "",
      "year": null,
      "referenceCount": 0,
      "citationCount": 0,
      "authors": []
    },
    {
      "paperId": "9f2ca4b0fd8b47d76b79d5e3e37c97daa8f21c69",
      "externalIds": {
        "CorpusId": 260837446
      },
      "url": "https://www.semanticscholar.org/paper/9f2ca4b0fd8b47d76b79d5e3e37c97daa8f21c69",
      "title": "UvA-DARE (Digital Academic Markov Chain Monte Carlo and Variational Inference: Bridging the Gap",
      "venue": "",
      "year": null,
      "referenceCount": 0,
      "citationCount": 0,
      "authors": []
    },
    {
      "paperId": "d108c2bf2479f33892f687dbb0d09556350f5f21",
      "externalIds": {
        "CorpusId": 260837437
      },
      "url": "https://www.semanticscholar.org/paper/d108c2bf2479f33892f687dbb0d09556350f5f21",
      "title": "UvA-DARE (Digital Academic Markov Chain Monte Carlo and Variational Inference: Bridging the Gap",
      "venue": "",
      "year": null,
      "referenceCount": 0,
      "citationCount": 0,
      "authors": []
    }
  ]
}