{
  "total": 489,
  "offset": 0,
  "next": 10,
  "data": [
    {
      "paperId": "f7484ba4a4b00d01a44cc7e29fdf3045823aa5cf",
      "externalIds": {
        "MAG": "1838272156",
        "DBLP": "conf/icml/WangLWC15",
        "CorpusId": 15780635
      },
      "url": "https://www.semanticscholar.org/paper/f7484ba4a4b00d01a44cc7e29fdf3045823aa5cf",
      "title": "Metadata Dependent Mondrian Processes",
      "venue": "International Conference on Machine Learning",
      "year": 2015,
      "referenceCount": 28,
      "citationCount": 9,
      "authors": [
        {
          "authorId": "2154457821",
          "name": "Yi Wang"
        },
        {
          "authorId": "2156072019",
          "name": "Bin Li"
        },
        {
          "authorId": "46396571",
          "name": "Yang Wang"
        },
        {
          "authorId": "2149500683",
          "name": "Fang Chen"
        }
      ]
    },
    {
      "paperId": "1f84be2c611d83c47aca52f5ceba894ed0255ce8",
      "externalIds": {
        "PubMedCentral": "10715775",
        "DOI": "10.1200/CCI.23.00101",
        "CorpusId": 266116231,
        "PubMed": "38061012"
      },
      "url": "https://www.semanticscholar.org/paper/1f84be2c611d83c47aca52f5ceba894ed0255ce8",
      "title": "MI-Common Data Model: Extending Observational Medical Outcomes Partnership-Common Data Model (OMOP-CDM) for Registering Medical Imaging Metadata and Subsequent Curation Processes",
      "venue": "JCO Clinical Cancer Informatics",
      "year": 2023,
      "referenceCount": 4,
      "citationCount": 6,
      "authors": [
        {
          "authorId": "3229727",
          "name": "Varvara Kalokyri"
        },
        {
          "authorId": "1821005",
          "name": "H. Kondylakis"
        },
        {
          "authorId": "2466994",
          "name": "S. Sfakianakis"
        },
        {
          "authorId": "3419231",
          "name": "K. Nikiforaki"
        },
        {
          "authorId": "1869738",
          "name": "Ioannis Karatzanis"
        },
        {
          "authorId": "37940929",
          "name": "S. Mazzetti"
        },
        {
          "authorId": "2715042",
          "name": "N. Tachos"
        },
        {
          "authorId": "2251610414",
          "name": "D. Regge"
        },
        {
          "authorId": "2266771845",
          "name": "Dimitrios I. Fotiadis"
        },
        {
          "authorId": "2274335390",
          "name": "Konstantinos Marias"
        },
        {
          "authorId": "2992223",
          "name": "M. Tsiknakis"
        }
      ]
    },
    {
      "paperId": "3aa1e1b7b29ddfa256ea38fae26e3b52a7ec6e59",
      "externalIds": {
        "DBLP": "conf/uss/KayondoBKMP24",
        "CorpusId": 271325443
      },
      "url": "https://www.semanticscholar.org/paper/3aa1e1b7b29ddfa256ea38fae26e3b52a7ec6e59",
      "title": "MetaSafe: Compiling for Protecting Smart Pointer Metadata to Ensure Safe Rust Integrity",
      "venue": "USENIX Security Symposium",
      "year": 2024,
      "referenceCount": 37,
      "citationCount": 2,
      "authors": [
        {
          "authorId": "2231139418",
          "name": "M. Kayondo"
        },
        {
          "authorId": "2042597712",
          "name": "Inyoung Bang"
        },
        {
          "authorId": "2312307906",
          "name": "Yeongjun Kwak"
        },
        {
          "authorId": "40845358",
          "name": "Hyungon Moon"
        },
        {
          "authorId": "144619558",
          "name": "Y. Paek"
        }
      ]
    },
    {
      "paperId": "ab3281bd779578b51ad4a4615bd5ae246e9eb3b5",
      "externalIds": {
        "DOI": "10.51244/ijrsi.2026.13020067",
        "CorpusId": 286422046
      },
      "url": "https://www.semanticscholar.org/paper/ab3281bd779578b51ad4a4615bd5ae246e9eb3b5",
      "title": "Development of a Metadata Quality Index (MQI) for Bathymetric Data Assessment in Marine Spatial Data Infrastructure",
      "venue": "International journal of research and scientific innovation",
      "year": 2026,
      "referenceCount": 0,
      "citationCount": 0,
      "authors": [
        {
          "authorId": "2366047753",
          "name": "K. Hasara"
        },
        {
          "authorId": "2412616568",
          "name": "K. Karunanayaka"
        }
      ]
    },
    {
      "paperId": "70005e91dcebb9f157ee6f3d21d2aebcd1465f46",
      "externalIds": {
        "PubMedCentral": "10444746",
        "DOI": "10.1038/s41597-023-02457-9",
        "CorpusId": 261073708,
        "PubMed": "37607929"
      },
      "url": "https://www.semanticscholar.org/paper/70005e91dcebb9f157ee6f3d21d2aebcd1465f46",
      "title": "A large public dataset of annotated clinical MRIs and metadata of patients with acute stroke",
      "venue": "Scientific Data",
      "year": 2023,
      "referenceCount": 82,
      "citationCount": 26,
      "authors": [
        {
          "authorId": "2512378",
          "name": "Chin-Fu Liu"
        },
        {
          "authorId": "145990645",
          "name": "R. Leigh"
        },
        {
          "authorId": "35773959",
          "name": "Brenda Johnson"
        },
        {
          "authorId": "145719428",
          "name": "V. Urrutia"
        },
        {
          "authorId": "5881068",
          "name": "Johnny T. C. Hsu"
        },
        {
          "authorId": "2152775768",
          "name": "Xin Xu"
        },
        {
          "authorId": "49355335",
          "name": "Xin Li"
        },
        {
          "authorId": "2072426064",
          "name": "Susumu Mori"
        },
        {
          "authorId": "2872683",
          "name": "A. Hillis"
        },
        {
          "authorId": "144551332",
          "name": "A. Faria"
        }
      ]
    },
    {
      "paperId": "bd41042f3c7eaef72776397ca0dc499c7c789abc",
      "externalIds": {
        "CorpusId": 263420009
      },
      "url": "https://www.semanticscholar.org/paper/bd41042f3c7eaef72776397ca0dc499c7c789abc",
      "title": "Journal Pre-proof Auditory Mondrian masks the airborne-auditory artifact of focused ultrasound stimulation in humans",
      "venue": "",
      "year": 2023,
      "referenceCount": 14,
      "citationCount": 0,
      "authors": [
        {
          "authorId": "2403621759",
          "name": "William Liang"
        },
        {
          "authorId": "2250945312",
          "name": "Hongsun Guo"
        },
        {
          "authorId": "7979957",
          "name": "D. Mittelstein"
        },
        {
          "authorId": "2303138",
          "name": "Mikhail G. Shapiro"
        },
        {
          "authorId": "2250974822",
          "name": "Shinsuke"
        },
        {
          "authorId": "2250970764",
          "name": "Shimojo"
        },
        {
          "authorId": "2142851979",
          "name": "Mohammad H. Shehata"
        }
      ]
    },
    {
      "paperId": "308a1dfe457b3610c56e03008fdfcba169ddb9ce",
      "externalIds": {
        "DBLP": "journals/tvlsi/LunnikiviHH24",
        "DOI": "10.1109/TVLSI.2024.3454431",
        "CorpusId": 272848028
      },
      "url": "https://www.semanticscholar.org/paper/308a1dfe457b3610c56e03008fdfcba169ddb9ce",
      "title": "Keelhaul: Processor-Driven Chip Connectivity and Memory Map Metadata Validator for Large Systems-on-Chip",
      "venue": "IEEE Transactions on Very Large Scale Integration (VLSI) Systems",
      "year": 2024,
      "referenceCount": 0,
      "citationCount": 1,
      "authors": [
        {
          "authorId": "67305851",
          "name": "Henri Lunnikivi"
        },
        {
          "authorId": "2265678948",
          "name": "Roni Hämäläinen"
        },
        {
          "authorId": "2292336080",
          "name": "Timo D. Hämäläinen"
        }
      ]
    },
    {
      "paperId": "6f0039a628de163351bd61fef8fcb2855b87c11f",
      "externalIds": {
        "PubMedCentral": "12221701",
        "DOI": "10.1016/j.dib.2025.111760",
        "CorpusId": 279258871,
        "PubMed": "40612466"
      },
      "url": "https://www.semanticscholar.org/paper/6f0039a628de163351bd61fef8fcb2855b87c11f",
      "title": "A dataset on potentially groundwater-dependent vegetation in the Sierra Nevada Protected Area (Southern Spain) and its underlying NDVI-derived ecohydrological attributes",
      "venue": "Data in Brief",
      "year": 2025,
      "referenceCount": 14,
      "citationCount": 1,
      "authors": [
        {
          "authorId": "2315347186",
          "name": "Javier Cabello"
        },
        {
          "authorId": "2366134274",
          "name": "M. Escudero-Clares"
        },
        {
          "authorId": "2366136497",
          "name": "S. Martos-Rosillo"
        },
        {
          "authorId": "2366132848",
          "name": "J. J. Casas"
        },
        {
          "authorId": "2366136348",
          "name": "J. Cintas"
        },
        {
          "authorId": "1659053788",
          "name": "T. Zakaluk"
        },
        {
          "authorId": "1402425293",
          "name": "M. Salinas-Bonillo"
        }
      ]
    },
    {
      "paperId": "deb13f46e9ec09eff9d71d410d9280cf3c5363be",
      "externalIds": {
        "DOI": "10.1158/0008-5472.CAN-23-0539",
        "CorpusId": 259074150,
        "PubMed": "37272757"
      },
      "url": "https://www.semanticscholar.org/paper/deb13f46e9ec09eff9d71d410d9280cf3c5363be",
      "title": "The EstroGene database reveals diverse temporal, context-dependent, and bidirectional estrogen receptor regulomes in breast cancer.",
      "venue": "Cancer Research",
      "year": 2023,
      "referenceCount": 0,
      "citationCount": 12,
      "authors": [
        {
          "authorId": "50819116",
          "name": "Zheqi Li"
        },
        {
          "authorId": "50290127",
          "name": "Tianqin Li"
        },
        {
          "authorId": "40570616",
          "name": "Megan E. Yates"
        },
        {
          "authorId": "48607427",
          "name": "Yangchun Wu"
        },
        {
          "authorId": "2204075841",
          "name": "Amanda Ferber"
        },
        {
          "authorId": "9026193",
          "name": "Lyuqin Chen"
        },
        {
          "authorId": "2115445966",
          "name": "Daniel D. Brown"
        },
        {
          "authorId": "144276847",
          "name": "J. Carroll"
        },
        {
          "authorId": "40245175",
          "name": "Matthew J. Sikora"
        },
        {
          "authorId": "1799353",
          "name": "G. Tseng"
        },
        {
          "authorId": "2486035",
          "name": "S. Oesterreich"
        },
        {
          "authorId": "145263625",
          "name": "Adrian V. Lee"
        }
      ]
    },
    {
      "paperId": "14b21befbe4f2ee3e9e0b69cb6dfd3c910ae8ec5",
      "externalIds": {
        "DOI": "10.1080/2150704X.2023.2285736",
        "CorpusId": 265637078
      },
      "url": "https://www.semanticscholar.org/paper/14b21befbe4f2ee3e9e0b69cb6dfd3c910ae8ec5",
      "title": "First experience of 3D georeferencing accuracy assessment of SPOT 6 stereo panchromatic primary images by sensor-dependent orientation model",
      "venue": "Remote Sensing Letters",
      "year": 2023,
      "referenceCount": 15,
      "citationCount": 0,
      "authors": [
        {
          "authorId": "40323436",
          "name": "H. Topan"
        }
      ]
    }
  ]
}