{
  "total": 45342,
  "offset": 0,
  "next": 10,
  "data": [
    {
      "paperId": "d592ad48973b2bb0e268d3b404fb7262d56587b1",
      "externalIds": {
        "DBLP": "conf/icml/LawUZ17",
        "MAG": "2740643007",
        "CorpusId": 29819269
      },
      "url": "https://www.semanticscholar.org/paper/d592ad48973b2bb0e268d3b404fb7262d56587b1",
      "title": "Deep Spectral Clustering Learning",
      "venue": "International Conference on Machine Learning",
      "year": 2017,
      "referenceCount": 37,
      "citationCount": 143,
      "authors": [
        {
          "authorId": "2065543878",
          "name": "M. Law"
        },
        {
          "authorId": "2422559",
          "name": "R. Urtasun"
        },
        {
          "authorId": "1804104",
          "name": "R. Zemel"
        }
      ]
    },
    {
      "paperId": "d104aa4fc1e00d7ae753f5865ce93b29f414e3d5",
      "externalIds": {
        "DBLP": "journals/tgrs/ZhaoBZYL25",
        "DOI": "10.1109/TGRS.2025.3530434",
        "CorpusId": 275728652
      },
      "url": "https://www.semanticscholar.org/paper/d104aa4fc1e00d7ae753f5865ce93b29f414e3d5",
      "title": "Deep Spectral Clustering With Projected Adaptive Feature Selection",
      "venue": "IEEE Transactions on Geoscience and Remote Sensing",
      "year": 2025,
      "referenceCount": 0,
      "citationCount": 6,
      "authors": [
        {
          "authorId": "2268175450",
          "name": "Yang Zhao"
        },
        {
          "authorId": "2340989937",
          "name": "Zixuan Bi"
        },
        {
          "authorId": "7825193",
          "name": "Peican Zhu"
        },
        {
          "authorId": "2279218083",
          "name": "Aihong Yuan"
        },
        {
          "authorId": "2240224099",
          "name": "Xuelong Li"
        }
      ]
    },
    {
      "paperId": "8e0a9808e34713b51ae1cdf46980a7d495c94829",
      "externalIds": {
        "DBLP": "conf/isbi/KupferBS25",
        "DOI": "10.1109/ISBI60581.2025.10981224",
        "CorpusId": 278556142
      },
      "url": "https://www.semanticscholar.org/paper/8e0a9808e34713b51ae1cdf46980a7d495c94829",
      "title": "Fully Unsupervised Deep Spectral Clustering for Retinal Vessel Segmentation",
      "venue": "IEEE International Symposium on Biomedical Imaging",
      "year": 2025,
      "referenceCount": 29,
      "citationCount": 0,
      "authors": [
        {
          "authorId": "2476617",
          "name": "Benny Kupfer"
        },
        {
          "authorId": "2467566",
          "name": "Leah Bar"
        },
        {
          "authorId": "2037710",
          "name": "N. Sochen"
        }
      ]
    },
    {
      "paperId": "4e3197dce0f4086da7dcda8a4c3a7e4fcbbade4a",
      "externalIds": {
        "DBLP": "journals/tits/YuHCPM25",
        "DOI": "10.1109/TITS.2025.3546293",
        "CorpusId": 276908810
      },
      "url": "https://www.semanticscholar.org/paper/4e3197dce0f4086da7dcda8a4c3a7e4fcbbade4a",
      "title": "Uncovering Passenger-Seeking Behavior of Vacant Taxis From Trajectory Data via Self-Supervised Deep Spectral Clustering",
      "venue": "IEEE transactions on intelligent transportation systems (Print)",
      "year": 2025,
      "referenceCount": 61,
      "citationCount": 0,
      "authors": [
        {
          "authorId": "2244298236",
          "name": "Xinlian Yu"
        },
        {
          "authorId": "143727774",
          "name": "Mingzhuang Hua"
        },
        {
          "authorId": "2257310634",
          "name": "Jingxu Chen"
        },
        {
          "authorId": "2300043804",
          "name": "Jiankun Peng"
        },
        {
          "authorId": "2185742780",
          "name": "Haijun Mao"
        }
      ]
    },
    {
      "paperId": "88e16765f2ab6ceb8d48beda9a10b18d0cf91f2c",
      "externalIds": {
        "DBLP": "journals/mlst/BombiniBBGR24",
        "ArXiv": "2401.17695",
        "DOI": "10.1088/2632-2153/ad622f",
        "CorpusId": 267334754
      },
      "url": "https://www.semanticscholar.org/paper/88e16765f2ab6ceb8d48beda9a10b18d0cf91f2c",
      "title": "Datacube segmentation via deep spectral clustering",
      "venue": "Machine Learning: Science and Technology",
      "year": 2024,
      "referenceCount": 115,
      "citationCount": 1,
      "authors": [
        {
          "authorId": "84260082",
          "name": "A. Bombini"
        },
        {
          "authorId": "2281943288",
          "name": "Fernando Garc'ia-Avello Bof'ias"
        },
        {
          "authorId": "2281943022",
          "name": "C. Bracci"
        },
        {
          "authorId": "2281943043",
          "name": "Michele Ginolfi"
        },
        {
          "authorId": "2281943269",
          "name": "Chiara Ruberto"
        }
      ]
    },
    {
      "paperId": "fbadc3f6d71ef5ceb57fbc88d925125a83e14f55",
      "externalIds": {
        "MAG": "2943678367",
        "DBLP": "conf/cvpr/YangDZYL19",
        "ArXiv": "1904.13113",
        "DOI": "10.1109/CVPR.2019.00419",
        "CorpusId": 140267190
      },
      "url": "https://www.semanticscholar.org/paper/fbadc3f6d71ef5ceb57fbc88d925125a83e14f55",
      "title": "Deep Spectral Clustering Using Dual Autoencoder Network",
      "venue": "Computer Vision and Pattern Recognition",
      "year": 2019,
      "referenceCount": 51,
      "citationCount": 283,
      "authors": [
        {
          "authorId": "2143731154",
          "name": "Xu Yang"
        },
        {
          "authorId": "145102437",
          "name": "Cheng Deng"
        },
        {
          "authorId": "46643741",
          "name": "Feng Zheng"
        },
        {
          "authorId": "3063894",
          "name": "Junchi Yan"
        },
        {
          "authorId": "46641573",
          "name": "W. Liu"
        }
      ]
    },
    {
      "paperId": "14f9a1b2a9e738235796d9f24d18aa8133e3ca50",
      "externalIds": {
        "PubMedCentral": "11652615",
        "DBLP": "journals/bib/LuoWWYL24",
        "DOI": "10.1093/bib/bbae656",
        "CorpusId": 274821522,
        "PubMed": "39690881"
      },
      "url": "https://www.semanticscholar.org/paper/14f9a1b2a9e738235796d9f24d18aa8133e3ca50",
      "title": "DeepHapNet: a haplotype assembly method based on RetNet and deep spectral clustering",
      "venue": "Briefings Bioinform.",
      "year": 2024,
      "referenceCount": 49,
      "citationCount": 2,
      "authors": [
        {
          "authorId": "2309783687",
          "name": "Junwei Luo"
        },
        {
          "authorId": "2124947214",
          "name": "Jiaojiao Wang"
        },
        {
          "authorId": "2336707911",
          "name": "Jingjing Wei"
        },
        {
          "authorId": "2352552",
          "name": "Chaokun Yan"
        },
        {
          "authorId": "40502830",
          "name": "Huimin Luo"
        }
      ]
    },
    {
      "paperId": "dee35d2beb684eb568add7372e5ce919cc8224fb",
      "externalIds": {
        "DBLP": "journals/tgrs/ZhaoL23",
        "DOI": "10.1109/TGRS.2023.3267070",
        "CorpusId": 258166170
      },
      "url": "https://www.semanticscholar.org/paper/dee35d2beb684eb568add7372e5ce919cc8224fb",
      "title": "Deep Spectral Clustering With Regularized Linear Embedding for Hyperspectral Image Clustering",
      "venue": "IEEE Transactions on Geoscience and Remote Sensing",
      "year": 2023,
      "referenceCount": 39,
      "citationCount": 25,
      "authors": [
        {
          "authorId": "145940718",
          "name": "Yang Zhao"
        },
        {
          "authorId": "2136118646",
          "name": "Xuelong Li"
        }
      ]
    },
    {
      "paperId": "b0a7caadb207abc21e1f1713c1fc6760f4d3528a",
      "externalIds": {
        "DOI": "10.3389/fenrg.2024.1294453",
        "CorpusId": 268939820
      },
      "url": "https://www.semanticscholar.org/paper/b0a7caadb207abc21e1f1713c1fc6760f4d3528a",
      "title": "Research on electric vehicle charging load prediction method based on spectral clustering and deep learning network",
      "venue": "Frontiers in Energy Research",
      "year": 2024,
      "referenceCount": 24,
      "citationCount": 19,
      "authors": [
        {
          "authorId": "2295208505",
          "name": "Fang Xin"
        },
        {
          "authorId": "2295285975",
          "name": "Xie Yang"
        },
        {
          "authorId": "2309211474",
          "name": "Beibei Wang"
        },
        {
          "authorId": "2295217208",
          "name": "Ruilin Xu"
        },
        {
          "authorId": "92946328",
          "name": "Mei Fei"
        },
        {
          "authorId": "2247405768",
          "name": "Jianyong Zheng"
        }
      ]
    },
    {
      "paperId": "87dd880db996a72fd4ae7146b7185cd812d772a6",
      "externalIds": {
        "DOI": "10.11159/eee25.123",
        "CorpusId": 281187727
      },
      "url": "https://www.semanticscholar.org/paper/87dd880db996a72fd4ae7146b7185cd812d772a6",
      "title": "Multi-Step Controlled Islanding of Transmission Power Systems Using Constrained Spectral Clustering and Deep Learning Assistance",
      "venue": "World Congress on Electrical Engineering and Computer Systems and Science",
      "year": 2025,
      "referenceCount": 0,
      "citationCount": 0,
      "authors": [
        {
          "authorId": "2320931274",
          "name": "Aya Hage Chehade"
        },
        {
          "authorId": "11000075",
          "name": "Mohammed Abdallatif"
        },
        {
          "authorId": "2208475793",
          "name": "Jürgen Götze"
        }
      ]
    }
  ]
}