{
  "total": 112,
  "offset": 0,
  "next": 10,
  "data": [
    {
      "paperId": "c2280e7b4391748ef6decdb16b07cfe68a68d685",
      "externalIds": {
        "DBLP": "journals/corr/HuMTMS17",
        "ArXiv": "1702.08720",
        "MAG": "2950365520",
        "CorpusId": 2853246
      },
      "url": "https://www.semanticscholar.org/paper/c2280e7b4391748ef6decdb16b07cfe68a68d685",
      "title": "Learning Discrete Representations via Information Maximizing Self-Augmented Training",
      "venue": "International Conference on Machine Learning",
      "year": 2017,
      "referenceCount": 63,
      "citationCount": 489,
      "authors": [
        {
          "authorId": "48594758",
          "name": "Weihua Hu"
        },
        {
          "authorId": "3213400",
          "name": "Takeru Miyato"
        },
        {
          "authorId": "3117618",
          "name": "Seiya Tokui"
        },
        {
          "authorId": "8252749",
          "name": "Eiichi Matsumoto"
        },
        {
          "authorId": "67154907",
          "name": "Masashi Sugiyama"
        }
      ]
    },
    {
      "paperId": "45628c5135b5dc4bc56a9daa5bc85b0435b7421c",
      "externalIds": {
        "DBLP": "journals/corr/abs-2506-06682",
        "ArXiv": "2506.06682",
        "DOI": "10.48550/arXiv.2506.06682",
        "CorpusId": 279251107
      },
      "url": "https://www.semanticscholar.org/paper/45628c5135b5dc4bc56a9daa5bc85b0435b7421c",
      "title": "Learning Robust Heterogeneous Graph Representations via Contrastive-Reconstruction under Sparse Semantics",
      "venue": "arXiv.org",
      "year": 2025,
      "referenceCount": 35,
      "citationCount": 0,
      "authors": [
        {
          "authorId": "2368546255",
          "name": "Di Lin"
        },
        {
          "authorId": "2366572372",
          "name": "Wanjing Ren"
        },
        {
          "authorId": "2366157877",
          "name": "Xuanbin Li"
        },
        {
          "authorId": "2366142594",
          "name": "Rui Zhang"
        }
      ]
    },
    {
      "paperId": "b83d184fa6c2ac43d7aa9b34e929abbdcddfed71",
      "externalIds": {
        "DBLP": "conf/icip/KimK23a",
        "DOI": "10.1109/ICIP49359.2023.10222633",
        "CorpusId": 261779858
      },
      "url": "https://www.semanticscholar.org/paper/b83d184fa6c2ac43d7aa9b34e929abbdcddfed71",
      "title": "Adding Distance Information to Self-Supervised Learning for rich Representations",
      "venue": "International Conference on Information Photonics",
      "year": 2023,
      "referenceCount": 32,
      "citationCount": 0,
      "authors": [
        {
          "authorId": "2378867794",
          "name": "Yejin Kim"
        },
        {
          "authorId": "2240091649",
          "name": "Bai-Sun Kong"
        }
      ]
    },
    {
      "paperId": "768a08ba292c25e2d2efac40eaaee31cfae76735",
      "externalIds": {
        "DBLP": "conf/sigir/WangSXYXT25",
        "DOI": "10.1145/3726302.3729968",
        "CorpusId": 280057308
      },
      "url": "https://www.semanticscholar.org/paper/768a08ba292c25e2d2efac40eaaee31cfae76735",
      "title": "Enhancing Homophily in Heterogeneous Graph Contrastive Learning via Connection Strength and Multi-view Self-Expression",
      "venue": "Annual International ACM SIGIR Conference on Research and Development in Information Retrieval",
      "year": 2025,
      "referenceCount": 40,
      "citationCount": 2,
      "authors": [
        {
          "authorId": "2108911709",
          "name": "Haosen Wang"
        },
        {
          "authorId": "2261284011",
          "name": "Chenglong Shi"
        },
        {
          "authorId": "2278254189",
          "name": "Can Xu"
        },
        {
          "authorId": "2342076369",
          "name": "Surong Yan"
        },
        {
          "authorId": "2273430412",
          "name": "Rong Xie"
        },
        {
          "authorId": "2221525824",
          "name": "Pan Tang"
        }
      ]
    },
    {
      "paperId": "e22c9eddb89eb8e1a3c672a4db3871c0e982d00a",
      "externalIds": {
        "DBLP": "journals/corr/abs-2601-21255",
        "ArXiv": "2601.21255",
        "DOI": "10.48550/arXiv.2601.21255",
        "CorpusId": 285140782
      },
      "url": "https://www.semanticscholar.org/paper/e22c9eddb89eb8e1a3c672a4db3871c0e982d00a",
      "title": "Hypersolid: Emergent Vision Representations via Short-Range Repulsion",
      "venue": "arXiv.org",
      "year": 2026,
      "referenceCount": 18,
      "citationCount": 0,
      "authors": [
        {
          "authorId": "1654094640",
          "name": "Esteban Rodríguez Betancourt"
        },
        {
          "authorId": "2244660965",
          "name": "Edgar Casasola-Murillo"
        }
      ]
    },
    {
      "paperId": "b0c41bf32e8b03deb95f81531fc915bce494c7c8",
      "externalIds": {
        "DBLP": "journals/corr/abs-2512-13770",
        "ArXiv": "2512.13770",
        "DOI": "10.48550/arXiv.2512.13770",
        "CorpusId": 283909140
      },
      "url": "https://www.semanticscholar.org/paper/b0c41bf32e8b03deb95f81531fc915bce494c7c8",
      "title": "Enhancing Semi-Supervised Multi-View Graph Convolutional Networks via Supervised Contrastive Learning and Self-Training",
      "venue": "arXiv.org",
      "year": 2025,
      "referenceCount": 45,
      "citationCount": 0,
      "authors": [
        {
          "authorId": "2345357746",
          "name": "H. Xiao"
        },
        {
          "authorId": "2335915489",
          "name": "F. Dornaika"
        },
        {
          "authorId": "2270477824",
          "name": "J. Bi"
        }
      ]
    },
    {
      "paperId": "ea061b3f9551abe079d83ac89b686acd7da9cacb",
      "externalIds": {
        "DBLP": "journals/corr/abs-2508-15225",
        "ArXiv": "2508.15225",
        "DOI": "10.1109/BHI67747.2025.11269529",
        "CorpusId": 280699956
      },
      "url": "https://www.semanticscholar.org/paper/ea061b3f9551abe079d83ac89b686acd7da9cacb",
      "title": "Learning ECG Representations via Poly-Window Contrastive Learning",
      "venue": "2025 IEEE EMBS International Conference on Biomedical and Health Informatics (BHI)",
      "year": 2025,
      "referenceCount": 26,
      "citationCount": 1,
      "authors": [
        {
          "authorId": "2376460652",
          "name": "Yi Yuan"
        },
        {
          "authorId": "2376393559",
          "name": "Joseph Van Duyn"
        },
        {
          "authorId": "2298043599",
          "name": "Runze Yan"
        },
        {
          "authorId": "2376416734",
          "name": "Zhuoyi Huang"
        },
        {
          "authorId": "37813096",
          "name": "Sulaiman Vesal"
        },
        {
          "authorId": "2371136384",
          "name": "Sergey M. Plis"
        },
        {
          "authorId": "2349298777",
          "name": "Xiao Hu"
        },
        {
          "authorId": "2350815572",
          "name": "Gloria Hyunjung Kwak"
        },
        {
          "authorId": "2370650499",
          "name": "Ran Xiao"
        },
        {
          "authorId": "2301214178",
          "name": "Alex Fedorov"
        }
      ]
    },
    {
      "paperId": "a93a71de416b1b3a3793b38ebd28364d2af26244",
      "externalIds": {
        "DBLP": "journals/symmetry/GuZZZLY22",
        "DOI": "10.3390/sym14040657",
        "CorpusId": 247729412
      },
      "url": "https://www.semanticscholar.org/paper/a93a71de416b1b3a3793b38ebd28364d2af26244",
      "title": "Self-Supervised Graph Representation Learning via Information Bottleneck",
      "venue": "Symmetry",
      "year": 2022,
      "referenceCount": 10,
      "citationCount": 4,
      "authors": [
        {
          "authorId": "6413344",
          "name": "Junhua Gu"
        },
        {
          "authorId": "9197345",
          "name": "Zichen Zheng"
        },
        {
          "authorId": "2160390715",
          "name": "Wenmiao Zhou"
        },
        {
          "authorId": "1591122272",
          "name": "Yajuan Zhang"
        },
        {
          "authorId": "1791440710",
          "name": "Zhengjun Lu"
        },
        {
          "authorId": "2143921529",
          "name": "Liang Yang"
        }
      ]
    },
    {
      "paperId": "fb328305d9065db6e1c5344a42b92823d4dc6b08",
      "externalIds": {
        "DBLP": "journals/corr/abs-2410-06993",
        "ArXiv": "2410.06993",
        "DOI": "10.48550/arXiv.2410.06993",
        "CorpusId": 273229287
      },
      "url": "https://www.semanticscholar.org/paper/fb328305d9065db6e1c5344a42b92823d4dc6b08",
      "title": "Efficient Distribution Matching of Representations via Noise-Injected Deep InfoMax",
      "venue": "arXiv.org",
      "year": 2024,
      "referenceCount": 71,
      "citationCount": 3,
      "authors": [
        {
          "authorId": "2113656433",
          "name": "I. Butakov"
        },
        {
          "authorId": "2360599973",
          "name": "Alexander Semenenko"
        },
        {
          "authorId": "2360599676",
          "name": "A. Tolmachev"
        },
        {
          "authorId": "2325065464",
          "name": "Andrey Gladkov"
        },
        {
          "authorId": "2325095724",
          "name": "Marina Munkhoeva"
        },
        {
          "authorId": "2290009881",
          "name": "Alexey A. Frolov"
        }
      ]
    },
    {
      "paperId": "607d6e0573d9147a26c134d59fdb323890a8c2b5",
      "externalIds": {
        "DBLP": "conf/nips/LeeLLLS21",
        "ArXiv": "2111.09613",
        "CorpusId": 244345894
      },
      "url": "https://www.semanticscholar.org/paper/607d6e0573d9147a26c134d59fdb323890a8c2b5",
      "title": "Improving Transferability of Representations via Augmentation-Aware Self-Supervision",
      "venue": "Neural Information Processing Systems",
      "year": 2021,
      "referenceCount": 65,
      "citationCount": 62,
      "authors": [
        {
          "authorId": "51122345",
          "name": "Hankook Lee"
        },
        {
          "authorId": "2208511",
          "name": "Kibok Lee"
        },
        {
          "authorId": "3436470",
          "name": "Kimin Lee"
        },
        {
          "authorId": "2118338545",
          "name": "Honglak Lee"
        },
        {
          "authorId": "143720148",
          "name": "Jinwoo Shin"
        }
      ]
    }
  ]
}