{
  "total": 20,
  "offset": 0,
  "next": 10,
  "data": [
    {
      "paperId": "dd97a44fdc5923d1d3fd9d7c3dc300fb6f4f04ed",
      "externalIds": {
        "MAG": "2804682296",
        "DBLP": "conf/icml/GaoCL18",
        "CorpusId": 49419207
      },
      "url": "https://www.semanticscholar.org/paper/dd97a44fdc5923d1d3fd9d7c3dc300fb6f4f04ed",
      "title": "Spotlight: Optimizing Device Placement for Training Deep Neural Networks",
      "venue": "International Conference on Machine Learning",
      "year": 2018,
      "referenceCount": 22,
      "citationCount": 100,
      "authors": [
        {
          "authorId": "49657692",
          "name": "Yuanxiang Gao"
        },
        {
          "authorId": "2146027143",
          "name": "Li Chen"
        },
        {
          "authorId": "91269142",
          "name": "Baochun Li"
        }
      ]
    },
    {
      "paperId": "69d39cda7e4af71bcb47b37b22d97b54e9fe1f60",
      "externalIds": {
        "DOI": "10.1109/ICAIQSA64000.2024.10882399",
        "CorpusId": 276510703
      },
      "url": "https://www.semanticscholar.org/paper/69d39cda7e4af71bcb47b37b22d97b54e9fe1f60",
      "title": "Optimizing Mobile Advertising with Reinforcement Learning and Deep Neural Networks",
      "venue": "2024 International Conference on Artificial Intelligence and Quantum Computation-Based Sensor Application (ICAIQSA)",
      "year": 2024,
      "referenceCount": 20,
      "citationCount": 15,
      "authors": [
        {
          "authorId": "2327224072",
          "name": "Divya Nimma"
        },
        {
          "authorId": "2290094878",
          "name": "Chamandeep Kaur"
        },
        {
          "authorId": "39042396",
          "name": "Gunjan Chhabra"
        },
        {
          "authorId": "2305894563",
          "name": "V. Selvi"
        },
        {
          "authorId": "2346543087",
          "name": "Divya Tyagi"
        },
        {
          "authorId": "2301595261",
          "name": "A. Balakumar"
        }
      ]
    },
    {
      "paperId": "7d18f4de570994e8626a148d3a35730f4ca663bb",
      "externalIds": {
        "DBLP": "conf/ssci/DingCLZ20",
        "DOI": "10.1109/SSCI47803.2020.9308141",
        "CorpusId": 230994917
      },
      "url": "https://www.semanticscholar.org/paper/7d18f4de570994e8626a148d3a35730f4ca663bb",
      "title": "Device Placement Optimization for Deep Neural Networks via One-shot Model and Reinforcement Learning",
      "venue": "IEEE Symposium Series on Computational Intelligence",
      "year": 2020,
      "referenceCount": 24,
      "citationCount": 1,
      "authors": [
        {
          "authorId": "83352946",
          "name": "Zixiang Ding"
        },
        {
          "authorId": "47557528",
          "name": "Yaran Chen"
        },
        {
          "authorId": "145099446",
          "name": "Nannan Li"
        },
        {
          "authorId": "1699234",
          "name": "Dongbin Zhao"
        }
      ]
    },
    {
      "paperId": "a89cc91d5f5e8db8d32815aba64a0f3ca3f9fbbb",
      "externalIds": {
        "DBLP": "conf/icpp/XuZ0L23",
        "DOI": "10.1145/3605573.3605603",
        "CorpusId": 261707562
      },
      "url": "https://www.semanticscholar.org/paper/a89cc91d5f5e8db8d32815aba64a0f3ca3f9fbbb",
      "title": "Mercury: Fast and Optimal Device Placement for Large Deep Learning Models",
      "venue": "International Conference on Parallel Processing",
      "year": 2023,
      "referenceCount": 27,
      "citationCount": 2,
      "authors": [
        {
          "authorId": "2169543509",
          "name": "Hengwei Xu"
        },
        {
          "authorId": "2241500995",
          "name": "Pengyuan Zhou"
        },
        {
          "authorId": "2117711503",
          "name": "Haiyong Xie"
        },
        {
          "authorId": "2220696660",
          "name": "Yong Liao"
        }
      ]
    },
    {
      "paperId": "30b4dd28cec399fb3d4670c3026d55f3bd2b05dd",
      "externalIds": {
        "DBLP": "journals/ton/LuoBW24",
        "DOI": "10.1109/TNET.2024.3415089",
        "CorpusId": 273377468
      },
      "url": "https://www.semanticscholar.org/paper/30b4dd28cec399fb3d4670c3026d55f3bd2b05dd",
      "title": "Optimizing Task Placement and Online Scheduling for Distributed GNN Training Acceleration in Heterogeneous Systems",
      "venue": "IEEE/ACM Transactions on Networking",
      "year": 2024,
      "referenceCount": 60,
      "citationCount": 5,
      "authors": [
        {
          "authorId": "2114938624",
          "name": "Ziyue Luo"
        },
        {
          "authorId": "2075377391",
          "name": "Y. Bao"
        },
        {
          "authorId": "2298724698",
          "name": "Chuan Wu"
        }
      ]
    },
    {
      "paperId": "8e3b715d8ba39dcaad768635d25ead67daef0b92",
      "externalIds": {
        "DBLP": "conf/icpp/LanCL21",
        "DOI": "10.1145/3472456.3472523",
        "CorpusId": 236195242
      },
      "url": "https://www.semanticscholar.org/paper/8e3b715d8ba39dcaad768635d25ead67daef0b92",
      "title": "Accelerated Device Placement Optimization with Contrastive Learning",
      "venue": "International Conference on Parallel Processing",
      "year": 2021,
      "referenceCount": 33,
      "citationCount": 13,
      "authors": [
        {
          "authorId": "2057697969",
          "name": "Hao Lan"
        },
        {
          "authorId": "2146027143",
          "name": "Li Chen"
        },
        {
          "authorId": "91269142",
          "name": "Baochun Li"
        }
      ]
    },
    {
      "paperId": "b4370d57a535dae297d923ec86efd32f753bc567",
      "externalIds": {
        "DBLP": "conf/ipps/LanCL21",
        "DOI": "10.1109/IPDPS49936.2021.00068",
        "CorpusId": 235079087
      },
      "url": "https://www.semanticscholar.org/paper/b4370d57a535dae297d923ec86efd32f753bc567",
      "title": "EAGLE: Expedited Device Placement with Automatic Grouping for Large Models",
      "venue": "IEEE International Parallel and Distributed Processing Symposium",
      "year": 2021,
      "referenceCount": 26,
      "citationCount": 5,
      "authors": [
        {
          "authorId": "2105547066",
          "name": "Hao Lan"
        },
        {
          "authorId": "2146027143",
          "name": "Li Chen"
        },
        {
          "authorId": "91269142",
          "name": "Baochun Li"
        }
      ]
    },
    {
      "paperId": "ad8d42b72537e99e04344149c2eef3e3cd0afb84",
      "externalIds": {
        "CorpusId": 237948383
      },
      "url": "https://www.semanticscholar.org/paper/ad8d42b72537e99e04344149c2eef3e3cd0afb84",
      "title": "Accelerated Device Placement Optimization with Contrastive Learning",
      "venue": "",
      "year": 2021,
      "referenceCount": 33,
      "citationCount": 0,
      "authors": [
        {
          "authorId": "2105547066",
          "name": "Hao Lan"
        }
      ]
    },
    {
      "paperId": "0eed17e38d4241ddb2e0736f03c73d57f2e6bfb0",
      "externalIds": {
        "DBLP": "journals/corr/abs-2602-02439",
        "ArXiv": "2602.02439",
        "DOI": "10.48550/arXiv.2602.02439",
        "CorpusId": 285271469
      },
      "url": "https://www.semanticscholar.org/paper/0eed17e38d4241ddb2e0736f03c73d57f2e6bfb0",
      "title": "Energy-Efficient Neuromorphic Computing for Edge AI: A Framework with Adaptive Spiking Neural Networks and Hardware-Aware Optimization",
      "venue": "arXiv.org",
      "year": 2026,
      "referenceCount": 46,
      "citationCount": 0,
      "authors": [
        {
          "authorId": "2402729208",
          "name": "Olaf Yunus Laitinen Imanov"
        },
        {
          "authorId": "2405887071",
          "name": "Derya Umut Kulali"
        },
        {
          "authorId": "2405889965",
          "name": "Taner Yilmaz"
        },
        {
          "authorId": "2406991976",
          "name": "Duygu Erisken"
        },
        {
          "authorId": "2406992860",
          "name": "Rana Irem Turhan"
        }
      ]
    },
    {
      "paperId": "766def602660f6eaa64880afc97e43103af7137d",
      "externalIds": {
        "DBLP": "conf/dac/GusmaoH0021",
        "DOI": "10.1109/dac18074.2021.9586177",
        "CorpusId": 243919169
      },
      "url": "https://www.semanticscholar.org/paper/766def602660f6eaa64880afc97e43103af7137d",
      "title": "Late Breaking Results: Attention in Graph2Seq Neural Networks towards Push-Button Analog IC Placement",
      "venue": "Design Automation Conference",
      "year": 2021,
      "referenceCount": 0,
      "citationCount": 6,
      "authors": [
        {
          "authorId": "2063966434",
          "name": "António Gusmão"
        },
        {
          "authorId": "1678956",
          "name": "N. Horta"
        },
        {
          "authorId": "144389200",
          "name": "N. Lourenço"
        },
        {
          "authorId": "144264776",
          "name": "R. Martins"
        }
      ]
    }
  ]
}