{
  "total": 1166415,
  "offset": 0,
  "next": 10,
  "data": [
    {
      "paperId": "956ec1080e779d407bd51af07e87efdce1f08f6b",
      "externalIds": {
        "MAG": "2131127051",
        "DBLP": "conf/icml/SteinhardtL15",
        "ArXiv": "1502.06665",
        "CorpusId": 909114
      },
      "url": "https://www.semanticscholar.org/paper/956ec1080e779d407bd51af07e87efdce1f08f6b",
      "title": "Reified Context Models",
      "venue": "International Conference on Machine Learning",
      "year": 2015,
      "referenceCount": 50,
      "citationCount": 4,
      "authors": [
        {
          "authorId": "5164568",
          "name": "J. Steinhardt"
        },
        {
          "authorId": "145419642",
          "name": "Percy Liang"
        }
      ]
    },
    {
      "paperId": "3e06e7694b2fec49fbdd3c2044122d3626bd8351",
      "externalIds": {
        "DBLP": "journals/corr/abs-2512-19117",
        "ArXiv": "2512.19117",
        "DOI": "10.48550/arXiv.2512.19117",
        "CorpusId": 284078203
      },
      "url": "https://www.semanticscholar.org/paper/3e06e7694b2fec49fbdd3c2044122d3626bd8351",
      "title": "Stop saying LLM: Large Discourse Models (LDM) and Artificial Discursive Agent (ADA)?",
      "venue": "arXiv.org",
      "year": 2025,
      "referenceCount": 11,
      "citationCount": 0,
      "authors": [
        {
          "authorId": "2078992671",
          "name": "Amar Lakel"
        }
      ]
    },
    {
      "paperId": "1d292052b46559ce1a818a64311eb99bf58c97d1",
      "externalIds": {
        "MAG": "2989418308",
        "DOI": "10.1007/978-3-030-31445-3_5",
        "CorpusId": 209100313
      },
      "url": "https://www.semanticscholar.org/paper/1d292052b46559ce1a818a64311eb99bf58c97d1",
      "title": "A Reified Network Model for Adaptive Decision Making Based on the Disconnect-Reconnect Adaptation Principle",
      "venue": "Network-Oriented Modeling for Adaptive Networks: Designing Higher-Order Adaptive Biological, Mental and Social Network Models",
      "year": 2019,
      "referenceCount": 17,
      "citationCount": 0,
      "authors": [
        {
          "authorId": "1726343",
          "name": "Jan Treur"
        }
      ]
    },
    {
      "paperId": "a46d53f501aa6f22138078e8f1620130fd5a2217",
      "externalIds": {
        "ArXiv": "2509.00837",
        "DBLP": "journals/corr/abs-2509-00837",
        "DOI": "10.48550/arXiv.2509.00837",
        "CorpusId": 281080930
      },
      "url": "https://www.semanticscholar.org/paper/a46d53f501aa6f22138078e8f1620130fd5a2217",
      "title": "Computational Exploration of Finite Semigroupoids",
      "venue": "arXiv.org",
      "year": 2025,
      "referenceCount": 23,
      "citationCount": 1,
      "authors": [
        {
          "authorId": "1395822068",
          "name": "A. Egri-Nagy"
        },
        {
          "authorId": "1718528",
          "name": "Chrystopher L. Nehaniv"
        }
      ]
    },
    {
      "paperId": "50856538424c5c119d679de3a910201f18320219",
      "externalIds": {
        "DOI": "10.63175/tjts.63",
        "CorpusId": 285246932
      },
      "url": "https://www.semanticscholar.org/paper/50856538424c5c119d679de3a910201f18320219",
      "title": "Rethinking the Pathologization of Trauma: A Functional Contextual Perspective on Conceptual and Clinical Implications",
      "venue": "Turkish Journal of Traumatic Stress",
      "year": 2026,
      "referenceCount": 9,
      "citationCount": 0,
      "authors": [
        {
          "authorId": "33153155",
          "name": "K. F. Yavuz"
        }
      ]
    },
    {
      "paperId": "1d1ca138dc2320452b1d30ccef023adb45bde7f8",
      "externalIds": {
        "MAG": "2508796247",
        "DOI": "10.1057/978-1-349-69568-3_2",
        "CorpusId": 151596577
      },
      "url": "https://www.semanticscholar.org/paper/1d1ca138dc2320452b1d30ccef023adb45bde7f8",
      "title": "Notions of Space in Context",
      "venue": "",
      "year": 2016,
      "referenceCount": 33,
      "citationCount": 0,
      "authors": [
        {
          "authorId": "145306551",
          "name": "Martina Löw"
        }
      ]
    },
    {
      "paperId": "1d81dc84761027783f53d876d59b6856d681ec14",
      "externalIds": {
        "DOI": "10.1080/0950236X.2024.2417073",
        "CorpusId": 273629524
      },
      "url": "https://www.semanticscholar.org/paper/1d81dc84761027783f53d876d59b6856d681ec14",
      "title": "Autofiction and the possibility of life in neoliberal ruins: reification, friction and the affective dominant in Weijers and Heti",
      "venue": "Textual Practice",
      "year": 2024,
      "referenceCount": 27,
      "citationCount": 0,
      "authors": [
        {
          "authorId": "2075495324",
          "name": "Hans Demeyer"
        },
        {
          "authorId": "2104911771",
          "name": "Sven Vitse"
        }
      ]
    },
    {
      "paperId": "cdfc58ae840f8550cf2bcbdda68a4338efc0ca8a",
      "externalIds": {
        "MAG": "2821003704",
        "DOI": "10.1080/1523908X.2018.1493916",
        "CorpusId": 158572437
      },
      "url": "https://www.semanticscholar.org/paper/cdfc58ae840f8550cf2bcbdda68a4338efc0ca8a",
      "title": "Learning pathways and the governance of innovations in urban climate change resilience and adaptation",
      "venue": "Journal of Environmental Policy and Planning",
      "year": 2018,
      "referenceCount": 71,
      "citationCount": 68,
      "authors": [
        {
          "authorId": "123751193",
          "name": "Ryan Bellinson"
        },
        {
          "authorId": "48135617",
          "name": "E. Chu"
        }
      ]
    },
    {
      "paperId": "230a2db7da214349340e53704ae757a5e6a89fff",
      "externalIds": {
        "DBLP": "journals/sosym/GuizzardiSAP22",
        "PubMedCentral": "8442656",
        "DOI": "10.1007/s10270-021-00919-5",
        "CorpusId": 237533193,
        "PubMed": "34539311"
      },
      "url": "https://www.semanticscholar.org/paper/230a2db7da214349340e53704ae757a5e6a89fff",
      "title": "Automated conceptual model clustering: a relator-centric approach",
      "venue": "Journal of Software and Systems Modeling",
      "year": 2021,
      "referenceCount": 67,
      "citationCount": 20,
      "authors": [
        {
          "authorId": "1732239",
          "name": "G. Guizzardi"
        },
        {
          "authorId": "1937761",
          "name": "T. P. Sales"
        },
        {
          "authorId": "1760022",
          "name": "J. P. Almeida"
        },
        {
          "authorId": "103604492",
          "name": "G. Poels"
        }
      ]
    },
    {
      "paperId": "cb7b3fde729ef96a14eda51afee950f77a774d73",
      "externalIds": {
        "DBLP": "conf/ifip8-1/GuizzardiSAP20",
        "MAG": "3102588535",
        "DOI": "10.1007/978-3-030-63479-7_15",
        "CorpusId": 227061609
      },
      "url": "https://www.semanticscholar.org/paper/cb7b3fde729ef96a14eda51afee950f77a774d73",
      "title": "Relational Contexts and Conceptual Model Clustering",
      "venue": "The Practice of Enterprise Modeling",
      "year": 2020,
      "referenceCount": 29,
      "citationCount": 2,
      "authors": [
        {
          "authorId": "1732239",
          "name": "G. Guizzardi"
        },
        {
          "authorId": "1937761",
          "name": "T. P. Sales"
        },
        {
          "authorId": "1760022",
          "name": "J. P. Almeida"
        },
        {
          "authorId": "103604492",
          "name": "G. Poels"
        }
      ]
    }
  ]
}