{
  "total": 12563,
  "offset": 0,
  "next": 10,
  "data": [
    {
      "paperId": "7340f090f8a0df5b109682e9f6d57e4b8ca1a2f7",
      "externalIds": {
        "ArXiv": "1502.02791",
        "DBLP": "journals/corr/Long015",
        "MAG": "2951670162",
        "CorpusId": 556999
      },
      "url": "https://www.semanticscholar.org/paper/7340f090f8a0df5b109682e9f6d57e4b8ca1a2f7",
      "title": "Learning Transferable Features with Deep Adaptation Networks",
      "venue": "International Conference on Machine Learning",
      "year": 2015,
      "referenceCount": 36,
      "citationCount": 5827,
      "authors": [
        {
          "authorId": "35776445",
          "name": "Mingsheng Long"
        },
        {
          "authorId": "2146174097",
          "name": "Yue Cao"
        },
        {
          "authorId": "2144499343",
          "name": "Jianmin Wang"
        },
        {
          "authorId": "1694621",
          "name": "Michael I. Jordan"
        }
      ]
    },
    {
      "paperId": "83d410601e3d55fab285926882828a48e23b97e4",
      "externalIds": {
        "DBLP": "journals/pami/LongCCWJ19",
        "MAG": "2889945482",
        "DOI": "10.1109/TPAMI.2018.2868685",
        "CorpusId": 52169381,
        "PubMed": "30188813"
      },
      "url": "https://www.semanticscholar.org/paper/83d410601e3d55fab285926882828a48e23b97e4",
      "title": "Transferable Representation Learning with Deep Adaptation Networks",
      "venue": "IEEE Transactions on Pattern Analysis and Machine Intelligence",
      "year": 2019,
      "referenceCount": 62,
      "citationCount": 617,
      "authors": [
        {
          "authorId": "35776445",
          "name": "Mingsheng Long"
        },
        {
          "authorId": null,
          "name": "Yue Cao"
        },
        {
          "authorId": "3451430",
          "name": "Zhangjie Cao"
        },
        {
          "authorId": "2144499343",
          "name": "Jianmin Wang"
        },
        {
          "authorId": "1694621",
          "name": "Michael I. Jordan"
        }
      ]
    },
    {
      "paperId": "ae9e5e72aefd19b81c1fe75d7baf6c0bedad75e5",
      "externalIds": {
        "MAG": "2408201877",
        "DBLP": "conf/icml/LongZ0J17",
        "ArXiv": "1605.06636",
        "CorpusId": 12757870
      },
      "url": "https://www.semanticscholar.org/paper/ae9e5e72aefd19b81c1fe75d7baf6c0bedad75e5",
      "title": "Deep Transfer Learning with Joint Adaptation Networks",
      "venue": "International Conference on Machine Learning",
      "year": 2016,
      "referenceCount": 46,
      "citationCount": 2721,
      "authors": [
        {
          "authorId": "35776445",
          "name": "Mingsheng Long"
        },
        {
          "authorId": "1485919236",
          "name": "Hanhua Zhu"
        },
        {
          "authorId": "2144499343",
          "name": "Jianmin Wang"
        },
        {
          "authorId": "1694621",
          "name": "Michael I. Jordan"
        }
      ]
    },
    {
      "paperId": "7c0957376b129ec5c82fd35c5d7282e151ed1ccb",
      "externalIds": {
        "DBLP": "journals/irjocs/Bulugu25",
        "DOI": "10.1007/s42044-025-00274-4",
        "CorpusId": 278920606
      },
      "url": "https://www.semanticscholar.org/paper/7c0957376b129ec5c82fd35c5d7282e151ed1ccb",
      "title": "Plant leaf disease recognition using deep dynamic joint adaptation networks based on partially labeled data",
      "venue": "Iran Journal of Computer Science",
      "year": 2025,
      "referenceCount": 36,
      "citationCount": 1,
      "authors": [
        {
          "authorId": "10726901",
          "name": "Isack E. Bulugu"
        }
      ]
    },
    {
      "paperId": "5be9922a7ee1d18bd4954d83c39df723d6d3b1e7",
      "externalIds": {
        "MAG": "2897156658",
        "DBLP": "conf/ijcnn/ZuinCV18",
        "DOI": "10.1109/IJCNN.2018.8489057",
        "CorpusId": 52986974
      },
      "url": "https://www.semanticscholar.org/paper/5be9922a7ee1d18bd4954d83c39df723d6d3b1e7",
      "title": "Learning Transferable Features For Open-Domain Question Answering",
      "venue": "IEEE International Joint Conference on Neural Network",
      "year": 2018,
      "referenceCount": 32,
      "citationCount": 8,
      "authors": [
        {
          "authorId": "8460944",
          "name": "Gianlucca L. Zuin"
        },
        {
          "authorId": "1687688",
          "name": "Luiz Chaimowicz"
        },
        {
          "authorId": "1685147",
          "name": "Adriano Veloso"
        }
      ]
    },
    {
      "paperId": "95cdda50982467d7b316c389daf3b1148a624d0b",
      "externalIds": {
        "DBLP": "journals/tip/HanSY22",
        "ArXiv": "2108.06129",
        "DOI": "10.1109/TIP.2022.3184848",
        "CorpusId": 237048446,
        "PubMed": "35759596"
      },
      "url": "https://www.semanticscholar.org/paper/95cdda50982467d7b316c389daf3b1148a624d0b",
      "title": "Learning Transferable Parameters for Unsupervised Domain Adaptation",
      "venue": "IEEE Transactions on Image Processing",
      "year": 2021,
      "referenceCount": 57,
      "citationCount": 66,
      "authors": [
        {
          "authorId": "1382646197",
          "name": "Zhongyi Han"
        },
        {
          "authorId": "2776765",
          "name": "Haoliang Sun"
        },
        {
          "authorId": "102446355",
          "name": "Yilong Yin"
        }
      ]
    },
    {
      "paperId": "d171878daf0aefca115774ea580d659494ebd587",
      "externalIds": {
        "MAG": "2525205678",
        "DBLP": "conf/miccai/ShenZYDYZT16",
        "DOI": "10.1007/978-3-319-46723-8_15",
        "CorpusId": 32656862
      },
      "url": "https://www.semanticscholar.org/paper/d171878daf0aefca115774ea580d659494ebd587",
      "title": "Learning from Experts: Developing Transferable Deep Features for Patient-Level Lung Cancer Prediction",
      "venue": "International Conference on Medical Image Computing and Computer-Assisted Intervention",
      "year": 2016,
      "referenceCount": 11,
      "citationCount": 70,
      "authors": [
        {
          "authorId": "2117226430",
          "name": "Wei Shen"
        },
        {
          "authorId": "48993866",
          "name": "Mu Zhou"
        },
        {
          "authorId": "2108022799",
          "name": "Feng Yang"
        },
        {
          "authorId": "144548413",
          "name": "D. Dong"
        },
        {
          "authorId": "2115994352",
          "name": "Caiyun Yang"
        },
        {
          "authorId": "34879720",
          "name": "Yali Zang"
        },
        {
          "authorId": "145883431",
          "name": "Jie Tian"
        }
      ]
    },
    {
      "paperId": "a112238efe82f1ea41b9a3c0a512adcd438531d9",
      "externalIds": {
        "DBLP": "journals/nn/JingLLZY20",
        "MAG": "3038128309",
        "DOI": "10.1016/j.neunet.2020.06.016",
        "CorpusId": 220335943,
        "PubMed": "32619795"
      },
      "url": "https://www.semanticscholar.org/paper/a112238efe82f1ea41b9a3c0a512adcd438531d9",
      "title": "Learning explicitly transferable representations for domain adaptation",
      "venue": "Neural Networks",
      "year": 2020,
      "referenceCount": 20,
      "citationCount": 21,
      "authors": [
        {
          "authorId": "151490323",
          "name": "Mengmeng Jing"
        },
        {
          "authorId": "31115284",
          "name": "Jingjing Li"
        },
        {
          "authorId": "1655484744",
          "name": "Ke Lu"
        },
        {
          "authorId": "152366931",
          "name": "Lei Zhu"
        },
        {
          "authorId": "2152283122",
          "name": "Yang Yang"
        }
      ]
    },
    {
      "paperId": "4eafa55f58b917896751afd6d1cd735f1705743f",
      "externalIds": {
        "MAG": "2904549000",
        "DBLP": "conf/aaai/ShuCLW19",
        "DOI": "10.1609/AAAI.V33I01.33014951",
        "CorpusId": 69357784
      },
      "url": "https://www.semanticscholar.org/paper/4eafa55f58b917896751afd6d1cd735f1705743f",
      "title": "Transferable Curriculum for Weakly-Supervised Domain Adaptation",
      "venue": "AAAI Conference on Artificial Intelligence",
      "year": 2019,
      "referenceCount": 47,
      "citationCount": 114,
      "authors": [
        {
          "authorId": "2066476988",
          "name": "Yang Shu"
        },
        {
          "authorId": "3451430",
          "name": "Zhangjie Cao"
        },
        {
          "authorId": "35776445",
          "name": "Mingsheng Long"
        },
        {
          "authorId": "2144499343",
          "name": "Jianmin Wang"
        }
      ]
    },
    {
      "paperId": "a5a08da9a451f8b86ce32a00bafcaa2a1f3def4b",
      "externalIds": {
        "MAG": "2771358947",
        "DBLP": "conf/icdm/HuangYH17",
        "DOI": "10.1109/ICDM.2017.115",
        "CorpusId": 6775236
      },
      "url": "https://www.semanticscholar.org/paper/a5a08da9a451f8b86ce32a00bafcaa2a1f3def4b",
      "title": "A Self-Paced Category-Aware Approach for Unsupervised Adaptation Networks",
      "venue": "Industrial Conference on Data Mining",
      "year": 2017,
      "referenceCount": 20,
      "citationCount": 2,
      "authors": [
        {
          "authorId": "2564033",
          "name": "Wenzhen Huang"
        },
        {
          "authorId": "145655470",
          "name": "Peipei Yang"
        },
        {
          "authorId": "2887871",
          "name": "Kaiqi Huang"
        }
      ]
    }
  ]
}