{
  "total": 13,
  "offset": 0,
  "next": 10,
  "data": [
    {
      "paperId": "c46b08850b9c458704a3ca69172e6a0d40a6cb7f",
      "externalIds": {
        "MAG": "2951157758",
        "DBLP": "journals/corr/HongYKH15",
        "ArXiv": "1502.06796",
        "CorpusId": 7993679
      },
      "url": "https://www.semanticscholar.org/paper/c46b08850b9c458704a3ca69172e6a0d40a6cb7f",
      "title": "Online Tracking by Learning Discriminative Saliency Map with Convolutional Neural Network",
      "venue": "International Conference on Machine Learning",
      "year": 2015,
      "referenceCount": 44,
      "citationCount": 850,
      "authors": [
        {
          "authorId": "2241528",
          "name": "Seunghoon Hong"
        },
        {
          "authorId": "2205770",
          "name": "Tackgeun You"
        },
        {
          "authorId": "2483916",
          "name": "Suha Kwak"
        },
        {
          "authorId": "40030651",
          "name": "Bohyung Han"
        }
      ]
    },
    {
      "paperId": "d9780f67ca0e004b6f8997fff4c5ac5ac64f0ef2",
      "externalIds": {
        "CorpusId": 265038045
      },
      "url": "https://www.semanticscholar.org/paper/d9780f67ca0e004b6f8997fff4c5ac5ac64f0ef2",
      "title": "Online Tracking by Learning Discriminative Saliency Map with Convolutional Neural Network Supplementary Material",
      "venue": "",
      "year": 2015,
      "referenceCount": 0,
      "citationCount": 0,
      "authors": []
    },
    {
      "paperId": "c2046fc4744a9d358ea7a8e9c21c92fd58df7a64",
      "externalIds": {
        "MAG": "2949764466",
        "ArXiv": "1708.00225",
        "DBLP": "conf/iccv/SongMGZL017",
        "DOI": "10.1109/ICCV.2017.279",
        "CorpusId": 1713491
      },
      "url": "https://www.semanticscholar.org/paper/c2046fc4744a9d358ea7a8e9c21c92fd58df7a64",
      "title": "CREST: Convolutional Residual Learning for Visual Tracking",
      "venue": "IEEE International Conference on Computer Vision",
      "year": 2017,
      "referenceCount": 50,
      "citationCount": 501,
      "authors": [
        {
          "authorId": "2255687",
          "name": "Yibing Song"
        },
        {
          "authorId": "2109467167",
          "name": "Chao Ma"
        },
        {
          "authorId": "7668408",
          "name": "Lijun Gong"
        },
        {
          "authorId": "1519062623",
          "name": "Jiawei Zhang"
        },
        {
          "authorId": "1726262",
          "name": "Rynson W. H. Lau"
        },
        {
          "authorId": "1715634",
          "name": "Ming-Hsuan Yang"
        }
      ]
    },
    {
      "paperId": "75272d131929bd4dfab7beedc4d1b34647644181",
      "externalIds": {
        "DBLP": "journals/corr/abs-1802-07957",
        "ArXiv": "1802.07957",
        "MAG": "2990201021",
        "DOI": "10.1016/j.patcog.2019.107130",
        "CorpusId": 3473991
      },
      "url": "https://www.semanticscholar.org/paper/75272d131929bd4dfab7beedc4d1b34647644181",
      "title": "Non-rigid Object Tracking via Deep Multi-scale Spatial-Temporal Discriminative Saliency Maps",
      "venue": "Pattern Recognition",
      "year": 2018,
      "referenceCount": 116,
      "citationCount": 101,
      "authors": [
        {
          "authorId": "48754192",
          "name": "Pingping Zhang"
        },
        {
          "authorId": "40562844",
          "name": "D. Wang"
        },
        {
          "authorId": "153176123",
          "name": "Huchuan Lu"
        },
        {
          "authorId": "40356772",
          "name": "Hongyu Wang"
        }
      ]
    },
    {
      "paperId": "157173682fbc5eefce7588dfd871520fbdd4ae75",
      "externalIds": {
        "DBLP": "conf/icra/Duan0AK21",
        "DOI": "10.1109/ICRA48506.2021.9562065",
        "CorpusId": 239039465
      },
      "url": "https://www.semanticscholar.org/paper/157173682fbc5eefce7588dfd871520fbdd4ae75",
      "title": "Online Recommendation-based Convolutional Features for Scale-Aware Visual Tracking",
      "venue": "IEEE International Conference on Robotics and Automation",
      "year": 2021,
      "referenceCount": 30,
      "citationCount": 4,
      "authors": [
        {
          "authorId": "2070873942",
          "name": "Ran Duan"
        },
        {
          "authorId": "143639865",
          "name": "Changhong Fu"
        },
        {
          "authorId": "144332366",
          "name": "K. Alexis"
        },
        {
          "authorId": "144332507",
          "name": "Erdal Kayacan"
        }
      ]
    },
    {
      "paperId": "86a10eda9d7fd4b78edfe8a04c10ac54666f7172",
      "externalIds": {
        "PubMedCentral": "12894404",
        "DBLP": "journals/finr/YangSLS26",
        "DOI": "10.3389/fnbot.2026.1743288",
        "CorpusId": 285195678,
        "PubMed": "41696451"
      },
      "url": "https://www.semanticscholar.org/paper/86a10eda9d7fd4b78edfe8a04c10ac54666f7172",
      "title": "Motion feature extraction based on semi-supervised learning and long short-term memory network in digital dance",
      "venue": "Frontiers Neurorobotics",
      "year": 2026,
      "referenceCount": 42,
      "citationCount": 0,
      "authors": [
        {
          "authorId": "2145181311",
          "name": "Xue Yang"
        },
        {
          "authorId": "2408253496",
          "name": "Hanmin Sun"
        },
        {
          "authorId": "66000742",
          "name": "Yin Lyu"
        },
        {
          "authorId": "2409528250",
          "name": "Yang Sun"
        }
      ]
    },
    {
      "paperId": "f683af11e47ec7f04220811c05f527b19523b1de",
      "externalIds": {
        "MAG": "3159045755",
        "DOI": "10.1049/ELL2.12209",
        "CorpusId": 235535440
      },
      "url": "https://www.semanticscholar.org/paper/f683af11e47ec7f04220811c05f527b19523b1de",
      "title": "Aircraft tracking in infrared imagery with adaptive learning and interference suppression",
      "venue": "Electronics Letters",
      "year": 2021,
      "referenceCount": 17,
      "citationCount": 3,
      "authors": [
        {
          "authorId": "2112452663",
          "name": "Sijie Wu"
        },
        {
          "authorId": "2152981272",
          "name": "Kai Zhang"
        },
        {
          "authorId": "48831108",
          "name": "Shaoyi Li"
        },
        {
          "authorId": "2112298917",
          "name": "Jie Yan"
        }
      ]
    },
    {
      "paperId": "8c9043a50d95807c5d2d4e2e4e1c82a79a3e20a1",
      "externalIds": {
        "MAG": "2940320777",
        "DBLP": "conf/etra/LouedecGCV19",
        "ArXiv": "1904.08155",
        "DOI": "10.1145/3314111.3319827",
        "CorpusId": 118688325
      },
      "url": "https://www.semanticscholar.org/paper/8c9043a50d95807c5d2d4e2e4e1c82a79a3e20a1",
      "title": "Deep learning investigation for chess player attention prediction using eye-tracking and game data",
      "venue": "Eye Tracking Research & Application",
      "year": 2019,
      "referenceCount": 33,
      "citationCount": 19,
      "authors": [
        {
          "authorId": "102373436",
          "name": "Justin Le Louëdec"
        },
        {
          "authorId": "27568508",
          "name": "Thomas Guntz"
        },
        {
          "authorId": "145687022",
          "name": "J. Crowley"
        },
        {
          "authorId": "2903379",
          "name": "Dominique Vaufreydaz"
        }
      ]
    },
    {
      "paperId": "f31c3f8c8744e61e9142080787841d0e8465898d",
      "externalIds": {
        "DBLP": "journals/tip/WeiLLZYZ19",
        "MAG": "2943563866",
        "DOI": "10.1109/TIP.2019.2913513",
        "CorpusId": 146811722,
        "PubMed": "31059441"
      },
      "url": "https://www.semanticscholar.org/paper/f31c3f8c8744e61e9142080787841d0e8465898d",
      "title": "Saliency Inside: Learning Attentive CNNs for Content-Based Image Retrieval",
      "venue": "IEEE Transactions on Image Processing",
      "year": 2019,
      "referenceCount": 78,
      "citationCount": 60,
      "authors": [
        {
          "authorId": "46730712",
          "name": "Shikui Wei"
        },
        {
          "authorId": "2824995",
          "name": "Lixin Liao"
        },
        {
          "authorId": "49404071",
          "name": "Jia Li"
        },
        {
          "authorId": "27081045",
          "name": "Qinjie Zheng"
        },
        {
          "authorId": "2115412711",
          "name": "Fei Yang"
        },
        {
          "authorId": "1517826311",
          "name": "Yao Zhao"
        }
      ]
    },
    {
      "paperId": "2d7d58c2c1d3528988798cf7b6a406f60951f662",
      "externalIds": {
        "MAG": "3093357574",
        "DBLP": "journals/mta/QuanLZZZC21",
        "DOI": "10.1007/s11042-020-09852-z",
        "CorpusId": 225108345
      },
      "url": "https://www.semanticscholar.org/paper/2d7d58c2c1d3528988798cf7b6a406f60951f662",
      "title": "Visual tracking with multilayer filter fusion network",
      "venue": "Multimedia tools and applications",
      "year": 2020,
      "referenceCount": 47,
      "citationCount": 2,
      "authors": [
        {
          "authorId": "2089862124",
          "name": "W. Quan"
        },
        {
          "authorId": "8036732",
          "name": "Tianrui Li"
        },
        {
          "authorId": "2052883899",
          "name": "N. Zhou"
        },
        {
          "authorId": "2061561319",
          "name": "Dong Zou"
        },
        {
          "authorId": "2154840326",
          "name": "Weihua Zhang"
        },
        {
          "authorId": "1421235202",
          "name": "Jim X. Chen"
        }
      ]
    }
  ]
}