{
  "total": 58,
  "offset": 0,
  "next": 10,
  "data": [
    {
      "paperId": "8d9b48c0c50e06ccfef722ea6ac88c5000615534",
      "externalIds": {
        "ArXiv": "1806.04342",
        "MAG": "2963935808",
        "DBLP": "conf/icml/KeZSLTBPCP18",
        "CorpusId": 48362469
      },
      "url": "https://www.semanticscholar.org/paper/8d9b48c0c50e06ccfef722ea6ac88c5000615534",
      "title": "Focused Hierarchical RNNs for Conditional Sequence Processing",
      "venue": "International Conference on Machine Learning",
      "year": 2018,
      "referenceCount": 42,
      "citationCount": 25,
      "authors": [
        {
          "authorId": "145604319",
          "name": "Nan Rosemary Ke"
        },
        {
          "authorId": "7912420",
          "name": "Konrad Zolna"
        },
        {
          "authorId": "2041695",
          "name": "Alessandro Sordoni"
        },
        {
          "authorId": "3146592",
          "name": "Zhouhan Lin"
        },
        {
          "authorId": "3382568",
          "name": "Adam Trischler"
        },
        {
          "authorId": "1751762",
          "name": "Yoshua Bengio"
        },
        {
          "authorId": "145134886",
          "name": "Joelle Pineau"
        },
        {
          "authorId": "1778839",
          "name": "Laurent Charlin"
        },
        {
          "authorId": "1972076",
          "name": "C. Pal"
        }
      ]
    },
    {
      "paperId": "c65ee6d8c601befd4b077a1485cddf416d038ce7",
      "externalIds": {
        "DBLP": "journals/nn/ZhangXLZ26",
        "DOI": "10.1016/j.neunet.2025.108442",
        "CorpusId": 283763162,
        "PubMed": "41418559"
      },
      "url": "https://www.semanticscholar.org/paper/c65ee6d8c601befd4b077a1485cddf416d038ce7",
      "title": "Dilated memory in hierarchical reinforcement learning for long-horizontal task",
      "venue": "Neural Networks",
      "year": 2025,
      "referenceCount": 54,
      "citationCount": 0,
      "authors": [
        {
          "authorId": "2290126810",
          "name": "Zhenyu Zhang"
        },
        {
          "authorId": "2310297798",
          "name": "Shaorong Xie"
        },
        {
          "authorId": "33807333",
          "name": "Xiangfeng Luo"
        },
        {
          "authorId": "2292880108",
          "name": "Han Zhang"
        }
      ]
    },
    {
      "paperId": "4fc7c466cdb10897ed678f6efab1c212934c2bae",
      "externalIds": {
        "DBLP": "conf/bigdataconf/KarubeK25",
        "DOI": "10.1109/BigData66926.2025.11402556",
        "CorpusId": 286328252
      },
      "url": "https://www.semanticscholar.org/paper/4fc7c466cdb10897ed678f6efab1c212934c2bae",
      "title": "Bayesian Network-Driven Level Correction for Computer Adaptive Testing: A Data-Driven Approach to Optimizing Learning Sequence",
      "venue": "BigData Congress [Services Society]",
      "year": 2025,
      "referenceCount": 20,
      "citationCount": 0,
      "authors": [
        {
          "authorId": "2361050208",
          "name": "I. Karube"
        },
        {
          "authorId": "2273433597",
          "name": "Setsuya Kurahashi"
        }
      ]
    },
    {
      "paperId": "e6df3c94a876f040ae9e9e4306450eb41baff45e",
      "externalIds": {
        "DBLP": "conf/ijcnn/LinCQLZ25",
        "DOI": "10.1109/IJCNN64981.2025.11229158",
        "CorpusId": 283015037
      },
      "url": "https://www.semanticscholar.org/paper/e6df3c94a876f040ae9e9e4306450eb41baff45e",
      "title": "Chinese Multimodal NER Base On Hierarchical Subnetwork And Feature Fusion",
      "venue": "IEEE International Joint Conference on Neural Network",
      "year": 2025,
      "referenceCount": 23,
      "citationCount": 0,
      "authors": [
        {
          "authorId": "2300254774",
          "name": "Mingyan Lin"
        },
        {
          "authorId": "2267537955",
          "name": "Jiaying Chen"
        },
        {
          "authorId": "2288087308",
          "name": "Yurong Qian"
        },
        {
          "authorId": "2315300367",
          "name": "Huiyong Lv"
        },
        {
          "authorId": "2324550652",
          "name": "Jiyuan Zhang"
        }
      ]
    },
    {
      "paperId": "bfc83796eef85090c8502c5762e36c036d62f91f",
      "externalIds": {
        "MAG": "2910637056",
        "CorpusId": 53468954
      },
      "url": "https://www.semanticscholar.org/paper/bfc83796eef85090c8502c5762e36c036d62f91f",
      "title": "HAPPIER: Hierarchical Polyphonic Music Generative RNN",
      "venue": "",
      "year": 2018,
      "referenceCount": 33,
      "citationCount": 0,
      "authors": [
        {
          "authorId": "1414129299",
          "name": "Tianyang Zhao"
        },
        {
          "authorId": "2136501721",
          "name": "Xiaoxuan Ma"
        },
        {
          "authorId": "2157402472",
          "name": "Hongzhuang Ma"
        },
        {
          "authorId": "2116758319",
          "name": "Yizhou Wang"
        }
      ]
    },
    {
      "paperId": "c2fcc22cdf9bd8ef95e26385a1caa41e11c09e47",
      "externalIds": {
        "DOI": "10.1109/BITCON63716.2024.10985224",
        "CorpusId": 278368595
      },
      "url": "https://www.semanticscholar.org/paper/c2fcc22cdf9bd8ef95e26385a1caa41e11c09e47",
      "title": "A Review of Audio Classification Techniques",
      "venue": "2024 International BIT Conference (BITCON)",
      "year": 2024,
      "referenceCount": 20,
      "citationCount": 0,
      "authors": [
        {
          "authorId": "2348198575",
          "name": "Neelabh Gupta"
        },
        {
          "authorId": "2253758083",
          "name": "Priyanka Ahlawat"
        }
      ]
    },
    {
      "paperId": "5de11d42d3245e643e85f250cc2650c113095651",
      "externalIds": {
        "DOI": "10.1080/1206212X.2025.2498687",
        "CorpusId": 278352264
      },
      "url": "https://www.semanticscholar.org/paper/5de11d42d3245e643e85f250cc2650c113095651",
      "title": "A survey on blockchain-based privacy preserving techniques for edge internet of things",
      "venue": "International Journal of Computer Applications",
      "year": 2025,
      "referenceCount": 52,
      "citationCount": 8,
      "authors": [
        {
          "authorId": "2289659376",
          "name": "Aditya Kaushal Ranjan"
        },
        {
          "authorId": "2289838806",
          "name": "Prabhat Kumar"
        }
      ]
    },
    {
      "paperId": "a06d61a2b1aa93e757e984d7ac69faaff3beb99e",
      "externalIds": {
        "DOI": "10.1142/s0219843626400153",
        "CorpusId": 287713034
      },
      "url": "https://www.semanticscholar.org/paper/a06d61a2b1aa93e757e984d7ac69faaff3beb99e",
      "title": "Application of Ethnic Music Retrieval System Integrating Multimodal Attention Mechanism in Humanoid Robot Education Interaction",
      "venue": "International Journal of Humanoid Robotics",
      "year": 2026,
      "referenceCount": 0,
      "citationCount": 0,
      "authors": [
        {
          "authorId": null,
          "name": "Chuanshan Peng"
        },
        {
          "authorId": null,
          "name": "Laifa Sun"
        },
        {
          "authorId": "2431348205",
          "name": "Zhongci Zhou"
        }
      ]
    },
    {
      "paperId": "8adab26820bc4bc768e19d9ecb9812399dbef5d4",
      "externalIds": {
        "MAG": "3105191672",
        "ArXiv": "2011.07280",
        "DBLP": "journals/corr/abs-2011-07280",
        "CorpusId": 226965580
      },
      "url": "https://www.semanticscholar.org/paper/8adab26820bc4bc768e19d9ecb9812399dbef5d4",
      "title": "Sentiment Analysis for Sinhala Language using Deep Learning Techniques",
      "venue": "arXiv.org",
      "year": 2020,
      "referenceCount": 31,
      "citationCount": 23,
      "authors": [
        {
          "authorId": "1933647531",
          "name": "L. Senevirathne"
        },
        {
          "authorId": "1933567814",
          "name": "Piyumal Demotte"
        },
        {
          "authorId": "1933564999",
          "name": "Binod Karunanayake"
        },
        {
          "authorId": "1933641453",
          "name": "Udyogi Munasinghe"
        },
        {
          "authorId": "143976433",
          "name": "Surangika Ranathunga"
        }
      ]
    },
    {
      "paperId": "154d8b2c9dba92db1f6496daedd1efa459be41f3",
      "externalIds": {
        "DOI": "10.48175/ijarsct-11657",
        "CorpusId": 259621627
      },
      "url": "https://www.semanticscholar.org/paper/154d8b2c9dba92db1f6496daedd1efa459be41f3",
      "title": "Advancements in Named Entity Recognition using Deep Learning Techniques: A Comprehensive Study on Emerging Trends",
      "venue": "International Journal of Advanced Research in Science, Communication and Technology",
      "year": 2023,
      "referenceCount": 7,
      "citationCount": 2,
      "authors": [
        {
          "authorId": "2222266431",
          "name": "Shalini Sharma"
        },
        {
          "authorId": "2222260092",
          "name": "Reetesh Kumar Srivastava"
        },
        {
          "authorId": "2222260510",
          "name": "Dr. Piyush Pratap Singh"
        }
      ]
    }
  ]
}