{
  "total": 2719,
  "offset": 0,
  "next": 10,
  "data": [
    {
      "paperId": "088a5fa00ed6c14351209da5f53e770b51fd2909",
      "externalIds": {
        "DBLP": "journals/corr/abs-2310-15421",
        "ArXiv": "2310.15421",
        "DOI": "10.48550/arXiv.2310.15421",
        "CorpusId": 264439631
      },
      "url": "https://www.semanticscholar.org/paper/088a5fa00ed6c14351209da5f53e770b51fd2909",
      "title": "FANToM: A Benchmark for Stress-testing Machine Theory of Mind in Interactions",
      "venue": "Conference on Empirical Methods in Natural Language Processing",
      "year": 2023,
      "referenceCount": 58,
      "citationCount": 154,
      "authors": [
        {
          "authorId": "32609381",
          "name": "Hyunwoo Kim"
        },
        {
          "authorId": "1947172233",
          "name": "Melanie Sclar"
        },
        {
          "authorId": "144101734",
          "name": "Xuhui Zhou"
        },
        {
          "authorId": "39227408",
          "name": "Ronan Le Bras"
        },
        {
          "authorId": "2366544673",
          "name": "Gunhee Kim"
        },
        {
          "authorId": "2257385140",
          "name": "Yejin Choi"
        },
        {
          "authorId": "2729164",
          "name": "Maarten Sap"
        }
      ]
    },
    {
      "paperId": "d8d6e01465728e3174e02ff6ca532d9e3c26ce27",
      "externalIds": {
        "DBLP": "journals/corr/abs-2502-21017",
        "ArXiv": "2502.21017",
        "DOI": "10.48550/arXiv.2502.21017",
        "CorpusId": 276725464
      },
      "url": "https://www.semanticscholar.org/paper/d8d6e01465728e3174e02ff6ca532d9e3c26ce27",
      "title": "PersuasiveToM: A Benchmark for Evaluating Machine Theory of Mind in Persuasive Dialogues",
      "venue": "arXiv.org",
      "year": 2025,
      "referenceCount": 56,
      "citationCount": 10,
      "authors": [
        {
          "authorId": "2284026501",
          "name": "Fangxu Yu"
        },
        {
          "authorId": "2305640146",
          "name": "Lai Jiang"
        },
        {
          "authorId": "2388001187",
          "name": "Shengya Huang"
        },
        {
          "authorId": "2250121772",
          "name": "Zhen Wu"
        },
        {
          "authorId": "2257010530",
          "name": "Xinyu Dai"
        }
      ]
    },
    {
      "paperId": "eebb45d3d4e122c3d776bff33fd82989c669406f",
      "externalIds": {
        "DBLP": "conf/emnlp/ChanJYDF0L0WS24",
        "ArXiv": "2404.13627",
        "DOI": "10.48550/arXiv.2404.13627",
        "CorpusId": 269293744
      },
      "url": "https://www.semanticscholar.org/paper/eebb45d3d4e122c3d776bff33fd82989c669406f",
      "title": "NegotiationToM: A Benchmark for Stress-testing Machine Theory of Mind on Negotiation Surrounding",
      "venue": "Conference on Empirical Methods in Natural Language Processing",
      "year": 2024,
      "referenceCount": 104,
      "citationCount": 48,
      "authors": [
        {
          "authorId": "2216598559",
          "name": "Chunkit Chan"
        },
        {
          "authorId": "2109077713",
          "name": "Cheng Jiayang"
        },
        {
          "authorId": "2297769543",
          "name": "Yauwai Yim"
        },
        {
          "authorId": "2260296509",
          "name": "Zheye Deng"
        },
        {
          "authorId": "2262397115",
          "name": "Wei Fan"
        },
        {
          "authorId": "2260286743",
          "name": "Haoran Li"
        },
        {
          "authorId": "2260287837",
          "name": "Xin Liu"
        },
        {
          "authorId": "2260447535",
          "name": "Hongming Zhang"
        },
        {
          "authorId": "1587728690",
          "name": "Weiqi Wang"
        },
        {
          "authorId": "2241325169",
          "name": "Yangqiu Song"
        }
      ]
    },
    {
      "paperId": "856d5dcba4772328b8fb784494e3d41d39669b0d",
      "externalIds": {
        "DBLP": "conf/icml/RabinowitzPSZEB18",
        "MAG": "2950112459",
        "ArXiv": "1802.07740",
        "CorpusId": 3454285
      },
      "url": "https://www.semanticscholar.org/paper/856d5dcba4772328b8fb784494e3d41d39669b0d",
      "title": "Machine Theory of Mind",
      "venue": "International Conference on Machine Learning",
      "year": 2018,
      "referenceCount": 79,
      "citationCount": 574,
      "authors": [
        {
          "authorId": "3422052",
          "name": "Neil C. Rabinowitz"
        },
        {
          "authorId": "3054009",
          "name": "Frank Perbet"
        },
        {
          "authorId": "2107148568",
          "name": "H. F. Song"
        },
        {
          "authorId": "151505981",
          "name": "Chiyuan Zhang"
        },
        {
          "authorId": "143648071",
          "name": "S. Eslami"
        },
        {
          "authorId": "46378362",
          "name": "M. Botvinick"
        }
      ]
    },
    {
      "paperId": "046570da45d89f773b45d09dfd80663095be819d",
      "externalIds": {
        "DBLP": "journals/corr/abs-2507-03682",
        "ArXiv": "2507.03682",
        "DOI": "10.48550/arXiv.2507.03682",
        "CorpusId": 280066566
      },
      "url": "https://www.semanticscholar.org/paper/046570da45d89f773b45d09dfd80663095be819d",
      "title": "Towards Machine Theory of Mind with Large Language Model-Augmented Inverse Planning",
      "venue": "arXiv.org",
      "year": 2025,
      "referenceCount": 63,
      "citationCount": 1,
      "authors": [
        {
          "authorId": "2364747258",
          "name": "Rebekah A. Gelp'i"
        },
        {
          "authorId": "2291960260",
          "name": "Eric Xue"
        },
        {
          "authorId": "2240583363",
          "name": "William A. Cunningham"
        }
      ]
    },
    {
      "paperId": "83fe73b5f35ab77444b80e2bf6fbd66b55531ad1",
      "externalIds": {
        "ArXiv": "2305.05390",
        "DBLP": "journals/corr/abs-2305-05390",
        "DOI": "10.48550/arXiv.2305.05390",
        "CorpusId": 258564774
      },
      "url": "https://www.semanticscholar.org/paper/83fe73b5f35ab77444b80e2bf6fbd66b55531ad1",
      "title": "COKE: A Cognitive Knowledge Graph for Machine Theory of Mind",
      "venue": "Annual Meeting of the Association for Computational Linguistics",
      "year": 2023,
      "referenceCount": 54,
      "citationCount": 30,
      "authors": [
        {
          "authorId": "2109217402",
          "name": "Jincenzi Wu"
        },
        {
          "authorId": null,
          "name": "Zhuang Chen"
        },
        {
          "authorId": "2090444914",
          "name": "Jiawen Deng"
        },
        {
          "authorId": "2106627931",
          "name": "Sahand Sabour"
        },
        {
          "authorId": "2196817617",
          "name": "Minlie Huang"
        }
      ]
    },
    {
      "paperId": "31823f9cce3f10fc71db13f66c34dd50b7d78f65",
      "externalIds": {
        "DBLP": "conf/acl/SoubkiR25",
        "DOI": "10.18653/v1/2025.findings-acl.951",
        "CorpusId": 280322128
      },
      "url": "https://www.semanticscholar.org/paper/31823f9cce3f10fc71db13f66c34dd50b7d78f65",
      "title": "Machine Theory of Mind Needs Machine Validation",
      "venue": "Annual Meeting of the Association for Computational Linguistics",
      "year": 2025,
      "referenceCount": 0,
      "citationCount": 1,
      "authors": [
        {
          "authorId": "2290014834",
          "name": "Adil Soubki"
        },
        {
          "authorId": "2271536176",
          "name": "Owen Rambow"
        }
      ]
    },
    {
      "paperId": "17d86bd531c46560d29b77981a787876a7c47a10",
      "externalIds": {
        "DBLP": "journals/topics/LebierePJMM25",
        "PubMedCentral": "12093916",
        "DOI": "10.1111/tops.12773",
        "CorpusId": 274442821,
        "PubMed": "39616609"
      },
      "url": "https://www.semanticscholar.org/paper/17d86bd531c46560d29b77981a787876a7c47a10",
      "title": "Cognitive Models for Machine Theory of Mind",
      "venue": "Topics in Cognitive Science",
      "year": 2024,
      "referenceCount": 59,
      "citationCount": 3,
      "authors": [
        {
          "authorId": "2258559658",
          "name": "Christian Lebiere"
        },
        {
          "authorId": "2281100217",
          "name": "Peter Pirolli"
        },
        {
          "authorId": "2241542644",
          "name": "Matthew Johnson"
        },
        {
          "authorId": "2194223322",
          "name": "Michael Martin"
        },
        {
          "authorId": "2276872622",
          "name": "Don Morrison"
        }
      ]
    },
    {
      "paperId": "4f0985506c4574fcfc2244de8a16e79f73c4a559",
      "externalIds": {
        "ArXiv": "2505.20342",
        "DBLP": "journals/corr/abs-2505-20342",
        "DOI": "10.48550/arXiv.2505.20342",
        "CorpusId": 278911405
      },
      "url": "https://www.semanticscholar.org/paper/4f0985506c4574fcfc2244de8a16e79f73c4a559",
      "title": "Machine Theory of Mind and the Structure of Human Values",
      "venue": "arXiv.org",
      "year": 2025,
      "referenceCount": 44,
      "citationCount": 0,
      "authors": [
        {
          "authorId": "1453368980",
          "name": "Paul de Font-Reaulx"
        }
      ]
    },
    {
      "paperId": "de3f777fca6cdc6695203607167c0f4e12ad6cff",
      "externalIds": {
        "DBLP": "journals/tii/HuMLSL22",
        "DOI": "10.1109/TII.2022.3180399",
        "CorpusId": 249526914
      },
      "url": "https://www.semanticscholar.org/paper/de3f777fca6cdc6695203607167c0f4e12ad6cff",
      "title": "Self-Attention-Based Machine Theory of Mind for Electric Vehicle Charging Demand Forecast",
      "venue": "IEEE Transactions on Industrial Informatics",
      "year": 2022,
      "referenceCount": 34,
      "citationCount": 31,
      "authors": [
        {
          "authorId": "2125795095",
          "name": "Tianyu Hu"
        },
        {
          "authorId": "2152615196",
          "name": "Huimin Ma"
        },
        {
          "authorId": "2143855625",
          "name": "Hao Liu"
        },
        {
          "authorId": "2152994431",
          "name": "Hongbin Sun"
        },
        {
          "authorId": "39918071",
          "name": "Kailong Liu"
        }
      ]
    }
  ]
}