{
  "total": 47,
  "offset": 0,
  "next": 10,
  "data": [
    {
      "paperId": "e933fe98075d4e998505dbbf65d9c17711fdda1b",
      "externalIds": {
        "MAG": "3136036499",
        "DBLP": "journals/algorithmica/AhnCGMW21",
        "ArXiv": "1812.02023",
        "DOI": "10.1007/s00453-021-00816-9",
        "CorpusId": 1288257
      },
      "url": "https://www.semanticscholar.org/paper/e933fe98075d4e998505dbbf65d9c17711fdda1b",
      "title": "Correlation Clustering in Data Streams",
      "venue": "Algorithmica",
      "year": 2015,
      "referenceCount": 62,
      "citationCount": 68,
      "authors": [
        {
          "authorId": "48434092",
          "name": "Kook Jin Ahn"
        },
        {
          "authorId": "1709589",
          "name": "Graham Cormode"
        },
        {
          "authorId": "144392463",
          "name": "S. Guha"
        },
        {
          "authorId": "144078750",
          "name": "A. Mcgregor"
        },
        {
          "authorId": "40009100",
          "name": "Anthony Wirth"
        }
      ]
    },
    {
      "paperId": "9c68a011b2d9ca7bd961f58edd7c3c17977142f3",
      "externalIds": {
        "CorpusId": 52102991
      },
      "url": "https://www.semanticscholar.org/paper/9c68a011b2d9ca7bd961f58edd7c3c17977142f3",
      "title": "Data Skepticism in Practice Online Anomaly Detection over Big Data Streams",
      "venue": "",
      "year": 2015,
      "referenceCount": 45,
      "citationCount": 21,
      "authors": [
        {
          "authorId": "34011720",
          "name": "Laura Rettig"
        }
      ]
    },
    {
      "paperId": "7059c5297b3cd53ffc7b52bf97d141684b2dbd6a",
      "externalIds": {
        "MAG": "86444682",
        "DOI": "10.1007/978-81-322-2126-5_39",
        "CorpusId": 57089959
      },
      "url": "https://www.semanticscholar.org/paper/7059c5297b3cd53ffc7b52bf97d141684b2dbd6a",
      "title": "Semi-supervised Learning Algorithm for Online Electricity Data Streams",
      "venue": "",
      "year": 2015,
      "referenceCount": 14,
      "citationCount": 6,
      "authors": [
        {
          "authorId": "2943980",
          "name": "Pramod D. Patil"
        },
        {
          "authorId": "66308304",
          "name": "Y. Fatangare"
        },
        {
          "authorId": "145397234",
          "name": "P. Kulkarni"
        }
      ]
    },
    {
      "paperId": "68126e01363e78828d984a3d93a3cc380eb864a0",
      "externalIds": {
        "MAG": "2295642513",
        "DBLP": "conf/ideal/Ziembinski15",
        "DOI": "10.1007/978-3-319-24834-9_1",
        "CorpusId": 29722389
      },
      "url": "https://www.semanticscholar.org/paper/68126e01363e78828d984a3d93a3cc380eb864a0",
      "title": "Data Streams Fusion by Frequent Correlations Mining",
      "venue": "Ideal",
      "year": 2015,
      "referenceCount": 9,
      "citationCount": 0,
      "authors": [
        {
          "authorId": "3159381",
          "name": "Radoslaw Z. Ziembinski"
        }
      ]
    },
    {
      "paperId": "b858279746d63bd95afd043f46c15cf849f9a510",
      "externalIds": {
        "MAG": "3101312231",
        "ArXiv": "1508.04900",
        "DOI": "10.1080/14697688.2016.1171378",
        "CorpusId": 67772976
      },
      "url": "https://www.semanticscholar.org/paper/b858279746d63bd95afd043f46c15cf849f9a510",
      "title": "Detecting intraday financial market states using temporal clustering",
      "venue": "",
      "year": 2015,
      "referenceCount": 60,
      "citationCount": 20,
      "authors": [
        {
          "authorId": "35358435",
          "name": "Dieter Hendricks"
        },
        {
          "authorId": "2257003878",
          "name": "Tim Gebbie"
        },
        {
          "authorId": "145742390",
          "name": "D. Wilcox"
        }
      ]
    },
    {
      "paperId": "9635f27a9f65d0b1c6731d5d70d0bdb0abc01ad5",
      "externalIds": {
        "DBLP": "conf/cikm/GuoSA15",
        "MAG": "2148953059",
        "DOI": "10.1145/2806416.2806440",
        "CorpusId": 15501619
      },
      "url": "https://www.semanticscholar.org/paper/9635f27a9f65d0b1c6731d5d70d0bdb0abc01ad5",
      "title": "Fast Distributed Correlation Discovery Over Streaming Time-Series Data",
      "venue": "International Conference on Information and Knowledge Management",
      "year": 2015,
      "referenceCount": 19,
      "citationCount": 22,
      "authors": [
        {
          "authorId": "144554002",
          "name": "T. Guo"
        },
        {
          "authorId": "25635969",
          "name": "Saket K. Sathe"
        },
        {
          "authorId": "1751802",
          "name": "K. Aberer"
        }
      ]
    },
    {
      "paperId": "279d8473b7eb5d4f6169d8b328cacbacde976764",
      "externalIds": {
        "MAG": "2293875936",
        "DBLP": "conf/adbis/JakunschinHR15",
        "DOI": "10.1007/978-3-319-23201-0_29",
        "CorpusId": 41081587
      },
      "url": "https://www.semanticscholar.org/paper/279d8473b7eb5d4f6169d8b328cacbacde976764",
      "title": "Detection of Trends and Opinions in Geo-Tagged Social Text Streams",
      "venue": "Symposium on Advances in Databases and Information Systems",
      "year": 2015,
      "referenceCount": 8,
      "citationCount": 0,
      "authors": [
        {
          "authorId": "1409497591",
          "name": "Jevgenij Jakunschin"
        },
        {
          "authorId": "94205064",
          "name": "A. Heuer"
        },
        {
          "authorId": "1398962969",
          "name": "Antje Raab-Düsterhöft"
        }
      ]
    },
    {
      "paperId": "360905ac1b52cbf64f4931b64815a3b598293414",
      "externalIds": {
        "MAG": "2117869764",
        "DOI": "10.17485/IJST/2015/V8I17/77584",
        "CorpusId": 62182913
      },
      "url": "https://www.semanticscholar.org/paper/360905ac1b52cbf64f4931b64815a3b598293414",
      "title": "Attribute Segregation based on Feature Ranking Framework for Privacy Preserving Data Mining",
      "venue": "",
      "year": 2015,
      "referenceCount": 22,
      "citationCount": 5,
      "authors": [
        {
          "authorId": "39992844",
          "name": "R. Priyadarsini"
        },
        {
          "authorId": "48978985",
          "name": "M. Valarmathi"
        },
        {
          "authorId": "3287129",
          "name": "S. Sivakumari"
        }
      ]
    },
    {
      "paperId": "77c79dfab50204d0975616f61959b4573e59224d",
      "externalIds": {
        "MAG": "2179553597",
        "DOI": "10.14456/KKURJ.2015.1",
        "CorpusId": 113399947
      },
      "url": "https://www.semanticscholar.org/paper/77c79dfab50204d0975616f61959b4573e59224d",
      "title": "Supervised Self Organizing Maps for Exploratory Data Analysis of Running Waters Based on Physicochemical Parameters: a Case Study in Chiang Mai, Thailand",
      "venue": "",
      "year": 2015,
      "referenceCount": 17,
      "citationCount": 2,
      "authors": [
        {
          "authorId": "3478639",
          "name": "Sila Kittiwachana"
        },
        {
          "authorId": "6331501",
          "name": "K. Grudpan"
        }
      ]
    },
    {
      "paperId": "b0a3b60e3d47c0867f97e7df1bbdf5c941eecde3",
      "externalIds": {
        "MAG": "1915670338",
        "DOI": "10.1111/FWB.12625",
        "CorpusId": 83729799
      },
      "url": "https://www.semanticscholar.org/paper/b0a3b60e3d47c0867f97e7df1bbdf5c941eecde3",
      "title": "A novel bacterial community index to assess stream ecological health",
      "venue": "",
      "year": 2015,
      "referenceCount": 69,
      "citationCount": 50,
      "authors": [
        {
          "authorId": "49537594",
          "name": "K. Lau"
        },
        {
          "authorId": "88461616",
          "name": "Vidya Washington"
        },
        {
          "authorId": "1750936056",
          "name": "Vicky Fan"
        },
        {
          "authorId": "40649823",
          "name": "M. Neale"
        },
        {
          "authorId": "4045590",
          "name": "G. Lear"
        },
        {
          "authorId": "1815462",
          "name": "J. Curran"
        },
        {
          "authorId": "4681807",
          "name": "G. Lewis"
        }
      ]
    }
  ]
}