{
  "total": 34,
  "offset": 0,
  "next": 10,
  "data": [
    {
      "paperId": "c120f62b10488567697eb1cb4c646a15a3c6fc20",
      "externalIds": {
        "MAG": "2963300638",
        "DBLP": "journals/corr/abs-1804-03423",
        "ArXiv": "1804.03423",
        "CorpusId": 4751273
      },
      "url": "https://www.semanticscholar.org/paper/c120f62b10488567697eb1cb4c646a15a3c6fc20",
      "title": "Parameterized Algorithms for the Matrix Completion Problem",
      "venue": "International Conference on Machine Learning",
      "year": 2018,
      "referenceCount": 36,
      "citationCount": 33,
      "authors": [
        {
          "authorId": "3050679",
          "name": "R. Ganian"
        },
        {
          "authorId": "145805394",
          "name": "Iyad A. Kanj"
        },
        {
          "authorId": "1793339",
          "name": "S. Ordyniak"
        },
        {
          "authorId": "1701841",
          "name": "Stefan Szeider"
        }
      ]
    },
    {
      "paperId": "c710cd09ac0d9a746f96c2c8402b8bebf8534330",
      "externalIds": {
        "CorpusId": 29152150
      },
      "url": "https://www.semanticscholar.org/paper/c710cd09ac0d9a746f96c2c8402b8bebf8534330",
      "title": "D S ] 1 0 A pr 2 01 8 Parameterized Algorithms for the Matrix Completion Problem",
      "venue": "",
      "year": 2018,
      "referenceCount": 30,
      "citationCount": 3,
      "authors": [
        {
          "authorId": "3050679",
          "name": "R. Ganian"
        },
        {
          "authorId": "145805394",
          "name": "Iyad A. Kanj"
        },
        {
          "authorId": "1793339",
          "name": "S. Ordyniak"
        },
        {
          "authorId": "1701841",
          "name": "Stefan Szeider"
        }
      ]
    },
    {
      "paperId": "4d92e0b4cb26fffdf3fb7b35ada496097d60d03b",
      "externalIds": {
        "MAG": "3037663249",
        "DBLP": "journals/corr/abs-2002-00645",
        "ArXiv": "2002.00645",
        "DOI": "10.4230/LIPIcs.CPM.2020.20",
        "CorpusId": 211010635
      },
      "url": "https://www.semanticscholar.org/paper/4d92e0b4cb26fffdf3fb7b35ada496097d60d03b",
      "title": "Parameterized Algorithms for Matrix Completion With Radius Constraints",
      "venue": "Annual Symposium on Combinatorial Pattern Matching",
      "year": 2020,
      "referenceCount": 22,
      "citationCount": 12,
      "authors": [
        {
          "authorId": "150320816",
          "name": "Tomohiro Koana"
        },
        {
          "authorId": "2711185",
          "name": "Vincent Froese"
        },
        {
          "authorId": "1740110",
          "name": "R. Niedermeier"
        }
      ]
    },
    {
      "paperId": "e68778763d2cfa2f753b2c38d54081f2b326e19d",
      "externalIds": {
        "ArXiv": "2603.19447",
        "CorpusId": 286751144
      },
      "url": "https://www.semanticscholar.org/paper/e68778763d2cfa2f753b2c38d54081f2b326e19d",
      "title": "Algorithms for Euclidean Distance Matrix Completion: Exploiting Proximity to Triviality",
      "venue": "",
      "year": 2026,
      "referenceCount": 55,
      "citationCount": 0,
      "authors": [
        {
          "authorId": "2256637009",
          "name": "Fedor V. Fomin"
        },
        {
          "authorId": "1720941",
          "name": "P. Golovach"
        },
        {
          "authorId": "2340124449",
          "name": "M. Ramanujan"
        },
        {
          "authorId": "143621584",
          "name": "Saket Saurabh"
        }
      ]
    },
    {
      "paperId": "67a0d42a9e5a49b13c3aab0b07bfb14e8fcf226c",
      "externalIds": {
        "ArXiv": "2002.05068",
        "DBLP": "journals/jcss/KoanaFN23",
        "DOI": "10.1016/j.jcss.2022.10.001",
        "CorpusId": 253018977
      },
      "url": "https://www.semanticscholar.org/paper/67a0d42a9e5a49b13c3aab0b07bfb14e8fcf226c",
      "title": "The complexity of binary matrix completion under diameter constraints",
      "venue": "Journal of computer and system sciences (Print)",
      "year": 2020,
      "referenceCount": 44,
      "citationCount": 5,
      "authors": [
        {
          "authorId": "150320816",
          "name": "Tomohiro Koana"
        },
        {
          "authorId": "2711185",
          "name": "Vincent Froese"
        },
        {
          "authorId": "1740110",
          "name": "R. Niedermeier"
        }
      ]
    },
    {
      "paperId": "6961099adba32c34ffebd75606790c6ffb372310",
      "externalIds": {
        "DBLP": "journals/talg/BliznetsFPP18",
        "MAG": "3014471306",
        "DOI": "10.1145/3186896",
        "CorpusId": 11979901
      },
      "url": "https://www.semanticscholar.org/paper/6961099adba32c34ffebd75606790c6ffb372310",
      "title": "Subexponential Parameterized Algorithm for Interval Completion",
      "venue": "ACM-SIAM Symposium on Discrete Algorithms",
      "year": 2016,
      "referenceCount": 36,
      "citationCount": 35,
      "authors": [
        {
          "authorId": "1755331",
          "name": "Ivan A. Bliznets"
        },
        {
          "authorId": "1744120",
          "name": "F. Fomin"
        },
        {
          "authorId": "1740436",
          "name": "Marcin Pilipczuk"
        },
        {
          "authorId": "1749507",
          "name": "Michał Pilipczuk"
        }
      ]
    },
    {
      "paperId": "16cdaafafaec8dc2eac076bfe4c128b0eec8cc0a",
      "externalIds": {
        "MAG": "1964911284",
        "DBLP": "journals/siamco/ZhuM14",
        "DOI": "10.1137/110843332",
        "CorpusId": 44421228
      },
      "url": "https://www.semanticscholar.org/paper/16cdaafafaec8dc2eac076bfe4c128b0eec8cc0a",
      "title": "On Attack-Resilient Distributed Formation Control in Operator-Vehicle Networks",
      "venue": "SIAM Journal of Control and Optimization",
      "year": 2014,
      "referenceCount": 37,
      "citationCount": 23,
      "authors": [
        {
          "authorId": "1771269",
          "name": "Minghui Zhu"
        },
        {
          "authorId": "144448834",
          "name": "S. Martínez"
        }
      ]
    },
    {
      "paperId": "d53c699a7a91e610cd0709d6aa7044921c719080",
      "externalIds": {
        "ArXiv": "2105.00233",
        "DOI": "10.1088/1742-5468/ac21c9",
        "CorpusId": 237295197
      },
      "url": "https://www.semanticscholar.org/paper/d53c699a7a91e610cd0709d6aa7044921c719080",
      "title": "Matrix completion based on Gaussian parameterized belief propagation",
      "venue": "Journal of Statistical Mechanics: Theory and Experiment",
      "year": 2021,
      "referenceCount": 22,
      "citationCount": 1,
      "authors": [
        {
          "authorId": "2066205318",
          "name": "Koki Okajima"
        },
        {
          "authorId": "2329517",
          "name": "Y. Kabashima"
        }
      ]
    },
    {
      "paperId": "fb07629ffd5ed1119408503fce236e812100dcc5",
      "externalIds": {
        "ArXiv": "2502.00463",
        "DBLP": "journals/corr/abs-2502-00463",
        "DOI": "10.48550/arXiv.2502.00463",
        "CorpusId": 276094793
      },
      "url": "https://www.semanticscholar.org/paper/fb07629ffd5ed1119408503fce236e812100dcc5",
      "title": "Efficient Over-parameterized Matrix Sensing from Noisy Measurements via Alternating Preconditioned Gradient Descent",
      "venue": "arXiv.org",
      "year": 2025,
      "referenceCount": 62,
      "citationCount": 5,
      "authors": [
        {
          "authorId": "2200168829",
          "name": "Zhiyu Liu"
        },
        {
          "authorId": "2304520877",
          "name": "Zhi-Jun Han"
        },
        {
          "authorId": "2243041383",
          "name": "Yandong Tang"
        },
        {
          "authorId": "2343689921",
          "name": "Hai Zhang"
        },
        {
          "authorId": "2256134488",
          "name": "Shaojie Tang"
        },
        {
          "authorId": "2144276483",
          "name": "Yao Wang"
        }
      ]
    },
    {
      "paperId": "b6511f537b61eb5904b0d8e2fc1a14f74279e54a",
      "externalIds": {
        "DBLP": "journals/corr/abs-2104-08191",
        "CorpusId": 233289411
      },
      "url": "https://www.semanticscholar.org/paper/b6511f537b61eb5904b0d8e2fc1a14f74279e54a",
      "title": "Bayesian matrix completion with a spectral scaled Student prior: theoretical guarantee and efficient sampling",
      "venue": "arXiv.org",
      "year": 2021,
      "referenceCount": 67,
      "citationCount": 5,
      "authors": [
        {
          "authorId": "7185709",
          "name": "The Tien Mai"
        }
      ]
    }
  ]
}