{
  "total": 1089,
  "offset": 0,
  "next": 10,
  "data": [
    {
      "paperId": "5d5f40fc7f31f3bb526a69c3438c2920e6534886",
      "externalIds": {
        "MAG": "2963419626",
        "DBLP": "journals/corr/abs-1802-09069",
        "ArXiv": "1802.09069",
        "CorpusId": 3532012
      },
      "url": "https://www.semanticscholar.org/paper/5d5f40fc7f31f3bb526a69c3438c2920e6534886",
      "title": "Active Learning with Logged Data",
      "venue": "International Conference on Machine Learning",
      "year": 2018,
      "referenceCount": 48,
      "citationCount": 28,
      "authors": [
        {
          "authorId": "1779345",
          "name": "Songbai Yan"
        },
        {
          "authorId": "38120884",
          "name": "Kamalika Chaudhuri"
        },
        {
          "authorId": "47197693",
          "name": "T. Javidi"
        }
      ]
    },
    {
      "paperId": "70edbe4015f1822b237239e6aa576b3f942eef8a",
      "externalIds": {
        "MAG": "2978378428",
        "DBLP": "conf/ic3k/CabralF19",
        "DOI": "10.5220/0008356604910499",
        "CorpusId": 204754538
      },
      "url": "https://www.semanticscholar.org/paper/70edbe4015f1822b237239e6aa576b3f942eef8a",
      "title": "Preventing Failures by Predicting Students' Grades through an Analysis of Logged Data of Online Interactions",
      "venue": "International Conference on Knowledge Discovery and Information Retrieval",
      "year": 2019,
      "referenceCount": 12,
      "citationCount": 2,
      "authors": [
        {
          "authorId": "2062878173",
          "name": "Bruno Cabral"
        },
        {
          "authorId": "1749315",
          "name": "Á. Figueira"
        }
      ]
    },
    {
      "paperId": "14861349b075f28cba3a78539a16b18f83e5bbed",
      "externalIds": {
        "PubMedCentral": "9910766",
        "DBLP": "journals/snam/QiS23",
        "DOI": "10.1007/s13278-023-01030-x",
        "CorpusId": 256702118,
        "PubMed": "36789379"
      },
      "url": "https://www.semanticscholar.org/paper/14861349b075f28cba3a78539a16b18f83e5bbed",
      "title": "Sentiment analysis using Twitter data: a comparative application of lexicon- and machine-learning-based approach",
      "venue": "Social Network Analysis and Mining",
      "year": 2023,
      "referenceCount": 41,
      "citationCount": 165,
      "authors": [
        {
          "authorId": "4797818",
          "name": "Yuxing Qi"
        },
        {
          "authorId": "88740859",
          "name": "Zahratu Shabrina"
        }
      ]
    },
    {
      "paperId": "580aabdb9fc12a335463edc6f4f41af7d339cff6",
      "externalIds": {
        "DBLP": "journals/corr/abs-2211-11349",
        "ArXiv": "2211.11349",
        "DOI": "10.48550/arXiv.2211.11349",
        "CorpusId": 253735293
      },
      "url": "https://www.semanticscholar.org/paper/580aabdb9fc12a335463edc6f4f41af7d339cff6",
      "title": "Data-Driven Offline Decision-Making via Invariant Representation Learning",
      "venue": "Neural Information Processing Systems",
      "year": 2022,
      "referenceCount": 53,
      "citationCount": 36,
      "authors": [
        {
          "authorId": "47935745",
          "name": "Qi"
        },
        {
          "authorId": "144908640",
          "name": "Yi-Hsun Su"
        },
        {
          "authorId": "1488785534",
          "name": "Aviral Kumar"
        },
        {
          "authorId": "1736651",
          "name": "S. Levine"
        }
      ]
    },
    {
      "paperId": "f6811d63f65bf723da9927357f7dd90a1b08292c",
      "externalIds": {
        "ArXiv": "2106.10251",
        "DBLP": "conf/nips/KonyushkovaCPGP21",
        "CorpusId": 235485389
      },
      "url": "https://www.semanticscholar.org/paper/f6811d63f65bf723da9927357f7dd90a1b08292c",
      "title": "Active Offline Policy Selection",
      "venue": "Neural Information Processing Systems",
      "year": 2021,
      "referenceCount": 73,
      "citationCount": 29,
      "authors": [
        {
          "authorId": "3335570",
          "name": "Ksenia Konyushkova"
        },
        {
          "authorId": "2275897",
          "name": "Yutian Chen"
        },
        {
          "authorId": "40470211",
          "name": "T. Paine"
        },
        {
          "authorId": "146372255",
          "name": "Caglar Gulcehre"
        },
        {
          "authorId": "3316271",
          "name": "Cosmin Paduraru"
        },
        {
          "authorId": "3187297",
          "name": "D. Mankowitz"
        },
        {
          "authorId": "1715051",
          "name": "Misha Denil"
        },
        {
          "authorId": "1737568",
          "name": "Nando de Freitas"
        }
      ]
    },
    {
      "paperId": "1275b78fe8c475589782ce7a73ce1a9f59dc96f0",
      "externalIds": {
        "DBLP": "conf/www/WangLYX22",
        "DOI": "10.1145/3485447.3512072",
        "CorpusId": 248367440
      },
      "url": "https://www.semanticscholar.org/paper/1275b78fe8c475589782ce7a73ce1a9f59dc96f0",
      "title": "Off-policy Learning over Heterogeneous Information for Recommendation",
      "venue": "The Web Conference",
      "year": 2022,
      "referenceCount": 68,
      "citationCount": 11,
      "authors": [
        {
          "authorId": "2144796853",
          "name": "Xiang-jian Wang"
        },
        {
          "authorId": "2117126149",
          "name": "Qian Li"
        },
        {
          "authorId": "2153682136",
          "name": "Dianer Yu"
        },
        {
          "authorId": "2149131224",
          "name": "Guandong Xu"
        }
      ]
    },
    {
      "paperId": "998f8664d292371b738cd4b5919e64e51acbbd97",
      "externalIds": {
        "DBLP": "journals/ipm/RuotsaloWG22",
        "DOI": "10.1016/j.ipm.2021.102856",
        "CorpusId": 246763633
      },
      "url": "https://www.semanticscholar.org/paper/998f8664d292371b738cd4b5919e64e51acbbd97",
      "title": "Active tag recommendation for interactive entity search: Interaction effectiveness and retrieval performance",
      "venue": "Information Processing & Management",
      "year": 2022,
      "referenceCount": 91,
      "citationCount": 7,
      "authors": [
        {
          "authorId": "2084101",
          "name": "Tuukka Ruotsalo"
        },
        {
          "authorId": "2154124482",
          "name": "Sean Weber"
        },
        {
          "authorId": "1770992",
          "name": "Krzysztof Z Gajos"
        }
      ]
    },
    {
      "paperId": "bd48036b4f9f1cd300b3de55101fdb4ee25edf18",
      "externalIds": {
        "MAG": "2469462725",
        "CorpusId": 55350084
      },
      "url": "https://www.semanticscholar.org/paper/bd48036b4f9f1cd300b3de55101fdb4ee25edf18",
      "title": "Clustering Non-Stationary Data Streams with Online Deep Learning",
      "venue": "",
      "year": 2016,
      "referenceCount": 26,
      "citationCount": 1,
      "authors": [
        {
          "authorId": "113300819",
          "name": "Aurélien Hontabat"
        },
        {
          "authorId": "2351492646",
          "name": "M. Rising"
        }
      ]
    },
    {
      "paperId": "cdcc1556a779c96bf465c0471397c860bd0b4413",
      "externalIds": {
        "DOI": "10.1109/ASSIC55218.2022.10088294",
        "CorpusId": 257958327
      },
      "url": "https://www.semanticscholar.org/paper/cdcc1556a779c96bf465c0471397c860bd0b4413",
      "title": "Employing Machine Learning Techniques to Categorize users in a Fitness Application",
      "venue": "2022 International Conference on Advancements in Smart, Secure and Intelligent Computing (ASSIC)",
      "year": 2022,
      "referenceCount": 21,
      "citationCount": 2,
      "authors": [
        {
          "authorId": "2213614297",
          "name": "Shyamali Das"
        },
        {
          "authorId": "2300712",
          "name": "Pamela Chaudhury"
        },
        {
          "authorId": "2127888379",
          "name": "Hrudaya Kumar Tripathy"
        }
      ]
    },
    {
      "paperId": "c9f4a09d5e30010bd08f8e8f0f4e98705b827bad",
      "externalIds": {
        "DBLP": "journals/corr/abs-2103-07938",
        "ArXiv": "2103.07938",
        "CorpusId": 232232746
      },
      "url": "https://www.semanticscholar.org/paper/c9f4a09d5e30010bd08f8e8f0f4e98705b827bad",
      "title": "Learning needle insertion from sample task executions",
      "venue": "arXiv.org",
      "year": 2021,
      "referenceCount": 19,
      "citationCount": 2,
      "authors": [
        {
          "authorId": "2053816690",
          "name": "Amir Ghalamzan-E"
        }
      ]
    }
  ]
}