{
  "total": 83,
  "offset": 0,
  "next": 10,
  "data": [
    {
      "paperId": "660f08f5aa355c19a851d848e0c1321c5c32c1ab",
      "externalIds": {
        "MAG": "2950428033",
        "DBLP": "journals/corr/abs-1806-07259",
        "ArXiv": "1806.07259",
        "CorpusId": 49309186
      },
      "url": "https://www.semanticscholar.org/paper/660f08f5aa355c19a851d848e0c1321c5c32c1ab",
      "title": "Learning Equations for Extrapolation and Control",
      "venue": "International Conference on Machine Learning",
      "year": 2018,
      "referenceCount": 19,
      "citationCount": 286,
      "authors": [
        {
          "authorId": "9281906",
          "name": "Subham S. Sahoo"
        },
        {
          "authorId": "1787591",
          "name": "Christoph H. Lampert"
        },
        {
          "authorId": "144247521",
          "name": "G. Martius"
        }
      ]
    },
    {
      "paperId": "808deabbe60244821a5f32423d571c9f5618b725",
      "externalIds": {
        "ArXiv": "2602.09667",
        "CorpusId": 285463167
      },
      "url": "https://www.semanticscholar.org/paper/808deabbe60244821a5f32423d571c9f5618b725",
      "title": "Knowledge Integration in Differentiable Models: A Comparative Study of Data-Driven, Soft-Constrained, and Hard-Constrained Paradigms for Identification and Control of the Single Machine Infinite Bus System",
      "venue": "",
      "year": 2026,
      "referenceCount": 37,
      "citationCount": 0,
      "authors": [
        {
          "authorId": "2409965328",
          "name": "Shinhoo Kang"
        },
        {
          "authorId": "2109704466",
          "name": "Sangwook Kim"
        },
        {
          "authorId": "2387854163",
          "name": "Se-Young Yun"
        }
      ]
    },
    {
      "paperId": "e129e344083b307e005c5342ba49524d9981a420",
      "externalIds": {
        "MAG": "2909962969",
        "ArXiv": "1907.04490",
        "DBLP": "journals/corr/abs-1907-04490",
        "CorpusId": 53366105
      },
      "url": "https://www.semanticscholar.org/paper/e129e344083b307e005c5342ba49524d9981a420",
      "title": "Deep Lagrangian Networks: Using Physics as Model Prior for Deep Learning",
      "venue": "International Conference on Learning Representations",
      "year": 2019,
      "referenceCount": 50,
      "citationCount": 466,
      "authors": [
        {
          "authorId": "49199170",
          "name": "M. Lutter"
        },
        {
          "authorId": "2055442173",
          "name": "Christian Ritter"
        },
        {
          "authorId": "145197867",
          "name": "Jan Peters"
        }
      ]
    },
    {
      "paperId": "564add59e1969e381405b1064ce7e33dee8e795a",
      "externalIds": {
        "DBLP": "journals/corr/abs-2508-01833",
        "ArXiv": "2508.01833",
        "DOI": "10.48550/arXiv.2508.01833",
        "CorpusId": 280422126
      },
      "url": "https://www.semanticscholar.org/paper/564add59e1969e381405b1064ce7e33dee8e795a",
      "title": "Neural Predictive Control to Coordinate Discrete- and Continuous-Time Models for Time-Series Analysis with Control-Theoretical Improvements",
      "venue": "arXiv.org",
      "year": 2025,
      "referenceCount": 67,
      "citationCount": 3,
      "authors": [
        {
          "authorId": "119886069",
          "name": "Haoran Li"
        },
        {
          "authorId": "2154681014",
          "name": "Muhao Guo"
        },
        {
          "authorId": "2265967730",
          "name": "Yang Weng"
        },
        {
          "authorId": "2294365662",
          "name": "Hanghang Tong"
        }
      ]
    },
    {
      "paperId": "893768d957f8a46f0ba5bab11e5f2e2698ef1409",
      "externalIds": {
        "DOI": "10.1007/s11071-021-07118-3",
        "CorpusId": 246126852
      },
      "url": "https://www.semanticscholar.org/paper/893768d957f8a46f0ba5bab11e5f2e2698ef1409",
      "title": "Parsimony as the ultimate regularizer for physics-informed machine learning",
      "venue": "Nonlinear dynamics",
      "year": 2022,
      "referenceCount": 130,
      "citationCount": 56,
      "authors": [
        {
          "authorId": "144484983",
          "name": "J. Kutz"
        },
        {
          "authorId": "3083169",
          "name": "S. Brunton"
        }
      ]
    },
    {
      "paperId": "20df9b7a3ff2d028d9f9e49499cc856f6ce719c5",
      "externalIds": {
        "DBLP": "journals/corr/abs-2602-14947",
        "ArXiv": "2602.14947",
        "DOI": "10.48550/arXiv.2602.14947",
        "CorpusId": 285615757
      },
      "url": "https://www.semanticscholar.org/paper/20df9b7a3ff2d028d9f9e49499cc856f6ce719c5",
      "title": "Gradient Networks for Universal Magnetic Modeling of Synchronous Machines",
      "venue": "arXiv.org",
      "year": 2026,
      "referenceCount": 29,
      "citationCount": 0,
      "authors": [
        {
          "authorId": "2157342564",
          "name": "Junyin Li"
        },
        {
          "authorId": "2411006176",
          "name": "Tim Foissner"
        },
        {
          "authorId": "144507119",
          "name": "F. Martin"
        },
        {
          "authorId": "47094369",
          "name": "A. Piippo"
        },
        {
          "authorId": "2411005218",
          "name": "Marko Hinkkanen"
        }
      ]
    },
    {
      "paperId": "74c6a9d18414e8253727a1fca48ad4bce358206c",
      "externalIds": {
        "DOI": "10.1063/5.0145071",
        "CorpusId": 257731478
      },
      "url": "https://www.semanticscholar.org/paper/74c6a9d18414e8253727a1fca48ad4bce358206c",
      "title": "Combined space-time reduced-order model with three-dimensional deep convolution for extrapolating fluid dynamics",
      "venue": "The Physics of Fluids",
      "year": 2023,
      "referenceCount": 0,
      "citationCount": 17,
      "authors": [
        {
          "authorId": "52263735",
          "name": "Indu Kant Deo"
        },
        {
          "authorId": "2171998380",
          "name": "Rui Gao"
        },
        {
          "authorId": "6330065",
          "name": "R. Jaiman"
        }
      ]
    },
    {
      "paperId": "2f9953eec392322ada6c1475b40c90273bce70d7",
      "externalIds": {
        "MAG": "2590231900",
        "ArXiv": "1609.08395",
        "DBLP": "journals/envsoft/CarbajalLAR17",
        "DOI": "10.1016/j.envsoft.2017.02.006",
        "CorpusId": 14467784
      },
      "url": "https://www.semanticscholar.org/paper/2f9953eec392322ada6c1475b40c90273bce70d7",
      "title": "Appraisal of data-driven and mechanistic emulators of nonlinear simulators: The case of hydrodynamic urban drainage models",
      "venue": "Environmental Modelling & Software",
      "year": 2016,
      "referenceCount": 39,
      "citationCount": 33,
      "authors": [
        {
          "authorId": "1804786",
          "name": "J. P. Carbajal"
        },
        {
          "authorId": "153735202",
          "name": "J. Leitão"
        },
        {
          "authorId": "40306113",
          "name": "Carlo Albert"
        },
        {
          "authorId": "2030637",
          "name": "J. Rieckermann"
        }
      ]
    },
    {
      "paperId": "10c266c45374c34dd321b8ea2455aae9fb6cad47",
      "externalIds": {
        "DOI": "10.1016/j.ifacol.2022.07.426",
        "CorpusId": 251426606
      },
      "url": "https://www.semanticscholar.org/paper/10c266c45374c34dd321b8ea2455aae9fb6cad47",
      "title": "Reliable nonlinear dynamic gray-box modeling by regularized training data estimation and sensitivity analysis",
      "venue": "IFAC-PapersOnLine",
      "year": 2022,
      "referenceCount": 15,
      "citationCount": 5,
      "authors": [
        {
          "authorId": "1397048318",
          "name": "Joschka Winz"
        },
        {
          "authorId": "2251179",
          "name": "S. Engell"
        }
      ]
    },
    {
      "paperId": "c7c66659c469b4520dc84003c1387f7da05cdab1",
      "externalIds": {
        "ArXiv": "2211.00307",
        "DBLP": "journals/corr/abs-2211-00307",
        "DOI": "10.48550/arXiv.2211.00307",
        "CorpusId": 253244629
      },
      "url": "https://www.semanticscholar.org/paper/c7c66659c469b4520dc84003c1387f7da05cdab1",
      "title": "Combined space-time reduced-order model with 3D deep convolution for extrapolating fluid dynamics",
      "venue": "arXiv.org",
      "year": 2022,
      "referenceCount": 46,
      "citationCount": 0,
      "authors": [
        {
          "authorId": "52263735",
          "name": "Indu Kant Deo"
        },
        {
          "authorId": "2057938486",
          "name": "Rui Gao"
        },
        {
          "authorId": "6330065",
          "name": "R. Jaiman"
        }
      ]
    }
  ]
}