{
  "total": 77310,
  "offset": 0,
  "next": 10,
  "data": [
    {
      "paperId": "d529d6ca51498c33d00b01d7431c37af67edfd4a",
      "externalIds": {
        "MAG": "2804036899",
        "DBLP": "journals/corr/abs-1805-06439",
        "ArXiv": "1805.06439",
        "CorpusId": 21729440
      },
      "url": "https://www.semanticscholar.org/paper/d529d6ca51498c33d00b01d7431c37af67edfd4a",
      "title": "Prediction Rule Reshaping",
      "venue": "International Conference on Machine Learning",
      "year": 2018,
      "referenceCount": 27,
      "citationCount": 8,
      "authors": [
        {
          "authorId": "46240631",
          "name": "Matt Bonakdarpour"
        },
        {
          "authorId": "143842635",
          "name": "S. Chatterjee"
        },
        {
          "authorId": "32492090",
          "name": "R. Barber"
        },
        {
          "authorId": "1739581",
          "name": "J. Lafferty"
        }
      ]
    },
    {
      "paperId": "08a4f2bf1b5476db553e5dfbffc02e83f17f3313",
      "externalIds": {
        "DBLP": "journals/tmi/RongZWKN24",
        "DOI": "10.1109/TMI.2023.3331488",
        "CorpusId": 265066422,
        "PubMed": "37938945"
      },
      "url": "https://www.semanticscholar.org/paper/08a4f2bf1b5476db553e5dfbffc02e83f17f3313",
      "title": "Prediction of Myopia Eye Axial Elongation With Orthokeratology Treatment via Dense I2I Based Corneal Topography Change Analysis",
      "venue": "IEEE Transactions on Medical Imaging",
      "year": 2023,
      "referenceCount": 76,
      "citationCount": 11,
      "authors": [
        {
          "authorId": "2141237089",
          "name": "Dingyi Rong"
        },
        {
          "authorId": "2265936084",
          "name": "Zhongyin Zhao"
        },
        {
          "authorId": "2265800888",
          "name": "Yue Wu"
        },
        {
          "authorId": "2265750927",
          "name": "Bilian Ke"
        },
        {
          "authorId": "2274315093",
          "name": "Bingbing Ni"
        }
      ]
    },
    {
      "paperId": "06b082a6a9c8d764482ed821fafd36162aa4f0ae",
      "externalIds": {
        "DOI": "10.1016/s2352-4642(24)00104-4",
        "CorpusId": 270265672,
        "PubMed": "38843852"
      },
      "url": "https://www.semanticscholar.org/paper/06b082a6a9c8d764482ed821fafd36162aa4f0ae",
      "title": "PECARN prediction rule for cervical spine imaging of children presenting to the emergency department with blunt trauma: a multicentre prospective observational study.",
      "venue": "The Lancet Child & Adolescent Health",
      "year": 2024,
      "referenceCount": 42,
      "citationCount": 32,
      "authors": [
        {
          "authorId": "2251383845",
          "name": "Julie C. Leonard"
        },
        {
          "authorId": "2304815138",
          "name": "Monica Harding"
        },
        {
          "authorId": "2265478103",
          "name": "Lawrence J. Cook"
        },
        {
          "authorId": "2251888524",
          "name": "Jeffrey R. Leonard"
        },
        {
          "authorId": "4464032",
          "name": "K. Adelgais"
        },
        {
          "authorId": "11959493",
          "name": "Fahd A. Ahmad"
        },
        {
          "authorId": "30563130",
          "name": "L. Browne"
        },
        {
          "authorId": "2304816785",
          "name": "Rebecca K Burger"
        },
        {
          "authorId": "50438804",
          "name": "Pradip P. Chaudhari"
        },
        {
          "authorId": "2304814050",
          "name": "Daniel J Corwin"
        },
        {
          "authorId": "15823444",
          "name": "N. Glomb"
        },
        {
          "authorId": "2305205321",
          "name": "Lois K Lee"
        },
        {
          "authorId": "2252486447",
          "name": "Sylvia Owusu-Ansah"
        },
        {
          "authorId": "2247167058",
          "name": "Lauren C Riney"
        },
        {
          "authorId": "2245730262",
          "name": "Alexander J. Rogers"
        },
        {
          "authorId": "2304818273",
          "name": "Daniel M Rubalcava"
        },
        {
          "authorId": "2243284605",
          "name": "R. Sapien"
        },
        {
          "authorId": "31847919",
          "name": "M. Szadkowski"
        },
        {
          "authorId": "2823009",
          "name": "L. Tzimenatos"
        },
        {
          "authorId": "2304820062",
          "name": "Caleb E. Ward"
        },
        {
          "authorId": "2296171653",
          "name": "Kenneth Yen"
        },
        {
          "authorId": "2538439",
          "name": "N. Kuppermann"
        }
      ]
    },
    {
      "paperId": "6367db08c0201dd0c2d1611aa6a13a4b2693aefe",
      "externalIds": {
        "MAG": "2320270386",
        "DOI": "10.1056/NEJM199701233360402",
        "CorpusId": 10248964,
        "PubMed": "8995086"
      },
      "url": "https://www.semanticscholar.org/paper/6367db08c0201dd0c2d1611aa6a13a4b2693aefe",
      "title": "A prediction rule to identify low-risk patients with community-acquired pneumonia.",
      "venue": "New England Journal of Medicine",
      "year": 1997,
      "referenceCount": 45,
      "citationCount": 4550,
      "authors": [
        {
          "authorId": "144676704",
          "name": "M. Fine"
        },
        {
          "authorId": "4842339",
          "name": "T. Auble"
        },
        {
          "authorId": "2849335",
          "name": "D. Yealy"
        },
        {
          "authorId": "3068231",
          "name": "B. Hanusa"
        },
        {
          "authorId": "32675155",
          "name": "L. Weissfeld"
        },
        {
          "authorId": "2122382497",
          "name": "Daniel E. Singer"
        },
        {
          "authorId": "2242199",
          "name": "C. Coley"
        },
        {
          "authorId": "117368747",
          "name": "T. Marrie"
        },
        {
          "authorId": "1796768",
          "name": "W. Kapoor"
        }
      ]
    },
    {
      "paperId": "c01e524211d96d4298f346cb379358c65396ef24",
      "externalIds": {
        "PubMedCentral": "8154962",
        "DOI": "10.1136/bmjdrc-2021-002150",
        "CorpusId": 251288986,
        "PubMed": "34035053"
      },
      "url": "https://www.semanticscholar.org/paper/c01e524211d96d4298f346cb379358c65396ef24",
      "title": "Development and validation of a clinical prediction rule for development of diabetic foot ulceration: an analysis of data from five cohort studies",
      "venue": "BMJ Open Diabetes Research & Care",
      "year": 2021,
      "referenceCount": 53,
      "citationCount": 13,
      "authors": [
        {
          "authorId": "6597315",
          "name": "F. Chappell"
        },
        {
          "authorId": "37112221",
          "name": "F. Crawford"
        },
        {
          "authorId": "38126360",
          "name": "M. Horne"
        },
        {
          "authorId": "2234311984",
          "name": "G. Leese"
        },
        {
          "authorId": "2111202655",
          "name": "Ángela Martín"
        },
        {
          "authorId": "145491220",
          "name": "D. Weller"
        },
        {
          "authorId": "3043917",
          "name": "A. Boulton"
        },
        {
          "authorId": "46432815",
          "name": "C. Abbott"
        },
        {
          "authorId": "2254010193",
          "name": "M. Monteiro‐Soares"
        },
        {
          "authorId": "6076485",
          "name": "A. Veves"
        },
        {
          "authorId": "145893714",
          "name": "R. Riley"
        }
      ]
    },
    {
      "paperId": "84e746c66076b0e693f923095ed140532d8d8f13",
      "externalIds": {
        "MAG": "2911933929",
        "DOI": "10.1001/jamapediatrics.2018.5501",
        "CorpusId": 73457264,
        "PubMed": "30776077"
      },
      "url": "https://www.semanticscholar.org/paper/84e746c66076b0e693f923095ed140532d8d8f13",
      "title": "A Clinical Prediction Rule to Identify Febrile Infants 60 Days and Younger at Low Risk for Serious Bacterial Infections",
      "venue": "JAMA pediatrics",
      "year": 2019,
      "referenceCount": 69,
      "citationCount": 302,
      "authors": [
        {
          "authorId": "2538439",
          "name": "N. Kuppermann"
        },
        {
          "authorId": "49924736",
          "name": "P. Dayan"
        },
        {
          "authorId": "1405992859",
          "name": "D. Levine"
        },
        {
          "authorId": "38497799",
          "name": "M. Vitale"
        },
        {
          "authorId": "2823009",
          "name": "L. Tzimenatos"
        },
        {
          "authorId": "4535772",
          "name": "M. Tunik"
        },
        {
          "authorId": "49547140",
          "name": "M. Saunders"
        },
        {
          "authorId": "49547140",
          "name": "M. Saunders"
        },
        {
          "authorId": "2298597997",
          "name": "R. Ruddy"
        },
        {
          "authorId": "2298597997",
          "name": "R. Ruddy"
        },
        {
          "authorId": "2114068",
          "name": "G. Roosevelt"
        },
        {
          "authorId": "2969007",
          "name": "A. Rogers"
        },
        {
          "authorId": "6419743",
          "name": "E. Powell"
        },
        {
          "authorId": "144380564",
          "name": "L. Nigrovic"
        },
        {
          "authorId": "2399183014",
          "name": "Jared T. Muenzer"
        },
        {
          "authorId": "2399183014",
          "name": "Jared T. Muenzer"
        },
        {
          "authorId": "2252666472",
          "name": "James G. Linakis"
        },
        {
          "authorId": "2252666472",
          "name": "James G. Linakis"
        },
        {
          "authorId": "2049367239",
          "name": "K. Grisanti"
        },
        {
          "authorId": "48275109",
          "name": "D. Jaffe"
        },
        {
          "authorId": "119416651",
          "name": "J. Hoyle"
        },
        {
          "authorId": "119416651",
          "name": "J. Hoyle"
        },
        {
          "authorId": "2052793997",
          "name": "R. Greenberg"
        },
        {
          "authorId": "4515746",
          "name": "Rajender K. Gattu"
        },
        {
          "authorId": "4804007",
          "name": "A. Cruz"
        },
        {
          "authorId": "3229264",
          "name": "E. Crain"
        },
        {
          "authorId": "2246434019",
          "name": "Daniel M. Cohen"
        },
        {
          "authorId": "2246434019",
          "name": "Daniel M. Cohen"
        },
        {
          "authorId": "13135360",
          "name": "A. Brayer"
        },
        {
          "authorId": "4662760",
          "name": "D. Borgialli"
        },
        {
          "authorId": "4662760",
          "name": "D. Borgialli"
        },
        {
          "authorId": "3141866",
          "name": "B. Bonsu"
        },
        {
          "authorId": "3141866",
          "name": "B. Bonsu"
        },
        {
          "authorId": "30563130",
          "name": "L. Browne"
        },
        {
          "authorId": "2066018839",
          "name": "Stephen J. Blumberg"
        },
        {
          "authorId": "35151065",
          "name": "J. Bennett"
        },
        {
          "authorId": "5035075",
          "name": "S. Atabaki"
        },
        {
          "authorId": "32004780",
          "name": "J. Anders"
        },
        {
          "authorId": "2241785258",
          "name": "Elizabeth R. Alpern"
        },
        {
          "authorId": "2241785258",
          "name": "Elizabeth R. Alpern"
        },
        {
          "authorId": "2114831195",
          "name": "Benjamin Miller"
        },
        {
          "authorId": "1934504",
          "name": "T. Casper"
        },
        {
          "authorId": "2230665823",
          "name": "J. Dean"
        },
        {
          "authorId": "2293096024",
          "name": "Octavio Ramilo"
        },
        {
          "authorId": "2293096024",
          "name": "Octavio Ramilo"
        },
        {
          "authorId": "2246457955",
          "name": "Prashant Mahajan"
        },
        {
          "authorId": "2246457955",
          "name": "Prashant Mahajan"
        }
      ]
    },
    {
      "paperId": "4dd0fa415bd82c841216b3a5046a434914b29146",
      "externalIds": {
        "MAG": "2927994835",
        "PubMedCentral": "6709770",
        "DOI": "10.1136/gutjnl-2018-317556",
        "CorpusId": 88481015,
        "PubMed": "30926654"
      },
      "url": "https://www.semanticscholar.org/paper/4dd0fa415bd82c841216b3a5046a434914b29146",
      "title": "Development and validation of a prediction rule for estimating gastric cancer risk in the Chinese high-risk population: a nationwide multicentre study",
      "venue": "Gut",
      "year": 2019,
      "referenceCount": 59,
      "citationCount": 176,
      "authors": [
        {
          "authorId": "15036990",
          "name": "Quancai Cai"
        },
        {
          "authorId": "49405980",
          "name": "Chunping Zhu"
        },
        {
          "authorId": "48009853",
          "name": "Yuan Yuan"
        },
        {
          "authorId": "47953417",
          "name": "Qi-shen Feng"
        },
        {
          "authorId": "6158011",
          "name": "Yichao Feng"
        },
        {
          "authorId": "89661892",
          "name": "Ying-xia Hao"
        },
        {
          "authorId": "2144487724",
          "name": "Jichang Li"
        },
        {
          "authorId": "152645177",
          "name": "Kaiguang Zhang"
        },
        {
          "authorId": "37196466",
          "name": "Guoliang Ye"
        },
        {
          "authorId": "2111919877",
          "name": "L. Ye"
        },
        {
          "authorId": "143750585",
          "name": "N. Lv"
        },
        {
          "authorId": "66686232",
          "name": "Shengsheng Zhang"
        },
        {
          "authorId": "2274315",
          "name": "Chengxia Liu"
        },
        {
          "authorId": "1492186765",
          "name": "Mingquan Li"
        },
        {
          "authorId": "2118892414",
          "name": "Qi Liu"
        },
        {
          "authorId": "48881769",
          "name": "Rongzhou Li"
        },
        {
          "authorId": "2122293602",
          "name": "Jie Pan"
        },
        {
          "authorId": "2332876199",
          "name": "Xiaocui Yang"
        },
        {
          "authorId": "89662093",
          "name": "Xuqing Zhu"
        },
        {
          "authorId": "2111175893",
          "name": "Yumei Li"
        },
        {
          "authorId": "2080324624",
          "name": "B. Lao"
        },
        {
          "authorId": "49510860",
          "name": "A. Ling"
        },
        {
          "authorId": "2129523321",
          "name": "Honghui Chen"
        },
        {
          "authorId": "48568435",
          "name": "Xiuling Li"
        },
        {
          "authorId": "2153915962",
          "name": "Ping Xu"
        },
        {
          "authorId": "2146367823",
          "name": "Jianfeng Zhou"
        },
        {
          "authorId": "2116441043",
          "name": "Baozhen Liu"
        },
        {
          "authorId": "49913098",
          "name": "Zhiqiang Du"
        },
        {
          "authorId": "145992015",
          "name": "Yiqi Du"
        },
        {
          "authorId": "48458286",
          "name": "Zhaoshen Li"
        }
      ]
    },
    {
      "paperId": "91cd6292060b70a07f0222af51109cd02dccb351",
      "externalIds": {
        "DOI": "10.1016/j.ajem.2021.03.023",
        "CorpusId": 232303182,
        "PubMed": "33740571"
      },
      "url": "https://www.semanticscholar.org/paper/91cd6292060b70a07f0222af51109cd02dccb351",
      "title": "Clinical prediction rule is more useful than qSOFA and the Sepsis-3 definition of sepsis for screening bacteremia.",
      "venue": "American Journal of Emergency Medicine",
      "year": 2021,
      "referenceCount": 23,
      "citationCount": 11,
      "authors": [
        {
          "authorId": "48295215",
          "name": "Takayuki Otani"
        },
        {
          "authorId": "34712966",
          "name": "Toshihisa Ichiba"
        },
        {
          "authorId": "151080873",
          "name": "Kazunori Seo"
        },
        {
          "authorId": "2106063957",
          "name": "Hiroshi Naito"
        }
      ]
    },
    {
      "paperId": "04901a8d3df2381eac1e7719492223a5c7c340f0",
      "externalIds": {
        "MAG": "3134446436",
        "PubMedCentral": "8001831",
        "DOI": "10.3390/jcm10061163",
        "CorpusId": 232384048,
        "PubMed": "33802092"
      },
      "url": "https://www.semanticscholar.org/paper/04901a8d3df2381eac1e7719492223a5c7c340f0",
      "title": "A Diagnostic Algorithm Based on a Simple Clinical Prediction Rule for the Diagnosis of Cranial Giant Cell Arteritis",
      "venue": "Journal of Clinical Medicine",
      "year": 2021,
      "referenceCount": 42,
      "citationCount": 7,
      "authors": [
        {
          "authorId": "6910416",
          "name": "M. Czihal"
        },
        {
          "authorId": "7996846",
          "name": "C. Lottspeich"
        },
        {
          "authorId": "2758832",
          "name": "C. Bernau"
        },
        {
          "authorId": "29904604",
          "name": "T. Henke"
        },
        {
          "authorId": "2007000087",
          "name": "I. Prearo"
        },
        {
          "authorId": "13192565",
          "name": "M. Mackert"
        },
        {
          "authorId": "6922927",
          "name": "S. Priglinger"
        },
        {
          "authorId": "48763230",
          "name": "C. Dechant"
        },
        {
          "authorId": "83436520",
          "name": "H. Schulze-Koops"
        },
        {
          "authorId": "48312749",
          "name": "U. Hoffmann"
        }
      ]
    },
    {
      "paperId": "4b65f08bb09eeda9c3c9f6598a0fa5f47b5d9034",
      "externalIds": {
        "MAG": "3010345443",
        "DOI": "10.1016/j.jcin.2020.01.226",
        "CorpusId": 212564808,
        "PubMed": "32139218"
      },
      "url": "https://www.semanticscholar.org/paper/4b65f08bb09eeda9c3c9f6598a0fa5f47b5d9034",
      "title": "Derivation, Validation, and Prognostic Utility of a Prediction Rule for Nonresponse to Clopidogrel: The ABCD-GENE Score.",
      "venue": "JACC: Cardiovascular Interventions",
      "year": 2020,
      "referenceCount": 41,
      "citationCount": 146,
      "authors": [
        {
          "authorId": "5218694",
          "name": "D. Angiolillo"
        },
        {
          "authorId": "6567268",
          "name": "D. Capodanno"
        },
        {
          "authorId": "32855948",
          "name": "N. Danchin"
        },
        {
          "authorId": "46719668",
          "name": "T. Simon"
        },
        {
          "authorId": "7341400",
          "name": "T. Bergmeijer"
        },
        {
          "authorId": "51279242",
          "name": "J. T. ten Berg"
        },
        {
          "authorId": "2533661",
          "name": "D. Sibbing"
        },
        {
          "authorId": "4160427",
          "name": "M. Price"
        }
      ]
    }
  ]
}