{
  "total": 565,
  "offset": 0,
  "next": 10,
  "data": [
    {
      "paperId": "e2ef0f1a528cd0f415be8265a04466a6d3f74e6c",
      "externalIds": {
        "MAG": "2963376432",
        "DBLP": "journals/corr/BojanowskiJLS17",
        "ArXiv": "1707.05776",
        "CorpusId": 2019311
      },
      "url": "https://www.semanticscholar.org/paper/e2ef0f1a528cd0f415be8265a04466a6d3f74e6c",
      "title": "Optimizing the Latent Space of Generative Networks",
      "venue": "International Conference on Machine Learning",
      "year": 2017,
      "referenceCount": 62,
      "citationCount": 455,
      "authors": [
        {
          "authorId": "2329288",
          "name": "Piotr Bojanowski"
        },
        {
          "authorId": "2319608",
          "name": "Armand Joulin"
        },
        {
          "authorId": "1401804750",
          "name": "David Lopez-Paz"
        },
        {
          "authorId": "3149531",
          "name": "Arthur Szlam"
        }
      ]
    },
    {
      "paperId": "346317d5901d7557c2f550ebb47efa6356aa7e65",
      "externalIds": {
        "DBLP": "conf/gecco/MignacoRCNT24",
        "DOI": "10.1145/3638530.3664147",
        "CorpusId": 271645830
      },
      "url": "https://www.semanticscholar.org/paper/346317d5901d7557c2f550ebb47efa6356aa7e65",
      "title": "Empirical comparison of evolutionary approaches for searching the latent space of Generative Adversarial Networks for the human face generation problem",
      "venue": "GECCO Companion",
      "year": 2024,
      "referenceCount": 27,
      "citationCount": 1,
      "authors": [
        {
          "authorId": "2224590002",
          "name": "Jimena Mignaco"
        },
        {
          "authorId": "2224583642",
          "name": "Gonzalo Rey"
        },
        {
          "authorId": "2224582573",
          "name": "Jairo Correa"
        },
        {
          "authorId": "2000700673",
          "name": "S. Nesmachnow"
        },
        {
          "authorId": "2076641",
          "name": "J. Toutouh"
        }
      ]
    },
    {
      "paperId": "0a5fbe440e10d179f4936a7a3395e3fb0366b111",
      "externalIds": {
        "DOI": "10.3390/app15105228",
        "CorpusId": 278442005
      },
      "url": "https://www.semanticscholar.org/paper/0a5fbe440e10d179f4936a7a3395e3fb0366b111",
      "title": "ICSO: A Novel Hybrid Evolutionary Approach with Crisscross and Perturbation Mechanisms for Optimizing Generative Adversarial Network Latent Space",
      "venue": "Applied Sciences",
      "year": 2025,
      "referenceCount": 24,
      "citationCount": 0,
      "authors": [
        {
          "authorId": "2298416201",
          "name": "Zhihui Chen"
        },
        {
          "authorId": "2089787784",
          "name": "Ting Lan"
        },
        {
          "authorId": "2641788",
          "name": "Z. Cai"
        },
        {
          "authorId": "2359952592",
          "name": "Zonglin Liu"
        },
        {
          "authorId": "2356121344",
          "name": "Renzhang Chen"
        }
      ]
    },
    {
      "paperId": "d197a1d46cb7a7a6d1b78102af0c294ed9b7879a",
      "externalIds": {
        "MAG": "3001549159",
        "DBLP": "journals/corr/abs-2001-08126",
        "ArXiv": "2001.08126",
        "CorpusId": 210859386
      },
      "url": "https://www.semanticscholar.org/paper/d197a1d46cb7a7a6d1b78102af0c294ed9b7879a",
      "title": "Optimizing Generative Adversarial Networks for Image Super Resolution via Latent Space Regularization",
      "venue": "arXiv.org",
      "year": 2020,
      "referenceCount": 37,
      "citationCount": 2,
      "authors": [
        {
          "authorId": "1585910467",
          "name": "Shengzhou Zhong"
        },
        {
          "authorId": "51321977",
          "name": "Shi-Yi Zhou"
        }
      ]
    },
    {
      "paperId": "15b815d642656900e937d1624f18e18315acd954",
      "externalIds": {
        "MAG": "3015118034",
        "DOI": "10.1109/ICICAS48597.2019.00020",
        "CorpusId": 215723047
      },
      "url": "https://www.semanticscholar.org/paper/15b815d642656900e937d1624f18e18315acd954",
      "title": "Optimizing Generative Adversarial Networks in Latent Space",
      "venue": "2019 International Conference on Intelligent Computing, Automation and Systems (ICICAS)",
      "year": 2019,
      "referenceCount": 26,
      "citationCount": 5,
      "authors": [
        {
          "authorId": "2054421514",
          "name": "Bin Xiao"
        },
        {
          "authorId": "2145266405",
          "name": "Xiaokang Yang"
        }
      ]
    },
    {
      "paperId": "8ba9e5046b3d06e4695718ec9cfe875e6e189f7c",
      "externalIds": {
        "DOI": "10.1021/acs.jctc.4c01096",
        "CorpusId": 273617574,
        "PubMed": "39454048"
      },
      "url": "https://www.semanticscholar.org/paper/8ba9e5046b3d06e4695718ec9cfe875e6e189f7c",
      "title": "Crystal Structure Prediction Using Generative Adversarial Network with Data-Driven Latent Space Fusion Strategy.",
      "venue": "Journal of Chemical Theory and Computation",
      "year": 2024,
      "referenceCount": 51,
      "citationCount": 11,
      "authors": [
        {
          "authorId": "2304050412",
          "name": "Zian Chen"
        },
        {
          "authorId": "2327786519",
          "name": "Haichao Li"
        },
        {
          "authorId": "2320184921",
          "name": "Chen Zhang"
        },
        {
          "authorId": "2327836146",
          "name": "Hongbin Zhang"
        },
        {
          "authorId": "2287771238",
          "name": "Yongxiao Zhao"
        },
        {
          "authorId": "2328027598",
          "name": "Jian Cao"
        },
        {
          "authorId": "2329139084",
          "name": "Tao He"
        },
        {
          "authorId": "2287878371",
          "name": "Lina Xu"
        },
        {
          "authorId": "2327974619",
          "name": "Hongping Xiao"
        },
        {
          "authorId": "2153684164",
          "name": "Yi Li"
        },
        {
          "authorId": "2313541427",
          "name": "Hezhu Shao"
        },
        {
          "authorId": "2249146896",
          "name": "Xiaoyu Yang"
        },
        {
          "authorId": "2167613620",
          "name": "Xiao He"
        },
        {
          "authorId": "2287138276",
          "name": "Guoyong Fang"
        }
      ]
    },
    {
      "paperId": "b3f3a40109e87c469ea371ca116bdb515e8f76b7",
      "externalIds": {
        "PubMedCentral": "12780102",
        "DOI": "10.1038/s41598-025-30381-y",
        "CorpusId": 283436621,
        "PubMed": "41318698"
      },
      "url": "https://www.semanticscholar.org/paper/b3f3a40109e87c469ea371ca116bdb515e8f76b7",
      "title": "Enhanced model inversion via frequency disentanglement and latent space optimization",
      "venue": "Scientific Reports",
      "year": 2025,
      "referenceCount": 30,
      "citationCount": 0,
      "authors": [
        {
          "authorId": "2394972074",
          "name": "Jiashuai Yang"
        },
        {
          "authorId": "2394938382",
          "name": "Bin Wen"
        },
        {
          "authorId": "2394964484",
          "name": "Jiateng Zhao"
        },
        {
          "authorId": "2394951664",
          "name": "Shang Zhou"
        }
      ]
    },
    {
      "paperId": "6f5fd3cb87eef33bf680b9f765d0e6061dbd81b7",
      "externalIds": {
        "DBLP": "journals/corr/abs-2303-12739",
        "ArXiv": "2303.12739",
        "DOI": "10.48550/arXiv.2303.12739",
        "CorpusId": 257663439
      },
      "url": "https://www.semanticscholar.org/paper/6f5fd3cb87eef33bf680b9f765d0e6061dbd81b7",
      "title": "Optimizing CAD Models with Latent Space Manipulation",
      "venue": "Procedia CIRP",
      "year": 2023,
      "referenceCount": 23,
      "citationCount": 0,
      "authors": [
        {
          "authorId": "47354653",
          "name": "Jannes Elstner"
        },
        {
          "authorId": "2065868594",
          "name": "Raoul Schönhof"
        },
        {
          "authorId": "2155487849",
          "name": "Steffen Tauber"
        },
        {
          "authorId": "1959068",
          "name": "Marco F. Huber"
        }
      ]
    },
    {
      "paperId": "8da6e8093b6539ccb35c04d1ab1ee27fa7071dc0",
      "externalIds": {
        "ArXiv": "2303.14552",
        "DBLP": "journals/corr/abs-2303-14552",
        "DOI": "10.48550/arXiv.2303.14552",
        "CorpusId": 257767294
      },
      "url": "https://www.semanticscholar.org/paper/8da6e8093b6539ccb35c04d1ab1ee27fa7071dc0",
      "title": "Spatial Latent Representations in Generative Adversarial Networks for Image Generation",
      "venue": "arXiv.org",
      "year": 2023,
      "referenceCount": 51,
      "citationCount": 1,
      "authors": [
        {
          "authorId": "2039963199",
          "name": "Maciej Sypetkowski"
        }
      ]
    },
    {
      "paperId": "d2a0354083cf0e9d532a3bd37a079656b08baa02",
      "externalIds": {
        "DBLP": "journals/corr/abs-2504-21577",
        "DOI": "10.48550/arXiv.2504.21577",
        "CorpusId": 281248269
      },
      "url": "https://www.semanticscholar.org/paper/d2a0354083cf0e9d532a3bd37a079656b08baa02",
      "title": "Latent Feature-Guided Conditional Diffusion for High-Fidelity Generative Image Semantic Communication",
      "venue": "arXiv.org",
      "year": 2025,
      "referenceCount": 21,
      "citationCount": 0,
      "authors": [
        {
          "authorId": "2358455422",
          "name": "Zehao Chen"
        },
        {
          "authorId": "2322834117",
          "name": "Xinfeng Wei"
        },
        {
          "authorId": "2058143675",
          "name": "Haonan Tong"
        },
        {
          "authorId": "2283453343",
          "name": "Zhaohui Yang"
        },
        {
          "authorId": "2261549984",
          "name": "Changchuan Yin"
        }
      ]
    }
  ]
}