{
  "total": 90,
  "offset": 0,
  "next": 10,
  "data": [
    {
      "paperId": "311dbdf39b17668efdcb03457f824fd6c0e716ca",
      "externalIds": {
        "MAG": "2740010192",
        "DBLP": "conf/icml/PallaKG17",
        "DOI": "10.17863/CAM.11071",
        "CorpusId": 19832493
      },
      "url": "https://www.semanticscholar.org/paper/311dbdf39b17668efdcb03457f824fd6c0e716ca",
      "title": "A Birth-Death Process for Feature Allocation",
      "venue": "International Conference on Machine Learning",
      "year": 2017,
      "referenceCount": 25,
      "citationCount": 2,
      "authors": [
        {
          "authorId": "2524644",
          "name": "Konstantina Palla"
        },
        {
          "authorId": "3250170",
          "name": "David A. Knowles"
        },
        {
          "authorId": "1744700",
          "name": "Zoubin Ghahramani"
        }
      ]
    },
    {
      "paperId": "babfa0f605856fb111bd46d3f3a07be484eb8d6c",
      "externalIds": {
        "MAG": "3005079627",
        "DOI": "10.1016/j.jtbi.2020.110187",
        "CorpusId": 201103925,
        "PubMed": "32032596"
      },
      "url": "https://www.semanticscholar.org/paper/babfa0f605856fb111bd46d3f3a07be484eb8d6c",
      "title": "Dynamics of a birth-death process based on combinatorial innovation.",
      "venue": "Journal of Theoretical Biology",
      "year": 2019,
      "referenceCount": 32,
      "citationCount": 31,
      "authors": [
        {
          "authorId": "144568572",
          "name": "M. Steel"
        },
        {
          "authorId": "2445133",
          "name": "W. Hordijk"
        },
        {
          "authorId": "143980023",
          "name": "S. Kauffman"
        }
      ]
    },
    {
      "paperId": "9bc22c25fea96cb9efce4bb538f62b2786a3ef9b",
      "externalIds": {
        "PubMedCentral": "10275547",
        "DOI": "10.1093/sysbio/syac073",
        "CorpusId": 233329053,
        "PubMed": "36382797"
      },
      "url": "https://www.semanticscholar.org/paper/9bc22c25fea96cb9efce4bb538f62b2786a3ef9b",
      "title": "Estimating the Age of Poorly Dated Fossil Specimens and Deposits Using a Total-Evidence Approach and the Fossilized Birth-Death Process",
      "venue": "bioRxiv",
      "year": 2021,
      "referenceCount": 50,
      "citationCount": 3,
      "authors": [
        {
          "authorId": "1405245342",
          "name": "Joëlle Barido‐Sottani"
        },
        {
          "authorId": "1422160950",
          "name": "D. Żyła"
        },
        {
          "authorId": "40388948",
          "name": "T. Heath"
        }
      ]
    },
    {
      "paperId": "444fddbad4e3667a770298d0b37a6234bfcb5c42",
      "externalIds": {
        "MAG": "2741757957",
        "DOI": "10.1239/JAP/1110381380",
        "CorpusId": 7893030
      },
      "url": "https://www.semanticscholar.org/paper/444fddbad4e3667a770298d0b37a6234bfcb5c42",
      "title": "Extinction probability in a birth-death process with killing",
      "venue": "",
      "year": 2005,
      "referenceCount": 28,
      "citationCount": 55,
      "authors": [
        {
          "authorId": "1756062",
          "name": "E. A. Doorn"
        },
        {
          "authorId": "1752456",
          "name": "A. Zeifman"
        }
      ]
    },
    {
      "paperId": "bcaba972e96e9d1fe2892f03f45d9784c04740e6",
      "externalIds": {
        "MAG": "2930735174",
        "ArXiv": "1904.03290",
        "CorpusId": 102350843
      },
      "url": "https://www.semanticscholar.org/paper/bcaba972e96e9d1fe2892f03f45d9784c04740e6",
      "title": "Dynamics of a combinatorial birth-death process based on the 'adjacent possible'",
      "venue": "",
      "year": 2019,
      "referenceCount": 13,
      "citationCount": 1,
      "authors": [
        {
          "authorId": "144568572",
          "name": "M. Steel"
        },
        {
          "authorId": "2445133",
          "name": "W. Hordijk"
        },
        {
          "authorId": "143980023",
          "name": "S. Kauffman"
        }
      ]
    },
    {
      "paperId": "61cd13e1031dbb3d9754a0634b7e2f9b7bfafc2f",
      "externalIds": {
        "DBLP": "journals/ton/ZhengE25",
        "DOI": "10.1109/TON.2025.3553858",
        "CorpusId": 277691041
      },
      "url": "https://www.semanticscholar.org/paper/61cd13e1031dbb3d9754a0634b7e2f9b7bfafc2f",
      "title": "State-Independent Control for Constrained Markov Decision Processes With Birth-Death Dynamics",
      "venue": "IEEE Transactions on Networking",
      "year": 2025,
      "referenceCount": 51,
      "citationCount": 1,
      "authors": [
        {
          "authorId": "2303925203",
          "name": "Yilin Zheng"
        },
        {
          "authorId": "1688915",
          "name": "A. Eryilmaz"
        }
      ]
    },
    {
      "paperId": "0189f0deec4fb0e73a691d49b755b8e3d40e1c87",
      "externalIds": {
        "MAG": "1997746571",
        "DOI": "10.1017/S0334270000007621",
        "CorpusId": 120164342
      },
      "url": "https://www.semanticscholar.org/paper/0189f0deec4fb0e73a691d49b755b8e3d40e1c87",
      "title": "Geomatric ergodicity and quasi-stationarity in discrete-time birth-death processes",
      "venue": "The Journal of the Australian Mathematical Society Series B Applied Mathematics",
      "year": 1995,
      "referenceCount": 28,
      "citationCount": 40,
      "authors": [
        {
          "authorId": "2075553399",
          "name": "E. A. Doorn"
        },
        {
          "authorId": "102640285",
          "name": "P. Schrijner"
        }
      ]
    },
    {
      "paperId": "c437711cd26ffed14df2c363e185ce3863eace5e",
      "externalIds": {
        "MAG": "2103021283",
        "DOI": "10.1006/JMAA.1995.1076",
        "CorpusId": 122495321
      },
      "url": "https://www.semanticscholar.org/paper/c437711cd26ffed14df2c363e185ce3863eace5e",
      "title": "Ratio Limits and Limiting Conditional Distributions for Discrete-Time Birth-Death Processes",
      "venue": "",
      "year": 1995,
      "referenceCount": 0,
      "citationCount": 38,
      "authors": [
        {
          "authorId": "2075553399",
          "name": "E. A. Doorn"
        },
        {
          "authorId": "102640285",
          "name": "P. Schrijner"
        }
      ]
    },
    {
      "paperId": "0cea82abd9be1484b91c3ea0b6dfe21964d0adbc",
      "externalIds": {
        "CorpusId": 249647828
      },
      "url": "https://www.semanticscholar.org/paper/0cea82abd9be1484b91c3ea0b6dfe21964d0adbc",
      "title": "GEOMETRIC ERGODICITY AND QUASI-STATIONARITY IN DISCRETE-TIME BIRTH-DEATH PROCESSES",
      "venue": "",
      "year": 2004,
      "referenceCount": 30,
      "citationCount": 21,
      "authors": [
        {
          "authorId": "1756062",
          "name": "E. A. Doorn"
        },
        {
          "authorId": "2170217499",
          "name": "Pauline Schrdner"
        }
      ]
    },
    {
      "paperId": "8575c978aecc998ed6d7f87f25107580e8a6e05f",
      "externalIds": {
        "MAG": "2135226696",
        "DOI": "10.1155/JAMSA/2006/84640",
        "CorpusId": 11129730
      },
      "url": "https://www.semanticscholar.org/paper/8575c978aecc998ed6d7f87f25107580e8a6e05f",
      "title": "Conditions for the existence of quasi-stationary distributions for birth-death processes with killing",
      "venue": "",
      "year": 2006,
      "referenceCount": 19,
      "citationCount": 34,
      "authors": [
        {
          "authorId": "1756062",
          "name": "E. A. Doorn"
        }
      ]
    }
  ]
}