{
  "total": 10462,
  "offset": 0,
  "next": 10,
  "data": [
    {
      "paperId": "0233c9bf280cd2259324874b8b9a7e2f868fd758",
      "externalIds": {
        "DBLP": "conf/icml/MalherbeCV16",
        "MAG": "2300000356",
        "ArXiv": "1603.04381",
        "CorpusId": 6747147
      },
      "url": "https://www.semanticscholar.org/paper/0233c9bf280cd2259324874b8b9a7e2f868fd758",
      "title": "A ranking approach to global optimization",
      "venue": "International Conference on Machine Learning",
      "year": 2016,
      "referenceCount": 44,
      "citationCount": 10,
      "authors": [
        {
          "authorId": "3428619",
          "name": "C. Malherbe"
        },
        {
          "authorId": "3055651",
          "name": "E. Contal"
        },
        {
          "authorId": "1715204",
          "name": "N. Vayatis"
        }
      ]
    },
    {
      "paperId": "a6cab4d7783f3389311187ae457a63853967a817",
      "externalIds": {
        "CorpusId": 265095536
      },
      "url": "https://www.semanticscholar.org/paper/a6cab4d7783f3389311187ae457a63853967a817",
      "title": "A ranking approach to global optimization",
      "venue": "",
      "year": 2016,
      "referenceCount": 3,
      "citationCount": 1,
      "authors": []
    },
    {
      "paperId": "3bba23b7614fbc4a74ecd12fc2fc5489bd374e84",
      "externalIds": {
        "DBLP": "journals/mcs/YanZZT21",
        "MAG": "3115211887",
        "DOI": "10.1016/j.matcom.2020.12.008",
        "CorpusId": 232342680
      },
      "url": "https://www.semanticscholar.org/paper/3bba23b7614fbc4a74ecd12fc2fc5489bd374e84",
      "title": "Nature-inspired approach: An enhanced whale optimization algorithm for global optimization",
      "venue": "Mathematics and Computers in Simulation",
      "year": 2021,
      "referenceCount": 79,
      "citationCount": 75,
      "authors": [
        {
          "authorId": "2770605",
          "name": "Zheping Yan"
        },
        {
          "authorId": "2108531596",
          "name": "Jinzhong Zhang"
        },
        {
          "authorId": "2072982664",
          "name": "Jia Zeng"
        },
        {
          "authorId": "1934567850",
          "name": "Jialing Tang"
        }
      ]
    },
    {
      "paperId": "a5e8df34a8e72d31cabb6a716f9ca63bb241669e",
      "externalIds": {
        "PubMedCentral": "9299288",
        "DBLP": "journals/peerj-cs/SungZZ22",
        "DOI": "10.7717/peerj-cs.1007",
        "CorpusId": 249836238,
        "PubMed": "35875657"
      },
      "url": "https://www.semanticscholar.org/paper/a5e8df34a8e72d31cabb6a716f9ca63bb241669e",
      "title": "An adaptive dimension differential evolution algorithm based on ranking scheme for global optimization",
      "venue": "PeerJ Computer Science",
      "year": 2022,
      "referenceCount": 59,
      "citationCount": 4,
      "authors": [
        {
          "authorId": "6055005",
          "name": "Tien-Wen Sung"
        },
        {
          "authorId": "2108862247",
          "name": "Baohua Zhao"
        },
        {
          "authorId": "2149173768",
          "name": "Xin Zhang"
        }
      ]
    },
    {
      "paperId": "3ac65b6e0d06b2d369ed54b1882a8d883810c62e",
      "externalIds": {
        "MAG": "3093154146",
        "DBLP": "journals/eaai/KaurRBD20",
        "DOI": "10.1016/j.engappai.2020.104008",
        "CorpusId": 225136493
      },
      "url": "https://www.semanticscholar.org/paper/3ac65b6e0d06b2d369ed54b1882a8d883810c62e",
      "title": "MOEPO: A novel Multi-objective Emperor Penguin Optimizer for global optimization: Special application in ranking of cloud service providers",
      "venue": "Engineering applications of artificial intelligence",
      "year": 2020,
      "referenceCount": 69,
      "citationCount": 46,
      "authors": [
        {
          "authorId": "2061225458",
          "name": "Harsimran Kaur"
        },
        {
          "authorId": "49162706",
          "name": "Anurag S. D. Rai"
        },
        {
          "authorId": "153937540",
          "name": "S. S. Bhatia"
        },
        {
          "authorId": "2361331852",
          "name": "Gaurav Dhiman"
        }
      ]
    },
    {
      "paperId": "8c7efed862b016190dbb66ac7d68dcd85cbaebcc",
      "externalIds": {
        "DBLP": "conf/mm/ZhengY22",
        "DOI": "10.1145/3552437.3555692",
        "CorpusId": 252624170
      },
      "url": "https://www.semanticscholar.org/paper/8c7efed862b016190dbb66ac7d68dcd85cbaebcc",
      "title": "A Person Re-identification Approach Focusing on the Occlusion Problem and Ranking Optimization",
      "venue": "MMSports@MM",
      "year": 2022,
      "referenceCount": 38,
      "citationCount": 2,
      "authors": [
        {
          "authorId": "2186746235",
          "name": "Wenkai Zheng"
        },
        {
          "authorId": "2186550484",
          "name": "Mei Yuan"
        }
      ]
    },
    {
      "paperId": "5b63eea8b8c579e8d68172456f14bfc103985ac3",
      "externalIds": {
        "MAG": "2006854209",
        "DOI": "10.1063/1.4869349",
        "CorpusId": 33784553,
        "PubMed": "24697401"
      },
      "url": "https://www.semanticscholar.org/paper/5b63eea8b8c579e8d68172456f14bfc103985ac3",
      "title": "Optimization of global model composed of radial basis functions using the term-ranking approach.",
      "venue": "Chaos",
      "year": 2014,
      "referenceCount": 47,
      "citationCount": 0,
      "authors": [
        {
          "authorId": "2056876200",
          "name": "Peng Cai"
        },
        {
          "authorId": "11312798",
          "name": "C. Tao"
        },
        {
          "authorId": "2141414475",
          "name": "Xiao-jun Liu"
        }
      ]
    },
    {
      "paperId": "746f50435bc641ec94326c78b7c984880035f295",
      "externalIds": {
        "DBLP": "journals/ijon/WangLWL19",
        "MAG": "2920726522",
        "DOI": "10.1016/J.NEUCOM.2019.02.054",
        "CorpusId": 106407451
      },
      "url": "https://www.semanticscholar.org/paper/746f50435bc641ec94326c78b7c984880035f295",
      "title": "Opposition-based multi-objective whale optimization algorithm with global grid ranking",
      "venue": "Neurocomputing",
      "year": 2019,
      "referenceCount": 58,
      "citationCount": 64,
      "authors": [
        {
          "authorId": "2013739278",
          "name": "Wanliang Wang"
        },
        {
          "authorId": "2372258170",
          "name": "Weikun Li"
        },
        {
          "authorId": "145723090",
          "name": "Zheng Wang"
        },
        {
          "authorId": "2156059282",
          "name": "Li Li"
        }
      ]
    },
    {
      "paperId": "950c75fbc4ddc70acc8f9cae4576dded3c951273",
      "externalIds": {
        "MAG": "2008371125",
        "DOI": "10.1109/TMAG.2013.2240285",
        "CorpusId": 22430574
      },
      "url": "https://www.semanticscholar.org/paper/950c75fbc4ddc70acc8f9cae4576dded3c951273",
      "title": "Multiguiders and Nondominate Ranking Differential Evolution Algorithm for Multiobjective Global Optimization of Electromagnetic Problems",
      "venue": "IEEE transactions on magnetics",
      "year": 2013,
      "referenceCount": 12,
      "citationCount": 17,
      "authors": [
        {
          "authorId": "2707552",
          "name": "N. Baatar"
        },
        {
          "authorId": "3187826",
          "name": "Minh-Trien Pham"
        },
        {
          "authorId": "143792084",
          "name": "C. Koh"
        }
      ]
    },
    {
      "paperId": "edf820a1fce8e60dad9715afea07a781f4b4d04d",
      "externalIds": {
        "ArXiv": "2412.12690",
        "CorpusId": 279250171
      },
      "url": "https://www.semanticscholar.org/paper/edf820a1fce8e60dad9715afea07a781f4b4d04d",
      "title": "Preference Robust Ordinal Priority Approach with Preference Elicitation under Incomplete Information for Multi-Attribute Robust Ranking and Selection",
      "venue": "",
      "year": 2024,
      "referenceCount": 38,
      "citationCount": 1,
      "authors": [
        {
          "authorId": "2312781239",
          "name": "Renlong Wang"
        }
      ]
    }
  ]
}