{
  "total": 3031,
  "offset": 0,
  "next": 10,
  "data": [
    {
      "paperId": "d6c8a1d2cec997a842573241cfb728a4c806083a",
      "externalIds": {
        "CorpusId": 5115133
      },
      "url": "https://www.semanticscholar.org/paper/d6c8a1d2cec997a842573241cfb728a4c806083a",
      "title": "Canopy — Fast Sampling with Cover Trees",
      "venue": "",
      "year": 2017,
      "referenceCount": 0,
      "citationCount": 7,
      "authors": [
        {
          "authorId": "2079458895",
          "name": "A. A. Sampler"
        }
      ]
    },
    {
      "paperId": "1659442006adb9277af5871736ab1ea9ac8a0ad1",
      "externalIds": {
        "MAG": "2741008572",
        "DBLP": "conf/icml/ZaheerKAMS17",
        "CorpusId": 21359232
      },
      "url": "https://www.semanticscholar.org/paper/1659442006adb9277af5871736ab1ea9ac8a0ad1",
      "title": "Canopy Fast Sampling with Cover Trees",
      "venue": "International Conference on Machine Learning",
      "year": 2017,
      "referenceCount": 24,
      "citationCount": 1,
      "authors": [
        {
          "authorId": "1771307",
          "name": "M. Zaheer"
        },
        {
          "authorId": "2150275",
          "name": "Satwik Kottur"
        },
        {
          "authorId": "143629707",
          "name": "Amr Ahmed"
        },
        {
          "authorId": "144915495",
          "name": "José M. F. Moura"
        },
        {
          "authorId": "46234526",
          "name": "Alex Smola"
        }
      ]
    },
    {
      "paperId": "6419a77a87a7cbe1d0d16cd4afe5221a6dc211c1",
      "externalIds": {
        "DOI": "10.59436/jsiane.143.2583-2093",
        "CorpusId": 274099740
      },
      "url": "https://www.semanticscholar.org/paper/6419a77a87a7cbe1d0d16cd4afe5221a6dc211c1",
      "title": "MAJOR WEEDS FLORA OF THE TERRESTRIAL FORESTS ORCHARDS IN BANGLADESH",
      "venue": "Journal of Science Innovations and Nature of Earth",
      "year": 2022,
      "referenceCount": 2,
      "citationCount": 0,
      "authors": [
        {
          "authorId": "2331070107",
          "name": "Mohammed Mukhlesur Rahman*"
        },
        {
          "authorId": "2331073291",
          "name": "Mohammed Mahfuzur Rahman"
        }
      ]
    },
    {
      "paperId": "2bc6ab93d886f4bada996948a53506c2fcb9532d",
      "externalIds": {
        "DOI": "10.1002/ieam.4704",
        "CorpusId": 253108800,
        "PubMed": "36281815"
      },
      "url": "https://www.semanticscholar.org/paper/2bc6ab93d886f4bada996948a53506c2fcb9532d",
      "title": "Determination of the optimum number of sample points to classify land cover types and estimate the contribution of trees on ecosystem services using the I‐Tree Canopy tool",
      "venue": "Integrated Environmental Assessment and Management",
      "year": 2022,
      "referenceCount": 72,
      "citationCount": 13,
      "authors": [
        {
          "authorId": "50873828",
          "name": "S. Selim"
        },
        {
          "authorId": "2057498890",
          "name": "B. Dönmez"
        },
        {
          "authorId": "90310774",
          "name": "A. Kılçık"
        }
      ]
    },
    {
      "paperId": "9aff7f3a09dff8a0e425c4d384392bbc51f7a2de",
      "externalIds": {
        "DOI": "10.1002/ecy.4116",
        "CorpusId": 259023510,
        "PubMed": "37263980"
      },
      "url": "https://www.semanticscholar.org/paper/9aff7f3a09dff8a0e425c4d384392bbc51f7a2de",
      "title": "Positive tree diversity effects on arboreal spider abundance are tied to canopy cover in a forest experiment.",
      "venue": "Ecology",
      "year": 2023,
      "referenceCount": 0,
      "citationCount": 11,
      "authors": [
        {
          "authorId": "2257771780",
          "name": "E. Butz"
        },
        {
          "authorId": "2218758576",
          "name": "Lauren Schmitt"
        },
        {
          "authorId": "49084894",
          "name": "J. Parker"
        },
        {
          "authorId": "38044805",
          "name": "K. Burghardt"
        }
      ]
    },
    {
      "paperId": "693dc0fe7b63b0c62fc1788c97f7c5fbecd37ddb",
      "externalIds": {
        "DOI": "10.1080/03071375.2023.2233864",
        "CorpusId": 260025261
      },
      "url": "https://www.semanticscholar.org/paper/693dc0fe7b63b0c62fc1788c97f7c5fbecd37ddb",
      "title": "The canopy cover Webmap of the United Kingdom’s towns and cities",
      "venue": "Arboricultural Journal, The International Journal of Urban Forestry",
      "year": 2023,
      "referenceCount": 8,
      "citationCount": 10,
      "authors": [
        {
          "authorId": "151455157",
          "name": "K. Sales"
        },
        {
          "authorId": "2277802234",
          "name": "H. Walker"
        },
        {
          "authorId": "2089487831",
          "name": "K. Sparrow"
        },
        {
          "authorId": "38235795",
          "name": "P. Handley"
        },
        {
          "authorId": "1739469990",
          "name": "M. Vaz Monteiro"
        },
        {
          "authorId": "153497375",
          "name": "Kathryn L. Hand"
        },
        {
          "authorId": "2003027603",
          "name": "Annabel Buckland"
        },
        {
          "authorId": "2180595216",
          "name": "Alexander Chambers-Ostler"
        },
        {
          "authorId": "4570057",
          "name": "K. Doick"
        }
      ]
    },
    {
      "paperId": "d2faa9da62c04653718060d91acac03b6a732de5",
      "externalIds": {
        "MAG": "2509638468",
        "DOI": "10.1016/J.UFUG.2016.08.011",
        "CorpusId": 88828633
      },
      "url": "https://www.semanticscholar.org/paper/d2faa9da62c04653718060d91acac03b6a732de5",
      "title": "Estimation of urban tree canopy cover using random point sampling and remote sensing methods",
      "venue": "",
      "year": 2016,
      "referenceCount": 38,
      "citationCount": 110,
      "authors": [
        {
          "authorId": "1918508",
          "name": "E. G. Parmehr"
        },
        {
          "authorId": "12304045",
          "name": "M. Amati"
        },
        {
          "authorId": "2055800919",
          "name": "Elizabeth Taylor"
        },
        {
          "authorId": "47529342",
          "name": "S. Livesley"
        }
      ]
    },
    {
      "paperId": "e6508343bd5b58ef816cc6b189596610993b6021",
      "externalIds": {
        "MAG": "3200331759",
        "DOI": "10.1016/j.foreco.2021.119682",
        "CorpusId": 240585585
      },
      "url": "https://www.semanticscholar.org/paper/e6508343bd5b58ef816cc6b189596610993b6021",
      "title": "Predicting canopy cover of diverse forest types from individual tree measurements",
      "venue": "Forest Ecology and Management",
      "year": 2021,
      "referenceCount": 49,
      "citationCount": 14,
      "authors": [
        {
          "authorId": "2461756",
          "name": "A. Gray"
        },
        {
          "authorId": "144172696",
          "name": "Anne C. S. McIntosh"
        },
        {
          "authorId": "36782690",
          "name": "S. Garman"
        },
        {
          "authorId": "88361236",
          "name": "Michael A. Shettles"
        }
      ]
    },
    {
      "paperId": "142acbb3324c68f9227319381dc2887cb3b5315b",
      "externalIds": {
        "MAG": "2595533950",
        "DOI": "10.1016/J.UFUG.2017.03.013",
        "CorpusId": 89812374
      },
      "url": "https://www.semanticscholar.org/paper/142acbb3324c68f9227319381dc2887cb3b5315b",
      "title": "Random point sampling to detect gain and loss in tree canopy cover in response to urban densification",
      "venue": "",
      "year": 2017,
      "referenceCount": 29,
      "citationCount": 36,
      "authors": [
        {
          "authorId": "134175645",
          "name": "J. Kašpar"
        },
        {
          "authorId": "5573389",
          "name": "D. Kendal"
        },
        {
          "authorId": "6702244",
          "name": "R. Sore"
        },
        {
          "authorId": "47529342",
          "name": "S. Livesley"
        }
      ]
    },
    {
      "paperId": "b5e0889e5e68a566819c95d59691884a7e7fe9e4",
      "externalIds": {
        "DBLP": "journals/staeors/LvZLYSHMD24",
        "DOI": "10.1109/JSTARS.2024.3422390",
        "CorpusId": 270977436
      },
      "url": "https://www.semanticscholar.org/paper/b5e0889e5e68a566819c95d59691884a7e7fe9e4",
      "title": "UAV-Based Intelligent Detection of Individual Trees in Moso Bamboo Forests With Complex Canopy Structure",
      "venue": "IEEE Journal of Selected Topics in Applied Earth Observations and Remote Sensing",
      "year": 2024,
      "referenceCount": 65,
      "citationCount": 12,
      "authors": [
        {
          "authorId": "2222276945",
          "name": "Lujin Lv"
        },
        {
          "authorId": "2222603514",
          "name": "Yinyin Zhao"
        },
        {
          "authorId": "50079503",
          "name": "Xuejian Li"
        },
        {
          "authorId": "2222646411",
          "name": "Jiacong Yu"
        },
        {
          "authorId": "2222556854",
          "name": "Meixuan Song"
        },
        {
          "authorId": "2222292764",
          "name": "Lei Huang"
        },
        {
          "authorId": "11059181",
          "name": "Fangjie Mao"
        },
        {
          "authorId": "2307404361",
          "name": "Huaqiang Du"
        }
      ]
    }
  ]
}