{
  "total": 2552,
  "offset": 0,
  "next": 10,
  "data": [
    {
      "paperId": "090621f41df32b85e1e10d36a1361f685b804f15",
      "externalIds": {
        "MAG": "2950036907",
        "DBLP": "conf/icml/LaclauRMBB17",
        "ArXiv": "1705.06189",
        "CorpusId": 8901326
      },
      "url": "https://www.semanticscholar.org/paper/090621f41df32b85e1e10d36a1361f685b804f15",
      "title": "Co-clustering through Optimal Transport",
      "venue": "International Conference on Machine Learning",
      "year": 2017,
      "referenceCount": 49,
      "citationCount": 45,
      "authors": [
        {
          "authorId": "1947597",
          "name": "Charlotte Laclau"
        },
        {
          "authorId": "145898069",
          "name": "I. Redko"
        },
        {
          "authorId": "3131320",
          "name": "Basarab Matei"
        },
        {
          "authorId": "1734694",
          "name": "Younès Bennani"
        },
        {
          "authorId": "2049747407",
          "name": "V. Brault"
        }
      ]
    },
    {
      "paperId": "99bd97de6a5e1098a427ebdf9f6c190b9b22ecba",
      "externalIds": {
        "CorpusId": 31442750
      },
      "url": "https://www.semanticscholar.org/paper/99bd97de6a5e1098a427ebdf9f6c190b9b22ecba",
      "title": "Supplementary material for the paper : Co-clustering through Optimal Transport",
      "venue": "",
      "year": 2017,
      "referenceCount": 3,
      "citationCount": 0,
      "authors": [
        {
          "authorId": "1947597",
          "name": "Charlotte Laclau"
        },
        {
          "authorId": "145898069",
          "name": "I. Redko"
        },
        {
          "authorId": "3131320",
          "name": "Basarab Matei"
        },
        {
          "authorId": "1734694",
          "name": "Younès Bennani"
        },
        {
          "authorId": "2049747407",
          "name": "V. Brault"
        }
      ]
    },
    {
      "paperId": "517ecffc5ec31e0102788c00ca2d2c642a5cab09",
      "externalIds": {
        "DBLP": "journals/tip/ZhangZSCLZ24",
        "DOI": "10.1109/TIP.2024.3436615",
        "CorpusId": 271795865,
        "PubMed": "39115994"
      },
      "url": "https://www.semanticscholar.org/paper/517ecffc5ec31e0102788c00ca2d2c642a5cab09",
      "title": "Learning Common Semantics via Optimal Transport for Contrastive Multi-View Clustering",
      "venue": "IEEE Transactions on Image Processing",
      "year": 2024,
      "referenceCount": 70,
      "citationCount": 21,
      "authors": [
        {
          "authorId": "2294910475",
          "name": "Qian Zhang"
        },
        {
          "authorId": "2271791541",
          "name": "Lin Zhang"
        },
        {
          "authorId": "2278049280",
          "name": "Ran Song"
        },
        {
          "authorId": "2258230512",
          "name": "Runmin Cong"
        },
        {
          "authorId": "2261681199",
          "name": "Yonghuai Liu"
        },
        {
          "authorId": "2294556086",
          "name": "Wei Zhang"
        }
      ]
    },
    {
      "paperId": "a9e6c17cf5588b244bedbfa1bb6ca1add7c86eb5",
      "externalIds": {
        "DBLP": "conf/icassp/GongWX25",
        "DOI": "10.1109/ICASSP49660.2025.10888180",
        "CorpusId": 276964107
      },
      "url": "https://www.semanticscholar.org/paper/a9e6c17cf5588b244bedbfa1bb6ca1add7c86eb5",
      "title": "Unbalanced Co-relational Optimal Transport for Robust Heterogeneous Data Alignment",
      "venue": "IEEE International Conference on Acoustics, Speech, and Signal Processing",
      "year": 2025,
      "referenceCount": 37,
      "citationCount": 0,
      "authors": [
        {
          "authorId": "2187856879",
          "name": "Fengjiao Gong"
        },
        {
          "authorId": "2346443302",
          "name": "Zichong Wang"
        },
        {
          "authorId": "2347744689",
          "name": "Hongteng Xu"
        }
      ]
    },
    {
      "paperId": "288c793c80b283cb15db241324e246263780ea24",
      "externalIds": {
        "DOI": "10.1002/env.70091",
        "CorpusId": 286967070
      },
      "url": "https://www.semanticscholar.org/paper/288c793c80b283cb15db241324e246263780ea24",
      "title": "A New Clustering Strategy for Geo‐Referenced Time Series Based on Optimal Transport",
      "venue": "Environmetrics",
      "year": 2026,
      "referenceCount": 41,
      "citationCount": 0,
      "authors": [
        {
          "authorId": "2426747737",
          "name": "Pasquale Pipiciello"
        },
        {
          "authorId": "2760998",
          "name": "Antonio Balzanella"
        },
        {
          "authorId": "2221613047",
          "name": "Gianmarco Borrata"
        }
      ]
    },
    {
      "paperId": "59f549b87420c47d97cf8f61269307362e976b8a",
      "externalIds": {
        "DBLP": "journals/bib/JoodakiSSNMKC25",
        "PubMedCentral": "12527826",
        "DOI": "10.1101/2025.04.10.648188",
        "CorpusId": 277886879,
        "PubMed": "41097818"
      },
      "url": "https://www.semanticscholar.org/paper/59f549b87420c47d97cf8f61269307362e976b8a",
      "title": "PILOT-GM-VAE: patient-level analysis of single-cell disease atlas with optimal transport of Gaussian mixture variational autoencoders",
      "venue": "bioRxiv",
      "year": 2025,
      "referenceCount": 50,
      "citationCount": 0,
      "authors": [
        {
          "authorId": "48220528",
          "name": "Mehdi Joodaki"
        },
        {
          "authorId": "2197549860",
          "name": "Mina Shaigan"
        },
        {
          "authorId": "2106685868",
          "name": "Samaneh Samiei"
        },
        {
          "authorId": "2272139416",
          "name": "James Nagai"
        },
        {
          "authorId": "84050859",
          "name": "Tiago Maié"
        },
        {
          "authorId": "5755072",
          "name": "C. Kuppe"
        },
        {
          "authorId": "2068166581",
          "name": "Ivan G. Costa"
        }
      ]
    },
    {
      "paperId": "b83082a5fdd2cbbe7638bd30103f4bd6ea50e340",
      "externalIds": {
        "DBLP": "journals/corr/abs-2507-03539",
        "ArXiv": "2507.03539",
        "DOI": "10.48550/arXiv.2507.03539",
        "CorpusId": 280148578
      },
      "url": "https://www.semanticscholar.org/paper/b83082a5fdd2cbbe7638bd30103f4bd6ea50e340",
      "title": "CLOT: Closed Loop Optimal Transport for Unsupervised Action Segmentation",
      "venue": "arXiv.org",
      "year": 2025,
      "referenceCount": 53,
      "citationCount": 2,
      "authors": [
        {
          "authorId": "2214790450",
          "name": "E. Bueno-Benito"
        },
        {
          "authorId": "2837527",
          "name": "Mariella Dimiccoli"
        }
      ]
    },
    {
      "paperId": "0606f4a95fbd5486a99a6c83bc19444b4bf696f9",
      "externalIds": {
        "ArXiv": "2603.03578",
        "CorpusId": 286238747
      },
      "url": "https://www.semanticscholar.org/paper/0606f4a95fbd5486a99a6c83bc19444b4bf696f9",
      "title": "Transport Clustering: Solving Low-Rank Optimal Transport via Clustering",
      "venue": "",
      "year": 2026,
      "referenceCount": 58,
      "citationCount": 0,
      "authors": [
        {
          "authorId": "2154529175",
          "name": "Henri Schmidt"
        },
        {
          "authorId": "2290902704",
          "name": "P. Halmos"
        },
        {
          "authorId": "2356704616",
          "name": "B. Raphael"
        }
      ]
    },
    {
      "paperId": "e655a98ec2b9827e4da5f89fc31d4559c5fde7b3",
      "externalIds": {
        "PubMedCentral": "12704003",
        "DOI": "10.1101/2025.11.23.689932",
        "CorpusId": 283290701,
        "PubMed": "41404607"
      },
      "url": "https://www.semanticscholar.org/paper/e655a98ec2b9827e4da5f89fc31d4559c5fde7b3",
      "title": "DiCoLo: Integration-free and cluster-free detection of localized differential gene co-expression in single-cell data",
      "venue": "bioRxiv",
      "year": 2025,
      "referenceCount": 34,
      "citationCount": 0,
      "authors": [
        {
          "authorId": "2267177011",
          "name": "Ruiqi Li"
        },
        {
          "authorId": "29946640",
          "name": "Junchen Yang"
        },
        {
          "authorId": "2365687988",
          "name": "Pei-Chun Su"
        },
        {
          "authorId": "2311113025",
          "name": "Ariel Jaffe"
        },
        {
          "authorId": "3088080",
          "name": "Ofir Lindenbaum"
        },
        {
          "authorId": "40021520",
          "name": "Y. Kluger"
        }
      ]
    },
    {
      "paperId": "b527a7b42ef19e4929530af37d66fa86be46b9ff",
      "externalIds": {
        "DBLP": "journals/corr/abs-2310-03398",
        "ArXiv": "2310.03398",
        "DOI": "10.48550/arXiv.2310.03398",
        "CorpusId": 263672022
      },
      "url": "https://www.semanticscholar.org/paper/b527a7b42ef19e4929530af37d66fa86be46b9ff",
      "title": "Interpolating between Clustering and Dimensionality Reduction with Gromov-Wasserstein",
      "venue": "arXiv.org",
      "year": 2023,
      "referenceCount": 49,
      "citationCount": 0,
      "authors": [
        {
          "authorId": "2151792795",
          "name": "Hugues van Assel"
        },
        {
          "authorId": "2049403085",
          "name": "Cédric Vincent-Cuaz"
        },
        {
          "authorId": "46193733",
          "name": "Titouan Vayer"
        },
        {
          "authorId": "145258331",
          "name": "Rémi Flamary"
        },
        {
          "authorId": "145374281",
          "name": "N. Courty"
        }
      ]
    }
  ]
}