{
  "total": 8597,
  "offset": 0,
  "next": 10,
  "data": [
    {
      "paperId": "4639569731f62e274be70a9181194531eaf52241",
      "externalIds": {
        "MAG": "2951257262",
        "ArXiv": "1502.02536",
        "DBLP": "conf/icml/NaessethLS15",
        "CorpusId": 16247251
      },
      "url": "https://www.semanticscholar.org/paper/4639569731f62e274be70a9181194531eaf52241",
      "title": "Nested Sequential Monte Carlo Methods",
      "venue": "International Conference on Machine Learning",
      "year": 2015,
      "referenceCount": 51,
      "citationCount": 87,
      "authors": [
        {
          "authorId": "2328322",
          "name": "C. A. Naesseth"
        },
        {
          "authorId": "1759780",
          "name": "F. Lindsten"
        },
        {
          "authorId": "1802623",
          "name": "Thomas Bo Schön"
        }
      ]
    },
    {
      "paperId": "04f4b5fdcdc74d280033c3f85a0bf07647b6f4d3",
      "externalIds": {
        "MAG": "2962697772",
        "ArXiv": "1612.09162",
        "DBLP": "journals/tsp/NaessethLS19",
        "DOI": "10.1109/TSP.2019.2926035",
        "CorpusId": 88515474
      },
      "url": "https://www.semanticscholar.org/paper/04f4b5fdcdc74d280033c3f85a0bf07647b6f4d3",
      "title": "High-Dimensional Filtering Using Nested Sequential Monte Carlo",
      "venue": "IEEE Transactions on Signal Processing",
      "year": 2016,
      "referenceCount": 63,
      "citationCount": 31,
      "authors": [
        {
          "authorId": "2328322",
          "name": "C. A. Naesseth"
        },
        {
          "authorId": "1759780",
          "name": "F. Lindsten"
        },
        {
          "authorId": "1802623",
          "name": "Thomas Bo Schön"
        }
      ]
    },
    {
      "paperId": "ce5c00b4b81054e23590fe82c099cac5be0c85b4",
      "externalIds": {
        "ArXiv": "2505.16732",
        "DBLP": "journals/corr/abs-2505-16732",
        "DOI": "10.48550/arXiv.2505.16732",
        "CorpusId": 278789296
      },
      "url": "https://www.semanticscholar.org/paper/ce5c00b4b81054e23590fe82c099cac5be0c85b4",
      "title": "Sequential Monte Carlo for Policy Optimization in Continuous POMDPs",
      "venue": "arXiv.org",
      "year": 2025,
      "referenceCount": 88,
      "citationCount": 3,
      "authors": [
        {
          "authorId": "2624923",
          "name": "Hany Abdulsamad"
        },
        {
          "authorId": "2275602443",
          "name": "Sahel Iqbal"
        },
        {
          "authorId": "30443320",
          "name": "Simo Särkkä"
        }
      ]
    },
    {
      "paperId": "ddd225dba59212954c30451b7648724491cbfab9",
      "externalIds": {
        "DBLP": "journals/corr/abs-2501-17965",
        "ArXiv": "2501.17965",
        "DOI": "10.48550/arXiv.2501.17965",
        "CorpusId": 275993833
      },
      "url": "https://www.semanticscholar.org/paper/ddd225dba59212954c30451b7648724491cbfab9",
      "title": "Variational Combinatorial Sequential Monte Carlo for Bayesian Phylogenetics in Hyperbolic Space",
      "venue": "International Conference on Artificial Intelligence and Statistics",
      "year": 2025,
      "referenceCount": 35,
      "citationCount": 3,
      "authors": [
        {
          "authorId": "2358963810",
          "name": "Alex Chen"
        },
        {
          "authorId": "2342984334",
          "name": "Philipe Chlenski"
        },
        {
          "authorId": "2342924654",
          "name": "Kenneth Munyuza"
        },
        {
          "authorId": "32032560",
          "name": "A. Moretti"
        },
        {
          "authorId": "2328322",
          "name": "C. A. Naesseth"
        },
        {
          "authorId": "101161161",
          "name": "I. Pe’er"
        }
      ]
    },
    {
      "paperId": "89a587b76b2ad28417ec209c205848362df1ef8e",
      "externalIds": {
        "ArXiv": "2106.00075",
        "DBLP": "conf/uai/MorettiZNVBP21",
        "CorpusId": 235265794
      },
      "url": "https://www.semanticscholar.org/paper/89a587b76b2ad28417ec209c205848362df1ef8e",
      "title": "Variational Combinatorial Sequential Monte Carlo Methods for Bayesian Phylogenetic Inference",
      "venue": "Conference on Uncertainty in Artificial Intelligence",
      "year": 2021,
      "referenceCount": 55,
      "citationCount": 17,
      "authors": [
        {
          "authorId": "32032560",
          "name": "A. Moretti"
        },
        {
          "authorId": "2108871879",
          "name": "Liyi Zhang"
        },
        {
          "authorId": "2328322",
          "name": "C. A. Naesseth"
        },
        {
          "authorId": "2101317642",
          "name": "Hadiah K Venner"
        },
        {
          "authorId": "1796335",
          "name": "D. Blei"
        },
        {
          "authorId": "101161161",
          "name": "I. Pe’er"
        }
      ]
    },
    {
      "paperId": "ca42b33b8acddb7a5c7fa3d7593700739b032908",
      "externalIds": {
        "ArXiv": "2601.02336",
        "CorpusId": 284488767
      },
      "url": "https://www.semanticscholar.org/paper/ca42b33b8acddb7a5c7fa3d7593700739b032908",
      "title": "The Sequential Monte Carlo goes NUTS: Boosting Gravitational-Wave Inference",
      "venue": "",
      "year": 2026,
      "referenceCount": 50,
      "citationCount": 0,
      "authors": [
        {
          "authorId": "2301155915",
          "name": "G. Demasi"
        },
        {
          "authorId": "1753385318",
          "name": "G. Capurri"
        },
        {
          "authorId": "2382673952",
          "name": "M. Lenti"
        },
        {
          "authorId": "88738679",
          "name": "A. Ricciardone"
        },
        {
          "authorId": "152320998",
          "name": "B. Patricelli"
        },
        {
          "authorId": "2344832656",
          "name": "A. F. Mascioli"
        },
        {
          "authorId": "2375901311",
          "name": "L. Piccari"
        },
        {
          "authorId": "2202029716",
          "name": "Saulo Albuquerque"
        },
        {
          "authorId": "120870345",
          "name": "G. Guidi"
        },
        {
          "authorId": "41076473",
          "name": "F. Pannarale"
        },
        {
          "authorId": "5582957",
          "name": "G. Stratta"
        },
        {
          "authorId": "121581971",
          "name": "W. D. Pozzo"
        }
      ]
    },
    {
      "paperId": "d2e5d75509809e824ef51ca0216e27f4c9245ef8",
      "externalIds": {
        "ArXiv": "2511.15196",
        "DBLP": "journals/corr/abs-2511-15196",
        "DOI": "10.48550/arXiv.2511.15196",
        "CorpusId": 283103806
      },
      "url": "https://www.semanticscholar.org/paper/d2e5d75509809e824ef51ca0216e27f4c9245ef8",
      "title": "Particle Monte Carlo methods for Lattice Field Theory",
      "venue": "arXiv.org",
      "year": 2025,
      "referenceCount": 50,
      "citationCount": 1,
      "authors": [
        {
          "authorId": "72304000",
          "name": "D. Yallup"
        }
      ]
    },
    {
      "paperId": "d7c8be5466f512d09cfbf1ef4ebf033a143a4f69",
      "externalIds": {
        "ArXiv": "1805.03924",
        "MAG": "2802114910",
        "CorpusId": 53359335
      },
      "url": "https://www.semanticscholar.org/paper/d7c8be5466f512d09cfbf1ef4ebf033a143a4f69",
      "title": "Unbiased and consistent nested sampling via sequential Monte Carlo",
      "venue": "",
      "year": 2018,
      "referenceCount": 80,
      "citationCount": 36,
      "authors": [
        {
          "authorId": "38629700",
          "name": "R. Salomone"
        },
        {
          "authorId": "144245404",
          "name": "Leah F. South"
        },
        {
          "authorId": "2729416",
          "name": "A. M. Johansen"
        },
        {
          "authorId": "2840395",
          "name": "C. Drovandi"
        },
        {
          "authorId": "1704242",
          "name": "Dirk P. Kroese"
        }
      ]
    },
    {
      "paperId": "fd32d92337630d1fd2cabdc61b9e63e60edb0e77",
      "externalIds": {
        "ArXiv": "2204.04808",
        "DBLP": "journals/corr/abs-2204-04808",
        "DOI": "10.48550/arXiv.2204.04808",
        "CorpusId": 248085135
      },
      "url": "https://www.semanticscholar.org/paper/fd32d92337630d1fd2cabdc61b9e63e60edb0e77",
      "title": "Unbiased Multilevel Monte Carlo methods for intractable distributions: MLMC meets MCMC",
      "venue": "Journal of machine learning research",
      "year": 2022,
      "referenceCount": 95,
      "citationCount": 17,
      "authors": [
        {
          "authorId": "51151850",
          "name": "Guanyang Wang"
        },
        {
          "authorId": "2118914234",
          "name": "T. Wang"
        }
      ]
    },
    {
      "paperId": "4ff7e9a7cbe7274a97af78112d04fcf6fe6f8464",
      "externalIds": {
        "ArXiv": "2401.16776",
        "DBLP": "journals/corr/abs-2401-16776",
        "DOI": "10.48550/arXiv.2401.16776",
        "CorpusId": 267320297
      },
      "url": "https://www.semanticscholar.org/paper/4ff7e9a7cbe7274a97af78112d04fcf6fe6f8464",
      "title": "Leveraging Nested MLMC for Sequential Neural Posterior Estimation with Intractable Likelihoods",
      "venue": "SIAM Journal on Scientific Computing",
      "year": 2024,
      "referenceCount": 60,
      "citationCount": 0,
      "authors": [
        {
          "authorId": "2267503077",
          "name": "Xiliang Yang"
        },
        {
          "authorId": "2261092321",
          "name": "Yifei Xiong"
        },
        {
          "authorId": "2267541861",
          "name": "Zhijian He"
        }
      ]
    }
  ]
}