{
  "total": 1214270,
  "offset": 0,
  "next": 10,
  "data": [
    {
      "paperId": "f0a6ad564757643ae5d8bf4bd587bb9461446540",
      "externalIds": {
        "MAG": "2137463212",
        "DBLP": "conf/icml/CortesKMS15",
        "CorpusId": 10015524
      },
      "url": "https://www.semanticscholar.org/paper/f0a6ad564757643ae5d8bf4bd587bb9461446540",
      "title": "Structural Maxent Models",
      "venue": "International Conference on Machine Learning",
      "year": 2015,
      "referenceCount": 33,
      "citationCount": 7,
      "authors": [
        {
          "authorId": "145115014",
          "name": "Corinna Cortes"
        },
        {
          "authorId": "46967902",
          "name": "Vitaly Kuznetsov"
        },
        {
          "authorId": "81080659",
          "name": "M. Mohri"
        },
        {
          "authorId": "38473726",
          "name": "Umar Syed"
        }
      ]
    },
    {
      "paperId": "106a6cfae27e9e742fa5555b16f7f26f5d23fd0f",
      "externalIds": {
        "CorpusId": 15687292
      },
      "url": "https://www.semanticscholar.org/paper/106a6cfae27e9e742fa5555b16f7f26f5d23fd0f",
      "title": "Structural Maxent Models",
      "venue": "",
      "year": 2015,
      "referenceCount": 0,
      "citationCount": 0,
      "authors": [
        {
          "authorId": "2078569843",
          "name": "A. Duality"
        }
      ]
    },
    {
      "paperId": "d4020b1de36f9708f6b9b6d5bfdd56966a3d10ac",
      "externalIds": {
        "DBLP": "journals/corr/WegnerTSM17",
        "MAG": "2644022649",
        "ArXiv": "1706.06805",
        "DOI": "10.4230/LIPIcs.ESA.2017.70",
        "CorpusId": 30061494
      },
      "url": "https://www.semanticscholar.org/paper/d4020b1de36f9708f6b9b6d5bfdd56966a3d10ac",
      "title": "Maxent-Stress Optimization of 3D Biomolecular Models",
      "venue": "Embedded Systems and Applications",
      "year": 2017,
      "referenceCount": 42,
      "citationCount": 5,
      "authors": [
        {
          "authorId": "145163080",
          "name": "Michael Wegner"
        },
        {
          "authorId": "19287865",
          "name": "Oskar Taubert"
        },
        {
          "authorId": "50760219",
          "name": "A. Schug"
        },
        {
          "authorId": "1732161",
          "name": "Henning Meyerhenke"
        }
      ]
    },
    {
      "paperId": "fceb25adb6be3d5d076a333f9b7da62eca6b65a0",
      "externalIds": {
        "ArXiv": "2602.20844",
        "DBLP": "journals/corr/abs-2602-20844",
        "DOI": "10.48550/arXiv.2602.20844",
        "CorpusId": 286000545
      },
      "url": "https://www.semanticscholar.org/paper/fceb25adb6be3d5d076a333f9b7da62eca6b65a0",
      "title": "Maximum entropy based testing in network models: ERGMs and constrained optimization",
      "venue": "arXiv.org",
      "year": 2026,
      "referenceCount": 0,
      "citationCount": 0,
      "authors": [
        {
          "authorId": "2419269296",
          "name": "Subhrosekhar Ghosh"
        },
        {
          "authorId": "40549153",
          "name": "R. Karmakar"
        },
        {
          "authorId": "2139193028",
          "name": "Samriddha Lahiry"
        }
      ]
    },
    {
      "paperId": "c4ccc01b170bf84aca06b814811c8a55dc8360f3",
      "externalIds": {
        "MAG": "2300820052",
        "DOI": "10.1016/J.ECOLMODEL.2015.12.018",
        "CorpusId": 86936901
      },
      "url": "https://www.semanticscholar.org/paper/c4ccc01b170bf84aca06b814811c8a55dc8360f3",
      "title": "Structural uncertainty in projecting global fisheries catches under climate change",
      "venue": "",
      "year": 2016,
      "referenceCount": 53,
      "citationCount": 146,
      "authors": [
        {
          "authorId": "1996312",
          "name": "W. Cheung"
        },
        {
          "authorId": "1400115018",
          "name": "Miranda C. Jones"
        },
        {
          "authorId": "1400115018",
          "name": "Miranda C. Jones"
        },
        {
          "authorId": "6457673",
          "name": "G. Reygondeau"
        },
        {
          "authorId": "40126307",
          "name": "C. Stock"
        },
        {
          "authorId": "35078785",
          "name": "Vicky W. Y. Lam"
        },
        {
          "authorId": "35078785",
          "name": "Vicky W. Y. Lam"
        },
        {
          "authorId": "4174604",
          "name": "T. Frölicher"
        }
      ]
    },
    {
      "paperId": "813fa1866750b6f1a16981b5f404987498da0b0d",
      "externalIds": {
        "PubMedCentral": "12551864",
        "DOI": "10.1371/journal.pone.0333679",
        "CorpusId": 282373557,
        "PubMed": "41134804"
      },
      "url": "https://www.semanticscholar.org/paper/813fa1866750b6f1a16981b5f404987498da0b0d",
      "title": "Mechanisms of multi-species mealybug invasions in Hainan Island of China: Integrating niche, distribution, and habitat drivers",
      "venue": "PLoS ONE",
      "year": 2025,
      "referenceCount": 99,
      "citationCount": 2,
      "authors": [
        {
          "authorId": "2306431504",
          "name": "Qin Si"
        },
        {
          "authorId": "2336711102",
          "name": "Jie Hu"
        },
        {
          "authorId": "2105836352",
          "name": "Zhong Hua"
        },
        {
          "authorId": "2388277099",
          "name": "Jian Wang"
        },
        {
          "authorId": "2336612832",
          "name": "Mulan Ji"
        },
        {
          "authorId": "2261446356",
          "name": "Gaochao Xu"
        },
        {
          "authorId": "2306107592",
          "name": "Binxin Wu"
        },
        {
          "authorId": "2189113618",
          "name": "Yanjing Zhang"
        }
      ]
    },
    {
      "paperId": "2b55240c39d5348cd88d8f0197e29aa68bc57572",
      "externalIds": {
        "DOI": "10.1016/j.scitotenv.2024.177148",
        "CorpusId": 273538531,
        "PubMed": "39442712"
      },
      "url": "https://www.semanticscholar.org/paper/2b55240c39d5348cd88d8f0197e29aa68bc57572",
      "title": "Restoration of the ecological network structure based on the spatiotemporal changes of the wintering Grus japonensis habitat in the Yancheng coastal area.",
      "venue": "Science of the Total Environment",
      "year": 2024,
      "referenceCount": 0,
      "citationCount": 1,
      "authors": [
        {
          "authorId": "2044587883",
          "name": "Chunqi Qiu"
        },
        {
          "authorId": "2276758017",
          "name": "Yong Zhou"
        },
        {
          "authorId": "2144492296",
          "name": "Cheng Wang"
        },
        {
          "authorId": "2327336456",
          "name": "Gang Wang"
        },
        {
          "authorId": "2323336735",
          "name": "Zhaoyuan Yu"
        },
        {
          "authorId": "2327497397",
          "name": "Yongqiang Zhao"
        },
        {
          "authorId": "2238395921",
          "name": "Yufeng Li"
        },
        {
          "authorId": "2145592822",
          "name": "Hongyu Liu"
        }
      ]
    },
    {
      "paperId": "5931d07c36db7fdd0063b062a19c3c60734141cb",
      "externalIds": {
        "DBLP": "journals/corr/abs-2409-14374",
        "ArXiv": "2409.14374",
        "DOI": "10.48550/arXiv.2409.14374",
        "CorpusId": 272828063
      },
      "url": "https://www.semanticscholar.org/paper/5931d07c36db7fdd0063b062a19c3c60734141cb",
      "title": "J2N - Nominal Adjective Identification and its Application",
      "venue": "arXiv.org",
      "year": 2024,
      "referenceCount": 5,
      "citationCount": 0,
      "authors": [
        {
          "authorId": "2322437441",
          "name": "Lemeng Qi"
        },
        {
          "authorId": "2327274738",
          "name": "Yang Han"
        },
        {
          "authorId": "2387131538",
          "name": "Zhuotong Xie"
        }
      ]
    },
    {
      "paperId": "3b8d06686bf4480451518d4a7130cf71ea9ac557",
      "externalIds": {
        "DOI": "10.1655/Herpetologica-D-20-00026.1",
        "CorpusId": 268953079
      },
      "url": "https://www.semanticscholar.org/paper/3b8d06686bf4480451518d4a7130cf71ea9ac557",
      "title": "And Now, Where Will We Take Refuge? Climate Change Effect on Gopherus flavomarginatus and Its Accompanying Vertebrates",
      "venue": "Herpetologica",
      "year": 2024,
      "referenceCount": 73,
      "citationCount": 0,
      "authors": [
        {
          "authorId": "1404085136",
          "name": "Tamara M. Rioja-Paradela"
        },
        {
          "authorId": "1400939217",
          "name": "Arturo Carrillo-Reyes"
        },
        {
          "authorId": "1405243410",
          "name": "G. Castañeda-Gaytán"
        },
        {
          "authorId": "1782696008",
          "name": "Sara Valenzuela-Ceballos"
        },
        {
          "authorId": "2295261048",
          "name": "Consuelo Lorenzo-Monterrubio"
        },
        {
          "authorId": "1406702840",
          "name": "C. Orantes-García"
        }
      ]
    },
    {
      "paperId": "dbc7c40170d90f3c42e1244aa486ebcd8f5b3fee",
      "externalIds": {
        "MAG": "3041705565",
        "DOI": "10.1016/j.foreco.2020.118381",
        "CorpusId": 224985974
      },
      "url": "https://www.semanticscholar.org/paper/dbc7c40170d90f3c42e1244aa486ebcd8f5b3fee",
      "title": "Fire from policy, human interventions, or biophysical factors? Temporal–spatial patterns of forest fire in southwestern China",
      "venue": "",
      "year": 2020,
      "referenceCount": 53,
      "citationCount": 81,
      "authors": [
        {
          "authorId": "46883896",
          "name": "Qinli Xiong"
        },
        {
          "authorId": "7021144",
          "name": "Xiaojin Luo"
        },
        {
          "authorId": "2057226062",
          "name": "Pinghan Liang"
        },
        {
          "authorId": "1520597663",
          "name": "Yang Xiao"
        },
        {
          "authorId": "2036470673",
          "name": "Qiang Xiao"
        },
        {
          "authorId": "48728683",
          "name": "Hui Sun"
        },
        {
          "authorId": "5206098",
          "name": "K. Pan"
        },
        {
          "authorId": "2143591502",
          "name": "Lixia Wang"
        },
        {
          "authorId": "49193230",
          "name": "Lingjuan Li"
        },
        {
          "authorId": "29683937",
          "name": "X. Pang"
        }
      ]
    }
  ]
}