{
  "total": 263684,
  "offset": 0,
  "next": 10,
  "data": [
    {
      "paperId": "573cffbf49069037a2fb73f671809ad2b3f0cafb",
      "externalIds": {
        "ArXiv": "1506.04782",
        "DBLP": "journals/corr/HanawalSVM15",
        "MAG": "2294739201",
        "CorpusId": 9298468
      },
      "url": "https://www.semanticscholar.org/paper/573cffbf49069037a2fb73f671809ad2b3f0cafb",
      "title": "Cheap Bandits",
      "venue": "International Conference on Machine Learning",
      "year": 2015,
      "referenceCount": 35,
      "citationCount": 31,
      "authors": [
        {
          "authorId": "2098597",
          "name": "M. Hanawal"
        },
        {
          "authorId": "1699322",
          "name": "Venkatesh Saligrama"
        },
        {
          "authorId": "1806291",
          "name": "Michal Valko"
        },
        {
          "authorId": "1708654",
          "name": "R. Munos"
        }
      ]
    },
    {
      "paperId": "e5da5e6b95be07bab2d62682a447a602f6a69898",
      "externalIds": {
        "CorpusId": 9744014
      },
      "url": "https://www.semanticscholar.org/paper/e5da5e6b95be07bab2d62682a447a602f6a69898",
      "title": "Supplementary Material : Cheap Bandits 1 . Proof of Proposition 1",
      "venue": "",
      "year": 2015,
      "referenceCount": 7,
      "citationCount": 0,
      "authors": []
    },
    {
      "paperId": "ef146eec42d80f81354abdfeb803183ac6341279",
      "externalIds": {
        "ArXiv": "2211.05632",
        "DBLP": "conf/colt/Hanna0F23",
        "DOI": "10.48550/arXiv.2211.05632",
        "CorpusId": 253447377
      },
      "url": "https://www.semanticscholar.org/paper/ef146eec42d80f81354abdfeb803183ac6341279",
      "title": "Contexts can be Cheap: Solving Stochastic Contextual Bandits with Linear Bandit Algorithms",
      "venue": "Annual Conference Computational Learning Theory",
      "year": 2022,
      "referenceCount": 44,
      "citationCount": 20,
      "authors": [
        {
          "authorId": "40893807",
          "name": "Osama A. Hanna"
        },
        {
          "authorId": "2155556894",
          "name": "Lin F. Yang"
        },
        {
          "authorId": "1762299",
          "name": "C. Fragouli"
        }
      ]
    },
    {
      "paperId": "e5e4b5dd429edd786538d9f8070a89031d412331",
      "externalIds": {
        "DOI": "10.1109/RADAR58436.2024.10994100",
        "CorpusId": 278603884
      },
      "url": "https://www.semanticscholar.org/paper/e5e4b5dd429edd786538d9f8070a89031d412331",
      "title": "Adaptive Multichannel Scanning Strategies for Electronic Support Using Multi-Armed Bandits",
      "venue": "2024 International Radar Conference (RADAR)",
      "year": 2024,
      "referenceCount": 16,
      "citationCount": 1,
      "authors": [
        {
          "authorId": "2361253511",
          "name": "Vincent Teissier"
        },
        {
          "authorId": "1688780",
          "name": "A. Toumi"
        },
        {
          "authorId": "2249322614",
          "name": "Ali Khenchaf"
        }
      ]
    },
    {
      "paperId": "1b00c776195cd89a3bc6c78d656d668f4df6a8e8",
      "externalIds": {
        "ArXiv": "2603.12530",
        "CorpusId": 286517578
      },
      "url": "https://www.semanticscholar.org/paper/1b00c776195cd89a3bc6c78d656d668f4df6a8e8",
      "title": "A Reduction Algorithm for Markovian Contextual Linear Bandits",
      "venue": "",
      "year": 2026,
      "referenceCount": 31,
      "citationCount": 0,
      "authors": [
        {
          "authorId": "2358035271",
          "name": "Kaan Buyukkalayci"
        },
        {
          "authorId": "2355354436",
          "name": "Osama Hanna"
        },
        {
          "authorId": "2259046838",
          "name": "Christina Fragouli"
        }
      ]
    },
    {
      "paperId": "e87d139e40aa5eacf88018f21f00b5b6336f3d82",
      "externalIds": {
        "DBLP": "journals/eaai/ZafarFBCA26",
        "DOI": "10.1016/j.engappai.2025.113088",
        "CorpusId": 283207527
      },
      "url": "https://www.semanticscholar.org/paper/e87d139e40aa5eacf88018f21f00b5b6336f3d82",
      "title": "Decentralized multi-agent multi-armed bandits for smart electric vehicles charging",
      "venue": "Engineering applications of artificial intelligence",
      "year": 2026,
      "referenceCount": 58,
      "citationCount": 0,
      "authors": [
        {
          "authorId": "2194659128",
          "name": "Sharyal Zafar"
        },
        {
          "authorId": "2345024273",
          "name": "Raphaël Féraud"
        },
        {
          "authorId": "9231956",
          "name": "A. Blavette"
        },
        {
          "authorId": "2345023123",
          "name": "Guy Camilleri"
        },
        {
          "authorId": "2386517357",
          "name": "Hamid Ben Ahmed"
        }
      ]
    },
    {
      "paperId": "b1364b4ce04b26ec71804d7d273a217dc5e5c8ad",
      "externalIds": {
        "MAG": "2804749886",
        "ArXiv": "1709.03441",
        "DBLP": "journals/corr/abs-1709-03441",
        "DOI": "10.65109/wdqy7913",
        "CorpusId": 38935930
      },
      "url": "https://www.semanticscholar.org/paper/b1364b4ce04b26ec71804d7d273a217dc5e5c8ad",
      "title": "The Diverse Cohort Selection Problem: Multi-Armed Bandits with Varied Pulls",
      "venue": "Adaptive Agents and Multi-Agent Systems",
      "year": 2017,
      "referenceCount": 49,
      "citationCount": 11,
      "authors": [
        {
          "authorId": "29326342",
          "name": "Candice Schumann"
        },
        {
          "authorId": "26330581",
          "name": "Samsara N. Counts"
        },
        {
          "authorId": "1775508",
          "name": "J. Foster"
        },
        {
          "authorId": "1718974",
          "name": "John P. Dickerson"
        }
      ]
    },
    {
      "paperId": "d7c37ea5a8602257c803b05a5366daa8df6deb00",
      "externalIds": {
        "DBLP": "journals/corr/abs-2509-04296",
        "ArXiv": "2509.04296",
        "DOI": "10.48550/arXiv.2509.04296",
        "CorpusId": 281103651
      },
      "url": "https://www.semanticscholar.org/paper/d7c37ea5a8602257c803b05a5366daa8df6deb00",
      "title": "Using causal abstractions to accelerate decision-making in complex bandit problems",
      "venue": "arXiv.org",
      "year": 2025,
      "referenceCount": 27,
      "citationCount": 1,
      "authors": [
        {
          "authorId": "1850710366",
          "name": "Joel Dyer"
        },
        {
          "authorId": "2275196319",
          "name": "Nicholas Bishop"
        },
        {
          "authorId": "2248887009",
          "name": "Anisoara Calinescu"
        },
        {
          "authorId": "2248738109",
          "name": "Michael Wooldridge"
        },
        {
          "authorId": "34751093",
          "name": "Fabio Massimo Zennaro"
        }
      ]
    },
    {
      "paperId": "005c6192f26f397ddf07198939f7badddc39283d",
      "externalIds": {
        "DOI": "10.15633/tes.10406",
        "CorpusId": 276372427
      },
      "url": "https://www.semanticscholar.org/paper/005c6192f26f397ddf07198939f7badddc39283d",
      "title": "Oddziały kozackie i Kozacy w milicjach prywatnych w Rzeczypospolitej w XVIII w. Nowe spojrzenie",
      "venue": "Textus et Studia",
      "year": 2025,
      "referenceCount": 39,
      "citationCount": 0,
      "authors": [
        {
          "authorId": "2339935440",
          "name": "Tomasz Ciesielski"
        }
      ]
    },
    {
      "paperId": "4e078d6dac81363633bccfa7d2c17a47fee2afcc",
      "externalIds": {
        "ArXiv": "2603.20526",
        "CorpusId": 286762717
      },
      "url": "https://www.semanticscholar.org/paper/4e078d6dac81363633bccfa7d2c17a47fee2afcc",
      "title": "Does This Gradient Spark Joy?",
      "venue": "",
      "year": 2026,
      "referenceCount": 16,
      "citationCount": 0,
      "authors": [
        {
          "authorId": "2561924",
          "name": "Ian Osband"
        }
      ]
    }
  ]
}