{
  "total": 1896,
  "offset": 0,
  "next": 10,
  "data": [
    {
      "paperId": "622727f595542afa3caf8802927d880818ddb17a",
      "externalIds": {
        "MAG": "2963789034",
        "ArXiv": "1806.02612",
        "DBLP": "journals/corr/abs-1806-02612",
        "CorpusId": 46980528
      },
      "url": "https://www.semanticscholar.org/paper/622727f595542afa3caf8802927d880818ddb17a",
      "title": "Dimensionality-Driven Learning with Noisy Labels",
      "venue": "International Conference on Machine Learning",
      "year": 2018,
      "referenceCount": 49,
      "citationCount": 469,
      "authors": [
        {
          "authorId": "9576855",
          "name": "Xingjun Ma"
        },
        {
          "authorId": "1919541",
          "name": "Yisen Wang"
        },
        {
          "authorId": "4480560",
          "name": "Michael E. Houle"
        },
        {
          "authorId": "3244811",
          "name": "Shuo Zhou"
        },
        {
          "authorId": "144757691",
          "name": "S. Erfani"
        },
        {
          "authorId": "3085483",
          "name": "Shutao Xia"
        },
        {
          "authorId": "2825361",
          "name": "S. Wijewickrema"
        },
        {
          "authorId": "145148600",
          "name": "J. Bailey"
        }
      ]
    },
    {
      "paperId": "f4d76c7a5d72fc953dd5e262dd3d06864ec6fd2e",
      "externalIds": {
        "CorpusId": 201655693
      },
      "url": "https://www.semanticscholar.org/paper/f4d76c7a5d72fc953dd5e262dd3d06864ec6fd2e",
      "title": "Data-driven Selection of Relevant fMRI Voxels using Sparse CCA and Stability Selection",
      "venue": "",
      "year": 2013,
      "referenceCount": 13,
      "citationCount": 1,
      "authors": [
        {
          "authorId": "38789719",
          "name": "K. Nybo"
        },
        {
          "authorId": "1404459229",
          "name": "J. Shawe-Taylor"
        },
        {
          "authorId": "69057684",
          "name": "S. Kaski"
        },
        {
          "authorId": "1397392958",
          "name": "J. Mourão-Miranda"
        }
      ]
    },
    {
      "paperId": "e908a548c0e6a8971e33f2df25da7f67d04f9ac9",
      "externalIds": {
        "DOI": "10.62762/cjif.2025.151851",
        "CorpusId": 281692602
      },
      "url": "https://www.semanticscholar.org/paper/e908a548c0e6a8971e33f2df25da7f67d04f9ac9",
      "title": "MgEL: Quantum Entanglement-Inspired Evidence Fusion for Learning with Noisy Labels",
      "venue": "Chinese Journal of Information Fusion",
      "year": 2025,
      "referenceCount": 47,
      "citationCount": 2,
      "authors": [
        {
          "authorId": "2215752684",
          "name": "Fir Dunkin"
        },
        {
          "authorId": "26659900",
          "name": "Xinde Li"
        }
      ]
    },
    {
      "paperId": "89096bb7ba9cd3618eff0cf0e3fb89e607fd0b39",
      "externalIds": {
        "DOI": "10.1109/ICEMI66537.2025.11306809",
        "CorpusId": 284353420
      },
      "url": "https://www.semanticscholar.org/paper/89096bb7ba9cd3618eff0cf0e3fb89e607fd0b39",
      "title": "Dynamic Selection with Adaptive Threshold and Debiased Regularization for Learning with Noisy Labels",
      "venue": "IEEE International Conference on Electronic Measurement & Instruments",
      "year": 2025,
      "referenceCount": 15,
      "citationCount": 0,
      "authors": [
        {
          "authorId": "2355077690",
          "name": "Yujing Du"
        },
        {
          "authorId": "2338999977",
          "name": "Wenjie Ai"
        }
      ]
    },
    {
      "paperId": "f81a83366745202f5fec5f8c1a84730c6bb59747",
      "externalIds": {
        "DBLP": "journals/tgrs/CortesAndresFC24",
        "DOI": "10.1109/TGRS.2024.3504340",
        "CorpusId": 274206754
      },
      "url": "https://www.semanticscholar.org/paper/f81a83366745202f5fec5f8c1a84730c6bb59747",
      "title": "Deep Learning With Noisy Labels for Spatiotemporal Drought Detection",
      "venue": "IEEE Transactions on Geoscience and Remote Sensing",
      "year": 2024,
      "referenceCount": 0,
      "citationCount": 7,
      "authors": [
        {
          "authorId": "2132512920",
          "name": "Jordi Cortés-Andrés"
        },
        {
          "authorId": "1401448518",
          "name": "M. Fernandez-Torres"
        },
        {
          "authorId": "2256862557",
          "name": "G. Camps-Valls"
        }
      ]
    },
    {
      "paperId": "c0a7262d49f2fc756a8c053a5ea917737b166484",
      "externalIds": {
        "DBLP": "journals/tmi/WangHCYX24",
        "DOI": "10.1109/TMI.2024.3357986",
        "CorpusId": 267210620,
        "PubMed": "38265913"
      },
      "url": "https://www.semanticscholar.org/paper/c0a7262d49f2fc756a8c053a5ea917737b166484",
      "title": "Robust Stochastic Neural Ensemble Learning With Noisy Labels for Thoracic Disease Classification",
      "venue": "IEEE Transactions on Medical Imaging",
      "year": 2024,
      "referenceCount": 62,
      "citationCount": 9,
      "authors": [
        {
          "authorId": "2109799366",
          "name": "Hongyu Wang"
        },
        {
          "authorId": "2261383279",
          "name": "Jiang He"
        },
        {
          "authorId": "145319486",
          "name": "Hengfei Cui"
        },
        {
          "authorId": "2261192970",
          "name": "Bo Yuan"
        },
        {
          "authorId": "2269766119",
          "name": "Yong Xia"
        }
      ]
    },
    {
      "paperId": "b8ea26866c61332395175de3d131d7dfe5129fcc",
      "externalIds": {
        "DOI": "10.1109/AIBDF67964.2025.11440893",
        "CorpusId": 286782649
      },
      "url": "https://www.semanticscholar.org/paper/b8ea26866c61332395175de3d131d7dfe5129fcc",
      "title": "Pre-trained Semantic Completion for Extreme Multi-Label Learning with Incomplete and Noisy Labels",
      "venue": "2025 5th International Symposium on Artificial Intelligence and Big Data (AIBDF)",
      "year": 2025,
      "referenceCount": 17,
      "citationCount": 0,
      "authors": [
        {
          "authorId": "2310506634",
          "name": "Yiying Wang"
        },
        {
          "authorId": "2283779817",
          "name": "Qing Ai"
        }
      ]
    },
    {
      "paperId": "e043716f425b2c6038ef95ca84ee9780dddf1706",
      "externalIds": {
        "DBLP": "journals/corr/abs-2304-07295",
        "ArXiv": "2304.07295",
        "DOI": "10.47852/bonviewJDSIS52024868",
        "CorpusId": 258179345
      },
      "url": "https://www.semanticscholar.org/paper/e043716f425b2c6038ef95ca84ee9780dddf1706",
      "title": "Experts' cognition-driven safe noisy labels learning for precise segmentation of residual tumor in breast cancer",
      "venue": "Journal of Data Science and Intelligent Systems",
      "year": 2023,
      "referenceCount": 71,
      "citationCount": 1,
      "authors": [
        {
          "authorId": "2144142273",
          "name": "Yongquan Yang"
        },
        {
          "authorId": "2155099631",
          "name": "Jie Chen"
        },
        {
          "authorId": "2141317837",
          "name": "Yani Wei"
        },
        {
          "authorId": "2328659969",
          "name": "Mohammad H. Alobaidi"
        },
        {
          "authorId": "112988338",
          "name": "H. Bu"
        }
      ]
    },
    {
      "paperId": "33e6678ead276c369321a9011032f31607eaf2a9",
      "externalIds": {
        "DBLP": "journals/twc/KwonJJP24",
        "ArXiv": "2306.05146",
        "DOI": "10.1109/TWC.2023.3329521",
        "CorpusId": 259108402
      },
      "url": "https://www.semanticscholar.org/paper/33e6678ead276c369321a9011032f31607eaf2a9",
      "title": "MIMO Detection Under Hardware Impairments: Learning With Noisy Labels",
      "venue": "IEEE Transactions on Wireless Communications",
      "year": 2023,
      "referenceCount": 44,
      "citationCount": 5,
      "authors": [
        {
          "authorId": "2199948328",
          "name": "Jinman Kwon"
        },
        {
          "authorId": "50976646",
          "name": "Seunghyeon Jeon"
        },
        {
          "authorId": "3238149",
          "name": "Yo-Seb Jeon"
        },
        {
          "authorId": "145967056",
          "name": "H. Poor"
        }
      ]
    },
    {
      "paperId": "f513ac53501dcde6fb8781e8c81704efbd296065",
      "externalIds": {
        "DBLP": "journals/nn/DengYKX24",
        "DOI": "10.1016/j.neunet.2024.106137",
        "CorpusId": 267329064,
        "PubMed": "38309136"
      },
      "url": "https://www.semanticscholar.org/paper/f513ac53501dcde6fb8781e8c81704efbd296065",
      "title": "Invariant feature based label correction for DNN when Learning with Noisy Labels",
      "venue": "Neural Networks",
      "year": 2024,
      "referenceCount": 61,
      "citationCount": 5,
      "authors": [
        {
          "authorId": "5300707",
          "name": "Lihui Deng"
        },
        {
          "authorId": "2119660163",
          "name": "Bo Yang"
        },
        {
          "authorId": "35579469",
          "name": "Zhongfeng Kang"
        },
        {
          "authorId": "2158018240",
          "name": "Yanping Xiang"
        }
      ]
    }
  ]
}