{
  "total": 4769,
  "offset": 0,
  "next": 10,
  "data": [
    {
      "paperId": "9bf2321d19686a3e578152ce8269fddf50665e55",
      "externalIds": {
        "DBLP": "conf/icml/XieZZX18",
        "MAG": "2804811213",
        "CorpusId": 51882775
      },
      "url": "https://www.semanticscholar.org/paper/9bf2321d19686a3e578152ce8269fddf50665e55",
      "title": "Nonoverlap-Promoting Variable Selection",
      "venue": "International Conference on Machine Learning",
      "year": 2018,
      "referenceCount": 51,
      "citationCount": 7,
      "authors": [
        {
          "authorId": "40526720",
          "name": "Pengtao Xie"
        },
        {
          "authorId": "2108838315",
          "name": "Hongbao Zhang"
        },
        {
          "authorId": "2377259671",
          "name": "Yichen Zhu"
        },
        {
          "authorId": "143977260",
          "name": "E. Xing"
        }
      ]
    },
    {
      "paperId": "d327060930a507ca2de033db302d33f6d22b1f67",
      "externalIds": {
        "ArXiv": "2509.06383",
        "DBLP": "journals/corr/abs-2509-06383",
        "DOI": "10.48550/arXiv.2509.06383",
        "CorpusId": 281203230,
        "PubMed": "41479459"
      },
      "url": "https://www.semanticscholar.org/paper/d327060930a507ca2de033db302d33f6d22b1f67",
      "title": "Variational Garrote for Statistical Physics-based Sparse and Robust Variable Selection",
      "venue": "arXiv.org",
      "year": 2025,
      "referenceCount": 8,
      "citationCount": 1,
      "authors": [
        {
          "authorId": "2293322732",
          "name": "H. Soh"
        },
        {
          "authorId": "2346062107",
          "name": "Dongha Lee"
        },
        {
          "authorId": "1787483",
          "name": "V. Periwal"
        },
        {
          "authorId": "1832935",
          "name": "Junghyo Jo"
        }
      ]
    },
    {
      "paperId": "caf528f3d430ebfb7db45813402f59060fe200cb",
      "externalIds": {
        "DBLP": "journals/corr/abs-2510-25550",
        "ArXiv": "2510.25550",
        "DOI": "10.48550/arXiv.2510.25550",
        "CorpusId": 282573789
      },
      "url": "https://www.semanticscholar.org/paper/caf528f3d430ebfb7db45813402f59060fe200cb",
      "title": "Robust variable selection for spatial point processes observed with noise",
      "venue": "arXiv.org",
      "year": 2025,
      "referenceCount": 57,
      "citationCount": 0,
      "authors": [
        {
          "authorId": "1404662389",
          "name": "D. Sturm"
        },
        {
          "authorId": "1756929",
          "name": "I. Sbalzarini"
        }
      ]
    },
    {
      "paperId": "cdc43bd118d099dcf5fc560d1625c6f04e8f4e2e",
      "externalIds": {
        "DOI": "10.1021/acs.analchem.4c07007",
        "CorpusId": 276481079,
        "PubMed": "39970051"
      },
      "url": "https://www.semanticscholar.org/paper/cdc43bd118d099dcf5fc560d1625c6f04e8f4e2e",
      "title": "Outlier Removal with Weight Penalization and Aggregation: A Robust Variable Selection Method for Enhancing Near-Infrared Spectral Analysis Performance.",
      "venue": "Analytical Chemistry",
      "year": 2025,
      "referenceCount": 30,
      "citationCount": 5,
      "authors": [
        {
          "authorId": "2308342280",
          "name": "Beibei Li"
        },
        {
          "authorId": "2369277254",
          "name": "Wenting Li"
        },
        {
          "authorId": "2308553564",
          "name": "Junwei Guo"
        },
        {
          "authorId": "2308411834",
          "name": "Hongbo Wang"
        },
        {
          "authorId": "2346312067",
          "name": "Ran Wan"
        },
        {
          "authorId": "2308565074",
          "name": "Yu Liu"
        },
        {
          "authorId": "2254117422",
          "name": "Meijuan Fan"
        },
        {
          "authorId": "2308422654",
          "name": "Cong Wang"
        },
        {
          "authorId": "2308552670",
          "name": "Song Yang"
        },
        {
          "authorId": "2111488745",
          "name": "Le Zhao"
        },
        {
          "authorId": "2308353088",
          "name": "Cong Nie"
        }
      ]
    },
    {
      "paperId": "d70ebecdf82f426a98cf8b9cfedd1b3365a9c11f",
      "externalIds": {
        "DOI": "10.1080/00273171.2025.2483253",
        "CorpusId": 277666377,
        "PubMed": "40208625"
      },
      "url": "https://www.semanticscholar.org/paper/d70ebecdf82f426a98cf8b9cfedd1b3365a9c11f",
      "title": "Regularized Variational Bayesian Approximations for Variable Selection in Extended Multiple-Indicators Multiple-Causes Models",
      "venue": "Multivariate Behavioral Research",
      "year": 2025,
      "referenceCount": 37,
      "citationCount": 1,
      "authors": [
        {
          "authorId": "2296950871",
          "name": "Yi Jin"
        },
        {
          "authorId": "2306076200",
          "name": "Jinsong Chen"
        }
      ]
    },
    {
      "paperId": "a3b33e853d62ea03a6a88d5138288fc29cb8f5e1",
      "externalIds": {
        "ArXiv": "2510.17084",
        "CorpusId": 282209576
      },
      "url": "https://www.semanticscholar.org/paper/a3b33e853d62ea03a6a88d5138288fc29cb8f5e1",
      "title": "Variable Selection with Broken Adaptive Ridge Regression for Interval-Censored Competing Risks Data",
      "venue": "",
      "year": 2025,
      "referenceCount": 0,
      "citationCount": 0,
      "authors": [
        {
          "authorId": "2369566255",
          "name": "Fatemeh Mahmoudi"
        },
        {
          "authorId": "2167475640",
          "name": "Chenxi Li"
        },
        {
          "authorId": "101425533",
          "name": "Kaida Cai"
        },
        {
          "authorId": "2321041291",
          "name": "Xuewen Lu"
        }
      ]
    },
    {
      "paperId": "7f2d0280d257e1b7bc885bc62f9716b8bca1fba1",
      "externalIds": {
        "DOI": "10.1088/1742-6596/2636/1/012032",
        "CorpusId": 265236774
      },
      "url": "https://www.semanticscholar.org/paper/7f2d0280d257e1b7bc885bc62f9716b8bca1fba1",
      "title": "Data-driven boiler efficiency and NOx characteristic variable selection and combustion optimization",
      "venue": "Journal of Physics: Conference Series",
      "year": 2023,
      "referenceCount": 7,
      "citationCount": 0,
      "authors": [
        {
          "authorId": "2306161658",
          "name": "Ligang Sun"
        },
        {
          "authorId": "2274318329",
          "name": "Xudong Gao"
        },
        {
          "authorId": "2266893635",
          "name": "Chunguo An"
        },
        {
          "authorId": "2150683087",
          "name": "Jingquan Miao"
        },
        {
          "authorId": "2115302822",
          "name": "Shuai He"
        }
      ]
    },
    {
      "paperId": "a0a38711f9db3bfc664f637277aac4c7961b2660",
      "externalIds": {
        "DOI": "10.1155/2022/3112987",
        "CorpusId": 247044370
      },
      "url": "https://www.semanticscholar.org/paper/a0a38711f9db3bfc664f637277aac4c7961b2660",
      "title": "Promoting Variable Effect Consistency in Mixture Cure Model for Credit Scoring",
      "venue": "Discrete Dynamics in Nature and Society",
      "year": 2022,
      "referenceCount": 37,
      "citationCount": 3,
      "authors": [
        {
          "authorId": "115162382",
          "name": "Chenlu Zheng"
        },
        {
          "authorId": "2141503593",
          "name": "Jianping Zhu"
        },
        {
          "authorId": "46515856",
          "name": "Xinyan Fan"
        },
        {
          "authorId": "2343886790",
          "name": "Song Chen"
        },
        {
          "authorId": "2155834061",
          "name": "Zhiyuan Zhang"
        }
      ]
    },
    {
      "paperId": "242c17686bc358da6247f938563447fd1d1b7115",
      "externalIds": {
        "DOI": "10.3390/math11244979",
        "CorpusId": 266413460
      },
      "url": "https://www.semanticscholar.org/paper/242c17686bc358da6247f938563447fd1d1b7115",
      "title": "Variable Selection for Sparse Logistic Regression with Grouped Variables",
      "venue": "Mathematics",
      "year": 2023,
      "referenceCount": 32,
      "citationCount": 1,
      "authors": [
        {
          "authorId": "2112678760",
          "name": "Ming Zhong"
        },
        {
          "authorId": "2275546385",
          "name": "Zanhua Yin"
        },
        {
          "authorId": "2275183006",
          "name": "Zhichao Wang"
        }
      ]
    },
    {
      "paperId": "5f719820ea98789d2314d4600d3cdf98894fc026",
      "externalIds": {
        "DOI": "10.1007/s11425-023-2342-0",
        "CorpusId": 277649870
      },
      "url": "https://www.semanticscholar.org/paper/5f719820ea98789d2314d4600d3cdf98894fc026",
      "title": "Interquantile shrinkage and variable selection for longitudinal data in regression models",
      "venue": "Science China Mathematics",
      "year": 2025,
      "referenceCount": 30,
      "citationCount": 1,
      "authors": [
        {
          "authorId": "2056301270",
          "name": "Chuang Wan"
        },
        {
          "authorId": "2303408627",
          "name": "Wei Zhong"
        },
        {
          "authorId": "2382087522",
          "name": "Chenjing Li"
        },
        {
          "authorId": "2260646164",
          "name": "Xinyuan Song"
        }
      ]
    }
  ]
}