{
  "total": 28126,
  "offset": 0,
  "next": 10,
  "data": [
    {
      "paperId": "33bc8dc6a928fd0befc9a9688846beeb338d6ad8",
      "externalIds": {
        "MAG": "2078492619",
        "DOI": "10.1037/H0093825",
        "CorpusId": 145608064
      },
      "url": "https://www.semanticscholar.org/paper/33bc8dc6a928fd0befc9a9688846beeb338d6ad8",
      "title": "Learning and memorization of classifications.",
      "venue": "",
      "year": 1961,
      "referenceCount": 35,
      "citationCount": 872,
      "authors": [
        {
          "authorId": "2137198",
          "name": "R. Shepard"
        },
        {
          "authorId": "113259800",
          "name": "C. I. Hovland"
        },
        {
          "authorId": "145975462",
          "name": "H. M. Jenkins"
        }
      ]
    },
    {
      "paperId": "51ed7ecddc98569caa2eb8e05da5a3ee11c996e4",
      "externalIds": {
        "DBLP": "conf/iclr/Chatterjee18",
        "MAG": "2804071063",
        "CorpusId": 51875017
      },
      "url": "https://www.semanticscholar.org/paper/51ed7ecddc98569caa2eb8e05da5a3ee11c996e4",
      "title": "Learning and Memorization",
      "venue": "International Conference on Machine Learning",
      "year": 2018,
      "referenceCount": 21,
      "citationCount": 61,
      "authors": [
        {
          "authorId": "2743487",
          "name": "S. Chatterjee"
        }
      ]
    },
    {
      "paperId": "4c795c391fe3a52352c0073b6bb558faf97e35bf",
      "externalIds": {
        "DBLP": "journals/corr/abs-1911-09873",
        "MAG": "2990393274",
        "ArXiv": "1911.09873",
        "CorpusId": 208248044
      },
      "url": "https://www.semanticscholar.org/paper/4c795c391fe3a52352c0073b6bb558faf97e35bf",
      "title": "Neural Networks Learning and Memorization with (almost) no Over-Parameterization",
      "venue": "Neural Information Processing Systems",
      "year": 2019,
      "referenceCount": 26,
      "citationCount": 36,
      "authors": [
        {
          "authorId": "2898312",
          "name": "Amit Daniely"
        }
      ]
    },
    {
      "paperId": "24a35803e943a1b70a7620e9493949c5016a1e21",
      "externalIds": {
        "ArXiv": "2507.10532",
        "DBLP": "journals/corr/abs-2507-10532",
        "DOI": "10.48550/arXiv.2507.10532",
        "CorpusId": 280293150
      },
      "url": "https://www.semanticscholar.org/paper/24a35803e943a1b70a7620e9493949c5016a1e21",
      "title": "Reasoning or Memorization? Unreliable Results of Reinforcement Learning Due to Data Contamination",
      "venue": "AAAI Conference on Artificial Intelligence",
      "year": 2025,
      "referenceCount": 35,
      "citationCount": 67,
      "authors": [
        {
          "authorId": "2374274013",
          "name": "Mingqi Wu"
        },
        {
          "authorId": "2262654002",
          "name": "Zhihao Zhang"
        },
        {
          "authorId": "2156930638",
          "name": "Qiaole Dong"
        },
        {
          "authorId": "2218237934",
          "name": "Zhiheng Xi"
        },
        {
          "authorId": "2257315251",
          "name": "Jun Zhao"
        },
        {
          "authorId": "2219131195",
          "name": "Senjie Jin"
        },
        {
          "authorId": "2241140630",
          "name": "Xiaoran Fan"
        },
        {
          "authorId": "2212175381",
          "name": "Yuhao Zhou"
        },
        {
          "authorId": "2240574799",
          "name": "Ming Zhang"
        },
        {
          "authorId": "2371140837",
          "name": "Yanwei Fu"
        },
        {
          "authorId": "2373314870",
          "name": "Qin Liu"
        },
        {
          "authorId": "2372762403",
          "name": "Songyang Zhang"
        },
        {
          "authorId": "2374299112",
          "name": "Qi Zhang"
        }
      ]
    },
    {
      "paperId": "4b37028eb593af51f4e0d439042ef8cf1cd0ba46",
      "externalIds": {
        "DBLP": "conf/cvpr/GaoJZZXFDMW25",
        "DOI": "10.1109/CVPR52734.2025.01911",
        "CorpusId": 280098940
      },
      "url": "https://www.semanticscholar.org/paper/4b37028eb593af51f4e0d439042ef8cf1cd0ba46",
      "title": "Knowledge Memorization and Rumination for Pre-trained Model-based Class-Incremental Learning",
      "venue": "Computer Vision and Pattern Recognition",
      "year": 2025,
      "referenceCount": 62,
      "citationCount": 10,
      "authors": [
        {
          "authorId": "2111125827",
          "name": "Zijian Gao"
        },
        {
          "authorId": "2296714001",
          "name": "Wangwang Jia"
        },
        {
          "authorId": "2346263630",
          "name": "Xingxing Zhang"
        },
        {
          "authorId": "2298212671",
          "name": "Dulan Zhou"
        },
        {
          "authorId": "2261908475",
          "name": "Kele Xu"
        },
        {
          "authorId": "2264007696",
          "name": "Dawei Feng"
        },
        {
          "authorId": "2314815796",
          "name": "Yong Dou"
        },
        {
          "authorId": "2311819610",
          "name": "Xinjun Mao"
        },
        {
          "authorId": "2113255325",
          "name": "Huaimin Wang"
        }
      ]
    },
    {
      "paperId": "d3899b92e7e8e9ff517efa5c22948ce46cad0749",
      "externalIds": {
        "DBLP": "journals/corr/abs-2502-03435",
        "ArXiv": "2502.03435",
        "DOI": "10.48550/arXiv.2502.03435",
        "CorpusId": 276116546
      },
      "url": "https://www.semanticscholar.org/paper/d3899b92e7e8e9ff517efa5c22948ce46cad0749",
      "title": "Taking a Big Step: Large Learning Rates in Denoising Score Matching Prevent Memorization",
      "venue": "Annual Conference Computational Learning Theory",
      "year": 2025,
      "referenceCount": 52,
      "citationCount": 9,
      "authors": [
        {
          "authorId": "2237808691",
          "name": "Yu-Han Wu"
        },
        {
          "authorId": "78588411",
          "name": "P. Marion"
        },
        {
          "authorId": "2283847395",
          "name": "Gérard Biau"
        },
        {
          "authorId": "2283847563",
          "name": "Claire Boyer"
        }
      ]
    },
    {
      "paperId": "a58112381efffe6f1b43f8b663a5d30a2ff27eef",
      "externalIds": {
        "DBLP": "journals/corr/abs-2404-06209",
        "ArXiv": "2404.06209",
        "DOI": "10.48550/arXiv.2404.06209",
        "CorpusId": 269009574
      },
      "url": "https://www.semanticscholar.org/paper/a58112381efffe6f1b43f8b663a5d30a2ff27eef",
      "title": "Elephants Never Forget: Memorization and Learning of Tabular Data in Large Language Models",
      "venue": "arXiv.org",
      "year": 2024,
      "referenceCount": 59,
      "citationCount": 32,
      "authors": [
        {
          "authorId": "1802528351",
          "name": "Sebastian Bordt"
        },
        {
          "authorId": "40900039",
          "name": "H. Nori"
        },
        {
          "authorId": "2295731554",
          "name": "Vanessa Rodrigues"
        },
        {
          "authorId": "2571049",
          "name": "Besmira Nushi"
        },
        {
          "authorId": "2282539419",
          "name": "Rich Caruana"
        }
      ]
    },
    {
      "paperId": "adacae482acc20e070e23c2f2311bbf54d32ef41",
      "externalIds": {
        "DOI": "10.57239/pjlss-2024-22.2.00105",
        "CorpusId": 271883595
      },
      "url": "https://www.semanticscholar.org/paper/adacae482acc20e070e23c2f2311bbf54d32ef41",
      "title": "Tracing Trends in Quran Memorization and Cognitive Learning: A Bibliometric Analysis from the Scopus Database",
      "venue": "Pakistan journal of life and social sciences",
      "year": 2024,
      "referenceCount": 62,
      "citationCount": 44,
      "authors": [
        {
          "authorId": "2076645886",
          "name": "Ardiansyah"
        },
        {
          "authorId": "2282334424",
          "name": "Waston"
        },
        {
          "authorId": "2303370685",
          "name": "Mahmudulhassan"
        },
        {
          "authorId": "2316229097",
          "name": "Zainora Daud"
        },
        {
          "authorId": "116274367",
          "name": "Norsaleha Mohd Salleh"
        },
        {
          "authorId": "2316232765",
          "name": "A. An"
        },
        {
          "authorId": "2288635893",
          "name": "Muthoifin"
        }
      ]
    },
    {
      "paperId": "68cd38b036a967249e81279b334489de02372a8f",
      "externalIds": {
        "MAG": "2139496239",
        "DOI": "10.1016/J.BRAINDEV.2003.10.004",
        "CorpusId": 46071666,
        "PubMed": "15351079"
      },
      "url": "https://www.semanticscholar.org/paper/68cd38b036a967249e81279b334489de02372a8f",
      "title": "Learning and memorization impairment in childhood chronic fatigue syndrome manifesting as school phobia in Japan.",
      "venue": "Brain & development (Tokyo. 1979)",
      "year": 2004,
      "referenceCount": 12,
      "citationCount": 46,
      "authors": [
        {
          "authorId": "4044387",
          "name": "T. Miike"
        },
        {
          "authorId": "34902284",
          "name": "A. Tomoda"
        },
        {
          "authorId": "4315787",
          "name": "T. Jhodoi"
        },
        {
          "authorId": "5472479",
          "name": "N. Iwatani"
        },
        {
          "authorId": "46935126",
          "name": "H. Mabe"
        }
      ]
    },
    {
      "paperId": "e80e1859a8319dfa7ee6ea010fbc52383196046e",
      "externalIds": {
        "ArXiv": "2406.03880",
        "DBLP": "journals/corr/abs-2406-03880",
        "DOI": "10.1145/3769076",
        "CorpusId": 270286074
      },
      "url": "https://www.semanticscholar.org/paper/e80e1859a8319dfa7ee6ea010fbc52383196046e",
      "title": "Memorization in Deep Learning: A Survey",
      "venue": "ACM Computing Surveys",
      "year": 2024,
      "referenceCount": 156,
      "citationCount": 25,
      "authors": [
        {
          "authorId": "2240990804",
          "name": "Jiaheng Wei"
        },
        {
          "authorId": "2240711706",
          "name": "Yanjun Zhang"
        },
        {
          "authorId": "2248789322",
          "name": "Leo Yu Zhang"
        },
        {
          "authorId": "2304952849",
          "name": "Ming Ding"
        },
        {
          "authorId": "2303883652",
          "name": "Chao Chen"
        },
        {
          "authorId": "2240540583",
          "name": "Kok-Leong Ong"
        },
        {
          "authorId": "2261984354",
          "name": "Jun Zhang"
        },
        {
          "authorId": "2271092694",
          "name": "Yang Xiang"
        }
      ]
    }
  ]
}