{
  "total": 836,
  "offset": 0,
  "next": 10,
  "data": [
    {
      "paperId": "93bc65d2842b8cc5f3cf72ebc5b8f75daeacea35",
      "externalIds": {
        "ArXiv": "1502.05700",
        "DBLP": "conf/icml/SnoekRSKSSPPA15",
        "MAG": "2950277768",
        "CorpusId": 12604141
      },
      "url": "https://www.semanticscholar.org/paper/93bc65d2842b8cc5f3cf72ebc5b8f75daeacea35",
      "title": "Scalable Bayesian Optimization Using Deep Neural Networks",
      "venue": "International Conference on Machine Learning",
      "year": 2015,
      "referenceCount": 64,
      "citationCount": 1123,
      "authors": [
        {
          "authorId": "144108062",
          "name": "Jasper Snoek"
        },
        {
          "authorId": "1757324",
          "name": "Oren Rippel"
        },
        {
          "authorId": "1754860",
          "name": "Kevin Swersky"
        },
        {
          "authorId": "3450996",
          "name": "Ryan Kiros"
        },
        {
          "authorId": "143758120",
          "name": "N. Satish"
        },
        {
          "authorId": "1789372",
          "name": "N. Sundaram"
        },
        {
          "authorId": "8176660",
          "name": "Md. Mostofa Ali Patwary"
        },
        {
          "authorId": "1764912",
          "name": "Prabhat"
        },
        {
          "authorId": "1722180",
          "name": "Ryan P. Adams"
        }
      ]
    },
    {
      "paperId": "c759c1f4376e322943d8a463064367fcee5f4eb6",
      "externalIds": {
        "MAG": "2251230758",
        "DBLP": "conf/ijcai/HuangZSLC15",
        "CorpusId": 7020893
      },
      "url": "https://www.semanticscholar.org/paper/c759c1f4376e322943d8a463064367fcee5f4eb6",
      "title": "Scalable Gaussian Process Regression Using Deep Neural Networks",
      "venue": "International Joint Conference on Artificial Intelligence",
      "year": 2015,
      "referenceCount": 30,
      "citationCount": 68,
      "authors": [
        {
          "authorId": "2978255",
          "name": "Wen-bing Huang"
        },
        {
          "authorId": "1678783",
          "name": "Deli Zhao"
        },
        {
          "authorId": "143823065",
          "name": "F. Sun"
        },
        {
          "authorId": "145433219",
          "name": "Huaping Liu"
        },
        {
          "authorId": "152536227",
          "name": "Edward Y. Chang"
        }
      ]
    },
    {
      "paperId": "a4c9f1dfac72370a730bf47eecd39f1be9f247e3",
      "externalIds": {
        "MAG": "2963461438",
        "DBLP": "journals/prl/JansenSL17",
        "ArXiv": "1508.04422",
        "DOI": "10.1016/j.patrec.2017.04.016",
        "CorpusId": 8031205
      },
      "url": "https://www.semanticscholar.org/paper/a4c9f1dfac72370a730bf47eecd39f1be9f247e3",
      "title": "Scalable out-of-sample extension of graph embeddings using deep neural networks",
      "venue": "Pattern Recognition Letters",
      "year": 2015,
      "referenceCount": 33,
      "citationCount": 16,
      "authors": [
        {
          "authorId": "35996413",
          "name": "A. Jansen"
        },
        {
          "authorId": "143660166",
          "name": "Gregory Sell"
        },
        {
          "authorId": "2992726",
          "name": "V. Lyzinski"
        }
      ]
    },
    {
      "paperId": "aa41fc76baccb1052cd2ad61589e944a32fbe9a9",
      "externalIds": {
        "CorpusId": 15575117
      },
      "url": "https://www.semanticscholar.org/paper/aa41fc76baccb1052cd2ad61589e944a32fbe9a9",
      "title": "Adaptive Neural Network Representations for Parallel and Scalable Bayesian Optimization",
      "venue": "",
      "year": 2015,
      "referenceCount": 18,
      "citationCount": 0,
      "authors": [
        {
          "authorId": "2011236",
          "name": "James A. Brofos"
        },
        {
          "authorId": "1978777",
          "name": "Rui Shu"
        }
      ]
    },
    {
      "paperId": "0a99a0b5b7e1737202202b0e9970eb79e5701501",
      "externalIds": {
        "DBLP": "conf/evoW/DesellCHW15",
        "MAG": "836056349",
        "DOI": "10.1007/978-3-319-16468-7_8",
        "CorpusId": 15548493
      },
      "url": "https://www.semanticscholar.org/paper/0a99a0b5b7e1737202202b0e9970eb79e5701501",
      "title": "Evolving Deep Recurrent Neural Networks Using Ant Colony Optimization",
      "venue": "EvoCOP",
      "year": 2015,
      "referenceCount": 46,
      "citationCount": 57,
      "authors": [
        {
          "authorId": "2164942",
          "name": "Travis Desell"
        },
        {
          "authorId": "2420551",
          "name": "Sophine Clachar"
        },
        {
          "authorId": "2056807120",
          "name": "James Higgins"
        },
        {
          "authorId": "39604619",
          "name": "Brandon Wild"
        }
      ]
    },
    {
      "paperId": "8dcdd798cd053f1b050bca8a8a4fbbaf2ecef10d",
      "externalIds": {
        "CorpusId": 207992456
      },
      "url": "https://www.semanticscholar.org/paper/8dcdd798cd053f1b050bca8a8a4fbbaf2ecef10d",
      "title": "Reliability Based Design Optimization Using Bayesian Reliability Neural Networks",
      "venue": "",
      "year": 2015,
      "referenceCount": 1,
      "citationCount": 0,
      "authors": [
        {
          "authorId": "41015669",
          "name": "Jaehyeok Doh"
        },
        {
          "authorId": "46663198",
          "name": "Jongsoo Lee"
        }
      ]
    },
    {
      "paperId": "215cf528ed98049724969ceb82c66e78edda8d51",
      "externalIds": {
        "MAG": "1960182310",
        "DBLP": "journals/corr/ZhangSVPL15",
        "ArXiv": "1504.03293",
        "DOI": "10.1109/CVPR.2015.7298621",
        "CorpusId": 1078871
      },
      "url": "https://www.semanticscholar.org/paper/215cf528ed98049724969ceb82c66e78edda8d51",
      "title": "Improving object detection with deep convolutional networks via Bayesian optimization and structured prediction",
      "venue": "Computer Vision and Pattern Recognition",
      "year": 2015,
      "referenceCount": 53,
      "citationCount": 220,
      "authors": [
        {
          "authorId": "145489055",
          "name": "Y. Zhang"
        },
        {
          "authorId": "1729571",
          "name": "Kihyuk Sohn"
        },
        {
          "authorId": "144543406",
          "name": "Ruben Villegas"
        },
        {
          "authorId": "144563871",
          "name": "Gang Pan"
        },
        {
          "authorId": "1697141",
          "name": "Honglak Lee"
        }
      ]
    },
    {
      "paperId": "69cba7528a704d4479cdc3aa5349f10523cbd680",
      "externalIds": {
        "MAG": "2563952667",
        "CorpusId": 63538399
      },
      "url": "https://www.semanticscholar.org/paper/69cba7528a704d4479cdc3aa5349f10523cbd680",
      "title": "Scalable Gaussian Process Regression using Deep Neural Networks",
      "venue": "",
      "year": 2015,
      "referenceCount": 0,
      "citationCount": 0,
      "authors": [
        {
          "authorId": "73513974",
          "name": "黄文炳"
        },
        {
          "authorId": "66174171",
          "name": "孙富春"
        }
      ]
    },
    {
      "paperId": "070047871fd141998bf619f54fec5f643379af4d",
      "externalIds": {
        "MAG": "2963143003",
        "DBLP": "journals/corr/ZhangLWL15",
        "ArXiv": "1508.01011",
        "DOI": "10.1007/978-3-319-50496-4_59",
        "CorpusId": 632750
      },
      "url": "https://www.semanticscholar.org/paper/070047871fd141998bf619f54fec5f643379af4d",
      "title": "Learning from LDA Using Deep Neural Networks",
      "venue": "NLPCC/ICCPOL",
      "year": 2015,
      "referenceCount": 13,
      "citationCount": 26,
      "authors": [
        {
          "authorId": "49356872",
          "name": "Dongxu Zhang"
        },
        {
          "authorId": "30687479",
          "name": "Tianyi Luo"
        },
        {
          "authorId": "46348792",
          "name": "Dong Wang"
        }
      ]
    },
    {
      "paperId": "efb4431579a46d9cfa51b4ebbd4ddb9f44a30246",
      "externalIds": {
        "DBLP": "conf/ijcai/DomhanSH15",
        "MAG": "2266822037",
        "CorpusId": 369457
      },
      "url": "https://www.semanticscholar.org/paper/efb4431579a46d9cfa51b4ebbd4ddb9f44a30246",
      "title": "Speeding Up Automatic Hyperparameter Optimization of Deep Neural Networks by Extrapolation of Learning Curves",
      "venue": "International Joint Conference on Artificial Intelligence",
      "year": 2015,
      "referenceCount": 39,
      "citationCount": 626,
      "authors": [
        {
          "authorId": "2387977205",
          "name": "Tobias Domhan"
        },
        {
          "authorId": "2060551",
          "name": "Jost Tobias Springenberg"
        },
        {
          "authorId": "144661829",
          "name": "F. Hutter"
        }
      ]
    }
  ]
}