{
  "total": 45,
  "offset": 0,
  "next": 10,
  "data": [
    {
      "paperId": "7eab7f092ef3b89621ebfbb02196c7b6fe1ddd62",
      "externalIds": {
        "MAG": "2784622812",
        "DBLP": "journals/corr/abs-1801-06309",
        "ArXiv": "1801.06309",
        "CorpusId": 25850865
      },
      "url": "https://www.semanticscholar.org/paper/7eab7f092ef3b89621ebfbb02196c7b6fe1ddd62",
      "title": "Composite Functional Gradient Learning of Generative Adversarial Models",
      "venue": "International Conference on Machine Learning",
      "year": 2018,
      "referenceCount": 28,
      "citationCount": 16,
      "authors": [
        {
          "authorId": "2108925678",
          "name": "Rie Johnson"
        },
        {
          "authorId": "50728655",
          "name": "Tong Zhang"
        }
      ]
    },
    {
      "paperId": "fdb682c12af4bb01f04d51b6d0f8cd963b7b36de",
      "externalIds": {
        "CorpusId": 260497315
      },
      "url": "https://www.semanticscholar.org/paper/fdb682c12af4bb01f04d51b6d0f8cd963b7b36de",
      "title": "Composite Functional Gradient Learning of Generative Adversarial Models",
      "venue": "",
      "year": 2018,
      "referenceCount": 0,
      "citationCount": 0,
      "authors": []
    },
    {
      "paperId": "b214c676da7241453631061b2591b30722f02bcf",
      "externalIds": {
        "MAG": "2955680640",
        "DBLP": "journals/pami/JohnsonZ21",
        "DOI": "10.1109/TPAMI.2019.2924428",
        "CorpusId": 195762698,
        "PubMed": "31247543"
      },
      "url": "https://www.semanticscholar.org/paper/b214c676da7241453631061b2591b30722f02bcf",
      "title": "A Framework of Composite Functional Gradient Methods for Generative Adversarial Models",
      "venue": "IEEE Transactions on Pattern Analysis and Machine Intelligence",
      "year": 2021,
      "referenceCount": 54,
      "citationCount": 29,
      "authors": [
        {
          "authorId": "2108925678",
          "name": "Rie Johnson"
        },
        {
          "authorId": "38144094",
          "name": "T. Zhang"
        }
      ]
    },
    {
      "paperId": "6ba0d3a7ed2325d8ee6b66feb920fb7cc69a37e9",
      "externalIds": {
        "DOI": "10.3390/smartcities8020038",
        "CorpusId": 276712576
      },
      "url": "https://www.semanticscholar.org/paper/6ba0d3a7ed2325d8ee6b66feb920fb7cc69a37e9",
      "title": "Generative Adversarial Framework with Composite Discriminator for Organization and Process Modelling—Smart City Cases",
      "venue": "Smart Cities",
      "year": 2025,
      "referenceCount": 41,
      "citationCount": 1,
      "authors": [
        {
          "authorId": "2299650369",
          "name": "Nikolay Shilov"
        },
        {
          "authorId": "143931737",
          "name": "A. Ponomarev"
        },
        {
          "authorId": "19199811",
          "name": "D. Ryumin"
        },
        {
          "authorId": "2292661597",
          "name": "A. Karpov"
        }
      ]
    },
    {
      "paperId": "e5ff6e4f409e8bc24300293d3f749ca87a462f40",
      "externalIds": {
        "DBLP": "journals/corr/abs-2501-11318",
        "ArXiv": "2501.11318",
        "DOI": "10.1109/TCSVT.2024.3456476",
        "CorpusId": 272620077
      },
      "url": "https://www.semanticscholar.org/paper/e5ff6e4f409e8bc24300293d3f749ca87a462f40",
      "title": "Nested Annealed Training Scheme for Generative Adversarial Networks",
      "venue": "IEEE transactions on circuits and systems for video technology (Print)",
      "year": 2025,
      "referenceCount": 68,
      "citationCount": 1,
      "authors": [
        {
          "authorId": "2284085541",
          "name": "Chang Wan"
        },
        {
          "authorId": "2253087902",
          "name": "Ming-Hsuan Yang"
        },
        {
          "authorId": "2255515077",
          "name": "Minglu Li"
        },
        {
          "authorId": "2284556407",
          "name": "Yunliang Jiang"
        },
        {
          "authorId": "2278244261",
          "name": "Zhonglong Zheng"
        }
      ]
    },
    {
      "paperId": "e1dc32b981047bdac877b7aaa8e2016f4097d8d0",
      "externalIds": {
        "DOI": "10.1117/12.3074602",
        "CorpusId": 282402729
      },
      "url": "https://www.semanticscholar.org/paper/e1dc32b981047bdac877b7aaa8e2016f4097d8d0",
      "title": "Medical image super-resolution reconstruction based on generative adversarial networks (GAN)",
      "venue": "International Conference on Image Processing and Intelligent Control",
      "year": 2025,
      "referenceCount": 9,
      "citationCount": 0,
      "authors": [
        {
          "authorId": "2409447074",
          "name": "Luheng Cui"
        },
        {
          "authorId": "2281106031",
          "name": "Longfei Wang"
        },
        {
          "authorId": "2387989951",
          "name": "Yusen Rong"
        }
      ]
    },
    {
      "paperId": "2a7f2015e48815bf4b134c4dd950084cb1ce7daf",
      "externalIds": {
        "ArXiv": "2504.02859",
        "DBLP": "journals/corr/abs-2504-02859",
        "DOI": "10.1016/j.chaos.2025.116406",
        "CorpusId": 277596252
      },
      "url": "https://www.semanticscholar.org/paper/2a7f2015e48815bf4b134c4dd950084cb1ce7daf",
      "title": "AI-Enhanced Resilience in Power Systems: Adversarial Deep Learning for Robust Short-Term Voltage Stability Assessment under Cyber-Attacks",
      "venue": "Chaos, Solitons &amp; Fractals",
      "year": 2025,
      "referenceCount": 30,
      "citationCount": 29,
      "authors": [
        {
          "authorId": "2323954942",
          "name": "Yang Li"
        },
        {
          "authorId": "2145403022",
          "name": "Shitu Zhang"
        },
        {
          "authorId": "2268801864",
          "name": "Yuanzheng Li"
        }
      ]
    },
    {
      "paperId": "c5eec8c7f6ae27c705dfce00ed5d255697978d02",
      "externalIds": {
        "PubMedCentral": "12263880",
        "DOI": "10.1038/s41598-025-11328-9",
        "CorpusId": 280049633,
        "PubMed": "40664756"
      },
      "url": "https://www.semanticscholar.org/paper/c5eec8c7f6ae27c705dfce00ed5d255697978d02",
      "title": "A hybrid framework of generative deep learning for antiviral peptide discovery",
      "venue": "Scientific Reports",
      "year": 2025,
      "referenceCount": 87,
      "citationCount": 5,
      "authors": [
        {
          "authorId": "2243300646",
          "name": "Huỳnh Anh Duy"
        },
        {
          "authorId": "1397149198",
          "name": "Tarapong Srisongkram"
        }
      ]
    },
    {
      "paperId": "60f653b14da8cc6866e5062a9700bb5f85a387ca",
      "externalIds": {
        "ArXiv": "2403.00867",
        "DBLP": "conf/nips/HuCH24",
        "DOI": "10.48550/arXiv.2403.00867",
        "CorpusId": 268230819
      },
      "url": "https://www.semanticscholar.org/paper/60f653b14da8cc6866e5062a9700bb5f85a387ca",
      "title": "Gradient Cuff: Detecting Jailbreak Attacks on Large Language Models by Exploring Refusal Loss Landscapes",
      "venue": "Neural Information Processing Systems",
      "year": 2024,
      "referenceCount": 35,
      "citationCount": 75,
      "authors": [
        {
          "authorId": "2199229406",
          "name": "Xiaomeng Hu"
        },
        {
          "authorId": "2218144207",
          "name": "Pin-Yu Chen"
        },
        {
          "authorId": "2103197703",
          "name": "Tsung-Yi Ho"
        }
      ]
    },
    {
      "paperId": "07bd73ca7eb5bc5e82f8b3535f6b0d656f9bf6ae",
      "externalIds": {
        "ArXiv": "2405.13962",
        "DOI": "10.1093/imaiai/iaaf028",
        "CorpusId": 269983455
      },
      "url": "https://www.semanticscholar.org/paper/07bd73ca7eb5bc5e82f8b3535f6b0d656f9bf6ae",
      "title": "Robust generative learning with Lipschitz-regularized α-divergences allows minimal assumptions on target distributions",
      "venue": "Information and Inference A Journal of the IMA",
      "year": 2024,
      "referenceCount": 56,
      "citationCount": 2,
      "authors": [
        {
          "authorId": "2302858578",
          "name": "Ziyu Chen"
        },
        {
          "authorId": "119781124",
          "name": "Hyemin Gu"
        },
        {
          "authorId": "2495670",
          "name": "M. Katsoulakis"
        },
        {
          "authorId": "1403758373",
          "name": "Luc Rey-Bellet"
        },
        {
          "authorId": "2302863559",
          "name": "Wei Zhu"
        }
      ]
    }
  ]
}