{
  "total": 12,
  "offset": 0,
  "next": 10,
  "data": [
    {
      "paperId": "44b509deb7ce8f0346491c575b2223be9f950f19",
      "externalIds": {
        "MAG": "2962704593",
        "DBLP": "conf/icml/HanHZ18",
        "ArXiv": "1711.00658",
        "CorpusId": 20440233
      },
      "url": "https://www.semanticscholar.org/paper/44b509deb7ce8f0346491c575b2223be9f950f19",
      "title": "Candidates v.s. Noises Estimation for Large Multi-Class Classification Problem",
      "venue": "International Conference on Machine Learning",
      "year": 2017,
      "referenceCount": 48,
      "citationCount": 3,
      "authors": [
        {
          "authorId": "1390738614",
          "name": "Lei Han"
        },
        {
          "authorId": "2146324552",
          "name": "Tong Zhang"
        }
      ]
    },
    {
      "paperId": "6971ca071dcc17c684e99994289ddd29d7447ef7",
      "externalIds": {
        "DBLP": "phd/ethos/McWhirter18",
        "MAG": "2895980756",
        "DOI": "10.24377/researchonline.ljmu.ac.uk.00009479",
        "CorpusId": 54625695
      },
      "url": "https://www.semanticscholar.org/paper/6971ca071dcc17c684e99994289ddd29d7447ef7",
      "title": "An Automated Pipeline for Variability Detection and classification for the Small Telescopes Installed at the Liverpool Telescope",
      "venue": "",
      "year": 2018,
      "referenceCount": 215,
      "citationCount": 0,
      "authors": [
        {
          "authorId": "3429395",
          "name": "P. R. McWhirter"
        }
      ]
    },
    {
      "paperId": "62720819141c33b2bca6244be1c5b336fe8bd7c8",
      "externalIds": {
        "MAG": "2506842666",
        "DBLP": "conf/micai/2005",
        "DOI": "10.1007/11579427",
        "CorpusId": 30782657
      },
      "url": "https://www.semanticscholar.org/paper/62720819141c33b2bca6244be1c5b336fe8bd7c8",
      "title": "MICAI 2005: Advances in Artificial Intelligence, 4th Mexican International Conference on Artificial Intelligence, Monterrey, Mexico, November 14-18, 2005, Proceedings",
      "venue": "Mexican International Conference on Artificial Intelligence",
      "year": 2005,
      "referenceCount": 0,
      "citationCount": 79,
      "authors": [
        {
          "authorId": "1747784",
          "name": "Alexander Gelbukh"
        },
        {
          "authorId": "144881594",
          "name": "A. D. Albornoz"
        },
        {
          "authorId": "1399006250",
          "name": "Hugo Terashima-Marín"
        }
      ]
    },
    {
      "paperId": "86334f25b850be9e74e4ebc2254b8f2e7c576d14",
      "externalIds": {
        "MAG": "626785281",
        "CorpusId": 264802332
      },
      "url": "https://www.semanticscholar.org/paper/86334f25b850be9e74e4ebc2254b8f2e7c576d14",
      "title": "Learning a family of detectors",
      "venue": "",
      "year": 2010,
      "referenceCount": 97,
      "citationCount": 0,
      "authors": [
        {
          "authorId": "1749590",
          "name": "S. Sclaroff"
        },
        {
          "authorId": "2117782126",
          "name": "Quan Yuan"
        }
      ]
    },
    {
      "paperId": "598ccf73ba504a31d65b50c7ede8982c3b1d9192",
      "externalIds": {
        "CorpusId": 118746340
      },
      "url": "https://www.semanticscholar.org/paper/598ccf73ba504a31d65b50c7ede8982c3b1d9192",
      "title": "Learning a family of detectors",
      "venue": "",
      "year": 2010,
      "referenceCount": 109,
      "citationCount": 0,
      "authors": [
        {
          "authorId": "2237265375",
          "name": "Quan Yuan"
        }
      ]
    },
    {
      "paperId": "870701625866c25200c01bf607e606b203f36653",
      "externalIds": {
        "DBLP": "conf/icannga/2007-2",
        "MAG": "225855053",
        "DOI": "10.1007/978-3-540-71618-1",
        "CorpusId": 36268190
      },
      "url": "https://www.semanticscholar.org/paper/870701625866c25200c01bf607e606b203f36653",
      "title": "Adaptive and Natural Computing Algorithms, 8th International Conference, ICANNGA 2007, Warsaw, Poland, April 11-14, 2007, Proceedings, Part I",
      "venue": "International Conference on Adaptive and Natural Computing Algorithms",
      "year": 2007,
      "referenceCount": 8,
      "citationCount": 4,
      "authors": [
        {
          "authorId": "1685917",
          "name": "B. Beliczynski"
        },
        {
          "authorId": "1838719",
          "name": "A. Dzieliński"
        },
        {
          "authorId": "1786116",
          "name": "Marcin Iwanowski"
        },
        {
          "authorId": "144719255",
          "name": "B. Ribeiro"
        }
      ]
    },
    {
      "paperId": "e5838435e49e887df65ade6c230fda0350497bdb",
      "externalIds": {
        "MAG": "1568263626",
        "DBLP": "conf/iwann/1999-2",
        "DOI": "10.1007/BFb0100465",
        "CorpusId": 5303112
      },
      "url": "https://www.semanticscholar.org/paper/e5838435e49e887df65ade6c230fda0350497bdb",
      "title": "Engineering Applications of Bio-Inspired Artificial Neural Networks",
      "venue": "Lecture Notes in Computer Science",
      "year": 1999,
      "referenceCount": 0,
      "citationCount": 42,
      "authors": [
        {
          "authorId": "1795053",
          "name": "J. Mira"
        },
        {
          "authorId": "1395015814",
          "name": "J. Sánchez-Andrés"
        }
      ]
    },
    {
      "paperId": "785c392b87e8f2f3b3048b077b04294d7e43ff6d",
      "externalIds": {
        "MAG": "1593608100",
        "CorpusId": 33519105
      },
      "url": "https://www.semanticscholar.org/paper/785c392b87e8f2f3b3048b077b04294d7e43ff6d",
      "title": "Advances in knowledge discovery and data mining : 11th Pacific-Asia conference, PAKDD 2007, Nanjing, China, May 22-25, 2007 : proceedings",
      "venue": "",
      "year": 2007,
      "referenceCount": 13,
      "citationCount": 4,
      "authors": [
        {
          "authorId": "2110219656",
          "name": "Jinlong Wang"
        },
        {
          "authorId": "2250713070",
          "name": "Congfu Xu"
        },
        {
          "authorId": "143736626",
          "name": "Gang Li"
        },
        {
          "authorId": "2245016522",
          "name": "Zhenwen Dai"
        },
        {
          "authorId": "2056100543",
          "name": "Guojing Luo"
        }
      ]
    },
    {
      "paperId": "841a96cfb6def89925642fb892220cfdc8970559",
      "externalIds": {
        "MAG": "1512719150",
        "DBLP": "conf/pakdd/2009",
        "CorpusId": 261088182
      },
      "url": "https://www.semanticscholar.org/paper/841a96cfb6def89925642fb892220cfdc8970559",
      "title": "Advances in Knowledge Discovery and Data Mining, 13th Pacific-Asia Conference, PAKDD 2009, Bangkok, Thailand, April 27-30, 2009, Proceedings",
      "venue": "Pacific-Asia Conference on Knowledge Discovery and Data Mining",
      "year": 2009,
      "referenceCount": 0,
      "citationCount": 1,
      "authors": [
        {
          "authorId": "1751558",
          "name": "T. Theeramunkong"
        },
        {
          "authorId": "1683540",
          "name": "B. Kijsirikul"
        },
        {
          "authorId": "2245554487",
          "name": "Nick Cercone"
        },
        {
          "authorId": "2245007266",
          "name": "T. Ho"
        }
      ]
    },
    {
      "paperId": "63e1754ba80ce97738f61dace96b464a2c7ec2fa",
      "externalIds": {
        "CorpusId": 221680874
      },
      "url": "https://www.semanticscholar.org/paper/63e1754ba80ce97738f61dace96b464a2c7ec2fa",
      "title": "The art of modelling Electrical Machines",
      "venue": "",
      "year": 2012,
      "referenceCount": 71,
      "citationCount": 2,
      "authors": []
    }
  ]
}