{
  "total": 1295,
  "offset": 0,
  "next": 10,
  "data": [
    {
      "paperId": "8f2679966560c3846c919a080a3aa2992fe8d03d",
      "externalIds": {
        "MAG": "2963425629",
        "ArXiv": "1711.08841",
        "DBLP": "conf/icml/AwasthiV18",
        "CorpusId": 1394831
      },
      "url": "https://www.semanticscholar.org/paper/8f2679966560c3846c919a080a3aa2992fe8d03d",
      "title": "Clustering Semi-Random Mixtures of Gaussians",
      "venue": "International Conference on Machine Learning",
      "year": 2017,
      "referenceCount": 55,
      "citationCount": 13,
      "authors": [
        {
          "authorId": "144030228",
          "name": "Pranjal Awasthi"
        },
        {
          "authorId": "1760467",
          "name": "Aravindan Vijayaraghavan"
        }
      ]
    },
    {
      "paperId": "039aeba174f6043e3c58a7286915bd2f069ac03d",
      "externalIds": {
        "DOI": "10.1177/09622802251322986",
        "CorpusId": 277190263,
        "PubMed": "40111813"
      },
      "url": "https://www.semanticscholar.org/paper/039aeba174f6043e3c58a7286915bd2f069ac03d",
      "title": "Semi-parametric testing for ordinal treatment effects in time-to-event data via dynamic Dirichlet process mixtures of the inverse-Gaussian distribution",
      "venue": "Statistical Methods in Medical Research",
      "year": 2025,
      "referenceCount": 35,
      "citationCount": 0,
      "authors": [
        {
          "authorId": "70286867",
          "name": "John A. Race"
        },
        {
          "authorId": "5112029",
          "name": "A. Ruppert"
        },
        {
          "authorId": "2396586588",
          "name": "Yvonne Efebera"
        },
        {
          "authorId": "2105401114",
          "name": "Michael L Pennell"
        }
      ]
    },
    {
      "paperId": "097ec6aec26a1aca9321be97840c7f29dc9018d7",
      "externalIds": {
        "DBLP": "journals/jcisd/SepulvedaSepulvedaCJ26",
        "PubMedCentral": "12892318",
        "DOI": "10.1021/acs.jcim.5c02017",
        "CorpusId": 284872939,
        "PubMed": "41553743"
      },
      "url": "https://www.semanticscholar.org/paper/097ec6aec26a1aca9321be97840c7f29dc9018d7",
      "title": "Density Estimation Based on Mixtures of Gaussians for Perovskite Solar Cells Modeling",
      "venue": "Journal of Chemical Information and Modeling",
      "year": 2026,
      "referenceCount": 53,
      "citationCount": 0,
      "authors": [
        {
          "authorId": "2372550075",
          "name": "Alexander Sepúlveda-Sepúlveda"
        },
        {
          "authorId": "2425499365",
          "name": "Daniel Cerro-Ramos"
        },
        {
          "authorId": "2304944783",
          "name": "T. Jacobsson"
        }
      ]
    },
    {
      "paperId": "61a92f234db4f351c2939579deea322c47f498a9",
      "externalIds": {
        "DOI": "10.1109/ISIE62713.2025.11124617",
        "CorpusId": 280909453
      },
      "url": "https://www.semanticscholar.org/paper/61a92f234db4f351c2939579deea322c47f498a9",
      "title": "Kotz Mixture Model with Semi-Supervised Projected Model-Based Clustering",
      "venue": "International Symposium on Industrial Electronics",
      "year": 2025,
      "referenceCount": 32,
      "citationCount": 0,
      "authors": [
        {
          "authorId": "2004580008",
          "name": "Tsega Weldu Araya"
        },
        {
          "authorId": "144821487",
          "name": "Muhammad Azam"
        },
        {
          "authorId": "2377482085",
          "name": "Nizar Bouguil"
        },
        {
          "authorId": "2298188907",
          "name": "Jamal Bentahar"
        }
      ]
    },
    {
      "paperId": "35e5e090f8fb6ed531c3507f726a5a0952ea7925",
      "externalIds": {
        "ArXiv": "2601.12425",
        "CorpusId": 284912163
      },
      "url": "https://www.semanticscholar.org/paper/35e5e090f8fb6ed531c3507f726a5a0952ea7925",
      "title": "Robust semi-parametric mixtures of linear experts using the contaminated Gaussian distribution",
      "venue": "",
      "year": 2026,
      "referenceCount": 29,
      "citationCount": 0,
      "authors": [
        {
          "authorId": "2405815264",
          "name": "Peterson Mambondimumwe"
        },
        {
          "authorId": "2166011967",
          "name": "Sphiwe B. Skhosana"
        },
        {
          "authorId": "103246287",
          "name": "N. N. Rad"
        }
      ]
    },
    {
      "paperId": "772fafe6a3dfe01871ac5c62837cc36586ed79da",
      "externalIds": {
        "MAG": "2963626260",
        "DBLP": "conf/colt/DaskalakisTZ17",
        "ArXiv": "1609.00368",
        "CorpusId": 8876882
      },
      "url": "https://www.semanticscholar.org/paper/772fafe6a3dfe01871ac5c62837cc36586ed79da",
      "title": "Ten Steps of EM Suffice for Mixtures of Two Gaussians",
      "venue": "Annual Conference Computational Learning Theory",
      "year": 2016,
      "referenceCount": 29,
      "citationCount": 130,
      "authors": [
        {
          "authorId": "3806712",
          "name": "C. Daskalakis"
        },
        {
          "authorId": "2347899",
          "name": "Christos Tzamos"
        },
        {
          "authorId": "3438946",
          "name": "M. Zampetakis"
        }
      ]
    },
    {
      "paperId": "4d4ccb43289b685b2f5d2fd0689e047f11ebe7bd",
      "externalIds": {
        "PubMedCentral": "12642617",
        "DOI": "10.1101/2025.11.13.688299",
        "CorpusId": 283070525,
        "PubMed": "41292835"
      },
      "url": "https://www.semanticscholar.org/paper/4d4ccb43289b685b2f5d2fd0689e047f11ebe7bd",
      "title": "Clustering of Omic Data Using Semi-Supervised Transfer Learning for Gaussian Mixture Models via Natural-Gradient Variational Inference: Method and Applications to Bulk and Single-Cell Transcriptomics",
      "venue": "bioRxiv",
      "year": 2025,
      "referenceCount": 38,
      "citationCount": 0,
      "authors": [
        {
          "authorId": "2309433807",
          "name": "Qiran Jia"
        },
        {
          "authorId": "2132067213",
          "name": "Jesse A. Goodrich"
        },
        {
          "authorId": "2242836031",
          "name": "David V. Conti"
        }
      ]
    },
    {
      "paperId": "92c3326660e965271ad885ce8a5365f781b2b868",
      "externalIds": {
        "DBLP": "journals/jksucis/WangCRWMDLLZP25",
        "DOI": "10.1007/s44443-025-00386-8",
        "CorpusId": 283425547
      },
      "url": "https://www.semanticscholar.org/paper/92c3326660e965271ad885ce8a5365f781b2b868",
      "title": "FFSSC: a framework for discovering new classes of ancient texts based on feature fusion and semi-supervised clustering",
      "venue": "Journal of King Saud University: Computer and Information Sciences",
      "year": 2025,
      "referenceCount": 59,
      "citationCount": 0,
      "authors": [
        {
          "authorId": "2369578058",
          "name": "Yueran Wang"
        },
        {
          "authorId": "2277212863",
          "name": "Shanxiong Chen"
        },
        {
          "authorId": "2307102992",
          "name": "Qiuyue Ruan"
        },
        {
          "authorId": "2330966447",
          "name": "Chunming Wu"
        },
        {
          "authorId": "2279262415",
          "name": "Yuqi Ma"
        },
        {
          "authorId": "2395340350",
          "name": "Fei Deng"
        },
        {
          "authorId": "2395478408",
          "name": "Fa Li"
        },
        {
          "authorId": "2384076350",
          "name": "Youxin Liao"
        },
        {
          "authorId": "2332043490",
          "name": "Jiahao Zhang"
        },
        {
          "authorId": "2304165454",
          "name": "Xun Pu"
        }
      ]
    },
    {
      "paperId": "70fcc9b10b76566a93d7a02fbcc8b597c25068c4",
      "externalIds": {
        "ArXiv": "2505.20731",
        "DBLP": "journals/corr/abs-2505-20731",
        "DOI": "10.48550/arXiv.2505.20731",
        "CorpusId": 278912026
      },
      "url": "https://www.semanticscholar.org/paper/70fcc9b10b76566a93d7a02fbcc8b597c25068c4",
      "title": "Semi-supervised Clustering Through Representation Learning of Large-scale EHR Data",
      "venue": "arXiv.org",
      "year": 2025,
      "referenceCount": 51,
      "citationCount": 1,
      "authors": [
        {
          "authorId": "2249689517",
          "name": "Linshanshan Wang"
        },
        {
          "authorId": "2330716626",
          "name": "Mengyan Li"
        },
        {
          "authorId": "2249691781",
          "name": "Zongqi Xia"
        },
        {
          "authorId": "46175887",
          "name": "Molei Liu"
        },
        {
          "authorId": "2272169548",
          "name": "Tianxi Cai"
        }
      ]
    },
    {
      "paperId": "29182521cd8f15d59529e60d871f2f800eb32d47",
      "externalIds": {
        "DBLP": "conf/icassp/SeyyedsalehiR22",
        "DOI": "10.1109/icassp43922.2022.9746552",
        "CorpusId": 249436698
      },
      "url": "https://www.semanticscholar.org/paper/29182521cd8f15d59529e60d871f2f800eb32d47",
      "title": "Improving Joint Sparse Hyperspectral Unmixing by Simultaneously Clustering Pixels According To Their Mixtures",
      "venue": "IEEE International Conference on Acoustics, Speech, and Signal Processing",
      "year": 2022,
      "referenceCount": 0,
      "citationCount": 2,
      "authors": [
        {
          "authorId": "31032796",
          "name": "S. F. Seyyedsalehi"
        },
        {
          "authorId": "1688652",
          "name": "H. Rabiee"
        }
      ]
    }
  ]
}