{
  "total": 243,
  "offset": 0,
  "next": 10,
  "data": [
    {
      "paperId": "3ac0fea1e5395cfb0dc1f0ee2b921fe22b23fed0",
      "externalIds": {
        "DBLP": "conf/icml/FoersterNFATKW17",
        "MAG": "2949201811",
        "ArXiv": "1702.08887",
        "CorpusId": 14631101
      },
      "url": "https://www.semanticscholar.org/paper/3ac0fea1e5395cfb0dc1f0ee2b921fe22b23fed0",
      "title": "Stabilising Experience Replay for Deep Multi-Agent Reinforcement Learning",
      "venue": "International Conference on Machine Learning",
      "year": 2017,
      "referenceCount": 40,
      "citationCount": 653,
      "authors": [
        {
          "authorId": "145356667",
          "name": "Jakob N. Foerster"
        },
        {
          "authorId": "39683441",
          "name": "Nantas Nardelli"
        },
        {
          "authorId": "38698094",
          "name": "Gregory Farquhar"
        },
        {
          "authorId": "2285516",
          "name": "Triantafyllos Afouras"
        },
        {
          "authorId": "143635540",
          "name": "Philip H. S. Torr"
        },
        {
          "authorId": "143967473",
          "name": "Pushmeet Kohli"
        },
        {
          "authorId": "1766767",
          "name": "Shimon Whiteson"
        }
      ]
    },
    {
      "paperId": "095dcf19b295c5f704106bac65e44657efcf7319",
      "externalIds": {
        "DOI": "10.22266/ijies2025.0531.16",
        "CorpusId": 277808331
      },
      "url": "https://www.semanticscholar.org/paper/095dcf19b295c5f704106bac65e44657efcf7319",
      "title": "Enhanced Intrusion Detection Using Deep Q-Network with Priority Experience Replay and Multi-Agent Reinforcement Learning",
      "venue": "International Journal of Intelligent Engineering and Systems",
      "year": 2025,
      "referenceCount": 0,
      "citationCount": 2,
      "authors": []
    },
    {
      "paperId": "93b4e1a7a596e37f0f6a40b308eaeaaae149e876",
      "externalIds": {
        "DOI": "10.3390/app13052865",
        "CorpusId": 257168370
      },
      "url": "https://www.semanticscholar.org/paper/93b4e1a7a596e37f0f6a40b308eaeaaae149e876",
      "title": "Multi-Microgrid Energy Management Strategy Based on Multi-Agent Deep Reinforcement Learning with Prioritized Experience Replay",
      "venue": "Applied Sciences",
      "year": 2023,
      "referenceCount": 23,
      "citationCount": 28,
      "authors": [
        {
          "authorId": "47447496",
          "name": "Guodong Guo"
        },
        {
          "authorId": "2437926",
          "name": "Yanfeng Gong"
        }
      ]
    },
    {
      "paperId": "f2aa04ee24b92e0e1b3e5bf0985543d7d70d9af2",
      "externalIds": {
        "DBLP": "journals/comintsys/ZhouLSLNLG23",
        "DOI": "10.1007/s40747-023-00985-w",
        "CorpusId": 257134299
      },
      "url": "https://www.semanticscholar.org/paper/f2aa04ee24b92e0e1b3e5bf0985543d7d70d9af2",
      "title": "Cooperative multi-agent target searching: a deep reinforcement learning approach based on parallel hindsight experience replay",
      "venue": "Complex & Intelligent Systems",
      "year": 2023,
      "referenceCount": 42,
      "citationCount": 19,
      "authors": [
        {
          "authorId": "2157399331",
          "name": "Yi Zhou"
        },
        {
          "authorId": "2187667285",
          "name": "Zhixiang Liu"
        },
        {
          "authorId": "30507181",
          "name": "Huaguang Shi"
        },
        {
          "authorId": "2209783704",
          "name": "Si Li"
        },
        {
          "authorId": "51221884",
          "name": "Nianwen Ning"
        },
        {
          "authorId": "2190583120",
          "name": "Fuqiang Liu"
        },
        {
          "authorId": "2149397450",
          "name": "Xiao-guang Gao"
        }
      ]
    },
    {
      "paperId": "608608539b08d9b3abdd999688c659c1b9466490",
      "externalIds": {
        "DOI": "10.3390/electronics14010192",
        "CorpusId": 275348514
      },
      "url": "https://www.semanticscholar.org/paper/608608539b08d9b3abdd999688c659c1b9466490",
      "title": "Multi-Agent Reinforcement Learning for Efficient Resource Allocation in Internet of Vehicles",
      "venue": "Electronics",
      "year": 2025,
      "referenceCount": 39,
      "citationCount": 9,
      "authors": [
        {
          "authorId": "2193094893",
          "name": "Jun-han Wang"
        },
        {
          "authorId": "2145385441",
          "name": "He He"
        },
        {
          "authorId": "2267590407",
          "name": "Jaesang Cha"
        },
        {
          "authorId": "2056207586",
          "name": "Incheol Jeong"
        },
        {
          "authorId": "2267580966",
          "name": "Chang-Jun Ahn"
        }
      ]
    },
    {
      "paperId": "8e94237ebe20e9e5f1df2a5b9edda22784654add",
      "externalIds": {
        "DBLP": "journals/apin/VHCK25",
        "DOI": "10.1007/s10489-025-06878-4",
        "CorpusId": 281224628
      },
      "url": "https://www.semanticscholar.org/paper/8e94237ebe20e9e5f1df2a5b9edda22784654add",
      "title": "EMERALD-O: efficient multi-agent reinforcement learning framework for optimised deep learning hyperparameter tuning and selection",
      "venue": "Applied intelligence (Boston)",
      "year": 2025,
      "referenceCount": 47,
      "citationCount": 0,
      "authors": [
        {
          "authorId": "2305869610",
          "name": "Akhila Vh"
        },
        {
          "authorId": "50744841",
          "name": "A. Chacko"
        },
        {
          "authorId": "1734731",
          "name": "P. Kumaraguru"
        }
      ]
    },
    {
      "paperId": "81e7f39decdd7b4bd10953e92613135c22c986ae",
      "externalIds": {
        "DOI": "10.1109/RAIIE65740.2025.11140123",
        "CorpusId": 281094725
      },
      "url": "https://www.semanticscholar.org/paper/81e7f39decdd7b4bd10953e92613135c22c986ae",
      "title": "PER-MADDPG: Multi-Agent Reinforcement Learning for Coordinated UAV Swarm Performance under Rhythmic Constraints",
      "venue": "2025 4th International Symposium on Robotics, Artificial Intelligence and Information Engineering (RAIIE)",
      "year": 2025,
      "referenceCount": 5,
      "citationCount": 1,
      "authors": [
        {
          "authorId": "2378898295",
          "name": "Xiaojing Li"
        },
        {
          "authorId": "2290573963",
          "name": "Congna Lv"
        },
        {
          "authorId": "2237605665",
          "name": "Yueming Yang"
        }
      ]
    },
    {
      "paperId": "82689d704a63c5096b12361b01c327a181876142",
      "externalIds": {
        "DOI": "10.1109/JSEN.2023.3237206",
        "CorpusId": 256221317
      },
      "url": "https://www.semanticscholar.org/paper/82689d704a63c5096b12361b01c327a181876142",
      "title": "Multi-Input Autonomous Driving Based on Deep Reinforcement Learning With Double Bias Experience Replay",
      "venue": "IEEE Sensors Journal",
      "year": 2023,
      "referenceCount": 38,
      "citationCount": 24,
      "authors": [
        {
          "authorId": "2158780212",
          "name": "Jianping Cui"
        },
        {
          "authorId": "2089025639",
          "name": "Liang Yuan"
        },
        {
          "authorId": "2109336527",
          "name": "Li He"
        },
        {
          "authorId": "2093593356",
          "name": "Wendong Xiao"
        },
        {
          "authorId": "2088932195",
          "name": "T. Ran"
        },
        {
          "authorId": "2108447936",
          "name": "Jianbo Zhang"
        }
      ]
    },
    {
      "paperId": "eed1038b5647c17e4af7065ed95bcc9c19344bbb",
      "externalIds": {
        "DOI": "10.65286/icic.v21i4.96746",
        "CorpusId": 282973097
      },
      "url": "https://www.semanticscholar.org/paper/eed1038b5647c17e4af7065ed95bcc9c19344bbb",
      "title": "Multi-Agent Reinforcement Learning with Cooperative Mechanism for Dynamic Job Shop Scheduling Problem",
      "venue": "Poster Volume Ⅳ  The 2025 Twenty-First International  Conference on Intelligent Computing July 26-29, 2025  Ningbo, China",
      "year": 2025,
      "referenceCount": 0,
      "citationCount": 0,
      "authors": [
        {
          "authorId": "2339168101",
          "name": "Jie Shang"
        }
      ]
    },
    {
      "paperId": "52360954104ce4a82eb5799b282efdf434836c40",
      "externalIds": {
        "DOI": "10.1109/ICICSP66564.2025.11338225",
        "CorpusId": 284924432
      },
      "url": "https://www.semanticscholar.org/paper/52360954104ce4a82eb5799b282efdf434836c40",
      "title": "An Enhanced DQN Algorithm for Anti-Eavesdropping Path Planning of UAVs Based on Multi-Agent Reinforcement Learning",
      "venue": "2025 8th International Conference on Information Communication and Signal Processing (ICICSP)",
      "year": 2025,
      "referenceCount": 9,
      "citationCount": 0,
      "authors": [
        {
          "authorId": "2281036246",
          "name": "Ge Shi"
        },
        {
          "authorId": "2256950232",
          "name": "Lei Wang"
        },
        {
          "authorId": "2341907094",
          "name": "Hongyang Zhou"
        },
        {
          "authorId": "2260445781",
          "name": "Huixin Wu"
        }
      ]
    }
  ]
}