{
  "total": 1601,
  "offset": 0,
  "next": 10,
  "data": [
    {
      "paperId": "08eedbebd096a1ec912ec664989b54eff0acece6",
      "externalIds": {
        "ArXiv": "1706.08427",
        "MAG": "2663450581",
        "DBLP": "journals/corr/StichRJ17",
        "CorpusId": 518716
      },
      "url": "https://www.semanticscholar.org/paper/08eedbebd096a1ec912ec664989b54eff0acece6",
      "title": "Approximate Steepest Coordinate Descent",
      "venue": "International Conference on Machine Learning",
      "year": 2017,
      "referenceCount": 30,
      "citationCount": 16,
      "authors": [
        {
          "authorId": "2127057",
          "name": "Sebastian U. Stich"
        },
        {
          "authorId": "1709198",
          "name": "Anant Raj"
        },
        {
          "authorId": "2456863",
          "name": "Martin Jaggi"
        }
      ]
    },
    {
      "paperId": "529428d5c384cb717cb05bcc12711f5599c856bf",
      "externalIds": {
        "MAG": "2038677572",
        "DOI": "10.1016/0009-2614(96)00563-5",
        "CorpusId": 96329732
      },
      "url": "https://www.semanticscholar.org/paper/529428d5c384cb717cb05bcc12711f5599c856bf",
      "title": "Approximate description of Stokes shifts in ICT fluorescence emission",
      "venue": "",
      "year": 1996,
      "referenceCount": 5,
      "citationCount": 7,
      "authors": [
        {
          "authorId": "6022540",
          "name": "G. Saielli"
        },
        {
          "authorId": "2084612112",
          "name": "D. Braun"
        },
        {
          "authorId": "2897780",
          "name": "A. Polimeno"
        },
        {
          "authorId": "91266509",
          "name": "P. Nordio"
        }
      ]
    },
    {
      "paperId": "919a8d61ff4cd43c8544e5e82221d853e91abc8b",
      "externalIds": {
        "MAG": "2020491611",
        "DOI": "10.1016/0301-0104(86)80172-0",
        "CorpusId": 95485210
      },
      "url": "https://www.semanticscholar.org/paper/919a8d61ff4cd43c8544e5e82221d853e91abc8b",
      "title": "Approximate quantum calculation of the dynamics of gas-phase reactions of a light-atom transfer in the tunnelling energy region",
      "venue": "",
      "year": 1986,
      "referenceCount": 7,
      "citationCount": 3,
      "authors": [
        {
          "authorId": "2949773",
          "name": "M. Basilevsky"
        },
        {
          "authorId": "91767489",
          "name": "G. Chudinov"
        },
        {
          "authorId": "3319338",
          "name": "V. Ryaboy"
        }
      ]
    },
    {
      "paperId": "33a3c1b2ee29f39816b6d3a3b26af18655d68593",
      "externalIds": {
        "MAG": "2478071961",
        "DOI": "10.1016/S0006-3495(03)74713-4",
        "CorpusId": 5791122,
        "PubMed": "14581195"
      },
      "url": "https://www.semanticscholar.org/paper/33a3c1b2ee29f39816b6d3a3b26af18655d68593",
      "title": "Atomically detailed simulations of helix formation with the stochastic difference equation.",
      "venue": "Biophysical Journal",
      "year": 2003,
      "referenceCount": 55,
      "citationCount": 26,
      "authors": [
        {
          "authorId": "32259830",
          "name": "Alfredo E. Cardenas"
        },
        {
          "authorId": "3346672",
          "name": "R. Elber"
        }
      ]
    },
    {
      "paperId": "d03f5af7eb58dd3eed25967b9316c1f3abde20bd",
      "externalIds": {
        "MAG": "2317897856",
        "DOI": "10.1021/ct300728a",
        "CorpusId": 44732639,
        "PubMed": "26589057"
      },
      "url": "https://www.semanticscholar.org/paper/d03f5af7eb58dd3eed25967b9316c1f3abde20bd",
      "title": "Efficient Two-Step Procedures for Locating Transition States of Surface Reactions.",
      "venue": "Journal of Chemical Theory and Computation",
      "year": 2013,
      "referenceCount": 53,
      "citationCount": 7,
      "authors": [
        {
          "authorId": "46685102",
          "name": "Astrid Nikodem"
        },
        {
          "authorId": "34288126",
          "name": "A. Matveev"
        },
        {
          "authorId": "2274125811",
          "name": "B. Zheng"
        },
        {
          "authorId": "1985068",
          "name": "N. Rösch"
        }
      ]
    },
    {
      "paperId": "e0aa67c76104717b3e3bb01976c126afb5b70c59",
      "externalIds": {
        "DOI": "10.1016/j.apnum.2025.06.001",
        "CorpusId": 279280795
      },
      "url": "https://www.semanticscholar.org/paper/e0aa67c76104717b3e3bb01976c126afb5b70c59",
      "title": "On Steepest Coordinate Descent Method for Computing Extreme Eigenpairs of Symmetric Matrices",
      "venue": "Applied Numerical Mathematics",
      "year": 2025,
      "referenceCount": 16,
      "citationCount": 1,
      "authors": [
        {
          "authorId": "2360026244",
          "name": "Zhong-Zhi Bai"
        }
      ]
    },
    {
      "paperId": "c04b6d0935b944068d1c4ebe4b505923481c7fbd",
      "externalIds": {
        "ArXiv": "2307.01169",
        "DBLP": "journals/corr/abs-2307-01169",
        "DOI": "10.48550/arXiv.2307.01169",
        "CorpusId": 259316637
      },
      "url": "https://www.semanticscholar.org/paper/c04b6d0935b944068d1c4ebe4b505923481c7fbd",
      "title": "Analyzing and Improving Greedy 2-Coordinate Updates for Equality-Constrained Optimization via Steepest Descent in the 1-Norm",
      "venue": "arXiv.org",
      "year": 2023,
      "referenceCount": 29,
      "citationCount": 2,
      "authors": [
        {
          "authorId": "2168556937",
          "name": "A. Ramesh"
        },
        {
          "authorId": "21529944",
          "name": "Aaron Mishkin"
        },
        {
          "authorId": "145610994",
          "name": "Mark W. Schmidt"
        },
        {
          "authorId": "2198895050",
          "name": "Yihan Zhou"
        },
        {
          "authorId": "104018453",
          "name": "J. Lavington"
        },
        {
          "authorId": "5053947",
          "name": "Jennifer She"
        }
      ]
    },
    {
      "paperId": "e55b0e6c74da07abe987ec412c1646f68569a56f",
      "externalIds": {
        "DBLP": "journals/na/LiuYM26",
        "DOI": "10.1007/s11075-025-02036-6",
        "CorpusId": 276882397
      },
      "url": "https://www.semanticscholar.org/paper/e55b0e6c74da07abe987ec412c1646f68569a56f",
      "title": "Maximal residual coordinate descent method with k-means clustering for solving large linear least-squares problems",
      "venue": "Numerical Algorithms",
      "year": 2025,
      "referenceCount": 19,
      "citationCount": 2,
      "authors": [
        {
          "authorId": "2259065969",
          "name": "Ruiqi Liu"
        },
        {
          "authorId": "2306935505",
          "name": "Aili Yang"
        },
        {
          "authorId": "2146392673",
          "name": "Jian Ma"
        }
      ]
    },
    {
      "paperId": "4375ef96687fcd114ed5fd56afe1f0d288b126d3",
      "externalIds": {
        "ArXiv": "2502.12363",
        "CorpusId": 276421427
      },
      "url": "https://www.semanticscholar.org/paper/4375ef96687fcd114ed5fd56afe1f0d288b126d3",
      "title": "A Pathwise Coordinate Descent Algorithm for LASSO Penalized Quantile Regression",
      "venue": "",
      "year": 2025,
      "referenceCount": 26,
      "citationCount": 1,
      "authors": [
        {
          "authorId": "2280286743",
          "name": "Sanghee Kim"
        },
        {
          "authorId": "2345929077",
          "name": "Sumanta Basu"
        }
      ]
    },
    {
      "paperId": "e10bb5db1869a143697019e7c5ab52da958a3253",
      "externalIds": {
        "MAG": "3191543803",
        "DOI": "10.1109/lawp.2021.3100769",
        "CorpusId": 238935836
      },
      "url": "https://www.semanticscholar.org/paper/e10bb5db1869a143697019e7c5ab52da958a3253",
      "title": "The Polar Coordinate Transformation Numerical Steepest Descent Path Method for Calculating Physical Optical Scattering Field of Quadric Concave or Convex Surfaces",
      "venue": "IEEE Antennas and Wireless Propagation Letters",
      "year": 2021,
      "referenceCount": 0,
      "citationCount": 1,
      "authors": [
        {
          "authorId": "2117416056",
          "name": "Yunzhe Liu"
        },
        {
          "authorId": "6034253",
          "name": "Guobin Wan"
        },
        {
          "authorId": "144533648",
          "name": "Xin Ma"
        },
        {
          "authorId": "144457723",
          "name": "Nan Wang"
        }
      ]
    }
  ]
}