{
  "total": 127,
  "offset": 0,
  "next": 10,
  "data": [
    {
      "paperId": "cb6817e2c6683d62f845d1417d644b8adf738ccc",
      "externalIds": {
        "DBLP": "journals/corr/StaibJ17",
        "MAG": "2950042411",
        "ArXiv": "1702.08791",
        "DOI": "10.1007/s00245-019-09567-0",
        "CorpusId": 587852
      },
      "url": "https://www.semanticscholar.org/paper/cb6817e2c6683d62f845d1417d644b8adf738ccc",
      "title": "Robust Budget Allocation Via Continuous Submodular Functions",
      "venue": "Applied Mathematics and Optimization",
      "year": 2017,
      "referenceCount": 82,
      "citationCount": 58,
      "authors": [
        {
          "authorId": "3440468",
          "name": "Matthew Staib"
        },
        {
          "authorId": "2594093",
          "name": "S. Jegelka"
        }
      ]
    },
    {
      "paperId": "69b194841bdc4bffccd60113937522e31d5a65d1",
      "externalIds": {
        "CorpusId": 229545678
      },
      "url": "https://www.semanticscholar.org/paper/69b194841bdc4bffccd60113937522e31d5a65d1",
      "title": "Robust Budget Allocation",
      "venue": "",
      "year": 2019,
      "referenceCount": 41,
      "citationCount": 1,
      "authors": [
        {
          "authorId": "1720802623",
          "name": "Ashley M. Hou"
        }
      ]
    },
    {
      "paperId": "2edd9a2cdbd051c7be9dd95f8a0427a08bfe752d",
      "externalIds": {
        "ArXiv": "2303.11937",
        "DBLP": "conf/aistats/BeckerGZM23",
        "DOI": "10.48550/arXiv.2303.11937",
        "CorpusId": 257636893
      },
      "url": "https://www.semanticscholar.org/paper/2edd9a2cdbd051c7be9dd95f8a0427a08bfe752d",
      "title": "High Probability Bounds for Stochastic Continuous Submodular Maximization",
      "venue": "International Conference on Artificial Intelligence and Statistics",
      "year": 2023,
      "referenceCount": 30,
      "citationCount": 0,
      "authors": [
        {
          "authorId": "2052530284",
          "name": "Evan Becker"
        },
        {
          "authorId": "2960113",
          "name": "Jingdong Gao"
        },
        {
          "authorId": "2212363034",
          "name": "Ted Zadouri"
        },
        {
          "authorId": "2389094",
          "name": "Baharan Mirzasoleiman"
        }
      ]
    },
    {
      "paperId": "4d139c3db79b5f95b5939c7f047af9e7a50b6549",
      "externalIds": {
        "ArXiv": "1810.06833",
        "DBLP": "journals/corr/abs-1810-06833",
        "MAG": "2897861301",
        "CorpusId": 53111244
      },
      "url": "https://www.semanticscholar.org/paper/4d139c3db79b5f95b5939c7f047af9e7a50b6549",
      "title": "Maximizing Monotone DR-submodular Continuous Functions by Derivative-free Optimization",
      "venue": "arXiv.org",
      "year": 2018,
      "referenceCount": 27,
      "citationCount": 0,
      "authors": [
        {
          "authorId": "2107986486",
          "name": "Yibo Zhang"
        },
        {
          "authorId": "4114317",
          "name": "Chao Qian"
        },
        {
          "authorId": "144994537",
          "name": "K. Tang"
        }
      ]
    },
    {
      "paperId": "ee7c867332894205f4886ef9df765b99dc4280dd",
      "externalIds": {
        "DBLP": "journals/tifs/CaiZYYZ25",
        "DOI": "10.1109/TIFS.2025.3615460",
        "CorpusId": 281691557
      },
      "url": "https://www.semanticscholar.org/paper/ee7c867332894205f4886ef9df765b99dc4280dd",
      "title": "Enhancing Federated Learning With Differentially Private Continuous Data Release via k-Ary Trees",
      "venue": "IEEE Transactions on Information Forensics and Security",
      "year": 2025,
      "referenceCount": 45,
      "citationCount": 0,
      "authors": [
        {
          "authorId": "47468661",
          "name": "Jianping Cai"
        },
        {
          "authorId": "2185053609",
          "name": "Tianqing Zhu"
        },
        {
          "authorId": "151483414",
          "name": "Qingqing Ye"
        },
        {
          "authorId": "2319419638",
          "name": "Zuobing Ying"
        },
        {
          "authorId": "2355446690",
          "name": "Wanlei Zhou"
        }
      ]
    },
    {
      "paperId": "b43b5feeff5845e01673c01a18adfa0b80681b88",
      "externalIds": {
        "DBLP": "journals/access/TruongL23",
        "DOI": "10.1109/ACCESS.2023.3298595",
        "CorpusId": 260182056
      },
      "url": "https://www.semanticscholar.org/paper/b43b5feeff5845e01673c01a18adfa0b80681b88",
      "title": "Incorporated Dempster-Shafer Theory, MACONT, and e-STEP Method (DSM-eSTEP) for Multicriteria Tradeoff Analysis in Transportation Budget Allocation",
      "venue": "IEEE Access",
      "year": 2023,
      "referenceCount": 96,
      "citationCount": 10,
      "authors": [
        {
          "authorId": "1410197413",
          "name": "Tung Q. Truong"
        },
        {
          "authorId": "3143107",
          "name": "Zongzhi Li"
        }
      ]
    },
    {
      "paperId": "11f187e75f3c6ba9216eeb8a6acbc48efb3390a7",
      "externalIds": {
        "DBLP": "journals/tsmc/PerryXHC22",
        "DOI": "10.1109/TSMC.2022.3144363",
        "CorpusId": 246419340
      },
      "url": "https://www.semanticscholar.org/paper/11f187e75f3c6ba9216eeb8a6acbc48efb3390a7",
      "title": "Robust Sampling Budget Allocation Under Deep Uncertainty",
      "venue": "IEEE Transactions on Systems, Man, and Cybernetics: Systems",
      "year": 2022,
      "referenceCount": 30,
      "citationCount": 1,
      "authors": [
        {
          "authorId": "2071523903",
          "name": "Michael Perry"
        },
        {
          "authorId": "39903711",
          "name": "Jie Xu"
        },
        {
          "authorId": "144898259",
          "name": "Edward Huang"
        },
        {
          "authorId": "2279647",
          "name": "C.-H. Chen"
        }
      ]
    },
    {
      "paperId": "d67785f99a0acad3ed0c15a0c618560294254833",
      "externalIds": {
        "DOI": "10.1145/3797823.3797862",
        "CorpusId": 286980312
      },
      "url": "https://www.semanticscholar.org/paper/d67785f99a0acad3ed0c15a0c618560294254833",
      "title": "Optimal Location and Allocation in Shared Mobility Services via Semi-discrete Optimal Transport and Simulated Annealing",
      "venue": "ACM SIGMETRICS Performance Evaluation Review",
      "year": 2026,
      "referenceCount": 5,
      "citationCount": 0,
      "authors": [
        {
          "authorId": "1604998750",
          "name": "Kun Jin"
        },
        {
          "authorId": "40150449",
          "name": "Andre L. Carrel"
        },
        {
          "authorId": "2334992501",
          "name": "Simon Zhang"
        },
        {
          "authorId": "2268458275",
          "name": "Cathy H. Xia"
        }
      ]
    },
    {
      "paperId": "fcbfb0435dbec9641ab84dd9f589cd2e042efd2e",
      "externalIds": {
        "ArXiv": "2505.09525",
        "DBLP": "conf/icml/Spaeh025",
        "DOI": "10.48550/arXiv.2505.09525",
        "CorpusId": 278602613
      },
      "url": "https://www.semanticscholar.org/paper/fcbfb0435dbec9641ab84dd9f589cd2e042efd2e",
      "title": "An Asymptotically Optimal Approximation Algorithm for Multiobjective Submodular Maximization at Scale",
      "venue": "International Conference on Machine Learning",
      "year": 2025,
      "referenceCount": 55,
      "citationCount": 1,
      "authors": [
        {
          "authorId": "1394839681",
          "name": "Fabian Spaeh"
        },
        {
          "authorId": "2282467845",
          "name": "Atsushi Miyauchi"
        }
      ]
    },
    {
      "paperId": "fd7dca5f119e0af4ec3b74b65e9446179be302fb",
      "externalIds": {
        "DBLP": "journals/tmlr/JawanpuriaMG24",
        "CorpusId": 271040562
      },
      "url": "https://www.semanticscholar.org/paper/fd7dca5f119e0af4ec3b74b65e9446179be302fb",
      "title": "Revisiting stochastic submodular maximization with cardinality constraint: A bandit perspective",
      "venue": "Trans. Mach. Learn. Res.",
      "year": 2024,
      "referenceCount": 46,
      "citationCount": 2,
      "authors": [
        {
          "authorId": "1720974",
          "name": "Pratik Jawanpuria"
        },
        {
          "authorId": "2282961950",
          "name": "Bamdev Mishra"
        },
        {
          "authorId": "2305482901",
          "name": "Karthik S. Gurumoorthy"
        }
      ]
    }
  ]
}