{
  "total": 6478,
  "offset": 0,
  "next": 10,
  "data": [
    {
      "paperId": "ea8f7b40ac5c3da3ae0b2376abea54a4ecdc061b",
      "externalIds": {
        "DBLP": "conf/icml/WangXDS16",
        "MAG": "2466168322",
        "CorpusId": 2174374
      },
      "url": "https://www.semanticscholar.org/paper/ea8f7b40ac5c3da3ae0b2376abea54a4ecdc061b",
      "title": "Isotonic Hawkes Processes",
      "venue": "International Conference on Machine Learning",
      "year": 2016,
      "referenceCount": 34,
      "citationCount": 64,
      "authors": [
        {
          "authorId": "2116640426",
          "name": "Yichen Wang"
        },
        {
          "authorId": "2064541476",
          "name": "Bo Xie"
        },
        {
          "authorId": "145585757",
          "name": "Nan Du"
        },
        {
          "authorId": "1779453",
          "name": "Le Song"
        }
      ]
    },
    {
      "paperId": "ee07ad73fa69c138ca5db03d2cf96a626c1ca4b5",
      "externalIds": {
        "ArXiv": "2501.17245",
        "CorpusId": 275954285
      },
      "url": "https://www.semanticscholar.org/paper/ee07ad73fa69c138ca5db03d2cf96a626c1ca4b5",
      "title": "Some limit theorems for locally stationary Hawkes processes",
      "venue": "",
      "year": 2025,
      "referenceCount": 0,
      "citationCount": 2,
      "authors": [
        {
          "authorId": "89127532",
          "name": "Thomas Deschatre"
        },
        {
          "authorId": "2006834549",
          "name": "P. Gruet"
        },
        {
          "authorId": "2342686795",
          "name": "Antoine Lotz"
        }
      ]
    },
    {
      "paperId": "03e5a8aabeb023d66be21b716b3388add8b5f7fa",
      "externalIds": {
        "ArXiv": "2503.21273",
        "CorpusId": 277349411
      },
      "url": "https://www.semanticscholar.org/paper/03e5a8aabeb023d66be21b716b3388add8b5f7fa",
      "title": "Quantification of limit theorems for Hawkes processes",
      "venue": "",
      "year": 2025,
      "referenceCount": 32,
      "citationCount": 2,
      "authors": [
        {
          "authorId": "2313645347",
          "name": "Laure Coutin"
        },
        {
          "authorId": "2313643732",
          "name": "B. Massat"
        },
        {
          "authorId": "2079386640",
          "name": "Anthony R'eveillac"
        }
      ]
    },
    {
      "paperId": "975c0d97b9011afd21f8d31e574a182632b94d90",
      "externalIds": {
        "ArXiv": "2401.11495",
        "DOI": "10.1007/s00440-024-01348-3",
        "CorpusId": 267069309
      },
      "url": "https://www.semanticscholar.org/paper/975c0d97b9011afd21f8d31e574a182632b94d90",
      "title": "Functional limit theorems for Hawkes processes",
      "venue": "Probability theory and related fields",
      "year": 2024,
      "referenceCount": 35,
      "citationCount": 13,
      "authors": [
        {
          "authorId": "2265494372",
          "name": "Ulrich Horst"
        },
        {
          "authorId": "2265580223",
          "name": "Wei Xu"
        }
      ]
    },
    {
      "paperId": "f64e93c483b5d28746e735622298acbfc3ae2357",
      "externalIds": {
        "ArXiv": "2405.16059",
        "DBLP": "journals/corr/abs-2405-16059",
        "DOI": "10.1145/3637528.3671720",
        "CorpusId": 270062789
      },
      "url": "https://www.semanticscholar.org/paper/f64e93c483b5d28746e735622298acbfc3ae2357",
      "title": "Interpretable Transformer Hawkes Processes: Unveiling Complex Interactions in Social Networks",
      "venue": "Knowledge Discovery and Data Mining",
      "year": 2024,
      "referenceCount": 45,
      "citationCount": 18,
      "authors": [
        {
          "authorId": "2091153148",
          "name": "Zizhuo Meng"
        },
        {
          "authorId": "2055652749",
          "name": "Ke Wan"
        },
        {
          "authorId": "2239225404",
          "name": "Yadong Huang"
        },
        {
          "authorId": "2409753179",
          "name": "Zhidong Li"
        },
        {
          "authorId": "2303462738",
          "name": "Yang Wang"
        },
        {
          "authorId": "2114904067",
          "name": "Feng Zhou"
        }
      ]
    },
    {
      "paperId": "5fcd8a50ae8ad279ebfe2566956815155b32a891",
      "externalIds": {
        "DBLP": "conf/aistats/WuIK0LAMY24",
        "ArXiv": "2402.03726",
        "DOI": "10.48550/arXiv.2402.03726",
        "CorpusId": 267500086
      },
      "url": "https://www.semanticscholar.org/paper/5fcd8a50ae8ad279ebfe2566956815155b32a891",
      "title": "Learning Granger Causality from Instance-wise Self-attentive Hawkes Processes",
      "venue": "International Conference on Artificial Intelligence and Statistics",
      "year": 2024,
      "referenceCount": 31,
      "citationCount": 8,
      "authors": [
        {
          "authorId": "2151076702",
          "name": "D. Wu"
        },
        {
          "authorId": "2067233793",
          "name": "Tsuyoshi Id'e"
        },
        {
          "authorId": "2261751130",
          "name": "Aurélie C. Lozano"
        },
        {
          "authorId": "2282965905",
          "name": "Georgios Kollias"
        },
        {
          "authorId": "2282971115",
          "name": "Jivr'i Navr'atil"
        },
        {
          "authorId": "2282961911",
          "name": "Naoki Abe"
        },
        {
          "authorId": "2257127582",
          "name": "Yian Ma"
        },
        {
          "authorId": "2253245279",
          "name": "Rose Yu"
        }
      ]
    },
    {
      "paperId": "b39cca82f862b027593147f0801ada9d4fdfd446",
      "externalIds": {
        "ArXiv": "2405.08640",
        "CorpusId": 269761632
      },
      "url": "https://www.semanticscholar.org/paper/b39cca82f862b027593147f0801ada9d4fdfd446",
      "title": "A sparsity test for multivariate Hawkes processes",
      "venue": "",
      "year": 2024,
      "referenceCount": 52,
      "citationCount": 5,
      "authors": [
        {
          "authorId": "2342686795",
          "name": "Antoine Lotz"
        }
      ]
    },
    {
      "paperId": "dc3872feee628a245539b130f05e8474b7a76cc0",
      "externalIds": {
        "ArXiv": "2407.19741",
        "DOI": "10.1017/jpr.2025.10047",
        "CorpusId": 271534362
      },
      "url": "https://www.semanticscholar.org/paper/dc3872feee628a245539b130f05e8474b7a76cc0",
      "title": "Scaling limits for supercritical nearly unstable Hawkes processes",
      "venue": "Journal of Applied Probability",
      "year": 2024,
      "referenceCount": 32,
      "citationCount": 3,
      "authors": [
        {
          "authorId": "2313644080",
          "name": "Chenguang Liu"
        },
        {
          "authorId": "2313691591",
          "name": "Liping Xu"
        },
        {
          "authorId": "2313695984",
          "name": "An Zhang"
        }
      ]
    },
    {
      "paperId": "9e75b9aadef1b976bf8bfff193c7efa3994ab1b5",
      "externalIds": {
        "ArXiv": "2407.19806",
        "CorpusId": 271534589
      },
      "url": "https://www.semanticscholar.org/paper/9e75b9aadef1b976bf8bfff193c7efa3994ab1b5",
      "title": "Normal approximation of Functionals of Point Processes: Application to Hawkes Processes",
      "venue": "",
      "year": 2024,
      "referenceCount": 27,
      "citationCount": 3,
      "authors": [
        {
          "authorId": "2313645347",
          "name": "Laure Coutin"
        },
        {
          "authorId": "2313643732",
          "name": "B. Massat"
        },
        {
          "authorId": "2079386640",
          "name": "Anthony R'eveillac"
        }
      ]
    },
    {
      "paperId": "86fc7d8941159ae37c547f78228b7778d48c4ee0",
      "externalIds": {
        "DBLP": "conf/aistats/BonnetS25",
        "ArXiv": "2411.00621",
        "DOI": "10.48550/arXiv.2411.00621",
        "CorpusId": 273798313
      },
      "url": "https://www.semanticscholar.org/paper/86fc7d8941159ae37c547f78228b7778d48c4ee0",
      "title": "Nonparametric estimation of Hawkes processes with RKHSs",
      "venue": "International Conference on Artificial Intelligence and Statistics",
      "year": 2024,
      "referenceCount": 80,
      "citationCount": 3,
      "authors": [
        {
          "authorId": "2302408102",
          "name": "A. Bonnet"
        },
        {
          "authorId": "2302408022",
          "name": "Maxime Sangnier"
        }
      ]
    }
  ]
}