{
  "total": 605,
  "offset": 0,
  "next": 10,
  "data": [
    {
      "paperId": "829510ad6f975c939d589eeb01a3cf6fc6c8ce4d",
      "externalIds": {
        "MAG": "2116435618",
        "DBLP": "journals/corr/SrivastavaMS15",
        "ArXiv": "1502.04681",
        "CorpusId": 11699847
      },
      "url": "https://www.semanticscholar.org/paper/829510ad6f975c939d589eeb01a3cf6fc6c8ce4d",
      "title": "Unsupervised Learning of Video Representations using LSTMs",
      "venue": "International Conference on Machine Learning",
      "year": 2015,
      "referenceCount": 32,
      "citationCount": 2714,
      "authors": [
        {
          "authorId": "2897313",
          "name": "Nitish Srivastava"
        },
        {
          "authorId": "2711409",
          "name": "Elman Mansimov"
        },
        {
          "authorId": "145124475",
          "name": "R. Salakhutdinov"
        }
      ]
    },
    {
      "paperId": "795639d7c8383adaa5fcd51029d5c5ea9335784a",
      "externalIds": {
        "DOI": "10.33889/ijmems.2022.7.2.018",
        "CorpusId": 247466039
      },
      "url": "https://www.semanticscholar.org/paper/795639d7c8383adaa5fcd51029d5c5ea9335784a",
      "title": "Learning Unsupervised Visual Representations using 3D Convolutional Autoencoder with Temporal Contrastive Modeling for Video Retrieval",
      "venue": "International journal of mathematical, engineering and management sciences",
      "year": 2022,
      "referenceCount": 41,
      "citationCount": 8,
      "authors": [
        {
          "authorId": "2107882107",
          "name": "Vidit Kumar"
        },
        {
          "authorId": "46882231",
          "name": "V. Tripathi"
        },
        {
          "authorId": "1896240",
          "name": "B. Pant"
        }
      ]
    },
    {
      "paperId": "99b33c3b1a38aa4c2569abb98ca21759951849d5",
      "externalIds": {
        "DBLP": "journals/corr/abs-2006-15731",
        "ArXiv": "2006.15731",
        "MAG": "3037744186",
        "DOI": "10.1007/978-3-030-66096-3_28",
        "CorpusId": 220250800
      },
      "url": "https://www.semanticscholar.org/paper/99b33c3b1a38aa4c2569abb98ca21759951849d5",
      "title": "Unsupervised Learning of Video Representations via Dense Trajectory Clustering",
      "venue": "ECCV Workshops",
      "year": 2020,
      "referenceCount": 50,
      "citationCount": 22,
      "authors": [
        {
          "authorId": "2931554",
          "name": "P. Tokmakov"
        },
        {
          "authorId": "145670946",
          "name": "M. Hebert"
        },
        {
          "authorId": "2462253",
          "name": "C. Schmid"
        }
      ]
    },
    {
      "paperId": "b581807aaca8e795549ae374c8e0b2fbf0c8e717",
      "externalIds": {
        "ArXiv": "2402.19258",
        "DBLP": "journals/corr/abs-2402-19258",
        "DOI": "10.48550/arXiv.2402.19258",
        "CorpusId": 268063812
      },
      "url": "https://www.semanticscholar.org/paper/b581807aaca8e795549ae374c8e0b2fbf0c8e717",
      "title": "MaskFi: Unsupervised Learning of WiFi and Vision Representations for Multimodal Human Activity Recognition",
      "venue": "arXiv.org",
      "year": 2024,
      "referenceCount": 43,
      "citationCount": 8,
      "authors": [
        {
          "authorId": "2249754996",
          "name": "Jianfei Yang"
        },
        {
          "authorId": "2363690349",
          "name": "Shijie Tang"
        },
        {
          "authorId": "9734988",
          "name": "Yuecong Xu"
        },
        {
          "authorId": "2118117287",
          "name": "Yunjiao Zhou"
        },
        {
          "authorId": "2152786430",
          "name": "Lihua Xie"
        }
      ]
    },
    {
      "paperId": "872d78c04c8fb115d492eea98199407991670533",
      "externalIds": {
        "DBLP": "journals/corr/abs-2404-08471",
        "ArXiv": "2404.08471",
        "DOI": "10.48550/arXiv.2404.08471",
        "CorpusId": 269137489
      },
      "url": "https://www.semanticscholar.org/paper/872d78c04c8fb115d492eea98199407991670533",
      "title": "Revisiting Feature Prediction for Learning Visual Representations from Video",
      "venue": "Trans. Mach. Learn. Res.",
      "year": 2024,
      "referenceCount": 83,
      "citationCount": 250,
      "authors": [
        {
          "authorId": "1453740540",
          "name": "Adrien Bardes"
        },
        {
          "authorId": "2048163343",
          "name": "Q. Garrido"
        },
        {
          "authorId": "2296601397",
          "name": "Jean Ponce"
        },
        {
          "authorId": "2296665228",
          "name": "Xinlei Chen"
        },
        {
          "authorId": "2066127975",
          "name": "Michael G. Rabbat"
        },
        {
          "authorId": "2265899558",
          "name": "Yann LeCun"
        },
        {
          "authorId": "38698856",
          "name": "Mahmoud Assran"
        },
        {
          "authorId": "2289844757",
          "name": "Nicolas Ballas"
        }
      ]
    },
    {
      "paperId": "6a0c8d12cfb104722232f1011b07dbef4531d08c",
      "externalIds": {
        "DBLP": "journals/corr/abs-2510-05057",
        "ArXiv": "2510.05057",
        "DOI": "10.48550/arXiv.2510.05057",
        "CorpusId": 281843155
      },
      "url": "https://www.semanticscholar.org/paper/6a0c8d12cfb104722232f1011b07dbef4531d08c",
      "title": "StaMo: Unsupervised Learning of Generalizable Robot Motion from Compact State Representation",
      "venue": "arXiv.org",
      "year": 2025,
      "referenceCount": 58,
      "citationCount": 5,
      "authors": [
        {
          "authorId": "2290717723",
          "name": "Mingyu Liu"
        },
        {
          "authorId": "2384125266",
          "name": "Jiuhe Shu"
        },
        {
          "authorId": "2384707755",
          "name": "Hui Chen"
        },
        {
          "authorId": "2375796515",
          "name": "Zeju Li"
        },
        {
          "authorId": "2267430102",
          "name": "Canyu Zhao"
        },
        {
          "authorId": "2220590629",
          "name": "Jiange Yang"
        },
        {
          "authorId": "2350220976",
          "name": "Shenyuan Gao"
        },
        {
          "authorId": "2363709527",
          "name": "Hao Chen"
        },
        {
          "authorId": "2257324242",
          "name": "Chunhua Shen"
        }
      ]
    },
    {
      "paperId": "1a8d3ad2b400bcebc9f17b309901ca5ef2e95315",
      "externalIds": {
        "MAG": "2963045453",
        "DBLP": "conf/nips/DentonB17",
        "ArXiv": "1705.10915",
        "CorpusId": 13349803
      },
      "url": "https://www.semanticscholar.org/paper/1a8d3ad2b400bcebc9f17b309901ca5ef2e95315",
      "title": "Unsupervised Learning of Disentangled Representations from Video",
      "venue": "Neural Information Processing Systems",
      "year": 2017,
      "referenceCount": 42,
      "citationCount": 580,
      "authors": [
        {
          "authorId": "40081727",
          "name": "Emily L. Denton"
        },
        {
          "authorId": "3468723",
          "name": "Vighnesh Birodkar"
        }
      ]
    },
    {
      "paperId": "0ee4c52b7670cebdfd4b47a84a379fb2439c2876",
      "externalIds": {
        "DBLP": "conf/ncc/Kumar22",
        "DOI": "10.1109/NCC55593.2022.9806811",
        "CorpusId": 250300109
      },
      "url": "https://www.semanticscholar.org/paper/0ee4c52b7670cebdfd4b47a84a379fb2439c2876",
      "title": "Unsupervised Learning of Spatio-Temporal Representation with Multi-Task Learning for Video Retrieval",
      "venue": "National Conference on Communications",
      "year": 2022,
      "referenceCount": 44,
      "citationCount": 4,
      "authors": [
        {
          "authorId": "2107882107",
          "name": "Vidit Kumar"
        }
      ]
    },
    {
      "paperId": "25cfb808b30e365b109e42d66cee7eb23393644a",
      "externalIds": {
        "ArXiv": "2106.05967",
        "DBLP": "conf/nips/GansbekeVGG21",
        "CorpusId": 235390774
      },
      "url": "https://www.semanticscholar.org/paper/25cfb808b30e365b109e42d66cee7eb23393644a",
      "title": "Revisiting Contrastive Methods for Unsupervised Learning of Visual Representations",
      "venue": "Neural Information Processing Systems",
      "year": 2021,
      "referenceCount": 68,
      "citationCount": 75,
      "authors": [
        {
          "authorId": "66314383",
          "name": "Wouter Van Gansbeke"
        },
        {
          "authorId": "83754395",
          "name": "Simon Vandenhende"
        },
        {
          "authorId": "3354258",
          "name": "Stamatios Georgoulis"
        },
        {
          "authorId": "1681236",
          "name": "L. Gool"
        }
      ]
    },
    {
      "paperId": "2eb5b32778142d3b37947eea2e1fd66b60f1d7fe",
      "externalIds": {
        "DBLP": "journals/corr/abs-2512-23585",
        "ArXiv": "2512.23585",
        "DOI": "10.1109/ITSC60802.2025.11423214",
        "CorpusId": 284312384
      },
      "url": "https://www.semanticscholar.org/paper/2eb5b32778142d3b37947eea2e1fd66b60f1d7fe",
      "title": "Unsupervised Learning for Detection of Rare Driving Scenarios",
      "venue": "2025 IEEE 28th International Conference on Intelligent Transportation Systems (ITSC)",
      "year": 2025,
      "referenceCount": 31,
      "citationCount": 0,
      "authors": [
        {
          "authorId": "2059393808",
          "name": "D. Le"
        },
        {
          "authorId": "39102551",
          "name": "Thomas Manhardt"
        },
        {
          "authorId": "94301984",
          "name": "Moritz Venator"
        },
        {
          "authorId": "2363877926",
          "name": "Johannes Betz"
        }
      ]
    }
  ]
}