{
  "total": 214,
  "offset": 0,
  "next": 10,
  "data": [
    {
      "paperId": "eef6fbc2a9f27e9aeccd4ac2119fd66a67726c5f",
      "externalIds": {
        "MAG": "2950701726",
        "ArXiv": "1502.06531",
        "DBLP": "journals/corr/DjolongaK15",
        "CorpusId": 1832772
      },
      "url": "https://www.semanticscholar.org/paper/eef6fbc2a9f27e9aeccd4ac2119fd66a67726c5f",
      "title": "Scalable Variational Inference in Log-supermodular Models",
      "venue": "International Conference on Machine Learning",
      "year": 2015,
      "referenceCount": 34,
      "citationCount": 27,
      "authors": [
        {
          "authorId": "2941141",
          "name": "J. Djolonga"
        },
        {
          "authorId": "145343838",
          "name": "Andreas Krause"
        }
      ]
    },
    {
      "paperId": "c3b2c7bc61f9429ed059bb949a326d7d6d851517",
      "externalIds": {
        "DBLP": "journals/algorithms/DuanTMCJ25",
        "DOI": "10.3390/a18110675",
        "CorpusId": 282343416
      },
      "url": "https://www.semanticscholar.org/paper/c3b2c7bc61f9429ed059bb949a326d7d6d851517",
      "title": "Variational Bayesian Inference for a Q-Matrix-Free Hidden Markov Log-Linear Additive Cognitive Diagnostic Model",
      "venue": "Algorithms",
      "year": 2025,
      "referenceCount": 45,
      "citationCount": 1,
      "authors": [
        {
          "authorId": "2375187216",
          "name": "Hao Duan"
        },
        {
          "authorId": "2375235645",
          "name": "James Tang"
        },
        {
          "authorId": "2344981309",
          "name": "Matthew J. Madison"
        },
        {
          "authorId": "2344971729",
          "name": "Michael Cotterell"
        },
        {
          "authorId": "2261559990",
          "name": "Minjeong Jeon"
        }
      ]
    },
    {
      "paperId": "f0779805ab31379aabb014b37e0ac1686ffb9b67",
      "externalIds": {
        "DOI": "10.1038/s44304-025-00080-9",
        "CorpusId": 277579054
      },
      "url": "https://www.semanticscholar.org/paper/f0779805ab31379aabb014b37e0ac1686ffb9b67",
      "title": "Scalable variational learning for noisy-OR Bayesian networks with normalizing flows for complex cascading disaster systems",
      "venue": "npj Natural Hazards",
      "year": 2025,
      "referenceCount": 55,
      "citationCount": 5,
      "authors": [
        {
          "authorId": "2181353249",
          "name": "Xuechun Li"
        },
        {
          "authorId": "2253819358",
          "name": "Susu Xu"
        }
      ]
    },
    {
      "paperId": "1bd28bcfde8ee4a91599c5a72791801f26565ace",
      "externalIds": {
        "ArXiv": "2504.05431",
        "CorpusId": 277626625
      },
      "url": "https://www.semanticscholar.org/paper/1bd28bcfde8ee4a91599c5a72791801f26565ace",
      "title": "A Generalized Tangent Approximation based Variational Inference Framework for Strongly Super-Gaussian Likelihoods",
      "venue": "",
      "year": 2025,
      "referenceCount": 0,
      "citationCount": 0,
      "authors": [
        {
          "authorId": "2354291201",
          "name": "Somjit Roy"
        },
        {
          "authorId": "2354251932",
          "name": "Pritam Dey"
        },
        {
          "authorId": "35087983",
          "name": "D. Pati"
        },
        {
          "authorId": "1789565",
          "name": "B. Mallick"
        }
      ]
    },
    {
      "paperId": "dc258a865fabac1c49789d0e984174ecd1385fee",
      "externalIds": {
        "DBLP": "conf/icml/LiuW25",
        "ArXiv": "2502.09591",
        "DOI": "10.48550/arXiv.2502.09591",
        "CorpusId": 276317216
      },
      "url": "https://www.semanticscholar.org/paper/dc258a865fabac1c49789d0e984174ecd1385fee",
      "title": "Censor Dependent Variational Inference",
      "venue": "International Conference on Machine Learning",
      "year": 2025,
      "referenceCount": 67,
      "citationCount": 0,
      "authors": [
        {
          "authorId": "2341473825",
          "name": "Chuanhui Liu"
        },
        {
          "authorId": "2341805052",
          "name": "Xiao Wang"
        }
      ]
    },
    {
      "paperId": "19915c018109a89a7be038b278db201922b32de8",
      "externalIds": {
        "DBLP": "conf/iccv/ZhangDK15",
        "MAG": "2197535571",
        "DOI": "10.1109/ICCV.2015.216",
        "CorpusId": 10673805
      },
      "url": "https://www.semanticscholar.org/paper/19915c018109a89a7be038b278db201922b32de8",
      "title": "Higher-Order Inference for Multi-class Log-Supermodular Models",
      "venue": "IEEE International Conference on Computer Vision",
      "year": 2015,
      "referenceCount": 51,
      "citationCount": 18,
      "authors": [
        {
          "authorId": "1679327",
          "name": "Jian Zhang"
        },
        {
          "authorId": "2941141",
          "name": "J. Djolonga"
        },
        {
          "authorId": "145343838",
          "name": "Andreas Krause"
        }
      ]
    },
    {
      "paperId": "6aca6126d2eb1cfca03194aa5f8eca953f651636",
      "externalIds": {
        "ArXiv": "2509.11751",
        "CorpusId": 281315455
      },
      "url": "https://www.semanticscholar.org/paper/6aca6126d2eb1cfca03194aa5f8eca953f651636",
      "title": "Scalable Variable Selection and Model Averaging for Latent Regression Models Using Approximate Variational Bayes",
      "venue": "",
      "year": 2025,
      "referenceCount": 0,
      "citationCount": 1,
      "authors": [
        {
          "authorId": "88739102",
          "name": "Gregor Zens"
        },
        {
          "authorId": "2308097868",
          "name": "Mark F. J. Steel"
        }
      ]
    },
    {
      "paperId": "97d27bc305c8784e18a7939078d1a838d3459108",
      "externalIds": {
        "ArXiv": "2506.09271",
        "CorpusId": 279305962
      },
      "url": "https://www.semanticscholar.org/paper/97d27bc305c8784e18a7939078d1a838d3459108",
      "title": "Variational inference for steady-state BVARs",
      "venue": "",
      "year": 2025,
      "referenceCount": 21,
      "citationCount": 0,
      "authors": [
        {
          "authorId": "2066132863",
          "name": "O. Gustafsson"
        },
        {
          "authorId": "2265984274",
          "name": "Mattias Villani"
        }
      ]
    },
    {
      "paperId": "9590a624434bfafa4a404d4926ed130cc82268bb",
      "externalIds": {
        "MAG": "2549152635",
        "DBLP": "conf/nips/DjolongaT016",
        "DOI": "10.3929/ETHZ-B-000296865",
        "CorpusId": 12392851
      },
      "url": "https://www.semanticscholar.org/paper/9590a624434bfafa4a404d4926ed130cc82268bb",
      "title": "Variational Inference in Mixed Probabilistic Submodular Models",
      "venue": "Neural Information Processing Systems",
      "year": 2016,
      "referenceCount": 24,
      "citationCount": 23,
      "authors": [
        {
          "authorId": "2941141",
          "name": "J. Djolonga"
        },
        {
          "authorId": "3302876",
          "name": "Sebastian Tschiatschek"
        },
        {
          "authorId": "145343838",
          "name": "Andreas Krause"
        }
      ]
    },
    {
      "paperId": "fd53508a6c4350d04ecd7691e8194cff1edcf2f2",
      "externalIds": {
        "CorpusId": 247388302
      },
      "url": "https://www.semanticscholar.org/paper/fd53508a6c4350d04ecd7691e8194cff1edcf2f2",
      "title": "Matrix Inversion free variational inference in Conditional Student’s T Processes",
      "venue": "",
      "year": 2022,
      "referenceCount": 19,
      "citationCount": 2,
      "authors": [
        {
          "authorId": "2059461162",
          "name": "Sebastian Popescu"
        },
        {
          "authorId": "2285836371",
          "name": "Ben Glocker"
        },
        {
          "authorId": "2241657843",
          "name": "M. V. der"
        }
      ]
    }
  ]
}