{
  "total": 75,
  "offset": 0,
  "next": 10,
  "data": [
    {
      "paperId": "62adfea3cc1cd9eb6b53e0e8a40be5dfda2adf8d",
      "externalIds": {
        "MAG": "2164411961",
        "DBLP": "conf/icml/BlundellCKW15",
        "CorpusId": 39895556
      },
      "url": "https://www.semanticscholar.org/paper/62adfea3cc1cd9eb6b53e0e8a40be5dfda2adf8d",
      "title": "Weight Uncertainty in Neural Network",
      "venue": "International Conference on Machine Learning",
      "year": 2015,
      "referenceCount": 39,
      "citationCount": 2305,
      "authors": [
        {
          "authorId": "1723876",
          "name": "C. Blundell"
        },
        {
          "authorId": "3248702",
          "name": "Julien Cornebise"
        },
        {
          "authorId": "2645384",
          "name": "K. Kavukcuoglu"
        },
        {
          "authorId": "1688276",
          "name": "Daan Wierstra"
        }
      ]
    },
    {
      "paperId": "da6057368920585bcf2443295b98418840f1fc80",
      "externalIds": {
        "MAG": "2951266961",
        "DBLP": "journals/corr/BlundellCKW15",
        "ArXiv": "1505.05424",
        "CorpusId": 1806222
      },
      "url": "https://www.semanticscholar.org/paper/da6057368920585bcf2443295b98418840f1fc80",
      "title": "Weight Uncertainty in Neural Networks",
      "venue": "arXiv.org",
      "year": 2015,
      "referenceCount": 48,
      "citationCount": 2097,
      "authors": [
        {
          "authorId": "1723876",
          "name": "C. Blundell"
        },
        {
          "authorId": "3248702",
          "name": "Julien Cornebise"
        },
        {
          "authorId": "2645384",
          "name": "K. Kavukcuoglu"
        },
        {
          "authorId": "1688276",
          "name": "Daan Wierstra"
        }
      ]
    },
    {
      "paperId": "761f563f75a84c626938ec81d5d0ccdc877edc9c",
      "externalIds": {
        "MAG": "2075141909",
        "DOI": "10.1016/J.JHER.2014.09.006",
        "CorpusId": 37437171
      },
      "url": "https://www.semanticscholar.org/paper/761f563f75a84c626938ec81d5d0ccdc877edc9c",
      "title": "Artificial Neural Network ensemble modeling with conjunctive data clustering for water quality prediction in rivers",
      "venue": "",
      "year": 2015,
      "referenceCount": 29,
      "citationCount": 87,
      "authors": [
        {
          "authorId": "2152667113",
          "name": "Sung Eun Kim"
        },
        {
          "authorId": "48475822",
          "name": "I. Seo"
        }
      ]
    },
    {
      "paperId": "ebb784f1dd0dffcaf26c39b6046bfc2490179a0b",
      "externalIds": {
        "MAG": "2318096196",
        "DOI": "10.1080/15325008.2014.1003157",
        "CorpusId": 124001628
      },
      "url": "https://www.semanticscholar.org/paper/ebb784f1dd0dffcaf26c39b6046bfc2490179a0b",
      "title": "Reference Model with an Adaptive Hermite Fuzzy Neural Network Controller for Tracking a Synchronous Reluctance Motor",
      "venue": "",
      "year": 2015,
      "referenceCount": 32,
      "citationCount": 8,
      "authors": [
        {
          "authorId": "2327119",
          "name": "H. Chiang"
        },
        {
          "authorId": "9225935",
          "name": "Chao-Ting Chu"
        }
      ]
    },
    {
      "paperId": "0104a42c4a750cd6de5c2bd5333c4d4a5e2a88f8",
      "externalIds": {
        "MAG": "1511519095",
        "DOI": "10.1109/CHICC.2015.7259948",
        "CorpusId": 30531702
      },
      "url": "https://www.semanticscholar.org/paper/0104a42c4a750cd6de5c2bd5333c4d4a5e2a88f8",
      "title": "Adaptive uncerntainty identification with neural network",
      "venue": "Cybersecurity and Cyberforensics Conference",
      "year": 2015,
      "referenceCount": 19,
      "citationCount": 0,
      "authors": [
        {
          "authorId": "9151833",
          "name": "Zhang Yumin"
        },
        {
          "authorId": "2067322116",
          "name": "Teng Fei"
        },
        {
          "authorId": "2287609031",
          "name": "Guiqin Liang"
        },
        {
          "authorId": "2145076645",
          "name": "Zhiqiang Wang"
        }
      ]
    },
    {
      "paperId": "bea8f537db8f85cb133c053a1f73d25eb8973704",
      "externalIds": {
        "MAG": "2201004764",
        "DBLP": "journals/isci/GaxiolaMVC15",
        "DOI": "10.1016/J.INS.2015.07.020",
        "CorpusId": 44332512
      },
      "url": "https://www.semanticscholar.org/paper/bea8f537db8f85cb133c053a1f73d25eb8973704",
      "title": "Generalized type-2 fuzzy weight adjustment for backpropagation neural networks in time series prediction",
      "venue": "Information Sciences",
      "year": 2015,
      "referenceCount": 58,
      "citationCount": 59,
      "authors": [
        {
          "authorId": "2639515",
          "name": "F. Gaxiola"
        },
        {
          "authorId": "145747556",
          "name": "P. Melin"
        },
        {
          "authorId": "145489890",
          "name": "F. Valdez"
        },
        {
          "authorId": "145142825",
          "name": "O. Castillo"
        }
      ]
    },
    {
      "paperId": "3aec7f64e08c73b80cde256a41163515cfb3e3f2",
      "externalIds": {
        "CorpusId": 18235518
      },
      "url": "https://www.semanticscholar.org/paper/3aec7f64e08c73b80cde256a41163515cfb3e3f2",
      "title": "Neural Memory Networks",
      "venue": "",
      "year": 2015,
      "referenceCount": 2,
      "citationCount": 2,
      "authors": [
        {
          "authorId": "2057783754",
          "name": "David Biggs"
        },
        {
          "authorId": "46630743",
          "name": "A. Nuttall"
        }
      ]
    },
    {
      "paperId": "a8f1bdc73848801e45c99276ca106d699d16c355",
      "externalIds": {
        "ArXiv": "1506.02157",
        "MAG": "2203132937",
        "CorpusId": 17978734
      },
      "url": "https://www.semanticscholar.org/paper/a8f1bdc73848801e45c99276ca106d699d16c355",
      "title": "Dropout as a Bayesian Approximation: Appendix",
      "venue": "",
      "year": 2015,
      "referenceCount": 33,
      "citationCount": 79,
      "authors": [
        {
          "authorId": "2681954",
          "name": "Y. Gal"
        },
        {
          "authorId": "1744700",
          "name": "Zoubin Ghahramani"
        }
      ]
    },
    {
      "paperId": "25e3ccff2848dc1f9349807b678b985785ba0b08",
      "externalIds": {
        "MAG": "2320787557",
        "DOI": "10.1080/00218464.2014.971119",
        "CorpusId": 138944070
      },
      "url": "https://www.semanticscholar.org/paper/25e3ccff2848dc1f9349807b678b985785ba0b08",
      "title": "Sensitivity and Optimization of Peel Strength Based on Composition of Adhesives for Footwear Industry",
      "venue": "",
      "year": 2015,
      "referenceCount": 22,
      "citationCount": 7,
      "authors": [
        {
          "authorId": "116751891",
          "name": "R. M. M. Paiva"
        },
        {
          "authorId": "2032947",
          "name": "C. António"
        },
        {
          "authorId": "153350238",
          "name": "L. D. da Silva"
        }
      ]
    },
    {
      "paperId": "ab98bef15f157a87b6e76cd66a5965128ea7340b",
      "externalIds": {
        "MAG": "2925522989",
        "DOI": "10.14257/IJUNESST.2015.8.11.25",
        "CorpusId": 155156116
      },
      "url": "https://www.semanticscholar.org/paper/ab98bef15f157a87b6e76cd66a5965128ea7340b",
      "title": "Gold Price Prediction Method Based on Improved PSO-BP",
      "venue": "",
      "year": 2015,
      "referenceCount": 14,
      "citationCount": 6,
      "authors": [
        {
          "authorId": "2152543228",
          "name": "Yan Wang"
        },
        {
          "authorId": "2145532521",
          "name": "Liguo Zhang"
        },
        {
          "authorId": "2968802",
          "name": "Yongfu Liu"
        },
        {
          "authorId": "2117222725",
          "name": "Jun Guo"
        }
      ]
    }
  ]
}