{
  "total": 57,
  "offset": 0,
  "next": 10,
  "data": [
    {
      "paperId": "fd3eff30da41f5a73191c1b2f85ede82b8e39b94",
      "externalIds": {
        "MAG": "1640882231",
        "DBLP": "conf/icml/Lopez-PazMST15",
        "CorpusId": 14337806
      },
      "url": "https://www.semanticscholar.org/paper/fd3eff30da41f5a73191c1b2f85ede82b8e39b94",
      "title": "Towards a Learning Theory of Cause-Effect Inference",
      "venue": "International Conference on Machine Learning",
      "year": 2015,
      "referenceCount": 53,
      "citationCount": 181,
      "authors": [
        {
          "authorId": "1401804750",
          "name": "David Lopez-Paz"
        },
        {
          "authorId": "2276351",
          "name": "Krikamol Muandet"
        },
        {
          "authorId": "1707625",
          "name": "B. Scholkopf"
        },
        {
          "authorId": "3121264",
          "name": "I. Tolstikhin"
        }
      ]
    },
    {
      "paperId": "31bec98007327d5c63df4240edb90915c67c1c60",
      "externalIds": {
        "CorpusId": 265039855
      },
      "url": "https://www.semanticscholar.org/paper/31bec98007327d5c63df4240edb90915c67c1c60",
      "title": "Towards a Learning Theory of Cause-Effect Inference",
      "venue": "",
      "year": 2015,
      "referenceCount": 0,
      "citationCount": 1,
      "authors": []
    },
    {
      "paperId": "9ed00111447ddb204c8db9fc01ba7122085470c7",
      "externalIds": {
        "ArXiv": "1502.02398",
        "MAG": "2737193326",
        "CorpusId": 126220942
      },
      "url": "https://www.semanticscholar.org/paper/9ed00111447ddb204c8db9fc01ba7122085470c7",
      "title": "Towards a Learning Theory of Causation",
      "venue": "",
      "year": 2015,
      "referenceCount": 53,
      "citationCount": 6,
      "authors": [
        {
          "authorId": "1401804750",
          "name": "David Lopez-Paz"
        },
        {
          "authorId": "2276351",
          "name": "Krikamol Muandet"
        },
        {
          "authorId": "1707625",
          "name": "B. Scholkopf"
        },
        {
          "authorId": "3121264",
          "name": "I. Tolstikhin"
        }
      ]
    },
    {
      "paperId": "73f19c45d6df0aacba0c325199e8049aa61e4eed",
      "externalIds": {
        "PubMedCentral": "10703409",
        "DBLP": "journals/ploscb/CecilS23",
        "DOI": "10.1371/journal.pcbi.1010979",
        "CorpusId": 265463099,
        "PubMed": "38011281"
      },
      "url": "https://www.semanticscholar.org/paper/73f19c45d6df0aacba0c325199e8049aa61e4eed",
      "title": "On convolutional neural networks for selection inference: Revealing the effect of preprocessing on model learning and the capacity to discover novel patterns",
      "venue": "PLoS Comput. Biol.",
      "year": 2023,
      "referenceCount": 57,
      "citationCount": 12,
      "authors": [
        {
          "authorId": "2059334274",
          "name": "Ryan M. Cecil"
        },
        {
          "authorId": "2179432091",
          "name": "Lauren A Sugden"
        }
      ]
    },
    {
      "paperId": "5e753a02fddcc1028df948edc3fa3900f3a69d06",
      "externalIds": {
        "MAG": "3146333057",
        "DOI": "10.1007/978-3-030-82616-1_26",
        "CorpusId": 240596448
      },
      "url": "https://www.semanticscholar.org/paper/5e753a02fddcc1028df948edc3fa3900f3a69d06",
      "title": "Fostering Students’ Attitude Towards Online Learning: The Mediation Effect of Satisfaction and Perceived Performance",
      "venue": "Proceedings of International Conference on Emerging Technologies and Intelligent Systems",
      "year": 2021,
      "referenceCount": 42,
      "citationCount": 8,
      "authors": [
        {
          "authorId": "102088817",
          "name": "A. Ngah"
        },
        {
          "authorId": "2125780114",
          "name": "Rosyati ABDUL RASHID"
        },
        {
          "authorId": "90778277",
          "name": "Nur Asma Ariffin"
        },
        {
          "authorId": "2226905094",
          "name": "Fauzayani Ibrahim"
        },
        {
          "authorId": "118135666",
          "name": "N. A. Abu Osman"
        },
        {
          "authorId": "2090190562",
          "name": "Nurul Izni Kamalrulzaman"
        },
        {
          "authorId": "2136969380",
          "name": "Mohamad Firdaus Halimi Mohamad"
        },
        {
          "authorId": "34866635",
          "name": "N. Harun"
        }
      ]
    },
    {
      "paperId": "d045edec5fdf0dc5ff58d05c9800ba237cba1043",
      "externalIds": {
        "PubMedCentral": "9292365",
        "MAG": "2995318065",
        "DOI": "10.1111/mila.12330",
        "CorpusId": 213696423,
        "PubMed": "35875359"
      },
      "url": "https://www.semanticscholar.org/paper/d045edec5fdf0dc5ff58d05c9800ba237cba1043",
      "title": "Extended active inference: Constructing predictive cognition beyond skulls",
      "venue": "Mind & Language",
      "year": 2020,
      "referenceCount": 80,
      "citationCount": 71,
      "authors": [
        {
          "authorId": "49635186",
          "name": "Axel Constant"
        },
        {
          "authorId": "49635186",
          "name": "Axel Constant"
        },
        {
          "authorId": "49635186",
          "name": "Axel Constant"
        },
        {
          "authorId": "37700983",
          "name": "A. Clark"
        },
        {
          "authorId": "37700983",
          "name": "A. Clark"
        },
        {
          "authorId": "40222333",
          "name": "Michael D. Kirchhoff"
        },
        {
          "authorId": "1737497",
          "name": "Karl J. Friston"
        }
      ]
    },
    {
      "paperId": "c5e4ed93580d50c46426642cd85b93d0e64629a3",
      "externalIds": {
        "MAG": "3087788237",
        "DBLP": "conf/nips/TangHZ20",
        "ArXiv": "2009.12991",
        "CorpusId": 221970271
      },
      "url": "https://www.semanticscholar.org/paper/c5e4ed93580d50c46426642cd85b93d0e64629a3",
      "title": "Long-Tailed Classification by Keeping the Good and Removing the Bad Momentum Causal Effect",
      "venue": "Neural Information Processing Systems",
      "year": 2020,
      "referenceCount": 62,
      "citationCount": 517,
      "authors": [
        {
          "authorId": "10817432",
          "name": "Kaihua Tang"
        },
        {
          "authorId": "2154936244",
          "name": "Jianqiang Huang"
        },
        {
          "authorId": "5462268",
          "name": "Hanwang Zhang"
        }
      ]
    },
    {
      "paperId": "2d3d9d9fa3d98c390c63dfc4d4f694f97964cfe2",
      "externalIds": {
        "MAG": "182882676",
        "DOI": "10.46867/ijcp.2011.24.04.04",
        "CorpusId": 55609485
      },
      "url": "https://www.semanticscholar.org/paper/2d3d9d9fa3d98c390c63dfc4d4f694f97964cfe2",
      "title": "Do Associations Explain Mental Models of Cause?",
      "venue": "International Journal of Comparative Psychology",
      "year": 2011,
      "referenceCount": 48,
      "citationCount": 0,
      "authors": [
        {
          "authorId": "1813006",
          "name": "I. Barberia"
        },
        {
          "authorId": "6411706",
          "name": "I. Baetu"
        },
        {
          "authorId": "3199152",
          "name": "R. A. Murphy"
        },
        {
          "authorId": "25655488",
          "name": "A. G. Baker"
        }
      ]
    },
    {
      "paperId": "cba0193d20326bdeaec9c02c236e6cabe67fe8a4",
      "externalIds": {
        "DOI": "10.26425/2658-347x-2022-5-4-23-30",
        "CorpusId": 257419597
      },
      "url": "https://www.semanticscholar.org/paper/cba0193d20326bdeaec9c02c236e6cabe67fe8a4",
      "title": "Social exclusion as a side effect of machine learning mechanisms",
      "venue": "Digital Sociology",
      "year": 2023,
      "referenceCount": 4,
      "citationCount": 0,
      "authors": [
        {
          "authorId": "152142815",
          "name": "A. G. Tertyshnikova"
        },
        {
          "authorId": "2195614954",
          "name": "U. O. Pavlova"
        },
        {
          "authorId": "1392911009",
          "name": "M. V. Cimbal"
        }
      ]
    },
    {
      "paperId": "fbd51ad98ca0b25dd7f90a844132ba2c9db929e9",
      "externalIds": {
        "PubMedCentral": "8964925",
        "DBLP": "journals/eait/Bessadok22",
        "DOI": "10.1007/s10639-022-11015-6",
        "CorpusId": 247838996,
        "PubMed": "35370437"
      },
      "url": "https://www.semanticscholar.org/paper/fbd51ad98ca0b25dd7f90a844132ba2c9db929e9",
      "title": "Analyzing student aspirations factors affecting e-learning system success using a structural equation model",
      "venue": "Education and Information Technologies : Official Journal of the IFIP technical committee on Education",
      "year": 2022,
      "referenceCount": 97,
      "citationCount": 28,
      "authors": [
        {
          "authorId": "2044341",
          "name": "A. Bessadok"
        }
      ]
    }
  ]
}