{
  "total": 1527,
  "offset": 0,
  "next": 10,
  "data": [
    {
      "paperId": "30bb9c78d16329b4910d68cf650c7572f23ebc2a",
      "externalIds": {
        "DBLP": "journals/corr/abs-1710-07742",
        "MAG": "2951032299",
        "ArXiv": "1710.07742",
        "CorpusId": 9427480
      },
      "url": "https://www.semanticscholar.org/paper/30bb9c78d16329b4910d68cf650c7572f23ebc2a",
      "title": "Towards Black-box Iterative Machine Teaching",
      "venue": "International Conference on Machine Learning",
      "year": 2017,
      "referenceCount": 34,
      "citationCount": 60,
      "authors": [
        {
          "authorId": "36326884",
          "name": "Weiyang Liu"
        },
        {
          "authorId": "144445933",
          "name": "Bo Dai"
        },
        {
          "authorId": "50078946",
          "name": "Xingguo Li"
        },
        {
          "authorId": "144177248",
          "name": "James M. Rehg"
        },
        {
          "authorId": "1779453",
          "name": "Le Song"
        }
      ]
    },
    {
      "paperId": "7e8378ac14af33bb96dd3e08de5e440409f3c633",
      "externalIds": {
        "CorpusId": 260445180
      },
      "url": "https://www.semanticscholar.org/paper/7e8378ac14af33bb96dd3e08de5e440409f3c633",
      "title": "Towards Black-box Iterative Machine Teaching",
      "venue": "",
      "year": 2018,
      "referenceCount": 0,
      "citationCount": 1,
      "authors": []
    },
    {
      "paperId": "e343a9d6b60268b6d2f9b6464f6baf58d390364b",
      "externalIds": {
        "CorpusId": 277963368
      },
      "url": "https://www.semanticscholar.org/paper/e343a9d6b60268b6d2f9b6464f6baf58d390364b",
      "title": "Iterative Machine Teaching for Black-box Markov Learners",
      "venue": "",
      "year": null,
      "referenceCount": 39,
      "citationCount": 0,
      "authors": [
        {
          "authorId": "144093796",
          "name": "Chaoqi Wang"
        },
        {
          "authorId": "2356630037",
          "name": "Sandra Zilles"
        },
        {
          "authorId": "1703727",
          "name": "A. Singla"
        },
        {
          "authorId": "2312315619",
          "name": "Yuxin Chen"
        }
      ]
    },
    {
      "paperId": "32e168c17d2851ab24da9a48eea37637fdc29af7",
      "externalIds": {
        "DBLP": "journals/symmetry/XuZWOZZGX25",
        "DOI": "10.3390/sym17060950",
        "CorpusId": 279559788
      },
      "url": "https://www.semanticscholar.org/paper/32e168c17d2851ab24da9a48eea37637fdc29af7",
      "title": "Towards Faithful Local Explanations: Leveraging SVM to Interpret Black-Box Machine Learning Models",
      "venue": "Symmetry",
      "year": 2025,
      "referenceCount": 25,
      "citationCount": 0,
      "authors": [
        {
          "authorId": "2368307469",
          "name": "Jiaxiang Xu"
        },
        {
          "authorId": "2296606335",
          "name": "Zhanhao Zhang"
        },
        {
          "authorId": "2368063164",
          "name": "Junfei Wang"
        },
        {
          "authorId": "2368211950",
          "name": "Biao Ouyang"
        },
        {
          "authorId": "2368566028",
          "name": "Benkuan Zhou"
        },
        {
          "authorId": "2310844416",
          "name": "Jianxiong Zhao"
        },
        {
          "authorId": "2342587385",
          "name": "Hanfang Ge"
        },
        {
          "authorId": "2368314439",
          "name": "Bo Xu"
        }
      ]
    },
    {
      "paperId": "2f7c9f6e3073184000fd4af38e7744e504988ce2",
      "externalIds": {
        "DOI": "10.1002/aidi.202500231",
        "CorpusId": 286392680
      },
      "url": "https://www.semanticscholar.org/paper/2f7c9f6e3073184000fd4af38e7744e504988ce2",
      "title": "Factorization Machine with Iterative Quantum Reverse Annealing: A Python Package for Batch Black‐Box Optimization With Reverse Quantum Annealing",
      "venue": "Advanced Intelligent Discovery",
      "year": 2026,
      "referenceCount": 14,
      "citationCount": 0,
      "authors": [
        {
          "authorId": "2277839797",
          "name": "Andrejs Tučs"
        },
        {
          "authorId": "2373608763",
          "name": "Ryo Tamura"
        },
        {
          "authorId": "2238629291",
          "name": "Koji Tsuda"
        }
      ]
    },
    {
      "paperId": "fbd613dfe27c49e0f3cce722e6fac38250f39518",
      "externalIds": {
        "DBLP": "conf/icml/ChenFL24",
        "CorpusId": 272330445
      },
      "url": "https://www.semanticscholar.org/paper/fbd613dfe27c49e0f3cce722e6fac38250f39518",
      "title": "Towards AutoAI: Optimizing a Machine Learning System with Black-box and Differentiable Components",
      "venue": "International Conference on Machine Learning",
      "year": 2024,
      "referenceCount": 0,
      "citationCount": 10,
      "authors": [
        {
          "authorId": "2319168376",
          "name": "Zhiliang Chen"
        },
        {
          "authorId": "2305481019",
          "name": "Chuan-Sheng Foo"
        },
        {
          "authorId": "145454065",
          "name": "K. H. Low"
        }
      ]
    },
    {
      "paperId": "49b390c1cb1f7fffe0bb2c025c7d7ba3ca22a956",
      "externalIds": {
        "ArXiv": "2206.15205",
        "CorpusId": 250144211
      },
      "url": "https://www.semanticscholar.org/paper/49b390c1cb1f7fffe0bb2c025c7d7ba3ca22a956",
      "title": "Black-box Generalization of Machine Teaching",
      "venue": "",
      "year": 2022,
      "referenceCount": 58,
      "citationCount": 0,
      "authors": [
        {
          "authorId": "48811990",
          "name": "Xiaofeng Cao"
        },
        {
          "authorId": "23815088",
          "name": "Yaming Guo"
        },
        {
          "authorId": "1807998",
          "name": "I. Tsang"
        },
        {
          "authorId": "2242247507",
          "name": "James T. Kwok"
        }
      ]
    },
    {
      "paperId": "7919a5ccaddfa7f323dddd7097efc0c17eb4faba",
      "externalIds": {
        "DBLP": "conf/itasec/BarlettaCCVS25",
        "CorpusId": 279056581
      },
      "url": "https://www.semanticscholar.org/paper/7919a5ccaddfa7f323dddd7097efc0c17eb4faba",
      "title": "Towards the Responsible/Trustworthy AI in Multi-Domain Operations for Cyber Social Security: A Black-Box AML Case Study in the CAN Bus Frame Detection Task",
      "venue": "ITASEC/SERICS",
      "year": 2025,
      "referenceCount": 34,
      "citationCount": 0,
      "authors": [
        {
          "authorId": "66425672",
          "name": "Vita Santa Barletta"
        },
        {
          "authorId": "2240569345",
          "name": "Danilo Caivano"
        },
        {
          "authorId": "2271998107",
          "name": "Christian Catalano"
        },
        {
          "authorId": "2344261875",
          "name": "Samuele del Vescovo"
        },
        {
          "authorId": "3162113",
          "name": "M. Scalera"
        }
      ]
    },
    {
      "paperId": "0157fef2a71c0d667e67315f69b32afe7363f42a",
      "externalIds": {
        "PubMedCentral": "11462462",
        "DOI": "10.1016/j.heliyon.2024.e38117",
        "CorpusId": 272804950,
        "PubMed": "39386864"
      },
      "url": "https://www.semanticscholar.org/paper/0157fef2a71c0d667e67315f69b32afe7363f42a",
      "title": "Breaking into the black box of customer perception towards robot service: Empirical evidence from service sector",
      "venue": "Heliyon",
      "year": 2024,
      "referenceCount": 49,
      "citationCount": 19,
      "authors": [
        {
          "authorId": "113265042",
          "name": "Samar Rahi"
        },
        {
          "authorId": "114663670",
          "name": "M. Ghani"
        },
        {
          "authorId": "1573677884",
          "name": "Manaf Al-Okaily"
        },
        {
          "authorId": "5361407",
          "name": "A. Rashid"
        },
        {
          "authorId": "2297578772",
          "name": "Mahmoud Alghizzawi"
        },
        {
          "authorId": "120135560",
          "name": "Fadi Shehab Shiyyab"
        }
      ]
    },
    {
      "paperId": "f10e1234c83b4e967f1ad9bb2db13b0208537cae",
      "externalIds": {
        "DBLP": "conf/mm/HeB0ZHF0024",
        "DOI": "10.1145/3664647.3681691",
        "CorpusId": 273644875
      },
      "url": "https://www.semanticscholar.org/paper/f10e1234c83b4e967f1ad9bb2db13b0208537cae",
      "title": "Towards Stricter Black-box Integrity Verification of Deep Neural Network Models",
      "venue": "ACM Multimedia",
      "year": 2024,
      "referenceCount": 53,
      "citationCount": 4,
      "authors": [
        {
          "authorId": "2283925099",
          "name": "Chaoxiang He"
        },
        {
          "authorId": "2283844523",
          "name": "Xiaofan Bai"
        },
        {
          "authorId": "2283880517",
          "name": "Xiaojing Ma"
        },
        {
          "authorId": "2283817566",
          "name": "B. B. Zhu"
        },
        {
          "authorId": "2197605218",
          "name": "Pingyi Hu"
        },
        {
          "authorId": "2119315037",
          "name": "Jiayun Fu"
        },
        {
          "authorId": "2279862592",
          "name": "Hai Jin"
        },
        {
          "authorId": "2260835948",
          "name": "Dongmei Zhang"
        }
      ]
    }
  ]
}