{
  "total": 1907,
  "offset": 0,
  "next": 10,
  "data": [
    {
      "paperId": "07b5093aace8e485e7d23b83edb6351618138127",
      "externalIds": {
        "MAG": "2788557041",
        "DBLP": "conf/icml/HuNSS18",
        "CorpusId": 263897905
      },
      "url": "https://www.semanticscholar.org/paper/07b5093aace8e485e7d23b83edb6351618138127",
      "title": "Does Distributionally Robust Supervised Learning Give Robust Classifiers?",
      "venue": "International Conference on Machine Learning",
      "year": 2016,
      "referenceCount": 38,
      "citationCount": 246,
      "authors": [
        {
          "authorId": "48594758",
          "name": "Weihua Hu"
        },
        {
          "authorId": "47537639",
          "name": "Gang Niu"
        },
        {
          "authorId": "73355331",
          "name": "Issei Sato"
        },
        {
          "authorId": "67154907",
          "name": "Masashi Sugiyama"
        }
      ]
    },
    {
      "paperId": "318a88b20cb7910955e847370dfdfa0a6aee1671",
      "externalIds": {
        "CorpusId": 267864190
      },
      "url": "https://www.semanticscholar.org/paper/318a88b20cb7910955e847370dfdfa0a6aee1671",
      "title": "Does Distributionally Robust Supervised Learning Give Robust Classifiers?",
      "venue": "",
      "year": 2018,
      "referenceCount": 0,
      "citationCount": 0,
      "authors": []
    },
    {
      "paperId": "df6e4c1d3a28360ebcb8fe9b6e69ce72277cc769",
      "externalIds": {
        "DBLP": "conf/compsac/WuW20a",
        "MAG": "3088605964",
        "DOI": "10.1109/COMPSAC48688.2020.0-230",
        "CorpusId": 221912580
      },
      "url": "https://www.semanticscholar.org/paper/df6e4c1d3a28360ebcb8fe9b6e69ce72277cc769",
      "title": "Training Confidence-Calibrated Classifier via Distributionally Robust Learning",
      "venue": "Annual International Computer Software and Applications Conference",
      "year": 2020,
      "referenceCount": 34,
      "citationCount": 1,
      "authors": [
        {
          "authorId": "2240109",
          "name": "Hang Wu"
        },
        {
          "authorId": "2247066187",
          "name": "May D. Wang"
        }
      ]
    },
    {
      "paperId": "07cdefaa72ea59d276f4694e0d2ecbbe3b9a6db4",
      "externalIds": {
        "MAG": "2767029637",
        "ArXiv": "1611.02041",
        "CorpusId": 19819905
      },
      "url": "https://www.semanticscholar.org/paper/07cdefaa72ea59d276f4694e0d2ecbbe3b9a6db4",
      "title": "Revisiting Distributionally Robust Supervised Learning in Classification",
      "venue": "",
      "year": 2016,
      "referenceCount": 26,
      "citationCount": 58,
      "authors": [
        {
          "authorId": "48594758",
          "name": "Weihua Hu"
        },
        {
          "authorId": "47537639",
          "name": "Gang Niu"
        },
        {
          "authorId": "73355331",
          "name": "Issei Sato"
        },
        {
          "authorId": "67154907",
          "name": "Masashi Sugiyama"
        }
      ]
    },
    {
      "paperId": "56184676626832db2ac6e4a4657cd7e91e1e6720",
      "externalIds": {
        "ArXiv": "2505.10024",
        "CorpusId": 278636201
      },
      "url": "https://www.semanticscholar.org/paper/56184676626832db2ac6e4a4657cd7e91e1e6720",
      "title": "Globalized distributionally robust chance-constrained support vector machine based on core sets",
      "venue": "",
      "year": 2025,
      "referenceCount": 30,
      "citationCount": 0,
      "authors": [
        {
          "authorId": "2164848264",
          "name": "Yueyao Li"
        },
        {
          "authorId": "2291070049",
          "name": "Chenglong Bao"
        },
        {
          "authorId": "2291068613",
          "name": "Wenxun Xing"
        }
      ]
    },
    {
      "paperId": "8b5820d5bcad29271b9a1f0222faf5a416c325ac",
      "externalIds": {
        "DBLP": "journals/tr/IbrahimRG25",
        "DOI": "10.1109/TR.2025.3626277",
        "CorpusId": 282985194
      },
      "url": "https://www.semanticscholar.org/paper/8b5820d5bcad29271b9a1f0222faf5a416c325ac",
      "title": "A Wasserstein Distributionally Robust Multiclass Support Vector Machine for Industrial Fault Diagnosis",
      "venue": "IEEE Transactions on Reliability",
      "year": 2025,
      "referenceCount": 52,
      "citationCount": 0,
      "authors": [
        {
          "authorId": "2294893871",
          "name": "Michael Ibrahim"
        },
        {
          "authorId": "2260740589",
          "name": "Heraldo Rozas"
        },
        {
          "authorId": "1733223",
          "name": "N. Gebraeel"
        }
      ]
    },
    {
      "paperId": "556d4ec7f098523cfbdf93a3ca5aad7908273f70",
      "externalIds": {
        "DBLP": "conf/aistats/YuLMJ22",
        "ArXiv": "2104.13326",
        "CorpusId": 233407510
      },
      "url": "https://www.semanticscholar.org/paper/556d4ec7f098523cfbdf93a3ca5aad7908273f70",
      "title": "Fast Distributionally Robust Learning with Variance Reduced Min-Max Optimization",
      "venue": "International Conference on Artificial Intelligence and Statistics",
      "year": 2021,
      "referenceCount": 90,
      "citationCount": 29,
      "authors": [
        {
          "authorId": "29001000",
          "name": "Yaodong Yu"
        },
        {
          "authorId": "152243923",
          "name": "Tianyi Lin"
        },
        {
          "authorId": "2324276388",
          "name": "Eric Mazumdar"
        },
        {
          "authorId": "1694621",
          "name": "Michael I. Jordan"
        }
      ]
    },
    {
      "paperId": "7158479d7e2ef251a7c21d22ff87fe85030e3d12",
      "externalIds": {
        "DBLP": "journals/pami/YangJXZ24",
        "ArXiv": "2405.06979",
        "DOI": "10.1109/TPAMI.2024.3403994",
        "CorpusId": 269757588,
        "PubMed": "38776189"
      },
      "url": "https://www.semanticscholar.org/paper/7158479d7e2ef251a7c21d22ff87fe85030e3d12",
      "title": "Robust Semi-Supervised Learning by Wisely Leveraging Open-Set Data",
      "venue": "IEEE Transactions on Pattern Analysis and Machine Intelligence",
      "year": 2024,
      "referenceCount": 75,
      "citationCount": 32,
      "authors": [
        {
          "authorId": "2280098491",
          "name": "Yang Yang"
        },
        {
          "authorId": "2301191688",
          "name": "Nan Jiang"
        },
        {
          "authorId": "2287793486",
          "name": "Yi Xu"
        },
        {
          "authorId": "2264991115",
          "name": "De-Chuan Zhan"
        }
      ]
    },
    {
      "paperId": "238e7dc34835cc06e6622446ee6557225438b630",
      "externalIds": {
        "DBLP": "journals/corr/abs-2505-24443",
        "ArXiv": "2505.24443",
        "DOI": "10.1109/TNNLS.2025.3547801",
        "CorpusId": 277409839,
        "PubMed": "40153280"
      },
      "url": "https://www.semanticscholar.org/paper/238e7dc34835cc06e6622446ee6557225438b630",
      "title": "Diversify and Conquer: Open-Set Disagreement for Robust Semi-Supervised Learning With Outliers",
      "venue": "IEEE Transactions on Neural Networks and Learning Systems",
      "year": 2025,
      "referenceCount": 56,
      "citationCount": 3,
      "authors": [
        {
          "authorId": "2204777945",
          "name": "Heejo Kong"
        },
        {
          "authorId": "2157112165",
          "name": "Sung-Jin Kim"
        },
        {
          "authorId": "2281035223",
          "name": "Gunho Jung"
        },
        {
          "authorId": "2257137397",
          "name": "Seong-Whan Lee"
        }
      ]
    },
    {
      "paperId": "da9339752ff33dc4c97662d43c8e3189299651e5",
      "externalIds": {
        "DBLP": "journals/ojcs/EslamiH25a",
        "DOI": "10.1109/OJCOMS.2025.3635689",
        "CorpusId": 283338590
      },
      "url": "https://www.semanticscholar.org/paper/da9339752ff33dc4c97662d43c8e3189299651e5",
      "title": "FedSSL-NTC: A Robust Federated Self-Supervised Learning Framework for Network Traffic Classification Under Privacy Constraints",
      "venue": "IEEE Open Journal of the Communications Society",
      "year": 2025,
      "referenceCount": 73,
      "citationCount": 0,
      "authors": [
        {
          "authorId": "2382923614",
          "name": "Ehsan Eslami"
        },
        {
          "authorId": "2350284243",
          "name": "Walaa Hamouda"
        }
      ]
    }
  ]
}