{
  "total": 3683,
  "offset": 0,
  "next": 10,
  "data": [
    {
      "paperId": "7f77058976e2fe75e98280371962c43d98c98321",
      "externalIds": {
        "MAG": "2950317500",
        "DBLP": "journals/corr/abs-1806-02371",
        "ArXiv": "1806.02371",
        "CorpusId": 46968933
      },
      "url": "https://www.semanticscholar.org/paper/7f77058976e2fe75e98280371962c43d98c98321",
      "title": "Adversarial Attack on Graph Structured Data",
      "venue": "International Conference on Machine Learning",
      "year": 2018,
      "referenceCount": 24,
      "citationCount": 875,
      "authors": [
        {
          "authorId": "2791430",
          "name": "H. Dai"
        },
        {
          "authorId": null,
          "name": "Hui Li"
        },
        {
          "authorId": "145455267",
          "name": "Tian Tian"
        },
        {
          "authorId": "2152664315",
          "name": "Xin Huang"
        },
        {
          "authorId": "46660076",
          "name": "L. Wang"
        },
        {
          "authorId": "145254043",
          "name": "Jun Zhu"
        },
        {
          "authorId": "1779453",
          "name": "Le Song"
        }
      ]
    },
    {
      "paperId": "49e2dccd8293d691449320173a5bfac703fca814",
      "externalIds": {
        "DOI": "10.14569/ijacsa.2023.01411143",
        "CorpusId": 265560122
      },
      "url": "https://www.semanticscholar.org/paper/49e2dccd8293d691449320173a5bfac703fca814",
      "title": "Generate Adversarial Attack on Graph Neural Network using K-Means Clustering and Class Activation Mapping",
      "venue": "International Journal of Advanced Computer Science and Applications",
      "year": 2023,
      "referenceCount": 47,
      "citationCount": 7,
      "authors": [
        {
          "authorId": "2269209840",
          "name": "G. Ingle"
        },
        {
          "authorId": "2095195445",
          "name": "Sanjesh Pawale"
        }
      ]
    },
    {
      "paperId": "70034b4f42b0e06b82a6663e8d62c482b0baf97d",
      "externalIds": {
        "ArXiv": "2510.12233",
        "DBLP": "journals/corr/abs-2510-12233",
        "DOI": "10.1145/3774904.3792284",
        "CorpusId": 282064931
      },
      "url": "https://www.semanticscholar.org/paper/70034b4f42b0e06b82a6663e8d62c482b0baf97d",
      "title": "Unveiling the Vulnerability of Graph-LLMs: An Interpretable Multi-Dimensional Adversarial Attack on TAGs",
      "venue": "Proceedings of the ACM Web Conference 2026",
      "year": 2025,
      "referenceCount": 75,
      "citationCount": 0,
      "authors": [
        {
          "authorId": "2338830576",
          "name": "Bowen Fan"
        },
        {
          "authorId": "2338968965",
          "name": "Zhilin Guo"
        },
        {
          "authorId": "2268429288",
          "name": "Xunkai Li"
        },
        {
          "authorId": "2262497958",
          "name": "Yihan Zhou"
        },
        {
          "authorId": "2333207805",
          "name": "Bing Zhou"
        },
        {
          "authorId": "2325915793",
          "name": "Zhenjun Li"
        },
        {
          "authorId": "2312235766",
          "name": "Ronghua Li"
        },
        {
          "authorId": "2240263835",
          "name": "Guoren Wang"
        }
      ]
    },
    {
      "paperId": "7a841908a7dd27a60d2bee09dae76cf31beb844c",
      "externalIds": {
        "DBLP": "conf/wikidata/PokharelSMRN25",
        "CorpusId": 283359639
      },
      "url": "https://www.semanticscholar.org/paper/7a841908a7dd27a60d2bee09dae76cf31beb844c",
      "title": "LoSA: A Local Structural Approach to Adversarial Attack on the Knowledge Graph-based Question Answering System",
      "venue": "Wikidata",
      "year": 2025,
      "referenceCount": 25,
      "citationCount": 0,
      "authors": [
        {
          "authorId": "2388309384",
          "name": "N. Pokharel"
        },
        {
          "authorId": "2288035178",
          "name": "Arnab Sharma"
        },
        {
          "authorId": "2391699138",
          "name": "Adel Memariani"
        },
        {
          "authorId": "2286282584",
          "name": "Michael Röder"
        },
        {
          "authorId": "2287920516",
          "name": "A. Ngomo"
        }
      ]
    },
    {
      "paperId": "1fa3bf2df37dcdbd9c5c19f7a0d726d7088a0a32",
      "externalIds": {
        "DBLP": "journals/corr/abs-2009-10233",
        "MAG": "3087871990",
        "ArXiv": "2009.10233",
        "CorpusId": 221836446
      },
      "url": "https://www.semanticscholar.org/paper/1fa3bf2df37dcdbd9c5c19f7a0d726d7088a0a32",
      "title": "Scalable Adversarial Attack on Graph Neural Networks with Alternating Direction Method of Multipliers",
      "venue": "arXiv.org",
      "year": 2020,
      "referenceCount": 21,
      "citationCount": 2,
      "authors": [
        {
          "authorId": "144525636",
          "name": "Boyuan Feng"
        },
        {
          "authorId": "2115942346",
          "name": "Yuke Wang"
        },
        {
          "authorId": "2116327978",
          "name": "Xu Li"
        },
        {
          "authorId": "119663869",
          "name": "Yufei Ding"
        }
      ]
    },
    {
      "paperId": "f24ac31cb763bfa3d3f55ae5616139196df1e44a",
      "externalIds": {
        "ArXiv": "2603.18570",
        "CorpusId": 286669813
      },
      "url": "https://www.semanticscholar.org/paper/f24ac31cb763bfa3d3f55ae5616139196df1e44a",
      "title": "Attack by Unlearning: Unlearning-Induced Adversarial Attacks on Graph Neural Networks",
      "venue": "",
      "year": 2026,
      "referenceCount": 83,
      "citationCount": 0,
      "authors": [
        {
          "authorId": "2351823582",
          "name": "Jiahao Zhang"
        },
        {
          "authorId": "2326909585",
          "name": "Yilong Wang"
        },
        {
          "authorId": "2253815959",
          "name": "Suhang Wang"
        }
      ]
    },
    {
      "paperId": "5ae7d1355bc8b08a8387e6b2d28809adeff859de",
      "externalIds": {
        "DOI": "10.7717/peerj-cs.3732",
        "CorpusId": 287282873
      },
      "url": "https://www.semanticscholar.org/paper/5ae7d1355bc8b08a8387e6b2d28809adeff859de",
      "title": "Graph auto-encoder with a personalized PageRank for model inversion attack on graph neural networks",
      "venue": "PeerJ Computer Science",
      "year": 2026,
      "referenceCount": 43,
      "citationCount": 0,
      "authors": [
        {
          "authorId": "2129269919",
          "name": "Ning Luan"
        },
        {
          "authorId": "2111640918",
          "name": "Lin Zhao"
        },
        {
          "authorId": "2342248222",
          "name": "Weihua Cheng"
        },
        {
          "authorId": "2209241808",
          "name": "Shu-Ming Feng"
        },
        {
          "authorId": "2307840588",
          "name": "Hui Wang"
        },
        {
          "authorId": "2391759352",
          "name": "Xiaoyan Chang"
        },
        {
          "authorId": "2428699958",
          "name": "Dongqin Shen"
        }
      ]
    },
    {
      "paperId": "66b61955fc627ceb6ff4e1754554ce48aaf787e0",
      "externalIds": {
        "DBLP": "conf/kdd/WenLY25",
        "DOI": "10.1145/3711896.3737107",
        "CorpusId": 280500278
      },
      "url": "https://www.semanticscholar.org/paper/66b61955fc627ceb6ff4e1754554ce48aaf787e0",
      "title": "Revisiting Graph Adversarial Attack: A Perspective of Budget Optimization",
      "venue": "Knowledge Discovery and Data Mining",
      "year": 2025,
      "referenceCount": 46,
      "citationCount": 0,
      "authors": [
        {
          "authorId": "2338051900",
          "name": "Xiangchao Wen"
        },
        {
          "authorId": "2265977268",
          "name": "Zhen Liu"
        },
        {
          "authorId": "2338253947",
          "name": "Yuxin You"
        }
      ]
    },
    {
      "paperId": "670c51e952877d7942b6840ffb4676f174122ee5",
      "externalIds": {
        "DBLP": "conf/eccv/LiuHY22",
        "DOI": "10.1007/978-3-031-20065-6_14",
        "CorpusId": 253448773
      },
      "url": "https://www.semanticscholar.org/paper/670c51e952877d7942b6840ffb4676f174122ee5",
      "title": "Adversarial Label Poisoning Attack on Graph Neural Networks via Label Propagation",
      "venue": "European Conference on Computer Vision",
      "year": 2022,
      "referenceCount": 42,
      "citationCount": 14,
      "authors": [
        {
          "authorId": "2162536536",
          "name": "Ganlin Liu"
        },
        {
          "authorId": "2107903140",
          "name": "Xiaowei Huang"
        },
        {
          "authorId": "1813783",
          "name": "Xinping Yi"
        }
      ]
    },
    {
      "paperId": "596cae058c89b3709d4ac742ed90e77986077741",
      "externalIds": {
        "ArXiv": "2411.02809",
        "DBLP": "journals/corr/abs-2411-02809",
        "DOI": "10.48550/arXiv.2411.02809",
        "CorpusId": 273821599
      },
      "url": "https://www.semanticscholar.org/paper/596cae058c89b3709d4ac742ed90e77986077741",
      "title": "Query-Efficient Adversarial Attack Against Vertical Federated Graph Learning",
      "venue": "arXiv.org",
      "year": 2024,
      "referenceCount": 53,
      "citationCount": 1,
      "authors": [
        {
          "authorId": "2283187602",
          "name": "Jinyin Chen"
        },
        {
          "authorId": "2329188413",
          "name": "Wenbo Mu"
        },
        {
          "authorId": "2329196715",
          "name": "Luxin Zhang"
        },
        {
          "authorId": "145931912",
          "name": "Guohan Huang"
        },
        {
          "authorId": "1796810",
          "name": "Haibin Zheng"
        },
        {
          "authorId": "2156276608",
          "name": "Yao Cheng"
        }
      ]
    }
  ]
}