{
  "total": 63205,
  "offset": 0,
  "next": 10,
  "data": [
    {
      "paperId": "57b5a15d6ce2b85e4bab4b237e42b91fcce7d064",
      "externalIds": {
        "MAG": "2420696134",
        "DBLP": "conf/icml/BhowmikGK16",
        "CorpusId": 2628704
      },
      "url": "https://www.semanticscholar.org/paper/57b5a15d6ce2b85e4bab4b237e42b91fcce7d064",
      "title": "Sparse Parameter Recovery from Aggregated Data",
      "venue": "International Conference on Machine Learning",
      "year": 2016,
      "referenceCount": 31,
      "citationCount": 5,
      "authors": [
        {
          "authorId": "1907789",
          "name": "Avradeep Bhowmik"
        },
        {
          "authorId": "34724702",
          "name": "Joydeep Ghosh"
        },
        {
          "authorId": "143812875",
          "name": "Oluwasanmi Koyejo"
        }
      ]
    },
    {
      "paperId": "76a8e912b699f4cd133c98b86e64b416e69f179e",
      "externalIds": {
        "CorpusId": 6420914
      },
      "url": "https://www.semanticscholar.org/paper/76a8e912b699f4cd133c98b86e64b416e69f179e",
      "title": "Sparse Parameter Recovery from Aggregated Data : Supplement",
      "venue": "",
      "year": 2016,
      "referenceCount": 17,
      "citationCount": 0,
      "authors": [
        {
          "authorId": "1907789",
          "name": "Avradeep Bhowmik"
        },
        {
          "authorId": "34724702",
          "name": "Joydeep Ghosh"
        },
        {
          "authorId": "143812875",
          "name": "Oluwasanmi Koyejo"
        }
      ]
    },
    {
      "paperId": "20e65274eb52994bf7284e1f61444150ef4d5de2",
      "externalIds": {
        "MAG": "2129231239",
        "CorpusId": 30298210
      },
      "url": "https://www.semanticscholar.org/paper/20e65274eb52994bf7284e1f61444150ef4d5de2",
      "title": "Pairwise Rasch model item parameter recovery under sparse data conditions",
      "venue": "",
      "year": 2015,
      "referenceCount": 75,
      "citationCount": 18,
      "authors": [
        {
          "authorId": "33051920",
          "name": "J. Heine"
        },
        {
          "authorId": "16852549",
          "name": "C. Tarnai"
        }
      ]
    },
    {
      "paperId": "10f43c943c5b746fdcab077f84fc2187e183ba31",
      "externalIds": {
        "DOI": "10.1109/ICSIDP62679.2024.10868813",
        "CorpusId": 276291841
      },
      "url": "https://www.semanticscholar.org/paper/10f43c943c5b746fdcab077f84fc2187e183ba31",
      "title": "Adaptive Pulse Selection Method Based on Otsu for Frequency Agile Radar with Sparse Recovery",
      "venue": "2024 IEEE International Conference on Signal, Information and Data Processing (ICSIDP)",
      "year": 2024,
      "referenceCount": 11,
      "citationCount": 0,
      "authors": [
        {
          "authorId": "2345093543",
          "name": "Yuze Sun"
        },
        {
          "authorId": "2345292303",
          "name": "Zengqiang Zhang"
        },
        {
          "authorId": "2345022952",
          "name": "Tianyu Miao"
        }
      ]
    },
    {
      "paperId": "65ec44a9e3b4776a12b80a78cee19bfa67486b3a",
      "externalIds": {
        "DBLP": "journals/tccn/WangZLWHCZZ24",
        "DOI": "10.1109/TCCN.2023.3319539",
        "CorpusId": 263212657
      },
      "url": "https://www.semanticscholar.org/paper/65ec44a9e3b4776a12b80a78cee19bfa67486b3a",
      "title": "Sparse Bayesian Learning-Based 3-D Radio Environment Map Construction—Sampling Optimization, Scenario-Dependent Dictionary Construction, and Sparse Recovery",
      "venue": "IEEE Transactions on Cognitive Communications and Networking",
      "year": 2024,
      "referenceCount": 57,
      "citationCount": 78,
      "authors": [
        {
          "authorId": "2146044513",
          "name": "Jie Wang"
        },
        {
          "authorId": "2238232082",
          "name": "Qiuming Zhu"
        },
        {
          "authorId": "2238050975",
          "name": "Zhipeng Lin"
        },
        {
          "authorId": "2259827557",
          "name": "Qihui Wu"
        },
        {
          "authorId": "2155605387",
          "name": "Yang Huang"
        },
        {
          "authorId": "2210050435",
          "name": "Xuezhao Cai"
        },
        {
          "authorId": "145103152",
          "name": "Weizhi Zhong"
        },
        {
          "authorId": "2143936503",
          "name": "Yi Zhao"
        }
      ]
    },
    {
      "paperId": "028ef934067c5a6f7709948ecd5c6ff914b8a6ca",
      "externalIds": {
        "DBLP": "journals/ton/TuXLZJ18",
        "MAG": "2799924119",
        "DOI": "10.1109/TNET.2018.2829173",
        "CorpusId": 49187836
      },
      "url": "https://www.semanticscholar.org/paper/028ef934067c5a6f7709948ecd5c6ff914b8a6ca",
      "title": "A New Privacy Breach: User Trajectory Recovery From Aggregated Mobility Data",
      "venue": "IEEE/ACM Transactions on Networking",
      "year": 2018,
      "referenceCount": 50,
      "citationCount": 41,
      "authors": [
        {
          "authorId": "145422670",
          "name": "Zhen Tu"
        },
        {
          "authorId": "3065590",
          "name": "Fengli Xu"
        },
        {
          "authorId": "39948674",
          "name": "Yong Li"
        },
        {
          "authorId": "3341348",
          "name": "Pengyu Zhang"
        },
        {
          "authorId": "49953590",
          "name": "Depeng Jin"
        }
      ]
    },
    {
      "paperId": "0ee8995366d833d031e3c04313b9e3f837dd631b",
      "externalIds": {
        "ArXiv": "2508.10460",
        "DBLP": "journals/corr/abs-2508-10460",
        "DOI": "10.1109/ICDE65448.2025.00034",
        "CorpusId": 280650037
      },
      "url": "https://www.semanticscholar.org/paper/0ee8995366d833d031e3c04313b9e3f837dd631b",
      "title": "Efficient Methods for Accurate Sparse Trajectory Recovery and Map Matching",
      "venue": "IEEE International Conference on Data Engineering",
      "year": 2025,
      "referenceCount": 49,
      "citationCount": 2,
      "authors": [
        {
          "authorId": "2256244903",
          "name": "Wei Tian"
        },
        {
          "authorId": "2376051922",
          "name": "Jieming Shi"
        },
        {
          "authorId": "1722082",
          "name": "Man Lung Yiu"
        }
      ]
    },
    {
      "paperId": "047736244e5cab7dd6c84ba12fc17a49f8de4586",
      "externalIds": {
        "DBLP": "conf/icdm/HanZLIMSS25",
        "DOI": "10.1109/ICDM65498.2025.00040",
        "CorpusId": 286020016
      },
      "url": "https://www.semanticscholar.org/paper/047736244e5cab7dd6c84ba12fc17a49f8de4586",
      "title": "STREAM: Hierarchical Dynamic Traffic Pattern Inference for Sparse Trajectory Recovery",
      "venue": "Industrial Conference on Data Mining",
      "year": 2025,
      "referenceCount": 55,
      "citationCount": 0,
      "authors": [
        {
          "authorId": "151480433",
          "name": "Xiaolin Han"
        },
        {
          "authorId": "2419920705",
          "name": "Tianwen Zhang"
        },
        {
          "authorId": "2325897679",
          "name": "Yuke Li"
        },
        {
          "authorId": "2281879445",
          "name": "G. Issayeva"
        },
        {
          "authorId": "2352989760",
          "name": "Chenhao Ma"
        },
        {
          "authorId": "2392143495",
          "name": "Lingyun Song"
        },
        {
          "authorId": "2291144568",
          "name": "Xuequn Shang"
        }
      ]
    },
    {
      "paperId": "023e9d5ac1823350c36bd377d0a60a322a40bb30",
      "externalIds": {
        "ArXiv": "2307.09684",
        "DOI": "10.1080/00949655.2025.2469905",
        "CorpusId": 259982644
      },
      "url": "https://www.semanticscholar.org/paper/023e9d5ac1823350c36bd377d0a60a322a40bb30",
      "title": "Sparse estimation of parameter support sets for generalized vector autoregressions by resampling and model aggregation",
      "venue": "Journal of Statistical Computation and Simulation",
      "year": 2023,
      "referenceCount": 45,
      "citationCount": 0,
      "authors": [
        {
          "authorId": "51233216",
          "name": "Trevor D. Ruiz"
        },
        {
          "authorId": "2914155",
          "name": "Sharmodeep Bhattacharyya"
        },
        {
          "authorId": "4690163",
          "name": "Sarah C. Emerson"
        }
      ]
    },
    {
      "paperId": "210aa2d686edcce94fcfd57f4842a79d27c215e8",
      "externalIds": {
        "MAG": "2593227599",
        "ArXiv": "1702.06270",
        "DBLP": "journals/corr/XuTLZFJ17",
        "DOI": "10.1145/3038912.3052620",
        "CorpusId": 369469
      },
      "url": "https://www.semanticscholar.org/paper/210aa2d686edcce94fcfd57f4842a79d27c215e8",
      "title": "Trajectory Recovery From Ash: User Privacy Is NOT Preserved in Aggregated Mobility Data",
      "venue": "The Web Conference",
      "year": 2017,
      "referenceCount": 42,
      "citationCount": 199,
      "authors": [
        {
          "authorId": "3065590",
          "name": "Fengli Xu"
        },
        {
          "authorId": "145422670",
          "name": "Zhen Tu"
        },
        {
          "authorId": "39948674",
          "name": "Yong Li"
        },
        {
          "authorId": "3341348",
          "name": "Pengyu Zhang"
        },
        {
          "authorId": "1799074",
          "name": "Xiaoming Fu"
        },
        {
          "authorId": "49953590",
          "name": "Depeng Jin"
        }
      ]
    }
  ]
}