{
  "total": 3948,
  "offset": 0,
  "next": 10,
  "data": [
    {
      "paperId": "93310a9090da1a6df5bf88da479825f2c2eca4ed",
      "externalIds": {
        "ArXiv": "1602.02454",
        "DBLP": "conf/icml/SyrgkanisKS16",
        "MAG": "2256838191",
        "CorpusId": 6568468
      },
      "url": "https://www.semanticscholar.org/paper/93310a9090da1a6df5bf88da479825f2c2eca4ed",
      "title": "Efficient Algorithms for Adversarial Contextual Learning",
      "venue": "International Conference on Machine Learning",
      "year": 2016,
      "referenceCount": 31,
      "citationCount": 83,
      "authors": [
        {
          "authorId": "3043674",
          "name": "Vasilis Syrgkanis"
        },
        {
          "authorId": "37019006",
          "name": "A. Krishnamurthy"
        },
        {
          "authorId": "1716301",
          "name": "R. Schapire"
        }
      ]
    },
    {
      "paperId": "4a02db1293c9cf2f87090e567f71064dd0e66462",
      "externalIds": {
        "CorpusId": 198181981
      },
      "url": "https://www.semanticscholar.org/paper/4a02db1293c9cf2f87090e567f71064dd0e66462",
      "title": "LG ] 8 F eb 2 01 6 Efficient Algorithms for Adversarial Contextual Learning",
      "venue": "",
      "year": 2018,
      "referenceCount": 12,
      "citationCount": 0,
      "authors": [
        {
          "authorId": "3043674",
          "name": "Vasilis Syrgkanis"
        },
        {
          "authorId": "1716301",
          "name": "R. Schapire"
        }
      ]
    },
    {
      "paperId": "d6670330b37fd2df362d31a95a878ffe51a242b3",
      "externalIds": {
        "CorpusId": 14568144
      },
      "url": "https://www.semanticscholar.org/paper/d6670330b37fd2df362d31a95a878ffe51a242b3",
      "title": "Efficient Algorithms for Adversarial Contextual Learning Supplementary material for “ Efficient Algorithms for Adversarial Contextual Learning ”",
      "venue": "",
      "year": 2016,
      "referenceCount": 0,
      "citationCount": 0,
      "authors": []
    },
    {
      "paperId": "7be452949701d4713507e236c1c2a848668ef0fb",
      "externalIds": {
        "DBLP": "journals/corr/abs-2002-00287",
        "MAG": "3046434636",
        "ArXiv": "2002.00287",
        "CorpusId": 211010471
      },
      "url": "https://www.semanticscholar.org/paper/7be452949701d4713507e236c1c2a848668ef0fb",
      "title": "Efficient and Robust Algorithms for Adversarial Linear Contextual Bandits",
      "venue": "Annual Conference Computational Learning Theory",
      "year": 2020,
      "referenceCount": 60,
      "citationCount": 53,
      "authors": [
        {
          "authorId": "1741549",
          "name": "Gergely Neu"
        },
        {
          "authorId": "1388784175",
          "name": "Julia Olkhovskaya"
        }
      ]
    },
    {
      "paperId": "4724ae0869b4cb65a741399489cb577a3373ada7",
      "externalIds": {
        "DBLP": "journals/corr/abs-2212-05949",
        "ArXiv": "2212.05949",
        "DOI": "10.48550/arXiv.2212.05949",
        "CorpusId": 254564031
      },
      "url": "https://www.semanticscholar.org/paper/4724ae0869b4cb65a741399489cb577a3373ada7",
      "title": "Corruption-Robust Algorithms with Uncertainty Weighting for Nonlinear Contextual Bandits and Markov Decision Processes",
      "venue": "International Conference on Machine Learning",
      "year": 2022,
      "referenceCount": 52,
      "citationCount": 39,
      "authors": [
        {
          "authorId": "2105550407",
          "name": "Chen Ye"
        },
        {
          "authorId": "2275119437",
          "name": "Wei Xiong"
        },
        {
          "authorId": "9937103",
          "name": "Quanquan Gu"
        },
        {
          "authorId": "2117882965",
          "name": "Tong Zhang"
        }
      ]
    },
    {
      "paperId": "2ffbf836e0392fd3d4b6e4842b6d727f187e79bf",
      "externalIds": {
        "ArXiv": "2012.05756",
        "DBLP": "journals/corr/abs-2012-05756",
        "MAG": "3110797440",
        "DOI": "10.1609/aaai.v35i11.17218",
        "CorpusId": 228083876
      },
      "url": "https://www.semanticscholar.org/paper/2ffbf836e0392fd3d4b6e4842b6d727f187e79bf",
      "title": "Adversarial Linear Contextual Bandits with Graph-Structured Side Observations",
      "venue": "AAAI Conference on Artificial Intelligence",
      "year": 2020,
      "referenceCount": 59,
      "citationCount": 9,
      "authors": [
        {
          "authorId": "35309616",
          "name": "Lingda Wang"
        },
        {
          "authorId": "2145726951",
          "name": "Bingcong Li"
        },
        {
          "authorId": "150129769",
          "name": "Huozhi Zhou"
        },
        {
          "authorId": "144321300",
          "name": "G. Giannakis"
        },
        {
          "authorId": "1697944",
          "name": "L. Varshney"
        },
        {
          "authorId": "2946414",
          "name": "Zhizhen Zhao"
        }
      ]
    },
    {
      "paperId": "1dd34f8879aeb03984ca507452d6b1938bcbbc64",
      "externalIds": {
        "MAG": "2963695335",
        "ArXiv": "1602.02196",
        "DBLP": "journals/corr/RakhlinS16",
        "CorpusId": 904685
      },
      "url": "https://www.semanticscholar.org/paper/1dd34f8879aeb03984ca507452d6b1938bcbbc64",
      "title": "BISTRO: An Efficient Relaxation-Based Method for Contextual Bandits",
      "venue": "International Conference on Machine Learning",
      "year": 2016,
      "referenceCount": 22,
      "citationCount": 72,
      "authors": [
        {
          "authorId": "1680046",
          "name": "A. Rakhlin"
        },
        {
          "authorId": "37564609",
          "name": "Karthik Sridharan"
        }
      ]
    },
    {
      "paperId": "fbc9cd417bbb548e89140fac15ece080ef9a003c",
      "externalIds": {
        "ArXiv": "2307.07675",
        "DBLP": "journals/corr/abs-2307-07675",
        "DOI": "10.48550/arXiv.2307.07675",
        "CorpusId": 259936932
      },
      "url": "https://www.semanticscholar.org/paper/fbc9cd417bbb548e89140fac15ece080ef9a003c",
      "title": "On the Robustness of Epoch-Greedy in Multi-Agent Contextual Bandit Mechanisms",
      "venue": "arXiv.org",
      "year": 2023,
      "referenceCount": 24,
      "citationCount": 4,
      "authors": [
        {
          "authorId": "2167048941",
          "name": "Yinglun Xu"
        },
        {
          "authorId": "2154455491",
          "name": "Bhuvesh Kumar"
        },
        {
          "authorId": "2738621",
          "name": "Jacob D. Abernethy"
        }
      ]
    },
    {
      "paperId": "da2c48e6e42a3540d64109bfa77d1f1f1e9116d2",
      "externalIds": {
        "DBLP": "journals/corr/abs-2406-05287",
        "ArXiv": "2406.05287",
        "DOI": "10.48550/arXiv.2406.05287",
        "CorpusId": 270371063
      },
      "url": "https://www.semanticscholar.org/paper/da2c48e6e42a3540d64109bfa77d1f1f1e9116d2",
      "title": "Group-wise oracle-efficient algorithms for online multi-group learning",
      "venue": "Neural Information Processing Systems",
      "year": 2024,
      "referenceCount": 37,
      "citationCount": 7,
      "authors": [
        {
          "authorId": "87301224",
          "name": "Samuel Deng"
        },
        {
          "authorId": "2282136794",
          "name": "Daniel Hsu"
        },
        {
          "authorId": "2305640124",
          "name": "Jingwen Liu"
        }
      ]
    },
    {
      "paperId": "b0b388f4c10aa48c49b86c7d0e7e8585cb877744",
      "externalIds": {
        "ArXiv": "2203.06803",
        "DBLP": "conf/icml/Liu0J22",
        "DOI": "10.48550/arXiv.2203.06803",
        "CorpusId": 247446617
      },
      "url": "https://www.semanticscholar.org/paper/b0b388f4c10aa48c49b86c7d0e7e8585cb877744",
      "title": "Learning Markov Games with Adversarial Opponents: Efficient Algorithms and Fundamental Limits",
      "venue": "International Conference on Machine Learning",
      "year": 2022,
      "referenceCount": 42,
      "citationCount": 18,
      "authors": [
        {
          "authorId": "2116656839",
          "name": "Qinghua Liu"
        },
        {
          "authorId": "47904142",
          "name": "Yuanhao Wang"
        },
        {
          "authorId": "3335298",
          "name": "Chi Jin"
        }
      ]
    }
  ]
}