{
  "total": 3023,
  "offset": 0,
  "next": 10,
  "data": [
    {
      "paperId": "0acae07e0fb13ba551c307fc30ed476ad4b6cb39",
      "externalIds": {
        "MAG": "2949886883",
        "DBLP": "journals/corr/LeY017",
        "ArXiv": "1703.03121",
        "CorpusId": 104775
      },
      "url": "https://www.semanticscholar.org/paper/0acae07e0fb13ba551c307fc30ed476ad4b6cb39",
      "title": "Coordinated Multi-Agent Imitation Learning",
      "venue": "International Conference on Machine Learning",
      "year": 2017,
      "referenceCount": 34,
      "citationCount": 210,
      "authors": [
        {
          "authorId": "145000658",
          "name": "Hoang Minh Le"
        },
        {
          "authorId": "1740159",
          "name": "Yisong Yue"
        },
        {
          "authorId": "47890108",
          "name": "Peter Carr"
        },
        {
          "authorId": "1713496",
          "name": "P. Lucey"
        }
      ]
    },
    {
      "paperId": "2dd124178dbd6b78a7ac94c278e7afef70e3fe48",
      "externalIds": {
        "DOI": "10.1016/j.ijepes.2021.107471",
        "CorpusId": 241172757
      },
      "url": "https://www.semanticscholar.org/paper/2dd124178dbd6b78a7ac94c278e7afef70e3fe48",
      "title": "Coordinated automatic generation control of interconnected power system with imitation guided exploration multi-agent deep reinforcement learning",
      "venue": "International Journal of Electrical Power & Energy Systems",
      "year": 2022,
      "referenceCount": 25,
      "citationCount": 40,
      "authors": [
        {
          "authorId": "2130138082",
          "name": "Jiawen Li"
        },
        {
          "authorId": null,
          "name": "Tao Yu"
        },
        {
          "authorId": "2108056632",
          "name": "Xiaoshun Zhang"
        }
      ]
    },
    {
      "paperId": "07a3ebfa0d7c53b905582ec6c77a06cd969f7c05",
      "externalIds": {
        "ArXiv": "2509.14159",
        "DBLP": "journals/corr/abs-2509-14159",
        "DOI": "10.48550/arXiv.2509.14159",
        "CorpusId": 281333233
      },
      "url": "https://www.semanticscholar.org/paper/07a3ebfa0d7c53b905582ec6c77a06cd969f7c05",
      "title": "MIMIC-D: Multi-modal Imitation for MultI-agent Coordination with Decentralized Diffusion Policies",
      "venue": "arXiv.org",
      "year": 2025,
      "referenceCount": 40,
      "citationCount": 0,
      "authors": [
        {
          "authorId": "2346982245",
          "name": "Dayi Dong"
        },
        {
          "authorId": "147418576",
          "name": "Maulik Bhatt"
        },
        {
          "authorId": "2381053776",
          "name": "Seoyeon Choi"
        },
        {
          "authorId": "2321458796",
          "name": "Negar Mehr"
        }
      ]
    },
    {
      "paperId": "9c58514d3df538cfd3a406ca173266a8fec18ff8",
      "externalIds": {
        "DOI": "10.1109/SPML66318.2025.11199827",
        "CorpusId": 282273854
      },
      "url": "https://www.semanticscholar.org/paper/9c58514d3df538cfd3a406ca173266a8fec18ff8",
      "title": "Multi-Agent Reinforcement Learning for Path Planning with Various Random and Fixed Obstacle Configurations",
      "venue": "International Conference on Signal Processing and Machine Learning",
      "year": 2025,
      "referenceCount": 32,
      "citationCount": 0,
      "authors": [
        {
          "authorId": "2359965146",
          "name": "Jinglong Liu"
        },
        {
          "authorId": "2292332712",
          "name": "Xitai Na"
        },
        {
          "authorId": "2359953049",
          "name": "Wenda Wang"
        },
        {
          "authorId": "2359895647",
          "name": "Tuo Wang"
        },
        {
          "authorId": "2360274002",
          "name": "Zhenduo Meng"
        },
        {
          "authorId": "2325090687",
          "name": "Jingdi Yan"
        }
      ]
    },
    {
      "paperId": "996609e656ac2ab120dac887a67bb5e218749b2a",
      "externalIds": {
        "DOI": "10.1109/TTE.2023.3253060",
        "CorpusId": 257387178
      },
      "url": "https://www.semanticscholar.org/paper/996609e656ac2ab120dac887a67bb5e218749b2a",
      "title": "A Large-Scale Multi-Agent Deep Reinforcement Learning Method for Cooperative Output Voltage Control of PEMFCs",
      "venue": "IEEE Transactions on Transportation Electrification",
      "year": 2024,
      "referenceCount": 35,
      "citationCount": 13,
      "authors": [
        {
          "authorId": "2130138082",
          "name": "Jiawen Li"
        },
        {
          "authorId": "2152200878",
          "name": "Haoyan Cui"
        },
        {
          "authorId": "2152124053",
          "name": "Wei Jiang"
        },
        {
          "authorId": "102391368",
          "name": "Hengwen Yu"
        }
      ]
    },
    {
      "paperId": "f2983bca16f5e8e9aa00821946298add27a9140e",
      "externalIds": {
        "MAG": "3197979977",
        "DOI": "10.1016/j.ijhydene.2021.07.009",
        "CorpusId": 239711604
      },
      "url": "https://www.semanticscholar.org/paper/f2983bca16f5e8e9aa00821946298add27a9140e",
      "title": "Coordinated control of gas supply system in PEMFC based on multi-agent deep reinforcement learning",
      "venue": "International journal of hydrogen energy",
      "year": 2021,
      "referenceCount": 43,
      "citationCount": 41,
      "authors": [
        {
          "authorId": "2130138082",
          "name": "Jiawen Li"
        },
        {
          "authorId": "2087140431",
          "name": "Tao Yu"
        },
        {
          "authorId": "49188314",
          "name": "Bo Yang"
        }
      ]
    },
    {
      "paperId": "39104e48eb5fc72cdbd03e6eea73d2cb9119206b",
      "externalIds": {
        "DBLP": "conf/ifaamas/ZhaoMM0YYZ0025",
        "DOI": "10.5555/3709347.3743877",
        "CorpusId": 269148491
      },
      "url": "https://www.semanticscholar.org/paper/39104e48eb5fc72cdbd03e6eea73d2cb9119206b",
      "title": "Mean Field Correlated Imitation Learning",
      "venue": "Adaptive Agents and Multi-Agent Systems",
      "year": 2025,
      "referenceCount": 30,
      "citationCount": 3,
      "authors": [
        {
          "authorId": "2292347155",
          "name": "Zhiyu Zhao"
        },
        {
          "authorId": "2364829084",
          "name": "Chengdong Ma"
        },
        {
          "authorId": "2152055663",
          "name": "Qirui Mi"
        },
        {
          "authorId": "2292898878",
          "name": "Ning Yang"
        },
        {
          "authorId": "2262502320",
          "name": "Xue Yan"
        },
        {
          "authorId": "145788064",
          "name": "Mengyue Yang"
        },
        {
          "authorId": "2247479851",
          "name": "Haifeng Zhang"
        },
        {
          "authorId": "2386604138",
          "name": "Jun Wang"
        },
        {
          "authorId": "2296747838",
          "name": "Yaodong Yang"
        }
      ]
    },
    {
      "paperId": "4328a409bc77306f96055c71efa6013daf6edffe",
      "externalIds": {
        "DOI": "10.1109/ICUS66297.2025.11295299",
        "CorpusId": 284156945
      },
      "url": "https://www.semanticscholar.org/paper/4328a409bc77306f96055c71efa6013daf6edffe",
      "title": "FTIL: Few-Shot Teamwork Imitation Learning for Dynamic Composited Unmanned Systems",
      "venue": "2025 IEEE International Conference on Unmanned Systems (ICUS)",
      "year": 2025,
      "referenceCount": 15,
      "citationCount": 0,
      "authors": [
        {
          "authorId": "2395405281",
          "name": "Yue Han"
        },
        {
          "authorId": "2294029153",
          "name": "Jin Yu"
        },
        {
          "authorId": "1978388884",
          "name": "Xuanqi Peng"
        },
        {
          "authorId": "2322025277",
          "name": "Chen Liang"
        },
        {
          "authorId": "2396563272",
          "name": "Zhixiao Sun"
        }
      ]
    },
    {
      "paperId": "41512f44f5dfec4a41c6569d345196a45798ebb5",
      "externalIds": {
        "ArXiv": "2604.06691",
        "CorpusId": 287247767
      },
      "url": "https://www.semanticscholar.org/paper/41512f44f5dfec4a41c6569d345196a45798ebb5",
      "title": "KD-MARL: Resource-Aware Knowledge Distillation in Multi-Agent Reinforcement Learning",
      "venue": "",
      "year": 2026,
      "referenceCount": 28,
      "citationCount": 0,
      "authors": [
        {
          "authorId": "70191630",
          "name": "Monirul Islam Pavel"
        },
        {
          "authorId": "2358414990",
          "name": "Siyi Hu"
        },
        {
          "authorId": "2370779088",
          "name": "Muhammad Masum"
        },
        {
          "authorId": "2281032883",
          "name": "Mahardhika Pratama"
        },
        {
          "authorId": "2220546517",
          "name": "Ryszard Kowalczyk"
        },
        {
          "authorId": "2281251566",
          "name": "Zehong Cao"
        }
      ]
    },
    {
      "paperId": "20802d1ffba0d48b4006f4d1502c3dd4bed6a6d6",
      "externalIds": {
        "DBLP": "conf/iros/KurokiNK24",
        "ArXiv": "2312.02008",
        "DOI": "10.1109/IROS58592.2024.10801334",
        "CorpusId": 265608880
      },
      "url": "https://www.semanticscholar.org/paper/20802d1ffba0d48b4006f4d1502c3dd4bed6a6d6",
      "title": "Multi-Agent Behavior Retrieval: Retrieval-Augmented Policy Training for Cooperative Push Manipulation by Mobile Robots",
      "venue": "IEEE/RJS International Conference on Intelligent RObots and Systems",
      "year": 2023,
      "referenceCount": 36,
      "citationCount": 4,
      "authors": [
        {
          "authorId": "2269464214",
          "name": "So Kuroki"
        },
        {
          "authorId": "2269468524",
          "name": "Mai Nishimura"
        },
        {
          "authorId": "2237799341",
          "name": "Tadashi Kozuno"
        }
      ]
    }
  ]
}