{
  "total": 69642,
  "offset": 0,
  "next": 10,
  "data": [
    {
      "paperId": "7f3d262508996017b6f43d0419db6fda07860eb5",
      "externalIds": {
        "DBLP": "conf/itw/YangCCZ24",
        "DOI": "10.1109/ITW61385.2024.10807004",
        "CorpusId": 275160789
      },
      "url": "https://www.semanticscholar.org/paper/7f3d262508996017b6f43d0419db6fda07860eb5",
      "title": "An Efficient Adaptive Belief Propagation Decoder for Polar Codes",
      "venue": "Information Theory Workshop",
      "year": 2024,
      "referenceCount": 3,
      "citationCount": 1,
      "authors": [
        {
          "authorId": "2335823317",
          "name": "Zhongjun Yang"
        },
        {
          "authorId": "2233231692",
          "name": "Zuoxin Cai"
        },
        {
          "authorId": "2150639795",
          "name": "Li Chen"
        },
        {
          "authorId": "2257922282",
          "name": "Huazi Zhang"
        }
      ]
    },
    {
      "paperId": "d21aea380bd8973ad248975169e086a7ea45da13",
      "externalIds": {
        "DOI": "10.1049/ell2.12998",
        "CorpusId": 264792832
      },
      "url": "https://www.semanticscholar.org/paper/d21aea380bd8973ad248975169e086a7ea45da13",
      "title": "Improved adaptive belief propagation algorithm with reduced complexity for concatenated SPC‐RS codes",
      "venue": "Electronics Letters",
      "year": 2023,
      "referenceCount": 7,
      "citationCount": 0,
      "authors": [
        {
          "authorId": "2263483281",
          "name": "Yuan Cheng"
        },
        {
          "authorId": "2256596703",
          "name": "Wei Zhang"
        },
        {
          "authorId": "2069096669",
          "name": "Yi Jing"
        },
        {
          "authorId": "2266753891",
          "name": "Zhihao Zhou"
        },
        {
          "authorId": "2130190762",
          "name": "Jianhan Zhao"
        },
        {
          "authorId": "2108219722",
          "name": "Yanyan Liu"
        }
      ]
    },
    {
      "paperId": "0307f1603d7100ce608dc6ecb9f7243e89c181f2",
      "externalIds": {
        "DBLP": "journals/icl/JingZWCL22",
        "DOI": "10.1109/lcomm.2022.3167989",
        "CorpusId": 248255207
      },
      "url": "https://www.semanticscholar.org/paper/0307f1603d7100ce608dc6ecb9f7243e89c181f2",
      "title": "Improved Adaptive Belief Propagation Decoding of Reed-Solomon Codes With SPC Codes",
      "venue": "IEEE Communications Letters",
      "year": 2022,
      "referenceCount": 0,
      "citationCount": 8,
      "authors": [
        {
          "authorId": "2069096669",
          "name": "Yi Jing"
        },
        {
          "authorId": "39771572",
          "name": "W. Zhang"
        },
        {
          "authorId": "2144219541",
          "name": "Hao Wang"
        },
        {
          "authorId": "2159606160",
          "name": "Yanyan Chang"
        },
        {
          "authorId": "2108219722",
          "name": "Yanyan Liu"
        }
      ]
    },
    {
      "paperId": "a76449d5b5de044ef1b0b8060db6840ca55a5d42",
      "externalIds": {
        "DBLP": "journals/tcom/ZhuJZ22",
        "DOI": "10.1109/tcomm.2022.3184359",
        "CorpusId": 249902881
      },
      "url": "https://www.semanticscholar.org/paper/a76449d5b5de044ef1b0b8060db6840ca55a5d42",
      "title": "Adaptive Belief Propagation Decoding of CRC Concatenated NR LDPC and Polar Codes",
      "venue": "IEEE Transactions on Communications",
      "year": 2022,
      "referenceCount": 0,
      "citationCount": 8,
      "authors": [
        {
          "authorId": "1491237200",
          "name": "Mingyang Zhu"
        },
        {
          "authorId": "144889909",
          "name": "Ming Jiang"
        },
        {
          "authorId": "37119521",
          "name": "Chunming Zhao"
        }
      ]
    },
    {
      "paperId": "21c19c80894bae030d1a3522a098efa8c1bd4799",
      "externalIds": {
        "DBLP": "conf/vtc/ZhangJZLZ22",
        "DOI": "10.1109/VTC2022-Spring54318.2022.9860767",
        "CorpusId": 251846974
      },
      "url": "https://www.semanticscholar.org/paper/21c19c80894bae030d1a3522a098efa8c1bd4799",
      "title": "CRC-Aided Adaptive Belief Propagation Decoding of NR LDPC Codes",
      "venue": "IEEE Vehicular Technology Conference",
      "year": 2022,
      "referenceCount": 15,
      "citationCount": 2,
      "authors": [
        {
          "authorId": "2265951853",
          "name": "Xianwen Zhang"
        },
        {
          "authorId": "144889909",
          "name": "Ming Jiang"
        },
        {
          "authorId": "1491237200",
          "name": "Mingyang Zhu"
        },
        {
          "authorId": "144119778",
          "name": "Kai Liu"
        },
        {
          "authorId": "37119521",
          "name": "Chunming Zhao"
        }
      ]
    },
    {
      "paperId": "9e6c24cfb3a00c3bd12c9cf7ef0bdb7616f4b009",
      "externalIds": {
        "DBLP": "journals/ral/SeoK22",
        "ArXiv": "2203.03815",
        "DOI": "10.1109/LRA.2022.3193243",
        "CorpusId": 247315575
      },
      "url": "https://www.semanticscholar.org/paper/9e6c24cfb3a00c3bd12c9cf7ef0bdb7616f4b009",
      "title": "Online Target Localization Using Adaptive Belief Propagation in the HMM Framework",
      "venue": "IEEE Robotics and Automation Letters",
      "year": 2022,
      "referenceCount": 32,
      "citationCount": 9,
      "authors": [
        {
          "authorId": "2158115582",
          "name": "Min-Won Seo"
        },
        {
          "authorId": "2881262",
          "name": "Solmaz S. Kia"
        }
      ]
    },
    {
      "paperId": "5f4f7f9f2616e0f10173a593c659f4b15a116072",
      "externalIds": {
        "DBLP": "journals/entropy/WangZJCL22",
        "PubMedCentral": "8947198",
        "DOI": "10.3390/e24030427",
        "CorpusId": 247606268,
        "PubMed": "35327937"
      },
      "url": "https://www.semanticscholar.org/paper/5f4f7f9f2616e0f10173a593c659f4b15a116072",
      "title": "Controversial Variable Node Selection-Based Adaptive Belief Propagation Decoding Algorithm Using Bit Flipping Check for JSCC Systems",
      "venue": "Entropy",
      "year": 2022,
      "referenceCount": 20,
      "citationCount": 0,
      "authors": [
        {
          "authorId": "2144219541",
          "name": "Hao Wang"
        },
        {
          "authorId": "39771572",
          "name": "W. Zhang"
        },
        {
          "authorId": "2069096669",
          "name": "Yi Jing"
        },
        {
          "authorId": "2159606160",
          "name": "Yanyan Chang"
        },
        {
          "authorId": "2108219722",
          "name": "Yanyan Liu"
        }
      ]
    },
    {
      "paperId": "3ec5ee96ac4cf3699b652879985930a37b9ebf92",
      "externalIds": {
        "ArXiv": "2012.10743",
        "DBLP": "journals/tcom/DengLGLAYS21",
        "DOI": "10.1109/TCOMM.2020.3047085",
        "CorpusId": 229339923
      },
      "url": "https://www.semanticscholar.org/paper/3ec5ee96ac4cf3699b652879985930a37b9ebf92",
      "title": "Perturbed Adaptive Belief Propagation Decoding for High-Density Parity-Check Codes",
      "venue": "IEEE Transactions on Communications",
      "year": 2020,
      "referenceCount": 50,
      "citationCount": 17,
      "authors": [
        {
          "authorId": "2114190595",
          "name": "Lijun Deng"
        },
        {
          "authorId": "46270655",
          "name": "Zilong Liu"
        },
        {
          "authorId": "1737045",
          "name": "Y. Guan"
        },
        {
          "authorId": "100683860",
          "name": "Xiaobei Liu"
        },
        {
          "authorId": "3178421",
          "name": "Chaudhry Adnan Aslam"
        },
        {
          "authorId": "2047412153",
          "name": "Xiaoxi Yu"
        },
        {
          "authorId": "144578814",
          "name": "Zhiping Shi"
        }
      ]
    },
    {
      "paperId": "590c106da9d019e8d48f5aa0183b834c41085a21",
      "externalIds": {
        "DBLP": "journals/corr/abs-2507-19941",
        "ArXiv": "2507.19941",
        "PubMedCentral": "12386122",
        "DOI": "10.3390/e27080795",
        "CorpusId": 280324092,
        "PubMed": "40870266"
      },
      "url": "https://www.semanticscholar.org/paper/590c106da9d019e8d48f5aa0183b834c41085a21",
      "title": "Adaptive Learned Belief Propagation for Decoding Error-Correcting Codes",
      "venue": "Entropy",
      "year": 2025,
      "referenceCount": 101,
      "citationCount": 0,
      "authors": [
        {
          "authorId": "2373616550",
          "name": "Alireza Tasdighi"
        },
        {
          "authorId": "2318744",
          "name": "Mansoor I. Yousefi"
        }
      ]
    },
    {
      "paperId": "fb4931f0e3b6546e673a8ea6390f2f9d71a3fdd2",
      "externalIds": {
        "DBLP": "journals/corr/abs-2404-04674",
        "ArXiv": "2404.04674",
        "DOI": "10.48550/arXiv.2404.04674",
        "CorpusId": 269004475
      },
      "url": "https://www.semanticscholar.org/paper/fb4931f0e3b6546e673a8ea6390f2f9d71a3fdd2",
      "title": "Study of Adaptive Reweighted Sparse Belief Propagation Decoders for Polar Codes",
      "venue": "arXiv.org",
      "year": 2024,
      "referenceCount": 38,
      "citationCount": 0,
      "authors": [
        {
          "authorId": "145656650",
          "name": "Robert M. Oliveira"
        },
        {
          "authorId": "2072333848",
          "name": "R. Lamare"
        }
      ]
    }
  ]
}