{
  "total": 57,
  "offset": 0,
  "next": 10,
  "data": [
    {
      "paperId": "a35be901e0bf9dd8adfcdaae400f1458eb2c8f3d",
      "externalIds": {
        "MAG": "1853881680",
        "ArXiv": "1506.08170",
        "DBLP": "conf/icml/MaLF15",
        "CorpusId": 8725374
      },
      "url": "https://www.semanticscholar.org/paper/a35be901e0bf9dd8adfcdaae400f1458eb2c8f3d",
      "title": "Finding Linear Structure in Large Datasets with Scalable Canonical Correlation Analysis",
      "venue": "International Conference on Machine Learning",
      "year": 2015,
      "referenceCount": 30,
      "citationCount": 83,
      "authors": [
        {
          "authorId": "48464836",
          "name": "Zhuang Ma"
        },
        {
          "authorId": "2505474",
          "name": "Y. Lu"
        },
        {
          "authorId": "145346319",
          "name": "Dean Phillips Foster"
        }
      ]
    },
    {
      "paperId": "0838136c771c84325af152484ec67cd4e8df9c52",
      "externalIds": {
        "CorpusId": 16702972
      },
      "url": "https://www.semanticscholar.org/paper/0838136c771c84325af152484ec67cd4e8df9c52",
      "title": "Supplementary Material: Finding Linear Structure in Large Datasets with Scalable Canonical Correlation Analysis",
      "venue": "",
      "year": 2015,
      "referenceCount": 0,
      "citationCount": 0,
      "authors": []
    },
    {
      "paperId": "c3435b396472eb8231e3dc153858e12b1db47ed6",
      "externalIds": {
        "DBLP": "journals/tmlr/YuK0Z0024",
        "CorpusId": 268956020
      },
      "url": "https://www.semanticscholar.org/paper/c3435b396472eb8231e3dc153858e12b1db47ed6",
      "title": "A Multilinear Least-Squares Formulation for Sparse Tensor Canonical Correlation Analysis",
      "venue": "Trans. Mach. Learn. Res.",
      "year": 2024,
      "referenceCount": 63,
      "citationCount": 0,
      "authors": [
        {
          "authorId": "2269840849",
          "name": "Jun Yu"
        },
        {
          "authorId": "40843510",
          "name": "Zhaoming Kong"
        },
        {
          "authorId": "2110718206",
          "name": "Kun Chen"
        },
        {
          "authorId": "2149175834",
          "name": "Xin Zhang"
        },
        {
          "authorId": "2115841280",
          "name": "Yong Chen"
        },
        {
          "authorId": "40901818",
          "name": "Lifang He"
        }
      ]
    },
    {
      "paperId": "3bcbe0315e2f57c270f9a08fcb2f459f2337cf12",
      "externalIds": {
        "DBLP": "journals/tsp/FuHHSS17",
        "ArXiv": "1605.09459",
        "MAG": "2528161559",
        "DOI": "10.1109/TSP.2017.2698365",
        "CorpusId": 1713962
      },
      "url": "https://www.semanticscholar.org/paper/3bcbe0315e2f57c270f9a08fcb2f459f2337cf12",
      "title": "Scalable and Flexible Multiview MAX-VAR Canonical Correlation Analysis",
      "venue": "IEEE Transactions on Signal Processing",
      "year": 2016,
      "referenceCount": 48,
      "citationCount": 44,
      "authors": [
        {
          "authorId": "144406546",
          "name": "Xiao Fu"
        },
        {
          "authorId": "2349460",
          "name": "Kejun Huang"
        },
        {
          "authorId": "1793717",
          "name": "Mingyi Hong"
        },
        {
          "authorId": "73776482",
          "name": "N. Sidiropoulos"
        },
        {
          "authorId": "1734000",
          "name": "A. M. So"
        }
      ]
    },
    {
      "paperId": "0290f07aee1c5207436037a273763bf68a687b8e",
      "externalIds": {
        "DOI": "10.1080/01431161.2025.2593685",
        "CorpusId": 283442896
      },
      "url": "https://www.semanticscholar.org/paper/0290f07aee1c5207436037a273763bf68a687b8e",
      "title": "Hyperspectral band selection integrating correlation structure and volume criterion",
      "venue": "International Journal of Remote Sensing",
      "year": 2025,
      "referenceCount": 37,
      "citationCount": 0,
      "authors": [
        {
          "authorId": "2321176921",
          "name": "Songyi Xiao"
        },
        {
          "authorId": "2397176777",
          "name": "Shengyiliu Zhong"
        },
        {
          "authorId": "2112509464",
          "name": "Liangliang Zhu"
        },
        {
          "authorId": "2346550678",
          "name": "Jialei Xie"
        },
        {
          "authorId": "2332616694",
          "name": "Xiurui Geng"
        }
      ]
    },
    {
      "paperId": "bc715beed8d06270ee2e7f6bb6e28017851a8caf",
      "externalIds": {
        "MAG": "3048001603",
        "DBLP": "journals/tbd/0033L22",
        "DOI": "10.1109/tbdata.2020.3014937",
        "CorpusId": 226646747
      },
      "url": "https://www.semanticscholar.org/paper/bc715beed8d06270ee2e7f6bb6e28017851a8caf",
      "title": "A Scalable Algorithm for Large-Scale Unsupervised Multi-View Partial Least Squares",
      "venue": "IEEE Transactions on Big Data",
      "year": 2020,
      "referenceCount": 0,
      "citationCount": 10,
      "authors": [
        {
          "authorId": "50876633",
          "name": "L. xilinx Wang"
        },
        {
          "authorId": "31327747",
          "name": "Ren-Cang Li"
        }
      ]
    },
    {
      "paperId": "bbbd9bb854fe870eb4ddd913d93c0ee02755b2a9",
      "externalIds": {
        "ArXiv": "1502.02330",
        "MAG": "1672347394",
        "DBLP": "journals/corr/LuoTWRX15",
        "DOI": "10.1109/TKDE.2015.2445757",
        "CorpusId": 7701162
      },
      "url": "https://www.semanticscholar.org/paper/bbbd9bb854fe870eb4ddd913d93c0ee02755b2a9",
      "title": "Tensor Canonical Correlation Analysis for Multi-View Dimension Reduction",
      "venue": "IEEE Transactions on Knowledge and Data Engineering",
      "year": 2015,
      "referenceCount": 69,
      "citationCount": 249,
      "authors": [
        {
          "authorId": "143610445",
          "name": "Yong Luo"
        },
        {
          "authorId": "143719920",
          "name": "D. Tao"
        },
        {
          "authorId": "1720142",
          "name": "K. Ramamohanarao"
        },
        {
          "authorId": "2115472608",
          "name": "Chao Xu"
        },
        {
          "authorId": "145868454",
          "name": "Yonggang Wen"
        }
      ]
    },
    {
      "paperId": "6f8223ff88a8fccb63104cf1b90acb63e31a4e9f",
      "externalIds": {
        "MAG": "2583191533",
        "DBLP": "conf/icdm/FuHPSTSFM16",
        "DOI": "10.1109/ICDM.2016.0105",
        "CorpusId": 9254411
      },
      "url": "https://www.semanticscholar.org/paper/6f8223ff88a8fccb63104cf1b90acb63e31a4e9f",
      "title": "Efficient and Distributed Algorithms for Large-Scale Generalized Canonical Correlations Analysis",
      "venue": "Industrial Conference on Data Mining",
      "year": 2016,
      "referenceCount": 18,
      "citationCount": 25,
      "authors": [
        {
          "authorId": "144406546",
          "name": "Xiao Fu"
        },
        {
          "authorId": "2349460",
          "name": "Kejun Huang"
        },
        {
          "authorId": "3000659",
          "name": "E. Papalexakis"
        },
        {
          "authorId": "2044451",
          "name": "H. Song"
        },
        {
          "authorId": "2408872",
          "name": "P. Talukdar"
        },
        {
          "authorId": "73776482",
          "name": "N. Sidiropoulos"
        },
        {
          "authorId": "1702392",
          "name": "C. Faloutsos"
        },
        {
          "authorId": "40975594",
          "name": "Tom Michael Mitchell"
        }
      ]
    },
    {
      "paperId": "1462d01cd41c4e76e3fd3542e218d3065c81d938",
      "externalIds": {
        "DBLP": "journals/iotj/LiuWMLPZC25",
        "DOI": "10.1109/JIOT.2025.3592790",
        "CorpusId": 281894636
      },
      "url": "https://www.semanticscholar.org/paper/1462d01cd41c4e76e3fd3542e218d3065c81d938",
      "title": "Secure and Efficient Cross-Modal Data Retrieval in Internet of Things",
      "venue": "IEEE Internet of Things Journal",
      "year": 2025,
      "referenceCount": 59,
      "citationCount": 0,
      "authors": [
        {
          "authorId": "2292298439",
          "name": "Shuying Liu"
        },
        {
          "authorId": "2322011019",
          "name": "Guijuan Wang"
        },
        {
          "authorId": "143869661",
          "name": "Yinbin Miao"
        },
        {
          "authorId": "2109075225",
          "name": "Zhiquan Liu"
        },
        {
          "authorId": "2280935873",
          "name": "Jinye Peng"
        },
        {
          "authorId": "2293084538",
          "name": "Yanfei Zou"
        },
        {
          "authorId": "2267039263",
          "name": "Kim-Kwang Raymond Choo"
        }
      ]
    },
    {
      "paperId": "b120982bffbe1ca5cc04cb9900a46e9bb8e00dc8",
      "externalIds": {
        "CorpusId": 5803382
      },
      "url": "https://www.semanticscholar.org/paper/b120982bffbe1ca5cc04cb9900a46e9bb8e00dc8",
      "title": "Finding and Leveraging Structure in Learning Problems",
      "venue": "",
      "year": 2012,
      "referenceCount": 219,
      "citationCount": 2,
      "authors": [
        {
          "authorId": "3261943",
          "name": "Sivaraman Balakrishnan"
        }
      ]
    }
  ]
}