{
  "total": 16,
  "offset": 0,
  "next": 10,
  "data": [
    {
      "paperId": "f35de4f9b1a7c4d3fa96a0d2ab1bf8937671f6b6",
      "externalIds": {
        "MAG": "2964059111",
        "DBLP": "conf/icml/GalG16",
        "ArXiv": "1506.02142",
        "CorpusId": 160705
      },
      "url": "https://www.semanticscholar.org/paper/f35de4f9b1a7c4d3fa96a0d2ab1bf8937671f6b6",
      "title": "Dropout as a Bayesian Approximation: Representing Model Uncertainty in Deep Learning",
      "venue": "International Conference on Machine Learning",
      "year": 2015,
      "referenceCount": 56,
      "citationCount": 11445,
      "authors": [
        {
          "authorId": "2681954",
          "name": "Y. Gal"
        },
        {
          "authorId": "1744700",
          "name": "Zoubin Ghahramani"
        }
      ]
    },
    {
      "paperId": "a8f1bdc73848801e45c99276ca106d699d16c355",
      "externalIds": {
        "ArXiv": "1506.02157",
        "MAG": "2203132937",
        "CorpusId": 17978734
      },
      "url": "https://www.semanticscholar.org/paper/a8f1bdc73848801e45c99276ca106d699d16c355",
      "title": "Dropout as a Bayesian Approximation: Appendix",
      "venue": "",
      "year": 2015,
      "referenceCount": 33,
      "citationCount": 79,
      "authors": [
        {
          "authorId": "2681954",
          "name": "Y. Gal"
        },
        {
          "authorId": "1744700",
          "name": "Zoubin Ghahramani"
        }
      ]
    },
    {
      "paperId": "3da679f17eea7d9326e5d0676fa58e030def0109",
      "externalIds": {
        "PubMedCentral": "11711487",
        "DOI": "10.1038/s41598-024-84478-x",
        "CorpusId": 275411654,
        "PubMed": "39779778"
      },
      "url": "https://www.semanticscholar.org/paper/3da679f17eea7d9326e5d0676fa58e030def0109",
      "title": "Uncertainty-aware diabetic retinopathy detection using deep learning enhanced by Bayesian approaches",
      "venue": "Scientific Reports",
      "year": 2025,
      "referenceCount": 25,
      "citationCount": 54,
      "authors": [
        {
          "authorId": "2241535612",
          "name": "M. Usman Akram"
        },
        {
          "authorId": "2118131015",
          "name": "Muhammad Adnan"
        },
        {
          "authorId": "8630772",
          "name": "Syed Farooq Ali"
        },
        {
          "authorId": "134125548",
          "name": "Jameel Ahmad"
        },
        {
          "authorId": "2282712078",
          "name": "Amr H. Yousef"
        },
        {
          "authorId": "1476823664",
          "name": "T. Alshalali"
        },
        {
          "authorId": "2179438",
          "name": "Z. Shaikh"
        }
      ]
    },
    {
      "paperId": "3c623c08329e129e784a5d03f7606ec8feba3a28",
      "externalIds": {
        "MAG": "2914487714",
        "CorpusId": 86522127
      },
      "url": "https://www.semanticscholar.org/paper/3c623c08329e129e784a5d03f7606ec8feba3a28",
      "title": "Uncertainty in Deep Learning",
      "venue": "",
      "year": 2016,
      "referenceCount": 141,
      "citationCount": 1631,
      "authors": [
        {
          "authorId": "2681954",
          "name": "Y. Gal"
        }
      ]
    },
    {
      "paperId": "8815f3da8986becf440b07eb7602f2f8816c6e85",
      "externalIds": {
        "MAG": "2964706145",
        "DBLP": "conf/cbms/GhoshalTSW19",
        "DOI": "10.1109/CBMS.2019.00072",
        "CorpusId": 199489402
      },
      "url": "https://www.semanticscholar.org/paper/8815f3da8986becf440b07eb7602f2f8816c6e85",
      "title": "Estimating Uncertainty in Deep Learning for Reporting Confidence to Clinicians when Segmenting Nuclei Image Data",
      "venue": "2019 IEEE 32nd International Symposium on Computer-Based Medical Systems (CBMS)",
      "year": 2019,
      "referenceCount": 15,
      "citationCount": 21,
      "authors": [
        {
          "authorId": "151479037",
          "name": "Biraja Ghoshal"
        },
        {
          "authorId": "1775612",
          "name": "A. Tucker"
        },
        {
          "authorId": "8535788",
          "name": "B. Sanghera"
        },
        {
          "authorId": "46688253",
          "name": "W. Wong"
        }
      ]
    },
    {
      "paperId": "7cdc6acf3dd9c6829e0709408b1c27200ce1a3d0",
      "externalIds": {
        "DBLP": "journals/jdi/KimCYWFABJSLZZKNJPB24",
        "DOI": "10.1007/s10278-024-01037-6",
        "CorpusId": 268609410,
        "PubMed": "38514595"
      },
      "url": "https://www.semanticscholar.org/paper/7cdc6acf3dd9c6829e0709408b1c27200ce1a3d0",
      "title": "Active Learning in Brain Tumor Segmentation with Uncertainty Sampling and Annotation Redundancy Restriction",
      "venue": "Journal of Imaging Informatics in Medicine",
      "year": 2024,
      "referenceCount": 35,
      "citationCount": 15,
      "authors": [
        {
          "authorId": "2135928979",
          "name": "Daniel D. Kim"
        },
        {
          "authorId": "2029668397",
          "name": "Rajat S. Chandra"
        },
        {
          "authorId": "2292738807",
          "name": "Li Yang"
        },
        {
          "authorId": "2149264819",
          "name": "Jing Wu"
        },
        {
          "authorId": "2109389230",
          "name": "Xue Feng"
        },
        {
          "authorId": "2155127516",
          "name": "Michael K. Atalay"
        },
        {
          "authorId": "2390923897",
          "name": "Chetan Bettegowda"
        },
        {
          "authorId": "2292735888",
          "name": "Craig Jones"
        },
        {
          "authorId": "2393192208",
          "name": "Haris Sair"
        },
        {
          "authorId": "153335932",
          "name": "W. Liao"
        },
        {
          "authorId": "2256797748",
          "name": "Chengzhang Zhu"
        },
        {
          "authorId": "2064361060",
          "name": "Beiji Zou"
        },
        {
          "authorId": "1824101",
          "name": "A. Kazerooni"
        },
        {
          "authorId": "11630343",
          "name": "A. Nabavizadeh"
        },
        {
          "authorId": "2255546850",
          "name": "Zhicheng Jiao"
        },
        {
          "authorId": "2208655667",
          "name": "Jian Peng"
        },
        {
          "authorId": "2267338583",
          "name": "Harrison X. Bai"
        }
      ]
    },
    {
      "paperId": "f375dd5cd67e93f0a55d92c9986c60cc0b0189e6",
      "externalIds": {
        "DBLP": "journals/corr/abs-2107-11678",
        "ArXiv": "2107.11678",
        "CorpusId": 236428920
      },
      "url": "https://www.semanticscholar.org/paper/f375dd5cd67e93f0a55d92c9986c60cc0b0189e6",
      "title": "Deep-learning-driven Reliable Single-pixel Imaging with Uncertainty Approximation",
      "venue": "arXiv.org",
      "year": 2021,
      "referenceCount": 37,
      "citationCount": 2,
      "authors": [
        {
          "authorId": "8090790",
          "name": "Ruibo Shang"
        },
        {
          "authorId": "1657336468",
          "name": "Mikaela A. O’Brien"
        },
        {
          "authorId": "5347422",
          "name": "Geoffrey P. Luke"
        }
      ]
    },
    {
      "paperId": "55224c1fd11a035fdac5f05bf87329455c029932",
      "externalIds": {
        "CorpusId": 272767904
      },
      "url": "https://www.semanticscholar.org/paper/55224c1fd11a035fdac5f05bf87329455c029932",
      "title": "Quantifying uncertainty in deep-learning classiﬁcation of radio galaxies",
      "venue": "",
      "year": null,
      "referenceCount": 2,
      "citationCount": 0,
      "authors": [
        {
          "authorId": "50071411",
          "name": "Fiona A. M. Porter"
        },
        {
          "authorId": "2266466078",
          "name": "Anna Scaife"
        }
      ]
    },
    {
      "paperId": "ec986007e3b226085f1f2bae6ea7bbf361f914df",
      "externalIds": {
        "DBLP": "journals/cars/LagunaZBFSKG25",
        "PubMedCentral": "12226603",
        "ArXiv": "2504.11307",
        "DOI": "10.1007/s11548-025-03402-4",
        "CorpusId": 277787020,
        "PubMed": "40495100"
      },
      "url": "https://www.semanticscholar.org/paper/ec986007e3b226085f1f2bae6ea7bbf361f914df",
      "title": "Uncertainty estimation for trust attribution to speed-of-sound reconstruction with variational networks",
      "venue": "International Journal of Computer Assisted Radiology and Surgery",
      "year": 2025,
      "referenceCount": 29,
      "citationCount": 2,
      "authors": [
        {
          "authorId": "2280907398",
          "name": "S. Laguna"
        },
        {
          "authorId": "2143836612",
          "name": "Lin Zhang"
        },
        {
          "authorId": "1395873966",
          "name": "Can Deniz Bezek"
        },
        {
          "authorId": "2265301847",
          "name": "Monika Farkas"
        },
        {
          "authorId": "2339658164",
          "name": "Dieter Schweizer"
        },
        {
          "authorId": "2245005386",
          "name": "R. A. Kubik-Huch"
        },
        {
          "authorId": "2985413",
          "name": "O. Goksel"
        }
      ]
    },
    {
      "paperId": "c925348ee5c14e8abf5ec8ea44e3f45eaeffc031",
      "externalIds": {
        "DBLP": "journals/corr/abs-2310-19686",
        "ArXiv": "2310.19686",
        "DOI": "10.48550/arXiv.2310.19686",
        "CorpusId": 264824662
      },
      "url": "https://www.semanticscholar.org/paper/c925348ee5c14e8abf5ec8ea44e3f45eaeffc031",
      "title": "Can input reconstruction be used to directly estimate uncertainty of a regression U-Net model? - Application to proton therapy dose prediction for head and neck cancer patients",
      "venue": "arXiv.org",
      "year": 2023,
      "referenceCount": 23,
      "citationCount": 0,
      "authors": [
        {
          "authorId": "2141979965",
          "name": "Margerie Huet-Dastarac"
        },
        {
          "authorId": "2265460369",
          "name": "Dan Nguyen"
        },
        {
          "authorId": "2264495915",
          "name": "Steve B. Jiang"
        },
        {
          "authorId": "2263558010",
          "name": "John A. Lee"
        },
        {
          "authorId": "2252153262",
          "name": "A. M. Barragán-Montero"
        }
      ]
    }
  ]
}