{
  "total": 42382,
  "offset": 0,
  "next": 10,
  "data": [
    {
      "paperId": "4042fa999b3f69f2407466212ce4179cf707f4ee",
      "externalIds": {
        "MAG": "2740836298",
        "DBLP": "conf/icml/YenLCSLR17",
        "CorpusId": 3742468,
        "PubMed": "31225526"
      },
      "url": "https://www.semanticscholar.org/paper/4042fa999b3f69f2407466212ce4179cf707f4ee",
      "title": "Latent Feature Lasso",
      "venue": "International Conference on Machine Learning",
      "year": 2017,
      "referenceCount": 24,
      "citationCount": 10,
      "authors": [
        {
          "authorId": "2527556",
          "name": "I. E. Yen"
        },
        {
          "authorId": "49627209",
          "name": "Wei‐Cheng Lee"
        },
        {
          "authorId": "20842455",
          "name": "Sung-En Chang"
        },
        {
          "authorId": "2170091",
          "name": "A. Suggala"
        },
        {
          "authorId": "2145196483",
          "name": "Shou-De Lin"
        },
        {
          "authorId": "145969795",
          "name": "Pradeep Ravikumar"
        }
      ]
    },
    {
      "paperId": "af8be2a46f300e70617bdfeb134d71c441a6c98b",
      "externalIds": {
        "MAG": "3096935006",
        "CorpusId": 230311077
      },
      "url": "https://www.semanticscholar.org/paper/af8be2a46f300e70617bdfeb134d71c441a6c98b",
      "title": "Fused Lasso Latent Feature Model [R package FLLat version 1.2-1]",
      "venue": "",
      "year": 2017,
      "referenceCount": 0,
      "citationCount": 0,
      "authors": [
        {
          "authorId": "29696767",
          "name": "G. Nowak"
        },
        {
          "authorId": "1784682",
          "name": "T. Hastie"
        },
        {
          "authorId": "3119165",
          "name": "J. Pollack"
        },
        {
          "authorId": "1761784",
          "name": "R. Tibshirani"
        },
        {
          "authorId": "2069627117",
          "name": "Nicholas Johnson"
        }
      ]
    },
    {
      "paperId": "e943e18a8152c124cdfbcaf2cc8d4479e355d206",
      "externalIds": {
        "DOI": "10.3390/math12050783",
        "CorpusId": 268347418
      },
      "url": "https://www.semanticscholar.org/paper/e943e18a8152c124cdfbcaf2cc8d4479e355d206",
      "title": "Bayesian Feature Extraction for Two-Part Latent Variable Model with Polytomous Manifestations",
      "venue": "Mathematics",
      "year": 2024,
      "referenceCount": 55,
      "citationCount": 0,
      "authors": [
        {
          "authorId": "2145908582",
          "name": "Qi Zhang"
        },
        {
          "authorId": "2340660076",
          "name": "Yihui Zhang"
        },
        {
          "authorId": "2256029686",
          "name": "Yemao Xia"
        }
      ]
    },
    {
      "paperId": "c033e85d9010c9ef5922b78cce1c2f1e0304513d",
      "externalIds": {
        "MAG": "2100908096",
        "CorpusId": 122514937
      },
      "url": "https://www.semanticscholar.org/paper/c033e85d9010c9ef5922b78cce1c2f1e0304513d",
      "title": "Fused Lasso Latent Feature Model",
      "venue": "",
      "year": 2015,
      "referenceCount": 0,
      "citationCount": 0,
      "authors": [
        {
          "authorId": "29696767",
          "name": "G. Nowak"
        },
        {
          "authorId": "1784682",
          "name": "T. Hastie"
        },
        {
          "authorId": "3119165",
          "name": "J. Pollack"
        },
        {
          "authorId": "1761784",
          "name": "R. Tibshirani"
        },
        {
          "authorId": "2069627117",
          "name": "Nicholas Johnson"
        }
      ]
    },
    {
      "paperId": "50b2ad6be0f56fb052e85b514fb51de7672c4ef9",
      "externalIds": {
        "MAG": "2160299056",
        "DOI": "10.1093/biostatistics/kxr012",
        "CorpusId": 7095851,
        "PubMed": "21642389"
      },
      "url": "https://www.semanticscholar.org/paper/50b2ad6be0f56fb052e85b514fb51de7672c4ef9",
      "title": "A fused lasso latent feature model for analyzing multi-sample aCGH data.",
      "venue": "Biostatistics",
      "year": 2011,
      "referenceCount": 29,
      "citationCount": 73,
      "authors": [
        {
          "authorId": "29696767",
          "name": "G. Nowak"
        },
        {
          "authorId": "1784682",
          "name": "T. Hastie"
        },
        {
          "authorId": "3119165",
          "name": "J. Pollack"
        },
        {
          "authorId": "1761784",
          "name": "R. Tibshirani"
        }
      ]
    },
    {
      "paperId": "d3a5394bcb959fca5611a787185d14c429075ae4",
      "externalIds": {
        "MAG": "3083035198",
        "DBLP": "journals/apin/OyedotunSAO21",
        "DOI": "10.1007/s10489-020-01858-2",
        "CorpusId": 225257208
      },
      "url": "https://www.semanticscholar.org/paper/d3a5394bcb959fca5611a787185d14c429075ae4",
      "title": "Deep network compression with teacher latent subspace learning and LASSO",
      "venue": "Applied intelligence (Boston)",
      "year": 2020,
      "referenceCount": 68,
      "citationCount": 10,
      "authors": [
        {
          "authorId": "3412876",
          "name": "O. Oyedotun"
        },
        {
          "authorId": "2104466",
          "name": "Abd El Rahman Shabayek"
        },
        {
          "authorId": "2949307",
          "name": "D. Aouada"
        },
        {
          "authorId": "145303200",
          "name": "B. Ottersten"
        }
      ]
    },
    {
      "paperId": "440c96bb388f84288df1050465b45f51118e4f50",
      "externalIds": {
        "DOI": "10.1002/sim.8972",
        "CorpusId": 233036869,
        "PubMed": "33819928"
      },
      "url": "https://www.semanticscholar.org/paper/440c96bb388f84288df1050465b45f51118e4f50",
      "title": "Inferring latent heterogeneity using many feature variables supervised by survival outcome",
      "venue": "Statistics in Medicine",
      "year": 2021,
      "referenceCount": 32,
      "citationCount": 2,
      "authors": [
        {
          "authorId": "66683128",
          "name": "Beilin Jia"
        },
        {
          "authorId": "145810704",
          "name": "D. Zeng"
        },
        {
          "authorId": "1705433",
          "name": "Jason J. Z. Liao"
        },
        {
          "authorId": "4854605",
          "name": "G. Liu"
        },
        {
          "authorId": "49902260",
          "name": "Xianming Tan"
        },
        {
          "authorId": "4735397",
          "name": "G. Diao"
        },
        {
          "authorId": "143851593",
          "name": "J. Ibrahim"
        }
      ]
    },
    {
      "paperId": "a9239da2e2bdc4d40e0065441568859d0794134d",
      "externalIds": {
        "PubMedCentral": "12101067",
        "DOI": "10.3389/fmicb.2025.1584360",
        "CorpusId": 278462694,
        "PubMed": "40415930"
      },
      "url": "https://www.semanticscholar.org/paper/a9239da2e2bdc4d40e0065441568859d0794134d",
      "title": "Genome-wide expression in human whole blood for diagnosis of latent tuberculosis infection: a multicohort research",
      "venue": "Frontiers in Microbiology",
      "year": 2025,
      "referenceCount": 48,
      "citationCount": 6,
      "authors": [
        {
          "authorId": "2361477146",
          "name": "Fan Jiang"
        },
        {
          "authorId": "2360070185",
          "name": "Yanhua Liu"
        },
        {
          "authorId": "2226670860",
          "name": "Linsheng Li"
        },
        {
          "authorId": "2329016751",
          "name": "Ruizi Ni"
        },
        {
          "authorId": "2330166197",
          "name": "Yajing An"
        },
        {
          "authorId": "2334702029",
          "name": "Yufeng Li"
        },
        {
          "authorId": "2360184382",
          "name": "Lingxia Zhang"
        },
        {
          "authorId": "2268354914",
          "name": "Wenping Gong"
        }
      ]
    },
    {
      "paperId": "efd61896ca80d75eacdfd263cdf9081f126fbf44",
      "externalIds": {
        "PubMedCentral": "12225120",
        "DOI": "10.1186/s12872-025-04786-6",
        "CorpusId": 279895403,
        "PubMed": "40610930"
      },
      "url": "https://www.semanticscholar.org/paper/efd61896ca80d75eacdfd263cdf9081f126fbf44",
      "title": "Predicting carotid atherosclerosis in latent autoimmune diabetes in adult patients using machine learning models: a retrospective study",
      "venue": "BMC Cardiovascular Disorders",
      "year": 2025,
      "referenceCount": 33,
      "citationCount": 2,
      "authors": [
        {
          "authorId": "2366786877",
          "name": "Xiaoqin Chen"
        },
        {
          "authorId": "2327205400",
          "name": "Zhitong Li"
        },
        {
          "authorId": "46515824",
          "name": "Xiaoying Fan"
        },
        {
          "authorId": "2370392210",
          "name": "Yuanyuan Yan"
        },
        {
          "authorId": "2328049015",
          "name": "Shiwei Liu"
        }
      ]
    },
    {
      "paperId": "887a86fe7ea42dbbe2208c9352439af41e9f945a",
      "externalIds": {
        "PubMedCentral": "11794267",
        "DBLP": "journals/frai/NayabWKAIGS25",
        "DOI": "10.3389/frai.2025.1506042",
        "CorpusId": 275846868,
        "PubMed": "39911182"
      },
      "url": "https://www.semanticscholar.org/paper/887a86fe7ea42dbbe2208c9352439af41e9f945a",
      "title": "Gaussian process latent variable models-ANN based method for automatic features selection and dimensionality reduction for control of EMG-driven systems",
      "venue": "Frontiers Artif. Intell.",
      "year": 2025,
      "referenceCount": 34,
      "citationCount": 3,
      "authors": [
        {
          "authorId": "2268068573",
          "name": "Maham Nayab"
        },
        {
          "authorId": "40989721",
          "name": "A. Waris"
        },
        {
          "authorId": "2341842243",
          "name": "Muhammad Jawad Khan"
        },
        {
          "authorId": "2120320133",
          "name": "Dokhyl Alqahtani"
        },
        {
          "authorId": "2310337907",
          "name": "Ahmed Imran"
        },
        {
          "authorId": "2237420123",
          "name": "Syed Omer Gilani"
        },
        {
          "authorId": "2266462235",
          "name": "Umer Hameed Shah"
        }
      ]
    }
  ]
}