{
  "total": 329,
  "offset": 0,
  "next": 10,
  "data": [
    {
      "paperId": "d4893f7b4d0adbbfd2b3025df3502ab7e902dd79",
      "externalIds": {
        "MAG": "2728139190",
        "DBLP": "conf/icml/CutajarBMF17",
        "ArXiv": "1610.04386",
        "CorpusId": 3226820
      },
      "url": "https://www.semanticscholar.org/paper/d4893f7b4d0adbbfd2b3025df3502ab7e902dd79",
      "title": "Random Feature Expansions for Deep Gaussian Processes",
      "venue": "International Conference on Machine Learning",
      "year": 2016,
      "referenceCount": 45,
      "citationCount": 150,
      "authors": [
        {
          "authorId": "3428811",
          "name": "Kurt Cutajar"
        },
        {
          "authorId": "30561807",
          "name": "Edwin V. Bonilla"
        },
        {
          "authorId": "143822502",
          "name": "Pietro Michiardi"
        },
        {
          "authorId": "3138895",
          "name": "M. Filippone"
        }
      ]
    },
    {
      "paperId": "303170b5f9f3bde4dee5ff3bac2352f0e6fd6011",
      "externalIds": {
        "CorpusId": 208345838
      },
      "url": "https://www.semanticscholar.org/paper/303170b5f9f3bde4dee5ff3bac2352f0e6fd6011",
      "title": "Supplementary Material Random Feature Expansions for Deep Gaussian Processes",
      "venue": "",
      "year": 2017,
      "referenceCount": 0,
      "citationCount": 4,
      "authors": []
    },
    {
      "paperId": "b3826a88b2e68d740bc69758889f53597e04daf8",
      "externalIds": {
        "MAG": "3033147585",
        "CorpusId": 219179397
      },
      "url": "https://www.semanticscholar.org/paper/b3826a88b2e68d740bc69758889f53597e04daf8",
      "title": "Scalable Gaussian Processes, with Guarantees: Kernel Approximations and Deep Feature Extraction",
      "venue": "",
      "year": 2020,
      "referenceCount": 48,
      "citationCount": 2,
      "authors": [
        {
          "authorId": "3806712",
          "name": "C. Daskalakis"
        },
        {
          "authorId": "2265630",
          "name": "P. Dellaportas"
        },
        {
          "authorId": "51116423",
          "name": "A. Panos"
        }
      ]
    },
    {
      "paperId": "b5f0a96f3232e54cf3022c2052c263d296b2ddd5",
      "externalIds": {
        "ArXiv": "2412.11350",
        "DBLP": "journals/corr/abs-2412-11350",
        "DOI": "10.48550/arXiv.2412.11350",
        "CorpusId": 274777289
      },
      "url": "https://www.semanticscholar.org/paper/b5f0a96f3232e54cf3022c2052c263d296b2ddd5",
      "title": "Deep Random Features for Scalable Interpolation of Spatiotemporal Data",
      "venue": "arXiv.org",
      "year": 2024,
      "referenceCount": 0,
      "citationCount": 8,
      "authors": [
        {
          "authorId": "2311087303",
          "name": "Weibin Chen"
        },
        {
          "authorId": "2335570918",
          "name": "Azhir Mahmood"
        },
        {
          "authorId": "2315224413",
          "name": "Michel Tsamados"
        },
        {
          "authorId": "2311039895",
          "name": "So Takao"
        }
      ]
    },
    {
      "paperId": "d688406f94d3f5c874a904a34c561c3769d66bc2",
      "externalIds": {
        "DBLP": "journals/corr/abs-2405-17262",
        "ArXiv": "2405.17262",
        "DOI": "10.1109/LGRS.2024.3398689",
        "CorpusId": 269695428
      },
      "url": "https://www.semanticscholar.org/paper/d688406f94d3f5c874a904a34c561c3769d66bc2",
      "title": "Deep Feature Gaussian Processes for Single-Scene Aerosol Optical Depth Reconstruction",
      "venue": "IEEE Geoscience and Remote Sensing Letters",
      "year": 2024,
      "referenceCount": 28,
      "citationCount": 6,
      "authors": [
        {
          "authorId": "47129852",
          "name": "Shengjie Kris Liu"
        },
        {
          "authorId": "2300992072",
          "name": "Lu Zhang"
        }
      ]
    },
    {
      "paperId": "04b23614ec91756e68f1f5eb818c83c8a7b0f881",
      "externalIds": {
        "DBLP": "journals/corr/abs-2203-07411",
        "ArXiv": "2203.07411",
        "DOI": "10.48550/arXiv.2203.07411",
        "CorpusId": 247450915
      },
      "url": "https://www.semanticscholar.org/paper/04b23614ec91756e68f1f5eb818c83c8a7b0f881",
      "title": "On Connecting Deep Trigonometric Networks with Deep Gaussian Processes: Covariance, Expressivity, and Neural Tangent Kernel",
      "venue": "arXiv.org",
      "year": 2022,
      "referenceCount": 72,
      "citationCount": 1,
      "authors": [
        {
          "authorId": "10050563",
          "name": "Chi-Ken Lu"
        },
        {
          "authorId": "3210220",
          "name": "Patrick Shafto"
        }
      ]
    },
    {
      "paperId": "e56321d58b017811987888125c22f5b992b125e5",
      "externalIds": {
        "ArXiv": "2506.17153",
        "CorpusId": 279464433
      },
      "url": "https://www.semanticscholar.org/paper/e56321d58b017811987888125c22f5b992b125e5",
      "title": "Profile monitoring of random functions with Gaussian process basis expansions",
      "venue": "",
      "year": 2025,
      "referenceCount": 23,
      "citationCount": 0,
      "authors": [
        {
          "authorId": "19255373",
          "name": "Takayuki Iguchi"
        },
        {
          "authorId": "2297373307",
          "name": "Jonathan R. Stewart"
        },
        {
          "authorId": "2367735771",
          "name": "Eric Chicken"
        }
      ]
    },
    {
      "paperId": "438029a7d1bf237df60dc73f25b04335f0ab5435",
      "externalIds": {
        "ArXiv": "2507.04753",
        "CorpusId": 280147405
      },
      "url": "https://www.semanticscholar.org/paper/438029a7d1bf237df60dc73f25b04335f0ab5435",
      "title": "Critical Point Processes Obtained from a Gaussian Random Field with a View Towards Statistics",
      "venue": "",
      "year": 2025,
      "referenceCount": 0,
      "citationCount": 0,
      "authors": [
        {
          "authorId": "2239491973",
          "name": "J. Chevallier"
        },
        {
          "authorId": "3199913",
          "name": "Jean‐François Coeurjolly"
        },
        {
          "authorId": "89646593",
          "name": "R. Waagepetersen"
        }
      ]
    },
    {
      "paperId": "6962107248ea86a109e3c7a151d69b118d463ed2",
      "externalIds": {
        "DBLP": "journals/corr/abs-2110-00568",
        "ArXiv": "2110.00568",
        "PubMedCentral": "8618322",
        "DOI": "10.3390/e23111387",
        "CorpusId": 238253081,
        "PubMed": "34828085"
      },
      "url": "https://www.semanticscholar.org/paper/6962107248ea86a109e3c7a151d69b118d463ed2",
      "title": "Conditional Deep Gaussian Processes: Empirical Bayes Hyperdata Learning",
      "venue": "Entropy",
      "year": 2021,
      "referenceCount": 59,
      "citationCount": 5,
      "authors": [
        {
          "authorId": "10050563",
          "name": "Chi-Ken Lu"
        },
        {
          "authorId": "3210220",
          "name": "Patrick Shafto"
        }
      ]
    },
    {
      "paperId": "b47b41bb9ae3c7759686a7856610acf81c81a092",
      "externalIds": {
        "DBLP": "phd/hal/Tran20b",
        "DOI": "10.70675/e9163c07z1f0bz4ff2z8c53z17721e5bee8c",
        "CorpusId": 256276490
      },
      "url": "https://www.semanticscholar.org/paper/b47b41bb9ae3c7759686a7856610acf81c81a092",
      "title": "Advances in Deep Gaussian Processes: calibration and sparsification. (Avancées dans les Deep Gaussian Processes: étalonnage et sparsification)",
      "venue": "",
      "year": 2020,
      "referenceCount": 0,
      "citationCount": 0,
      "authors": [
        {
          "authorId": "46206886",
          "name": "Gia-Lac Tran"
        }
      ]
    }
  ]
}