{
  "total": 1562,
  "offset": 0,
  "next": 10,
  "data": [
    {
      "paperId": "54827d4d3cd702f14fb37f97096d577e95f41956",
      "externalIds": {
        "DBLP": "conf/icml/ColomboV16",
        "MAG": "2436947622",
        "CorpusId": 16999918
      },
      "url": "https://www.semanticscholar.org/paper/54827d4d3cd702f14fb37f97096d577e95f41956",
      "title": "Tensor Decomposition via Joint Matrix Schur Decomposition",
      "venue": "International Conference on Machine Learning",
      "year": 2016,
      "referenceCount": 34,
      "citationCount": 18,
      "authors": [
        {
          "authorId": "2354175",
          "name": "Nicolò Colombo"
        },
        {
          "authorId": "31651045",
          "name": "N. Vlassis"
        }
      ]
    },
    {
      "paperId": "0cceffaa61058d7a6d3e3b56e562de4b846f2c44",
      "externalIds": {
        "DOI": "10.1088/1367-2630/ada573",
        "CorpusId": 275317102
      },
      "url": "https://www.semanticscholar.org/paper/0cceffaa61058d7a6d3e3b56e562de4b846f2c44",
      "title": "Detecting memberships in multiplex networks via nonnegative matrix factorization and tensor decomposition",
      "venue": "New Journal of Physics",
      "year": 2025,
      "referenceCount": 47,
      "citationCount": 3,
      "authors": [
        {
          "authorId": "13263719",
          "name": "Fengqin Tang"
        },
        {
          "authorId": "2296233832",
          "name": "Xiaozong Wang"
        },
        {
          "authorId": "2296039113",
          "name": "Xuejing Zhao"
        },
        {
          "authorId": "2108679224",
          "name": "Chunning Wang"
        }
      ]
    },
    {
      "paperId": "f569bea057e33883a4b3fb7c0ed61a245a08f484",
      "externalIds": {
        "DBLP": "journals/wcl/ChenLL26",
        "DOI": "10.1109/LWC.2026.3667790",
        "CorpusId": 286112563
      },
      "url": "https://www.semanticscholar.org/paper/f569bea057e33883a4b3fb7c0ed61a245a08f484",
      "title": "Pairwise Base Station Synchronization via Joint Tensor Decomposition for Networked ISAC",
      "venue": "IEEE Wireless Communications Letters",
      "year": 2026,
      "referenceCount": 16,
      "citationCount": 0,
      "authors": [
        {
          "authorId": "2361332854",
          "name": "Lin Chen"
        },
        {
          "authorId": "2262546847",
          "name": "Yifan Liang"
        },
        {
          "authorId": "2167226340",
          "name": "Hongbin Li"
        }
      ]
    },
    {
      "paperId": "a943c1a53f82c89faf934bc0b9031073d769f45f",
      "externalIds": {
        "ArXiv": "2506.22564",
        "DBLP": "journals/corr/abs-2506-22564",
        "DOI": "10.48550/arXiv.2506.22564",
        "CorpusId": 280016144
      },
      "url": "https://www.semanticscholar.org/paper/a943c1a53f82c89faf934bc0b9031073d769f45f",
      "title": "Efficient Tensor Decomposition via Moment Matrix Extension",
      "venue": "arXiv.org",
      "year": 2025,
      "referenceCount": 0,
      "citationCount": 2,
      "authors": [
        {
          "authorId": "2150089036",
          "name": "Bobby Shi"
        },
        {
          "authorId": "2071114857",
          "name": "J. Lindberg"
        },
        {
          "authorId": "2614183",
          "name": "Joe Kileel"
        }
      ]
    },
    {
      "paperId": "1d06b4c0a13cb1290bab5dd6bbe739f00a31740b",
      "externalIds": {
        "DBLP": "journals/tbe/BelyaevaGWWCSA24",
        "DOI": "10.1109/TBME.2024.3364704",
        "CorpusId": 267632706,
        "PubMed": "38345949"
      },
      "url": "https://www.semanticscholar.org/paper/1d06b4c0a13cb1290bab5dd6bbe739f00a31740b",
      "title": "Learning Spatiotemporal Brain Dynamics in Adolescents via Multimodal MEG and fMRI Data Fusion Using Joint Tensor/Matrix Decomposition",
      "venue": "IEEE Transactions on Biomedical Engineering",
      "year": 2024,
      "referenceCount": 68,
      "citationCount": 8,
      "authors": [
        {
          "authorId": "2182524953",
          "name": "I. Belyaeva"
        },
        {
          "authorId": "51291191",
          "name": "B. Gabrielson"
        },
        {
          "authorId": "2143488876",
          "name": "Yu-Ping Wang"
        },
        {
          "authorId": "2251991894",
          "name": "T. W. Wilson"
        },
        {
          "authorId": "2132419393",
          "name": "V. Calhoun"
        },
        {
          "authorId": "2256549595",
          "name": "J. Stephen"
        },
        {
          "authorId": "2250532741",
          "name": "T. Adalı"
        }
      ]
    },
    {
      "paperId": "3a65edcf672057a8daadec6602b11e218652d25b",
      "externalIds": {
        "DOI": "10.71129/ijaci.v1.i1.pp39-47",
        "CorpusId": 277868193
      },
      "url": "https://www.semanticscholar.org/paper/3a65edcf672057a8daadec6602b11e218652d25b",
      "title": "Robust Color Image Watermarking Using Dual Embedding via Schur Decomposition",
      "venue": "IJACI : International Journal of Advanced Computing and Informatics",
      "year": 2025,
      "referenceCount": 25,
      "citationCount": 29,
      "authors": [
        {
          "authorId": "2071806851",
          "name": "Ridwan Ridwan"
        },
        {
          "authorId": "2355925690",
          "name": "Muhammad Nomani Kabir"
        }
      ]
    },
    {
      "paperId": "39e2439ea7c60f6737d788a29a790e5cc1d89399",
      "externalIds": {
        "ArXiv": "2403.18320",
        "DBLP": "journals/jmlr/LuanSW025",
        "CorpusId": 268723994
      },
      "url": "https://www.semanticscholar.org/paper/39e2439ea7c60f6737d788a29a790e5cc1d89399",
      "title": "Efficient Online Prediction for High-Dimensional Time Series via Joint Tensor Tucker Decomposition",
      "venue": "Journal of machine learning research",
      "year": 2024,
      "referenceCount": 29,
      "citationCount": 1,
      "authors": [
        {
          "authorId": "103535787",
          "name": "Zhenting Luan"
        },
        {
          "authorId": "2294511756",
          "name": "Defeng Sun"
        },
        {
          "authorId": "2321032098",
          "name": "Haoning Wang"
        },
        {
          "authorId": "2290028849",
          "name": "Liping Zhang"
        }
      ]
    },
    {
      "paperId": "71e47ef2fef2a613288da1b51ba40d3759c4db8c",
      "externalIds": {
        "DBLP": "journals/spl/EvertVL22",
        "ArXiv": "2202.11414",
        "DOI": "10.1109/lsp.2022.3156870",
        "CorpusId": 247058708
      },
      "url": "https://www.semanticscholar.org/paper/71e47ef2fef2a613288da1b51ba40d3759c4db8c",
      "title": "Canonical Polyadic Decomposition via the Generalized Schur Decomposition",
      "venue": "IEEE Signal Processing Letters",
      "year": 2022,
      "referenceCount": 22,
      "citationCount": 9,
      "authors": [
        {
          "authorId": "102426865",
          "name": "Eric Evert"
        },
        {
          "authorId": "28057788",
          "name": "Michiel Vandecappelle"
        },
        {
          "authorId": "119978119",
          "name": "L. De Lathauwer"
        }
      ]
    },
    {
      "paperId": "ad7b5f0117f8dfea366a16687cf7f31380cf03da",
      "externalIds": {
        "DBLP": "journals/corr/abs-2411-14344",
        "ArXiv": "2411.14344",
        "DOI": "10.1109/FOCS63196.2025.00098",
        "CorpusId": 274166100
      },
      "url": "https://www.semanticscholar.org/paper/ad7b5f0117f8dfea366a16687cf7f31380cf03da",
      "title": "Overcomplete Tensor Decomposition via Koszul-Young Flattenings",
      "venue": "IEEE Annual Symposium on Foundations of Computer Science",
      "year": 2024,
      "referenceCount": 70,
      "citationCount": 4,
      "authors": [
        {
          "authorId": "2249763939",
          "name": "Pravesh K. Kothari"
        },
        {
          "authorId": "2286516261",
          "name": "Ankur Moitra"
        },
        {
          "authorId": "2298785031",
          "name": "Alex Wein"
        }
      ]
    },
    {
      "paperId": "cfbc13494d515b023a6cd38b508615e65aab1ff0",
      "externalIds": {
        "ArXiv": "2511.00169",
        "CorpusId": 282739750
      },
      "url": "https://www.semanticscholar.org/paper/cfbc13494d515b023a6cd38b508615e65aab1ff0",
      "title": "Lowering operators, orthogonal decomposition of tensor space, and quantized Schur--Weyl duality",
      "venue": "",
      "year": 2025,
      "referenceCount": 35,
      "citationCount": 0,
      "authors": [
        {
          "authorId": "2310032748",
          "name": "Stephen Doty"
        },
        {
          "authorId": "46180423",
          "name": "A. Giaquinto"
        },
        {
          "authorId": "2287805538",
          "name": "Stuart Martin"
        }
      ]
    }
  ]
}