{
  "total": 22175,
  "offset": 0,
  "next": 10,
  "data": [
    {
      "paperId": "88caa4a0253a8b0076176745ebc072864eab66e1",
      "externalIds": {
        "MAG": "2567070169",
        "DBLP": "conf/icml/DauphinFAG17",
        "ArXiv": "1612.08083",
        "CorpusId": 16119010
      },
      "url": "https://www.semanticscholar.org/paper/88caa4a0253a8b0076176745ebc072864eab66e1",
      "title": "Language Modeling with Gated Convolutional Networks",
      "venue": "International Conference on Machine Learning",
      "year": 2016,
      "referenceCount": 36,
      "citationCount": 2818,
      "authors": [
        {
          "authorId": "2921469",
          "name": "Yann Dauphin"
        },
        {
          "authorId": "144270981",
          "name": "Angela Fan"
        },
        {
          "authorId": "2325985",
          "name": "Michael Auli"
        },
        {
          "authorId": "2529182",
          "name": "David Grangier"
        }
      ]
    },
    {
      "paperId": "285b4f3a506af82e588be7873fb89f4e3a3d64f1",
      "externalIds": {
        "DOI": "10.55640/ijidml-v02i04-02",
        "CorpusId": 279889943
      },
      "url": "https://www.semanticscholar.org/paper/285b4f3a506af82e588be7873fb89f4e3a3d64f1",
      "title": "HYBRID DEEP LEARNING FOR TEXT CLASSIFICATION: INTEGRATING BIDIRECTIONAL GATED RECURRENT UNITS WITH CONVOLUTIONAL NEURAL NETWORKS",
      "venue": "International Journal of Intelligent Data and Machine Learning",
      "year": 2025,
      "referenceCount": 0,
      "citationCount": 0,
      "authors": [
        {
          "authorId": "49123811",
          "name": "Yuki Nakamura"
        },
        {
          "authorId": "2370039057",
          "name": "Isabella Romano"
        }
      ]
    },
    {
      "paperId": "e0c0757b89febf882248ed1bc7ca9c63764d66cb",
      "externalIds": {
        "DBLP": "journals/corr/abs-1905-06906",
        "MAG": "2950527603",
        "ArXiv": "1905.06906",
        "DOI": "10.1007/978-3-030-23281-8_10",
        "CorpusId": 155099836
      },
      "url": "https://www.semanticscholar.org/paper/e0c0757b89febf882248ed1bc7ca9c63764d66cb",
      "title": "Gated Convolutional Neural Networks for Domain Adaptation",
      "venue": "International Conference on Applications of Natural Language to Data Bases",
      "year": 2019,
      "referenceCount": 31,
      "citationCount": 11,
      "authors": [
        {
          "authorId": "115098946",
          "name": "Avinash Madasu"
        },
        {
          "authorId": "51117195",
          "name": "Anvesh Rao Vijjini"
        }
      ]
    },
    {
      "paperId": "995ee45cab1d95eeb62496274d34ea30bb97ff77",
      "externalIds": {
        "MAG": "3167698605",
        "DBLP": "journals/talip/QuamerJRSPK21",
        "DOI": "10.1145/3426884",
        "CorpusId": 236236759
      },
      "url": "https://www.semanticscholar.org/paper/995ee45cab1d95eeb62496274d34ea30bb97ff77",
      "title": "SACNN: Self-attentive Convolutional Neural Network Model for Natural Language Inference",
      "venue": "ACM Trans. Asian Low Resour. Lang. Inf. Process.",
      "year": 2021,
      "referenceCount": 61,
      "citationCount": 10,
      "authors": [
        {
          "authorId": "121629466",
          "name": "Waris Quamer"
        },
        {
          "authorId": "152809910",
          "name": "P. Jain"
        },
        {
          "authorId": "2120475806",
          "name": "Arpit Rai"
        },
        {
          "authorId": "47954042",
          "name": "Vijayalakshmi Saravanan"
        },
        {
          "authorId": "3442345",
          "name": "R. Pamula"
        },
        {
          "authorId": "145915876",
          "name": "C. Kumar"
        }
      ]
    },
    {
      "paperId": "548c027bb5c286128ad8448a3f8f608e08fd391c",
      "externalIds": {
        "DOI": "10.1109/ICIC68054.2025.11309413",
        "CorpusId": 284357196
      },
      "url": "https://www.semanticscholar.org/paper/548c027bb5c286128ad8448a3f8f608e08fd391c",
      "title": "Performance Analysis of GRU, LSTM, and RNN for BISINDO Sign Language Recognition",
      "venue": "International Conference on Intelligent Computing",
      "year": 2025,
      "referenceCount": 37,
      "citationCount": 0,
      "authors": [
        {
          "authorId": "9013120",
          "name": "Khodijah Hulliyah"
        },
        {
          "authorId": "2401887938",
          "name": "Khukuh Prihatmiko"
        },
        {
          "authorId": "2083736295",
          "name": "Fitri Mintarsih"
        },
        {
          "authorId": "2289371007",
          "name": "Juri Pebrianto"
        }
      ]
    },
    {
      "paperId": "7a65146cfa7a98cf8551d7c689024a994b5dd573",
      "externalIds": {
        "DBLP": "journals/jcisd/ZahidMCT26",
        "DOI": "10.1021/acs.jcim.5c02885",
        "CorpusId": 286000093,
        "PubMed": "41731742"
      },
      "url": "https://www.semanticscholar.org/paper/7a65146cfa7a98cf8551d7c689024a994b5dd573",
      "title": "PeptideNet: An Integrative Deep Learning Framework for Predicting Diverse Bioactive Peptides Using Protein Language Model Embeddings",
      "venue": "Journal of Chemical Information and Modeling",
      "year": 2026,
      "referenceCount": 40,
      "citationCount": 0,
      "authors": [
        {
          "authorId": "2296687342",
          "name": "Hamza Zahid"
        },
        {
          "authorId": "2309294530",
          "name": "Maryam"
        },
        {
          "authorId": "1968184",
          "name": "K. Chong"
        },
        {
          "authorId": "8652102",
          "name": "Hilal Tayara"
        }
      ]
    },
    {
      "paperId": "546ab712cecf64c0de4740e75afb9a7b4eb2cfaa",
      "externalIds": {
        "DOI": "10.1109/ICEACE63551.2024.10898292",
        "CorpusId": 276775070
      },
      "url": "https://www.semanticscholar.org/paper/546ab712cecf64c0de4740e75afb9a7b4eb2cfaa",
      "title": "Research on text generation model based on natural language processing",
      "venue": "2024 IEEE 2nd International Conference on Electrical, Automation and Computer Engineering (ICEACE)",
      "year": 2024,
      "referenceCount": 25,
      "citationCount": 0,
      "authors": [
        {
          "authorId": "2348809113",
          "name": "Yichen Wang"
        }
      ]
    },
    {
      "paperId": "15bd828aa1129a515331680cda2fe9b8335bd624",
      "externalIds": {
        "MAG": "2998056598",
        "DBLP": "conf/ACISicis/LiuDWH19",
        "DOI": "10.1109/icis46139.2019.8940265",
        "CorpusId": 209496064
      },
      "url": "https://www.semanticscholar.org/paper/15bd828aa1129a515331680cda2fe9b8335bd624",
      "title": "Time Series Prediction Based on Temporal Convolutional Network",
      "venue": "International Conference on Interaction Sciences",
      "year": 2019,
      "referenceCount": 23,
      "citationCount": 64,
      "authors": [
        {
          "authorId": "2108241034",
          "name": "Yujie Liu"
        },
        {
          "authorId": "2488122",
          "name": "Hongbin Dong"
        },
        {
          "authorId": "47119311",
          "name": "Xingmei Wang"
        },
        {
          "authorId": "145298059",
          "name": "Shuang Han"
        }
      ]
    },
    {
      "paperId": "b653650e31c7fe5441ff471f8c12b9d80885b187",
      "externalIds": {
        "PubMedCentral": "9221033",
        "DOI": "10.3390/biom12060774",
        "CorpusId": 249332155,
        "PubMed": "35740899"
      },
      "url": "https://www.semanticscholar.org/paper/b653650e31c7fe5441ff471f8c12b9d80885b187",
      "title": "Deep Ensemble Learning with Atrous Spatial Pyramid Networks for Protein Secondary Structure Prediction",
      "venue": "Biomolecules",
      "year": 2022,
      "referenceCount": 56,
      "citationCount": 8,
      "authors": [
        {
          "authorId": "2030918757",
          "name": "Yuzhi Guo"
        },
        {
          "authorId": "2109159128",
          "name": "Jiaxiang Wu"
        },
        {
          "authorId": "51091763",
          "name": "Hehuan Ma"
        },
        {
          "authorId": "2151484950",
          "name": "Sheng Wang"
        },
        {
          "authorId": "1768190",
          "name": "Junzhou Huang"
        }
      ]
    },
    {
      "paperId": "bbac6f0a41fbd6c26e82dfebde837ce98b8f73c8",
      "externalIds": {
        "CorpusId": 236923944
      },
      "url": "https://www.semanticscholar.org/paper/bbac6f0a41fbd6c26e82dfebde837ce98b8f73c8",
      "title": "Gated Self-Attention for SQuAD Question Answering",
      "venue": "",
      "year": 2021,
      "referenceCount": 12,
      "citationCount": 0,
      "authors": [
        {
          "authorId": "145448038",
          "name": "Daniel Tse"
        }
      ]
    }
  ]
}