{
  "total": 22,
  "offset": 0,
  "next": 10,
  "data": [
    {
      "paperId": "b64185358bbe743635129b3462da481606bdbae8",
      "externalIds": {
        "MAG": "2950082003",
        "DBLP": "conf/icml/PaigeW16",
        "ArXiv": "1602.06701",
        "CorpusId": 6489933
      },
      "url": "https://www.semanticscholar.org/paper/b64185358bbe743635129b3462da481606bdbae8",
      "title": "Inference Networks for Sequential Monte Carlo in Graphical Models",
      "venue": "International Conference on Machine Learning",
      "year": 2016,
      "referenceCount": 41,
      "citationCount": 115,
      "authors": [
        {
          "authorId": "2885717",
          "name": "Brooks Paige"
        },
        {
          "authorId": "2347189",
          "name": "Frank D. Wood"
        }
      ]
    },
    {
      "paperId": "d6cd05f23834f44da3b183480f3111a3771fd3a4",
      "externalIds": {
        "MAG": "2191160061",
        "DBLP": "journals/tcbb/AncherbakKV16",
        "DOI": "10.1109/TCBB.2015.2496301",
        "CorpusId": 15758791,
        "PubMed": "26540693"
      },
      "url": "https://www.semanticscholar.org/paper/d6cd05f23834f44da3b183480f3111a3771fd3a4",
      "title": "Time-Dependent Gene Network Modelling by Sequential Monte Carlo",
      "venue": "IEEE/ACM Transactions on Computational Biology & Bioinformatics",
      "year": 2016,
      "referenceCount": 56,
      "citationCount": 17,
      "authors": [
        {
          "authorId": "8225008",
          "name": "S. Ancherbak"
        },
        {
          "authorId": "1691686",
          "name": "E. Kuruoglu"
        },
        {
          "authorId": "1738892",
          "name": "M. Vingron"
        }
      ]
    },
    {
      "paperId": "a7c215bd846aa131fc807f092eba7ab3acb99c89",
      "externalIds": {
        "MAG": "2105384460",
        "DBLP": "conf/eusipco/KoblentsM11",
        "CorpusId": 15926950
      },
      "url": "https://www.semanticscholar.org/paper/a7c215bd846aa131fc807f092eba7ab3acb99c89",
      "title": "A population Monte Carlo method for Bayesian inference and its application to stochastic kinetic models",
      "venue": "European Signal Processing Conference",
      "year": 2011,
      "referenceCount": 16,
      "citationCount": 3,
      "authors": [
        {
          "authorId": "2550603",
          "name": "E. Koblents"
        },
        {
          "authorId": "143686416",
          "name": "J. Míguez"
        }
      ]
    },
    {
      "paperId": "c5ceb3b47fe80ca39cfa34eed60c3fe26e16c2d2",
      "externalIds": {
        "MAG": "1520194733",
        "CorpusId": 730813
      },
      "url": "https://www.semanticscholar.org/paper/c5ceb3b47fe80ca39cfa34eed60c3fe26e16c2d2",
      "title": "Extending expectation propagation for graphical models",
      "venue": "",
      "year": 2005,
      "referenceCount": 79,
      "citationCount": 14,
      "authors": [
        {
          "authorId": "2114755206",
          "name": "Yuan Qi"
        },
        {
          "authorId": "1719389",
          "name": "Rosalind W. Picard"
        }
      ]
    },
    {
      "paperId": "a1b34f24280743347d13c03a8f46948baf0423a3",
      "externalIds": {
        "MAG": "2018987474",
        "DOI": "10.1007/s11044-014-9440-9",
        "CorpusId": 30789708
      },
      "url": "https://www.semanticscholar.org/paper/a1b34f24280743347d13c03a8f46948baf0423a3",
      "title": "Multibody dynamic systems as Bayesian networks: Applications to robust state estimation of mechanisms",
      "venue": "Multibody system dynamics",
      "year": 2014,
      "referenceCount": 54,
      "citationCount": 17,
      "authors": [
        {
          "authorId": "1403915856",
          "name": "J. Blanco-Claraco"
        },
        {
          "authorId": "1406734062",
          "name": "J. Torres-Moreno"
        },
        {
          "authorId": "146075184",
          "name": "A. Giménez-Fernández"
        }
      ]
    },
    {
      "paperId": "6183f4d18bb976cc28c24a89c1d09023bf9e123f",
      "externalIds": {
        "CorpusId": 14086664
      },
      "url": "https://www.semanticscholar.org/paper/6183f4d18bb976cc28c24a89c1d09023bf9e123f",
      "title": "Research Report 05-06 Construction and comparison of approximations for switching linear gaussian state space models",
      "venue": "",
      "year": null,
      "referenceCount": 21,
      "citationCount": 0,
      "authors": [
        {
          "authorId": "145617808",
          "name": "D. Barber"
        },
        {
          "authorId": "2947510",
          "name": "Bertrand Mesot"
        }
      ]
    },
    {
      "paperId": "1f816f0021efe42381fbeaacefe69ded4ed8c6aa",
      "externalIds": {
        "MAG": "1503969648",
        "CorpusId": 118043736
      },
      "url": "https://www.semanticscholar.org/paper/1f816f0021efe42381fbeaacefe69ded4ed8c6aa",
      "title": "Construction and comparison of approximations for switching linear gaussian state space models",
      "venue": "",
      "year": 2005,
      "referenceCount": 21,
      "citationCount": 3,
      "authors": [
        {
          "authorId": "145617808",
          "name": "D. Barber"
        }
      ]
    },
    {
      "paperId": "9e1d5b535fd608981a13dae8e8c3f4c62d5a244f",
      "externalIds": {
        "CorpusId": 14878559
      },
      "url": "https://www.semanticscholar.org/paper/9e1d5b535fd608981a13dae8e8c3f4c62d5a244f",
      "title": "05-06 Construction and comparison of approximations for switching linear gaussian state space models",
      "venue": "",
      "year": 2005,
      "referenceCount": 19,
      "citationCount": 1,
      "authors": [
        {
          "authorId": "145617808",
          "name": "D. Barber"
        },
        {
          "authorId": "2947510",
          "name": "Bertrand Mesot"
        }
      ]
    },
    {
      "paperId": "464a73073b77ee8f3971a391417a42977c4ad515",
      "externalIds": {
        "MAG": "2920848342",
        "DBLP": "journals/corr/abs-1903-04478",
        "ArXiv": "1903.04478",
        "CorpusId": 73728535
      },
      "url": "https://www.semanticscholar.org/paper/464a73073b77ee8f3971a391417a42977c4ad515",
      "title": "Bayesian Allocation Model: Inference by Sequential Monte Carlo for Nonnegative Tensor Factorizations and Topic Models using Polya Urns",
      "venue": "arXiv.org",
      "year": 2019,
      "referenceCount": 120,
      "citationCount": 6,
      "authors": [
        {
          "authorId": "9235290",
          "name": "Ali Taylan Cemgil"
        },
        {
          "authorId": "19232719",
          "name": "M. Burak Kurutmaz"
        },
        {
          "authorId": "1707467",
          "name": "S. Yıldırım"
        },
        {
          "authorId": "3377815",
          "name": "Melih Barsbey"
        },
        {
          "authorId": "1808437",
          "name": "Umut Simsekli"
        }
      ]
    },
    {
      "paperId": "ee3267555b3eb4334c1a69643d1ff893544956e5",
      "externalIds": {
        "PubMedCentral": "8668238",
        "DOI": "10.3389/fgene.2021.764020",
        "CorpusId": 241492171,
        "PubMed": "34912373"
      },
      "url": "https://www.semanticscholar.org/paper/ee3267555b3eb4334c1a69643d1ff893544956e5",
      "title": "Biological Network Inference With GRASP: A Bayesian Network Structure Learning Method Using Adaptive Sequential Monte Carlo",
      "venue": "Frontiers in Genetics",
      "year": 2021,
      "referenceCount": 57,
      "citationCount": 4,
      "authors": [
        {
          "authorId": "40452650",
          "name": "K. Yu"
        },
        {
          "authorId": "1943617922",
          "name": "Zihan Cui"
        },
        {
          "authorId": "1491499096",
          "name": "Xing Sui"
        },
        {
          "authorId": "145007292",
          "name": "Xing Qiu"
        },
        {
          "authorId": "49050568",
          "name": "Jinfeng Zhang"
        }
      ]
    }
  ]
}