{
  "total": 574,
  "offset": 0,
  "next": 10,
  "data": [
    {
      "paperId": "799448f7c31d69df7ec062bb9fdb034550b7ebf3",
      "externalIds": {
        "MAG": "2803736695",
        "DBLP": "conf/icml/RukatHY18",
        "CorpusId": 51877762
      },
      "url": "https://www.semanticscholar.org/paper/799448f7c31d69df7ec062bb9fdb034550b7ebf3",
      "title": "Probabilistic Boolean Tensor Decomposition",
      "venue": "International Conference on Machine Learning",
      "year": 2018,
      "referenceCount": 25,
      "citationCount": 19,
      "authors": [
        {
          "authorId": "4730639",
          "name": "Tammo Rukat"
        },
        {
          "authorId": "1815670",
          "name": "C. Holmes"
        },
        {
          "authorId": "47598013",
          "name": "C. Yau"
        }
      ]
    },
    {
      "paperId": "8ebafcfba95b79bb25c2e0a467bb9ad1947ec9aa",
      "externalIds": {
        "ArXiv": "1805.04582",
        "MAG": "2801521923",
        "DBLP": "journals/corr/abs-1805-04582",
        "CorpusId": 46890638
      },
      "url": "https://www.semanticscholar.org/paper/8ebafcfba95b79bb25c2e0a467bb9ad1947ec9aa",
      "title": "TensOrMachine: Probabilistic Boolean Tensor Decomposition",
      "venue": "arXiv.org",
      "year": 2018,
      "referenceCount": 26,
      "citationCount": 4,
      "authors": [
        {
          "authorId": "4730639",
          "name": "Tammo Rukat"
        },
        {
          "authorId": "1815670",
          "name": "C. Holmes"
        },
        {
          "authorId": "47598013",
          "name": "C. Yau"
        }
      ]
    },
    {
      "paperId": "43b18f3ae014459e726e850bcbcbb7b26b4b4dc1",
      "externalIds": {
        "MAG": "2777866073",
        "DBLP": "conf/icdt/KhamisNOS19",
        "ArXiv": "1712.07445",
        "DOI": "10.4230/LIPICS.ICDT.2019.21",
        "CorpusId": 26864118
      },
      "url": "https://www.semanticscholar.org/paper/43b18f3ae014459e726e850bcbcbb7b26b4b4dc1",
      "title": "Boolean Tensor Decomposition for Conjunctive Queries with Negation",
      "venue": "International Conference on Database Theory",
      "year": 2017,
      "referenceCount": 55,
      "citationCount": 22,
      "authors": [
        {
          "authorId": "31117574",
          "name": "Mahmoud Abo Khamis"
        },
        {
          "authorId": "144655602",
          "name": "H. Ngo"
        },
        {
          "authorId": "1756801",
          "name": "Dan Olteanu"
        },
        {
          "authorId": "144823759",
          "name": "Dan Suciu"
        }
      ]
    },
    {
      "paperId": "428ee2eb4c6a5b5ce01c9995769aef380c5505b3",
      "externalIds": {
        "MAG": "2954344550",
        "DOI": "10.1002/asjc.2166",
        "CorpusId": 198442330
      },
      "url": "https://www.semanticscholar.org/paper/428ee2eb4c6a5b5ce01c9995769aef380c5505b3",
      "title": "Bayesian selection probability estimation for probabilistic Boolean networks",
      "venue": "Asian journal of control",
      "year": 2019,
      "referenceCount": 35,
      "citationCount": 7,
      "authors": [
        {
          "authorId": "144979608",
          "name": "Mitsuru Toyoda"
        }
      ]
    },
    {
      "paperId": "14ff66681d16146c57de257d24d3c436db88d07f",
      "externalIds": {
        "CorpusId": 10239055
      },
      "url": "https://www.semanticscholar.org/paper/14ff66681d16146c57de257d24d3c436db88d07f",
      "title": "Decomposition of Probability Tables Representing Boolean Functions",
      "venue": "",
      "year": 2005,
      "referenceCount": 11,
      "citationCount": 1,
      "authors": [
        {
          "authorId": "2502524",
          "name": "Jirka Vomlel"
        }
      ]
    },
    {
      "paperId": "3374e94cf02d76f8f4e2e60d41b8ed99f2b59f1d",
      "externalIds": {
        "MAG": "3046305340",
        "ArXiv": "2007.15821",
        "DBLP": "conf/nips/WanCZCZ20",
        "CorpusId": 220919803
      },
      "url": "https://www.semanticscholar.org/paper/3374e94cf02d76f8f4e2e60d41b8ed99f2b59f1d",
      "title": "Geometric All-Way Boolean Tensor Decomposition",
      "venue": "Neural Information Processing Systems",
      "year": 2020,
      "referenceCount": 29,
      "citationCount": 5,
      "authors": [
        {
          "authorId": "40400896",
          "name": "Changlin Wan"
        },
        {
          "authorId": "151376282",
          "name": "Wennan Chang"
        },
        {
          "authorId": "2152225582",
          "name": "Tong Zhao"
        },
        {
          "authorId": "2302662",
          "name": "Sha Cao"
        },
        {
          "authorId": "1970080679",
          "name": "Chi Zhang"
        }
      ]
    },
    {
      "paperId": "9efa9096d807ef5a83972681da6917889b0fdf29",
      "externalIds": {
        "DOI": "10.1109/ISAS61044.2024.10552538",
        "CorpusId": 270492291
      },
      "url": "https://www.semanticscholar.org/paper/9efa9096d807ef5a83972681da6917889b0fdf29",
      "title": "Perturbation analysis for reachability and controllability of probabilistic Boolean control networks based on the semi-tensor product",
      "venue": "International Service Availability Symposium",
      "year": 2024,
      "referenceCount": 20,
      "citationCount": 0,
      "authors": [
        {
          "authorId": "2392368711",
          "name": "Yifei Zhang"
        },
        {
          "authorId": "2306346885",
          "name": "Yifeng Li"
        },
        {
          "authorId": "2220663182",
          "name": "Xuewen Liu"
        }
      ]
    },
    {
      "paperId": "43ee7f7a3f89a900692dbd34aa7a30a2a912d05c",
      "externalIds": {
        "DBLP": "journals/ijpr/WangZS26",
        "DOI": "10.1080/00207543.2025.2564273",
        "CorpusId": 281714132
      },
      "url": "https://www.semanticscholar.org/paper/43ee7f7a3f89a900692dbd34aa7a30a2a912d05c",
      "title": "Real-time monitoring of high-dimensional autocorrelated categorical data: a dynamic probabilistic tensor decomposition approach",
      "venue": "International Journal of Production Research",
      "year": 2025,
      "referenceCount": 45,
      "citationCount": 1,
      "authors": [
        {
          "authorId": "2326988613",
          "name": "Kai Wang"
        },
        {
          "authorId": "2326815166",
          "name": "Yutong Zhang"
        },
        {
          "authorId": "2261061693",
          "name": "Zhenli Song"
        }
      ]
    },
    {
      "paperId": "0f9ea579492b3a64dd2ebd02080dfd32a1d0bf5a",
      "externalIds": {
        "MAG": "2587524654",
        "CorpusId": 40380559
      },
      "url": "https://www.semanticscholar.org/paper/0f9ea579492b3a64dd2ebd02080dfd32a1d0bf5a",
      "title": "Boolean Tensor Decomposition based on the Walk'n'Merge Algorithm",
      "venue": "",
      "year": 2016,
      "referenceCount": 32,
      "citationCount": 0,
      "authors": [
        {
          "authorId": "50440200",
          "name": "H. Dombrowski"
        },
        {
          "authorId": "1804891",
          "name": "Pauli Miettinen"
        },
        {
          "authorId": "1751591",
          "name": "G. Weikum"
        }
      ]
    },
    {
      "paperId": "76fdaaf4211fe8eaf8881bfa2d361d2d1f84c394",
      "externalIds": {
        "DBLP": "conf/nips/TaoTZ23",
        "DOI": "10.52202/075280-1124",
        "CorpusId": 268042119
      },
      "url": "https://www.semanticscholar.org/paper/76fdaaf4211fe8eaf8881bfa2d361d2d1f84c394",
      "title": "Undirected Probabilistic Model for Tensor Decomposition",
      "venue": "Neural Information Processing Systems",
      "year": 2023,
      "referenceCount": 53,
      "citationCount": 6,
      "authors": [
        {
          "authorId": "2071416325",
          "name": "Zerui Tao"
        },
        {
          "authorId": "2262406245",
          "name": "Toshihisa Tanaka"
        },
        {
          "authorId": "2262402744",
          "name": "Qibin Zhao"
        }
      ]
    }
  ]
}