{
  "total": 100248,
  "offset": 0,
  "next": 10,
  "data": [
    {
      "paperId": "6b2db002cbc5312e4796de4d4b14573df2c01648",
      "externalIds": {
        "DBLP": "conf/icml/ZhaoSE17",
        "MAG": "2963664914",
        "CorpusId": 592386
      },
      "url": "https://www.semanticscholar.org/paper/6b2db002cbc5312e4796de4d4b14573df2c01648",
      "title": "Learning Hierarchical Features from Deep Generative Models",
      "venue": "International Conference on Machine Learning",
      "year": 2017,
      "referenceCount": 27,
      "citationCount": 109,
      "authors": [
        {
          "authorId": "3303970",
          "name": "Shengjia Zhao"
        },
        {
          "authorId": "51453887",
          "name": "Jiaming Song"
        },
        {
          "authorId": "2490652",
          "name": "Stefano Ermon"
        }
      ]
    },
    {
      "paperId": "657fca895e9217a0306739f8f58332c224b8a82e",
      "externalIds": {
        "ArXiv": "1702.08396",
        "DBLP": "journals/corr/ZhaoSE17",
        "MAG": "2591674338",
        "CorpusId": 5342684
      },
      "url": "https://www.semanticscholar.org/paper/657fca895e9217a0306739f8f58332c224b8a82e",
      "title": "Learning Hierarchical Features from Generative Models",
      "venue": "arXiv.org",
      "year": 2017,
      "referenceCount": 29,
      "citationCount": 77,
      "authors": [
        {
          "authorId": "3303970",
          "name": "Shengjia Zhao"
        },
        {
          "authorId": "51453887",
          "name": "Jiaming Song"
        },
        {
          "authorId": "2490652",
          "name": "Stefano Ermon"
        }
      ]
    },
    {
      "paperId": "c821af6bae146d53e9cacc039e235a2fd4eb2114",
      "externalIds": {
        "DOI": "10.1109/RMKMATE64874.2025.11042294",
        "CorpusId": 279596985
      },
      "url": "https://www.semanticscholar.org/paper/c821af6bae146d53e9cacc039e235a2fd4eb2114",
      "title": "Advanced Skin Lesion Classification Using Generative AI and Deep Learning Techniques",
      "venue": "2025 2nd International Conference on Research Methodologies in Knowledge Management, Artificial Intelligence and Telecommunication Engineering (RMKMATE)",
      "year": 2025,
      "referenceCount": 0,
      "citationCount": 0,
      "authors": [
        {
          "authorId": "2125712371",
          "name": "C. K"
        },
        {
          "authorId": "2394673040",
          "name": "B. M"
        },
        {
          "authorId": "2302587196",
          "name": "H. S"
        },
        {
          "authorId": "2277660343",
          "name": "Geetha C"
        }
      ]
    },
    {
      "paperId": "454a1624891563d461b0a84250e053082b8d4a5c",
      "externalIds": {
        "MAG": "2767598854",
        "DBLP": "conf/cikm/ZhengWWYJ17",
        "DOI": "10.1145/3132847.3132952",
        "CorpusId": 4966292
      },
      "url": "https://www.semanticscholar.org/paper/454a1624891563d461b0a84250e053082b8d4a5c",
      "title": "Sequence Modeling with Hierarchical Deep Generative Models with Dual Memory",
      "venue": "International Conference on Information and Knowledge Management",
      "year": 2017,
      "referenceCount": 43,
      "citationCount": 0,
      "authors": [
        {
          "authorId": "2111090780",
          "name": "Yanan Zheng"
        },
        {
          "authorId": "40650846",
          "name": "Lijie Wen"
        },
        {
          "authorId": "2016222572",
          "name": "Jianmin Wang"
        },
        {
          "authorId": "2112592519",
          "name": "Jun Yan"
        },
        {
          "authorId": "2106515742",
          "name": "Lei Ji"
        }
      ]
    },
    {
      "paperId": "3032b5bc24508bd626e1ce3ba75d4d0e78b2e251",
      "externalIds": {
        "ArXiv": "2510.27101",
        "DOI": "10.1016/j.buildenv.2026.114354",
        "CorpusId": 282719346
      },
      "url": "https://www.semanticscholar.org/paper/3032b5bc24508bd626e1ce3ba75d4d0e78b2e251",
      "title": "A Hierarchical Deep Learning Model for Predicting Pedestrian-Level Urban Winds",
      "venue": "Building and Environment",
      "year": 2025,
      "referenceCount": 58,
      "citationCount": 1,
      "authors": [
        {
          "authorId": "100849634",
          "name": "Reda Snaiki"
        },
        {
          "authorId": "2256212825",
          "name": "Jiachen Lu"
        },
        {
          "authorId": "2308785264",
          "name": "Shaopeng Li"
        },
        {
          "authorId": "6647471",
          "name": "Negin Nazarian"
        }
      ]
    },
    {
      "paperId": "5fa7f84cc4ab736cce170e535d57cce5fd578e0d",
      "externalIds": {
        "DBLP": "journals/corr/abs-2202-07586",
        "ArXiv": "2202.07586",
        "CorpusId": 246863460
      },
      "url": "https://www.semanticscholar.org/paper/5fa7f84cc4ab736cce170e535d57cce5fd578e0d",
      "title": "Deep Generative model with Hierarchical Latent Factors for Time Series Anomaly Detection",
      "venue": "International Conference on Artificial Intelligence and Statistics",
      "year": 2022,
      "referenceCount": 27,
      "citationCount": 33,
      "authors": [
        {
          "authorId": "51889528",
          "name": "Cristian Challu"
        },
        {
          "authorId": "2154574371",
          "name": "Peihong Jiang"
        },
        {
          "authorId": "39092098",
          "name": "Y. Wu"
        },
        {
          "authorId": "11788397",
          "name": "Laurent Callot"
        }
      ]
    },
    {
      "paperId": "caa3525103be9a9aaa30b3ea722e9e49530a568e",
      "externalIds": {
        "DOI": "10.1109/JSEN.2023.3290163",
        "CorpusId": 259631382
      },
      "url": "https://www.semanticscholar.org/paper/caa3525103be9a9aaa30b3ea722e9e49530a568e",
      "title": "Multiscale Dynamic Feature Learning for Quality Prediction Based on Hierarchical Sequential Generative Network",
      "venue": "IEEE Sensors Journal",
      "year": 2023,
      "referenceCount": 35,
      "citationCount": 40,
      "authors": [
        {
          "authorId": "144703798",
          "name": "Xiaofeng Yuan"
        },
        {
          "authorId": "2186628791",
          "name": "Lingfeng Huang"
        },
        {
          "authorId": "38690169",
          "name": "Lin Li"
        },
        {
          "authorId": "2148896584",
          "name": "Kai Wang"
        },
        {
          "authorId": "39583921",
          "name": "Yalin Wang"
        },
        {
          "authorId": "2574266",
          "name": "Lingjian Ye"
        },
        {
          "authorId": "2052756241",
          "name": "Feifan Shen"
        }
      ]
    },
    {
      "paperId": "c2e4ad782167f0785f28622949c6edcaf1d85389",
      "externalIds": {
        "DOI": "10.54254/2755-2721/88/20241654",
        "CorpusId": 272000322
      },
      "url": "https://www.semanticscholar.org/paper/c2e4ad782167f0785f28622949c6edcaf1d85389",
      "title": "A generative hierarchical topic model for image annotation",
      "venue": "Applied and Computational Engineering",
      "year": 2024,
      "referenceCount": 0,
      "citationCount": 0,
      "authors": [
        {
          "authorId": "2343828495",
          "name": "Xiang Wang"
        }
      ]
    },
    {
      "paperId": "c643827e0de9ffd30f1fb8ab77953d5d778e62c0",
      "externalIds": {
        "DBLP": "journals/corr/abs-2404-10727",
        "ArXiv": "2404.10727",
        "DOI": "10.48550/arXiv.2404.10727",
        "CorpusId": 269157145
      },
      "url": "https://www.semanticscholar.org/paper/c643827e0de9ffd30f1fb8ab77953d5d778e62c0",
      "title": "How Deep Networks Learn Sparse and Hierarchical Data: the Sparse Random Hierarchy Model",
      "venue": "International Conference on Machine Learning",
      "year": 2024,
      "referenceCount": 65,
      "citationCount": 7,
      "authors": [
        {
          "authorId": "2008243180",
          "name": "Umberto M. Tomasini"
        },
        {
          "authorId": "2381413",
          "name": "M. Wyart"
        }
      ]
    },
    {
      "paperId": "c4298a7698f90899b746840e7a2fd010b316f3f1",
      "externalIds": {
        "DOI": "10.59018/072422",
        "CorpusId": 273315527
      },
      "url": "https://www.semanticscholar.org/paper/c4298a7698f90899b746840e7a2fd010b316f3f1",
      "title": "Advanced deep learning models for comprehensive analysis and optimization of nucleate boiling heat transfer systems",
      "venue": "Journal of Engineering and Applied Sciences (Asian Research Publishing Network)",
      "year": 2024,
      "referenceCount": 25,
      "citationCount": 0,
      "authors": [
        {
          "authorId": "2287506873",
          "name": "Mohammad Saraireh"
        },
        {
          "authorId": "118539972",
          "name": "F. Al-Saraireh"
        },
        {
          "authorId": "2348102768",
          "name": "Yassin Nimir"
        }
      ]
    }
  ]
}