{
  "total": 69,
  "offset": 0,
  "next": 10,
  "data": [
    {
      "paperId": "aebb01087b91a4fb4cafcac7261f77d1fa094b8e",
      "externalIds": {
        "DBLP": "conf/icml/UstinovskiyFGS16",
        "MAG": "2441217280",
        "CorpusId": 6591637
      },
      "url": "https://www.semanticscholar.org/paper/aebb01087b91a4fb4cafcac7261f77d1fa094b8e",
      "title": "Meta-Gradient Boosted Decision Tree Model for Weight and Target Learning",
      "venue": "International Conference on Machine Learning",
      "year": 2016,
      "referenceCount": 29,
      "citationCount": 1,
      "authors": [
        {
          "authorId": "2361592",
          "name": "Yury Ustinovsky"
        },
        {
          "authorId": "145079550",
          "name": "Valentina Fedorova"
        },
        {
          "authorId": "145004420",
          "name": "Gleb Gusev"
        },
        {
          "authorId": "1708801",
          "name": "P. Serdyukov"
        }
      ]
    },
    {
      "paperId": "715864686a0f4c8629563b15ba54b5764bbcb073",
      "externalIds": {
        "PubMedCentral": "12186405",
        "DOI": "10.1186/s40662-025-00440-6",
        "CorpusId": 279590799,
        "PubMed": "40556022"
      },
      "url": "https://www.semanticscholar.org/paper/715864686a0f4c8629563b15ba54b5764bbcb073",
      "title": "Highly efficient stacking ensemble learning model for automated keratoconus screening",
      "venue": "Eye and Vision",
      "year": 2025,
      "referenceCount": 50,
      "citationCount": 4,
      "authors": [
        {
          "authorId": "2275377273",
          "name": "Zahra J. Muhsin"
        },
        {
          "authorId": "2275379195",
          "name": "Rami Qahwaji"
        },
        {
          "authorId": "2284531926",
          "name": "Ibrahim Ghafir"
        },
        {
          "authorId": "2051424958",
          "name": "Mo'ath AlShawabkeh"
        },
        {
          "authorId": "51907760",
          "name": "Muawyah Al Bdour"
        },
        {
          "authorId": "2137920175",
          "name": "S. AlRyalat"
        },
        {
          "authorId": "2245848195",
          "name": "Majid A. Al-Taee"
        }
      ]
    },
    {
      "paperId": "f49597919d4b3def5d126a550148af3a13a3a921",
      "externalIds": {
        "PubMedCentral": "12483264",
        "DOI": "10.1371/journal.pgph.0005187",
        "CorpusId": 281700390,
        "PubMed": "41026702"
      },
      "url": "https://www.semanticscholar.org/paper/f49597919d4b3def5d126a550148af3a13a3a921",
      "title": "Machine learning based prediction of low birth weight and its associated risk factors: Insights from the Bangladesh Demographic and Health Survey 2022",
      "venue": "PLOS Global Public Health",
      "year": 2025,
      "referenceCount": 83,
      "citationCount": 4,
      "authors": [
        {
          "authorId": "2348729036",
          "name": "Nourin Sultana"
        },
        {
          "authorId": "2348719724",
          "name": "Zeba Afia"
        },
        {
          "authorId": "2307360620",
          "name": "Isteaq Kabir Sifat"
        },
        {
          "authorId": "2348724756",
          "name": "Shamsuz Zoha"
        },
        {
          "authorId": "2363699055",
          "name": "Tajin Ahmed Jisa"
        },
        {
          "authorId": "2154752012",
          "name": "M. Kibria"
        }
      ]
    },
    {
      "paperId": "395172e26cf88b844f625b38ccbe2b0482151b03",
      "externalIds": {
        "DOI": "10.1109/ICMACC62921.2024.10894326",
        "CorpusId": 276619276
      },
      "url": "https://www.semanticscholar.org/paper/395172e26cf88b844f625b38ccbe2b0482151b03",
      "title": "Enhancing Predictive Modeling of Diamond Prices using Machine Learning and Meta-Ensemble Techniques",
      "venue": "2024 2nd International Conference on Recent Trends in Microelectronics, Automation, Computing and Communications Systems (ICMACC)",
      "year": 2024,
      "referenceCount": 14,
      "citationCount": 0,
      "authors": [
        {
          "authorId": "2114836813",
          "name": "B. Reddy"
        },
        {
          "authorId": "2402292674",
          "name": "C. Lekha"
        },
        {
          "authorId": "2090925473",
          "name": "Ongole Gandhi"
        }
      ]
    },
    {
      "paperId": "785ceb41f689f4925c42bda0c261fedd970053a0",
      "externalIds": {
        "DOI": "10.3390/agronomy14102434",
        "CorpusId": 273517497
      },
      "url": "https://www.semanticscholar.org/paper/785ceb41f689f4925c42bda0c261fedd970053a0",
      "title": "Estimation of the Weight and Volume of Lime (Citrus aurantifolia (Christm.) Swingle) Fruit Using Computer Vision Based on Traditional Machine Learning and Deep Learning",
      "venue": "Agronomy",
      "year": 2024,
      "referenceCount": 29,
      "citationCount": 5,
      "authors": [
        {
          "authorId": "2031682684",
          "name": "Jiraporn Onmankhong"
        },
        {
          "authorId": "2224796",
          "name": "P. Poonpakdee"
        },
        {
          "authorId": "115756813",
          "name": "Ravipat Lapcharoensuk"
        }
      ]
    },
    {
      "paperId": "f7ebc7e81d8c44f3dcd2c819e464bab89b6111fa",
      "externalIds": {
        "DOI": "10.1109/ISCEIC67854.2025.11405492",
        "CorpusId": 286134411
      },
      "url": "https://www.semanticscholar.org/paper/f7ebc7e81d8c44f3dcd2c819e464bab89b6111fa",
      "title": "Validation of a Dynamic Weighted Stacking Model for Objective Evaluation of Tinnitus Severity Based on Functional Near-Infrared Spectroscopy (fNIRS): A Small-Sample Study",
      "venue": "2025 6th International Symposium on Computer Engineering and Intelligent Communications (ISCEIC)",
      "year": 2025,
      "referenceCount": 9,
      "citationCount": 0,
      "authors": [
        {
          "authorId": "2309655013",
          "name": "Juanjuan Yang"
        },
        {
          "authorId": "2269749651",
          "name": "Hao Yang"
        },
        {
          "authorId": "2310849322",
          "name": "Yu Fang"
        },
        {
          "authorId": "2220922908",
          "name": "Haifeng Zhang"
        },
        {
          "authorId": "2269447147",
          "name": "Xin Wu"
        },
        {
          "authorId": "2200137280",
          "name": "Xiaoli Fan"
        },
        {
          "authorId": "2332918213",
          "name": "Nihong Zhou"
        }
      ]
    },
    {
      "paperId": "86dc9b765d3c94223b7d5e548993c83bdc936fb0",
      "externalIds": {
        "DOI": "10.1007/s11250-025-04682-3",
        "CorpusId": 281702623,
        "PubMed": "41026360"
      },
      "url": "https://www.semanticscholar.org/paper/86dc9b765d3c94223b7d5e548993c83bdc936fb0",
      "title": "Early prediction of final weight in nomadic sheep flocks using machine learning algorithms",
      "venue": "Tropical Animal Health and Production",
      "year": 2025,
      "referenceCount": 58,
      "citationCount": 2,
      "authors": [
        {
          "authorId": "52089460",
          "name": "Necati Esener"
        },
        {
          "authorId": "2354209143",
          "name": "Hasan Tarık Eşkİ"
        }
      ]
    },
    {
      "paperId": "46137d431865231edff50a2fa7c84fecdfa4b4a5",
      "externalIds": {
        "PubMedCentral": "11964644",
        "DOI": "10.1016/j.xops.2025.100715",
        "CorpusId": 275652847,
        "PubMed": "40182984"
      },
      "url": "https://www.semanticscholar.org/paper/46137d431865231edff50a2fa7c84fecdfa4b4a5",
      "title": "Prediction Models for Retinopathy of Prematurity Using Nonimaging Machine Learning Approaches: A Regional Multicenter Study",
      "venue": "Ophthalmology Science",
      "year": 2025,
      "referenceCount": 38,
      "citationCount": 3,
      "authors": [
        {
          "authorId": "2069130834",
          "name": "Yusuke Takeda"
        },
        {
          "authorId": "2323766798",
          "name": "Yutaka Kaneko"
        },
        {
          "authorId": "2323764802",
          "name": "M. Sugimoto"
        },
        {
          "authorId": "31922897",
          "name": "H. Yamashita"
        },
        {
          "authorId": "2340844866",
          "name": "Ayako Sasaki"
        },
        {
          "authorId": "2340847287",
          "name": "Tetsuo Mitsui"
        }
      ]
    },
    {
      "paperId": "d9485a8a35d898ca0ddd1e5550502bf4879c049d",
      "externalIds": {
        "DOI": "10.1155/2022/8136302",
        "CorpusId": 248770737
      },
      "url": "https://www.semanticscholar.org/paper/d9485a8a35d898ca0ddd1e5550502bf4879c049d",
      "title": "An Intelligent Deep Learning Model for CO 2 Adsorption Prediction",
      "venue": "Adsorption Science &amp; Technology",
      "year": 2022,
      "referenceCount": 38,
      "citationCount": 7,
      "authors": [
        {
          "authorId": "33844474",
          "name": "H. Mahmoud"
        },
        {
          "authorId": "2165162865",
          "name": "Nada Ali Hakami"
        },
        {
          "authorId": "1958912",
          "name": "Alaaeldin M. Hafez"
        }
      ]
    },
    {
      "paperId": "f87df79e98519416de5a036364e5950eb3b3bf9d",
      "externalIds": {
        "DOI": "10.3389/fpsyg.2026.1737828",
        "CorpusId": 287465470
      },
      "url": "https://www.semanticscholar.org/paper/f87df79e98519416de5a036364e5950eb3b3bf9d",
      "title": "Predictive model of psychological factors influencing university students’ intentions and behavior regarding physical exercise—based on machine learning algorithms",
      "venue": "Frontiers in Psychology",
      "year": 2026,
      "referenceCount": 34,
      "citationCount": 0,
      "authors": [
        {
          "authorId": "2318679695",
          "name": "Lihong Zhu"
        },
        {
          "authorId": "2298488549",
          "name": "Fanjing Kong"
        },
        {
          "authorId": "103944857",
          "name": "Tianzhuo Liu"
        }
      ]
    }
  ]
}