{
  "total": 30636,
  "offset": 0,
  "next": 10,
  "data": [
    {
      "paperId": "aa8e4263ef59d095dc0f87fb0dae19b441bfa6c5",
      "externalIds": {
        "MAG": "2951360189",
        "ArXiv": "1609.05559",
        "DBLP": "journals/corr/HeBKD16",
        "CorpusId": 3393747
      },
      "url": "https://www.semanticscholar.org/paper/aa8e4263ef59d095dc0f87fb0dae19b441bfa6c5",
      "title": "Opponent Modeling in Deep Reinforcement Learning",
      "venue": "International Conference on Machine Learning",
      "year": 2016,
      "referenceCount": 25,
      "citationCount": 369,
      "authors": [
        {
          "authorId": "2140062900",
          "name": "He He"
        },
        {
          "authorId": "1389036863",
          "name": "J. Boyd-Graber"
        }
      ]
    },
    {
      "paperId": "4b25ac13f3be1fbc5da74bafca4d8bccbd7a2b45",
      "externalIds": {
        "DBLP": "conf/ifaamas/YangXCRCH25",
        "DOI": "10.5555/3709347.3743861",
        "CorpusId": 280336480
      },
      "url": "https://www.semanticscholar.org/paper/4b25ac13f3be1fbc5da74bafca4d8bccbd7a2b45",
      "title": "Uncertainty-Aware Opponent Modeling for Deep Reinforcement Learning",
      "venue": "Adaptive Agents and Multi-Agent Systems",
      "year": 2025,
      "referenceCount": 0,
      "citationCount": 0,
      "authors": [
        {
          "authorId": "2314596187",
          "name": "Likun Yang"
        },
        {
          "authorId": "2367544408",
          "name": "Pei Xu"
        },
        {
          "authorId": "2256996726",
          "name": "Shiyue Cao"
        },
        {
          "authorId": "2279266900",
          "name": "Yongjian Ren"
        },
        {
          "authorId": "1810827",
          "name": "Xiaotang Chen"
        },
        {
          "authorId": "2279276010",
          "name": "Kaiqi Huang"
        }
      ]
    },
    {
      "paperId": "bbb50049985623a92aed854b5c60607c38e34566",
      "externalIds": {
        "DBLP": "conf/colcom/YaoXWW23",
        "DOI": "10.1007/978-3-031-54528-3_4",
        "CorpusId": 269457953
      },
      "url": "https://www.semanticscholar.org/paper/bbb50049985623a92aed854b5c60607c38e34566",
      "title": "Defeating the Non-stationary Opponent Using Deep Reinforcement Learning and Opponent Modeling",
      "venue": "International Conference on Collaborative Computing",
      "year": 2023,
      "referenceCount": 0,
      "citationCount": 2,
      "authors": [
        {
          "authorId": "2213534152",
          "name": "Qian Yao"
        },
        {
          "authorId": "66506922",
          "name": "Xinli Xiong"
        },
        {
          "authorId": "2299167129",
          "name": "Peng Wang"
        },
        {
          "authorId": "2108096492",
          "name": "Yongjie Wang"
        }
      ]
    },
    {
      "paperId": "ff92574b0814cd3a39e14bf286c41a12bb0e04d8",
      "externalIds": {
        "DBLP": "journals/comintsys/LiWFZL26",
        "DOI": "10.1007/s40747-025-02128-9",
        "CorpusId": 283246550
      },
      "url": "https://www.semanticscholar.org/paper/ff92574b0814cd3a39e14bf286c41a12bb0e04d8",
      "title": "Hierarchical reinforcement learning with opponent modeling for command and control system",
      "venue": "Complex & Intelligent Systems",
      "year": 2025,
      "referenceCount": 24,
      "citationCount": 0,
      "authors": [
        {
          "authorId": "2244135852",
          "name": "Tengda Li"
        },
        {
          "authorId": "2117910129",
          "name": "Gang Wang"
        },
        {
          "authorId": "2244070864",
          "name": "Qiang Fu"
        },
        {
          "authorId": "1708278789",
          "name": "Minrui Zhao"
        },
        {
          "authorId": "2244420323",
          "name": "Xiangyu Liu"
        }
      ]
    },
    {
      "paperId": "015dbf7e025405d39c3f046728bcc5164818469f",
      "externalIds": {
        "ArXiv": "2511.10501",
        "CorpusId": 282992211
      },
      "url": "https://www.semanticscholar.org/paper/015dbf7e025405d39c3f046728bcc5164818469f",
      "title": "Graph Neural Networks, Deep Reinforcement Learning and Probabilistic Topic Modeling for Strategic Multiagent Settings",
      "venue": "",
      "year": 2025,
      "referenceCount": 158,
      "citationCount": 0,
      "authors": [
        {
          "authorId": "2348740681",
          "name": "G. Chalkiadakis"
        },
        {
          "authorId": "2815429",
          "name": "C. Akasiadis"
        },
        {
          "authorId": "2390525044",
          "name": "Gerasimos Koresis"
        },
        {
          "authorId": "2390519855",
          "name": "Stergios Plataniotis"
        },
        {
          "authorId": "2348740661",
          "name": "Leonidas Bakopoulos"
        }
      ]
    },
    {
      "paperId": "ea01619577a4bdaf7ab59449c35f5b7b6a583f44",
      "externalIds": {
        "DBLP": "conf/icdcs/LiangCJSX22",
        "ArXiv": "2206.12718",
        "DOI": "10.1109/ICDCS54860.2022.00090",
        "CorpusId": 250072423
      },
      "url": "https://www.semanticscholar.org/paper/ea01619577a4bdaf7ab59449c35f5b7b6a583f44",
      "title": "Hierarchical Reinforcement Learning with Opponent Modeling for Distributed Multi-agent Cooperation",
      "venue": "IEEE International Conference on Distributed Computing Systems",
      "year": 2022,
      "referenceCount": 35,
      "citationCount": 12,
      "authors": [
        {
          "authorId": "47415635",
          "name": "Zhixuan Liang"
        },
        {
          "authorId": "144115026",
          "name": "Jiannong Cao"
        },
        {
          "authorId": "143966963",
          "name": "Shan Jiang"
        },
        {
          "authorId": "2064879696",
          "name": "Divya Saxena"
        },
        {
          "authorId": "2162655464",
          "name": "Huafeng Xu"
        }
      ]
    },
    {
      "paperId": "1eb75c51fad1d4dec285ec8d27890b5ba34fb702",
      "externalIds": {
        "DOI": "10.1088/2631-8695/ae2827",
        "CorpusId": 283614091
      },
      "url": "https://www.semanticscholar.org/paper/1eb75c51fad1d4dec285ec8d27890b5ba34fb702",
      "title": "Radar anti-jamming technology combining machine game theory and deep reinforcement learning",
      "venue": "Engineering Research Express",
      "year": 2025,
      "referenceCount": 0,
      "citationCount": 0,
      "authors": [
        {
          "authorId": "2398001974",
          "name": "Xingchen Wang"
        }
      ]
    },
    {
      "paperId": "7f680a6b5c82d93b87b1fc9ebcddf0dc17fbf7f0",
      "externalIds": {
        "DBLP": "conf/www/ZhangZWSL0WZ24",
        "DOI": "10.1145/3589335.3648310",
        "CorpusId": 269758890
      },
      "url": "https://www.semanticscholar.org/paper/7f680a6b5c82d93b87b1fc9ebcddf0dc17fbf7f0",
      "title": "User Response Modeling in Reinforcement Learning for Ads Allocation",
      "venue": "The Web Conference",
      "year": 2024,
      "referenceCount": 43,
      "citationCount": 2,
      "authors": [
        {
          "authorId": "2323723595",
          "name": "Zhiyuan Zhang"
        },
        {
          "authorId": "3342918",
          "name": "Qichao Zhang"
        },
        {
          "authorId": "2385110080",
          "name": "Xiaoxu Wu"
        },
        {
          "authorId": "2119205048",
          "name": "Xiaowen Shi"
        },
        {
          "authorId": "2161243609",
          "name": "Guogang Liao"
        },
        {
          "authorId": "2108836630",
          "name": "Yongkang Wang"
        },
        {
          "authorId": "2301323946",
          "name": "Xingxing Wang"
        },
        {
          "authorId": "2259831523",
          "name": "Dongbin Zhao"
        }
      ]
    },
    {
      "paperId": "cd13ee6cde708c43927a4d7f7eb98cf1d022cda8",
      "externalIds": {
        "DBLP": "journals/tciaig/ZhaoZHZL24",
        "DOI": "10.1109/TG.2023.3299612",
        "CorpusId": 260306547
      },
      "url": "https://www.semanticscholar.org/paper/cd13ee6cde708c43927a4d7f7eb98cf1d022cda8",
      "title": "Full DouZero+: Improving DouDizhu AI by Opponent Modeling, Coach-Guided Training and Bidding Learning",
      "venue": "IEEE Transactions on Games",
      "year": 2024,
      "referenceCount": 43,
      "citationCount": 10,
      "authors": [
        {
          "authorId": "2151271582",
          "name": "Youpeng Zhao"
        },
        {
          "authorId": "7818567",
          "name": "Jian Zhao"
        },
        {
          "authorId": "2109907241",
          "name": "Xu Hu"
        },
        {
          "authorId": "38272296",
          "name": "Wen-gang Zhou"
        },
        {
          "authorId": "2144406784",
          "name": "Houqiang Li"
        }
      ]
    },
    {
      "paperId": "5619bfb0821b1e971b025d32073ea97974165c15",
      "externalIds": {
        "DOI": "10.1108/dta-06-2025-0512",
        "CorpusId": 284817643
      },
      "url": "https://www.semanticscholar.org/paper/5619bfb0821b1e971b025d32073ea97974165c15",
      "title": "Hierarchical deep reinforcement learning for real-time tactical decision-making in team sports",
      "venue": "Data Technologies and Applications",
      "year": 2026,
      "referenceCount": 41,
      "citationCount": 0,
      "authors": [
        {
          "authorId": "2373337879",
          "name": "Kai Kong"
        },
        {
          "authorId": "2373562971",
          "name": "Zhiwei Liu"
        },
        {
          "authorId": "2374253172",
          "name": "Zhitong Gao"
        },
        {
          "authorId": "2282921356",
          "name": "Hua-Feng Dong"
        },
        {
          "authorId": "102478302",
          "name": "Haytham F. Isleem"
        }
      ]
    }
  ]
}