{
  "total": 6652,
  "offset": 0,
  "next": 10,
  "data": [
    {
      "paperId": "04c943a797e4bd334f6ea49c81acfeb11c438d81",
      "externalIds": {
        "MAG": "2949806198",
        "DBLP": "conf/icml/VikramD16",
        "ArXiv": "1602.03258",
        "CorpusId": 2094052
      },
      "url": "https://www.semanticscholar.org/paper/04c943a797e4bd334f6ea49c81acfeb11c438d81",
      "title": "Interactive Bayesian Hierarchical Clustering",
      "venue": "International Conference on Machine Learning",
      "year": 2016,
      "referenceCount": 32,
      "citationCount": 48,
      "authors": [
        {
          "authorId": "2425230",
          "name": "S. Vikram"
        },
        {
          "authorId": "1880237",
          "name": "S. Dasgupta"
        }
      ]
    },
    {
      "paperId": "634c8852594fddc29f7999809f453e38419c3860",
      "externalIds": {
        "CorpusId": 28691863
      },
      "url": "https://www.semanticscholar.org/paper/634c8852594fddc29f7999809f453e38419c3860",
      "title": "Interactive Hierarchical Clustering using Bayesian Nonparametrics",
      "venue": "",
      "year": 2015,
      "referenceCount": 15,
      "citationCount": 0,
      "authors": [
        {
          "authorId": "1829774",
          "name": "Sharad"
        }
      ]
    },
    {
      "paperId": "5d68b97ec9c45fd22fb71c72762ee7e692cc532b",
      "externalIds": {
        "MAG": "2360700137",
        "CorpusId": 63474901
      },
      "url": "https://www.semanticscholar.org/paper/5d68b97ec9c45fd22fb71c72762ee7e692cc532b",
      "title": "Combined unsupervised image segmentation using watershed and hierarchical clustering with MRF",
      "venue": "",
      "year": 2007,
      "referenceCount": 0,
      "citationCount": 2,
      "authors": [
        {
          "authorId": "73362286",
          "name": "Wang Shi-tong"
        }
      ]
    },
    {
      "paperId": "e7e4bb5d2eec13da7bddf8a7c3b1b1d24231fd86",
      "externalIds": {
        "MAG": "2146701314",
        "DOI": "10.1055/s-0029-1216348",
        "CorpusId": 8511725,
        "PubMed": "19434550"
      },
      "url": "https://www.semanticscholar.org/paper/e7e4bb5d2eec13da7bddf8a7c3b1b1d24231fd86",
      "title": "Interactive Molecular Networks Obtained by Computer-aided Conversion of Microarray Data from Brains of Alcohol-drinking Rats",
      "venue": "Pharmacopsychiatry",
      "year": 2009,
      "referenceCount": 65,
      "citationCount": 13,
      "authors": [
        {
          "authorId": "49838532",
          "name": "F. Matthäus"
        },
        {
          "authorId": "144645461",
          "name": "V. Smith"
        },
        {
          "authorId": "3305271",
          "name": "A. Fogtman"
        },
        {
          "authorId": "40069177",
          "name": "W. Sommer"
        },
        {
          "authorId": "1401929174",
          "name": "F. Leonardi‐Essmann"
        },
        {
          "authorId": "2423196",
          "name": "A. Lourdusamy"
        },
        {
          "authorId": "48141323",
          "name": "M. Reimers"
        },
        {
          "authorId": "3226472",
          "name": "R. Spanagel"
        },
        {
          "authorId": "1400883541",
          "name": "P. Gebicke-haerter"
        }
      ]
    },
    {
      "paperId": "916f556cae3d8262cfd9abf268b61832210b536d",
      "externalIds": {
        "DBLP": "conf/si3d/WangOO16",
        "MAG": "2269084213",
        "DOI": "10.1145/2856400.2856410",
        "CorpusId": 3289541
      },
      "url": "https://www.semanticscholar.org/paper/916f556cae3d8262cfd9abf268b61832210b536d",
      "title": "Path patterns: analyzing and comparing real and simulated crowds",
      "venue": "ACM Symposium on Interactive 3D Graphics and Games",
      "year": 2016,
      "referenceCount": 57,
      "citationCount": 37,
      "authors": [
        {
          "authorId": "2149698569",
          "name": "He Wang"
        },
        {
          "authorId": "2050262",
          "name": "Jan Ondřej"
        },
        {
          "authorId": "1404017833",
          "name": "C. O'Sullivan"
        }
      ]
    },
    {
      "paperId": "6c3fd29e8b836456ce19e11c993723ac5ac81f5d",
      "externalIds": {
        "MAG": "2210174003",
        "DOI": "10.1016/j.nut.2015.12.027",
        "CorpusId": 25339014,
        "PubMed": "26856649"
      },
      "url": "https://www.semanticscholar.org/paper/6c3fd29e8b836456ce19e11c993723ac5ac81f5d",
      "title": "Nutritional habits, lifestyle, and genetic predisposition in cardiovascular and metabolic traits in Turkish population.",
      "venue": "Nutrition (Burbank, Los Angeles County, Calif.)",
      "year": 2016,
      "referenceCount": 43,
      "citationCount": 10,
      "authors": [
        {
          "authorId": "3555732",
          "name": "Ş. Karaca"
        },
        {
          "authorId": "2091726393",
          "name": "Sema Erge"
        },
        {
          "authorId": "6693211",
          "name": "T. Cesuroglu"
        },
        {
          "authorId": "2404775273",
          "name": "Renato Polimanti"
        }
      ]
    },
    {
      "paperId": "8ea47d5a74a122fab5f4bddc69f0aed554f6ae4c",
      "externalIds": {
        "MAG": "623593005",
        "DOI": "10.1007/B97240",
        "CorpusId": 115849557
      },
      "url": "https://www.semanticscholar.org/paper/8ea47d5a74a122fab5f4bddc69f0aed554f6ae4c",
      "title": "Statistical Challenges of Astronomy",
      "venue": "",
      "year": 2003,
      "referenceCount": 0,
      "citationCount": 44,
      "authors": [
        {
          "authorId": "3874639",
          "name": "E. Feigelson"
        },
        {
          "authorId": "143782651",
          "name": "G. Babu"
        }
      ]
    },
    {
      "paperId": "b18b61eed1eb0d081119110677ca0b485317fb73",
      "externalIds": {
        "MAG": "2086911628",
        "DBLP": "conf/bmvc/WuK14",
        "DOI": "10.5244/C.28.57",
        "CorpusId": 120083
      },
      "url": "https://www.semanticscholar.org/paper/b18b61eed1eb0d081119110677ca0b485317fb73",
      "title": "Tri-Map Self-Validation Based on Least Gibbs Energy for Foreground Segmentation",
      "venue": "British Machine Vision Conference",
      "year": 2014,
      "referenceCount": 29,
      "citationCount": 2,
      "authors": [
        {
          "authorId": "1783071",
          "name": "Xiaomeng Wu"
        },
        {
          "authorId": "1718803",
          "name": "K. Kashino"
        }
      ]
    },
    {
      "paperId": "4da048668d16d01d6056c57eb4a0753f25f0688d",
      "externalIds": {
        "MAG": "1591366017",
        "DBLP": "conf/mirage/2007",
        "DOI": "10.1007/978-3-540-71457-6",
        "CorpusId": 27919328
      },
      "url": "https://www.semanticscholar.org/paper/4da048668d16d01d6056c57eb4a0753f25f0688d",
      "title": "Computer Vision/Computer Graphics Collaboration Techniques, Third International Conference, MIRAGE 2007, Rocquencourt, France, March 28-30, 2007, Proceedings",
      "venue": "International Conference on Computer Vision/Computer Graphics Collaboration Techniques",
      "year": 2007,
      "referenceCount": 0,
      "citationCount": 7,
      "authors": [
        {
          "authorId": "1692586",
          "name": "A. Gagalowicz"
        },
        {
          "authorId": "143737327",
          "name": "W. Philips"
        }
      ]
    },
    {
      "paperId": "57d67e224a76a391c7ea4185b64ae26cc4e71152",
      "externalIds": {
        "DBLP": "conf/fuzzIEEE/GuntherC01",
        "MAG": "1580241236",
        "DOI": "10.1109/FUZZ.2001.1009119",
        "CorpusId": 206668104
      },
      "url": "https://www.semanticscholar.org/paper/57d67e224a76a391c7ea4185b64ae26cc4e71152",
      "title": "A new approach to hybrid SOM implementations for text classification",
      "venue": "IEEE International Conference on Fuzzy Systems",
      "year": 2001,
      "referenceCount": 16,
      "citationCount": 1,
      "authors": [
        {
          "authorId": "2366167196",
          "name": "P. Gunther"
        },
        {
          "authorId": "2109381756",
          "name": "Yi-Ping Phoebe Chen"
        }
      ]
    }
  ]
}