{
  "total": 26814,
  "offset": 0,
  "next": 10,
  "data": [
    {
      "paperId": "ad75c09fc0b7c263e2b85bda3517c70d9268a6ef",
      "externalIds": {
        "ArXiv": "1806.06408",
        "DBLP": "conf/icml/LeePCXS18",
        "MAG": "2964238766",
        "CorpusId": 49299769
      },
      "url": "https://www.semanticscholar.org/paper/ad75c09fc0b7c263e2b85bda3517c70d9268a6ef",
      "title": "Gated Path Planning Networks",
      "venue": "International Conference on Machine Learning",
      "year": 2018,
      "referenceCount": 22,
      "citationCount": 87,
      "authors": [
        {
          "authorId": "87068304",
          "name": "Lisa Lee"
        },
        {
          "authorId": "3166516",
          "name": "Emilio Parisotto"
        },
        {
          "authorId": "2328602",
          "name": "Devendra Singh Chaplot"
        },
        {
          "authorId": "143977260",
          "name": "E. Xing"
        },
        {
          "authorId": "145124475",
          "name": "R. Salakhutdinov"
        }
      ]
    },
    {
      "paperId": "1a6b40dc2943aa2c5ab1f2ce81e4b90aac62962e",
      "externalIds": {
        "DBLP": "journals/cogcom/SelvarajP25",
        "DOI": "10.1007/s12559-025-10464-8",
        "CorpusId": 279553893
      },
      "url": "https://www.semanticscholar.org/paper/1a6b40dc2943aa2c5ab1f2ce81e4b90aac62962e",
      "title": "Intelligent Robotic Path Planning Based on SPIDI-Lion Optimization Algorithm Using Deep Spectral LSTM-Gated Convolution Neural Network",
      "venue": "Cognitive Computation",
      "year": 2025,
      "referenceCount": 27,
      "citationCount": 2,
      "authors": [
        {
          "authorId": "2368197784",
          "name": "Dinesh Selvaraj"
        },
        {
          "authorId": "2139958530",
          "name": "Senthil Kumar Angappamudaliar Palanisamy"
        }
      ]
    },
    {
      "paperId": "a8b3fc8b1d24ea2965a0fb9ae089ff20f05509fb",
      "externalIds": {
        "DOI": "10.1109/ICIIBMS66230.2025.11316767",
        "CorpusId": 284376667
      },
      "url": "https://www.semanticscholar.org/paper/a8b3fc8b1d24ea2965a0fb9ae089ff20f05509fb",
      "title": "Robot Path Planning Method Based on an Improved TD3 Algorithm",
      "venue": "2025 10th International Conference on Intelligent Informatics and Biomedical Sciences (ICIIBMS)",
      "year": 2025,
      "referenceCount": 11,
      "citationCount": 0,
      "authors": [
        {
          "authorId": "2274488642",
          "name": "Lanfeng Zhou"
        },
        {
          "authorId": "2402197956",
          "name": "Qingqi Cheng"
        }
      ]
    },
    {
      "paperId": "49691b04a819a54b4189cc6ac86f4e19b43c021b",
      "externalIds": {
        "DOI": "10.1109/MLPRAE67267.2025.11290803",
        "CorpusId": 284024634
      },
      "url": "https://www.semanticscholar.org/paper/49691b04a819a54b4189cc6ac86f4e19b43c021b",
      "title": "Warehouse Robot Path planning Based on Improved TD3 Algorithm",
      "venue": "2025 2nd International Conference on Machine Learning, Pattern Recognition and Automation Engineering (MLPRAE)",
      "year": 2025,
      "referenceCount": 16,
      "citationCount": 0,
      "authors": [
        {
          "authorId": "2291076179",
          "name": "Deguo Yang"
        },
        {
          "authorId": "2339966063",
          "name": "Minghui Zhao"
        }
      ]
    },
    {
      "paperId": "713fb213edd78607bb1437720251881782481a08",
      "externalIds": {
        "DOI": "10.1109/ICCS67844.2025.11292481",
        "CorpusId": 284021110
      },
      "url": "https://www.semanticscholar.org/paper/713fb213edd78607bb1437720251881782481a08",
      "title": "Collaborative Optimization Method for Multi-Automated Guided Vehicles Task Scheduling and Path Planning",
      "venue": "International Conference on Conceptual Structures",
      "year": 2025,
      "referenceCount": 16,
      "citationCount": 0,
      "authors": [
        {
          "authorId": "2212113746",
          "name": "Mingfei Si"
        },
        {
          "authorId": "2313121942",
          "name": "Weiqiang Xing"
        },
        {
          "authorId": "2399809238",
          "name": "Hao Wang"
        },
        {
          "authorId": "2339399026",
          "name": "Mengfan Liu"
        },
        {
          "authorId": "2399745874",
          "name": "Jiaman Liu"
        }
      ]
    },
    {
      "paperId": "3d699d643535e4bda0602178de245e46c05be500",
      "externalIds": {
        "DOI": "10.1109/RAEEUCCI63961.2025.11048231",
        "CorpusId": 279613445
      },
      "url": "https://www.semanticscholar.org/paper/3d699d643535e4bda0602178de245e46c05be500",
      "title": "Implementation of Integrated CNN Models for Path Planning of Robot in Static Environments",
      "venue": "2025 International Conference on Recent Advances in Electrical, Electronics, Ubiquitous Communication, and Computational Intelligence (RAEEUCCI)",
      "year": 2025,
      "referenceCount": 13,
      "citationCount": 0,
      "authors": [
        {
          "authorId": "2368641304",
          "name": "Krishnakumar. A"
        },
        {
          "authorId": "2276524749",
          "name": "S. P"
        }
      ]
    },
    {
      "paperId": "d1ed3f0af800155543ec5888c58f9a42fdb9fae9",
      "externalIds": {
        "DOI": "10.3390/jmse12091683",
        "CorpusId": 272839451
      },
      "url": "https://www.semanticscholar.org/paper/d1ed3f0af800155543ec5888c58f9a42fdb9fae9",
      "title": "Deep Learning-Based Nonparametric Identification and Path Planning for Autonomous Underwater Vehicles",
      "venue": "Journal of Marine Science and Engineering",
      "year": 2024,
      "referenceCount": 61,
      "citationCount": 4,
      "authors": [
        {
          "authorId": "2315055044",
          "name": "Bin Mei"
        },
        {
          "authorId": "2322608808",
          "name": "Chenyu Li"
        },
        {
          "authorId": "2323434199",
          "name": "Dong Liu"
        },
        {
          "authorId": "2315757534",
          "name": "Jie Zhang"
        }
      ]
    },
    {
      "paperId": "45321ffcab7abeaa9945c4dce99813cada70f918",
      "externalIds": {
        "DOI": "10.23919/CCC58697.2023.10240971",
        "CorpusId": 262078553
      },
      "url": "https://www.semanticscholar.org/paper/45321ffcab7abeaa9945c4dce99813cada70f918",
      "title": "Real-Time Optimal Path Planning and Fast Autonomous Flight for UAV in Unknown Environments",
      "venue": "Cybersecurity and Cyberforensics Conference",
      "year": 2023,
      "referenceCount": 10,
      "citationCount": 2,
      "authors": [
        {
          "authorId": "47829900",
          "name": "Fan Yang"
        },
        {
          "authorId": "2244063810",
          "name": "Qiang Lu"
        },
        {
          "authorId": "2243365101",
          "name": "Renjie Li"
        },
        {
          "authorId": "2211608791",
          "name": "Yujia Xu"
        },
        {
          "authorId": "2211531721",
          "name": "Weikang Yuan"
        },
        {
          "authorId": "2244572987",
          "name": "Xinyu Wu"
        },
        {
          "authorId": "2243364401",
          "name": "Zhifei Wu"
        }
      ]
    },
    {
      "paperId": "8274519ca6c5d12be88c962f248bef0c68c56cf1",
      "externalIds": {
        "DBLP": "journals/access/CaiLZT23",
        "ArXiv": "2305.07039",
        "DOI": "10.1109/ACCESS.2023.3286729",
        "CorpusId": 258676258
      },
      "url": "https://www.semanticscholar.org/paper/8274519ca6c5d12be88c962f248bef0c68c56cf1",
      "title": "Value Iteration Networks With Gated Summarization Module",
      "venue": "IEEE Access",
      "year": 2023,
      "referenceCount": 39,
      "citationCount": 3,
      "authors": [
        {
          "authorId": "151474661",
          "name": "Jinyu Cai"
        },
        {
          "authorId": "2108961682",
          "name": "Jialong Li"
        },
        {
          "authorId": "2741388",
          "name": "Mingyue Zhang"
        },
        {
          "authorId": "2267460",
          "name": "K. Tei"
        }
      ]
    },
    {
      "paperId": "0e29c48c3704450eecd9a1ecf76fa8a8c3b125ae",
      "externalIds": {
        "DBLP": "journals/ar/HsuehTJSMKS22",
        "ArXiv": "2203.03092",
        "DOI": "10.1080/01691864.2022.2062259",
        "CorpusId": 247292071
      },
      "url": "https://www.semanticscholar.org/paper/0e29c48c3704450eecd9a1ecf76fa8a8c3b125ae",
      "title": "Systematic comparison of path planning algorithms using PathBench",
      "venue": "Adv. Robotics",
      "year": 2022,
      "referenceCount": 78,
      "citationCount": 16,
      "authors": [
        {
          "authorId": "2087064481",
          "name": "Hao-Ya Hsueh"
        },
        {
          "authorId": "2061327751",
          "name": "Alexandru Toma"
        },
        {
          "authorId": "2097459113",
          "name": "H. Jaafar"
        },
        {
          "authorId": "2047147365",
          "name": "Edward Stow"
        },
        {
          "authorId": "1651054190",
          "name": "Riku Murai"
        },
        {
          "authorId": "144676513",
          "name": "P. Kelly"
        },
        {
          "authorId": "8838574",
          "name": "Sajad Saeedi"
        }
      ]
    }
  ]
}