{
  "total": 920,
  "offset": 0,
  "next": 10,
  "data": [
    {
      "paperId": "d358d41c69450b171327ebd99462b6afef687269",
      "externalIds": {
        "MAG": "2290354866",
        "ArXiv": "1603.00748",
        "DBLP": "journals/corr/GuLSL16",
        "CorpusId": 890737
      },
      "url": "https://www.semanticscholar.org/paper/d358d41c69450b171327ebd99462b6afef687269",
      "title": "Continuous Deep Q-Learning with Model-based Acceleration",
      "venue": "International Conference on Machine Learning",
      "year": 2016,
      "referenceCount": 41,
      "citationCount": 1065,
      "authors": [
        {
          "authorId": "2046135",
          "name": "S. Gu"
        },
        {
          "authorId": "2542999",
          "name": "T. Lillicrap"
        },
        {
          "authorId": "1701686",
          "name": "I. Sutskever"
        },
        {
          "authorId": "1736651",
          "name": "S. Levine"
        }
      ]
    },
    {
      "paperId": "3d440beffd69607b3f27e5b39b4c2f5e9ac40c7c",
      "externalIds": {
        "CorpusId": 260559204
      },
      "url": "https://www.semanticscholar.org/paper/3d440beffd69607b3f27e5b39b4c2f5e9ac40c7c",
      "title": "Continuous Deep Q-Learning with Model-based Acceleration : Appendix",
      "venue": "",
      "year": 2016,
      "referenceCount": 7,
      "citationCount": 0,
      "authors": [
        {
          "authorId": "2046135",
          "name": "S. Gu"
        },
        {
          "authorId": "2542999",
          "name": "T. Lillicrap"
        },
        {
          "authorId": "1701686",
          "name": "I. Sutskever"
        },
        {
          "authorId": "1736651",
          "name": "S. Levine"
        }
      ]
    },
    {
      "paperId": "c2c5b6f3350c28719d1e0251c6021c6e98fc3e45",
      "externalIds": {
        "DBLP": "journals/tinstmc/WuHQC22",
        "DOI": "10.1177/01423312211052742",
        "CorpusId": 243463381
      },
      "url": "https://www.semanticscholar.org/paper/c2c5b6f3350c28719d1e0251c6021c6e98fc3e45",
      "title": "Guidance law of interceptors against a high-speed maneuvering target based on deep Q-Network",
      "venue": "Transactions of the Institute of Measurement and Control",
      "year": 2021,
      "referenceCount": 29,
      "citationCount": 11,
      "authors": [
        {
          "authorId": "2145209769",
          "name": "Ming-yu Wu"
        },
        {
          "authorId": "2111080707",
          "name": "Xianjun He"
        },
        {
          "authorId": "9387938",
          "name": "Zhi-ming Qiu"
        },
        {
          "authorId": "2144309490",
          "name": "Zhihua Chen"
        }
      ]
    },
    {
      "paperId": "1b23b5aad5d101d460e62cd682084f86ed1f4806",
      "externalIds": {
        "MAG": "3122029173",
        "DOI": "10.1016/J.TRC.2021.102980",
        "CorpusId": 233829787
      },
      "url": "https://www.semanticscholar.org/paper/1b23b5aad5d101d460e62cd682084f86ed1f4806",
      "title": "Hybrid deep reinforcement learning based eco-driving for low-level connected and automated vehicles along signalized corridors",
      "venue": "Transportation Research Part C: Emerging Technologies",
      "year": 2021,
      "referenceCount": 37,
      "citationCount": 132,
      "authors": [
        {
          "authorId": "2681110",
          "name": "Qiangqiang Guo"
        },
        {
          "authorId": "2003203063",
          "name": "Ohay Angah"
        },
        {
          "authorId": "1486306845",
          "name": "Zhijun Liu"
        },
        {
          "authorId": "2267083045",
          "name": "X. Ban"
        }
      ]
    },
    {
      "paperId": "fa6d25372c5847477d8ae3f99d5ec17a30f9c136",
      "externalIds": {
        "DOI": "10.47392/irjaeh.2025.0559",
        "CorpusId": 281795130
      },
      "url": "https://www.semanticscholar.org/paper/fa6d25372c5847477d8ae3f99d5ec17a30f9c136",
      "title": "Reinforcement Learning-Based Simulation of Semi-Active Suspension Systems in Quarter-Car Model",
      "venue": "International Research Journal on Advanced Engineering Hub (IRJAEH)",
      "year": 2025,
      "referenceCount": 0,
      "citationCount": 0,
      "authors": [
        {
          "authorId": "2383720973",
          "name": "Dhananjay S. Jawale"
        },
        {
          "authorId": "2383719397",
          "name": "Dr. Kishor R. Borole"
        }
      ]
    },
    {
      "paperId": "b132390ec5241c69ada80823ffb77cac03c6ef39",
      "externalIds": {
        "DOI": "10.1109/ICIBA56860.2023.10164889",
        "CorpusId": 259365466
      },
      "url": "https://www.semanticscholar.org/paper/b132390ec5241c69ada80823ffb77cac03c6ef39",
      "title": "Decision-making for Overtaking in Specific Unmanned Driving Scenarios based on Deep Reinforcement Learning",
      "venue": "2023 IEEE 3rd International Conference on Information Technology, Big Data and Artificial Intelligence (ICIBA)",
      "year": 2023,
      "referenceCount": 20,
      "citationCount": 3,
      "authors": [
        {
          "authorId": "2221269484",
          "name": "Chenyang Zhang"
        },
        {
          "authorId": "145374132",
          "name": "Zhiqing Huang"
        },
        {
          "authorId": "2108659922",
          "name": "Shuqing Wang"
        },
        {
          "authorId": "2115400729",
          "name": "Yan Hong"
        }
      ]
    },
    {
      "paperId": "49d08bd51c4eacbd51a13ac1df44892933cbfba2",
      "externalIds": {
        "MAG": "2979489357",
        "DBLP": "conf/rtcsa/LiL0FSWQ19",
        "DOI": "10.1109/RTCSA.2019.8864571",
        "CorpusId": 204700852
      },
      "url": "https://www.semanticscholar.org/paper/49d08bd51c4eacbd51a13ac1df44892933cbfba2",
      "title": "Fast and Accurate Trajectory Tracking for Unmanned Aerial Vehicles based on Deep Reinforcement Learning",
      "venue": "IEEE International Conference on Embedded and Real-Time Computing Systems and Applications",
      "year": 2019,
      "referenceCount": 30,
      "citationCount": 16,
      "authors": [
        {
          "authorId": "48513191",
          "name": "Yilan Li"
        },
        {
          "authorId": "1391217910",
          "name": "Hongjia Li"
        },
        {
          "authorId": "2109738049",
          "name": "Zhe Li"
        },
        {
          "authorId": "122851204",
          "name": "Haowen Fang"
        },
        {
          "authorId": "31503437",
          "name": "A. Sanyal"
        },
        {
          "authorId": "46393431",
          "name": "Yanzhi Wang"
        },
        {
          "authorId": "1862322",
          "name": "Qinru Qiu"
        }
      ]
    },
    {
      "paperId": "d131754221953e12e647c4c3701f669fbc2b5d2f",
      "externalIds": {
        "DBLP": "conf/ithings/MahabalFW22",
        "DOI": "10.1109/iThings-GreenCom-CPSCom-SmartData-Cybermatics55523.2022.00048",
        "CorpusId": 252719982
      },
      "url": "https://www.semanticscholar.org/paper/d131754221953e12e647c4c3701f669fbc2b5d2f",
      "title": "On-Ramp Merging for Connected Autonomous Vehicles using Deep Reinforcement Learning",
      "venue": "2022 IEEE International Conferences on Internet of Things (iThings) and IEEE Green Computing & Communications (GreenCom) and IEEE Cyber, Physical & Social Computing (CPSCom) and IEEE Smart Data (SmartData) and IEEE Congress on Cybermatics (Cybermatics)",
      "year": 2022,
      "referenceCount": 20,
      "citationCount": 5,
      "authors": [
        {
          "authorId": "1394512039",
          "name": "Chinmay Mahabal"
        },
        {
          "authorId": "143972429",
          "name": "Hua Fang"
        },
        {
          "authorId": "2145340342",
          "name": "Honggang Wang"
        }
      ]
    },
    {
      "paperId": "2e6223a07dec43ba03908dae905f184df4554dc4",
      "externalIds": {
        "ArXiv": "1810.07550",
        "DBLP": "journals/corr/abs-1810-07550",
        "MAG": "2896662789",
        "CorpusId": 52989026
      },
      "url": "https://www.semanticscholar.org/paper/2e6223a07dec43ba03908dae905f184df4554dc4",
      "title": "The Newton Scheme for Deep Learning",
      "venue": "arXiv.org",
      "year": 2018,
      "referenceCount": 24,
      "citationCount": 3,
      "authors": [
        {
          "authorId": "81982205",
          "name": "Junqing Qiu"
        },
        {
          "authorId": "2142620556",
          "name": "G. Zhong"
        },
        {
          "authorId": "152999669",
          "name": "Yihua Lu"
        },
        {
          "authorId": "2352949666",
          "name": "Kun Xin"
        },
        {
          "authorId": "1766627",
          "name": "Huihuan Qian"
        },
        {
          "authorId": "2116845793",
          "name": "Xi Zhu"
        }
      ]
    },
    {
      "paperId": "727cf25f5ebe1584d8a7540b69f21abb8a270441",
      "externalIds": {
        "DOI": "10.1145/3671151.3671230",
        "CorpusId": 271429184
      },
      "url": "https://www.semanticscholar.org/paper/727cf25f5ebe1584d8a7540b69f21abb8a270441",
      "title": "Research on Intelligent Waste Sorting System Based on Improved YOLOv8",
      "venue": "Proceedings of the 5th International Conference on Computer Information and Big Data Applications",
      "year": 2024,
      "referenceCount": 5,
      "citationCount": 0,
      "authors": [
        {
          "authorId": "2240356152",
          "name": "Xuan Hou"
        },
        {
          "authorId": "2397427775",
          "name": "Qingqing Liu"
        }
      ]
    }
  ]
}