{
  "total": 7479,
  "offset": 0,
  "next": 10,
  "data": [
    {
      "paperId": "e51e557cf4701510916bb1444074f62e6a04f889",
      "externalIds": {
        "MAG": "2963360524",
        "ArXiv": "1805.11921",
        "DBLP": "conf/icml/IvanovB18",
        "CorpusId": 44095757
      },
      "url": "https://www.semanticscholar.org/paper/e51e557cf4701510916bb1444074f62e6a04f889",
      "title": "Anonymous Walk Embeddings",
      "venue": "International Conference on Machine Learning",
      "year": 2018,
      "referenceCount": 30,
      "citationCount": 189,
      "authors": [
        {
          "authorId": "2054725783",
          "name": "Sergey Ivanov"
        },
        {
          "authorId": "51139941",
          "name": "Evgeny Burnaev"
        }
      ]
    },
    {
      "paperId": "9b146f4e132dc4636657cd15c6f3f8862836b3ac",
      "externalIds": {
        "PubMedCentral": "10358924",
        "DOI": "10.1371/journal.pone.0288822",
        "CorpusId": 259992263,
        "PubMed": "37471403"
      },
      "url": "https://www.semanticscholar.org/paper/9b146f4e132dc4636657cd15c6f3f8862836b3ac",
      "title": "Offline EEG hyper-scanning using anonymous walk embeddings in tacit coordination games",
      "venue": "PLoS ONE",
      "year": 2023,
      "referenceCount": 31,
      "citationCount": 0,
      "authors": [
        {
          "authorId": "2127923979",
          "name": "Inon Zuckerman"
        },
        {
          "authorId": "52224558",
          "name": "Dor Mizrahi"
        },
        {
          "authorId": "1491481153",
          "name": "Ilan Laufer"
        }
      ]
    },
    {
      "paperId": "245207706b2e90c98287d9d10335b82d3fc8a2ae",
      "externalIds": {
        "ArXiv": "2201.06972",
        "DBLP": "journals/tnn/GuoJZPJSW24",
        "DOI": "10.1109/TNNLS.2023.3234005",
        "CorpusId": 246035204,
        "PubMed": "37018646"
      },
      "url": "https://www.semanticscholar.org/paper/245207706b2e90c98287d9d10335b82d3fc8a2ae",
      "title": "Representation Learning on Heterostructures via Heterogeneous Anonymous Walks",
      "venue": "IEEE Transactions on Neural Networks and Learning Systems",
      "year": 2022,
      "referenceCount": 68,
      "citationCount": 2,
      "authors": [
        {
          "authorId": "145008240",
          "name": "X. Guo"
        },
        {
          "authorId": "145342959",
          "name": "Pengfei Jiao"
        },
        {
          "authorId": "2052960342",
          "name": "Ting Pan"
        },
        {
          "authorId": "2108277167",
          "name": "Wang Zhang"
        },
        {
          "authorId": "2143901628",
          "name": "Mengyu Jia"
        },
        {
          "authorId": "2012440549",
          "name": "Danyang Shi"
        },
        {
          "authorId": "65779026",
          "name": "Wenjun Wang"
        }
      ]
    },
    {
      "paperId": "8866f093819ef4930d47b4704255207feaebd927",
      "externalIds": {
        "DBLP": "conf/icdm/ZhangW21",
        "DOI": "10.1109/ICDM51629.2021.00198",
        "CorpusId": 246291445
      },
      "url": "https://www.semanticscholar.org/paper/8866f093819ef4930d47b4704255207feaebd927",
      "title": "Graph Neighborhood Routing and Random Walk for Session-based Recommendation",
      "venue": "Industrial Conference on Data Mining",
      "year": 2021,
      "referenceCount": 0,
      "citationCount": 15,
      "authors": [
        {
          "authorId": "22447545",
          "name": "Zizhuo Zhang"
        },
        {
          "authorId": "2118640845",
          "name": "Bang Wang"
        }
      ]
    },
    {
      "paperId": "b05027db6f5cd82189b031384186fdaebc7979d4",
      "externalIds": {
        "DBLP": "journals/jifs/QiuZ23",
        "DOI": "10.3233/JIFS-222712",
        "CorpusId": 253362385
      },
      "url": "https://www.semanticscholar.org/paper/b05027db6f5cd82189b031384186fdaebc7979d4",
      "title": "Role-oriented network embedding via anonymous walks",
      "venue": "Journal of Intelligent & Fuzzy Systems",
      "year": 2022,
      "referenceCount": 43,
      "citationCount": 1,
      "authors": [
        {
          "authorId": "2190020639",
          "name": "Yutan Qiu"
        },
        {
          "authorId": "2118410587",
          "name": "Qing Zhou"
        }
      ]
    },
    {
      "paperId": "2e12e6b9be2eff04255aadcca764d7b87ba2a644",
      "externalIds": {
        "DBLP": "journals/access/ZakroumFGC23",
        "DOI": "10.1109/ACCESS.2023.3263206",
        "CorpusId": 257851937
      },
      "url": "https://www.semanticscholar.org/paper/2e12e6b9be2eff04255aadcca764d7b87ba2a644",
      "title": "Self-Supervised Latent Representations of Network Flows and Application to Darknet Traffic Classification",
      "venue": "IEEE Access",
      "year": 2023,
      "referenceCount": 40,
      "citationCount": 4,
      "authors": [
        {
          "authorId": "117977601",
          "name": "Mehdi Zakroum"
        },
        {
          "authorId": "34877138",
          "name": "J. François"
        },
        {
          "authorId": "2125342650",
          "name": "Mounir Ghogho"
        },
        {
          "authorId": "1755995",
          "name": "I. Chrisment"
        }
      ]
    },
    {
      "paperId": "01693bac1b632a5a2d2619f2105d1937cdf187dc",
      "externalIds": {
        "DBLP": "journals/access/HaoLC22",
        "DOI": "10.1109/ACCESS.2022.3175581",
        "CorpusId": 248838546
      },
      "url": "https://www.semanticscholar.org/paper/01693bac1b632a5a2d2619f2105d1937cdf187dc",
      "title": "A Graph Representation Learning Algorithm for Approximate Local Symmetry Feature Extraction to Enhance Malicious Device Detection Preprocessing",
      "venue": "IEEE Access",
      "year": 2022,
      "referenceCount": 33,
      "citationCount": 2,
      "authors": [
        {
          "authorId": "103849272",
          "name": "Yiran Hao"
        },
        {
          "authorId": "2117522225",
          "name": "Quan Lu"
        },
        {
          "authorId": "48283504",
          "name": "Xinming Chen"
        }
      ]
    },
    {
      "paperId": "0ebe89a42d482ae53473f26064566c57bd2ec7a1",
      "externalIds": {
        "MAG": "2914872251",
        "DBLP": "conf/icdm/SharaevAKISBCB18",
        "DOI": "10.1109/ICDMW.2018.00051",
        "CorpusId": 61808721
      },
      "url": "https://www.semanticscholar.org/paper/0ebe89a42d482ae53473f26064566c57bd2ec7a1",
      "title": "Learning Connectivity Patterns via Graph Kernels for fMRI-Based Depression Diagnostics",
      "venue": "2018 IEEE International Conference on Data Mining Workshops (ICDMW)",
      "year": 2018,
      "referenceCount": 41,
      "citationCount": 16,
      "authors": [
        {
          "authorId": "2222434540",
          "name": "M. Sharaev"
        },
        {
          "authorId": "145235439",
          "name": "Alexey Artemov"
        },
        {
          "authorId": "48739028",
          "name": "E. Kondrateva"
        },
        {
          "authorId": "2054725939",
          "name": "S. Ivanov"
        },
        {
          "authorId": "41018820",
          "name": "Svetlana Sushchinskaya"
        },
        {
          "authorId": "47065547",
          "name": "A. Bernstein"
        },
        {
          "authorId": "145683892",
          "name": "A. Cichocki"
        },
        {
          "authorId": "51139941",
          "name": "Evgeny Burnaev"
        }
      ]
    },
    {
      "paperId": "57662f5eed290c7ee9d9800c4f6d4757e71f6dea",
      "externalIds": {
        "DBLP": "conf/cikm/HuangGLSWLLZ21",
        "DOI": "10.1145/3459637.3482308",
        "CorpusId": 240230784
      },
      "url": "https://www.semanticscholar.org/paper/57662f5eed290c7ee9d9800c4f6d4757e71f6dea",
      "title": "Two-tier Graph Contextual Embedding for Cross-device User Matching",
      "venue": "International Conference on Information and Knowledge Management",
      "year": 2021,
      "referenceCount": 40,
      "citationCount": 5,
      "authors": [
        {
          "authorId": "2146282590",
          "name": "Hongren Huang"
        },
        {
          "authorId": "50530181",
          "name": "Shu Guo"
        },
        {
          "authorId": "2116521405",
          "name": "Chen Li"
        },
        {
          "authorId": "2054250919",
          "name": "Jiawei Sheng"
        },
        {
          "authorId": "2108740151",
          "name": "Lihong Wang"
        },
        {
          "authorId": "1492113939",
          "name": "Jianxin Li"
        },
        {
          "authorId": "2153468298",
          "name": "Jing Liu"
        },
        {
          "authorId": "3052397",
          "name": "Shenghai Zhong"
        }
      ]
    },
    {
      "paperId": "fa281e59900501f1c467409904dd642de9666190",
      "externalIds": {
        "DBLP": "journals/tits/DingCZZZ25",
        "DOI": "10.1109/TITS.2025.3560706",
        "CorpusId": 278101225
      },
      "url": "https://www.semanticscholar.org/paper/fa281e59900501f1c467409904dd642de9666190",
      "title": "Road Network Bottleneck Prediction Based on Inductive Congestion Propagation: A Causal Anonymous Walk Approach",
      "venue": "IEEE transactions on intelligent transportation systems (Print)",
      "year": 2025,
      "referenceCount": 23,
      "citationCount": 2,
      "authors": [
        {
          "authorId": "2243923601",
          "name": "Xu Ding"
        },
        {
          "authorId": "2318307363",
          "name": "Jun Chen"
        },
        {
          "authorId": "2242734245",
          "name": "Hang Zheng"
        },
        {
          "authorId": "2218709688",
          "name": "Bixun Zhang"
        },
        {
          "authorId": "2109441882",
          "name": "Chong Zhao"
        }
      ]
    }
  ]
}