{
  "total": 38,
  "offset": 0,
  "next": 10,
  "data": [
    {
      "paperId": "a4e088a3d92f9299b6a8060c21a1082ecb251902",
      "externalIds": {
        "MAG": "2952982957",
        "DBLP": "journals/corr/abs-1804-01882",
        "ArXiv": "1804.01882",
        "CorpusId": 4789131
      },
      "url": "https://www.semanticscholar.org/paper/a4e088a3d92f9299b6a8060c21a1082ecb251902",
      "title": "Hyperbolic Entailment Cones for Learning Hierarchical Embeddings",
      "venue": "International Conference on Machine Learning",
      "year": 2018,
      "referenceCount": 37,
      "citationCount": 333,
      "authors": [
        {
          "authorId": "1882451",
          "name": "O. Ganea"
        },
        {
          "authorId": "9940262",
          "name": "Gary Bécigneul"
        },
        {
          "authorId": "143936663",
          "name": "Thomas Hofmann"
        }
      ]
    },
    {
      "paperId": "0444a732891b96b4ffb9f3dba60e3594c8e98a09",
      "externalIds": {
        "ArXiv": "2305.15215",
        "DBLP": "conf/iclr/YuLTS24",
        "CorpusId": 268987891
      },
      "url": "https://www.semanticscholar.org/paper/0444a732891b96b4ffb9f3dba60e3594c8e98a09",
      "title": "Shadow Cones: A Generalized Framework for Partial Order Embeddings",
      "venue": "International Conference on Learning Representations",
      "year": 2023,
      "referenceCount": 30,
      "citationCount": 3,
      "authors": [
        {
          "authorId": "2312346274",
          "name": "Tao Yu"
        },
        {
          "authorId": "2209759994",
          "name": "Toni J.B. Liu"
        },
        {
          "authorId": "2055930075",
          "name": "Albert Tseng"
        },
        {
          "authorId": "2295515384",
          "name": "Christopher De Sa"
        }
      ]
    },
    {
      "paperId": "cb00cdbd57b241990ee12872d250057bc8cb1676",
      "externalIds": {
        "DBLP": "conf/aistats/FonioEA25",
        "CorpusId": 280635914
      },
      "url": "https://www.semanticscholar.org/paper/cb00cdbd57b241990ee12872d250057bc8cb1676",
      "title": "Hyperbolic Prototypical Entailment Cones for Image Classification",
      "venue": "International Conference on Artificial Intelligence and Statistics",
      "year": 2025,
      "referenceCount": 23,
      "citationCount": 1,
      "authors": [
        {
          "authorId": "2243268345",
          "name": "Samuele Fonio"
        },
        {
          "authorId": "2053593694",
          "name": "Roberto Esposito"
        },
        {
          "authorId": "2295126558",
          "name": "Marco Aldinucci"
        }
      ]
    },
    {
      "paperId": "7f7d8e81c5812981bdf6e5c58b13523fdc568171",
      "externalIds": {
        "DBLP": "conf/eccv/KimCKHY24",
        "ArXiv": "2404.17507",
        "DOI": "10.48550/arXiv.2404.17507",
        "CorpusId": 269430742
      },
      "url": "https://www.semanticscholar.org/paper/7f7d8e81c5812981bdf6e5c58b13523fdc568171",
      "title": "HYPE: Hyperbolic Entailment Filtering for Underspecified Images and Texts",
      "venue": "European Conference on Computer Vision",
      "year": 2024,
      "referenceCount": 79,
      "citationCount": 16,
      "authors": [
        {
          "authorId": "2382193",
          "name": "Wonjae Kim"
        },
        {
          "authorId": "2647582",
          "name": "Sanghyuk Chun"
        },
        {
          "authorId": "2261091551",
          "name": "Taekyung Kim"
        },
        {
          "authorId": "2086576",
          "name": "Dongyoon Han"
        },
        {
          "authorId": "2293774509",
          "name": "Sangdoo Yun"
        }
      ]
    },
    {
      "paperId": "1b1cd9a53df0abe7bccabd3c05f183c2269852e4",
      "externalIds": {
        "DBLP": "journals/corr/abs-2512-20029",
        "ArXiv": "2512.20029",
        "DOI": "10.48550/arXiv.2512.20029",
        "CorpusId": 284133028
      },
      "url": "https://www.semanticscholar.org/paper/1b1cd9a53df0abe7bccabd3c05f183c2269852e4",
      "title": "H2em: Learning Hierarchical Hyperbolic Embeddings for Compositional Zero-Shot Learning",
      "venue": "arXiv.org",
      "year": 2025,
      "referenceCount": 59,
      "citationCount": 1,
      "authors": [
        {
          "authorId": "2380631640",
          "name": "Lin Li"
        },
        {
          "authorId": "2130139358",
          "name": "Jiahui Li"
        },
        {
          "authorId": "2298271761",
          "name": "Jiaming Lei"
        },
        {
          "authorId": "2323527724",
          "name": "Jun Xiao"
        },
        {
          "authorId": "2065221458",
          "name": "Feifei Shao"
        },
        {
          "authorId": "2145116668",
          "name": "Long Chen"
        }
      ]
    },
    {
      "paperId": "fb4fa05923cbc46602704d9286035fd279336fea",
      "externalIds": {
        "DBLP": "journals/corr/abs-2410-06912",
        "ArXiv": "2410.06912",
        "DOI": "10.48550/arXiv.2410.06912",
        "CorpusId": 273228194
      },
      "url": "https://www.semanticscholar.org/paper/fb4fa05923cbc46602704d9286035fd279336fea",
      "title": "Compositional Entailment Learning for Hyperbolic Vision-Language Models",
      "venue": "International Conference on Learning Representations",
      "year": 2024,
      "referenceCount": 79,
      "citationCount": 56,
      "authors": [
        {
          "authorId": "2312334190",
          "name": "Avik Pal"
        },
        {
          "authorId": "2171107261",
          "name": "Max van Spengler"
        },
        {
          "authorId": "2202220377",
          "name": "G. M. D. D. Melendugno"
        },
        {
          "authorId": "2162586026",
          "name": "Alessandro Flaborea"
        },
        {
          "authorId": "2294568447",
          "name": "Fabio Galasso"
        },
        {
          "authorId": "2311887698",
          "name": "Pascal Mettes"
        }
      ]
    },
    {
      "paperId": "9bda8b04837cd8072070783176af21c23de84dcc",
      "externalIds": {
        "DBLP": "journals/corr/abs-2501-02285",
        "ArXiv": "2501.02285",
        "DOI": "10.48550/arXiv.2501.02285",
        "CorpusId": 275336813
      },
      "url": "https://www.semanticscholar.org/paper/9bda8b04837cd8072070783176af21c23de84dcc",
      "title": "Hyperbolic Contrastive Learning for Hierarchical 3D Point Cloud Embedding",
      "venue": "arXiv.org",
      "year": 2025,
      "referenceCount": 0,
      "citationCount": 0,
      "authors": [
        {
          "authorId": "2288172107",
          "name": "Yingjie Liu"
        },
        {
          "authorId": "2346149017",
          "name": "Pengyu Zhang"
        },
        {
          "authorId": "2323336050",
          "name": "Ziyao He"
        },
        {
          "authorId": "2277791813",
          "name": "Mingsong Chen"
        },
        {
          "authorId": "2143754167",
          "name": "Xuan Tang"
        },
        {
          "authorId": "2288665439",
          "name": "Xian Wei"
        }
      ]
    },
    {
      "paperId": "d7ae265b2d463bfbe64a44acd9e001fb06eed312",
      "externalIds": {
        "DBLP": "journals/corr/abs-2503-00804",
        "ArXiv": "2503.00804",
        "DOI": "10.48550/arXiv.2503.00804",
        "CorpusId": 276742185
      },
      "url": "https://www.semanticscholar.org/paper/d7ae265b2d463bfbe64a44acd9e001fb06eed312",
      "title": "DELST: Dual Entailment Learning for Hyperbolic Image-Gene Pretraining in Spatial Transcriptomics",
      "venue": "arXiv.org",
      "year": 2025,
      "referenceCount": 25,
      "citationCount": 1,
      "authors": [
        {
          "authorId": "2348305697",
          "name": "Xulin Chen"
        },
        {
          "authorId": "2239303686",
          "name": "Junzhou Huang"
        }
      ]
    },
    {
      "paperId": "1372ff22163b803259f150005e29adbc5bea0b05",
      "externalIds": {
        "ArXiv": "2511.11045",
        "DBLP": "journals/corr/abs-2511-11045",
        "DOI": "10.48550/arXiv.2511.11045",
        "CorpusId": 283055329
      },
      "url": "https://www.semanticscholar.org/paper/1372ff22163b803259f150005e29adbc5bea0b05",
      "title": "Hyperbolic Hierarchical Alignment Reasoning Network for Text-3D Retrieval",
      "venue": "arXiv.org",
      "year": 2025,
      "referenceCount": 0,
      "citationCount": 1,
      "authors": [
        {
          "authorId": "2261894020",
          "name": "Wenrui Li"
        },
        {
          "authorId": "2317088647",
          "name": "Yidan Lu"
        },
        {
          "authorId": "2316948051",
          "name": "Yeyu Chai"
        },
        {
          "authorId": "2397559157",
          "name": "Rui Zhao"
        },
        {
          "authorId": "1579756374",
          "name": "Hengyu Man"
        },
        {
          "authorId": "2315442496",
          "name": "Xiaopeng Fan"
        }
      ]
    },
    {
      "paperId": "a282a72322d6d0d39a9ca20bc68701c65d79fd4e",
      "externalIds": {
        "MAG": "3038054432",
        "ArXiv": "2004.03459",
        "DBLP": "journals/corr/abs-2004-03459",
        "DOI": "10.1109/CVPRW50498.2020.00426",
        "CorpusId": 215238420
      },
      "url": "https://www.semanticscholar.org/paper/a282a72322d6d0d39a9ca20bc68701c65d79fd4e",
      "title": "Hierarchical Image Classification using Entailment Cone Embeddings",
      "venue": "2020 IEEE/CVF Conference on Computer Vision and Pattern Recognition Workshops (CVPRW)",
      "year": 2020,
      "referenceCount": 28,
      "citationCount": 76,
      "authors": [
        {
          "authorId": "2010095",
          "name": "Ankit Dhall"
        },
        {
          "authorId": "2063997715",
          "name": "Anastasia Makarova"
        },
        {
          "authorId": "1882451",
          "name": "O. Ganea"
        },
        {
          "authorId": "41018093",
          "name": "Dario Pavllo"
        },
        {
          "authorId": "2065707763",
          "name": "Michael Greeff"
        },
        {
          "authorId": "153243248",
          "name": "A. Krause"
        }
      ]
    }
  ]
}