{
  "total": 22,
  "offset": 0,
  "next": 10,
  "data": [
    {
      "paperId": "36ec448cd2d202e0d0652d61770f8505e14e61fd",
      "externalIds": {
        "MAG": "2949544693",
        "DBLP": "conf/icml/LiM17",
        "ArXiv": "1703.00440",
        "CorpusId": 17072096
      },
      "url": "https://www.semanticscholar.org/paper/36ec448cd2d202e0d0652d61770f8505e14e61fd",
      "title": "Fast k-Nearest Neighbour Search via Prioritized DCI",
      "venue": "International Conference on Machine Learning",
      "year": 2017,
      "referenceCount": 34,
      "citationCount": 37,
      "authors": [
        {
          "authorId": "49243436",
          "name": "Ke Li"
        },
        {
          "authorId": "143751119",
          "name": "Jitendra Malik"
        }
      ]
    },
    {
      "paperId": "25fe7ac348a93fe2940a225f3921cf3475c5c8fe",
      "externalIds": {
        "MAG": "2963557510",
        "ArXiv": "1512.00442",
        "DBLP": "journals/corr/LiM15b",
        "CorpusId": 2883127
      },
      "url": "https://www.semanticscholar.org/paper/25fe7ac348a93fe2940a225f3921cf3475c5c8fe",
      "title": "Fast k-Nearest Neighbour Search via Dynamic Continuous Indexing",
      "venue": "International Conference on Machine Learning",
      "year": 2015,
      "referenceCount": 30,
      "citationCount": 34,
      "authors": [
        {
          "authorId": "2149140383",
          "name": "Ke Li"
        },
        {
          "authorId": "143751119",
          "name": "Jitendra Malik"
        }
      ]
    },
    {
      "paperId": "8b5e539a6a802b6547f2cc34e95fb0b2efabe48f",
      "externalIds": {
        "CorpusId": 265097130
      },
      "url": "https://www.semanticscholar.org/paper/8b5e539a6a802b6547f2cc34e95fb0b2efabe48f",
      "title": "Fast k-Nearest Neighbour Search via Dynamic Continuous Indexing Supplementary Material",
      "venue": "",
      "year": 2016,
      "referenceCount": 0,
      "citationCount": 1,
      "authors": [
        {
          "authorId": "2304236449",
          "name": "LI KE."
        }
      ]
    },
    {
      "paperId": "d1bb43c732741a580ed4c208994203bdb1d75d8c",
      "externalIds": {
        "ArXiv": "2411.17902",
        "DBLP": "journals/corr/abs-2411-17902",
        "DOI": "10.1109/ICRA55743.2025.11127785",
        "CorpusId": 274305673
      },
      "url": "https://www.semanticscholar.org/paper/d1bb43c732741a580ed4c208994203bdb1d75d8c",
      "title": "Nearest-Neighbourless Asymptotically Optimal Motion Planning with Fully Connected Informed Trees (FCIT*)",
      "venue": "IEEE International Conference on Robotics and Automation",
      "year": 2024,
      "referenceCount": 36,
      "citationCount": 8,
      "authors": [
        {
          "authorId": "2332538654",
          "name": "Tyler S. Wilson"
        },
        {
          "authorId": "46849642",
          "name": "Wil B. Thomason"
        },
        {
          "authorId": "2710105",
          "name": "Zachary K. Kingston"
        },
        {
          "authorId": "2289406121",
          "name": "L. Kavraki"
        },
        {
          "authorId": "1735544",
          "name": "J. Gammell"
        }
      ]
    },
    {
      "paperId": "ec2205a53eeb413200b06f55d621bebac0789681",
      "externalIds": {
        "DBLP": "conf/ijcnn/LiuK07",
        "MAG": "2101126742",
        "DOI": "10.1109/IJCNN.2007.4371107",
        "CorpusId": 14718943
      },
      "url": "https://www.semanticscholar.org/paper/ec2205a53eeb413200b06f55d621bebac0789681",
      "title": "Automatic Calibration of Numerical Models using Fast Optimisation by Fitness Approximation",
      "venue": "IEEE International Joint Conference on Neural Network",
      "year": 2007,
      "referenceCount": 4,
      "citationCount": 17,
      "authors": [
        {
          "authorId": "2152798602",
          "name": "Yang Liu"
        },
        {
          "authorId": "2445720",
          "name": "S. Khu"
        }
      ]
    },
    {
      "paperId": "af96580bc1a5a581908ff4fe03adc05c541a2410",
      "externalIds": {
        "CorpusId": 273163914
      },
      "url": "https://www.semanticscholar.org/paper/af96580bc1a5a581908ff4fe03adc05c541a2410",
      "title": "Automatic Calibration of Numerical Models using Fast Optimisation by Fitness Approximation",
      "venue": "2007 International Joint Conference on Neural Networks",
      "year": 2007,
      "referenceCount": 6,
      "citationCount": 0,
      "authors": [
        {
          "authorId": "2156032066",
          "name": "Y. Liu"
        },
        {
          "authorId": "2324579104",
          "name": "S.T. Khu"
        }
      ]
    },
    {
      "paperId": "5e602f0d7591b0763c4c7079f86bdfc633005b1d",
      "externalIds": {
        "DBLP": "journals/jcheminf/LoosS17",
        "MAG": "2591002382",
        "PubMedCentral": "5323340",
        "DOI": "10.1186/s13321-017-0197-z",
        "CorpusId": 14925636,
        "PubMed": "28286574"
      },
      "url": "https://www.semanticscholar.org/paper/5e602f0d7591b0763c4c7079f86bdfc633005b1d",
      "title": "Nontargeted homologue series extraction from hyphenated high resolution mass spectrometry data",
      "venue": "Journal of Cheminformatics",
      "year": 2017,
      "referenceCount": 57,
      "citationCount": 53,
      "authors": [
        {
          "authorId": "49917264",
          "name": "M. Loos"
        },
        {
          "authorId": "31419001",
          "name": "H. Singer"
        }
      ]
    },
    {
      "paperId": "98d736837f7f155bef2a8cfc8cd4cf7b09ae8e12",
      "externalIds": {
        "MAG": "3099682841",
        "ArXiv": "1509.01600",
        "DBLP": "conf/globecom/RazaviVL15",
        "DOI": "10.1109/GLOCOMW.2015.7414026",
        "CorpusId": 12088089
      },
      "url": "https://www.semanticscholar.org/paper/98d736837f7f155bef2a8cfc8cd4cf7b09ae8e12",
      "title": "K-Means Fingerprint Clustering for Low-Complexity Floor Estimation in Indoor Mobile Localization",
      "venue": "2015 IEEE Globecom Workshops (GC Wkshps)",
      "year": 2015,
      "referenceCount": 29,
      "citationCount": 72,
      "authors": [
        {
          "authorId": "34976404",
          "name": "S. Razavi"
        },
        {
          "authorId": "1720710",
          "name": "M. Valkama"
        },
        {
          "authorId": "1697970",
          "name": "E. Lohan"
        }
      ]
    },
    {
      "paperId": "d0ad26b1445c342cf110bcfe7eb3685de0bb8867",
      "externalIds": {
        "MAG": "2506584907",
        "DBLP": "conf/ausai/2004",
        "DOI": "10.1007/b104336",
        "CorpusId": 38541125
      },
      "url": "https://www.semanticscholar.org/paper/d0ad26b1445c342cf110bcfe7eb3685de0bb8867",
      "title": "AI 2004: Advances in Artificial Intelligence, 17th Australian Joint Conference on Artificial Intelligence, Cairns, Australia, December 4-6, 2004, Proceedings",
      "venue": "Australian Conference on Artificial Intelligence",
      "year": 2004,
      "referenceCount": 0,
      "citationCount": 110,
      "authors": [
        {
          "authorId": "1726660",
          "name": "Geoffrey I. Webb"
        },
        {
          "authorId": "9305829",
          "name": "Xinghuo Yu"
        }
      ]
    },
    {
      "paperId": "a07c3768cc40c78c5688855b38c74c7c244f6313",
      "externalIds": {
        "MAG": "2751862136",
        "DBLP": "conf/clef/2008",
        "DOI": "10.1007/978-3-642-04447-2",
        "CorpusId": 43339273
      },
      "url": "https://www.semanticscholar.org/paper/a07c3768cc40c78c5688855b38c74c7c244f6313",
      "title": "Evaluating Systems for Multilingual and Multimodal Information Access, 9th Workshop of the Cross-Language Evaluation Forum, CLEF 2008, Aarhus, Denmark, September 17-19, 2008, Revised Selected Papers",
      "venue": "Conference and Labs of the Evaluation Forum",
      "year": 2009,
      "referenceCount": 0,
      "citationCount": 116,
      "authors": [
        {
          "authorId": "69547719",
          "name": "Cross-Language Evaluation Forum"
        },
        {
          "authorId": "144423157",
          "name": "C. Peters"
        }
      ]
    }
  ]
}