{
  "total": 64,
  "offset": 0,
  "next": 10,
  "data": [
    {
      "paperId": "90f72fbbe5f0a29e627db28999e01a30a9655bc6",
      "externalIds": {
        "DBLP": "journals/corr/GermainGML15",
        "ArXiv": "1502.03509",
        "MAG": "2952838738",
        "CorpusId": 1399080
      },
      "url": "https://www.semanticscholar.org/paper/90f72fbbe5f0a29e627db28999e01a30a9655bc6",
      "title": "MADE: Masked Autoencoder for Distribution Estimation",
      "venue": "International Conference on Machine Learning",
      "year": 2015,
      "referenceCount": 23,
      "citationCount": 945,
      "authors": [
        {
          "authorId": "39844381",
          "name": "M. Germain"
        },
        {
          "authorId": "144717963",
          "name": "Karol Gregor"
        },
        {
          "authorId": "145797336",
          "name": "Iain Murray"
        },
        {
          "authorId": "1777528",
          "name": "H. Larochelle"
        }
      ]
    },
    {
      "paperId": "62d8bd18cbb90ca3494ccffb07e4aa197b012d62",
      "externalIds": {
        "CorpusId": 73594264
      },
      "url": "https://www.semanticscholar.org/paper/62d8bd18cbb90ca3494ccffb07e4aa197b012d62",
      "title": "Explorer MADE : Masked Autoencoder for Distribution Estimation",
      "venue": "",
      "year": 2015,
      "referenceCount": 18,
      "citationCount": 0,
      "authors": [
        {
          "authorId": "39844381",
          "name": "M. Germain"
        }
      ]
    },
    {
      "paperId": "1d9678297c0d05f801ee6b174ab9d023db242e4d",
      "externalIds": {
        "DOI": "10.1002/stc.3096",
        "CorpusId": 252548797
      },
      "url": "https://www.semanticscholar.org/paper/1d9678297c0d05f801ee6b174ab9d023db242e4d",
      "title": "Anomaly detection in rolling bearings based on the Mel‐frequency cepstrum coefficient and masked autoencoder for distribution estimation",
      "venue": "Structural Control & Health Monitoring",
      "year": 2022,
      "referenceCount": 44,
      "citationCount": 10,
      "authors": [
        {
          "authorId": "95934454",
          "name": "Suchao Xie"
        },
        {
          "authorId": "3049742",
          "name": "Runda Liu"
        },
        {
          "authorId": "2048600694",
          "name": "Leilei Du"
        },
        {
          "authorId": "2048917522",
          "name": "Hongchuang Tan"
        }
      ]
    },
    {
      "paperId": "8d28dfdde2844af42a87794ddbf3b4191e6f670d",
      "externalIds": {
        "DBLP": "journals/tnn/KhajenezhadMB21",
        "MAG": "3092312346",
        "DOI": "10.1109/TNNLS.2020.3026572",
        "CorpusId": 222352217,
        "PubMed": "33048754"
      },
      "url": "https://www.semanticscholar.org/paper/8d28dfdde2844af42a87794ddbf3b4191e6f670d",
      "title": "Masked Autoencoder for Distribution Estimation on Small Structured Data Sets",
      "venue": "IEEE Transactions on Neural Networks and Learning Systems",
      "year": 2020,
      "referenceCount": 0,
      "citationCount": 12,
      "authors": [
        {
          "authorId": "1905469",
          "name": "Ahmad Khajenezhad"
        },
        {
          "authorId": "2061418027",
          "name": "Hatef Madani"
        },
        {
          "authorId": "1761129",
          "name": "H. Beigy"
        }
      ]
    },
    {
      "paperId": "58cfa83f5eb70a473fa471cf288b684cefcbf6df",
      "externalIds": {
        "DOI": "10.31893/multiscience.2024ss0611",
        "CorpusId": 272003787
      },
      "url": "https://www.semanticscholar.org/paper/58cfa83f5eb70a473fa471cf288b684cefcbf6df",
      "title": "Brain Tumor Detection using Hybrid CNN in fMRI images",
      "venue": "Multidisciplinary Science Journal",
      "year": 2024,
      "referenceCount": 25,
      "citationCount": 2,
      "authors": [
        {
          "authorId": "2317396079",
          "name": "Roshan Jahan"
        },
        {
          "authorId": "2143821881",
          "name": "Manish Madhav Tripathi"
        }
      ]
    },
    {
      "paperId": "14b7b5422fc5d7396d6e18511e9deb0dbf8c4a23",
      "externalIds": {
        "DBLP": "journals/tcsv/XieZS25",
        "DOI": "10.1109/TCSVT.2024.3465041",
        "CorpusId": 272796406
      },
      "url": "https://www.semanticscholar.org/paper/14b7b5422fc5d7396d6e18511e9deb0dbf8c4a23",
      "title": "A Novel SO(3) Rotational Equivariant Masked Autoencoder for 3D Mesh Object Analysis",
      "venue": "IEEE transactions on circuits and systems for video technology (Print)",
      "year": 2025,
      "referenceCount": 66,
      "citationCount": 2,
      "authors": [
        {
          "authorId": "2323530014",
          "name": "Min Xie"
        },
        {
          "authorId": "2313040989",
          "name": "Jie Zhao"
        },
        {
          "authorId": "2322181896",
          "name": "Kedi Shen"
        }
      ]
    },
    {
      "paperId": "9fadd417192a0337a4f3362a7b58b76688c66517",
      "externalIds": {
        "DOI": "10.1109/DOCS60977.2023.10294693",
        "CorpusId": 264879949
      },
      "url": "https://www.semanticscholar.org/paper/9fadd417192a0337a4f3362a7b58b76688c66517",
      "title": "Ensemble Masked Autoencoder and Gaussian Mixture Models for Cardinality Estimation",
      "venue": "2023 5th International Conference on Data-driven Optimization of Complex Systems (DOCS)",
      "year": 2023,
      "referenceCount": 21,
      "citationCount": 0,
      "authors": [
        {
          "authorId": "2287031627",
          "name": "Yimeng Chen"
        },
        {
          "authorId": "2264531591",
          "name": "Devin Jia"
        },
        {
          "authorId": "2263752045",
          "name": "Ying Lei"
        },
        {
          "authorId": "2264733646",
          "name": "Bo Li"
        }
      ]
    },
    {
      "paperId": "293c7e800c4d307a217c2db9d6fd75492bb786c6",
      "externalIds": {
        "DBLP": "journals/iotj/ChenRLMZCYMBLY26",
        "DOI": "10.1109/JIOT.2026.3656346",
        "CorpusId": 284999508
      },
      "url": "https://www.semanticscholar.org/paper/293c7e800c4d307a217c2db9d6fd75492bb786c6",
      "title": "Contrastive Swin Transformer With Masked Autoencoder for Pancreatic Cancer Computed Tomography Image Classification in the Internet of Medical Things",
      "venue": "IEEE Internet of Things Journal",
      "year": 2026,
      "referenceCount": 35,
      "citationCount": 0,
      "authors": [
        {
          "authorId": "2256591726",
          "name": "Qing Chen"
        },
        {
          "authorId": "121781019",
          "name": "S. Ren"
        },
        {
          "authorId": "2394300278",
          "name": "Jun Lu"
        },
        {
          "authorId": "2382418941",
          "name": "Meng Meng"
        },
        {
          "authorId": "2396475931",
          "name": "Ting Zhang"
        },
        {
          "authorId": "2350174580",
          "name": "Hanwei Chen"
        },
        {
          "authorId": "46554364",
          "name": "Lidong Yang"
        },
        {
          "authorId": "2236799000",
          "name": "Cai Meng"
        },
        {
          "authorId": "2373203058",
          "name": "Yuntao Bing"
        },
        {
          "authorId": "2395162131",
          "name": "Lei Li"
        },
        {
          "authorId": "2298372812",
          "name": "Chunhui Yuan"
        }
      ]
    },
    {
      "paperId": "e97096a559d72c3457bb8de191c956c9722cfdca",
      "externalIds": {
        "MAG": "3094366595",
        "DBLP": "conf/dcase/GiriCHTIK20",
        "CorpusId": 226273930
      },
      "url": "https://www.semanticscholar.org/paper/e97096a559d72c3457bb8de191c956c9722cfdca",
      "title": "Group Masked Autoencoder Based Density Estimator for Audio Anomaly Detection",
      "venue": "Workshop on Detection and Classification of Acoustic Scenes and Events",
      "year": 2020,
      "referenceCount": 20,
      "citationCount": 30,
      "authors": [
        {
          "authorId": "145874525",
          "name": "Ritwik Giri"
        },
        {
          "authorId": "2433020",
          "name": "Fangzhou Cheng"
        },
        {
          "authorId": "1698755",
          "name": "Karim Helwani"
        },
        {
          "authorId": "2182849",
          "name": "S. Tenneti"
        },
        {
          "authorId": "1471439894",
          "name": "Umut Isik"
        },
        {
          "authorId": "2030268",
          "name": "A. Krishnaswamy"
        }
      ]
    },
    {
      "paperId": "240c3422d147db42d7d8aad54406ee478167f6cd",
      "externalIds": {
        "ArXiv": "2511.06325",
        "CorpusId": 282911609
      },
      "url": "https://www.semanticscholar.org/paper/240c3422d147db42d7d8aad54406ee478167f6cd",
      "title": "Detecting AI-Generated Images via Contextual Anomaly Estimation in Masked AutoEncoders",
      "venue": "",
      "year": 2025,
      "referenceCount": 48,
      "citationCount": 0,
      "authors": [
        {
          "authorId": "2370932545",
          "name": "Minsuk Jang"
        },
        {
          "authorId": "2393012592",
          "name": "Hyeonseo Jeong"
        },
        {
          "authorId": "2189758507",
          "name": "Minseok Son"
        },
        {
          "authorId": "2375092985",
          "name": "Changick Kim"
        }
      ]
    }
  ]
}