{
  "total": 644,
  "offset": 0,
  "next": 10,
  "data": [
    {
      "paperId": "6f55f2234a002c69001df8ef9108cb86f1dfa506",
      "externalIds": {
        "DBLP": "journals/corr/abs-1807-00263",
        "MAG": "2963081736",
        "ArXiv": "1807.00263",
        "CorpusId": 49559279
      },
      "url": "https://www.semanticscholar.org/paper/6f55f2234a002c69001df8ef9108cb86f1dfa506",
      "title": "Accurate Uncertainties for Deep Learning Using Calibrated Regression",
      "venue": "International Conference on Machine Learning",
      "year": 2018,
      "referenceCount": 31,
      "citationCount": 789,
      "authors": [
        {
          "authorId": "145712106",
          "name": "Volodymyr Kuleshov"
        },
        {
          "authorId": "51130926",
          "name": "Nathan Fenner"
        },
        {
          "authorId": "2490652",
          "name": "Stefano Ermon"
        }
      ]
    },
    {
      "paperId": "afda2bb5d99f43e9fe1ae805d913fc3666a2f22b",
      "externalIds": {
        "ArXiv": "2506.04296",
        "DBLP": "journals/corr/abs-2506-04296",
        "DOI": "10.48550/arXiv.2506.04296",
        "CorpusId": 279244737
      },
      "url": "https://www.semanticscholar.org/paper/afda2bb5d99f43e9fe1ae805d913fc3666a2f22b",
      "title": "Deep learning for predicting hauling fleet production capacity under uncertainties in open pit mines using real and simulated data",
      "venue": "arXiv.org",
      "year": 2025,
      "referenceCount": 19,
      "citationCount": 1,
      "authors": [
        {
          "authorId": "2077009530",
          "name": "N. Guérin"
        },
        {
          "authorId": "2253777887",
          "name": "M. Nakhla"
        },
        {
          "authorId": "2366018041",
          "name": "A. Dehoux"
        },
        {
          "authorId": "2366017536",
          "name": "J. L. Loyer"
        }
      ]
    },
    {
      "paperId": "16c4e32936995bb08c8c942fefacb6dc080e189e",
      "externalIds": {
        "DOI": "10.1109/ISSC61953.2024.10603025",
        "CorpusId": 271549675
      },
      "url": "https://www.semanticscholar.org/paper/16c4e32936995bb08c8c942fefacb6dc080e189e",
      "title": "Uncertainty Calibrated Deep Regression for QT Interval Measurement in Reduced Lead Set ECGs",
      "venue": "Irish Signals and Systems Conference",
      "year": 2024,
      "referenceCount": 18,
      "citationCount": 2,
      "authors": [
        {
          "authorId": "72644255",
          "name": "P. Doggart"
        },
        {
          "authorId": "79087254",
          "name": "Alan Kennedy"
        },
        {
          "authorId": "2264294222",
          "name": "Raymond Bond"
        },
        {
          "authorId": "2263889088",
          "name": "Dewar D. Finlay"
        }
      ]
    },
    {
      "paperId": "e86907dbcbd09218a70f2fe5abc2bcef46637073",
      "externalIds": {
        "DBLP": "journals/access/HsiehSWC25",
        "DOI": "10.1109/ACCESS.2025.3583173",
        "CorpusId": 279671715
      },
      "url": "https://www.semanticscholar.org/paper/e86907dbcbd09218a70f2fe5abc2bcef46637073",
      "title": "Deep Learning-Based Surface Temperature Prediction for a Porous Radiant Burner Using Thermocouple-Calibrated Thermal Infrared Images",
      "venue": "IEEE Access",
      "year": 2025,
      "referenceCount": 0,
      "citationCount": 1,
      "authors": [
        {
          "authorId": "2369633675",
          "name": "Hao-Yu Hsieh"
        },
        {
          "authorId": "2276467601",
          "name": "Shenqyang S. Shy"
        },
        {
          "authorId": "2369281278",
          "name": "Wei-Wun Wang"
        },
        {
          "authorId": "2336633995",
          "name": "Yung-Chien Chou"
        }
      ]
    },
    {
      "paperId": "a87feef8fbebb47ca83e7de4b78104e23bbc7c2f",
      "externalIds": {
        "ArXiv": "2302.12606",
        "DBLP": "conf/aistats/TagasovskaOB23",
        "DOI": "10.48550/arXiv.2302.12606",
        "CorpusId": 257205863
      },
      "url": "https://www.semanticscholar.org/paper/a87feef8fbebb47ca83e7de4b78104e23bbc7c2f",
      "title": "Retrospective Uncertainties for Deep Models using Vine Copulas",
      "venue": "International Conference on Artificial Intelligence and Statistics",
      "year": 2023,
      "referenceCount": 44,
      "citationCount": 7,
      "authors": [
        {
          "authorId": "2188349053",
          "name": "Natavsa Tagasovska"
        },
        {
          "authorId": "152157145",
          "name": "Firat Ozdemir"
        },
        {
          "authorId": "2397640547",
          "name": "Axel Brando"
        }
      ]
    },
    {
      "paperId": "5428e54b66dcf5da3300ec4d664255d9b947bd2f",
      "externalIds": {
        "DBLP": "journals/tim/DuanXCYAFFLSY25",
        "DOI": "10.1109/TIM.2025.3565112",
        "CorpusId": 278195151
      },
      "url": "https://www.semanticscholar.org/paper/5428e54b66dcf5da3300ec4d664255d9b947bd2f",
      "title": "Accurate Calibration for Magnetic Measurements Using Deep Learning",
      "venue": "IEEE Transactions on Instrumentation and Measurement",
      "year": 2025,
      "referenceCount": 39,
      "citationCount": 4,
      "authors": [
        {
          "authorId": "2358081370",
          "name": "Hengzhuo Duan"
        },
        {
          "authorId": "2244034841",
          "name": "Deqiang Xiao"
        },
        {
          "authorId": "2338309936",
          "name": "Tao Chen"
        },
        {
          "authorId": "2358816869",
          "name": "Jingyang Yun"
        },
        {
          "authorId": "2261751010",
          "name": "Danni Ai"
        },
        {
          "authorId": "2829698",
          "name": "Jingfan Fan"
        },
        {
          "authorId": "1500409356",
          "name": "Tianyu Fu"
        },
        {
          "authorId": "150349905",
          "name": "Yucong Lin"
        },
        {
          "authorId": "2192180749",
          "name": "Hong Song"
        },
        {
          "authorId": "2237372740",
          "name": "Jian Yang"
        }
      ]
    },
    {
      "paperId": "5b983c127514f9fe0c0b772b277e4f908e2c0961",
      "externalIds": {
        "DBLP": "journals/access/MoscoviniOVPFCP25",
        "DOI": "10.1109/ACCESS.2025.3638250",
        "CorpusId": 283405775
      },
      "url": "https://www.semanticscholar.org/paper/5b983c127514f9fe0c0b772b277e4f908e2c0961",
      "title": "Vegetation Indices Prediction Using Machine-Learning and Deep-Learning Approaches From RGB Calibrated Images",
      "venue": "IEEE Access",
      "year": 2025,
      "referenceCount": 79,
      "citationCount": 0,
      "authors": [
        {
          "authorId": "2143135405",
          "name": "Lavinia Moscovini"
        },
        {
          "authorId": "145057282",
          "name": "L. Ortenzi"
        },
        {
          "authorId": "151224683",
          "name": "Simona Violino"
        },
        {
          "authorId": "2275247813",
          "name": "Catello Pane"
        },
        {
          "authorId": "3362957",
          "name": "Simone Figorilli"
        },
        {
          "authorId": "2105645240",
          "name": "C. Costa"
        },
        {
          "authorId": "3379148",
          "name": "F. Pallottino"
        }
      ]
    },
    {
      "paperId": "7a01e4d7070d7433fe96b0fadafaf19aabadce14",
      "externalIds": {
        "DOI": "10.1016/j.jenvman.2023.120005",
        "CorpusId": 266794123,
        "PubMed": "38183951"
      },
      "url": "https://www.semanticscholar.org/paper/7a01e4d7070d7433fe96b0fadafaf19aabadce14",
      "title": "Estimation of potential wildfire behavior characteristics to assess wildfire danger in southwest China using deep learning schemes.",
      "venue": "Journal of Environmental Management",
      "year": 2024,
      "referenceCount": 110,
      "citationCount": 17,
      "authors": [
        {
          "authorId": "2260705750",
          "name": "Rui Chen"
        },
        {
          "authorId": "2260687876",
          "name": "Binbin He"
        },
        {
          "authorId": "2110489355",
          "name": "Yanxi Li"
        },
        {
          "authorId": "2153500930",
          "name": "Chunquan Fan"
        },
        {
          "authorId": "2260664576",
          "name": "Jianpeng Yin"
        },
        {
          "authorId": "2108970901",
          "name": "Hongguo Zhang"
        },
        {
          "authorId": "2260830382",
          "name": "Yiru Zhang"
        }
      ]
    },
    {
      "paperId": "f1421529fdc8586d278bc5287b4244182114eb86",
      "externalIds": {
        "DOI": "10.3390/su17030843",
        "CorpusId": 275802104
      },
      "url": "https://www.semanticscholar.org/paper/f1421529fdc8586d278bc5287b4244182114eb86",
      "title": "Development of per Capita GDP Forecasting Model Using Deep Learning: Including Consumer Goods Index and Unemployment Rate",
      "venue": "Sustainability",
      "year": 2025,
      "referenceCount": 47,
      "citationCount": 11,
      "authors": [
        {
          "authorId": "2341655240",
          "name": "Xiao-Shan Chen"
        },
        {
          "authorId": "2341766904",
          "name": "Min Gyeong Kim"
        },
        {
          "authorId": "2367175536",
          "name": "Chi-Ho Lin"
        },
        {
          "authorId": "2307290958",
          "name": "H. Na"
        }
      ]
    },
    {
      "paperId": "9e762f63124a928add938d0c06b877566fc355dd",
      "externalIds": {
        "DOI": "10.37394/232016.2025.20.30",
        "CorpusId": 283618808
      },
      "url": "https://www.semanticscholar.org/paper/9e762f63124a928add938d0c06b877566fc355dd",
      "title": "Interpretable Deep Learning for Short-Term Electricity Load Forecasting with Calibrated Prediction Intervals",
      "venue": "WSEAS Transactions on power systems",
      "year": 2025,
      "referenceCount": 9,
      "citationCount": 0,
      "authors": [
        {
          "authorId": "2333649368",
          "name": "Hussein Ahmad Ahmad"
        },
        {
          "authorId": "3159202",
          "name": "T. Benarbia"
        },
        {
          "authorId": "2333645994",
          "name": "Seyyed Kasra Mortazavi"
        },
        {
          "authorId": "2276471599",
          "name": "M. El Bahnasawi"
        },
        {
          "authorId": "2333627709",
          "name": "Mahmoud Hamed"
        },
        {
          "authorId": "2154110075",
          "name": "K. Kyamakya"
        }
      ]
    }
  ]
}