{
  "total": 132372,
  "offset": 0,
  "next": 10,
  "data": [
    {
      "paperId": "7dba53e72c182e25e98e8f73a99d75ff69dda0c2",
      "externalIds": {
        "MAG": "2952158118",
        "ArXiv": "1607.03474",
        "DBLP": "journals/corr/ZillySKS16",
        "CorpusId": 1101453
      },
      "url": "https://www.semanticscholar.org/paper/7dba53e72c182e25e98e8f73a99d75ff69dda0c2",
      "title": "Recurrent Highway Networks",
      "venue": "International Conference on Machine Learning",
      "year": 2016,
      "referenceCount": 59,
      "citationCount": 432,
      "authors": [
        {
          "authorId": "2360589",
          "name": "J. Zilly"
        },
        {
          "authorId": "2100612",
          "name": "R. Srivastava"
        },
        {
          "authorId": "2865775",
          "name": "Jan Koutník"
        },
        {
          "authorId": "145341374",
          "name": "J. Schmidhuber"
        }
      ]
    },
    {
      "paperId": "e619cd4a325b3e74225301f0e09deb38856e4acf",
      "externalIds": {
        "DBLP": "journals/eswa/DinhPNV24",
        "DOI": "10.1016/j.eswa.2023.122911",
        "CorpusId": 266160852
      },
      "url": "https://www.semanticscholar.org/paper/e619cd4a325b3e74225301f0e09deb38856e4acf",
      "title": "Enhancing local citation recommendation with recurrent highway networks and SciBERT-based embedding",
      "venue": "Expert systems with applications",
      "year": 2023,
      "referenceCount": 28,
      "citationCount": 12,
      "authors": [
        {
          "authorId": "121326869",
          "name": "Thi N. Dinh"
        },
        {
          "authorId": "2272713878",
          "name": "Phu Pham"
        },
        {
          "authorId": "2272792681",
          "name": "Giang L. Nguyen"
        },
        {
          "authorId": "2272940542",
          "name": "Bay Vo"
        }
      ]
    },
    {
      "paperId": "31a46f0db3163b8945a594bae638222f154778b1",
      "externalIds": {
        "DOI": "10.1109/ITAIC54216.2022.9836892",
        "CorpusId": 251324033
      },
      "url": "https://www.semanticscholar.org/paper/31a46f0db3163b8945a594bae638222f154778b1",
      "title": "Single-Step Time Series Forecasting Based on Multilayer Attention and Recurrent Highway Networks",
      "venue": "IEEE Joint International Information Technology and Artificial Intelligence Conference",
      "year": 2022,
      "referenceCount": 7,
      "citationCount": 1,
      "authors": [
        {
          "authorId": "1972687593",
          "name": "Fenggang Lai"
        },
        {
          "authorId": "2118765041",
          "name": "Yi Zhou"
        },
        {
          "authorId": "2130291175",
          "name": "Lei Xie"
        },
        {
          "authorId": "150273622",
          "name": "R. Cheng"
        },
        {
          "authorId": "2156577825",
          "name": "Wenliang Wang"
        },
        {
          "authorId": "2152914269",
          "name": "Jing Li"
        }
      ]
    },
    {
      "paperId": "bdd2f5cc5b68acb1bc9fe662e5d7dfc7a74e9d35",
      "externalIds": {
        "MAG": "2994809010",
        "DBLP": "journals/access/LuoY19",
        "DOI": "10.1109/ACCESS.2019.2959655",
        "CorpusId": 209496260
      },
      "url": "https://www.semanticscholar.org/paper/bdd2f5cc5b68acb1bc9fe662e5d7dfc7a74e9d35",
      "title": "Recurrent Highway Networks With Grouped Auxiliary Memory",
      "venue": "IEEE Access",
      "year": 2019,
      "referenceCount": 62,
      "citationCount": 13,
      "authors": [
        {
          "authorId": "2114375678",
          "name": "Wei Luo"
        },
        {
          "authorId": "2155385925",
          "name": "Feng Yu"
        }
      ]
    },
    {
      "paperId": "8dd5a42d17a4782afe6ae2360bc3a604c00307a1",
      "externalIds": {
        "ArXiv": "1806.00685",
        "DBLP": "journals/corr/abs-1806-00685",
        "MAG": "2807135233",
        "CorpusId": 46937148
      },
      "url": "https://www.semanticscholar.org/paper/8dd5a42d17a4782afe6ae2360bc3a604c00307a1",
      "title": "Hierarchical Attention-Based Recurrent Highway Networks for Time Series Prediction",
      "venue": "arXiv.org",
      "year": 2018,
      "referenceCount": 31,
      "citationCount": 27,
      "authors": [
        {
          "authorId": "9619607",
          "name": "Yunzhe Tao"
        },
        {
          "authorId": "145698310",
          "name": "Lin Ma"
        },
        {
          "authorId": "47527753",
          "name": "Weizhong Zhang"
        },
        {
          "authorId": "2150169893",
          "name": "Jian Liu"
        },
        {
          "authorId": "46641573",
          "name": "W. Liu"
        },
        {
          "authorId": "144486979",
          "name": "Q. Du"
        }
      ]
    },
    {
      "paperId": "8a852681ac1b150ceff5ca484124d25838341cda",
      "externalIds": {
        "MAG": "3081048906",
        "DOI": "10.1155/2020/4173094",
        "CorpusId": 221712854
      },
      "url": "https://www.semanticscholar.org/paper/8a852681ac1b150ceff5ca484124d25838341cda",
      "title": "Multitime Resolution Hierarchical Attention-Based Recurrent Highway Networks for Taxi Demand Prediction",
      "venue": "",
      "year": 2020,
      "referenceCount": 34,
      "citationCount": 5,
      "authors": [
        {
          "authorId": "1575791858",
          "name": "Baiping Chen"
        },
        {
          "authorId": "2157336391",
          "name": "Wei Li"
        }
      ]
    },
    {
      "paperId": "84e6fe70bfb26e5eed57aaf98a4d2d6d059584db",
      "externalIds": {
        "DBLP": "journals/grid/ZiaR20",
        "MAG": "2805817603",
        "DOI": "10.1007/s10723-018-9444-4",
        "CorpusId": 46970066
      },
      "url": "https://www.semanticscholar.org/paper/84e6fe70bfb26e5eed57aaf98a4d2d6d059584db",
      "title": "Residual Recurrent Highway Networks for Learning Deep Sequence Prediction Models",
      "venue": "Journal of Grid Computing",
      "year": 2018,
      "referenceCount": 44,
      "citationCount": 23,
      "authors": [
        {
          "authorId": "9356559",
          "name": "Tehseen Zia"
        },
        {
          "authorId": "2389070731",
          "name": "Saad Razzaq"
        }
      ]
    },
    {
      "paperId": "f84a30bf0554ee3e1c06cad52fe66f072956849b",
      "externalIds": {
        "DBLP": "conf/interspeech/PundakS17",
        "MAG": "2734724284",
        "DOI": "10.21437/Interspeech.2017-429",
        "CorpusId": 11602251
      },
      "url": "https://www.semanticscholar.org/paper/f84a30bf0554ee3e1c06cad52fe66f072956849b",
      "title": "Highway-LSTM and Recurrent Highway Networks for Speech Recognition",
      "venue": "Interspeech",
      "year": 2017,
      "referenceCount": 21,
      "citationCount": 27,
      "authors": [
        {
          "authorId": "2779415",
          "name": "G. Pundak"
        },
        {
          "authorId": "1784851",
          "name": "Tara N. Sainath"
        }
      ]
    },
    {
      "paperId": "17fa220ccecbf82c68136f6064ed476e5d9e48c4",
      "externalIds": {
        "DBLP": "conf/mike/ParmarD18",
        "ArXiv": "1905.01996",
        "MAG": "2905306209",
        "DOI": "10.1007/978-3-030-05918-7_27",
        "CorpusId": 56169986
      },
      "url": "https://www.semanticscholar.org/paper/17fa220ccecbf82c68136f6064ed476e5d9e48c4",
      "title": "Neural Machine Translation with Recurrent Highway Networks",
      "venue": "International Conference on Mining Intelligence and Knowledge Exploration",
      "year": 2018,
      "referenceCount": 11,
      "citationCount": 6,
      "authors": [
        {
          "authorId": "52173751",
          "name": "Maulik Parmar"
        },
        {
          "authorId": "144564397",
          "name": "V. Devi"
        }
      ]
    },
    {
      "paperId": "83aab455bbb6cde88f77775f357a852717a192b4",
      "externalIds": {
        "MAG": "2963474550",
        "DBLP": "journals/corr/abs-1809-10271",
        "ArXiv": "1809.10271",
        "DOI": "10.1109/ICIP.2017.8296359",
        "CorpusId": 3468189
      },
      "url": "https://www.semanticscholar.org/paper/83aab455bbb6cde88f77775f357a852717a192b4",
      "title": "Batch-normalized recurrent highway networks",
      "venue": "International Conference on Information Photonics",
      "year": 2017,
      "referenceCount": 28,
      "citationCount": 8,
      "authors": [
        {
          "authorId": "2119254343",
          "name": "Chi Zhang"
        },
        {
          "authorId": "49035023",
          "name": "Thang Nguyen"
        },
        {
          "authorId": "3424086",
          "name": "Shagan Sah"
        },
        {
          "authorId": "1749833",
          "name": "R. Ptucha"
        },
        {
          "authorId": "144677796",
          "name": "A. Loui"
        },
        {
          "authorId": "2879097",
          "name": "C. Salvaggio"
        }
      ]
    }
  ]
}