{
  "total": 41,
  "offset": 0,
  "next": 10,
  "data": [
    {
      "paperId": "b0a82a945e2899eb91ac71f4ed7f5cc1d98ce135",
      "externalIds": {
        "ArXiv": "1609.06831",
        "DBLP": "conf/icml/LeeLO16",
        "MAG": "2950909000",
        "CorpusId": 6872071
      },
      "url": "https://www.semanticscholar.org/paper/b0a82a945e2899eb91ac71f4ed7f5cc1d98ce135",
      "title": "Hawkes Processes with Stochastic Excitations",
      "venue": "International Conference on Machine Learning",
      "year": 2016,
      "referenceCount": 42,
      "citationCount": 35,
      "authors": [
        {
          "authorId": "2116464653",
          "name": "Young Lee"
        },
        {
          "authorId": "2451831",
          "name": "Kar Wai Lim"
        },
        {
          "authorId": "1706780",
          "name": "Cheng Soon Ong"
        }
      ]
    },
    {
      "paperId": "4c134f100b010d9d6da3841378bcc43d74baff15",
      "externalIds": {
        "ArXiv": "2505.21845",
        "DBLP": "journals/corr/abs-2505-21845",
        "DOI": "10.48550/arXiv.2505.21845",
        "CorpusId": 278960136
      },
      "url": "https://www.semanticscholar.org/paper/4c134f100b010d9d6da3841378bcc43d74baff15",
      "title": "Spectral clustering for dependent community Hawkes process models of temporal networks",
      "venue": "arXiv.org",
      "year": 2025,
      "referenceCount": 57,
      "citationCount": 0,
      "authors": [
        {
          "authorId": "2253996092",
          "name": "Lingfei Zhao"
        },
        {
          "authorId": "2164036401",
          "name": "Hadeel Soliman"
        },
        {
          "authorId": "3382714",
          "name": "Kevin S. Xu"
        },
        {
          "authorId": "2306760499",
          "name": "Subhadeep Paul"
        }
      ]
    },
    {
      "paperId": "07a7ec5cbcc9dc166874f1c5a3501ea717cd8246",
      "externalIds": {
        "DOI": "10.1145/3779657.3779660",
        "CorpusId": 287359054
      },
      "url": "https://www.semanticscholar.org/paper/07a7ec5cbcc9dc166874f1c5a3501ea717cd8246",
      "title": "A Note on Software Reliability Modeling Based on Hawkes Processes with Gamma Type Base Intensity",
      "venue": "Proceedings of the 2025 7th World Symposium on Software Engineering",
      "year": 2025,
      "referenceCount": 27,
      "citationCount": 0,
      "authors": [
        {
          "authorId": "2266772791",
          "name": "Nanxiang Qiu"
        },
        {
          "authorId": "2294755363",
          "name": "Tadashi Dohi"
        },
        {
          "authorId": "2462988",
          "name": "Junjun Zheng"
        },
        {
          "authorId": "1740736",
          "name": "H. Okamura"
        }
      ]
    },
    {
      "paperId": "3482faed025e36696a67cf4ad280530c81b78e65",
      "externalIds": {
        "DOI": "10.37256/cm.6520257184",
        "CorpusId": 281023597
      },
      "url": "https://www.semanticscholar.org/paper/3482faed025e36696a67cf4ad280530c81b78e65",
      "title": "Hawkes Processes in Finance: An Application in Modeling Transactions in EUA Futures",
      "venue": "Contemporary Mathematics",
      "year": 2025,
      "referenceCount": 25,
      "citationCount": 0,
      "authors": [
        {
          "authorId": "2316811169",
          "name": "Michele Bellomo"
        },
        {
          "authorId": "2378401352",
          "name": "Francesco Grimaccia"
        }
      ]
    },
    {
      "paperId": "a10f0a781ced99704f7e66c91094fcdb2f32e491",
      "externalIds": {
        "ArXiv": "2511.22538",
        "CorpusId": 283438919
      },
      "url": "https://www.semanticscholar.org/paper/a10f0a781ced99704f7e66c91094fcdb2f32e491",
      "title": "Bayesian Nonparametric Marked Hawkes Processes for Earthquake Modeling",
      "venue": "",
      "year": 2025,
      "referenceCount": 29,
      "citationCount": 0,
      "authors": [
        {
          "authorId": "153761233",
          "name": "Hyotae Kim"
        },
        {
          "authorId": "2983291",
          "name": "A. Kottas"
        }
      ]
    },
    {
      "paperId": "e0e8b91f9d9e98b99ac788ed5141c142ba0b87ee",
      "externalIds": {
        "ArXiv": "2502.17723",
        "CorpusId": 276581017
      },
      "url": "https://www.semanticscholar.org/paper/e0e8b91f9d9e98b99ac788ed5141c142ba0b87ee",
      "title": "Semiparametric estimation for multivariate Hawkes processes using dependent Dirichlet processes: An application to order flow data in financial markets",
      "venue": "",
      "year": 2025,
      "referenceCount": 0,
      "citationCount": 1,
      "authors": [
        {
          "authorId": "2246905219",
          "name": "Alex Ziyu Jiang"
        },
        {
          "authorId": "2347156491",
          "name": "Abel Rodriguez"
        }
      ]
    },
    {
      "paperId": "5dec572fc8c5df11ec1247d0fd3852e1c9536ac5",
      "externalIds": {
        "MAG": "3128979084",
        "ArXiv": "2102.01052",
        "DOI": "10.1016/j.spa.2022.07.006",
        "CorpusId": 231741089
      },
      "url": "https://www.semanticscholar.org/paper/5dec572fc8c5df11ec1247d0fd3852e1c9536ac5",
      "title": "Mean-field limits for non-linear Hawkes processes with excitation and inhibition",
      "venue": "Stochastic Processes and their Applications",
      "year": 2021,
      "referenceCount": 36,
      "citationCount": 19,
      "authors": [
        {
          "authorId": "3058227",
          "name": "P. Pfaffelhuber"
        },
        {
          "authorId": "46486099",
          "name": "S. Rotter"
        },
        {
          "authorId": "102492086",
          "name": "Jakob Stiefel"
        }
      ]
    },
    {
      "paperId": "4ee900917be7f578aaae4595513e6eb7e1b1271b",
      "externalIds": {
        "ArXiv": "2512.15459",
        "CorpusId": 283920706
      },
      "url": "https://www.semanticscholar.org/paper/4ee900917be7f578aaae4595513e6eb7e1b1271b",
      "title": "Extinction and Persistence in a Stochastic Mpox Model with Hawkes-type Self-Excitation",
      "venue": "",
      "year": 2025,
      "referenceCount": 40,
      "citationCount": 0,
      "authors": [
        {
          "authorId": "3104565",
          "name": "G. Nunno"
        },
        {
          "authorId": "2240686791",
          "name": "Nicola Giordano"
        },
        {
          "authorId": "2399034836",
          "name": "Barbara Martinucci"
        },
        {
          "authorId": "2310342896",
          "name": "Olena Tymoshenko"
        }
      ]
    },
    {
      "paperId": "f14be296009f7952e9cf83a961b37baa411e22ef",
      "externalIds": {
        "ArXiv": "2208.02921",
        "CorpusId": 251371484
      },
      "url": "https://www.semanticscholar.org/paper/f14be296009f7952e9cf83a961b37baa411e22ef",
      "title": "A flexible, random histogram kernel for discrete-time Hawkes processes (preprint)",
      "venue": "",
      "year": 2022,
      "referenceCount": 24,
      "citationCount": 3,
      "authors": [
        {
          "authorId": "2070429611",
          "name": "Raiha Browning"
        },
        {
          "authorId": "144915371",
          "name": "J. Rousseau"
        },
        {
          "authorId": "3069617",
          "name": "K. Mengersen"
        }
      ]
    },
    {
      "paperId": "b1067e8b2990dd2b0c22ef20f41c9de1bd0ff571",
      "externalIds": {
        "ArXiv": "2110.01523",
        "DOI": "10.1103/PhysRevResearch.5.013067",
        "CorpusId": 248563047
      },
      "url": "https://www.semanticscholar.org/paper/b1067e8b2990dd2b0c22ef20f41c9de1bd0ff571",
      "title": "Asymptotic solutions to nonlinear Hawkes processes: A systematic classification of the steady-state solutions",
      "venue": "Physical Review Research",
      "year": 2021,
      "referenceCount": 56,
      "citationCount": 8,
      "authors": [
        {
          "authorId": "38395120",
          "name": "Kiyoshi Kanazawa"
        },
        {
          "authorId": "1744895",
          "name": "D. Sornette"
        }
      ]
    }
  ]
}