{
  "total": 12080,
  "offset": 0,
  "next": 10,
  "data": [
    {
      "paperId": "ad8ab158ae8afeeab00a4aac46b0da6344518262",
      "externalIds": {
        "MAG": "2578798508",
        "DBLP": "conf/icml/SiHD16",
        "CorpusId": 6096622
      },
      "url": "https://www.semanticscholar.org/paper/ad8ab158ae8afeeab00a4aac46b0da6344518262",
      "title": "Computationally Efficient Nyström Approximation using Fast Transforms",
      "venue": "International Conference on Machine Learning",
      "year": 2016,
      "referenceCount": 24,
      "citationCount": 12,
      "authors": [
        {
          "authorId": "3422911",
          "name": "Si Si"
        },
        {
          "authorId": "1793529",
          "name": "Cho-Jui Hsieh"
        },
        {
          "authorId": "1783667",
          "name": "I. Dhillon"
        }
      ]
    },
    {
      "paperId": "ac66136ac26397cf53f7faacf2a9f82783e3ecd2",
      "externalIds": {
        "DOI": "10.1109/JSEN.2024.3370374",
        "CorpusId": 268293295
      },
      "url": "https://www.semanticscholar.org/paper/ac66136ac26397cf53f7faacf2a9f82783e3ecd2",
      "title": "Modified Root-MUSIC Algorithm for Target Localization Using Nyström Approximation",
      "venue": "IEEE Sensors Journal",
      "year": 2024,
      "referenceCount": 21,
      "citationCount": 6,
      "authors": [
        {
          "authorId": "2290432617",
          "name": "D. Veerendra"
        },
        {
          "authorId": "34755883",
          "name": "K. Niranjan"
        },
        {
          "authorId": "2290434344",
          "name": "Iram Malik"
        },
        {
          "authorId": "2244348089",
          "name": "Anand Khandare"
        },
        {
          "authorId": "2248192183",
          "name": "Megharani Patil"
        },
        {
          "authorId": "2297028451",
          "name": "Teegala Srinivasa Kishore"
        },
        {
          "authorId": "2261838074",
          "name": "K. Balamurugan"
        },
        {
          "authorId": "2198437386",
          "name": "Kameswara Rao Pedada"
        },
        {
          "authorId": "2228053518",
          "name": "Abha Singh"
        }
      ]
    },
    {
      "paperId": "247d1caf1e0c44260ffbb3e55634d02d1da8d666",
      "externalIds": {
        "ArXiv": "2407.01698",
        "DBLP": "journals/corr/abs-2407-01698",
        "DOI": "10.48550/arXiv.2407.01698",
        "CorpusId": 270878440
      },
      "url": "https://www.semanticscholar.org/paper/247d1caf1e0c44260ffbb3e55634d02d1da8d666",
      "title": "Column and row subset selection using nuclear scores: algorithms and theory for Nyström approximation, CUR decomposition, and graph Laplacian reduction",
      "venue": "arXiv.org",
      "year": 2024,
      "referenceCount": 0,
      "citationCount": 10,
      "authors": [
        {
          "authorId": "10382965",
          "name": "M. Fornace"
        },
        {
          "authorId": "2309247071",
          "name": "Michael Lindsey"
        }
      ]
    },
    {
      "paperId": "539070378c735c78b89af5b7b9301c31750ca6e2",
      "externalIds": {
        "DOI": "10.1088/1361-6420/ad2900",
        "CorpusId": 267673757
      },
      "url": "https://www.semanticscholar.org/paper/539070378c735c78b89af5b7b9301c31750ca6e2",
      "title": "Efficient kernel canonical correlation analysis using Nyström approximation",
      "venue": "Inverse Problems",
      "year": 2024,
      "referenceCount": 43,
      "citationCount": 3,
      "authors": [
        {
          "authorId": "2111828013",
          "name": "Qin Fang"
        },
        {
          "authorId": "2284181993",
          "name": "Lei Shi"
        },
        {
          "authorId": "2284228458",
          "name": "Min Xu"
        },
        {
          "authorId": "2284296180",
          "name": "Ding-Xuan Zhou"
        }
      ]
    },
    {
      "paperId": "d33b0484385ad25c7a0cabe23990346a07d7df54",
      "externalIds": {
        "ArXiv": "2402.06763",
        "DBLP": "journals/ijon/MartinBaosGRB25",
        "DOI": "10.1016/j.neucom.2024.128975",
        "CorpusId": 267627686
      },
      "url": "https://www.semanticscholar.org/paper/d33b0484385ad25c7a0cabe23990346a07d7df54",
      "title": "Scalable Kernel Logistic Regression with Nyström Approximation: Theoretical Analysis and Application to Discrete Choice Modelling",
      "venue": "Neurocomputing",
      "year": 2024,
      "referenceCount": 71,
      "citationCount": 2,
      "authors": [
        {
          "authorId": "2283847527",
          "name": "Jos'e 'Angel Mart'in-Baos"
        },
        {
          "authorId": "2283847301",
          "name": "Ricardo Garc'ia-R'odenas"
        },
        {
          "authorId": "2283848304",
          "name": "Luis Rodriguez-Benitez"
        },
        {
          "authorId": "2270549730",
          "name": "Michel Bierlaire"
        }
      ]
    },
    {
      "paperId": "54df2e52046149f7158dc5fd8bb96f41244d3b84",
      "externalIds": {
        "DOI": "10.1109/LSENS.2024.3451723",
        "CorpusId": 272262119
      },
      "url": "https://www.semanticscholar.org/paper/54df2e52046149f7158dc5fd8bb96f41244d3b84",
      "title": "Unitary Root-MUSIC Method With Nystrom Approximation for 3-D Sparse Array DOA Estimation in Sensor Networks",
      "venue": "IEEE Sensors Letters",
      "year": 2024,
      "referenceCount": 22,
      "citationCount": 6,
      "authors": [
        {
          "authorId": "2183054459",
          "name": "Veerendra D"
        },
        {
          "authorId": "2261838326",
          "name": "Miguel Villagómez-Galindo"
        },
        {
          "authorId": "2278364909",
          "name": "Ana Beatriz Martínez Valencia"
        },
        {
          "authorId": "2318625375",
          "name": "Niranjan Kr"
        },
        {
          "authorId": "2318390607",
          "name": "Arora Jasmineet Kaur"
        },
        {
          "authorId": "73612038",
          "name": "Upendra Kumar Potnuru"
        },
        {
          "authorId": "35159625",
          "name": "J. Chohan"
        },
        {
          "authorId": "2318625851",
          "name": "Bade Venkata Suresh"
        },
        {
          "authorId": "2228987980",
          "name": "Sudhanshu Maurya"
        }
      ]
    },
    {
      "paperId": "d618e37ed78746e4906af8ff90ab9601092fda45",
      "externalIds": {
        "DBLP": "journals/tiv/LiuTZF24",
        "DOI": "10.1109/TIV.2023.3285392",
        "CorpusId": 259428929
      },
      "url": "https://www.semanticscholar.org/paper/d618e37ed78746e4906af8ff90ab9601092fda45",
      "title": "Computationally Efficient Energy Management for a Parallel Hybrid Electric Vehicle Using Adaptive Dynamic Programming",
      "venue": "IEEE Transactions on Intelligent Vehicles",
      "year": 2024,
      "referenceCount": 50,
      "citationCount": 18,
      "authors": [
        {
          "authorId": "2111148011",
          "name": "Tong Liu"
        },
        {
          "authorId": "2113397399",
          "name": "Kaige Tan"
        },
        {
          "authorId": "1608759018",
          "name": "Wenyao Zhu"
        },
        {
          "authorId": "2117930540",
          "name": "Lei Feng"
        }
      ]
    },
    {
      "paperId": "33466c7dfecd5b883a4b66d9f2f64a17518bd4e8",
      "externalIds": {
        "MAG": "3095476189",
        "DOI": "10.1115/detc2020-22028",
        "CorpusId": 220545252
      },
      "url": "https://www.semanticscholar.org/paper/33466c7dfecd5b883a4b66d9f2f64a17518bd4e8",
      "title": "Approximation of the Step-to-Step Dynamics Enables Computationally Efficient and Fast Optimal Control of Legged Robots",
      "venue": "Volume 10: 44th Mechanisms and Robotics Conference (MR)",
      "year": 2020,
      "referenceCount": 34,
      "citationCount": 11,
      "authors": [
        {
          "authorId": "2258430",
          "name": "Pranav A. Bhounsule"
        },
        {
          "authorId": "49108750",
          "name": "Myunghee Kim"
        },
        {
          "authorId": "2182218",
          "name": "A. Alaeddini"
        }
      ]
    },
    {
      "paperId": "a3e0c948c77352c5daf865bb390a0476f6f1868d",
      "externalIds": {
        "ArXiv": "2403.19162",
        "DOI": "10.1103/PhysRevD.110.064022",
        "CorpusId": 268733238
      },
      "url": "https://www.semanticscholar.org/paper/a3e0c948c77352c5daf865bb390a0476f6f1868d",
      "title": "Fast and faithful interpolation of numerical relativity surrogate waveforms using a meshfree approximation",
      "venue": "Physical Review D",
      "year": 2024,
      "referenceCount": 54,
      "citationCount": 5,
      "authors": [
        {
          "authorId": "2239201039",
          "name": "L. Pathak"
        },
        {
          "authorId": "2239199446",
          "name": "Amit Reza"
        },
        {
          "authorId": "2239200570",
          "name": "Anand S. Sengupta"
        }
      ]
    },
    {
      "paperId": "5005af94ab8cde1a8aad4f37afb0c7de43f5e4c2",
      "externalIds": {
        "DBLP": "journals/corr/abs-2105-06676",
        "ArXiv": "2105.06676",
        "DOI": "10.1145/3409964.3461803",
        "CorpusId": 234680453
      },
      "url": "https://www.semanticscholar.org/paper/5005af94ab8cde1a8aad4f37afb0c7de43f5e4c2",
      "title": "Fast Stencil Computations using Fast Fourier Transforms",
      "venue": "ACM Symposium on Parallelism in Algorithms and Architectures",
      "year": 2021,
      "referenceCount": 163,
      "citationCount": 13,
      "authors": [
        {
          "authorId": "2074027510",
          "name": "Zafar Ahmad"
        },
        {
          "authorId": "7536938",
          "name": "R. Chowdhury"
        },
        {
          "authorId": "34515097",
          "name": "Rathish Das"
        },
        {
          "authorId": "2606471",
          "name": "P. Ganapathi"
        },
        {
          "authorId": "144676658",
          "name": "Aaron Gregory"
        },
        {
          "authorId": "2118321138",
          "name": "Yimin Zhu"
        }
      ]
    }
  ]
}