{
  "total": 26,
  "offset": 0,
  "next": 10,
  "data": [
    {
      "paperId": "98183b06961b57d3c750dd5d8cbab1fe168b93a6",
      "externalIds": {
        "DBLP": "journals/corr/MaystreG16",
        "ArXiv": "1610.06525",
        "MAG": "2537233694",
        "CorpusId": 3035531
      },
      "url": "https://www.semanticscholar.org/paper/98183b06961b57d3c750dd5d8cbab1fe168b93a6",
      "title": "ChoiceRank: Identifying Preferences from Node Traffic in Networks",
      "venue": "International Conference on Machine Learning",
      "year": 2016,
      "referenceCount": 33,
      "citationCount": 15,
      "authors": [
        {
          "authorId": "3122129",
          "name": "Lucas Maystre"
        },
        {
          "authorId": "2052174",
          "name": "M. Grossglauser"
        }
      ]
    },
    {
      "paperId": "1888cd733888676c1f15d8a9d1b4cbdd73c03edd",
      "externalIds": {
        "CorpusId": 265097936
      },
      "url": "https://www.semanticscholar.org/paper/1888cd733888676c1f15d8a9d1b4cbdd73c03edd",
      "title": "ChoiceRank : Identifying Preferences from Node Traffic in Networks Supplementary Material",
      "venue": "",
      "year": 2017,
      "referenceCount": 4,
      "citationCount": 0,
      "authors": [
        {
          "authorId": "3122129",
          "name": "Lucas Maystre"
        },
        {
          "authorId": "2052174",
          "name": "M. Grossglauser"
        }
      ]
    },
    {
      "paperId": "36c00b920ea3ac4288e4d30d44cc604a0fb0d8af",
      "externalIds": {
        "MAG": "2607946955",
        "DOI": "10.1007/s11067-017-9342-5",
        "CorpusId": 52969446
      },
      "url": "https://www.semanticscholar.org/paper/36c00b920ea3ac4288e4d30d44cc604a0fb0d8af",
      "title": "On Node Criticality in Air Transportation Networks",
      "venue": "Networks and Spatial Economics",
      "year": 2017,
      "referenceCount": 59,
      "citationCount": 40,
      "authors": [
        {
          "authorId": "2648466",
          "name": "Xiaoqian Sun"
        },
        {
          "authorId": "1680551",
          "name": "S. Wandelt"
        },
        {
          "authorId": "40916581",
          "name": "Xianbin Cao"
        }
      ]
    },
    {
      "paperId": "2da161b2fe0f61e5046a5b07c63478787966eed9",
      "externalIds": {
        "MAG": "2757391556",
        "DOI": "10.1109/ICRMS.2016.8050087",
        "CorpusId": 20850450
      },
      "url": "https://www.semanticscholar.org/paper/2da161b2fe0f61e5046a5b07c63478787966eed9",
      "title": "Cascading failure of interdependent networks with traffic: Using a redundancy design to protect influential nodes",
      "venue": "International Conference on Reliability, Maintainability and Safety",
      "year": 2016,
      "referenceCount": 25,
      "citationCount": 0,
      "authors": [
        {
          "authorId": "2116184332",
          "name": "Lijun Liu"
        },
        {
          "authorId": "2812643",
          "name": "Yongfeng Yin"
        },
        {
          "authorId": "6212831",
          "name": "Zenghu Zhang"
        }
      ]
    },
    {
      "paperId": "688c416630ddfa8ee1f28c21c5783c30f6198a14",
      "externalIds": {
        "DOI": "10.3390/su151813423",
        "CorpusId": 261651160
      },
      "url": "https://www.semanticscholar.org/paper/688c416630ddfa8ee1f28c21c5783c30f6198a14",
      "title": "Air Traffic Sector Network: Motif Identification and Resilience Evaluation Based on Subgraphs",
      "venue": "Sustainability",
      "year": 2023,
      "referenceCount": 50,
      "citationCount": 4,
      "authors": [
        {
          "authorId": "2228270143",
          "name": "Zongbei Shi"
        },
        {
          "authorId": "2143576370",
          "name": "Honghai Zhang"
        },
        {
          "authorId": "2238883971",
          "name": "Yike Li"
        },
        {
          "authorId": "2155805225",
          "name": "Jinlun Zhou"
        }
      ]
    },
    {
      "paperId": "c2c9429331a42cc805d9e87a264ae22f23bdf68c",
      "externalIds": {
        "DOI": "10.1109/EEEIC/ICPSEurope57605.2023.10194831",
        "CorpusId": 260513108
      },
      "url": "https://www.semanticscholar.org/paper/c2c9429331a42cc805d9e87a264ae22f23bdf68c",
      "title": "Integrated Planning of Active Distribution Systems and Charging Stations for Plug-in Electric Vehicles Considering the Vehicular Traffic Network",
      "venue": "2023 IEEE International Conference on Environment and Electrical Engineering and 2023 IEEE Industrial and Commercial Power Systems Europe (EEEIC / I&CPS Europe)",
      "year": 2023,
      "referenceCount": 15,
      "citationCount": 3,
      "authors": [
        {
          "authorId": "2071321065",
          "name": "M. A. Mejia"
        },
        {
          "authorId": "40374554",
          "name": "J. Franco"
        },
        {
          "authorId": "25556743",
          "name": "Leonardo H. Macedo"
        },
        {
          "authorId": "1411205758",
          "name": "G. Muñoz-Delgado"
        },
        {
          "authorId": "144440812",
          "name": "J. Contreras"
        }
      ]
    },
    {
      "paperId": "bf2630028d3cc96247d5ae7b486402d3245e352a",
      "externalIds": {
        "DBLP": "phd/dnb/Klos19",
        "MAG": "2996604644",
        "DOI": "10.25534/tuprints-00009176",
        "CorpusId": 209415909
      },
      "url": "https://www.semanticscholar.org/paper/bf2630028d3cc96247d5ae7b486402d3245e352a",
      "title": "Context-Aware Decision Making in Wireless Networks: Optimization and Machine Learning Approaches",
      "venue": "",
      "year": 2019,
      "referenceCount": 150,
      "citationCount": 0,
      "authors": [
        {
          "authorId": "46452035",
          "name": "Sabrina Klos"
        }
      ]
    },
    {
      "paperId": "9f6d7d3f7f98000e84fe28450f06e5a4724b8b32",
      "externalIds": {
        "MAG": "2768193009",
        "CorpusId": 115786126
      },
      "url": "https://www.semanticscholar.org/paper/9f6d7d3f7f98000e84fe28450f06e5a4724b8b32",
      "title": "Should I stay or should I go? Investigating route choice behavior from revealed preferences data",
      "venue": "",
      "year": 2015,
      "referenceCount": 0,
      "citationCount": 0,
      "authors": [
        {
          "authorId": "2060191115",
          "name": "A. Vacca"
        },
        {
          "authorId": "98176867",
          "name": "Carlo G. Prato"
        },
        {
          "authorId": "2426270",
          "name": "I. Meloni"
        }
      ]
    },
    {
      "paperId": "934cc1dff6ee1e899bdb2f95c43422f64b31802f",
      "externalIds": {
        "MAG": "1963884509",
        "DOI": "10.3141/2334-10",
        "CorpusId": 61119646
      },
      "url": "https://www.semanticscholar.org/paper/934cc1dff6ee1e899bdb2f95c43422f64b31802f",
      "title": "Online Stochastic Routing Incorporating Real-Time Traffic Information",
      "venue": "",
      "year": 2013,
      "referenceCount": 22,
      "citationCount": 12,
      "authors": [
        {
          "authorId": "1443777317",
          "name": "Lili Du"
        },
        {
          "authorId": "1679023",
          "name": "S. Peeta"
        },
        {
          "authorId": "2108445130",
          "name": "Y. H. Kim"
        }
      ]
    },
    {
      "paperId": "4c36eb64703b1c2b0ab36adbfb95d2f3ae9dbdf4",
      "externalIds": {
        "MAG": "2543250721",
        "DOI": "10.1109/IMSAA.2010.5729417",
        "CorpusId": 14910488
      },
      "url": "https://www.semanticscholar.org/paper/4c36eb64703b1c2b0ab36adbfb95d2f3ae9dbdf4",
      "title": "A path robustness-based quality of service routing for mobile ad hoc networks",
      "venue": "2010 IEEE 4th International Conference on Internet Multimedia Services Architecture and Application",
      "year": 2010,
      "referenceCount": 25,
      "citationCount": 6,
      "authors": [
        {
          "authorId": "1409071204",
          "name": "K. M. Al-soufy"
        },
        {
          "authorId": "2525740",
          "name": "A. Abbas"
        }
      ]
    }
  ]
}