{
  "total": 13,
  "offset": 0,
  "next": 10,
  "data": [
    {
      "paperId": "534e09bd4d5910c25e5354265ff893c34c96c87e",
      "externalIds": {
        "ArXiv": "1410.6834",
        "DBLP": "conf/icml/SamoR15",
        "MAG": "2951336346",
        "CorpusId": 16238895
      },
      "url": "https://www.semanticscholar.org/paper/534e09bd4d5910c25e5354265ff893c34c96c87e",
      "title": "Scalable Nonparametric Bayesian Inference on Point Processes with Gaussian Processes",
      "venue": "International Conference on Machine Learning",
      "year": 2014,
      "referenceCount": 43,
      "citationCount": 37,
      "authors": [
        {
          "authorId": "2338329",
          "name": "Yves-Laurent Kom Samo"
        },
        {
          "authorId": "145029236",
          "name": "S. Roberts"
        }
      ]
    },
    {
      "paperId": "3bb201677adac45e013778be0e7356ad61a51cee",
      "externalIds": {
        "CorpusId": 267831512
      },
      "url": "https://www.semanticscholar.org/paper/3bb201677adac45e013778be0e7356ad61a51cee",
      "title": "Material for Scalable Nonparametric Bayesian Inference on Point Processes with Gaussian Processes",
      "venue": "",
      "year": 2015,
      "referenceCount": 0,
      "citationCount": 0,
      "authors": [
        {
          "authorId": "2285563992",
          "name": "YVES-LAURENT. Komsamo"
        },
        {
          "authorId": "2285566843",
          "name": "UK .AC."
        },
        {
          "authorId": "2285564085",
          "name": "Sjrob"
        }
      ]
    },
    {
      "paperId": "95224743ee86834c6addf05215cb49c15c72b427",
      "externalIds": {
        "MAG": "2344418046",
        "CorpusId": 124143176
      },
      "url": "https://www.semanticscholar.org/paper/95224743ee86834c6addf05215cb49c15c72b427",
      "title": "Bayesian Nonparametric Modeling for Some Classes of Temporal Point Processes",
      "venue": "",
      "year": 2015,
      "referenceCount": 0,
      "citationCount": 3,
      "authors": [
        {
          "authorId": "93038925",
          "name": "S. Xiao"
        }
      ]
    },
    {
      "paperId": "25093e6765cad66e15d5999f023e567916711e25",
      "externalIds": {
        "CorpusId": 247867849
      },
      "url": "https://www.semanticscholar.org/paper/25093e6765cad66e15d5999f023e567916711e25",
      "title": "TRACE: Tennessee Research and Creative TRACE: Tennessee Research and Creative Exchange Exchange Bayesian Topological Machine Learning Bayesian Topological Machine Learning Bayesian Topological Machine Learning",
      "venue": "",
      "year": null,
      "referenceCount": 0,
      "citationCount": 0,
      "authors": []
    },
    {
      "paperId": "e7ef65644104788e438e3caeaa27aca51d5649cc",
      "externalIds": {
        "DBLP": "conf/icml/SaadPHS023",
        "ArXiv": "2307.09607",
        "DOI": "10.48550/arXiv.2307.09607",
        "CorpusId": 259982622
      },
      "url": "https://www.semanticscholar.org/paper/e7ef65644104788e438e3caeaa27aca51d5649cc",
      "title": "Sequential Monte Carlo Learning for Time Series Structure Discovery",
      "venue": "International Conference on Machine Learning",
      "year": 2023,
      "referenceCount": 65,
      "citationCount": 14,
      "authors": [
        {
          "authorId": "145044852",
          "name": "Feras A. Saad"
        },
        {
          "authorId": "2071607725",
          "name": "Brian Patton"
        },
        {
          "authorId": "2057691363",
          "name": "Matt Hoffman"
        },
        {
          "authorId": "2278009",
          "name": "R. Saurous"
        },
        {
          "authorId": "1735083",
          "name": "Vikash K. Mansinghka"
        }
      ]
    },
    {
      "paperId": "339c4ebd3892fd28943a727f459f10b1a5ad04a4",
      "externalIds": {
        "MAG": "2904613663",
        "DBLP": "phd/ethos/Samo17",
        "CorpusId": 69633877
      },
      "url": "https://www.semanticscholar.org/paper/339c4ebd3892fd28943a727f459f10b1a5ad04a4",
      "title": "Advances in kernel methods: towards general-purpose and scalable models",
      "venue": "",
      "year": 2017,
      "referenceCount": 149,
      "citationCount": 6,
      "authors": [
        {
          "authorId": "2338329",
          "name": "Yves-Laurent Kom Samo"
        }
      ]
    },
    {
      "paperId": "7f65222f69d68737e284c97a1818e8081ebb120e",
      "externalIds": {
        "ArXiv": "2110.12513",
        "DBLP": "journals/sac/KimK22",
        "DOI": "10.1007/s11222-021-10064-0",
        "CorpusId": 237158594
      },
      "url": "https://www.semanticscholar.org/paper/7f65222f69d68737e284c97a1818e8081ebb120e",
      "title": "Erlang mixture modeling for Poisson process intensities",
      "venue": "Statistics and computing",
      "year": 2021,
      "referenceCount": 44,
      "citationCount": 5,
      "authors": [
        {
          "authorId": "153761233",
          "name": "Hyotae Kim"
        },
        {
          "authorId": "2983291",
          "name": "A. Kottas"
        }
      ]
    },
    {
      "paperId": "171ea87ff8d68b6fb2daa7862fba3db8fa0cc5c1",
      "externalIds": {
        "MAG": "2105826854",
        "CorpusId": 122402000
      },
      "url": "https://www.semanticscholar.org/paper/171ea87ff8d68b6fb2daa7862fba3db8fa0cc5c1",
      "title": "High-Dimensional Non-Gaussian Data Clustering using Variational Learning of Mixture Models",
      "venue": "",
      "year": 2013,
      "referenceCount": 169,
      "citationCount": 0,
      "authors": [
        {
          "authorId": "2038786",
          "name": "Wentao Fan"
        }
      ]
    },
    {
      "paperId": "a6d85f254e3ef6b0e7d8881edffe7171ccf67b13",
      "externalIds": {
        "MAG": "1563682363",
        "DOI": "10.1198/jasa.2004.s346",
        "CorpusId": 219593193
      },
      "url": "https://www.semanticscholar.org/paper/a6d85f254e3ef6b0e7d8881edffe7171ccf67b13",
      "title": "Bayesian Nonparametrics",
      "venue": "",
      "year": 2004,
      "referenceCount": 6,
      "citationCount": 0,
      "authors": [
        {
          "authorId": "2478171",
          "name": "I. Epifani"
        }
      ]
    },
    {
      "paperId": "f51f29550da8bcc4e10eebd15109c1b51ee1f9fc",
      "externalIds": {
        "CorpusId": 46883421
      },
      "url": "https://www.semanticscholar.org/paper/f51f29550da8bcc4e10eebd15109c1b51ee1f9fc",
      "title": "Workshop on Stochastic Optimization in Networks and Related Topics February 23 – February 24 , 2018",
      "venue": "",
      "year": 2018,
      "referenceCount": 0,
      "citationCount": 0,
      "authors": []
    }
  ]
}