{
  "total": 103,
  "offset": 0,
  "next": 10,
  "data": [
    {
      "paperId": "ce26c27430eb84f86d01f988f347147dcaecb25c",
      "externalIds": {
        "MAG": "2430393194",
        "DBLP": "journals/tsipn/FantiKORV16",
        "DOI": "10.1109/TSIPN.2016.2605761",
        "CorpusId": 10812301
      },
      "url": "https://www.semanticscholar.org/paper/ce26c27430eb84f86d01f988f347147dcaecb25c",
      "title": "Metadata-Conscious Anonymous Messaging",
      "venue": "IEEE Transactions on Signal and Information Processing over Networks",
      "year": 2016,
      "referenceCount": 47,
      "citationCount": 8,
      "authors": [
        {
          "authorId": "2188628",
          "name": "G. Fanti"
        },
        {
          "authorId": "3115341",
          "name": "P. Kairouz"
        },
        {
          "authorId": "34184418",
          "name": "Sewoong Oh"
        },
        {
          "authorId": "144161012",
          "name": "K. Ramchandran"
        },
        {
          "authorId": "144768649",
          "name": "P. Viswanath"
        }
      ]
    },
    {
      "paperId": "f764ca8a2cd43cbb8f8f62659cbbc67f50e404fb",
      "externalIds": {
        "CorpusId": 266379186
      },
      "url": "https://www.semanticscholar.org/paper/f764ca8a2cd43cbb8f8f62659cbbc67f50e404fb",
      "title": "Metadata-conscious Anonymous Messaging",
      "venue": "",
      "year": null,
      "referenceCount": 0,
      "citationCount": 0,
      "authors": []
    },
    {
      "paperId": "0d3a12c0dc99478caf7738a29cbf584a0740df66",
      "externalIds": {
        "DBLP": "journals/iacr/JiaDZK25",
        "CorpusId": 279241791
      },
      "url": "https://www.semanticscholar.org/paper/0d3a12c0dc99478caf7738a29cbf584a0740df66",
      "title": "Kerblam - Anonymous Messaging System Protecting Both Senders and Recipients",
      "venue": "IACR Cryptology ePrint Archive",
      "year": 2025,
      "referenceCount": 56,
      "citationCount": 1,
      "authors": [
        {
          "authorId": "2284765313",
          "name": "Yanxue Jia"
        },
        {
          "authorId": "2070468276",
          "name": "Debajyoti Das"
        },
        {
          "authorId": "2368763459",
          "name": "Wenhao Zhang"
        },
        {
          "authorId": "2288757237",
          "name": "Aniket Kate"
        }
      ]
    },
    {
      "paperId": "61b9e6bacd7b201a994e0b4bef6e6a7bbcc20df2",
      "externalIds": {
        "DBLP": "conf/uemcom/DigertSCI24",
        "DOI": "10.1109/UEMCON62879.2024.10754758",
        "CorpusId": 274152176
      },
      "url": "https://www.semanticscholar.org/paper/61b9e6bacd7b201a994e0b4bef6e6a7bbcc20df2",
      "title": "Anonymous Messaging for IoT and Cloud Security Using PUF-Based Protocols: A Lightweight Alternative to SSL",
      "venue": "Ubiquitous Computing, Electronics & Mobile Communication Conference",
      "year": 2024,
      "referenceCount": 37,
      "citationCount": 1,
      "authors": [
        {
          "authorId": "2331524485",
          "name": "Tristan Digert"
        },
        {
          "authorId": "2263733151",
          "name": "Majd Safi"
        },
        {
          "authorId": "2263526330",
          "name": "Eric Clark"
        },
        {
          "authorId": "2815915",
          "name": "Tarek A. Idriss"
        }
      ]
    },
    {
      "paperId": "8f6acac4db9d602640d6a28c5c9cca708e600882",
      "externalIds": {
        "DBLP": "journals/ton/JiangWXDCMWJW26",
        "DOI": "10.1109/TON.2026.3672821",
        "CorpusId": 286566152
      },
      "url": "https://www.semanticscholar.org/paper/8f6acac4db9d602640d6a28c5c9cca708e600882",
      "title": "Anonymous Messaging Made More Flexible With PingPong",
      "venue": "IEEE Transactions on Networking",
      "year": 2026,
      "referenceCount": 103,
      "citationCount": 0,
      "authors": [
        {
          "authorId": "12699836",
          "name": "Peipei Jiang"
        },
        {
          "authorId": "2267866524",
          "name": "Yihao Wu"
        },
        {
          "authorId": "2239054093",
          "name": "Lei Xu"
        },
        {
          "authorId": "2267879851",
          "name": "Wentao Dong"
        },
        {
          "authorId": "2327384197",
          "name": "Peiyuan Chen"
        },
        {
          "authorId": "2248480717",
          "name": "Yulong Ming"
        },
        {
          "authorId": "2305534176",
          "name": "Cong Wang"
        },
        {
          "authorId": "2112828101",
          "name": "Xiaohua Jia"
        },
        {
          "authorId": "2345198433",
          "name": "Qian Wang"
        }
      ]
    },
    {
      "paperId": "995742e26a8b8a5e77e236bb1bc885be45de2b5a",
      "externalIds": {
        "MAG": "2614378039",
        "DBLP": "conf/uss/AlexopoulosKT017",
        "CorpusId": 215827058
      },
      "url": "https://www.semanticscholar.org/paper/995742e26a8b8a5e77e236bb1bc885be45de2b5a",
      "title": "MCMix: Anonymous Messaging via Secure Multiparty Computation",
      "venue": "USENIX Security Symposium",
      "year": 2017,
      "referenceCount": 54,
      "citationCount": 85,
      "authors": [
        {
          "authorId": "1869417",
          "name": "Nikolaos Alexopoulos"
        },
        {
          "authorId": "1695604",
          "name": "A. Kiayias"
        },
        {
          "authorId": "2816614",
          "name": "Riivo Talviste"
        },
        {
          "authorId": "144183234",
          "name": "T. Zacharias"
        }
      ]
    },
    {
      "paperId": "527cedd77bd0bd3c476ed176d1b1213a18c0214b",
      "externalIds": {
        "DBLP": "journals/iacr/HashimotoKP22",
        "DOI": "10.1145/3548606.3560679",
        "CorpusId": 253371247
      },
      "url": "https://www.semanticscholar.org/paper/527cedd77bd0bd3c476ed176d1b1213a18c0214b",
      "title": "How to Hide MetaData in MLS-Like Secure Group Messaging: Simple, Modular, and Post-Quantum",
      "venue": "Conference on Computer and Communications Security",
      "year": 2022,
      "referenceCount": 48,
      "citationCount": 14,
      "authors": [
        {
          "authorId": "2088925243",
          "name": "Keitaro Hashimoto"
        },
        {
          "authorId": "2239238",
          "name": "Shuichi Katsumata"
        },
        {
          "authorId": "1777946",
          "name": "Thomas Prest"
        }
      ]
    },
    {
      "paperId": "dcd6d2b21c312a579d2e2e7dfc11f86a665f52ef",
      "externalIds": {
        "DBLP": "journals/sncs/SchatzRS22",
        "DOI": "10.1007/s42979-022-01231-9",
        "CorpusId": 249858895
      },
      "url": "https://www.semanticscholar.org/paper/dcd6d2b21c312a579d2e2e7dfc11f86a665f52ef",
      "title": "Hydra: Practical Metadata Security for Contact Discovery, Messaging, and Voice Calls",
      "venue": "SN Computer Science",
      "year": 2022,
      "referenceCount": 49,
      "citationCount": 1,
      "authors": [
        {
          "authorId": "145372148",
          "name": "David Schatz"
        },
        {
          "authorId": "1686598",
          "name": "M. Rossberg"
        },
        {
          "authorId": "2054489811",
          "name": "Guenter W. Schaefer"
        }
      ]
    },
    {
      "paperId": "3e8d90f146b5df6fd5fad8991670cc5b38c7bd9a",
      "externalIds": {
        "DBLP": "conf/eurosp/NelsonPA24",
        "ArXiv": "2210.12776",
        "DOI": "10.1109/EuroSP60621.2024.00044",
        "CorpusId": 253098770
      },
      "url": "https://www.semanticscholar.org/paper/3e8d90f146b5df6fd5fad8991670cc5b38c7bd9a",
      "title": "Metadata Privacy Beyond Tunneling for Instant Messaging",
      "venue": "European Symposium on Security and Privacy",
      "year": 2022,
      "referenceCount": 112,
      "citationCount": 1,
      "authors": [
        {
          "authorId": "34608557",
          "name": "Boel Nelson"
        },
        {
          "authorId": "40510240",
          "name": "Elena Pagnin"
        },
        {
          "authorId": "145432065",
          "name": "Aslan Askarov"
        }
      ]
    },
    {
      "paperId": "56afdbed8eb90e102d8bfaa60aedd138cc07be3c",
      "externalIds": {
        "DBLP": "journals/ijnm/ManikandanS24",
        "DOI": "10.1002/nem.2271",
        "CorpusId": 269750654
      },
      "url": "https://www.semanticscholar.org/paper/56afdbed8eb90e102d8bfaa60aedd138cc07be3c",
      "title": "ASMTP: Anonymous secure messaging token‐based protocol assisted data security in swarm of unmanned aerial vehicles",
      "venue": "International Journal of Network Management",
      "year": 2024,
      "referenceCount": 52,
      "citationCount": 3,
      "authors": [
        {
          "authorId": "2246967420",
          "name": "K. Manikandan"
        },
        {
          "authorId": "2189745265",
          "name": "Ramamoorthy Sriramulu"
        }
      ]
    }
  ]
}