{
  "total": 13,
  "offset": 0,
  "next": 10,
  "data": [
    {
      "paperId": "a2e2770565665a5d7ba4570934aa1a7882a4e214",
      "externalIds": {
        "MAG": "2604726708",
        "ArXiv": "1703.03078",
        "DBLP": "conf/icml/ChebotarHZSSL17",
        "CorpusId": 6206564
      },
      "url": "https://www.semanticscholar.org/paper/a2e2770565665a5d7ba4570934aa1a7882a4e214",
      "title": "Combining Model-Based and Model-Free Updates for Trajectory-Centric Reinforcement Learning",
      "venue": "International Conference on Machine Learning",
      "year": 2017,
      "referenceCount": 29,
      "citationCount": 164,
      "authors": [
        {
          "authorId": "2527420",
          "name": "Yevgen Chebotar"
        },
        {
          "authorId": "1944801",
          "name": "Karol Hausman"
        },
        {
          "authorId": "2634261",
          "name": "Marvin Zhang"
        },
        {
          "authorId": "1732493",
          "name": "G. Sukhatme"
        },
        {
          "authorId": "1745219",
          "name": "S. Schaal"
        },
        {
          "authorId": "1736651",
          "name": "S. Levine"
        }
      ]
    },
    {
      "paperId": "757e6216cc8a60a127611a32295a9317b22d75be",
      "externalIds": {
        "MAG": "2615990951",
        "CorpusId": 38020531
      },
      "url": "https://www.semanticscholar.org/paper/757e6216cc8a60a127611a32295a9317b22d75be",
      "title": "Combining Model-Based and Model-Free Updates for Deep Reinforcement Learning",
      "venue": "",
      "year": 2017,
      "referenceCount": 18,
      "citationCount": 3,
      "authors": [
        {
          "authorId": "2527420",
          "name": "Yevgen Chebotar"
        },
        {
          "authorId": "1944801",
          "name": "Karol Hausman"
        },
        {
          "authorId": "2634261",
          "name": "Marvin Zhang"
        },
        {
          "authorId": "1732493",
          "name": "G. Sukhatme"
        },
        {
          "authorId": "1745219",
          "name": "S. Schaal"
        },
        {
          "authorId": "1736651",
          "name": "S. Levine"
        }
      ]
    },
    {
      "paperId": "cea70d9bfc3337760644e74c19648a3313b1a2cb",
      "externalIds": {
        "DBLP": "conf/iros/NarendraMP25",
        "ArXiv": "2506.21782",
        "DOI": "10.1109/IROS60139.2025.11247541",
        "CorpusId": 280011816
      },
      "url": "https://www.semanticscholar.org/paper/cea70d9bfc3337760644e74c19648a3313b1a2cb",
      "title": "M3PO: Massively Multi-Task Model-Based Policy Optimization",
      "venue": "IEEE/RJS International Conference on Intelligent RObots and Systems",
      "year": 2025,
      "referenceCount": 24,
      "citationCount": 1,
      "authors": [
        {
          "authorId": "2325097237",
          "name": "Aditya Narendra"
        },
        {
          "authorId": "2274932508",
          "name": "Dmitry Makarov"
        },
        {
          "authorId": "2354560357",
          "name": "Aleksandr Panov"
        }
      ]
    },
    {
      "paperId": "5e4a7b29507cd95e53e79006efb35ec7d9069e3a",
      "externalIds": {
        "DOI": "10.1109/ISIE51582.2022.9948217",
        "CorpusId": 253540787
      },
      "url": "https://www.semanticscholar.org/paper/5e4a7b29507cd95e53e79006efb35ec7d9069e3a",
      "title": "Zero-Sum Game (ZSG) based Integral Reinforcement Learning for Trajectory Tracking Control of Autonomous Smart Car",
      "venue": "International Symposium on Industrial Electronics",
      "year": 2022,
      "referenceCount": 29,
      "citationCount": 3,
      "authors": [
        {
          "authorId": "2324081",
          "name": "S. Bogosyan"
        },
        {
          "authorId": "2251889",
          "name": "M. Gokasan"
        },
        {
          "authorId": "2962183",
          "name": "K. Vamvoudakis"
        }
      ]
    },
    {
      "paperId": "969f6ef56d812fdb3afc7d2a84c59fdfc609dc15",
      "externalIds": {
        "MAG": "2959488596",
        "DBLP": "journals/ral/HoppeLHT19",
        "DOI": "10.1109/LRA.2019.2928212",
        "CorpusId": 199086375
      },
      "url": "https://www.semanticscholar.org/paper/969f6ef56d812fdb3afc7d2a84c59fdfc609dc15",
      "title": "Planning Approximate Exploration Trajectories for Model-Free Reinforcement Learning in Contact-Rich Manipulation",
      "venue": "IEEE Robotics and Automation Letters",
      "year": 2019,
      "referenceCount": 36,
      "citationCount": 25,
      "authors": [
        {
          "authorId": "144286396",
          "name": "Sabrina Hoppe"
        },
        {
          "authorId": "39793067",
          "name": "Zhongyu Lou"
        },
        {
          "authorId": "1897926",
          "name": "Daniel Hennes"
        },
        {
          "authorId": "144918851",
          "name": "Marc Toussaint"
        }
      ]
    },
    {
      "paperId": "54b7c4c9e40d8e313810282b90ea6c57ad4a4686",
      "externalIds": {
        "CorpusId": 209373775
      },
      "url": "https://www.semanticscholar.org/paper/54b7c4c9e40d8e313810282b90ea6c57ad4a4686",
      "title": "Deep reinforcement learning under uncertainty for autonomous driving Deep Reinforcement Learning",
      "venue": "",
      "year": null,
      "referenceCount": 64,
      "citationCount": 0,
      "authors": [
        {
          "authorId": "145197867",
          "name": "Jan Peters"
        },
        {
          "authorId": "1716763",
          "name": "H. Koeppl"
        },
        {
          "authorId": "34906504",
          "name": "J. Pajarinen"
        },
        {
          "authorId": "2078160576",
          "name": "Adrian äoöíc"
        },
        {
          "authorId": "71483658",
          "name": "Tag der Einreichung"
        }
      ]
    },
    {
      "paperId": "f7e59546d75b2fe71d1fdda2773f84bb04fcc6d2",
      "externalIds": {
        "MAG": "2182445582",
        "DBLP": "journals/jmlr/TheodorouBS10",
        "DOI": "10.5555/1756006.1953033",
        "CorpusId": 1797388
      },
      "url": "https://www.semanticscholar.org/paper/f7e59546d75b2fe71d1fdda2773f84bb04fcc6d2",
      "title": "A Generalized Path Integral Control Approach to Reinforcement Learning",
      "venue": "Journal of machine learning research",
      "year": 2010,
      "referenceCount": 46,
      "citationCount": 691,
      "authors": [
        {
          "authorId": "1751063",
          "name": "Evangelos A. Theodorou"
        },
        {
          "authorId": "1741293",
          "name": "J. Buchli"
        },
        {
          "authorId": "1745219",
          "name": "S. Schaal"
        }
      ]
    },
    {
      "paperId": "3b636bfa6f1410bd3b98626ab603fbf20726585e",
      "externalIds": {
        "ArXiv": "2601.02196",
        "DBLP": "journals/corr/abs-2601-02196",
        "DOI": "10.48550/arXiv.2601.02196",
        "CorpusId": 284486933
      },
      "url": "https://www.semanticscholar.org/paper/3b636bfa6f1410bd3b98626ab603fbf20726585e",
      "title": "ACDZero: MCTS Agent for Mastering Automated Cyber Defense",
      "venue": "arXiv.org",
      "year": 2026,
      "referenceCount": 37,
      "citationCount": 2,
      "authors": [
        {
          "authorId": "2403242603",
          "name": "Yu Li"
        },
        {
          "authorId": "2391757351",
          "name": "Sizhe Tang"
        },
        {
          "authorId": "2375852789",
          "name": "Rongqian Chen"
        },
        {
          "authorId": "2375868855",
          "name": "F. Yu"
        },
        {
          "authorId": "2354103372",
          "name": "Guangyu Jiang"
        },
        {
          "authorId": "2281639581",
          "name": "Mahdi Imani"
        },
        {
          "authorId": "2268405349",
          "name": "Nathaniel D. Bastian"
        },
        {
          "authorId": "2391711013",
          "name": "Tian Lan"
        }
      ]
    },
    {
      "paperId": "017a32f354df13bad1e242ee567591971c1c9d0f",
      "externalIds": {
        "DBLP": "conf/aaai/PanCJZMWW26",
        "DOI": "10.1609/aaai.v40i29.39656",
        "CorpusId": 286706847
      },
      "url": "https://www.semanticscholar.org/paper/017a32f354df13bad1e242ee567591971c1c9d0f",
      "title": "Prototype Entropy Alignment: Reinforcing Structured Uncertainty in LLM Reasoning",
      "venue": "AAAI Conference on Artificial Intelligence",
      "year": 2026,
      "referenceCount": 0,
      "citationCount": 0,
      "authors": [
        {
          "authorId": "2162588581",
          "name": "Zheng-Xiao Pan"
        },
        {
          "authorId": "2337080898",
          "name": "Yanhao Chen"
        },
        {
          "authorId": "2267088240",
          "name": "Zhongquan Jian"
        },
        {
          "authorId": "2345317914",
          "name": "Wanru Zhao"
        },
        {
          "authorId": "2368259442",
          "name": "Haonan Ma"
        },
        {
          "authorId": "2292485043",
          "name": "Meihong Wang"
        },
        {
          "authorId": "2155452053",
          "name": "Qingqiang Wu"
        }
      ]
    },
    {
      "paperId": "228c86f89c7f181c06ab9477d3d6e14ccb3715a6",
      "externalIds": {
        "MAG": "3123364362",
        "DOI": "10.3390/APP11031131",
        "CorpusId": 234055379
      },
      "url": "https://www.semanticscholar.org/paper/228c86f89c7f181c06ab9477d3d6e14ccb3715a6",
      "title": "Efficient Robot Skills Learning with Weighted Near-Optimal Experiences Policy Optimization",
      "venue": "Applied Sciences",
      "year": 2021,
      "referenceCount": 32,
      "citationCount": 4,
      "authors": [
        {
          "authorId": "38866782",
          "name": "Liwei Hou"
        },
        {
          "authorId": "7643665",
          "name": "Hengsheng Wang"
        },
        {
          "authorId": "2089856379",
          "name": "Haoran Zou"
        },
        {
          "authorId": "2145349037",
          "name": "Qun Wang"
        }
      ]
    }
  ]
}