{
  "total": 1325,
  "offset": 0,
  "next": 10,
  "data": [
    {
      "paperId": "149b7e87045c5bdcc0f44c8bf3903760037f00f7",
      "externalIds": {
        "MAG": "1826892964",
        "DBLP": "conf/icml/ChaoSMS15",
        "CorpusId": 6107212
      },
      "url": "https://www.semanticscholar.org/paper/149b7e87045c5bdcc0f44c8bf3903760037f00f7",
      "title": "Exponential Integration for Hamiltonian Monte Carlo",
      "venue": "International Conference on Machine Learning",
      "year": 2015,
      "referenceCount": 34,
      "citationCount": 20,
      "authors": [
        {
          "authorId": "38784892",
          "name": "Wei-Lun Chao"
        },
        {
          "authorId": "1932072",
          "name": "J. Solomon"
        },
        {
          "authorId": "1872043",
          "name": "D. Michels"
        },
        {
          "authorId": "145757665",
          "name": "Fei Sha"
        }
      ]
    },
    {
      "paperId": "1a3e6764a6983a40a7c9f1724295701499411ff2",
      "externalIds": {
        "CorpusId": 6002118
      },
      "url": "https://www.semanticscholar.org/paper/1a3e6764a6983a40a7c9f1724295701499411ff2",
      "title": "Exponential Integration for Hamiltonian Monte Carlo Supplementary Material",
      "venue": "",
      "year": 2015,
      "referenceCount": 3,
      "citationCount": 0,
      "authors": [
        {
          "authorId": "38784892",
          "name": "Wei-Lun Chao"
        },
        {
          "authorId": "1932072",
          "name": "J. Solomon"
        },
        {
          "authorId": "1872043",
          "name": "D. Michels"
        }
      ]
    },
    {
      "paperId": "adbdf048c51dc0f6e6c8dba737b2a5576d1cd871",
      "externalIds": {
        "MAG": "3189267656",
        "DOI": "10.1016/J.EGYAI.2021.100108",
        "CorpusId": 238662829
      },
      "url": "https://www.semanticscholar.org/paper/adbdf048c51dc0f6e6c8dba737b2a5576d1cd871",
      "title": "Separable Shadow Hamiltonian Hybrid Monte Carlo for Bayesian Neural Network Inference in wind speed forecasting",
      "venue": "",
      "year": 2021,
      "referenceCount": 45,
      "citationCount": 14,
      "authors": [
        {
          "authorId": "8803434",
          "name": "R. Mbuvha"
        },
        {
          "authorId": "8608409",
          "name": "W. Mongwe"
        },
        {
          "authorId": "1740675",
          "name": "T. Marwala"
        }
      ]
    },
    {
      "paperId": "7d179a26c50af539b0713bb695c9d490edc9234d",
      "externalIds": {
        "MAG": "1977478687",
        "DOI": "10.1016/0021-9991(69)90079-5",
        "CorpusId": 119563619
      },
      "url": "https://www.semanticscholar.org/paper/7d179a26c50af539b0713bb695c9d490edc9234d",
      "title": "Monte Carlo integration of the Feynman propagator in imaginary time",
      "venue": "",
      "year": 1969,
      "referenceCount": 20,
      "citationCount": 30,
      "authors": [
        {
          "authorId": "92181695",
          "name": "S. V. Lawande"
        },
        {
          "authorId": "16099275",
          "name": "C. A. Jensen"
        },
        {
          "authorId": "2272933307",
          "name": "H.L Sahlin"
        }
      ]
    },
    {
      "paperId": "17d0a842ca309d4ed2bb0edd4cb2fd9323e3e5ee",
      "externalIds": {
        "MAG": "2980446483",
        "DBLP": "journals/jcam/WandeltGM21",
        "DOI": "10.1016/j.cam.2019.112495",
        "CorpusId": 209988622
      },
      "url": "https://www.semanticscholar.org/paper/17d0a842ca309d4ed2bb0edd4cb2fd9323e3e5ee",
      "title": "Geometric integration on Lie groups using the Cayley transform with focus on Lattice QCD",
      "venue": "Journal of Computational and Applied Mathematics",
      "year": 2021,
      "referenceCount": 26,
      "citationCount": 8,
      "authors": [
        {
          "authorId": "102850152",
          "name": "M. Wandelt"
        },
        {
          "authorId": "49946987",
          "name": "M. Günther"
        },
        {
          "authorId": "32173176",
          "name": "M. Muniz"
        }
      ]
    },
    {
      "paperId": "6ad8926bcb5e4169154477427849ee80bd45318d",
      "externalIds": {
        "DBLP": "journals/cnsns/TamborrinoDMT24",
        "DOI": "10.1016/j.cnsns.2024.108168",
        "CorpusId": 254069876
      },
      "url": "https://www.semanticscholar.org/paper/6ad8926bcb5e4169154477427849ee80bd45318d",
      "title": "Adaptive parameters tuning based on energy-preserving splitting integration for Hamiltonian Monte Carlo Method",
      "venue": "Communications in nonlinear science & numerical simulation",
      "year": 2024,
      "referenceCount": 37,
      "citationCount": 3,
      "authors": [
        {
          "authorId": "2237766911",
          "name": "C. Tamborrino"
        },
        {
          "authorId": "2133008",
          "name": "F. Diele"
        },
        {
          "authorId": "2335592",
          "name": "C. Marangi"
        },
        {
          "authorId": "40650283",
          "name": "C. Tarantino"
        }
      ]
    },
    {
      "paperId": "de04b65735a49943b5065fda14d010b5305518f6",
      "externalIds": {
        "ArXiv": "2107.02654",
        "CorpusId": 254124984
      },
      "url": "https://www.semanticscholar.org/paper/de04b65735a49943b5065fda14d010b5305518f6",
      "title": "Novel energy-preserving splitting integration for Hamiltonian Monte Carlo method",
      "venue": "",
      "year": 2021,
      "referenceCount": 30,
      "citationCount": 0,
      "authors": [
        {
          "authorId": "2133008",
          "name": "F. Diele"
        },
        {
          "authorId": "2193023726",
          "name": "C.Marangi"
        },
        {
          "authorId": "2237766911",
          "name": "C. Tamborrino"
        },
        {
          "authorId": "46248308",
          "name": "C. Tarantino"
        }
      ]
    },
    {
      "paperId": "3426ee5afef58cca4fe13469073b540d57c98b6e",
      "externalIds": {
        "DOI": "10.5194/gmd-18-1709-2025",
        "CorpusId": 268818994
      },
      "url": "https://www.semanticscholar.org/paper/3426ee5afef58cca4fe13469073b540d57c98b6e",
      "title": "Selecting a conceptual hydrological model using Bayes' factors computed with replica-exchange Hamiltonian Monte Carlo and thermodynamic integration",
      "venue": "Geoscientific Model Development",
      "year": 2025,
      "referenceCount": 118,
      "citationCount": 0,
      "authors": [
        {
          "authorId": "2294356466",
          "name": "Damian N. Mingo"
        },
        {
          "authorId": "70621475",
          "name": "R. Nijzink"
        },
        {
          "authorId": "2294357516",
          "name": "Christophe Ley"
        },
        {
          "authorId": "2297477277",
          "name": "J. Hale"
        }
      ]
    },
    {
      "paperId": "4e6df18976e0e11b2c46d1abd9d4aafbb1aacd0a",
      "externalIds": {
        "DOI": "10.1109/EDM65517.2025.11096814",
        "CorpusId": 280553097
      },
      "url": "https://www.semanticscholar.org/paper/4e6df18976e0e11b2c46d1abd9d4aafbb1aacd0a",
      "title": "Streaming Hamiltonian Monte Carlo with Smooth Data Drift Adaptation",
      "venue": "Educational Data Mining",
      "year": 2025,
      "referenceCount": 13,
      "citationCount": 0,
      "authors": [
        {
          "authorId": "2269147796",
          "name": "Alexey V. Calabourdin"
        },
        {
          "authorId": "2269147759",
          "name": "Konstantin A. Aksenov"
        }
      ]
    },
    {
      "paperId": "5832b98746eae95d00767cb10e3922a2c5b63327",
      "externalIds": {
        "DBLP": "journals/algorithms/KarrasTKKBT25",
        "DOI": "10.3390/a18100661",
        "CorpusId": 282223037
      },
      "url": "https://www.semanticscholar.org/paper/5832b98746eae95d00767cb10e3922a2c5b63327",
      "title": "MCMC Methods: From Theory to Distributed Hamiltonian Monte Carlo over PySpark",
      "venue": "Algorithms",
      "year": 2025,
      "referenceCount": 35,
      "citationCount": 2,
      "authors": [
        {
          "authorId": "2156928873",
          "name": "Christos N. Karras"
        },
        {
          "authorId": "65884470",
          "name": "Leonidas Theodorakopoulos"
        },
        {
          "authorId": "2156929752",
          "name": "Aristeidis Karras"
        },
        {
          "authorId": "2069013",
          "name": "George A. Krimpas"
        },
        {
          "authorId": "2386703551",
          "name": "Charalampos-Panagiotis Bakalis"
        },
        {
          "authorId": "2310063046",
          "name": "Alexandra Theodoropoulou"
        }
      ]
    }
  ]
}