{
  "total": 2814,
  "offset": 0,
  "next": 10,
  "data": [
    {
      "paperId": "72ad7a648b38fb44559243a48e07d12816f4ff87",
      "externalIds": {
        "DBLP": "conf/icml/Papachristoudis15",
        "MAG": "1856692137",
        "CorpusId": 9484655
      },
      "url": "https://www.semanticscholar.org/paper/72ad7a648b38fb44559243a48e07d12816f4ff87",
      "title": "Adaptive Belief Propagation",
      "venue": "International Conference on Machine Learning",
      "year": 2015,
      "referenceCount": 17,
      "citationCount": 7,
      "authors": [
        {
          "authorId": "2647341",
          "name": "Georgios Papachristoudis"
        },
        {
          "authorId": "31496901",
          "name": "John W. Fisher III"
        }
      ]
    },
    {
      "paperId": "ad8535f66d7475b233f38e480e75833c7453c148",
      "externalIds": {
        "CorpusId": 17600871
      },
      "url": "https://www.semanticscholar.org/paper/ad8535f66d7475b233f38e480e75833c7453c148",
      "title": "Adaptive Belief Propagation – Supplementary Material",
      "venue": "",
      "year": 2015,
      "referenceCount": 5,
      "citationCount": 0,
      "authors": [
        {
          "authorId": "2647341",
          "name": "Georgios Papachristoudis"
        },
        {
          "authorId": "31496901",
          "name": "John W. Fisher III"
        }
      ]
    },
    {
      "paperId": "ed6739ebf8bab7e02ea6b39ef262a369fe1feb65",
      "externalIds": {
        "MAG": "1966006919",
        "DOI": "10.1155/2015/297392",
        "CorpusId": 55090377
      },
      "url": "https://www.semanticscholar.org/paper/ed6739ebf8bab7e02ea6b39ef262a369fe1feb65",
      "title": "A Line-Based Adaptive-Weight Matching Algorithm Using Loopy Belief Propagation",
      "venue": "",
      "year": 2015,
      "referenceCount": 22,
      "citationCount": 4,
      "authors": [
        {
          "authorId": "2155495846",
          "name": "Hui Li"
        },
        {
          "authorId": "2107960805",
          "name": "Xiao-guang Zhang"
        },
        {
          "authorId": "1418554068",
          "name": "Zheng Sun"
        }
      ]
    },
    {
      "paperId": "8c326fb7adc503bf5d0d1b69208ee165d69f27fa",
      "externalIds": {
        "MAG": "1984354011",
        "DBLP": "journals/iet-cvi/Huang15",
        "DOI": "10.1049/iet-cvi.2014.0166",
        "CorpusId": 45885209
      },
      "url": "https://www.semanticscholar.org/paper/8c326fb7adc503bf5d0d1b69208ee165d69f27fa",
      "title": "Stereo matching based on segmented B-spline surface fitting and accelerated region belief propagation",
      "venue": "IET Computer Vision",
      "year": 2015,
      "referenceCount": 31,
      "citationCount": 7,
      "authors": [
        {
          "authorId": "40537844",
          "name": "Jingzhou Huang"
        }
      ]
    },
    {
      "paperId": "7a8551ce53e41e588cb4cf1870b6da398bb5a173",
      "externalIds": {
        "MAG": "2099942828",
        "DOI": "10.1103/PhysRevE.92.030801",
        "CorpusId": 16939203,
        "PubMed": "26465412"
      },
      "url": "https://www.semanticscholar.org/paper/7a8551ce53e41e588cb4cf1870b6da398bb5a173",
      "title": "From epidemics to information propagation: striking differences in structurally similar adaptive network models.",
      "venue": "Physical review. E, Statistical, nonlinear, and soft matter physics",
      "year": 2015,
      "referenceCount": 27,
      "citationCount": 17,
      "authors": [
        {
          "authorId": "2863266",
          "name": "S. Trajanovski"
        },
        {
          "authorId": "9828437",
          "name": "D. Guo"
        },
        {
          "authorId": "121798481",
          "name": "P. van Mieghem"
        }
      ]
    },
    {
      "paperId": "1cd544a4087ef44ab671ec43451e631bbb4cf1ea",
      "externalIds": {
        "MAG": "1979235371",
        "DBLP": "journals/ivc/LeeLLS15",
        "DOI": "10.1016/j.imavis.2015.01.003",
        "CorpusId": 29186248
      },
      "url": "https://www.semanticscholar.org/paper/1cd544a4087ef44ab671ec43451e631bbb4cf1ea",
      "title": "Robust stereo matching using adaptive random walk with restart algorithm",
      "venue": "Image and Vision Computing",
      "year": 2015,
      "referenceCount": 35,
      "citationCount": 51,
      "authors": [
        {
          "authorId": "2538314",
          "name": "Sehyung Lee"
        },
        {
          "authorId": "2108559570",
          "name": "Jin Han Lee"
        },
        {
          "authorId": "153239384",
          "name": "Jongwoo Lim"
        },
        {
          "authorId": "8574373",
          "name": "I. Suh"
        }
      ]
    },
    {
      "paperId": "0324f2b635e6f2103bdf6edd51e3774574df53be",
      "externalIds": {
        "MAG": "2626255390",
        "CorpusId": 33037528
      },
      "url": "https://www.semanticscholar.org/paper/0324f2b635e6f2103bdf6edd51e3774574df53be",
      "title": "On-line Flagging of Anomalies and Adaptive Sequential Hypothesis Testing for Fine-feature Characterization of Geosynchronous Satellites",
      "venue": "",
      "year": 2015,
      "referenceCount": 2,
      "citationCount": 1,
      "authors": [
        {
          "authorId": "31367317",
          "name": "Anil B. Chaudhary"
        },
        {
          "authorId": "78727664",
          "name": "T. Payne"
        },
        {
          "authorId": "2240933",
          "name": "K. Kinateder"
        },
        {
          "authorId": "48502636",
          "name": "P. Dao"
        },
        {
          "authorId": "13109662",
          "name": "E. Beecher"
        },
        {
          "authorId": "2354576232",
          "name": "D. Boone"
        },
        {
          "authorId": "39954084",
          "name": "Brittany B. Elliott"
        },
        {
          "authorId": "88627394",
          "name": "H. Billing"
        }
      ]
    },
    {
      "paperId": "150030d5f103fb2a4eb769bfa86a637be0958502",
      "externalIds": {
        "MAG": "2001352122",
        "DBLP": "conf/isscc/ChenHWHMC15",
        "DOI": "10.1109/ISSCC.2015.7063106",
        "CorpusId": 24598675
      },
      "url": "https://www.semanticscholar.org/paper/150030d5f103fb2a4eb769bfa86a637be0958502",
      "title": "23.2 A 1920×1080 30fps 611 mW five-view depth-estimation processor for light-field applications",
      "venue": "IEEE International Solid-State Circuits Conference",
      "year": 2015,
      "referenceCount": 4,
      "citationCount": 15,
      "authors": [
        {
          "authorId": "2189012439",
          "name": "Hong-Hui Chen"
        },
        {
          "authorId": "3246963",
          "name": "Chao-Tsung Huang"
        },
        {
          "authorId": "1803213",
          "name": "Sih-Sian Wu"
        },
        {
          "authorId": "2064325266",
          "name": "Chia-Liang Hung"
        },
        {
          "authorId": "3092161",
          "name": "Tsung-Chuan Ma"
        },
        {
          "authorId": "1714180",
          "name": "Liang-Gee Chen"
        }
      ]
    },
    {
      "paperId": "c402a6accc78b8e4afc805773a2dcbfda47a55fa",
      "externalIds": {
        "MAG": "2326825013",
        "DOI": "10.17706/IJCEE.2015.V7.874",
        "CorpusId": 16684556
      },
      "url": "https://www.semanticscholar.org/paper/c402a6accc78b8e4afc805773a2dcbfda47a55fa",
      "title": "Robust Stereo Matching Method for Radiometric Distortion between Images",
      "venue": "",
      "year": 2015,
      "referenceCount": 15,
      "citationCount": 3,
      "authors": [
        {
          "authorId": "2740121",
          "name": "Phuc Nguyen Hong"
        },
        {
          "authorId": "2111289742",
          "name": "Musrrat Ali"
        },
        {
          "authorId": "31663231",
          "name": "C. Ahn"
        }
      ]
    },
    {
      "paperId": "861da734bc306b07e4bafbe0e43aff11450907c3",
      "externalIds": {
        "DBLP": "conf/bmvc/ShinY15",
        "MAG": "2330967822",
        "DOI": "10.5244/C.29.152",
        "CorpusId": 26506415
      },
      "url": "https://www.semanticscholar.org/paper/861da734bc306b07e4bafbe0e43aff11450907c3",
      "title": "Spatiotemporal Stereo Matching with 3D Disparity Profiles",
      "venue": "British Machine Vision Conference",
      "year": 2015,
      "referenceCount": 22,
      "citationCount": 2,
      "authors": [
        {
          "authorId": "48264901",
          "name": "Yong-Ho Shin"
        },
        {
          "authorId": "144295528",
          "name": "Kuk-jin Yoon"
        }
      ]
    }
  ]
}