{
  "total": 11,
  "offset": 0,
  "next": 10,
  "data": [
    {
      "paperId": "de79813db667a93b873a9df69eca1f514a1bec3e",
      "externalIds": {
        "MAG": "2950946548",
        "DBLP": "conf/icml/ZhangHLYCHW17",
        "ArXiv": "1607.06996",
        "CorpusId": 14781264
      },
      "url": "https://www.semanticscholar.org/paper/de79813db667a93b873a9df69eca1f514a1bec3e",
      "title": "Scaling Up Sparse Support Vector Machine by Simultaneous Feature and Sample Reduction",
      "venue": "International Conference on Machine Learning",
      "year": 2016,
      "referenceCount": 34,
      "citationCount": 40,
      "authors": [
        {
          "authorId": "47527753",
          "name": "Weizhong Zhang"
        },
        {
          "authorId": "1390931194",
          "name": "Bin Hong"
        },
        {
          "authorId": "144030870",
          "name": "Jieping Ye"
        },
        {
          "authorId": "1724421",
          "name": "Deng Cai"
        },
        {
          "authorId": "3945955",
          "name": "Xiaofei He"
        },
        {
          "authorId": "2146041866",
          "name": "Jie Wang"
        }
      ]
    },
    {
      "paperId": "3356799df18dacfc45b1de89d5e2209f9d784df1",
      "externalIds": {
        "MAG": "2561856247",
        "CorpusId": 126127511
      },
      "url": "https://www.semanticscholar.org/paper/3356799df18dacfc45b1de89d5e2209f9d784df1",
      "title": "Restricting supervised learning: feature selection and feature space partition",
      "venue": "",
      "year": 2012,
      "referenceCount": 105,
      "citationCount": 0,
      "authors": [
        {
          "authorId": "49069391",
          "name": "Yixin Chen"
        },
        {
          "authorId": "2195019",
          "name": "Xiaofei Nan"
        }
      ]
    },
    {
      "paperId": "ff66ab7db7ac31b8ba1831a8e038a756a4467ee1",
      "externalIds": {
        "MAG": "1502473039",
        "CorpusId": 27688012
      },
      "url": "https://www.semanticscholar.org/paper/ff66ab7db7ac31b8ba1831a8e038a756a4467ee1",
      "title": "AI 2007 : Advances in artificial intelligence : 20th Australian Joint Conference on Artificial Intelligence Gold Coast, Australia, December 2-6, 2007 : proceedings",
      "venue": "",
      "year": 2007,
      "referenceCount": 0,
      "citationCount": 88,
      "authors": [
        {
          "authorId": "145572420",
          "name": "M. Orgun"
        },
        {
          "authorId": "145161436",
          "name": "J. Thornton"
        }
      ]
    },
    {
      "paperId": "785c392b87e8f2f3b3048b077b04294d7e43ff6d",
      "externalIds": {
        "MAG": "1593608100",
        "CorpusId": 33519105
      },
      "url": "https://www.semanticscholar.org/paper/785c392b87e8f2f3b3048b077b04294d7e43ff6d",
      "title": "Advances in knowledge discovery and data mining : 11th Pacific-Asia conference, PAKDD 2007, Nanjing, China, May 22-25, 2007 : proceedings",
      "venue": "",
      "year": 2007,
      "referenceCount": 13,
      "citationCount": 4,
      "authors": [
        {
          "authorId": "2110219656",
          "name": "Jinlong Wang"
        },
        {
          "authorId": "2250713070",
          "name": "Congfu Xu"
        },
        {
          "authorId": "143736626",
          "name": "Gang Li"
        },
        {
          "authorId": "2245016522",
          "name": "Zhenwen Dai"
        },
        {
          "authorId": "2056100543",
          "name": "Guojing Luo"
        }
      ]
    },
    {
      "paperId": "8a9e2b5801f54015e15633b5de10df42a3e4fc49",
      "externalIds": {
        "CorpusId": 50494538
      },
      "url": "https://www.semanticscholar.org/paper/8a9e2b5801f54015e15633b5de10df42a3e4fc49",
      "title": "Title: Parallel Algorithms for Mining Large-scale Data Title: Predicting Protein Complexes from Ppi Data",
      "venue": "",
      "year": 2009,
      "referenceCount": 0,
      "citationCount": 0,
      "authors": [
        {
          "authorId": "2145146181",
          "name": "Luonan Chen"
        },
        {
          "authorId": "2118378987",
          "name": "Yuehui Chen"
        }
      ]
    },
    {
      "paperId": "67b8370c1e68b1770bf2b23a6143c784329d6ec8",
      "externalIds": {
        "CorpusId": 28789062
      },
      "url": "https://www.semanticscholar.org/paper/67b8370c1e68b1770bf2b23a6143c784329d6ec8",
      "title": "Intelligent data engineering and automated learning - IDEAL 2007 : 8th International Conference Birmingham, UK, December 16-19, 2007 : proceedings",
      "venue": "",
      "year": 2007,
      "referenceCount": 0,
      "citationCount": 1,
      "authors": []
    },
    {
      "paperId": "3f963db044238fe81b07ff9d236f6627eabdeee4",
      "externalIds": {
        "MAG": "1516100145",
        "DBLP": "conf/ideal/2007",
        "CorpusId": 267923595
      },
      "url": "https://www.semanticscholar.org/paper/3f963db044238fe81b07ff9d236f6627eabdeee4",
      "title": "Intelligent Data Engineering and Automated Learning - IDEAL 2007, 8th International Conference, Birmingham, UK, December 16-19, 2007, Proceedings",
      "venue": "Ideal",
      "year": 2007,
      "referenceCount": 0,
      "citationCount": 0,
      "authors": [
        {
          "authorId": "2257288104",
          "name": "Hujun Yin"
        }
      ]
    },
    {
      "paperId": "1b8f371244e5146dc3e8d6340ddf623a01e175b7",
      "externalIds": {
        "MAG": "1515202625",
        "CorpusId": 262282866
      },
      "url": "https://www.semanticscholar.org/paper/1b8f371244e5146dc3e8d6340ddf623a01e175b7",
      "title": "Advances in Knowledge Discovery and Data Mining, 12th Pacific-Asia Conference, PAKDD 2008, Osaka, Japan, May 20-23, 2008 Proceedings",
      "venue": "Pacific-Asia Conference on Knowledge Discovery and Data Mining",
      "year": 2008,
      "referenceCount": 0,
      "citationCount": 1,
      "authors": [
        {
          "authorId": "2245000229",
          "name": "Takashi Wahio"
        },
        {
          "authorId": "1690503",
          "name": "Einoshin Suzuki"
        },
        {
          "authorId": "35212893",
          "name": "K. Ting"
        },
        {
          "authorId": "2245002682",
          "name": "Akihiro Inokuchi"
        }
      ]
    },
    {
      "paperId": "4e8fb0d980b1bd0e56d5d96da75b0a2dd3cec862",
      "externalIds": {
        "MAG": "1532499468",
        "DBLP": "conf/ecml/2001",
        "CorpusId": 60921116
      },
      "url": "https://www.semanticscholar.org/paper/4e8fb0d980b1bd0e56d5d96da75b0a2dd3cec862",
      "title": "Machine Learning: EMCL 2001, 12th European Conference on Machine Learning, Freiburg, Germany, September 5-7, 2001, Proceedings",
      "venue": "European Conference on Machine Learning",
      "year": 2001,
      "referenceCount": 0,
      "citationCount": 4,
      "authors": [
        {
          "authorId": "1740042",
          "name": "L. D. Raedt"
        },
        {
          "authorId": null,
          "name": "Peter A. Flach"
        }
      ]
    },
    {
      "paperId": "81615b07cabd5d2cf15a807a054e56fc322cd72c",
      "externalIds": {
        "MAG": "3128978079",
        "CorpusId": 238295311
      },
      "url": "https://www.semanticscholar.org/paper/81615b07cabd5d2cf15a807a054e56fc322cd72c",
      "title": "Investigation of Data Compression Methods for Intelligent Machine Condition Monitoring",
      "venue": "",
      "year": 2020,
      "referenceCount": 0,
      "citationCount": 1,
      "authors": [
        {
          "authorId": "122478334",
          "name": "Xiaoli Tang"
        }
      ]
    }
  ]
}