{
  "total": 46614,
  "offset": 0,
  "next": 10,
  "data": [
    {
      "paperId": "b61a327adb074efdd4a194677414de4f7dfd8a49",
      "externalIds": {
        "MAG": "2952714339",
        "ArXiv": "1712.04487",
        "DBLP": "journals/corr/abs-1712-04487",
        "CorpusId": 30705071
      },
      "url": "https://www.semanticscholar.org/paper/b61a327adb074efdd4a194677414de4f7dfd8a49",
      "title": "Topological mixture estimation",
      "venue": "International Conference on Machine Learning",
      "year": 2017,
      "referenceCount": 52,
      "citationCount": 7,
      "authors": [
        {
          "authorId": "3187337",
          "name": "Steve Huntsman"
        }
      ]
    },
    {
      "paperId": "49c9ce25ad8bf826391942f976f4568d916cc4bc",
      "externalIds": {
        "ArXiv": "2308.02940",
        "DBLP": "conf/eusipco/KennedyTM23",
        "DOI": "10.23919/EUSIPCO58844.2023.10289812",
        "CorpusId": 260682698
      },
      "url": "https://www.semanticscholar.org/paper/49c9ce25ad8bf826391942f976f4568d916cc4bc",
      "title": "Topological Estimation of Number of Sources in Linear Monocomponent Mixtures",
      "venue": "European Signal Processing Conference",
      "year": 2023,
      "referenceCount": 22,
      "citationCount": 0,
      "authors": [
        {
          "authorId": "47532385",
          "name": "Sean M. Kennedy"
        },
        {
          "authorId": "1733718",
          "name": "M. Tummala"
        },
        {
          "authorId": "9005074",
          "name": "J. McEachen"
        }
      ]
    },
    {
      "paperId": "0b10579597d71de7491dc6d654389adc27b91a59",
      "externalIds": {
        "MAG": "3087158295",
        "DOI": "10.3390/APP10186586",
        "CorpusId": 224969761
      },
      "url": "https://www.semanticscholar.org/paper/0b10579597d71de7491dc6d654389adc27b91a59",
      "title": "Computer-Aided Environmental Assessment Applied for Estimation of Ecological Impacts Derived from Topological Pathways Based on Lignocellulosic Biomass Transformation",
      "venue": "Applied Sciences",
      "year": 2020,
      "referenceCount": 75,
      "citationCount": 5,
      "authors": [
        {
          "authorId": "1401189482",
          "name": "S. Meramo-Hurtado"
        },
        {
          "authorId": "2093716324",
          "name": "Plinio Puello"
        },
        {
          "authorId": "2116899650",
          "name": "Julio Rodríguez"
        }
      ]
    },
    {
      "paperId": "be371f1f13bcab3523bb11d846e65d2668fc5abc",
      "externalIds": {
        "DBLP": "conf/icra/JiangS23",
        "ArXiv": "2302.06149",
        "DOI": "10.1109/ICRA48891.2023.10160337",
        "CorpusId": 256826745
      },
      "url": "https://www.semanticscholar.org/paper/be371f1f13bcab3523bb11d846e65d2668fc5abc",
      "title": "Contour Context: Abstract Structural Distribution for 3D LiDAR Loop Detection and Metric Pose Estimation",
      "venue": "IEEE International Conference on Robotics and Automation",
      "year": 2023,
      "referenceCount": 37,
      "citationCount": 31,
      "authors": [
        {
          "authorId": "50220024",
          "name": "Binqian Jiang"
        },
        {
          "authorId": "3225993",
          "name": "S. Shen"
        }
      ]
    },
    {
      "paperId": "2775f9229e56b43abbd57149d550f81f870bce28",
      "externalIds": {
        "MAG": "2010857779",
        "DOI": "10.1016/J.RENENE.2010.07.020",
        "CorpusId": 109283152
      },
      "url": "https://www.semanticscholar.org/paper/2775f9229e56b43abbd57149d550f81f870bce28",
      "title": "Estimation of the sauter mean diameter for biodiesels by the mixture topological index.",
      "venue": "",
      "year": 2011,
      "referenceCount": 21,
      "citationCount": 3,
      "authors": [
        {
          "authorId": "2097343002",
          "name": "Qing Shu"
        },
        {
          "authorId": "15381620",
          "name": "Jixian Gao"
        },
        {
          "authorId": "2114121202",
          "name": "Yuhui Liao"
        },
        {
          "authorId": "2118961611",
          "name": "Dezheng Wang"
        },
        {
          "authorId": "48094293",
          "name": "Jin-fu Wang"
        }
      ]
    },
    {
      "paperId": "e1eeb901a6fa2679e3a2ab0930e8ff37be0de062",
      "externalIds": {
        "DOI": "10.1093/sysbio/syag013",
        "CorpusId": 285597655,
        "PubMed": "41689510"
      },
      "url": "https://www.semanticscholar.org/paper/e1eeb901a6fa2679e3a2ab0930e8ff37be0de062",
      "title": "Comparing partition and mixture models with akaike information criteria.",
      "venue": "Systematic Biology",
      "year": 2026,
      "referenceCount": 0,
      "citationCount": 0,
      "authors": [
        {
          "authorId": "3328810",
          "name": "E. Susko"
        },
        {
          "authorId": "5325261",
          "name": "R. Lanfear"
        },
        {
          "authorId": "2251564254",
          "name": "Andrew J. Roger"
        }
      ]
    },
    {
      "paperId": "3d5885814172193513e79c01254a657de175a395",
      "externalIds": {
        "DOI": "10.1007/s11814-023-1484-1",
        "CorpusId": 259367010
      },
      "url": "https://www.semanticscholar.org/paper/3d5885814172193513e79c01254a657de175a395",
      "title": "Critical review on graph theory: Estimation of thermodynamic properties of liquid mixtures",
      "venue": "Korean Journal of Chemical Engineering",
      "year": 2023,
      "referenceCount": 186,
      "citationCount": 6,
      "authors": [
        {
          "authorId": "2035767287",
          "name": "Sunita Malik"
        },
        {
          "authorId": "2148263334",
          "name": "V. Sharma"
        }
      ]
    },
    {
      "paperId": "81554195fe741391b3f0c00460d575090c2d0c7c",
      "externalIds": {
        "MAG": "2045936999",
        "DBLP": "conf/petra/KosmopoulosMM13",
        "DOI": "10.1145/2504335.2504366",
        "CorpusId": 10491510
      },
      "url": "https://www.semanticscholar.org/paper/81554195fe741391b3f0c00460d575090c2d0c7c",
      "title": "Robust offline topological map estimation using visual loop closures",
      "venue": "Petra",
      "year": 2013,
      "referenceCount": 27,
      "citationCount": 0,
      "authors": [
        {
          "authorId": "1750988",
          "name": "D. Kosmopoulos"
        },
        {
          "authorId": "1735465",
          "name": "Ilias Maglogiannis"
        },
        {
          "authorId": "1728274",
          "name": "F. Makedon"
        }
      ]
    },
    {
      "paperId": "6475cdbda0b53e021264e0489af17a44d12baad4",
      "externalIds": {
        "DBLP": "journals/tgrs/JiangZGZZ22",
        "DOI": "10.1109/TGRS.2022.3199261",
        "CorpusId": 251658438
      },
      "url": "https://www.semanticscholar.org/paper/6475cdbda0b53e021264e0489af17a44d12baad4",
      "title": "A Vertex-Directed Evolutionary Algorithm for Multiobjective Endmember Estimation",
      "venue": "IEEE Transactions on Geoscience and Remote Sensing",
      "year": 2022,
      "referenceCount": 51,
      "citationCount": 3,
      "authors": [
        {
          "authorId": "5248284",
          "name": "Xiangming Jiang"
        },
        {
          "authorId": "2338013494",
          "name": "Yizhe Zhao"
        },
        {
          "authorId": "144605807",
          "name": "Maoguo Gong"
        },
        {
          "authorId": "1445295059",
          "name": "Tao Zhan"
        },
        {
          "authorId": "2108147319",
          "name": "Mingyang Zhang"
        }
      ]
    },
    {
      "paperId": "699b9851259ddf76da9629d400b262e7ee25b5b0",
      "externalIds": {
        "DBLP": "journals/vc/Yang0LW22",
        "MAG": "3132858167",
        "DOI": "10.1007/s00371-020-02037-7",
        "CorpusId": 233969927
      },
      "url": "https://www.semanticscholar.org/paper/699b9851259ddf76da9629d400b262e7ee25b5b0",
      "title": "A robust nonrigid point set registration framework based on global and intrinsic topological constraints",
      "venue": "The Visual Computer",
      "year": 2021,
      "referenceCount": 68,
      "citationCount": 5,
      "authors": [
        {
          "authorId": "1840058583",
          "name": "Guiqiang Yang"
        },
        {
          "authorId": "2150927474",
          "name": "Rui Li"
        },
        {
          "authorId": "46399446",
          "name": "Yujun Liu"
        },
        {
          "authorId": "2110218085",
          "name": "Ji Wang"
        }
      ]
    }
  ]
}