{
  "total": 11330,
  "offset": 0,
  "next": 10,
  "data": [
    {
      "paperId": "b4282699ac8fcaba118afae76aaf72bc97505fb3",
      "externalIds": {
        "DBLP": "journals/corr/abs-1802-04591",
        "MAG": "2949514626",
        "ArXiv": "1802.04591",
        "CorpusId": 3635311
      },
      "url": "https://www.semanticscholar.org/paper/b4282699ac8fcaba118afae76aaf72bc97505fb3",
      "title": "First Order Generative Adversarial Networks",
      "venue": "International Conference on Machine Learning",
      "year": 2018,
      "referenceCount": 37,
      "citationCount": 8,
      "authors": [
        {
          "authorId": "49972304",
          "name": "C. Seward"
        },
        {
          "authorId": "2465270",
          "name": "Thomas Unterthiner"
        },
        {
          "authorId": "35959543",
          "name": "Urs M. Bergmann"
        },
        {
          "authorId": "2035925",
          "name": "Nikolay Jetchev"
        },
        {
          "authorId": "3308557",
          "name": "Sepp Hochreiter"
        }
      ]
    },
    {
      "paperId": "233560b4467875d214abe49f611aaf038bb44762",
      "externalIds": {
        "PubMedCentral": "9889385",
        "DOI": "10.1038/s41598-023-28970-w",
        "CorpusId": 261249181,
        "PubMed": "36720975"
      },
      "url": "https://www.semanticscholar.org/paper/233560b4467875d214abe49f611aaf038bb44762",
      "title": "Quantifying microstructures of earth materials using higher-order spatial correlations and deep generative adversarial networks",
      "venue": "Scientific Reports",
      "year": 2023,
      "referenceCount": 81,
      "citationCount": 15,
      "authors": [
        {
          "authorId": "2234494811",
          "name": "Hamed Amiri"
        },
        {
          "authorId": "31171142",
          "name": "I. Vasconcelos"
        },
        {
          "authorId": "145764900",
          "name": "Yang Jiao"
        },
        {
          "authorId": "120125990",
          "name": "Pei-En Chen"
        },
        {
          "authorId": "6751734",
          "name": "O. Plümper"
        }
      ]
    },
    {
      "paperId": "9a700c7a7e7468e436f00c34551fbe3e0f70e42f",
      "externalIds": {
        "DBLP": "conf/iclr/ArjovskyB17",
        "ArXiv": "1701.04862",
        "MAG": "2964201867",
        "CorpusId": 18828233
      },
      "url": "https://www.semanticscholar.org/paper/9a700c7a7e7468e436f00c34551fbe3e0f70e42f",
      "title": "Towards Principled Methods for Training Generative Adversarial Networks",
      "venue": "International Conference on Learning Representations",
      "year": 2017,
      "referenceCount": 16,
      "citationCount": 2251,
      "authors": [
        {
          "authorId": "2877311",
          "name": "Martín Arjovsky"
        },
        {
          "authorId": "52184096",
          "name": "L. Bottou"
        }
      ]
    },
    {
      "paperId": "a7f6cddee94f90798240c6b5d639402d638b3649",
      "externalIds": {
        "DBLP": "journals/ieicetd/OuyangGLH25",
        "DOI": "10.1587/transinf.2024edp7129",
        "CorpusId": 272617550
      },
      "url": "https://www.semanticscholar.org/paper/a7f6cddee94f90798240c6b5d639402d638b3649",
      "title": "Incremental Learning for Network Traffic Classification Using Generative Adversarial Networks",
      "venue": "IEICE Trans. Inf. Syst.",
      "year": 2025,
      "referenceCount": 27,
      "citationCount": 4,
      "authors": [
        {
          "authorId": "2320926913",
          "name": "Guangjin Ouyang"
        },
        {
          "authorId": "2338330072",
          "name": "Yongzheng Guo"
        },
        {
          "authorId": "2355616564",
          "name": "Y. lu"
        },
        {
          "authorId": "2405519989",
          "name": "Fang He"
        }
      ]
    },
    {
      "paperId": "bc5271e20253a1b5ece3fc7b41739608e88c4b01",
      "externalIds": {
        "DBLP": "journals/sivp/KongZ25",
        "DOI": "10.1007/s11760-025-04711-6",
        "CorpusId": 281275288
      },
      "url": "https://www.semanticscholar.org/paper/bc5271e20253a1b5ece3fc7b41739608e88c4b01",
      "title": "RGSRGAN: Image Super-Resolution Reconstruction Using Generative Adversarial Networks Based on Recursive Gated Convolution",
      "venue": "Signal, Image and Video Processing",
      "year": 2025,
      "referenceCount": 44,
      "citationCount": 1,
      "authors": [
        {
          "authorId": "49159967",
          "name": "Lingguang Kong"
        },
        {
          "authorId": "2360165940",
          "name": "Han Zhong"
        }
      ]
    },
    {
      "paperId": "5c88de67489e673eed47cb63c51f7ab26bb1e333",
      "externalIds": {
        "DOI": "10.1051/itmconf/20257804021",
        "CorpusId": 281224350
      },
      "url": "https://www.semanticscholar.org/paper/5c88de67489e673eed47cb63c51f7ab26bb1e333",
      "title": "Deepfake Face Generation Techniques Based on Generative Adversarial Networks",
      "venue": "ITM Web of Conferences",
      "year": 2025,
      "referenceCount": 1,
      "citationCount": 0,
      "authors": [
        {
          "authorId": "2338804466",
          "name": "Y. Pi"
        }
      ]
    },
    {
      "paperId": "e29da3589ce5ede77e6c07563f591a95515c559f",
      "externalIds": {
        "DOI": "10.1109/EI268505.2025.11425679",
        "CorpusId": 286506247
      },
      "url": "https://www.semanticscholar.org/paper/e29da3589ce5ede77e6c07563f591a95515c559f",
      "title": "Research On Time Identification Methods for Stray Currents in HVDC Transmission Projects Based on Generative Adversarial Networks",
      "venue": "2025 IEEE 9th Conference on Energy Internet and Energy System Integration (EI2)",
      "year": 2025,
      "referenceCount": 9,
      "citationCount": 0,
      "authors": [
        {
          "authorId": "2274454972",
          "name": "Yiwen Li"
        },
        {
          "authorId": "2218180906",
          "name": "Xin Mei"
        },
        {
          "authorId": "2311600780",
          "name": "Ling Ruan"
        },
        {
          "authorId": "34454005",
          "name": "Wanting Deng"
        },
        {
          "authorId": "21825332",
          "name": "Yibo Cui"
        },
        {
          "authorId": "2274592423",
          "name": "Wei Rao"
        },
        {
          "authorId": "2071279168",
          "name": "Shanshan Ke"
        },
        {
          "authorId": "31323127",
          "name": "Zeyang Tang"
        }
      ]
    },
    {
      "paperId": "67a8bd013bf3af6222ecf860738d32b4c9cbc7fb",
      "externalIds": {
        "PubMedCentral": "12216821",
        "DOI": "10.1038/s41598-025-04880-x",
        "CorpusId": 279797348,
        "PubMed": "40594284"
      },
      "url": "https://www.semanticscholar.org/paper/67a8bd013bf3af6222ecf860738d32b4c9cbc7fb",
      "title": "A modified generative adversarial networks method for assisting the diagnosis of deep venous thrombosis complications in stroke patients",
      "venue": "Scientific Reports",
      "year": 2025,
      "referenceCount": 13,
      "citationCount": 1,
      "authors": [
        {
          "authorId": "2155517864",
          "name": "Ying Wang"
        },
        {
          "authorId": "2319902939",
          "name": "Kaipeng Wang"
        },
        {
          "authorId": "2260410681",
          "name": "J. Hou"
        },
        {
          "authorId": "2305501377",
          "name": "Ziqi Ye"
        },
        {
          "authorId": "2369701856",
          "name": "Changsheng Lin"
        },
        {
          "authorId": "2369605081",
          "name": "Xueping Li"
        }
      ]
    },
    {
      "paperId": "0931360be1ecb6c832828a93f750f018a7baa3a9",
      "externalIds": {
        "PubMedCentral": "11224088",
        "DOI": "10.1007/s00259-024-06708-8",
        "CorpusId": 269499395,
        "PubMed": "38696130"
      },
      "url": "https://www.semanticscholar.org/paper/0931360be1ecb6c832828a93f750f018a7baa3a9",
      "title": "Multicenter PET image harmonization using generative adversarial networks",
      "venue": "European Journal of Nuclear Medicine and Molecular Imaging",
      "year": 2024,
      "referenceCount": 46,
      "citationCount": 14,
      "authors": [
        {
          "authorId": "2243939424",
          "name": "D. Haberl"
        },
        {
          "authorId": "46190458",
          "name": "C. Spielvogel"
        },
        {
          "authorId": "2307732687",
          "name": "Zewen Jiang"
        },
        {
          "authorId": "6049065",
          "name": "F. Orlhac"
        },
        {
          "authorId": "2296914464",
          "name": "David Iommi"
        },
        {
          "authorId": "2245458589",
          "name": "Ignasi Carrió"
        },
        {
          "authorId": "2259287329",
          "name": "Irène Buvat"
        },
        {
          "authorId": "2269531324",
          "name": "Alexander Haug"
        },
        {
          "authorId": "2269530849",
          "name": "Laszlo Papp"
        }
      ]
    },
    {
      "paperId": "adbeda779082fd219821ee34ceb1d910085782ca",
      "externalIds": {
        "DBLP": "journals/es/QinSDZ24",
        "DOI": "10.1111/exsy.13700",
        "CorpusId": 272546461
      },
      "url": "https://www.semanticscholar.org/paper/adbeda779082fd219821ee34ceb1d910085782ca",
      "title": "A new method based on generative adversarial networks for multivariate time series prediction",
      "venue": "Expert Syst. J. Knowl. Eng.",
      "year": 2024,
      "referenceCount": 41,
      "citationCount": 6,
      "authors": [
        {
          "authorId": "3307857",
          "name": "Xiwen Qin"
        },
        {
          "authorId": "2290130486",
          "name": "Hongyu Shi"
        },
        {
          "authorId": "46966366",
          "name": "Xiaogang Dong"
        },
        {
          "authorId": "2108338813",
          "name": "Siqi Zhang"
        }
      ]
    }
  ]
}