{
  "total": 15,
  "offset": 0,
  "next": 10,
  "data": [
    {
      "paperId": "22f95fb555278ebe0ad2e5e18aaaf8be3e4e53fe",
      "externalIds": {
        "MAG": "2962948632",
        "DBLP": "conf/icml/TrivediDWS17",
        "ArXiv": "1705.05742",
        "CorpusId": 8040343
      },
      "url": "https://www.semanticscholar.org/paper/22f95fb555278ebe0ad2e5e18aaaf8be3e4e53fe",
      "title": "Know-Evolve: Deep Temporal Reasoning for Dynamic Knowledge Graphs",
      "venue": "International Conference on Machine Learning",
      "year": 2017,
      "referenceCount": 41,
      "citationCount": 549,
      "authors": [
        {
          "authorId": "3439813",
          "name": "Rakshit S. Trivedi"
        },
        {
          "authorId": "2791430",
          "name": "H. Dai"
        },
        {
          "authorId": "2116640426",
          "name": "Yichen Wang"
        },
        {
          "authorId": "1779453",
          "name": "Le Song"
        }
      ]
    },
    {
      "paperId": "4e1178d61b28f63345a265c8aa4557b094fe4817",
      "externalIds": {
        "CorpusId": 260548498
      },
      "url": "https://www.semanticscholar.org/paper/4e1178d61b28f63345a265c8aa4557b094fe4817",
      "title": "Know-Evolve : Evolutionary Knowledge Network for Temporal Reasoning in Dynamic Knowledge Graphs",
      "venue": "",
      "year": 2017,
      "referenceCount": 26,
      "citationCount": 0,
      "authors": [
        {
          "authorId": "3439813",
          "name": "Rakshit S. Trivedi"
        },
        {
          "authorId": "2791430",
          "name": "H. Dai"
        },
        {
          "authorId": "2116640426",
          "name": "Yichen Wang"
        },
        {
          "authorId": "1779453",
          "name": "Le Song"
        }
      ]
    },
    {
      "paperId": "8bda0650663d01c22574daa676b96118ccc7c56e",
      "externalIds": {
        "MAG": "2616230841",
        "DBLP": "journals/corr/TrivediDWS17",
        "CorpusId": 195346039
      },
      "url": "https://www.semanticscholar.org/paper/8bda0650663d01c22574daa676b96118ccc7c56e",
      "title": "Know-Evolve: Deep Reasoning in Temporal Knowledge Graphs",
      "venue": "arXiv.org",
      "year": 2017,
      "referenceCount": 33,
      "citationCount": 20,
      "authors": [
        {
          "authorId": "3439813",
          "name": "Rakshit S. Trivedi"
        },
        {
          "authorId": "2791430",
          "name": "H. Dai"
        },
        {
          "authorId": "2116640426",
          "name": "Yichen Wang"
        },
        {
          "authorId": "1779453",
          "name": "Le Song"
        }
      ]
    },
    {
      "paperId": "f49854b524435a7143185216b0af3754584d4fd0",
      "externalIds": {
        "DBLP": "journals/apin/LiuFHB25",
        "DOI": "10.1007/s10489-025-06445-x",
        "CorpusId": 277270553
      },
      "url": "https://www.semanticscholar.org/paper/f49854b524435a7143185216b0af3754584d4fd0",
      "title": "REFD:recurrent encoder and fusion decoder for temporal knowledge graph reasoning",
      "venue": "Applied intelligence (Boston)",
      "year": 2025,
      "referenceCount": 32,
      "citationCount": 6,
      "authors": [
        {
          "authorId": "2271920864",
          "name": "Qian Liu"
        },
        {
          "authorId": "3073247",
          "name": "Siling Feng"
        },
        {
          "authorId": "2280524603",
          "name": "Mengxing Huang"
        },
        {
          "authorId": "11016472",
          "name": "U. Bhatti"
        }
      ]
    },
    {
      "paperId": "4362edfd3907204cf1b7ec8e3c16c56db5cd14cf",
      "externalIds": {
        "DBLP": "journals/corr/abs-2405-14170",
        "ArXiv": "2405.14170",
        "DOI": "10.48550/arXiv.2405.14170",
        "CorpusId": 269983033
      },
      "url": "https://www.semanticscholar.org/paper/4362edfd3907204cf1b7ec8e3c16c56db5cd14cf",
      "title": "Large Language Models-guided Dynamic Adaptation for Temporal Knowledge Graph Reasoning",
      "venue": "Neural Information Processing Systems",
      "year": 2024,
      "referenceCount": 53,
      "citationCount": 47,
      "authors": [
        {
          "authorId": "2163833353",
          "name": "Jiapu Wang"
        },
        {
          "authorId": "2220259324",
          "name": "Kai Sun"
        },
        {
          "authorId": "2238130759",
          "name": "Linhao Luo"
        },
        {
          "authorId": "2380087717",
          "name": "Wei Wei"
        },
        {
          "authorId": "2140879677",
          "name": "Yongli Hu"
        },
        {
          "authorId": "2243282363",
          "name": "Alan Wee-Chung Liew"
        },
        {
          "authorId": "2294378361",
          "name": "Shirui Pan"
        },
        {
          "authorId": "2239088112",
          "name": "Baocai Yin"
        }
      ]
    },
    {
      "paperId": "116dd4492ebea4b81a82eb927caeb9b189db7853",
      "externalIds": {
        "DOI": "10.1109/DSC67331.2025.00019",
        "CorpusId": 285105044
      },
      "url": "https://www.semanticscholar.org/paper/116dd4492ebea4b81a82eb927caeb9b189db7853",
      "title": "Temporal Knowledge Graph Reasoning: A Survey of Representation Learning, Rule-based Learning, and Neural-Symbolic Hybrid Methods",
      "venue": "International Conference on Data Science in Cyberspace",
      "year": 2025,
      "referenceCount": 29,
      "citationCount": 0,
      "authors": [
        {
          "authorId": "2362147755",
          "name": "Ziwen Wang"
        },
        {
          "authorId": "2333411297",
          "name": "Aiping Li"
        }
      ]
    },
    {
      "paperId": "25dfc0b131d6f6a39e9449d93cfde9fa5471cd8d",
      "externalIds": {
        "DOI": "10.1109/CAIBDA65784.2025.11182762",
        "CorpusId": 281988387
      },
      "url": "https://www.semanticscholar.org/paper/25dfc0b131d6f6a39e9449d93cfde9fa5471cd8d",
      "title": "Construction and Application of a Multimodal Knowledge Graph for Social Media Opinion Analysis Based on Large Language Models",
      "venue": "2025 5th International Conference on Artificial Intelligence, Big Data and Algorithms (CAIBDA)",
      "year": 2025,
      "referenceCount": 21,
      "citationCount": 0,
      "authors": [
        {
          "authorId": "2384937475",
          "name": "Junyao Wang"
        },
        {
          "authorId": "2311282342",
          "name": "Tongle Duan"
        },
        {
          "authorId": "2385345333",
          "name": "Sen Yao"
        },
        {
          "authorId": "2385106586",
          "name": "Yasong Wang"
        }
      ]
    },
    {
      "paperId": "a85902cd60326d4518f2a0b8d13d6ea11a600618",
      "externalIds": {
        "ArXiv": "2603.24636",
        "DOI": "10.1145/3774904.3792600",
        "CorpusId": 286790033
      },
      "url": "https://www.semanticscholar.org/paper/a85902cd60326d4518f2a0b8d13d6ea11a600618",
      "title": "DyMRL: Dynamic Multispace Representation Learning for Multimodal Event Forecasting in Knowledge Graph",
      "venue": "",
      "year": 2026,
      "referenceCount": 35,
      "citationCount": 0,
      "authors": [
        {
          "authorId": "2152335107",
          "name": "Feng Zhao"
        },
        {
          "authorId": "2217019398",
          "name": "Kangzheng Liu"
        },
        {
          "authorId": "2425601195",
          "name": "Teng Peng"
        },
        {
          "authorId": "2279240024",
          "name": "Yu Yang"
        },
        {
          "authorId": "2256933615",
          "name": "Guandong Xu"
        }
      ]
    },
    {
      "paperId": "d81a11ca781d9c29f6620375ce4cbcb8ea13a18f",
      "externalIds": {
        "DBLP": "conf/icc/PaulHSML24",
        "DOI": "10.1109/ICCWorkshops59551.2024.10615419",
        "CorpusId": 271869160
      },
      "url": "https://www.semanticscholar.org/paper/d81a11ca781d9c29f6620375ce4cbcb8ea13a18f",
      "title": "Deep Learning-Based Semantic Interaction Network: Advancing IoT Data Modeling for Interoperability",
      "venue": "2024 IEEE International Conference on Communications Workshops (ICC Workshops)",
      "year": 2024,
      "referenceCount": 16,
      "citationCount": 0,
      "authors": [
        {
          "authorId": "2267753626",
          "name": "Anal Paul"
        },
        {
          "authorId": "1991292112",
          "name": "Bishmita Hazarika"
        },
        {
          "authorId": "2108521022",
          "name": "Keshav Singh"
        },
        {
          "authorId": "2261299197",
          "name": "Shahid Mumtaz"
        },
        {
          "authorId": "2237387619",
          "name": "Chih-Peng Li"
        }
      ]
    },
    {
      "paperId": "34c4925097d3bf1838e0bfae2ffb28ebf62af7f3",
      "externalIds": {
        "DOI": "10.20998/2079-0023.2025.02.05",
        "CorpusId": 286026611
      },
      "url": "https://www.semanticscholar.org/paper/34c4925097d3bf1838e0bfae2ffb28ebf62af7f3",
      "title": "GRAPH NEURAL NETWORKS FOR TRAFFIC FLOW PREDICTION: INNOVATIVE APPROACHES, PRACTICAL USAGE, AND SUPERIORITY IN SPATIO-TEMPORAL FORECASTING",
      "venue": "Bulletin of National Technical University KhPI Series System Analysis Control and Information Technologies",
      "year": 2025,
      "referenceCount": 8,
      "citationCount": 0,
      "authors": [
        {
          "authorId": "2374267146",
          "name": "Bohdan Dokhniak"
        },
        {
          "authorId": "51382246",
          "name": "Viktor Khavalko"
        }
      ]
    }
  ]
}