{
  "total": 524,
  "offset": 0,
  "next": 10,
  "data": [
    {
      "paperId": "00054d8e2c599373a41f5654ad8d0ad8b761fe19",
      "externalIds": {
        "ArXiv": "1703.01717",
        "MAG": "2592105405",
        "DBLP": "conf/icml/GorhamM17",
        "CorpusId": 16728498
      },
      "url": "https://www.semanticscholar.org/paper/00054d8e2c599373a41f5654ad8d0ad8b761fe19",
      "title": "Measuring Sample Quality with Kernels",
      "venue": "International Conference on Machine Learning",
      "year": 2017,
      "referenceCount": 54,
      "citationCount": 249,
      "authors": [
        {
          "authorId": "39522717",
          "name": "Jackson Gorham"
        },
        {
          "authorId": "143722101",
          "name": "Lester W. Mackey"
        }
      ]
    },
    {
      "paperId": "d2bdbabee266dbb6a30aadbbef0cc45e33ed5221",
      "externalIds": {
        "MAG": "3086697448",
        "DOI": "10.1190/SEGAM2020-3422419.1",
        "CorpusId": 224918497
      },
      "url": "https://www.semanticscholar.org/paper/d2bdbabee266dbb6a30aadbbef0cc45e33ed5221",
      "title": "Bayesian seismic inversion: Measuring Langevin MCMC sample quality with kernels",
      "venue": "",
      "year": 2020,
      "referenceCount": 11,
      "citationCount": 9,
      "authors": [
        {
          "authorId": "151368675",
          "name": "M. Izzatullah"
        },
        {
          "authorId": "145539374",
          "name": "R. Baptista"
        },
        {
          "authorId": "143722101",
          "name": "Lester W. Mackey"
        },
        {
          "authorId": "144656638",
          "name": "Y. Marzouk"
        },
        {
          "authorId": "145615133",
          "name": "D. Peter"
        }
      ]
    },
    {
      "paperId": "727b60e88bfe04e2347818207806d2b919832b78",
      "externalIds": {
        "DOI": "10.3390/agronomy12020532",
        "CorpusId": 247077321
      },
      "url": "https://www.semanticscholar.org/paper/727b60e88bfe04e2347818207806d2b919832b78",
      "title": "Evaluation of Methods for Measuring Fusarium-Damaged Kernels of Wheat",
      "venue": "Agronomy",
      "year": 2022,
      "referenceCount": 39,
      "citationCount": 12,
      "authors": [
        {
          "authorId": "136776867",
          "name": "Arlyn J. Ackerman"
        },
        {
          "authorId": "2071784680",
          "name": "Ryan Holmes"
        },
        {
          "authorId": "2155972677",
          "name": "Ezekiel Gaskins"
        },
        {
          "authorId": "118349669",
          "name": "Kathleen E. Jordan"
        },
        {
          "authorId": "143810222",
          "name": "D. Hicks"
        },
        {
          "authorId": "2106087727",
          "name": "Joshua C. Fitzgerald"
        },
        {
          "authorId": "4737877",
          "name": "C. Griffey"
        },
        {
          "authorId": "145867070",
          "name": "R. E. Mason"
        },
        {
          "authorId": "2150243891",
          "name": "S. Harrison"
        },
        {
          "authorId": "2151117948",
          "name": "J. P. Murphy"
        },
        {
          "authorId": "6336897",
          "name": "C. Cowger"
        },
        {
          "authorId": "34223774",
          "name": "R. Boyles"
        }
      ]
    },
    {
      "paperId": "7a8f075a717a260e55fe5493deb1787921589554",
      "externalIds": {
        "MAG": "2519678035",
        "DOI": "10.1080/10408398.2016.1205548",
        "CorpusId": 3808270,
        "PubMed": "27622307"
      },
      "url": "https://www.semanticscholar.org/paper/7a8f075a717a260e55fe5493deb1787921589554",
      "title": "Near infrared hyperspectral imaging in quality and safety evaluation of cereals",
      "venue": "Critical reviews in food science and nutrition",
      "year": 2018,
      "referenceCount": 79,
      "citationCount": 83,
      "authors": [
        {
          "authorId": "22447236",
          "name": "K. Sendin"
        },
        {
          "authorId": "143955557",
          "name": "P. Williams"
        },
        {
          "authorId": "2800386",
          "name": "M. Manley"
        }
      ]
    },
    {
      "paperId": "7f6c26a42a2ac844b9907732979d86baaf7bdf1b",
      "externalIds": {
        "MAG": "2099806801",
        "CorpusId": 56468122
      },
      "url": "https://www.semanticscholar.org/paper/7f6c26a42a2ac844b9907732979d86baaf7bdf1b",
      "title": "A MACHINE VISION SYSTEM TO DETECT HARD VITREOUS KERNELS IN DURUM WHEAT",
      "venue": "",
      "year": 2005,
      "referenceCount": 14,
      "citationCount": 4,
      "authors": [
        {
          "authorId": "29782758",
          "name": "M. Shahin"
        },
        {
          "authorId": "3224177",
          "name": "E. Dorrian"
        },
        {
          "authorId": "2079596642",
          "name": "A. Symons"
        }
      ]
    },
    {
      "paperId": "313ff6bae49b3fabe06dfd12061c26e1a6a4b0bd",
      "externalIds": {
        "MAG": "10949574",
        "CorpusId": 135100257
      },
      "url": "https://www.semanticscholar.org/paper/313ff6bae49b3fabe06dfd12061c26e1a6a4b0bd",
      "title": "Gelatinization temperature of rice starch and its determination.",
      "venue": "",
      "year": 1979,
      "referenceCount": 0,
      "citationCount": 49,
      "authors": [
        {
          "authorId": "40763518",
          "name": "K. R. Bhattacharya"
        }
      ]
    },
    {
      "paperId": "7d89a7f644eea6c1062131b21dda316728332b72",
      "externalIds": {
        "MAG": "2398871376",
        "DOI": "10.1093/JAOAC/93.3.943",
        "CorpusId": 36079079,
        "PubMed": "20629399"
      },
      "url": "https://www.semanticscholar.org/paper/7d89a7f644eea6c1062131b21dda316728332b72",
      "title": "Correlation between aflatoxin contamination and various USDA grade categories of shelled almonds.",
      "venue": "Journal of AOAC International",
      "year": 2010,
      "referenceCount": 1,
      "citationCount": 21,
      "authors": [
        {
          "authorId": "4165947",
          "name": "T. Whitaker"
        },
        {
          "authorId": "4332194",
          "name": "A. Slate"
        },
        {
          "authorId": "46437709",
          "name": "T. Birmingham"
        },
        {
          "authorId": "47734083",
          "name": "Julie G Adams"
        },
        {
          "authorId": "40145883",
          "name": "M. Jacobs"
        },
        {
          "authorId": "2064987872",
          "name": "G. Gray"
        }
      ]
    },
    {
      "paperId": "c60e4fbde86a126c77afc2e2f413ba50e4429187",
      "externalIds": {
        "MAG": "1998289660",
        "DOI": "10.13031/2013.42071",
        "CorpusId": 95063213
      },
      "url": "https://www.semanticscholar.org/paper/c60e4fbde86a126c77afc2e2f413ba50e4429187",
      "title": "Prediction of Kernel Density of Corn Using Single-Kernel Near Infrared Spectroscopy",
      "venue": "",
      "year": 2012,
      "referenceCount": 0,
      "citationCount": 11,
      "authors": [
        {
          "authorId": "48088031",
          "name": "P. Armstrong"
        },
        {
          "authorId": "13322417",
          "name": "J. Tallada"
        }
      ]
    },
    {
      "paperId": "ca0a100e5901d0a92dde3babc3667fc8b4e04768",
      "externalIds": {
        "CorpusId": 209682963
      },
      "url": "https://www.semanticscholar.org/paper/ca0a100e5901d0a92dde3babc3667fc8b4e04768",
      "title": "CORN USING SINGLE-KERNEL NEAR INFRARED SPECTROSCOPY",
      "venue": "",
      "year": 2012,
      "referenceCount": 22,
      "citationCount": 0,
      "authors": [
        {
          "authorId": "48088031",
          "name": "P. Armstrong"
        },
        {
          "authorId": "13322417",
          "name": "J. Tallada"
        }
      ]
    },
    {
      "paperId": "c61bc6731dbbf872a72b1cbb44e97a6ee01e6336",
      "externalIds": {
        "MAG": "2006598350",
        "DOI": "10.1117/12.793267",
        "CorpusId": 119458877
      },
      "url": "https://www.semanticscholar.org/paper/c61bc6731dbbf872a72b1cbb44e97a6ee01e6336",
      "title": "NIR reflectance method to determine moisture content in food products",
      "venue": "Optical Engineering + Applications",
      "year": 2008,
      "referenceCount": 7,
      "citationCount": 3,
      "authors": [
        {
          "authorId": "2076163",
          "name": "C. Kandala"
        },
        {
          "authorId": "134014258",
          "name": "G. Konda Naganathan"
        },
        {
          "authorId": "32796651",
          "name": "J. Subbiah"
        }
      ]
    }
  ]
}