{
  "total": 130,
  "offset": 0,
  "next": 10,
  "data": [
    {
      "paperId": "5d10cf2382aaa86dd64fb3accb33b971e8346443",
      "externalIds": {
        "MAG": "2950099928",
        "ArXiv": "1703.05667",
        "DBLP": "journals/corr/BelangerYM17",
        "CorpusId": 6331639
      },
      "url": "https://www.semanticscholar.org/paper/5d10cf2382aaa86dd64fb3accb33b971e8346443",
      "title": "End-to-End Learning for Structured Prediction Energy Networks",
      "venue": "International Conference on Machine Learning",
      "year": 2017,
      "referenceCount": 70,
      "citationCount": 136,
      "authors": [
        {
          "authorId": "2636941",
          "name": "David Belanger"
        },
        {
          "authorId": "7324641",
          "name": "Bishan Yang"
        },
        {
          "authorId": "143753639",
          "name": "A. McCallum"
        }
      ]
    },
    {
      "paperId": "72594b47923aa9df485b3069900d9558d782ed99",
      "externalIds": {
        "DBLP": "journals/access/CheARAMT24",
        "DOI": "10.1109/ACCESS.2024.3375870",
        "CorpusId": 268469370
      },
      "url": "https://www.semanticscholar.org/paper/72594b47923aa9df485b3069900d9558d782ed99",
      "title": "A Novel Renewable Power Generation Prediction Through Enhanced Artificial Orcas Assisted Ensemble Dilated Deep Learning Network",
      "venue": "IEEE Access",
      "year": 2024,
      "referenceCount": 39,
      "citationCount": 13,
      "authors": [
        {
          "authorId": "2291739829",
          "name": "Zhifeng Che"
        },
        {
          "authorId": "2291744219",
          "name": "A. Amirthasaravanan"
        },
        {
          "authorId": "1402116949",
          "name": "Muna Alrazgan"
        },
        {
          "authorId": "2261431983",
          "name": "E. M. Awwad"
        },
        {
          "authorId": "5211607",
          "name": "M. Y. Mohamed"
        },
        {
          "authorId": "2262307123",
          "name": "Vaibhav Bhushan Tyagi"
        }
      ]
    },
    {
      "paperId": "b1c196d336ca91b3c4b7ad817670830e9724e1a7",
      "externalIds": {
        "CorpusId": 211102074
      },
      "url": "https://www.semanticscholar.org/paper/b1c196d336ca91b3c4b7ad817670830e9724e1a7",
      "title": "Randomized SPENs for Multi-Modal Prediction",
      "venue": "",
      "year": 2017,
      "referenceCount": 14,
      "citationCount": 0,
      "authors": [
        {
          "authorId": "2636941",
          "name": "David Belanger"
        },
        {
          "authorId": "143753639",
          "name": "A. McCallum"
        }
      ]
    },
    {
      "paperId": "af90b034313bdc09667991fb4d39c76fe30973e9",
      "externalIds": {
        "CorpusId": 237259342
      },
      "url": "https://www.semanticscholar.org/paper/af90b034313bdc09667991fb4d39c76fe30973e9",
      "title": "ApproxRobotics: The Cost and Accuracy Tradeoff for Small Mobile AgRobots",
      "venue": "",
      "year": null,
      "referenceCount": 53,
      "citationCount": 0,
      "authors": []
    },
    {
      "paperId": "98fa42daf94a97935fd4c7a37aec70c946a556b4",
      "externalIds": {
        "PubMedCentral": "11163250",
        "DBLP": "journals/bib/BugnonPGRPFCASM24",
        "DOI": "10.1093/bib/bbae271",
        "CorpusId": 268537616,
        "PubMed": "38855913"
      },
      "url": "https://www.semanticscholar.org/paper/98fa42daf94a97935fd4c7a37aec70c946a556b4",
      "title": "sincFold: end-to-end learning of short- and long-range interactions in RNA secondary structure",
      "venue": "bioRxiv",
      "year": 2024,
      "referenceCount": 66,
      "citationCount": 9,
      "authors": [
        {
          "authorId": "32862024",
          "name": "L. Bugnon"
        },
        {
          "authorId": "7959298",
          "name": "L. Di Persia"
        },
        {
          "authorId": "14083143",
          "name": "M. Gerard"
        },
        {
          "authorId": "46199913",
          "name": "J. Raad"
        },
        {
          "authorId": "2258948624",
          "name": "S. Prochetto"
        },
        {
          "authorId": "13101339",
          "name": "E. Fenoy"
        },
        {
          "authorId": "2504672",
          "name": "U. Chorostecki"
        },
        {
          "authorId": "2170058201",
          "name": "F. Ariel"
        },
        {
          "authorId": "2258949416",
          "name": "G. Stegmayer"
        },
        {
          "authorId": "7417872",
          "name": "Diego H. Milone"
        }
      ]
    },
    {
      "paperId": "703c5f425284e7addb2f12aa3adca0569116250e",
      "externalIds": {
        "DBLP": "conf/ijcnn/SakaiMIKDIHS24",
        "DOI": "10.1109/IJCNN60899.2024.10650978",
        "CorpusId": 272584159
      },
      "url": "https://www.semanticscholar.org/paper/703c5f425284e7addb2f12aa3adca0569116250e",
      "title": "Active Learning for Graph Neural Networks Training in Catalyst Energy Prediction",
      "venue": "IEEE International Joint Conference on Neural Network",
      "year": 2024,
      "referenceCount": 42,
      "citationCount": 1,
      "authors": [
        {
          "authorId": "1924317",
          "name": "Yasufumi Sakai"
        },
        {
          "authorId": "2328310091",
          "name": "Naoki Matsumura"
        },
        {
          "authorId": "2079243331",
          "name": "Atsuki Inoue"
        },
        {
          "authorId": "2059196741",
          "name": "H. Kawaguchi"
        },
        {
          "authorId": "2147016355",
          "name": "Thang Dang"
        },
        {
          "authorId": "2248303011",
          "name": "Atsushi Ishikawa"
        },
        {
          "authorId": "96091637",
          "name": "Á. B. Höskuldsson"
        },
        {
          "authorId": "2841881",
          "name": "Egill Skúlason"
        }
      ]
    },
    {
      "paperId": "1862b0d1ae679e97846a58710d14bec9a0b141d1",
      "externalIds": {
        "PubMedCentral": "11751094",
        "DOI": "10.1038/s41467-025-56261-7",
        "CorpusId": 275784392,
        "PubMed": "39837861"
      },
      "url": "https://www.semanticscholar.org/paper/1862b0d1ae679e97846a58710d14bec9a0b141d1",
      "title": "NuFold: end-to-end approach for RNA tertiary structure prediction with flexible nucleobase center representation",
      "venue": "Nature Communications",
      "year": 2025,
      "referenceCount": 38,
      "citationCount": 37,
      "authors": [
        {
          "authorId": "50296343",
          "name": "Yuki Kagaya"
        },
        {
          "authorId": "2247300890",
          "name": "Zicong Zhang"
        },
        {
          "authorId": "2047429941",
          "name": "Nabil Ibtehaz"
        },
        {
          "authorId": "2271809360",
          "name": "Xiao Wang"
        },
        {
          "authorId": "2110367902",
          "name": "Tsukasa Nakamura"
        },
        {
          "authorId": "2330761955",
          "name": "Pranav D. Punuru"
        },
        {
          "authorId": "2247576277",
          "name": "Daisuke Kihara"
        }
      ]
    },
    {
      "paperId": "530da955697d8bb2c2e69ccb80e523411f06da2c",
      "externalIds": {
        "CorpusId": 264171488
      },
      "url": "https://www.semanticscholar.org/paper/530da955697d8bb2c2e69ccb80e523411f06da2c",
      "title": "sincFold: end-to-end learning of short-and long-range interactions for RNA folding",
      "venue": "",
      "year": 2023,
      "referenceCount": 43,
      "citationCount": 2,
      "authors": [
        {
          "authorId": "32862024",
          "name": "L. Bugnon"
        },
        {
          "authorId": "7959298",
          "name": "L. Di Persia"
        },
        {
          "authorId": "14083143",
          "name": "M. Gerard"
        },
        {
          "authorId": "46199913",
          "name": "J. Raad"
        },
        {
          "authorId": "2258948624",
          "name": "S. Prochetto"
        },
        {
          "authorId": "13101339",
          "name": "E. Fenoy"
        },
        {
          "authorId": "2504672",
          "name": "U. Chorostecki"
        },
        {
          "authorId": "2170058201",
          "name": "F. Ariel"
        },
        {
          "authorId": "2258949416",
          "name": "G. Stegmayer"
        },
        {
          "authorId": "7417872",
          "name": "Diego H. Milone"
        }
      ]
    },
    {
      "paperId": "7eaaefa0b96967f730add3fc6196c1fc9eff6d67",
      "externalIds": {
        "DOI": "10.1021/acsami.4c15835",
        "CorpusId": 274146884,
        "PubMed": "39564708"
      },
      "url": "https://www.semanticscholar.org/paper/7eaaefa0b96967f730add3fc6196c1fc9eff6d67",
      "title": "Combination of Transfer Learning and Chemprop Interpreter with Support of Deep Learning for the Energy Levels of Organic Photovoltaic Materials Prediction and Regulation.",
      "venue": "ACS Applied Materials and Interfaces",
      "year": 2024,
      "referenceCount": 54,
      "citationCount": 8,
      "authors": [
        {
          "authorId": "2322907992",
          "name": "Cong Nie"
        },
        {
          "authorId": "2182844032",
          "name": "Kuo Wang"
        },
        {
          "authorId": "2111826992",
          "name": "Hai-Ling Zhou"
        },
        {
          "authorId": "2307557373",
          "name": "Jiahao Deng"
        },
        {
          "authorId": "2306791126",
          "name": "Ziye Chen"
        },
        {
          "authorId": "2307216575",
          "name": "Kang Zhang"
        },
        {
          "authorId": "2331579548",
          "name": "Lingjiao Chen"
        },
        {
          "authorId": "2148909398",
          "name": "Di Huang"
        },
        {
          "authorId": "2239023868",
          "name": "Jiaojiao Liang"
        },
        {
          "authorId": "2238919828",
          "name": "Ling Zhao"
        }
      ]
    },
    {
      "paperId": "b2b9b095bd30f65dd49d3ac3e54109247cb28a86",
      "externalIds": {
        "DBLP": "journals/bmcbi/TanebeI21",
        "PubMedCentral": "8555120",
        "DOI": "10.1186/s12859-021-04440-w",
        "CorpusId": 240228487,
        "PubMed": "34715777"
      },
      "url": "https://www.semanticscholar.org/paper/b2b9b095bd30f65dd49d3ac3e54109247cb28a86",
      "title": "End-to-end learning for compound activity prediction based on binding pocket information",
      "venue": "BMC Bioinformatics",
      "year": 2021,
      "referenceCount": 18,
      "citationCount": 3,
      "authors": [
        {
          "authorId": "151368799",
          "name": "Toshitaka Tanebe"
        },
        {
          "authorId": "33528567",
          "name": "T. Ishida"
        }
      ]
    }
  ]
}