{
  "total": 36760,
  "offset": 0,
  "next": 10,
  "data": [
    {
      "paperId": "729b18d8d91035f4bb84bf2e61b0517824e5d31b",
      "externalIds": {
        "MAG": "2952802948",
        "DBLP": "conf/icml/MaaloeSSW16",
        "ArXiv": "1602.05473",
        "CorpusId": 1972072
      },
      "url": "https://www.semanticscholar.org/paper/729b18d8d91035f4bb84bf2e61b0517824e5d31b",
      "title": "Auxiliary Deep Generative Models",
      "venue": "International Conference on Machine Learning",
      "year": 2016,
      "referenceCount": 27,
      "citationCount": 463,
      "authors": [
        {
          "authorId": "7435149",
          "name": "Lars Maaløe"
        },
        {
          "authorId": "1402816540",
          "name": "C. Sønderby"
        },
        {
          "authorId": "1388358166",
          "name": "Søren Kaae Sønderby"
        },
        {
          "authorId": "1724252",
          "name": "O. Winther"
        }
      ]
    },
    {
      "paperId": "fb327a4cc8a7e3de79362228b6904848d007e61d",
      "externalIds": {
        "MAG": "2908586754",
        "ArXiv": "1901.06077",
        "DBLP": "conf/iclr/ChangLYP19",
        "CorpusId": 53325983
      },
      "url": "https://www.semanticscholar.org/paper/fb327a4cc8a7e3de79362228b6904848d007e61d",
      "title": "Kernel Change-point Detection with Auxiliary Deep Generative Models",
      "venue": "International Conference on Learning Representations",
      "year": 2018,
      "referenceCount": 45,
      "citationCount": 82,
      "authors": [
        {
          "authorId": "1702500",
          "name": "Wei-Cheng Chang"
        },
        {
          "authorId": "2109497736",
          "name": "Chun-Liang Li"
        },
        {
          "authorId": "35729970",
          "name": "Yiming Yang"
        },
        {
          "authorId": "1719347",
          "name": "B. Póczos"
        }
      ]
    },
    {
      "paperId": "0b470a87df7a980f41aeb21de61c62e3845e9f46",
      "externalIds": {
        "MAG": "2596906311",
        "CorpusId": 15170744
      },
      "url": "https://www.semanticscholar.org/paper/0b470a87df7a980f41aeb21de61c62e3845e9f46",
      "title": "Improving Semi-Supervised Learning with Auxiliary Deep Generative Models",
      "venue": "Neural Information Processing Systems",
      "year": 2015,
      "referenceCount": 20,
      "citationCount": 28,
      "authors": [
        {
          "authorId": "7435149",
          "name": "Lars Maaløe"
        },
        {
          "authorId": "1402816540",
          "name": "C. Sønderby"
        },
        {
          "authorId": "1388358166",
          "name": "Søren Kaae Sønderby"
        },
        {
          "authorId": "1724252",
          "name": "O. Winther"
        }
      ]
    },
    {
      "paperId": "d970019121d4727de54c494b6ea36aea4fbbb084",
      "externalIds": {
        "ArXiv": "1603.02443",
        "CorpusId": 88514358
      },
      "url": "https://www.semanticscholar.org/paper/d970019121d4727de54c494b6ea36aea4fbbb084",
      "title": "Note on the equivalence of hierarchical variational models and auxiliary deep generative models",
      "venue": "",
      "year": 2016,
      "referenceCount": 8,
      "citationCount": 1,
      "authors": [
        {
          "authorId": "152434510",
          "name": "Niko Brummer"
        }
      ]
    },
    {
      "paperId": "b385aed791efe7febdb255dde1ace941a3b9c4ba",
      "externalIds": {
        "MAG": "2337793024",
        "CorpusId": 124331252
      },
      "url": "https://www.semanticscholar.org/paper/b385aed791efe7febdb255dde1ace941a3b9c4ba",
      "title": "Note on the equivalence of hierarchical variational models and auxiliary deep generative models",
      "venue": "",
      "year": 2016,
      "referenceCount": 3,
      "citationCount": 0,
      "authors": [
        {
          "authorId": "1702117",
          "name": "N. Brümmer"
        }
      ]
    },
    {
      "paperId": "4c6155753bc1c6965cb35cb539725c3b86602f41",
      "externalIds": {
        "DBLP": "conf/nips/KivvaRRA22",
        "ArXiv": "2206.10044",
        "DOI": "10.52202/068431-1141",
        "CorpusId": 252992460
      },
      "url": "https://www.semanticscholar.org/paper/4c6155753bc1c6965cb35cb539725c3b86602f41",
      "title": "Identifiability of deep generative models without auxiliary information",
      "venue": "Neural Information Processing Systems",
      "year": 2022,
      "referenceCount": 102,
      "citationCount": 72,
      "authors": [
        {
          "authorId": "103308672",
          "name": "Bohdan Kivva"
        },
        {
          "authorId": "1929023139",
          "name": "Goutham Rajendran"
        },
        {
          "authorId": "145969795",
          "name": "Pradeep Ravikumar"
        },
        {
          "authorId": "2050920",
          "name": "Bryon Aragam"
        }
      ]
    },
    {
      "paperId": "216472d6d9c25ddd2bf58e04870f0ebbea2958ef",
      "externalIds": {
        "DBLP": "journals/corr/abs-2206-10044",
        "DOI": "10.48550/arXiv.2206.10044",
        "CorpusId": 249889838
      },
      "url": "https://www.semanticscholar.org/paper/216472d6d9c25ddd2bf58e04870f0ebbea2958ef",
      "title": "Identifiability of deep generative models under mixture priors without auxiliary information",
      "venue": "arXiv.org",
      "year": 2022,
      "referenceCount": 76,
      "citationCount": 19,
      "authors": [
        {
          "authorId": "103308672",
          "name": "Bohdan Kivva"
        },
        {
          "authorId": "1929023139",
          "name": "Goutham Rajendran"
        },
        {
          "authorId": "145969795",
          "name": "Pradeep Ravikumar"
        },
        {
          "authorId": "2050920",
          "name": "Bryon Aragam"
        }
      ]
    },
    {
      "paperId": "d06652a4e322acd67a7af1f3fdd6b7fd6fd39593",
      "externalIds": {
        "DOI": "10.17163/ings.n34.2025.09",
        "CorpusId": 279857993
      },
      "url": "https://www.semanticscholar.org/paper/d06652a4e322acd67a7af1f3fdd6b7fd6fd39593",
      "title": "Exploring deep generative models for improved data generation in hypertrophic cardiomyopathy",
      "venue": "Ingenius",
      "year": 2025,
      "referenceCount": 16,
      "citationCount": 2,
      "authors": [
        {
          "authorId": "2294373713",
          "name": "Swaraiya Madhuri Rayavarapu"
        },
        {
          "authorId": "2147188449",
          "name": "G. Sasibhushana Rao"
        }
      ]
    },
    {
      "paperId": "7d569425d98bd9cc5e5f85cf6b60f53491834342",
      "externalIds": {
        "DOI": "10.1109/SILCON67893.2025.11327384",
        "CorpusId": 284889873
      },
      "url": "https://www.semanticscholar.org/paper/7d569425d98bd9cc5e5f85cf6b60f53491834342",
      "title": "Neural Decoding of Visual Imagery from EEG Signals: A Comparative Study of Deep Generative Models for EEG-to-Image Translation",
      "venue": "2025 IEEE Silchar Subsection Conference (SILCON)",
      "year": 2025,
      "referenceCount": 18,
      "citationCount": 0,
      "authors": [
        {
          "authorId": "2384495952",
          "name": "Amarjeet"
        },
        {
          "authorId": "2356752305",
          "name": "Nandan Tiwari"
        },
        {
          "authorId": "1965009",
          "name": "Shamama Anwar"
        }
      ]
    },
    {
      "paperId": "7b551fb0b8a1a194cabb09e7b032881967dbfcb4",
      "externalIds": {
        "CorpusId": 209322488
      },
      "url": "https://www.semanticscholar.org/paper/7b551fb0b8a1a194cabb09e7b032881967dbfcb4",
      "title": "Semi-supervised Learning using Deep Generative Models and Auxiliary Tasks",
      "venue": "",
      "year": 2019,
      "referenceCount": 38,
      "citationCount": 16,
      "authors": [
        {
          "authorId": "39222408",
          "name": "J. Figueroa"
        }
      ]
    }
  ]
}