{
  "total": 19,
  "offset": 0,
  "next": 10,
  "data": [
    {
      "paperId": "ca0c590c9b3f1e95d92f776ff56a22177da6c1ac",
      "externalIds": {
        "DBLP": "conf/icml/JanzingS18",
        "MAG": "2952165734",
        "ArXiv": "1803.00810",
        "CorpusId": 3697979
      },
      "url": "https://www.semanticscholar.org/paper/ca0c590c9b3f1e95d92f776ff56a22177da6c1ac",
      "title": "Detecting non-causal artifacts in multivariate linear regression models",
      "venue": "International Conference on Machine Learning",
      "year": 2018,
      "referenceCount": 21,
      "citationCount": 36,
      "authors": [
        {
          "authorId": "1700657",
          "name": "D. Janzing"
        },
        {
          "authorId": "1707625",
          "name": "B. Scholkopf"
        }
      ]
    },
    {
      "paperId": "3f54e27eafaa7826fc413ec420a7634e5961c0ef",
      "externalIds": {
        "PubMedCentral": "11967223",
        "DOI": "10.1177/25424823251331000",
        "CorpusId": 277517672,
        "PubMed": "40182696"
      },
      "url": "https://www.semanticscholar.org/paper/3f54e27eafaa7826fc413ec420a7634e5961c0ef",
      "title": "Cerebrospinal fluid Visinin-like protein-1 was associated with the relationship of body mass index with Alzheimer’s disease pathology and cognition in non-demented elderly",
      "venue": "Journal of Alzheimer's disease reports",
      "year": 2025,
      "referenceCount": 48,
      "citationCount": 0,
      "authors": [
        {
          "authorId": "2353554853",
          "name": "Yayu Wang"
        },
        {
          "authorId": "2291553921",
          "name": "Siqi Yu"
        },
        {
          "authorId": "2297651499",
          "name": "Man Zhang"
        },
        {
          "authorId": "2281640798",
          "name": "Huaiyuan Zhu"
        },
        {
          "authorId": "2291467792",
          "name": "Shujian Chen"
        },
        {
          "authorId": "120026210",
          "name": "Yajun Zhou"
        },
        {
          "authorId": "2283521491",
          "name": "Xia Zhou"
        },
        {
          "authorId": "2291690675",
          "name": "Zhongwu Sun"
        },
        {
          "authorId": "2185155630",
          "name": "Xianfeng Yu"
        },
        {
          "authorId": "46875164",
          "name": "Xiaoqun Zhu"
        }
      ]
    },
    {
      "paperId": "e526b76d3f0f45f65709eb1cb1adc94c1056c495",
      "externalIds": {
        "CorpusId": 202682677
      },
      "url": "https://www.semanticscholar.org/paper/e526b76d3f0f45f65709eb1cb1adc94c1056c495",
      "title": "Detecting artifacts in clinical alerts from vital signs",
      "venue": "",
      "year": 2015,
      "referenceCount": 0,
      "citationCount": 0,
      "authors": [
        {
          "authorId": "2592453",
          "name": "M. Fiterau"
        },
        {
          "authorId": "144292541",
          "name": "A. Dubrawski"
        },
        {
          "authorId": "2118440490",
          "name": "Karen Chen"
        },
        {
          "authorId": "2526466",
          "name": "Donghan Wang"
        },
        {
          "authorId": "2212354",
          "name": "G. Clermont"
        },
        {
          "authorId": "145505573",
          "name": "M. Hravnak"
        },
        {
          "authorId": "2910412",
          "name": "M. Pinsky"
        }
      ]
    },
    {
      "paperId": "d127cd5c08dd1485f467aa9f930dcec2f69f5fb0",
      "externalIds": {
        "MAG": "2009365816",
        "DOI": "10.1002/MET.5060030409",
        "CorpusId": 62699303
      },
      "url": "https://www.semanticscholar.org/paper/d127cd5c08dd1485f467aa9f930dcec2f69f5fb0",
      "title": "Visibility: An investigation based on a multivariate adaptive regression spline technique",
      "venue": "",
      "year": 2007,
      "referenceCount": 4,
      "citationCount": 3,
      "authors": [
        {
          "authorId": "2006069714",
          "name": "M. Taliani"
        },
        {
          "authorId": "6249174",
          "name": "A. Siani"
        },
        {
          "authorId": "50133678",
          "name": "S. Palmieri"
        }
      ]
    },
    {
      "paperId": "7b731c091ac46849aee1640032fd96f3569f9318",
      "externalIds": {
        "PubMedCentral": "12267025",
        "DOI": "10.3389/fnut.2025.1601010",
        "CorpusId": 279900724,
        "PubMed": "40678777"
      },
      "url": "https://www.semanticscholar.org/paper/7b731c091ac46849aee1640032fd96f3569f9318",
      "title": "Association between serum carotenoid levels and gallstones in adults: a cross-sectional study using the National Health and Nutrition Examination Survey",
      "venue": "Frontiers in Nutrition",
      "year": 2025,
      "referenceCount": 44,
      "citationCount": 0,
      "authors": [
        {
          "authorId": "2058248695",
          "name": "Weirui Ren"
        },
        {
          "authorId": "2323676389",
          "name": "Chuan Zhang"
        },
        {
          "authorId": "2325706811",
          "name": "Jie Yin"
        },
        {
          "authorId": "2378041570",
          "name": "Jingyi Ren"
        },
        {
          "authorId": "2370155649",
          "name": "Hongzhao Song"
        },
        {
          "authorId": "2118777270",
          "name": "Xiaoya Wang"
        },
        {
          "authorId": "2370151129",
          "name": "Junmin Wang"
        }
      ]
    },
    {
      "paperId": "681940bc2d90d2080bb50d4487bd442f8eb1e37c",
      "externalIds": {
        "PubMedCentral": "12330173",
        "DOI": "10.1186/s12872-025-05035-6",
        "CorpusId": 280543526,
        "PubMed": "40770292"
      },
      "url": "https://www.semanticscholar.org/paper/681940bc2d90d2080bb50d4487bd442f8eb1e37c",
      "title": "Association between daily alcohol intake and hypertension prevalence: evidence from the 2007–2018 NHANES database",
      "venue": "BMC Cardiovascular Disorders",
      "year": 2025,
      "referenceCount": 31,
      "citationCount": 0,
      "authors": [
        {
          "authorId": "2311906045",
          "name": "Xiao-Feng Fan"
        },
        {
          "authorId": "2312101812",
          "name": "Hong Xie"
        },
        {
          "authorId": "2311845706",
          "name": "Wen-Huan Shuai"
        },
        {
          "authorId": "2311840956",
          "name": "Gui-You Zhong"
        }
      ]
    },
    {
      "paperId": "5b4ee97a9b4c91a7ea830e828b97f435fc95a0e4",
      "externalIds": {
        "PubMedCentral": "11303418",
        "DOI": "10.1007/s11325-024-03031-2",
        "CorpusId": 269754726,
        "PubMed": "38739211"
      },
      "url": "https://www.semanticscholar.org/paper/5b4ee97a9b4c91a7ea830e828b97f435fc95a0e4",
      "title": "Serum vitamin D concentrations and sleep disorders: insights from NHANES 2011–2016 and Mendelian Randomization analysis",
      "venue": "Sleep and Breathing",
      "year": 2024,
      "referenceCount": 37,
      "citationCount": 10,
      "authors": [
        {
          "authorId": "2301264782",
          "name": "Junjie Jiang"
        },
        {
          "authorId": "2301453562",
          "name": "Hanyu Tan"
        },
        {
          "authorId": "2301201545",
          "name": "Zhongfang Xia"
        },
        {
          "authorId": "2304560079",
          "name": "Jun Li"
        },
        {
          "authorId": "2272197589",
          "name": "Shu Zhou"
        },
        {
          "authorId": "2301264096",
          "name": "Tao Huang"
        }
      ]
    },
    {
      "paperId": "0b1de7cf741a1573b7de8fab96e5df1a7ede3543",
      "externalIds": {
        "MAG": "1911281453",
        "CorpusId": 120015206
      },
      "url": "https://www.semanticscholar.org/paper/0b1de7cf741a1573b7de8fab96e5df1a7ede3543",
      "title": "Risk Analysis: A Quantitative Guide",
      "venue": "",
      "year": 2000,
      "referenceCount": 0,
      "citationCount": 1684,
      "authors": [
        {
          "authorId": "49831945",
          "name": "D. Vose"
        }
      ]
    },
    {
      "paperId": "9a13ea20127860d77c10fca0e54fde1ac61ffefd",
      "externalIds": {
        "ArXiv": "2107.09765",
        "CorpusId": 236155105
      },
      "url": "https://www.semanticscholar.org/paper/9a13ea20127860d77c10fca0e54fde1ac61ffefd",
      "title": "A conditional independence test for causality in econometrics",
      "venue": "",
      "year": 2021,
      "referenceCount": 9,
      "citationCount": 3,
      "authors": [
        {
          "authorId": "152214561",
          "name": "Jaime Sevilla"
        },
        {
          "authorId": "2047929043",
          "name": "Alexandra Mayn"
        }
      ]
    },
    {
      "paperId": "32b4b67f1391cf9d9cf9ef8281fd718f10e2f095",
      "externalIds": {
        "PubMedCentral": "9554403",
        "DOI": "10.3389/fped.2022.990923",
        "CorpusId": 252546993,
        "PubMed": "36245717"
      },
      "url": "https://www.semanticscholar.org/paper/32b4b67f1391cf9d9cf9ef8281fd718f10e2f095",
      "title": "Quantifying lung aeration in neonatal lambs at birth using lung ultrasound",
      "venue": "Frontiers in Pediatrics",
      "year": 2022,
      "referenceCount": 27,
      "citationCount": 5,
      "authors": [
        {
          "authorId": "1897240016",
          "name": "E. J. Pryor"
        },
        {
          "authorId": "16039131",
          "name": "D. Blank"
        },
        {
          "authorId": "5699549",
          "name": "S. Hooper"
        },
        {
          "authorId": "5851158",
          "name": "K. Crossley"
        },
        {
          "authorId": "50574906",
          "name": "S. Badurdeen"
        },
        {
          "authorId": "2113293267",
          "name": "J. Pollock"
        },
        {
          "authorId": "2186194756",
          "name": "Andrew V Stainsby"
        },
        {
          "authorId": "51115157",
          "name": "L. Croton"
        },
        {
          "authorId": "1576652632",
          "name": "D. W. O'Connell"
        },
        {
          "authorId": "152202472",
          "name": "C. Hall"
        },
        {
          "authorId": "1888394",
          "name": "A. Maksimenko"
        },
        {
          "authorId": "51149242",
          "name": "D. Hausermann"
        },
        {
          "authorId": "144596470",
          "name": "P. Davis"
        },
        {
          "authorId": "3411712",
          "name": "M. Kitchen"
        }
      ]
    }
  ]
}