{
  "total": 116,
  "offset": 0,
  "next": 10,
  "data": [
    {
      "paperId": "2c2d1ab4f504548084e0d7e9d00f96375984d987",
      "externalIds": {
        "MAG": "1495927536",
        "DBLP": "journals/corr/XuJZ14",
        "ArXiv": "1411.0860",
        "CorpusId": 5775098
      },
      "url": "https://www.semanticscholar.org/paper/2c2d1ab4f504548084e0d7e9d00f96375984d987",
      "title": "CUR Algorithm for Partially Observed Matrices",
      "venue": "International Conference on Machine Learning",
      "year": 2014,
      "referenceCount": 50,
      "citationCount": 36,
      "authors": [
        {
          "authorId": "49235356",
          "name": "Miao Xu"
        },
        {
          "authorId": "144723884",
          "name": "Rong Jin"
        },
        {
          "authorId": "145624000",
          "name": "Zhi-Hua Zhou"
        }
      ]
    },
    {
      "paperId": "9733dc3c962a884742b0cb70d7fc9bdba1c524ce",
      "externalIds": {
        "MAG": "2337857435",
        "CorpusId": 14749502
      },
      "url": "https://www.semanticscholar.org/paper/9733dc3c962a884742b0cb70d7fc9bdba1c524ce",
      "title": "Supplementary Material of \"CUR Algorithm for Partially Observed Matrices\"",
      "venue": "",
      "year": 2011,
      "referenceCount": 2,
      "citationCount": 0,
      "authors": [
        {
          "authorId": "49235356",
          "name": "Miao Xu"
        },
        {
          "authorId": "144723884",
          "name": "Rong Jin"
        },
        {
          "authorId": "145624000",
          "name": "Zhi-Hua Zhou"
        }
      ]
    },
    {
      "paperId": "f6b73ee623c6f26d2567dae8aca535f462c89b43",
      "externalIds": {
        "DBLP": "journals/corr/abs-2503-13766",
        "ArXiv": "2503.13766",
        "DOI": "10.1109/LCSYS.2025.3580519",
        "CorpusId": 277104632
      },
      "url": "https://www.semanticscholar.org/paper/f6b73ee623c6f26d2567dae8aca535f462c89b43",
      "title": "A Finite-Sample Bound for Identifying Partially Observed Linear Switched Systems From a Single Trajectory",
      "venue": "IEEE Control Systems Letters",
      "year": 2025,
      "referenceCount": 29,
      "citationCount": 0,
      "authors": [
        {
          "authorId": "2301455366",
          "name": "Dániel Rácz"
        },
        {
          "authorId": "2665610",
          "name": "M. Petreczky"
        },
        {
          "authorId": "1886154",
          "name": "B. Daróczy"
        }
      ]
    },
    {
      "paperId": "6c266ec03ce3c15efa2c4be11b26ff7d52b0ab9d",
      "externalIds": {
        "DOI": "10.1101/2025.01.02.25319899",
        "CorpusId": 275205425
      },
      "url": "https://www.semanticscholar.org/paper/6c266ec03ce3c15efa2c4be11b26ff7d52b0ab9d",
      "title": "Proposing a Weight-Based Expectation-Maximization Algorithm for Estimating Discrete-Time Markov Transition Probability Matrices with a Proof-of-Concept Example in Health Technology Assessment",
      "venue": "medRxiv",
      "year": 2025,
      "referenceCount": 0,
      "citationCount": 0,
      "authors": [
        {
          "authorId": "2338222370",
          "name": "M. Bollee"
        },
        {
          "authorId": "2338223817",
          "name": "A. Dutta Majumdar"
        }
      ]
    },
    {
      "paperId": "ab9a0c34ad03413afb62d9573e36bb2311a123d1",
      "externalIds": {
        "ArXiv": "2104.03193",
        "DOI": "10.3150/22-bej1570",
        "CorpusId": 233168669
      },
      "url": "https://www.semanticscholar.org/paper/ab9a0c34ad03413afb62d9573e36bb2311a123d1",
      "title": "Inference for partially observed Riemannian Ornstein–Uhlenbeck diffusions of covariance matrices",
      "venue": "Bernoulli",
      "year": 2021,
      "referenceCount": 74,
      "citationCount": 11,
      "authors": [
        {
          "authorId": "2065327213",
          "name": "Mai Bui"
        },
        {
          "authorId": "3055785",
          "name": "Y. Pokern"
        },
        {
          "authorId": "2265630",
          "name": "P. Dellaportas"
        }
      ]
    },
    {
      "paperId": "5e4e6d7c0f07e005770e7130856e355893e2552a",
      "externalIds": {
        "DBLP": "journals/axioms/AkdemirSI23",
        "DOI": "10.3390/axioms12020161",
        "CorpusId": 256660702,
        "PubMed": "37284612"
      },
      "url": "https://www.semanticscholar.org/paper/5e4e6d7c0f07e005770e7130856e355893e2552a",
      "title": "An Expectation-Maximization Algorithm for Combining a Sample of Partially Overlapping Covariance Matrices",
      "venue": "Axioms",
      "year": 2023,
      "referenceCount": 0,
      "citationCount": 1,
      "authors": [
        {
          "authorId": "2945271",
          "name": "Deniz Akdemir"
        },
        {
          "authorId": "49534683",
          "name": "M. Somo"
        },
        {
          "authorId": "1405057001",
          "name": "J. Isidro-Sánchez"
        }
      ]
    },
    {
      "paperId": "5e48b4adb0d252c20ed6d3229d308c38a28ed072",
      "externalIds": {
        "DOI": "10.1109/BigDataService65758.2025.00043",
        "CorpusId": 281068075
      },
      "url": "https://www.semanticscholar.org/paper/5e48b4adb0d252c20ed6d3229d308c38a28ed072",
      "title": "A Scalable Binary CUR Low-Rank Approximation Algorithm",
      "venue": "International Conference on Big Data Computing Service and Applications",
      "year": 2025,
      "referenceCount": 47,
      "citationCount": 0,
      "authors": [
        {
          "authorId": "2281748315",
          "name": "Bowen Su"
        }
      ]
    },
    {
      "paperId": "093a77e3d74c85e224ad6a5324f634e96bdfcb5d",
      "externalIds": {
        "DOI": "10.3390/app15168876",
        "CorpusId": 280713307
      },
      "url": "https://www.semanticscholar.org/paper/093a77e3d74c85e224ad6a5324f634e96bdfcb5d",
      "title": "Rank-Restricted Hierarchical Alternating Least Squares Algorithm for Matrix Completion with Applications",
      "venue": "Applied Sciences",
      "year": 2025,
      "referenceCount": 35,
      "citationCount": 0,
      "authors": [
        {
          "authorId": "2373417381",
          "name": "Geunseop Lee"
        }
      ]
    },
    {
      "paperId": "5a87dc38ccdc2490e5e872a0cc43d44229c382ea",
      "externalIds": {
        "CorpusId": 267869458
      },
      "url": "https://www.semanticscholar.org/paper/5a87dc38ccdc2490e5e872a0cc43d44229c382ea",
      "title": "Geodesically-convex optimization for averaging partially observed covariance matrices-Supplementary material -",
      "venue": "",
      "year": 2020,
      "referenceCount": 2,
      "citationCount": 0,
      "authors": [
        {
          "authorId": "2240541583",
          "name": "Florian Yger"
        }
      ]
    },
    {
      "paperId": "2313d25a14e02a99a1126ce5f7cf9a7bfa4e421c",
      "externalIds": {
        "MAG": "3175323952",
        "DOI": "10.1016/J.NAHS.2021.101073",
        "CorpusId": 237683718
      },
      "url": "https://www.semanticscholar.org/paper/2313d25a14e02a99a1126ce5f7cf9a7bfa4e421c",
      "title": "Three kinds of coprognosability for partially-observed discrete event systems via a matrix approach",
      "venue": "",
      "year": 2021,
      "referenceCount": 41,
      "citationCount": 9,
      "authors": [
        {
          "authorId": "103510579",
          "name": "Yingrui Zhou"
        },
        {
          "authorId": "2117004853",
          "name": "Zengqiang Chen"
        },
        {
          "authorId": "46271429",
          "name": "Zhongxin Liu"
        },
        {
          "authorId": "2116123082",
          "name": "Zhipeng Zhang"
        }
      ]
    }
  ]
}