{
  "total": 11,
  "offset": 0,
  "next": 10,
  "data": [
    {
      "paperId": "de24e096b25595770af6412e551ad370a36b43ed",
      "externalIds": {
        "MAG": "2739994744",
        "DBLP": "conf/icml/UbaruM17",
        "CorpusId": 7366480
      },
      "url": "https://www.semanticscholar.org/paper/de24e096b25595770af6412e551ad370a36b43ed",
      "title": "Multilabel Classification with Group Testing and Codes",
      "venue": "International Conference on Machine Learning",
      "year": 2017,
      "referenceCount": 35,
      "citationCount": 21,
      "authors": [
        {
          "authorId": "2855794",
          "name": "Shashanka Ubaru"
        },
        {
          "authorId": "143764713",
          "name": "A. Mazumdar"
        }
      ]
    },
    {
      "paperId": "9ad5af3d52d5050e43512ea5683c360792c9555a",
      "externalIds": {
        "CorpusId": 30143086
      },
      "url": "https://www.semanticscholar.org/paper/9ad5af3d52d5050e43512ea5683c360792c9555a",
      "title": "Supplementary material: Multilabel Classification with Group Testing and Codes A. Constructions",
      "venue": "",
      "year": 2017,
      "referenceCount": 0,
      "citationCount": 0,
      "authors": []
    },
    {
      "paperId": "6f1a85ee9247dba77150d6d8207e4c76e462e18d",
      "externalIds": {
        "DOI": "10.1016/S2589-7500(21)00084-4",
        "CorpusId": 235722396,
        "PubMed": "34215564"
      },
      "url": "https://www.semanticscholar.org/paper/6f1a85ee9247dba77150d6d8207e4c76e462e18d",
      "title": "Assessing the utility of deep neural networks in predicting postoperative surgical complications: a retrospective study.",
      "venue": "The Lancet Digital Health",
      "year": 2021,
      "referenceCount": 27,
      "citationCount": 75,
      "authors": [
        {
          "authorId": "143921026",
          "name": "A. Bonde"
        },
        {
          "authorId": "144388252",
          "name": "K. Varadarajan"
        },
        {
          "authorId": "2120196298",
          "name": "Nicholas Bonde"
        },
        {
          "authorId": "5712679",
          "name": "A. Troelsen"
        },
        {
          "authorId": "123374495",
          "name": "O. Muratoglu"
        },
        {
          "authorId": "1850659",
          "name": "H. Malchau"
        },
        {
          "authorId": "145050394",
          "name": "A. Yang"
        },
        {
          "authorId": "50230452",
          "name": "Hasan E. Alam"
        },
        {
          "authorId": "6212888",
          "name": "M. Sillesen"
        }
      ]
    },
    {
      "paperId": "e46ec3603cb9ea3065e66fe98968278f9fd6db68",
      "externalIds": {
        "MAG": "3039273394",
        "DOI": "10.1210/clinem/dgaa440",
        "CorpusId": 220978828,
        "PubMed": "32754750"
      },
      "url": "https://www.semanticscholar.org/paper/e46ec3603cb9ea3065e66fe98968278f9fd6db68",
      "title": "Marked Increase in Incident Gynecomastia: A 20-year National Registry Study 1998-2017.",
      "venue": "Journal of Clinical Endocrinology and Metabolism",
      "year": 2020,
      "referenceCount": 40,
      "citationCount": 13,
      "authors": [
        {
          "authorId": "11279619",
          "name": "T. Koch"
        },
        {
          "authorId": "5344653",
          "name": "E. V. Bräuner"
        },
        {
          "authorId": "38198259",
          "name": "A. Busch"
        },
        {
          "authorId": "81608688",
          "name": "M. Hickey"
        },
        {
          "authorId": "3149236",
          "name": "A. Juul"
        }
      ]
    },
    {
      "paperId": "b9f3070a208d363f60e60a6e28df53bf7fae09fd",
      "externalIds": {
        "PubMedCentral": "9039601",
        "DOI": "10.1186/s12877-022-03070-y",
        "CorpusId": 248385774,
        "PubMed": "35473668"
      },
      "url": "https://www.semanticscholar.org/paper/b9f3070a208d363f60e60a6e28df53bf7fae09fd",
      "title": "Changes in dementia diagnoses in Sweden during the COVID-19 pandemic",
      "venue": "BMC Geriatrics",
      "year": 2022,
      "referenceCount": 31,
      "citationCount": 17,
      "authors": [
        {
          "authorId": "1630897226",
          "name": "Michael Axenhus"
        },
        {
          "authorId": "1398966790",
          "name": "Sophia Schedin‐Weiss"
        },
        {
          "authorId": "4515107",
          "name": "L. Tjernberg"
        },
        {
          "authorId": "152498335",
          "name": "A. Wimo"
        },
        {
          "authorId": "5596935",
          "name": "M. Eriksdotter"
        },
        {
          "authorId": "35083146",
          "name": "G. Bucht"
        },
        {
          "authorId": "3926053",
          "name": "B. Winblad"
        }
      ]
    },
    {
      "paperId": "4c37c6a1c3c56e5e3669e395c0dc43579f8d69a4",
      "externalIds": {
        "MAG": "2071254506",
        "DOI": "10.7326/0003-4819-127-5-199709010-00004",
        "CorpusId": 25976216,
        "PubMed": "9273827"
      },
      "url": "https://www.semanticscholar.org/paper/4c37c6a1c3c56e5e3669e395c0dc43579f8d69a4",
      "title": "Blood Transfusion and Non-Hodgkin Lymphoma: Lack of Association",
      "venue": "Annals of Internal Medicine",
      "year": 1997,
      "referenceCount": 39,
      "citationCount": 40,
      "authors": [
        {
          "authorId": "3734265",
          "name": "J. Adami"
        },
        {
          "authorId": "5588629",
          "name": "O. Nyren"
        },
        {
          "authorId": "152423578",
          "name": "R. Bergstrøm"
        },
        {
          "authorId": "5603933",
          "name": "A. Ekbom"
        },
        {
          "authorId": "2167642",
          "name": "J. Mclaughlin"
        },
        {
          "authorId": "152452833",
          "name": "C. Hogman"
        },
        {
          "authorId": "47890346",
          "name": "J. Fraumeni Jr"
        },
        {
          "authorId": "145598516",
          "name": "B. Glimelius"
        }
      ]
    },
    {
      "paperId": "6470cf27d3b93227036c2e1fd9955056cf74c570",
      "externalIds": {
        "MAG": "2987574794",
        "DOI": "10.1182/blood-2019-127318",
        "CorpusId": 209247115
      },
      "url": "https://www.semanticscholar.org/paper/6470cf27d3b93227036c2e1fd9955056cf74c570",
      "title": "Long Non-Coding RNAs (lncRNAs) Are Highly Associated with Disease Characteristics and Outcome in Pediatric Acute Myeloid Leukemia - a COG and Tpaml Study",
      "venue": "Blood",
      "year": 2019,
      "referenceCount": 0,
      "citationCount": 2,
      "authors": [
        {
          "authorId": "2109847133",
          "name": "Jenny L. Smith"
        },
        {
          "authorId": "6695171",
          "name": "R. Ries"
        },
        {
          "authorId": "2861058",
          "name": "J. Farrar"
        },
        {
          "authorId": "6709309",
          "name": "T. Alonzo"
        },
        {
          "authorId": "4063436",
          "name": "R. Gerbing"
        },
        {
          "authorId": "66140569",
          "name": "Amanda Leonti"
        },
        {
          "authorId": "89393567",
          "name": "Tiffany A. Hylkema"
        },
        {
          "authorId": "4044037",
          "name": "A. Gamis"
        },
        {
          "authorId": "5248294",
          "name": "R. Aplenc"
        },
        {
          "authorId": "31844415",
          "name": "E. Kolb"
        },
        {
          "authorId": "145564569",
          "name": "Cu Nguyen"
        },
        {
          "authorId": "2149906",
          "name": "D. Meerzaman"
        },
        {
          "authorId": "2135404",
          "name": "T. Triche"
        },
        {
          "authorId": "5515125",
          "name": "S. Meshinchi"
        }
      ]
    },
    {
      "paperId": "7169837aaf2842a1ed08919604766c254b56e4bc",
      "externalIds": {
        "CorpusId": 267825282
      },
      "url": "https://www.semanticscholar.org/paper/7169837aaf2842a1ed08919604766c254b56e4bc",
      "title": "Explorer From sequence to enzyme mechanism using multi-label machine learning",
      "venue": "",
      "year": 2016,
      "referenceCount": 60,
      "citationCount": 0,
      "authors": [
        {
          "authorId": "2613830",
          "name": "Luna De Ferrari"
        },
        {
          "authorId": "35405821",
          "name": "John B. O. Mitchell"
        }
      ]
    },
    {
      "paperId": "c6f7b7777b0522388cc88b7412c2fe418452b73a",
      "externalIds": {
        "CorpusId": 282483112
      },
      "url": "https://www.semanticscholar.org/paper/c6f7b7777b0522388cc88b7412c2fe418452b73a",
      "title": "The molecular landscape of pediatric acute myeloid leukemia reveals recurrent 1 structural alterations and age-specific mutational interactions 2",
      "venue": "",
      "year": 2017,
      "referenceCount": 3,
      "citationCount": 0,
      "authors": [
        {
          "authorId": "2269097973",
          "name": "Hamid Bolouri"
        },
        {
          "authorId": "2861058",
          "name": "J. Farrar"
        },
        {
          "authorId": "2075164062",
          "name": "T. Triche"
        },
        {
          "authorId": "6695171",
          "name": "R. Ries"
        },
        {
          "authorId": "2388154862",
          "name": "Emilia L. Lim"
        },
        {
          "authorId": "6709309",
          "name": "T. Alonzo"
        },
        {
          "authorId": "5359526",
          "name": "Yussanne Ma"
        },
        {
          "authorId": "145672049",
          "name": "Richard D. Moore"
        },
        {
          "authorId": "145069054",
          "name": "A. Mungall"
        },
        {
          "authorId": "2213317758",
          "name": "M. Marra"
        },
        {
          "authorId": "2388192119",
          "name": "Jinghui Zhang"
        },
        {
          "authorId": "2532296",
          "name": "Xiaotu Ma"
        },
        {
          "authorId": "2146399435",
          "name": "Yu Liu"
        },
        {
          "authorId": "46398740",
          "name": "Yanling Liu"
        },
        {
          "authorId": "8038601",
          "name": "J. G. Auvil"
        },
        {
          "authorId": "2708930",
          "name": "Tanja Davidsen"
        },
        {
          "authorId": "11680031",
          "name": "Patee Gesuwan"
        },
        {
          "authorId": "22304508",
          "name": "Leandro C. Hermida"
        },
        {
          "authorId": "50446427",
          "name": "Stephen Capone"
        },
        {
          "authorId": "4803321",
          "name": "G. Ramsingh"
        },
        {
          "authorId": "3543907",
          "name": "C. Zwaan"
        },
        {
          "authorId": "30422916",
          "name": "Sanne Noort"
        },
        {
          "authorId": "2388475011",
          "name": "6. StephenR"
        },
        {
          "authorId": "2252775900",
          "name": "Piccolo"
        },
        {
          "authorId": "2334108062",
          "name": "Anders Kolb"
        },
        {
          "authorId": "4044037",
          "name": "A. Gamis"
        },
        {
          "authorId": "2388842644",
          "name": "Malcolm A Smith"
        },
        {
          "authorId": "2046820",
          "name": "D. Gerhard"
        }
      ]
    },
    {
      "paperId": "da469bf1df96b3a8cfbd2845d415f05f6b08c4b0",
      "externalIds": {
        "CorpusId": 37452351
      },
      "url": "https://www.semanticscholar.org/paper/da469bf1df96b3a8cfbd2845d415f05f6b08c4b0",
      "title": "Self-Construal , Self and Other Benefit , and the Generation of Deceptive Messages",
      "venue": "",
      "year": 2010,
      "referenceCount": 40,
      "citationCount": 13,
      "authors": [
        {
          "authorId": "2087501514",
          "name": "Timothy"
        },
        {
          "authorId": "2074373167",
          "name": "Levine"
        },
        {
          "authorId": "39758984",
          "name": "M. Lapinski"
        },
        {
          "authorId": "12932937",
          "name": "John Banas"
        },
        {
          "authorId": "2028979",
          "name": "N. Wong"
        },
        {
          "authorId": "114577477",
          "name": "Allison D. S. Hu"
        },
        {
          "authorId": "115074798",
          "name": "Keriane Endo"
        },
        {
          "authorId": "48537161",
          "name": "K. Baum"
        },
        {
          "authorId": "115358552",
          "name": "Lori N. Anders"
        }
      ]
    }
  ]
}