{
  "total": 168,
  "offset": 0,
  "next": 10,
  "data": [
    {
      "paperId": "f1cfd4e5c0ce6888c3f1013e171b86a165379a65",
      "externalIds": {
        "MAG": "2952639702",
        "DBLP": "conf/icml/PakmanGCP17",
        "ArXiv": "1609.00770",
        "CorpusId": 11818618
      },
      "url": "https://www.semanticscholar.org/paper/f1cfd4e5c0ce6888c3f1013e171b86a165379a65",
      "title": "Stochastic Bouncy Particle Sampler",
      "venue": "International Conference on Machine Learning",
      "year": 2016,
      "referenceCount": 48,
      "citationCount": 32,
      "authors": [
        {
          "authorId": "3314041",
          "name": "Ari Pakman"
        },
        {
          "authorId": "2343272238",
          "name": "Dar Gilboa"
        },
        {
          "authorId": "144752689",
          "name": "David Edwin Carlson"
        },
        {
          "authorId": "1763504",
          "name": "L. Paninski"
        }
      ]
    },
    {
      "paperId": "2ed31d11e3a6bdf914866a52bc68a44457266439",
      "externalIds": {
        "DBLP": "journals/corr/abs-2509-02003",
        "ArXiv": "2509.02003",
        "DOI": "10.48550/arXiv.2509.02003",
        "CorpusId": 281079816
      },
      "url": "https://www.semanticscholar.org/paper/2ed31d11e3a6bdf914866a52bc68a44457266439",
      "title": "Bouncy particle sampler with infinite exchanging parallel tempering",
      "venue": "arXiv.org",
      "year": 2025,
      "referenceCount": 27,
      "citationCount": 0,
      "authors": [
        {
          "authorId": "2361375054",
          "name": "Y. Saito"
        },
        {
          "authorId": "2093590756",
          "name": "Shun Kimura"
        },
        {
          "authorId": "2010376",
          "name": "K. Takeda"
        }
      ]
    },
    {
      "paperId": "94308f91cc56211b2528d9d18f5180c235a12579",
      "externalIds": {
        "DOI": "10.5687/sss.2022.18",
        "CorpusId": 251239138
      },
      "url": "https://www.semanticscholar.org/paper/94308f91cc56211b2528d9d18f5180c235a12579",
      "title": "The Influence of Velocity Refresh in Sequential MCMC with the Invertible Particle Flow and Discrete Bouncy Particle Sampler",
      "venue": "Proceedings of the ISCIE International Symposium on Stochastic Systems Theory and its Applications",
      "year": 2022,
      "referenceCount": 0,
      "citationCount": 1,
      "authors": [
        {
          "authorId": "145325944",
          "name": "Y. Han"
        },
        {
          "authorId": "2110773529",
          "name": "Kazuyuki Nakamura"
        }
      ]
    },
    {
      "paperId": "8c1b3803fa89d8825675568cedcd7c750cb4a919",
      "externalIds": {
        "CorpusId": 250612779
      },
      "url": "https://www.semanticscholar.org/paper/8c1b3803fa89d8825675568cedcd7c750cb4a919",
      "title": "Bouncy Particle Sampler",
      "venue": "",
      "year": 2019,
      "referenceCount": 28,
      "citationCount": 1,
      "authors": [
        {
          "authorId": "102118594",
          "name": "Mark Christianen"
        }
      ]
    },
    {
      "paperId": "e1d7816bcb19e4e54115ba9b795dba9874198055",
      "externalIds": {
        "ArXiv": "2602.17087",
        "CorpusId": 285787432
      },
      "url": "https://www.semanticscholar.org/paper/e1d7816bcb19e4e54115ba9b795dba9874198055",
      "title": "Diffusive Scaling Limits of Forward Event-Chain Monte Carlo: Provably Efficient Exploration with Partial Refreshment",
      "venue": "",
      "year": 2026,
      "referenceCount": 128,
      "citationCount": 0,
      "authors": [
        {
          "authorId": "2305708225",
          "name": "H. Shiba"
        },
        {
          "authorId": "145977234",
          "name": "K. Kamatani"
        }
      ]
    },
    {
      "paperId": "ea26db561a8bf58b5d5f035d4114dd8cb1e78cc7",
      "externalIds": {
        "DBLP": "conf/nips/BertazziSSMD24",
        "ArXiv": "2407.19448",
        "DOI": "10.48550/arXiv.2407.19448",
        "CorpusId": 271533379
      },
      "url": "https://www.semanticscholar.org/paper/ea26db561a8bf58b5d5f035d4114dd8cb1e78cc7",
      "title": "Piecewise deterministic generative models",
      "venue": "Neural Information Processing Systems",
      "year": 2024,
      "referenceCount": 45,
      "citationCount": 4,
      "authors": [
        {
          "authorId": "1643956704",
          "name": "Andrea Bertazzi"
        },
        {
          "authorId": "2283933043",
          "name": "Alain Durmus"
        },
        {
          "authorId": "2313479596",
          "name": "Dario Shariatian"
        },
        {
          "authorId": "1808437",
          "name": "Umut Simsekli"
        },
        {
          "authorId": "2254078684",
          "name": "Eric Moulines"
        }
      ]
    },
    {
      "paperId": "69c02e28d0005e1c8c9144cfc28b84d014e97f93",
      "externalIds": {
        "ArXiv": "2205.11452",
        "DOI": "10.1016/j.spa.2023.08.010",
        "CorpusId": 248987547
      },
      "url": "https://www.semanticscholar.org/paper/69c02e28d0005e1c8c9144cfc28b84d014e97f93",
      "title": "Infinite dimensional Piecewise Deterministic Markov Processes",
      "venue": "Stochastic Processes and their Applications",
      "year": 2022,
      "referenceCount": 31,
      "citationCount": 1,
      "authors": [
        {
          "authorId": "2101600965",
          "name": "P. Dobson"
        },
        {
          "authorId": "3228290",
          "name": "J. Bierkens"
        }
      ]
    },
    {
      "paperId": "d8ec56998b27779989c99815c27aca728fb3e106",
      "externalIds": {
        "ArXiv": "2409.07874",
        "DOI": "10.1088/1361-6420/ae55c2",
        "CorpusId": 272600132
      },
      "url": "https://www.semanticscholar.org/paper/d8ec56998b27779989c99815c27aca728fb3e106",
      "title": "Fused L1/2 prior for large scale linear inverse problem with Gibbs bouncy particle sampler",
      "venue": "Inverse Problems",
      "year": 2024,
      "referenceCount": 62,
      "citationCount": 1,
      "authors": [
        {
          "authorId": "2320807872",
          "name": "Xiongwen Ke"
        },
        {
          "authorId": "2318598314",
          "name": "Yanan Fan"
        },
        {
          "authorId": "49146133",
          "name": "Qingping Zhou"
        }
      ]
    },
    {
      "paperId": "09c0161a592f3abc32b4d99e9d9aa48cdae14634",
      "externalIds": {
        "ArXiv": "2101.03079",
        "MAG": "3119950230",
        "PubMedCentral": "8408370",
        "DBLP": "journals/sac/GoldmanS21",
        "DOI": "10.1007/s11222-021-10034-6",
        "CorpusId": 231418823,
        "PubMed": "34483502"
      },
      "url": "https://www.semanticscholar.org/paper/09c0161a592f3abc32b4d99e9d9aa48cdae14634",
      "title": "Spatiotemporal blocking of the bouncy particle sampler for efficient inference in state-space models",
      "venue": "Statistics and computing",
      "year": 2021,
      "referenceCount": 48,
      "citationCount": 4,
      "authors": [
        {
          "authorId": "1453885593",
          "name": "Jacob Vorstrup Goldman"
        },
        {
          "authorId": "2109037966",
          "name": "Sumeetpal S. Singh"
        }
      ]
    },
    {
      "paperId": "f581adc3e7d50f348428e5e76db0bd71528919d4",
      "externalIds": {
        "CorpusId": 222239954
      },
      "url": "https://www.semanticscholar.org/paper/f581adc3e7d50f348428e5e76db0bd71528919d4",
      "title": "Bayesian Logistic Regression with the Local Bouncy Particle Sampler for COVID-19",
      "venue": "",
      "year": 2020,
      "referenceCount": 36,
      "citationCount": 1,
      "authors": [
        {
          "authorId": "2146044802",
          "name": "Jie Wang"
        }
      ]
    }
  ]
}