{
  "total": 370,
  "offset": 0,
  "next": 10,
  "data": [
    {
      "paperId": "a23242eb962f167687286d4dfb298298523e837b",
      "externalIds": {
        "MAG": "2952500538",
        "ArXiv": "1806.03276",
        "DBLP": "conf/icml/MaXM18",
        "CorpusId": 47006868
      },
      "url": "https://www.semanticscholar.org/paper/a23242eb962f167687286d4dfb298298523e837b",
      "title": "Approximate Message Passing for Amplitude Based Optimization",
      "venue": "International Conference on Machine Learning",
      "year": 2018,
      "referenceCount": 42,
      "citationCount": 10,
      "authors": [
        {
          "authorId": "49304487",
          "name": "Junjie Ma"
        },
        {
          "authorId": "2110522308",
          "name": "Ji Xu"
        },
        {
          "authorId": "35240261",
          "name": "A. Maleki"
        }
      ]
    },
    {
      "paperId": "f67cd048b18d478117cb952b73c4fe19b6f5ea6c",
      "externalIds": {
        "CorpusId": 53529299
      },
      "url": "https://www.semanticscholar.org/paper/f67cd048b18d478117cb952b73c4fe19b6f5ea6c",
      "title": "Supplementary for Approximate message passing for amplitude based optimization July 25 , 2018",
      "venue": "",
      "year": 2018,
      "referenceCount": 43,
      "citationCount": 0,
      "authors": []
    },
    {
      "paperId": "a683bc7d5c8ab3d23e079a84deea60fddcd71745",
      "externalIds": {
        "DOI": "10.1109/ICICSP59554.2023.10388500",
        "CorpusId": 267193328
      },
      "url": "https://www.semanticscholar.org/paper/a683bc7d5c8ab3d23e079a84deea60fddcd71745",
      "title": "A Cyclic-Reconstruction-Based Single-Channel Source Separation with the Coexistence of Strong and Weak Signals",
      "venue": "2023 6th International Conference on Information Communication and Signal Processing (ICICSP)",
      "year": 2023,
      "referenceCount": 18,
      "citationCount": 0,
      "authors": [
        {
          "authorId": "2268112504",
          "name": "Yutong Shen"
        },
        {
          "authorId": "2280797780",
          "name": "Mingyang Jia"
        },
        {
          "authorId": "2275988807",
          "name": "Zhihu Zhang"
        },
        {
          "authorId": "2112567871",
          "name": "Ren Chang"
        },
        {
          "authorId": "2275936228",
          "name": "Benzhou Jin"
        }
      ]
    },
    {
      "paperId": "76a7b557038a9d914eee6fc1f2959e18e8e4f3ac",
      "externalIds": {
        "DBLP": "journals/tsp/JinLGD25",
        "DOI": "10.1109/TSP.2025.3566404",
        "CorpusId": 278350654
      },
      "url": "https://www.semanticscholar.org/paper/76a7b557038a9d914eee6fc1f2959e18e8e4f3ac",
      "title": "Fast Robust Sparse Bayesian Learning Image Reconstruction Model Based on Generalized Approximate Message Passing",
      "venue": "IEEE Transactions on Signal Processing",
      "year": 2025,
      "referenceCount": 46,
      "citationCount": 3,
      "authors": [
        {
          "authorId": "2314546937",
          "name": "Wenzhe Jin"
        },
        {
          "authorId": "1471889002",
          "name": "W. Lyu"
        },
        {
          "authorId": "2153931122",
          "name": "Qing Guo"
        },
        {
          "authorId": "2314650756",
          "name": "Zhijiang Deng"
        }
      ]
    },
    {
      "paperId": "676dda9490ec7a32d7d268e761a8fb4a367a58ab",
      "externalIds": {
        "DOI": "10.1109/AIPIP66876.2025.11299148",
        "CorpusId": 284158653
      },
      "url": "https://www.semanticscholar.org/paper/676dda9490ec7a32d7d268e761a8fb4a367a58ab",
      "title": "Sparse Bayesian Reconstruction Algorithm for Communication Signals in Compressed Sensing Using Generalized Approximate Message Passing",
      "venue": "2025 International Conference on Aerospace Information Perception and Intelligent Processing (AIPIP)",
      "year": 2025,
      "referenceCount": 10,
      "citationCount": 0,
      "authors": [
        {
          "authorId": "2076203091",
          "name": "Tao Dou"
        },
        {
          "authorId": "2330513991",
          "name": "Yupeng Wang"
        },
        {
          "authorId": "2400575062",
          "name": "Yuejiao Pei"
        },
        {
          "authorId": "2364690639",
          "name": "Xiaodan Zhou"
        }
      ]
    },
    {
      "paperId": "b2827ad87806369ac059670a5bf6b899c1f02f96",
      "externalIds": {
        "DBLP": "journals/corr/abs-2509-13955",
        "ArXiv": "2509.13955",
        "DOI": "10.48550/arXiv.2509.13955",
        "CorpusId": 281332624
      },
      "url": "https://www.semanticscholar.org/paper/b2827ad87806369ac059670a5bf6b899c1f02f96",
      "title": "Asymptotic Analysis of Nonlinear One-Bit Precoding in Massive MIMO Systems via Approximate Message Passing",
      "venue": "IEEE Transactions on Information Theory",
      "year": 2025,
      "referenceCount": 39,
      "citationCount": 0,
      "authors": [
        {
          "authorId": "2146269028",
          "name": "Zheyu Wu"
        },
        {
          "authorId": "2325752941",
          "name": "Junjie Ma"
        },
        {
          "authorId": "2323527214",
          "name": "Ya-Feng Liu"
        },
        {
          "authorId": "2264482671",
          "name": "Bruno Clerckx"
        }
      ]
    },
    {
      "paperId": "90b6f063513f0a707b274f8df32429680d57925a",
      "externalIds": {
        "DBLP": "journals/tvt/HuLWXJWLYW25",
        "DOI": "10.1109/TVT.2024.3464537",
        "CorpusId": 272776272
      },
      "url": "https://www.semanticscholar.org/paper/90b6f063513f0a707b274f8df32429680d57925a",
      "title": "Optimized Unsourced Random Access Schemes With Sparse-Correction-Based Approximate Message Passing for Massive MIMO Systems",
      "venue": "IEEE Transactions on Vehicular Technology",
      "year": 2025,
      "referenceCount": 40,
      "citationCount": 6,
      "authors": [
        {
          "authorId": "2146315488",
          "name": "Yanfeng Hu"
        },
        {
          "authorId": "153706996",
          "name": "Mengting Lou"
        },
        {
          "authorId": "2111417882",
          "name": "Dongmin Wang"
        },
        {
          "authorId": "30401492",
          "name": "Xinjiang Xia"
        },
        {
          "authorId": "2293548294",
          "name": "Jing Jin"
        },
        {
          "authorId": "2109090620",
          "name": "Qixing Wang"
        },
        {
          "authorId": "2261781085",
          "name": "Guangyi Liu"
        },
        {
          "authorId": "2237802990",
          "name": "X. You"
        },
        {
          "authorId": "2238165455",
          "name": "Jiangzhou Wang"
        }
      ]
    },
    {
      "paperId": "4d7866766862e0162d19f992f411bc37bc78dad8",
      "externalIds": {
        "DBLP": "conf/icassp/ThomasS23",
        "DOI": "10.1109/ICASSP49357.2023.10094948",
        "CorpusId": 258537428
      },
      "url": "https://www.semanticscholar.org/paper/4d7866766862e0162d19f992f411bc37bc78dad8",
      "title": "Alternating Constrained Minimization Based Approximate Message Passing",
      "venue": "IEEE International Conference on Acoustics, Speech, and Signal Processing",
      "year": 2023,
      "referenceCount": 24,
      "citationCount": 1,
      "authors": [
        {
          "authorId": "35400114",
          "name": "C. Thomas"
        },
        {
          "authorId": "70006060",
          "name": "D. Slock"
        }
      ]
    },
    {
      "paperId": "83aca6843aa53f8604e9361136e136dc6feed5f1",
      "externalIds": {
        "DOI": "10.1109/ICEICT61637.2024.10670911",
        "CorpusId": 272711053
      },
      "url": "https://www.semanticscholar.org/paper/83aca6843aa53f8604e9361136e136dc6feed5f1",
      "title": "ISAR Super-Resolution Imaging and Denoising Based on 2D Complex-Value Approximate Message Passing Network",
      "venue": "IEEE International Conference on Electronic Information and Communication Technology",
      "year": 2024,
      "referenceCount": 13,
      "citationCount": 1,
      "authors": [
        {
          "authorId": "1845780321",
          "name": "Fengkai Liu"
        },
        {
          "authorId": "39252973",
          "name": "Darong Huang"
        },
        {
          "authorId": "2323110082",
          "name": "Weike Feng"
        },
        {
          "authorId": "152978163",
          "name": "Xinrong Guo"
        },
        {
          "authorId": "2284575907",
          "name": "Cunqian Feng"
        }
      ]
    },
    {
      "paperId": "17a0bf446898fbe9a743bc7134e19667f051541f",
      "externalIds": {
        "DBLP": "conf/wcnc/DoiSSMITI24",
        "DOI": "10.1109/WCNC57260.2024.10570905",
        "CorpusId": 270928703
      },
      "url": "https://www.semanticscholar.org/paper/17a0bf446898fbe9a743bc7134e19667f051541f",
      "title": "Outer Loop Link Adaptation Based on User Multiplexing for Generalized Approximate Message Passing in Massive MIMO",
      "venue": "IEEE Wireless Communications and Networking Conference",
      "year": 2024,
      "referenceCount": 16,
      "citationCount": 2,
      "authors": [
        {
          "authorId": "2165508102",
          "name": "Takanobu Doi"
        },
        {
          "authorId": "2590928",
          "name": "Jun Shikida"
        },
        {
          "authorId": "2051288981",
          "name": "Daichi Shirase"
        },
        {
          "authorId": "144508056",
          "name": "Kazushi Muraoka"
        },
        {
          "authorId": "2309518063",
          "name": "Naoto Ishii"
        },
        {
          "authorId": "5453364",
          "name": "Takumi Takahashi"
        },
        {
          "authorId": "1712582",
          "name": "S. Ibi"
        }
      ]
    }
  ]
}