{
  "total": 60,
  "offset": 0,
  "next": 10,
  "data": [
    {
      "paperId": "b4568ce26176864c5427dd27ba3687451c181d83",
      "externalIds": {
        "MAG": "1841698879",
        "DBLP": "conf/icml/SunSK15",
        "CorpusId": 1427721
      },
      "url": "https://www.semanticscholar.org/paper/b4568ce26176864c5427dd27ba3687451c181d83",
      "title": "Message Passing for Collective Graphical Models",
      "venue": "International Conference on Machine Learning",
      "year": 2015,
      "referenceCount": 25,
      "citationCount": 29,
      "authors": [
        {
          "authorId": "2088150138",
          "name": "Tao Sun"
        },
        {
          "authorId": "144799908",
          "name": "D. Sheldon"
        },
        {
          "authorId": "40305195",
          "name": "Akshat Kumar"
        }
      ]
    },
    {
      "paperId": "091fc25687b8b26101d0cb404619c8f54b58ebc5",
      "externalIds": {
        "MAG": "2182258425",
        "DOI": "10.1007/978-3-319-16967-5_3",
        "CorpusId": 2083787
      },
      "url": "https://www.semanticscholar.org/paper/091fc25687b8b26101d0cb404619c8f54b58ebc5",
      "title": "Graphical Models and Message-Passing Algorithms: Some Introductory Lectures",
      "venue": "",
      "year": 2015,
      "referenceCount": 79,
      "citationCount": 10,
      "authors": [
        {
          "authorId": "1721860",
          "name": "M. Wainwright"
        }
      ]
    },
    {
      "paperId": "585b1e2593e15adeb4037c01bd5ae2c53507b650",
      "externalIds": {
        "MAG": "2326496300",
        "DOI": "10.2514/6.2015-0358",
        "CorpusId": 61638190
      },
      "url": "https://www.semanticscholar.org/paper/585b1e2593e15adeb4037c01bd5ae2c53507b650",
      "title": "Decentralized Message Passing for Minimum Sensor Cover Based on Belief Propagation",
      "venue": "",
      "year": 2015,
      "referenceCount": 33,
      "citationCount": 2,
      "authors": [
        {
          "authorId": "27494490",
          "name": "Dae-Sung Jang"
        },
        {
          "authorId": "2701085",
          "name": "Han-Lim Choi"
        }
      ]
    },
    {
      "paperId": "69e6a17fdf40dbc167b0c63257e05243a7bdfa9d",
      "externalIds": {
        "MAG": "2463212224",
        "DOI": "10.1007/978-3-319-32243-8_8",
        "CorpusId": 63466223
      },
      "url": "https://www.semanticscholar.org/paper/69e6a17fdf40dbc167b0c63257e05243a7bdfa9d",
      "title": "Study of Particle Swarm Optimization Algorithms Using Message Passing Interface and Graphical Processing Units Employing a High Performance Computing Cluster",
      "venue": "International Conference on Supercomputing",
      "year": 2015,
      "referenceCount": 20,
      "citationCount": 1,
      "authors": [
        {
          "authorId": "1721024055",
          "name": "Manuel-H. Santana-Castolo"
        },
        {
          "authorId": "38287218",
          "name": "J. Morales"
        },
        {
          "authorId": "1411376771",
          "name": "S. Torres-Ramos"
        },
        {
          "authorId": "1782900",
          "name": "A. Alanis"
        }
      ]
    },
    {
      "paperId": "31dee288e129ab03df9f65a7bd28372b415e2f5f",
      "externalIds": {
        "MAG": "2563338646",
        "DBLP": "phd/basesearch/Forouzan15",
        "CorpusId": 26323235
      },
      "url": "https://www.semanticscholar.org/paper/31dee288e129ab03df9f65a7bd28372b415e2f5f",
      "title": "Approximate Inference in Graphical Models",
      "venue": "",
      "year": 2015,
      "referenceCount": 42,
      "citationCount": 9,
      "authors": [
        {
          "authorId": "1880110",
          "name": "Sholeh Forouzan"
        }
      ]
    },
    {
      "paperId": "238b52a1ade952847be8b9f4dd4e0eae59256d9e",
      "externalIds": {
        "MAG": "600611274",
        "ArXiv": "1506.03537",
        "CorpusId": 88520054
      },
      "url": "https://www.semanticscholar.org/paper/238b52a1ade952847be8b9f4dd4e0eae59256d9e",
      "title": "Exponential Series Approaches for Nonparametric Graphical Models",
      "venue": "",
      "year": 2015,
      "referenceCount": 82,
      "citationCount": 9,
      "authors": [
        {
          "authorId": "30732241",
          "name": "Eric Janofsky"
        }
      ]
    },
    {
      "paperId": "4dd5fd2ae96ae984922b5655c32991ef71cfd0a4",
      "externalIds": {
        "MAG": "2523540204",
        "DBLP": "conf/ccgrid/JinFWHCABC15",
        "DOI": "10.1109/CCGrid.2015.35",
        "CorpusId": 7546491
      },
      "url": "https://www.semanticscholar.org/paper/4dd5fd2ae96ae984922b5655c32991ef71cfd0a4",
      "title": "Running MAP Inference on Million Node Graphical Models: A High Performance Computing Perspective",
      "venue": "2015 15th IEEE/ACM International Symposium on Cluster, Cloud and Grid Computing",
      "year": 2015,
      "referenceCount": 31,
      "citationCount": 3,
      "authors": [
        {
          "authorId": "50077775",
          "name": "Chen Jin"
        },
        {
          "authorId": "2113771602",
          "name": "Qiang Fu"
        },
        {
          "authorId": "3909454",
          "name": "Huahua Wang"
        },
        {
          "authorId": "145415039",
          "name": "W. Hendrix"
        },
        {
          "authorId": "1766853",
          "name": "Zhengzhang Chen"
        },
        {
          "authorId": "144186018",
          "name": "Ankit Agrawal"
        },
        {
          "authorId": "144205696",
          "name": "A. Banerjee"
        },
        {
          "authorId": "143975793",
          "name": "A. Choudhary"
        }
      ]
    },
    {
      "paperId": "060710495de69ade0eec66e705ba7eabf8842eb9",
      "externalIds": {
        "ArXiv": "1508.05013",
        "MAG": "1828922096",
        "DBLP": "journals/corr/Ravanbakhsh15",
        "DOI": "10.7939/R3DZ03910",
        "CorpusId": 11274893
      },
      "url": "https://www.semanticscholar.org/paper/060710495de69ade0eec66e705ba7eabf8842eb9",
      "title": "Message Passing and Combinatorial Optimization",
      "venue": "arXiv.org",
      "year": 2015,
      "referenceCount": 333,
      "citationCount": 1,
      "authors": [
        {
          "authorId": "2111187",
          "name": "Siamak Ravanbakhsh"
        }
      ]
    },
    {
      "paperId": "bb44e3153a409ebb4467653d48484dae64b1a1a1",
      "externalIds": {
        "MAG": "2497431703",
        "DOI": "10.1016/B978-0-12-801522-3.00016-1",
        "CorpusId": 265811241
      },
      "url": "https://www.semanticscholar.org/paper/bb44e3153a409ebb4467653d48484dae64b1a1a1",
      "title": "Probabilistic Graphical Models: Part II",
      "venue": "",
      "year": 2015,
      "referenceCount": 116,
      "citationCount": 0,
      "authors": [
        {
          "authorId": "9261284",
          "name": "S. Theodoridis"
        }
      ]
    },
    {
      "paperId": "c77a9d97b13436c1de559e65ce69811a7889dd44",
      "externalIds": {
        "MAG": "3021913283",
        "DOI": "10.1016/B978-0-12-801522-3.00017-3",
        "CorpusId": 60291957
      },
      "url": "https://www.semanticscholar.org/paper/c77a9d97b13436c1de559e65ce69811a7889dd44",
      "title": "Chapter 16 – Probabilistic Graphical Models: Part II",
      "venue": "",
      "year": 2015,
      "referenceCount": 74,
      "citationCount": 0,
      "authors": [
        {
          "authorId": "9261284",
          "name": "S. Theodoridis"
        }
      ]
    }
  ]
}