{
  "total": 39,
  "offset": 0,
  "next": 10,
  "data": [
    {
      "paperId": "09a6d7e831cf496fb5fb2903415eab4c73235715",
      "externalIds": {
        "DBLP": "journals/corr/RiedelBR16",
        "ArXiv": "1605.06640",
        "MAG": "2940652969",
        "CorpusId": 2468625
      },
      "url": "https://www.semanticscholar.org/paper/09a6d7e831cf496fb5fb2903415eab4c73235715",
      "title": "Programming with a Differentiable Forth Interpreter",
      "venue": "International Conference on Machine Learning",
      "year": 2016,
      "referenceCount": 41,
      "citationCount": 155,
      "authors": [
        {
          "authorId": "2709802",
          "name": "Matko Bosnjak"
        },
        {
          "authorId": "2620211",
          "name": "Tim Rocktäschel"
        },
        {
          "authorId": "2300343",
          "name": "Jason Naradowsky"
        },
        {
          "authorId": "48662861",
          "name": "Sebastian Riedel"
        }
      ]
    },
    {
      "paperId": "61ecd3fe697b93b050a18dd417ffc6481a1e5bf8",
      "externalIds": {
        "CorpusId": 260423624
      },
      "url": "https://www.semanticscholar.org/paper/61ecd3fe697b93b050a18dd417ffc6481a1e5bf8",
      "title": "Programming with a Differentiable Forth Interpreter",
      "venue": "",
      "year": 2017,
      "referenceCount": 0,
      "citationCount": 5,
      "authors": []
    },
    {
      "paperId": "159739fa73664c48b4fe575b969f3aca0168f374",
      "externalIds": {
        "PubMedCentral": "9924890",
        "DOI": "10.1186/s12916-023-02730-z",
        "CorpusId": 256832349,
        "PubMed": "36782211"
      },
      "url": "https://www.semanticscholar.org/paper/159739fa73664c48b4fe575b969f3aca0168f374",
      "title": "Maternal obesity and programming of metabolic syndrome in the offspring: searching for mechanisms in the adipocyte progenitor pool",
      "venue": "BMC Medicine",
      "year": 2023,
      "referenceCount": 123,
      "citationCount": 42,
      "authors": [
        {
          "authorId": "2135251216",
          "name": "Taylor B. Scheidl"
        },
        {
          "authorId": "2201640437",
          "name": "Amy L. Brightwell"
        },
        {
          "authorId": "1711308764",
          "name": "Sarah Easson"
        },
        {
          "authorId": "2121591424",
          "name": "Jennifer A. Thompson"
        }
      ]
    },
    {
      "paperId": "6f493ef1044931195c8613586754cae2a85385a9",
      "externalIds": {
        "ArXiv": "2604.16719",
        "CorpusId": 287618103
      },
      "url": "https://www.semanticscholar.org/paper/6f493ef1044931195c8613586754cae2a85385a9",
      "title": "Chronax: A Jax Library for Univariate Statistical Forecasting and Conformal Inference",
      "venue": "",
      "year": 2026,
      "referenceCount": 25,
      "citationCount": 0,
      "authors": [
        {
          "authorId": "2430554755",
          "name": "Xan Carey"
        },
        {
          "authorId": "2157062562",
          "name": "Yash Deshmukh"
        },
        {
          "authorId": "2322459021",
          "name": "A. Huang"
        },
        {
          "authorId": "2352372082",
          "name": "Sunit Jadhav"
        },
        {
          "authorId": "2430555202",
          "name": "Omkar Tekawade"
        },
        {
          "authorId": "2430556488",
          "name": "Lorraine Yang"
        },
        {
          "authorId": "2430554792",
          "name": "Anvesha Tiwary"
        },
        {
          "authorId": "2430555467",
          "name": "Gerardo Riano"
        },
        {
          "authorId": "2280335171",
          "name": "Amy Greenwald"
        },
        {
          "authorId": "2120037793",
          "name": "Denizalp Goktas"
        }
      ]
    },
    {
      "paperId": "62ebebbd2fbd92394c8ef007498adef963209718",
      "externalIds": {
        "ArXiv": "2112.03235",
        "DBLP": "journals/corr/abs-2112-03235",
        "CorpusId": 244909059
      },
      "url": "https://www.semanticscholar.org/paper/62ebebbd2fbd92394c8ef007498adef963209718",
      "title": "Simulation Intelligence: Towards a New Generation of Scientific Methods",
      "venue": "arXiv.org",
      "year": 2021,
      "referenceCount": 0,
      "citationCount": 141,
      "authors": [
        {
          "authorId": "12531802",
          "name": "Alexander Lavin"
        },
        {
          "authorId": "66445647",
          "name": "H. Zenil"
        },
        {
          "authorId": "2885717",
          "name": "Brooks Paige"
        },
        {
          "authorId": "1714525",
          "name": "D. Krakauer"
        },
        {
          "authorId": "2672873",
          "name": "Justin Emile Gottschlich"
        },
        {
          "authorId": "2682150",
          "name": "T. Mattson"
        },
        {
          "authorId": "47627049",
          "name": "Anima Anandkumar"
        },
        {
          "authorId": "2143218784",
          "name": "Sanjay Choudry"
        },
        {
          "authorId": "1993475",
          "name": "K. Rocki"
        },
        {
          "authorId": "120943388",
          "name": "A. G. Baydin"
        },
        {
          "authorId": "2307927000",
          "name": "C. Prunkl"
        },
        {
          "authorId": "2385206",
          "name": "O. Isayev"
        },
        {
          "authorId": "2059365421",
          "name": "Erik J Peterson"
        },
        {
          "authorId": "2970971",
          "name": "P. McMahon"
        },
        {
          "authorId": "1748468",
          "name": "J. Macke"
        },
        {
          "authorId": "2258272456",
          "name": "Kyle Cranmer"
        },
        {
          "authorId": "2155128934",
          "name": "Jiaxin Zhang"
        },
        {
          "authorId": "37851626",
          "name": "H. Wainwright"
        },
        {
          "authorId": "12176772",
          "name": "A. Hanuka"
        },
        {
          "authorId": "1956361",
          "name": "M. Veloso"
        },
        {
          "authorId": "1965032",
          "name": "Samuel A. Assefa"
        },
        {
          "authorId": "3393918",
          "name": "Stephan Zheng"
        },
        {
          "authorId": "145668856",
          "name": "Avi Pfeffer"
        }
      ]
    },
    {
      "paperId": "8c9fe20ae3fea2af2b05a64a4a47c1e83eed4216",
      "externalIds": {
        "PubMedCentral": "10646384",
        "DOI": "10.1111/anec.13085",
        "CorpusId": 261556080,
        "PubMed": "37670480"
      },
      "url": "https://www.semanticscholar.org/paper/8c9fe20ae3fea2af2b05a64a4a47c1e83eed4216",
      "title": "Mayo Clinic VT calculator: A practical tool for accurate wide complex tachycardia differentiation",
      "venue": "Annals of Noninvasive Electrocardiology",
      "year": 2023,
      "referenceCount": 21,
      "citationCount": 3,
      "authors": [
        {
          "authorId": "5316941",
          "name": "A. Kashou"
        },
        {
          "authorId": "1704172305",
          "name": "S. LoCoco"
        },
        {
          "authorId": "2067383877",
          "name": "Matthew R. Gardner"
        },
        {
          "authorId": "123010605",
          "name": "J. Webb"
        },
        {
          "authorId": "2253613139",
          "name": "J. Jentzer"
        },
        {
          "authorId": "6995238",
          "name": "P. Noseworthy"
        },
        {
          "authorId": "3922943",
          "name": "C. Desimone"
        },
        {
          "authorId": "2237962249",
          "name": "Abhishek J. Deshmukh"
        },
        {
          "authorId": "1741790",
          "name": "S. Asirvatham"
        },
        {
          "authorId": "21405524",
          "name": "A. May"
        }
      ]
    },
    {
      "paperId": "645c17ea1c19a4cb45f02eac24e3956443c0bceb",
      "externalIds": {
        "CorpusId": 18545235
      },
      "url": "https://www.semanticscholar.org/paper/645c17ea1c19a4cb45f02eac24e3956443c0bceb",
      "title": "Interrupt mechanism for threaded code interpreter",
      "venue": "",
      "year": 1999,
      "referenceCount": 14,
      "citationCount": 0,
      "authors": [
        {
          "authorId": "69975721",
          "name": "A. A. Burtsev"
        }
      ]
    },
    {
      "paperId": "8afb352d377e0e38667ce743849b212ba9df1cb4",
      "externalIds": {
        "DOI": "10.59198/1184sdeodm",
        "CorpusId": 267904168
      },
      "url": "https://www.semanticscholar.org/paper/8afb352d377e0e38667ce743849b212ba9df1cb4",
      "title": "FROM FIXED TO FLEXIBLE: NEEDED CONDITIONS TO PROMOTE ELEMENTARY TEACHERS’ EQUITABLE USE OF WITHIN-CLASS ABILITY GROUPING",
      "venue": "Neag School of Education Journal",
      "year": 2024,
      "referenceCount": 0,
      "citationCount": 1,
      "authors": [
        {
          "authorId": "2286402320",
          "name": "Sarah A. Caroleo"
        }
      ]
    },
    {
      "paperId": "83e8062bdb2aaaf1f2ea89cd77f146b2cf823e0b",
      "externalIds": {
        "DBLP": "journals/corr/abs-2203-06139",
        "ArXiv": "2203.06139",
        "DOI": "10.1088/1742-6596/2438/1/012043",
        "CorpusId": 247411316
      },
      "url": "https://www.semanticscholar.org/paper/83e8062bdb2aaaf1f2ea89cd77f146b2cf823e0b",
      "title": "GPU Accelerated Automatic Differentiation With Clad",
      "venue": "Journal of Physics: Conference Series",
      "year": 2022,
      "referenceCount": 33,
      "citationCount": 5,
      "authors": [
        {
          "authorId": "51247811",
          "name": "Ioana Ifrim"
        },
        {
          "authorId": "1835126",
          "name": "V. Vassilev"
        },
        {
          "authorId": "2158673801",
          "name": "David J. Lange"
        }
      ]
    },
    {
      "paperId": "d074ab2a2be041c7c8ae4758bc707881354422f7",
      "externalIds": {
        "DOI": "10.1183/13993003.01536-2022",
        "CorpusId": 252623327,
        "PubMed": "36175026"
      },
      "url": "https://www.semanticscholar.org/paper/d074ab2a2be041c7c8ae4758bc707881354422f7",
      "title": "New insights into methylome alterations and consequences during myofibroblastic differentiation in pulmonary fibrosis",
      "venue": "European Respiratory Journal",
      "year": 2022,
      "referenceCount": 21,
      "citationCount": 3,
      "authors": [
        {
          "authorId": "4126474",
          "name": "A. Mailleux"
        },
        {
          "authorId": "4265562",
          "name": "B. Crestani"
        }
      ]
    }
  ]
}