{
  "total": 22,
  "offset": 0,
  "next": 10,
  "data": [
    {
      "paperId": "e74a1e87a0cbac606a81e9b5f8695d828c07f966",
      "externalIds": {
        "MAG": "2577904587",
        "DBLP": "conf/ijcai/HegdeIS16",
        "CorpusId": 1954239
      },
      "url": "https://www.semanticscholar.org/paper/e74a1e87a0cbac606a81e9b5f8695d828c07f966",
      "title": "A Nearly-Linear Time Framework for Graph-Structured Sparsity",
      "venue": "International Conference on Machine Learning",
      "year": 2015,
      "referenceCount": 48,
      "citationCount": 92,
      "authors": [
        {
          "authorId": "144398138",
          "name": "C. Hegde"
        },
        {
          "authorId": "1688317",
          "name": "P. Indyk"
        },
        {
          "authorId": "152772922",
          "name": "Ludwig Schmidt"
        }
      ]
    },
    {
      "paperId": "9930add953100b89ca695c4305f95ea81b6db666",
      "externalIds": {
        "CorpusId": 250446071
      },
      "url": "https://www.semanticscholar.org/paper/9930add953100b89ca695c4305f95ea81b6db666",
      "title": "Practical Nearly-Linear-Time Approximation Algorithms for Hybrid and Overlapping Graph Clustering",
      "venue": "",
      "year": 2022,
      "referenceCount": 62,
      "citationCount": 0,
      "authors": [
        {
          "authorId": "79824535",
          "name": "Konstantinos Ameranis"
        },
        {
          "authorId": "2399389151",
          "name": "Lorenzo Orecchia"
        },
        {
          "authorId": "35210462",
          "name": "Kunal Talwar"
        },
        {
          "authorId": "2023899",
          "name": "Charalampos E. Tsourakakis"
        }
      ]
    },
    {
      "paperId": "c4227fa9b6a40e51e7265755e62ae72418f12862",
      "externalIds": {
        "MAG": "3081561662",
        "DBLP": "conf/focs/BrandLNPSS0W20",
        "ArXiv": "2009.01802",
        "DOI": "10.1109/FOCS46700.2020.00090",
        "CorpusId": 221470337
      },
      "url": "https://www.semanticscholar.org/paper/c4227fa9b6a40e51e7265755e62ae72418f12862",
      "title": "Bipartite Matching in Nearly-linear Time on Moderately Dense Graphs",
      "venue": "IEEE Annual Symposium on Foundations of Computer Science",
      "year": 2020,
      "referenceCount": 97,
      "citationCount": 109,
      "authors": [
        {
          "authorId": "145549761",
          "name": "Jan van den Brand"
        },
        {
          "authorId": "2109308930",
          "name": "Y. Lee"
        },
        {
          "authorId": "1795146",
          "name": "Danupon Nanongkai"
        },
        {
          "authorId": "2910492",
          "name": "Richard Peng"
        },
        {
          "authorId": "2993556",
          "name": "Thatchaphol Saranurak"
        },
        {
          "authorId": "2357926",
          "name": "Aaron Sidford"
        },
        {
          "authorId": "143825455",
          "name": "Zhao Song"
        },
        {
          "authorId": "2145386288",
          "name": "Di Wang"
        }
      ]
    },
    {
      "paperId": "eec3f777af7e2f7f4444a6a02369ff963eb1d1d1",
      "externalIds": {
        "CorpusId": 7570871
      },
      "url": "https://www.semanticscholar.org/paper/eec3f777af7e2f7f4444a6a02369ff963eb1d1d1",
      "title": "Sub-linear Time Compressed Sensing for Support Recovery using Sparse-Graph Codes",
      "venue": "",
      "year": 2015,
      "referenceCount": 65,
      "citationCount": 0,
      "authors": [
        {
          "authorId": "2108785400",
          "name": "Xiao Li"
        },
        {
          "authorId": "3069772",
          "name": "S. Pawar"
        },
        {
          "authorId": "144161012",
          "name": "K. Ramchandran"
        }
      ]
    },
    {
      "paperId": "e8548135ff2aaa454dd56481d7d7ef73bceafb48",
      "externalIds": {
        "DBLP": "journals/corr/abs-2602-17601",
        "ArXiv": "2602.17601",
        "DOI": "10.48550/arXiv.2602.17601",
        "CorpusId": 285787220
      },
      "url": "https://www.semanticscholar.org/paper/e8548135ff2aaa454dd56481d7d7ef73bceafb48",
      "title": "Graph Neural Model Predictive Control for High-Dimensional Systems",
      "venue": "arXiv.org",
      "year": 2026,
      "referenceCount": 27,
      "citationCount": 0,
      "authors": [
        {
          "authorId": "2294569108",
          "name": "Patrick Benito Eberhard"
        },
        {
          "authorId": "2239094720",
          "name": "Luis A. Pabon"
        },
        {
          "authorId": "1490485975",
          "name": "Daniele Gammelli"
        },
        {
          "authorId": "2353954099",
          "name": "Hugo Buurmeijer"
        },
        {
          "authorId": "2192606294",
          "name": "Amon Lahr"
        },
        {
          "authorId": "2339668670",
          "name": "Mark E. Leone"
        },
        {
          "authorId": "3063090",
          "name": "Andrea Carron"
        },
        {
          "authorId": "2253665957",
          "name": "Marco Pavone"
        }
      ]
    },
    {
      "paperId": "8dafeed5cc1f50311ccb186c05ff99b1cf77283a",
      "externalIds": {
        "DBLP": "conf/icdm/0001ZAZ17",
        "ArXiv": "1709.05246",
        "MAG": "2949378294",
        "DOI": "10.1109/ICDM.2017.13",
        "CorpusId": 1671954
      },
      "url": "https://www.semanticscholar.org/paper/8dafeed5cc1f50311ccb186c05ff99b1cf77283a",
      "title": "A Generic Framework for Interesting Subspace Cluster Detection in Multi-attributed Networks",
      "venue": "Industrial Conference on Data Mining",
      "year": 2017,
      "referenceCount": 44,
      "citationCount": 18,
      "authors": [
        {
          "authorId": "2650184",
          "name": "F. Chen"
        },
        {
          "authorId": "2787368",
          "name": "Baojian Zhou"
        },
        {
          "authorId": "34265351",
          "name": "Adil Alim"
        },
        {
          "authorId": "145927745",
          "name": "Liang Zhao"
        }
      ]
    },
    {
      "paperId": "27f3bb5ef854c0b0e559fb382114ba24891514b0",
      "externalIds": {
        "MAG": "2508786848",
        "DBLP": "conf/IEEEpact/RongPXAS16",
        "DOI": "10.1145/2967938.2967943",
        "CorpusId": 14825684
      },
      "url": "https://www.semanticscholar.org/paper/27f3bb5ef854c0b0e559fb382114ba24891514b0",
      "title": "Sparso: Context-driven optimizations of sparse linear algebra",
      "venue": "International Conference on Parallel Architectures and Compilation Techniques",
      "year": 2016,
      "referenceCount": 79,
      "citationCount": 27,
      "authors": [
        {
          "authorId": "3191917",
          "name": "Hongbo Rong"
        },
        {
          "authorId": "1686843",
          "name": "Jongsoo Park"
        },
        {
          "authorId": "2794865",
          "name": "Lingxiang Xiang"
        },
        {
          "authorId": "2068149321",
          "name": "T. A. Anderson"
        },
        {
          "authorId": "1711231",
          "name": "M. Smelyanskiy"
        }
      ]
    },
    {
      "paperId": "0f024d08fef45862ee8a7b20521cf67a3c804fc3",
      "externalIds": {
        "ArXiv": "2106.09207",
        "DBLP": "journals/corr/abs-2106-09207",
        "DOI": "10.1109/FOCS52979.2021.00061",
        "CorpusId": 235458630
      },
      "url": "https://www.semanticscholar.org/paper/0f024d08fef45862ee8a7b20521cf67a3c804fc3",
      "title": "On the Power of Preconditioning in Sparse Linear Regression",
      "venue": "IEEE Annual Symposium on Foundations of Computer Science",
      "year": 2021,
      "referenceCount": 91,
      "citationCount": 19,
      "authors": [
        {
          "authorId": "1783603",
          "name": "Jonathan A. Kelner"
        },
        {
          "authorId": "16491765",
          "name": "Frederic Koehler"
        },
        {
          "authorId": "1751621",
          "name": "Raghu Meka"
        },
        {
          "authorId": "51062464",
          "name": "Dhruv Rohatgi"
        }
      ]
    },
    {
      "paperId": "63b9257e3c0407bac88ebaab7cdd382b6c9c37ad",
      "externalIds": {
        "CorpusId": 202587437
      },
      "url": "https://www.semanticscholar.org/paper/63b9257e3c0407bac88ebaab7cdd382b6c9c37ad",
      "title": "Interior-Point Methods with Laplacian Linear Solvers",
      "venue": "",
      "year": 2015,
      "referenceCount": 9,
      "citationCount": 0,
      "authors": [
        {
          "authorId": "2417095",
          "name": "D. Spielman"
        }
      ]
    },
    {
      "paperId": "6657da1a1e435f57ff21440da3b5197cc8767681",
      "externalIds": {
        "MAG": "2130357047",
        "DBLP": "journals/corr/HegdeIS14",
        "ArXiv": "1406.1579",
        "DOI": "10.1109/TIT.2015.2457939",
        "CorpusId": 19805
      },
      "url": "https://www.semanticscholar.org/paper/6657da1a1e435f57ff21440da3b5197cc8767681",
      "title": "Approximation Algorithms for Model-Based Compressive Sensing",
      "venue": "IEEE Transactions on Information Theory",
      "year": 2014,
      "referenceCount": 52,
      "citationCount": 63,
      "authors": [
        {
          "authorId": "144398138",
          "name": "C. Hegde"
        },
        {
          "authorId": "1688317",
          "name": "P. Indyk"
        },
        {
          "authorId": "152772922",
          "name": "Ludwig Schmidt"
        }
      ]
    }
  ]
}