{
  "total": 17,
  "offset": 0,
  "next": 10,
  "data": [
    {
      "paperId": "4544c13eab0b64de52aaa3e4a7e21dee9445ba68",
      "externalIds": {
        "MAG": "2401137510",
        "ArXiv": "1605.08490",
        "DBLP": "journals/corr/VeldtGM16",
        "CorpusId": 10886934
      },
      "url": "https://www.semanticscholar.org/paper/4544c13eab0b64de52aaa3e4a7e21dee9445ba68",
      "title": "A Simple and Strongly-Local Flow-Based Method for Cut Improvement",
      "venue": "International Conference on Machine Learning",
      "year": 2016,
      "referenceCount": 37,
      "citationCount": 38,
      "authors": [
        {
          "authorId": "3407218",
          "name": "Nate Veldt"
        },
        {
          "authorId": "1757913",
          "name": "D. Gleich"
        },
        {
          "authorId": "143884206",
          "name": "Michael W. Mahoney"
        }
      ]
    },
    {
      "paperId": "f8d070d379c756c64d4e35a38cc5f729e85b850a",
      "externalIds": {
        "MAG": "1969391085",
        "DOI": "10.1065/LCA2006.04.017",
        "CorpusId": 54194823
      },
      "url": "https://www.semanticscholar.org/paper/f8d070d379c756c64d4e35a38cc5f729e85b850a",
      "title": "Social Impacts in Product Life Cycles - Towards Life Cycle Attribute Assessment",
      "venue": "",
      "year": 2006,
      "referenceCount": 13,
      "citationCount": 238,
      "authors": [
        {
          "authorId": "96148473",
          "name": "G. Norris"
        }
      ]
    },
    {
      "paperId": "935beed06442d7ff57e03cece27d66cddb02b5d1",
      "externalIds": {
        "MAG": "2054033001",
        "DOI": "10.7326/0003-4819-128-6-199803150-00007",
        "CorpusId": 20199025,
        "PubMed": "9499330"
      },
      "url": "https://www.semanticscholar.org/paper/935beed06442d7ff57e03cece27d66cddb02b5d1",
      "title": "Building Measurement and Data Collection into Medical Practice",
      "venue": "Annals of Internal Medicine",
      "year": 1998,
      "referenceCount": 19,
      "citationCount": 155,
      "authors": [
        {
          "authorId": "2149912823",
          "name": "E. Nelson"
        },
        {
          "authorId": "3597617",
          "name": "Mark E. Splaine"
        },
        {
          "authorId": "4564229",
          "name": "P. Batalden"
        },
        {
          "authorId": "8941087",
          "name": "S. Plume"
        }
      ]
    },
    {
      "paperId": "65338d91407b2786c3a1e17ecb10af61b607b25e",
      "externalIds": {
        "MAG": "1971690838",
        "DOI": "10.2991/msmi-14.2014.102",
        "CorpusId": 167633725
      },
      "url": "https://www.semanticscholar.org/paper/65338d91407b2786c3a1e17ecb10af61b607b25e",
      "title": "Logistics Management and Reform",
      "venue": "",
      "year": 2014,
      "referenceCount": 1,
      "citationCount": 1,
      "authors": [
        {
          "authorId": "2108240032",
          "name": "Jian-hua Zhang"
        },
        {
          "authorId": "50821634",
          "name": "Yijing Xu"
        },
        {
          "authorId": "1682342",
          "name": "Zhe Zhang"
        }
      ]
    },
    {
      "paperId": "ce6cf746577bd88240fddda8aa21998b799dfaf3",
      "externalIds": {
        "CorpusId": 264790586
      },
      "url": "https://www.semanticscholar.org/paper/ce6cf746577bd88240fddda8aa21998b799dfaf3",
      "title": "Nomenclature BB Building Block DSM Design Structure Matrix QAP Quadratic Assignment Problem",
      "venue": "",
      "year": 2016,
      "referenceCount": 91,
      "citationCount": 0,
      "authors": [
        {
          "authorId": "2375931434",
          "name": "Christophe Meier"
        },
        {
          "authorId": "2259883559",
          "name": "Ali A. Yassine"
        },
        {
          "authorId": "1714684",
          "name": "Tyson R. Browning"
        }
      ]
    },
    {
      "paperId": "e6bfcc1bdfd903326246e06d9443c3ca1709d513",
      "externalIds": {
        "MAG": "2811487150",
        "DOI": "10.5339/QFARC.2018.HBPD127",
        "CorpusId": 81340814
      },
      "url": "https://www.semanticscholar.org/paper/e6bfcc1bdfd903326246e06d9443c3ca1709d513",
      "title": "Electrospun polymer nanocomposite scaffolds containing metal oxide nanoparticles for diabetic wound healing",
      "venue": "",
      "year": 2018,
      "referenceCount": 0,
      "citationCount": 0,
      "authors": [
        {
          "authorId": "49216567",
          "name": "A. Khattab"
        },
        {
          "authorId": "3917161",
          "name": "L. Streletz"
        },
        {
          "authorId": "37370579",
          "name": "K. Thavanesan"
        },
        {
          "authorId": "39105948",
          "name": "B. Jupp"
        },
        {
          "authorId": "32095087",
          "name": "I. Ali"
        },
        {
          "authorId": "48666654",
          "name": "E. Hakim"
        },
        {
          "authorId": "87108855",
          "name": "Utpal Naghotra"
        },
        {
          "authorId": "116274448",
          "name": "T. Black"
        },
        {
          "authorId": "47118406",
          "name": "D. Jenkinson"
        },
        {
          "authorId": "87011442",
          "name": "A. Abdulmawjood"
        },
        {
          "authorId": "2072142869",
          "name": "R. Mitchell"
        },
        {
          "authorId": "2056705128",
          "name": "S. Heath"
        },
        {
          "authorId": "50198294",
          "name": "Hoda Gad"
        },
        {
          "authorId": "2997392",
          "name": "R. Malik"
        }
      ]
    },
    {
      "paperId": "d3aacf6bc7eada7dac955c33f050a94c474a7c3f",
      "externalIds": {
        "CorpusId": 56146320
      },
      "url": "https://www.semanticscholar.org/paper/d3aacf6bc7eada7dac955c33f050a94c474a7c3f",
      "title": "AADE-11-NTCE-55 MPD Technique in Haynesville Shale Delivers Significant Value in Over Pressured Zones",
      "venue": "",
      "year": 2011,
      "referenceCount": 4,
      "citationCount": 2,
      "authors": [
        {
          "authorId": "97890908",
          "name": "Serkan A. Cenberlitas"
        },
        {
          "authorId": "2065258681",
          "name": "J. Crenshaw"
        },
        {
          "authorId": "92490434",
          "name": "Ferhat Gumus"
        },
        {
          "authorId": "2087021545",
          "name": "Weatherford International"
        },
        {
          "authorId": "107703480",
          "name": "Ken Alpaugh"
        }
      ]
    },
    {
      "paperId": "bd37a9017637a2228677b171e44d098413c65a90",
      "externalIds": {
        "CorpusId": 14568053
      },
      "url": "https://www.semanticscholar.org/paper/bd37a9017637a2228677b171e44d098413c65a90",
      "title": "On approximate throughput computation of Deterministic Systems of Sequential Processes",
      "venue": "",
      "year": 2007,
      "referenceCount": 12,
      "citationCount": 0,
      "authors": [
        {
          "authorId": "2275874745",
          "name": "Carlos J. P erez-Jim"
        },
        {
          "authorId": "145503940",
          "name": "J. Campos"
        },
        {
          "authorId": "2179970246",
          "name": "Manuel"
        },
        {
          "authorId": "2275875622",
          "name": "SilvaSubmitted"
        }
      ]
    },
    {
      "paperId": "590d36fe40ac6acd423d16cd23a48eaeb390b987",
      "externalIds": {
        "MAG": "2063485915",
        "DOI": "10.12921/CMST.2000.06.01.25-40",
        "CorpusId": 53724644
      },
      "url": "https://www.semanticscholar.org/paper/590d36fe40ac6acd423d16cd23a48eaeb390b987",
      "title": "Suboptimal approaches to scheduling malleable tasks",
      "venue": "",
      "year": 2000,
      "referenceCount": 13,
      "citationCount": 1,
      "authors": [
        {
          "authorId": "1708670",
          "name": "J. Błażewicz"
        },
        {
          "authorId": "1907870",
          "name": "M. Machowiak"
        },
        {
          "authorId": "152942784",
          "name": "G. Mounié"
        },
        {
          "authorId": "1733901",
          "name": "D. Trystram"
        }
      ]
    },
    {
      "paperId": "d4d345497d148e13687c15993b40aa468a33e23b",
      "externalIds": {
        "MAG": "1678013140",
        "CorpusId": 129751341
      },
      "url": "https://www.semanticscholar.org/paper/d4d345497d148e13687c15993b40aa468a33e23b",
      "title": "Feasibility of dredging the Old Brahmaputra Off-take",
      "venue": "",
      "year": 2000,
      "referenceCount": 0,
      "citationCount": 0,
      "authors": [
        {
          "authorId": "100970253",
          "name": "A. Anonymous"
        }
      ]
    }
  ]
}