{
  "total": 4236,
  "offset": 0,
  "next": 10,
  "data": [
    {
      "paperId": "1a2118bed729579528deb51e745d58dd3629baf6",
      "externalIds": {
        "ArXiv": "1704.02685",
        "MAG": "2952688545",
        "DBLP": "conf/icml/ShrikumarGK17",
        "CorpusId": 3385018
      },
      "url": "https://www.semanticscholar.org/paper/1a2118bed729579528deb51e745d58dd3629baf6",
      "title": "Learning Important Features Through Propagating Activation Differences",
      "venue": "International Conference on Machine Learning",
      "year": 2017,
      "referenceCount": 17,
      "citationCount": 4514,
      "authors": [
        {
          "authorId": "3407268",
          "name": "Avanti Shrikumar"
        },
        {
          "authorId": "3407175",
          "name": "Peyton Greenside"
        },
        {
          "authorId": "2844479",
          "name": "Anshul B Kundaje"
        }
      ]
    },
    {
      "paperId": "2ac9995a47f9753041e8e760fb083dfb83998267",
      "externalIds": {
        "ArXiv": "1605.01713",
        "DBLP": "journals/corr/ShrikumarGSK16",
        "MAG": "2346578521",
        "CorpusId": 8564234
      },
      "url": "https://www.semanticscholar.org/paper/2ac9995a47f9753041e8e760fb083dfb83998267",
      "title": "Not Just a Black Box: Learning Important Features Through Propagating Activation Differences",
      "venue": "arXiv.org",
      "year": 2016,
      "referenceCount": 7,
      "citationCount": 863,
      "authors": [
        {
          "authorId": "3407268",
          "name": "Avanti Shrikumar"
        },
        {
          "authorId": "3407175",
          "name": "Peyton Greenside"
        },
        {
          "authorId": "143829559",
          "name": "A. Shcherbina"
        },
        {
          "authorId": "2844479",
          "name": "Anshul B Kundaje"
        }
      ]
    },
    {
      "paperId": "122f3cf54429cb3a4c0b77401c6ce1331abdc36b",
      "externalIds": {
        "CorpusId": 39340148
      },
      "url": "https://www.semanticscholar.org/paper/122f3cf54429cb3a4c0b77401c6ce1331abdc36b",
      "title": "Appendix for Learning Important Features Through Propagating Activation Differences 1",
      "venue": "",
      "year": 2017,
      "referenceCount": 2,
      "citationCount": 0,
      "authors": []
    },
    {
      "paperId": "d919bde3098fb90ba8f89c8d7638a359a2e690c0",
      "externalIds": {
        "CorpusId": 15704179
      },
      "url": "https://www.semanticscholar.org/paper/d919bde3098fb90ba8f89c8d7638a359a2e690c0",
      "title": "Not Just A Black Box : Interpretable Deep Learning by Propagating Activation Differences",
      "venue": "",
      "year": 2016,
      "referenceCount": 9,
      "citationCount": 36,
      "authors": [
        {
          "authorId": "3407268",
          "name": "Avanti Shrikumar"
        },
        {
          "authorId": "143829559",
          "name": "A. Shcherbina"
        }
      ]
    },
    {
      "paperId": "02ad427b0d20fb976741e332f69c2fd00c751164",
      "externalIds": {
        "ArXiv": "2405.12241",
        "DBLP": "journals/corr/abs-2405-12241",
        "DOI": "10.48550/arXiv.2405.12241",
        "CorpusId": 269929791
      },
      "url": "https://www.semanticscholar.org/paper/02ad427b0d20fb976741e332f69c2fd00c751164",
      "title": "Identifying Functionally Important Features with End-to-End Sparse Dictionary Learning",
      "venue": "Neural Information Processing Systems",
      "year": 2024,
      "referenceCount": 31,
      "citationCount": 59,
      "authors": [
        {
          "authorId": "2267505173",
          "name": "Dan Braun"
        },
        {
          "authorId": "2228186426",
          "name": "Jordan K. Taylor"
        },
        {
          "authorId": "2302155854",
          "name": "Nicholas Goldowsky-Dill"
        },
        {
          "authorId": "2267502247",
          "name": "Lee Sharkey"
        }
      ]
    },
    {
      "paperId": "157342b5b2f62103f9f0322963378c45925b57b5",
      "externalIds": {
        "PubMedCentral": "13051033",
        "DOI": "10.1111/bjop.12744",
        "CorpusId": 273637431,
        "PubMed": "39460393"
      },
      "url": "https://www.semanticscholar.org/paper/157342b5b2f62103f9f0322963378c45925b57b5",
      "title": "The differences in essential facial areas for impressions between humans and deep learning models: An eye‐tracking and explainable AI approach",
      "venue": "British Journal of Psychology",
      "year": 2024,
      "referenceCount": 68,
      "citationCount": 7,
      "authors": [
        {
          "authorId": "2266457896",
          "name": "Takanori Sano"
        },
        {
          "authorId": "2304216880",
          "name": "Jun Shi"
        },
        {
          "authorId": "2266457356",
          "name": "Hideaki Kawabata"
        }
      ]
    },
    {
      "paperId": "a4f33342567becf4498ccd1c95e5b0418d3c8b90",
      "externalIds": {
        "DOI": "10.1016/j.watres.2024.122521",
        "CorpusId": 272934949,
        "PubMed": "39357159"
      },
      "url": "https://www.semanticscholar.org/paper/a4f33342567becf4498ccd1c95e5b0418d3c8b90",
      "title": "Task decomposition strategy based on machine learning for boosting performance and identifying mechanisms in heterogeneous activation of peracetic acid process.",
      "venue": "Water Research",
      "year": 2024,
      "referenceCount": 75,
      "citationCount": 20,
      "authors": [
        {
          "authorId": "2298204682",
          "name": "Zhuang Wei"
        },
        {
          "authorId": "2284738059",
          "name": "Xiao Zhao"
        },
        {
          "authorId": "2298762391",
          "name": "Qianqian Luo"
        },
        {
          "authorId": "2239061274",
          "name": "Xinyuan Lv"
        },
        {
          "authorId": "2323321297",
          "name": "Zhilin Zhang"
        },
        {
          "authorId": "2287189768",
          "name": "Lihua Zhang"
        },
        {
          "authorId": "2238683794",
          "name": "Minghao Sui"
        }
      ]
    },
    {
      "paperId": "bbead20786f305ef6661fbec572d53da227ebc00",
      "externalIds": {
        "DBLP": "journals/tnn/ZhangXZX24",
        "DOI": "10.1109/TNNLS.2022.3228102",
        "CorpusId": 255722252,
        "PubMed": "37018297"
      },
      "url": "https://www.semanticscholar.org/paper/bbead20786f305ef6661fbec572d53da227ebc00",
      "title": "Learning Graph Representations Through Learning and Propagating Edge Features",
      "venue": "IEEE Transactions on Neural Networks and Learning Systems",
      "year": 2023,
      "referenceCount": 52,
      "citationCount": 13,
      "authors": [
        {
          "authorId": "46701988",
          "name": "Haimin Zhang"
        },
        {
          "authorId": "144005348",
          "name": "Jiahao Xia"
        },
        {
          "authorId": "2200246207",
          "name": "Guoqiang Zhang"
        },
        {
          "authorId": "2153555398",
          "name": "Min Xu"
        }
      ]
    },
    {
      "paperId": "deb64a3949d7d0f504bec9939744a62c9f35fd5a",
      "externalIds": {
        "DOI": "10.1016/j.jns.2024.123091",
        "CorpusId": 270335886,
        "PubMed": "38870732"
      },
      "url": "https://www.semanticscholar.org/paper/deb64a3949d7d0f504bec9939744a62c9f35fd5a",
      "title": "Unraveling sex differences in Parkinson's disease through explainable machine learning.",
      "venue": "Journal of Neurological Sciences",
      "year": 2024,
      "referenceCount": 90,
      "citationCount": 14,
      "authors": [
        {
          "authorId": "2305337342",
          "name": "Gianfrancesco Angelini"
        },
        {
          "authorId": "2326589028",
          "name": "A. Malvaso"
        },
        {
          "authorId": "2305337131",
          "name": "Aurelia Schirripa"
        },
        {
          "authorId": "2305336972",
          "name": "Francesca Campione"
        },
        {
          "authorId": "2363769568",
          "name": "S. D'addario"
        },
        {
          "authorId": "2268655635",
          "name": "Nicola Toschi"
        },
        {
          "authorId": "2305337351",
          "name": "Daniele Caligiore"
        }
      ]
    },
    {
      "paperId": "2bb367836a550138b63653066f28a21b16e39f56",
      "externalIds": {
        "ArXiv": "2407.14676",
        "DBLP": "journals/corr/abs-2407-14676",
        "DOI": "10.48550/arXiv.2407.14676",
        "CorpusId": 271328525
      },
      "url": "https://www.semanticscholar.org/paper/2bb367836a550138b63653066f28a21b16e39f56",
      "title": "On Learning Discriminative Features from Synthesized Data for Self-Supervised Fine-Grained Visual Recognition",
      "venue": "European Conference on Computer Vision",
      "year": 2024,
      "referenceCount": 46,
      "citationCount": 9,
      "authors": [
        {
          "authorId": "2156142282",
          "name": "Zihu Wang"
        },
        {
          "authorId": "2290038615",
          "name": "Lingqiao Liu"
        },
        {
          "authorId": "2341218932",
          "name": "S. Weston"
        },
        {
          "authorId": "2360163744",
          "name": "S. Tian"
        },
        {
          "authorId": "2421793186",
          "name": "Peng Li"
        }
      ]
    }
  ]
}