{
  "total": 1881,
  "offset": 0,
  "next": 10,
  "data": [
    {
      "paperId": "3a7dba6b977af7f21d075172e6c688638492cb28",
      "externalIds": {
        "MAG": "2420609820",
        "DBLP": "conf/icml/YangWLEZ16",
        "CorpusId": 5136165
      },
      "url": "https://www.semanticscholar.org/paper/3a7dba6b977af7f21d075172e6c688638492cb28",
      "title": "Sparse Nonlinear Regression: Parameter Estimation under Nonconvexity",
      "venue": "International Conference on Machine Learning",
      "year": 2016,
      "referenceCount": 55,
      "citationCount": 39,
      "authors": [
        {
          "authorId": "150358650",
          "name": "Zhuoran Yang"
        },
        {
          "authorId": "3113442",
          "name": "Zhaoran Wang"
        },
        {
          "authorId": "49957601",
          "name": "Han Liu"
        },
        {
          "authorId": "143783379",
          "name": "Yonina C. Eldar"
        },
        {
          "authorId": "49104973",
          "name": "Tong Zhang"
        }
      ]
    },
    {
      "paperId": "5149e756fb27a58673414d8b93d30c7f0b9a8fda",
      "externalIds": {
        "MAG": "2206289079",
        "DBLP": "journals/corr/YangWLEZ15",
        "ArXiv": "1511.04514",
        "CorpusId": 5008105
      },
      "url": "https://www.semanticscholar.org/paper/5149e756fb27a58673414d8b93d30c7f0b9a8fda",
      "title": "Sparse Nonlinear Regression: Parameter Estimation and Asymptotic Inference",
      "venue": "arXiv.org",
      "year": 2015,
      "referenceCount": 71,
      "citationCount": 43,
      "authors": [
        {
          "authorId": "150358650",
          "name": "Zhuoran Yang"
        },
        {
          "authorId": "3113442",
          "name": "Zhaoran Wang"
        },
        {
          "authorId": "49957601",
          "name": "Han Liu"
        },
        {
          "authorId": "143783379",
          "name": "Yonina C. Eldar"
        },
        {
          "authorId": "49104973",
          "name": "Tong Zhang"
        }
      ]
    },
    {
      "paperId": "5e708a5b79f77572c710d4fd34a1dbe296b82eef",
      "externalIds": {
        "DOI": "10.1109/ICICCSP53532.2022.9862464",
        "CorpusId": 251848316
      },
      "url": "https://www.semanticscholar.org/paper/5e708a5b79f77572c710d4fd34a1dbe296b82eef",
      "title": "Power Grid parameter estimation using Sparse Identification of Nonlinear Dynamics",
      "venue": "2022 International Conference on Intelligent Controller and Computing for Smart Power (ICICCSP)",
      "year": 2022,
      "referenceCount": 65,
      "citationCount": 12,
      "authors": [
        {
          "authorId": "2182172877",
          "name": "Asif Hamid"
        },
        {
          "authorId": "1471723593",
          "name": "Danish Rafiq"
        },
        {
          "authorId": "2463497",
          "name": "S. A. Nahvi"
        },
        {
          "authorId": "1970493",
          "name": "M. A. Bazaz"
        }
      ]
    },
    {
      "paperId": "88ff9dcf5e88ce76764b0607142235158fc98adb",
      "externalIds": {
        "DOI": "10.1109/ISPCE-ASIA64773.2024.10756253",
        "CorpusId": 274306997
      },
      "url": "https://www.semanticscholar.org/paper/88ff9dcf5e88ce76764b0607142235158fc98adb",
      "title": "Industrial Process Soft Sensing Based on Nonlinear Sparse Generalized Method of Moments Estimation Model and Relevance Vector Regression",
      "venue": "Asia",
      "year": 2024,
      "referenceCount": 18,
      "citationCount": 0,
      "authors": [
        {
          "authorId": "2292851694",
          "name": "He Li"
        },
        {
          "authorId": "2292349454",
          "name": "Zhaojing Wang"
        },
        {
          "authorId": "2292303058",
          "name": "Xinrong Hu"
        },
        {
          "authorId": "2268966028",
          "name": "Xiaoli Ruan"
        },
        {
          "authorId": "2292474223",
          "name": "Fei Yang"
        },
        {
          "authorId": "2189221785",
          "name": "Xiaoyun Yan"
        }
      ]
    },
    {
      "paperId": "468a4e196cbb7a966dd7a7a5c08fc3575f65d020",
      "externalIds": {
        "DBLP": "journals/tsp/ArjasA26",
        "ArXiv": "2506.03775",
        "DOI": "10.1109/TSP.2026.3664263",
        "CorpusId": 279155155
      },
      "url": "https://www.semanticscholar.org/paper/468a4e196cbb7a966dd7a7a5c08fc3575f65d020",
      "title": "Nonlinear Sparse Bayesian Learning Methods With Application to Massive MIMO Channel Estimation With Hardware Impairments",
      "venue": "IEEE Transactions on Signal Processing",
      "year": 2025,
      "referenceCount": 55,
      "citationCount": 4,
      "authors": [
        {
          "authorId": "1569668088",
          "name": "Arttu Arjas"
        },
        {
          "authorId": "1779769",
          "name": "Italo Atzeni"
        }
      ]
    },
    {
      "paperId": "d50f61ec047a0a24e2085fc8043077c49a8cfb95",
      "externalIds": {
        "ArXiv": "2511.11178",
        "DBLP": "journals/corr/abs-2511-11178",
        "DOI": "10.48550/arXiv.2511.11178",
        "CorpusId": 283054733
      },
      "url": "https://www.semanticscholar.org/paper/d50f61ec047a0a24e2085fc8043077c49a8cfb95",
      "title": "On-line learning of dynamic systems: sparse regression meets Kalman filtering",
      "venue": "arXiv.org",
      "year": 2025,
      "referenceCount": 0,
      "citationCount": 0,
      "authors": [
        {
          "authorId": "1719301",
          "name": "G. Pillonetto"
        },
        {
          "authorId": "2241430551",
          "name": "Akram Yazdani"
        },
        {
          "authorId": "3386308",
          "name": "A. Aravkin"
        }
      ]
    },
    {
      "paperId": "f49be6cf5a676b90f12204d53309c00729e4945e",
      "externalIds": {
        "ArXiv": "2506.18802",
        "DOI": "10.22331/q-2026-04-08-2055",
        "CorpusId": 286979272
      },
      "url": "https://www.semanticscholar.org/paper/f49be6cf5a676b90f12204d53309c00729e4945e",
      "title": "Trans-dimensional Hamiltonian model selection and parameter estimation from sparse, noisy data",
      "venue": "Quantum",
      "year": 2025,
      "referenceCount": 56,
      "citationCount": 2,
      "authors": [
        {
          "authorId": "102269682",
          "name": "Abigail N. Poteshman"
        },
        {
          "authorId": "2291027727",
          "name": "Jiwon Yun"
        },
        {
          "authorId": "6489917",
          "name": "T. Taminiau"
        },
        {
          "authorId": "2405722155",
          "name": "Giulia Galli"
        }
      ]
    },
    {
      "paperId": "858aa2736224db48ec329b02410e9b896d000000",
      "externalIds": {
        "MAG": "2390412786",
        "CorpusId": 124046349
      },
      "url": "https://www.semanticscholar.org/paper/858aa2736224db48ec329b02410e9b896d000000",
      "title": "Sparse Parameter Estimation for External Trajectory Based on Semi-parameter Nonlinear Regression Model",
      "venue": "",
      "year": 2010,
      "referenceCount": 0,
      "citationCount": 0,
      "authors": [
        {
          "authorId": "2096562667",
          "name": "Wang Jiong-qi"
        }
      ]
    },
    {
      "paperId": "0f8f853b143f3a5a3829697cf5b507669c88b547",
      "externalIds": {
        "DBLP": "journals/corr/abs-2409-08756",
        "ArXiv": "2409.08756",
        "DOI": "10.48550/arXiv.2409.08756",
        "CorpusId": 272653899
      },
      "url": "https://www.semanticscholar.org/paper/0f8f853b143f3a5a3829697cf5b507669c88b547",
      "title": "Cubature-based uncertainty estimation for nonlinear regression models",
      "venue": "Computers &amp; Chemical Engineering",
      "year": 2024,
      "referenceCount": 31,
      "citationCount": 1,
      "authors": [
        {
          "authorId": "2140909937",
          "name": "M. Bubel"
        },
        {
          "authorId": "2291140762",
          "name": "Jochen Schmid"
        },
        {
          "authorId": "2321178384",
          "name": "Maximilian Carmesin"
        },
        {
          "authorId": "2004752132",
          "name": "Volodymyr Kozachynskyi"
        },
        {
          "authorId": "2742708",
          "name": "E. Esche"
        },
        {
          "authorId": "2241471643",
          "name": "Michael Bortz"
        }
      ]
    },
    {
      "paperId": "314d10da8c2b98cedb5bbbc5e5c12e967b90bd00",
      "externalIds": {
        "DOI": "10.1117/12.3023251",
        "CorpusId": 268849674
      },
      "url": "https://www.semanticscholar.org/paper/314d10da8c2b98cedb5bbbc5e5c12e967b90bd00",
      "title": "Sparse Bayesian learning-based parameter estimation for PMCW-MIMO radars with few-bit quantization",
      "venue": "International Conference on Signal Processing Systems",
      "year": 2024,
      "referenceCount": 20,
      "citationCount": 0,
      "authors": [
        {
          "authorId": "3023971",
          "name": "Qingshan You"
        },
        {
          "authorId": "1873085",
          "name": "Feng Xi"
        },
        {
          "authorId": "2028938",
          "name": "Shengyao Chen"
        }
      ]
    }
  ]
}