{
  "total": 12521,
  "offset": 0,
  "next": 10,
  "data": [
    {
      "paperId": "e0c6a67b142bfc0a2cdd34d94453b11bfab7a32b",
      "externalIds": {
        "MAG": "2803542001",
        "DBLP": "conf/icml/GaoW18",
        "CorpusId": 51879932
      },
      "url": "https://www.semanticscholar.org/paper/e0c6a67b142bfc0a2cdd34d94453b11bfab7a32b",
      "title": "Parallel Bayesian Network Structure Learning",
      "venue": "International Conference on Machine Learning",
      "year": 2018,
      "referenceCount": 27,
      "citationCount": 22,
      "authors": [
        {
          "authorId": "1796265659",
          "name": "Tian Gao"
        },
        {
          "authorId": "1947786",
          "name": "Dennis Wei"
        }
      ]
    },
    {
      "paperId": "10b7cb56156134f9f739b8a071432348947a13d0",
      "externalIds": {
        "DBLP": "conf/ipps/JiangWM22",
        "ArXiv": "2212.04259",
        "DOI": "10.1109/IPDPS53621.2022.00066",
        "CorpusId": 250587987
      },
      "url": "https://www.semanticscholar.org/paper/10b7cb56156134f9f739b8a071432348947a13d0",
      "title": "Fast Parallel Bayesian Network Structure Learning",
      "venue": "IEEE International Parallel and Distributed Processing Symposium",
      "year": 2022,
      "referenceCount": 44,
      "citationCount": 7,
      "authors": [
        {
          "authorId": "22171652",
          "name": "Jiantong Jiang"
        },
        {
          "authorId": "39003902",
          "name": "Zeyi Wen"
        },
        {
          "authorId": "1747500",
          "name": "Ajmal Saeed Mian"
        }
      ]
    },
    {
      "paperId": "47ea850170eaa789d9b0e81ad4d13c866b59d71c",
      "externalIds": {
        "DBLP": "conf/sc/MisraVPCDXAA14",
        "MAG": "2094171104",
        "DOI": "10.1109/SC.2014.43",
        "CorpusId": 3003517
      },
      "url": "https://www.semanticscholar.org/paper/47ea850170eaa789d9b0e81ad4d13c866b59d71c",
      "title": "Parallel Bayesian Network Structure Learning for Genome-Scale Gene Networks",
      "venue": "International Conference for High Performance Computing, Networking, Storage and Analysis",
      "year": 2014,
      "referenceCount": 22,
      "citationCount": 16,
      "authors": [
        {
          "authorId": "3215200",
          "name": "Sanchit Misra"
        },
        {
          "authorId": "2228059",
          "name": "Md. Vasimuddin"
        },
        {
          "authorId": "2670251",
          "name": "K. Pamnany"
        },
        {
          "authorId": "34269397",
          "name": "Sriram P. Chockalingam"
        },
        {
          "authorId": "144427011",
          "name": "Yong Dong"
        },
        {
          "authorId": "144917419",
          "name": "Min Xie"
        },
        {
          "authorId": "47601489",
          "name": "M. Aluru"
        },
        {
          "authorId": "143899699",
          "name": "S. Aluru"
        }
      ]
    },
    {
      "paperId": "b33336cacd87815af64bff237673259e2badeb2f",
      "externalIds": {
        "MAG": "1993856978",
        "DBLP": "conf/sc/NikolovaA12",
        "DOI": "10.1109/SC.2012.90",
        "CorpusId": 12128110
      },
      "url": "https://www.semanticscholar.org/paper/b33336cacd87815af64bff237673259e2badeb2f",
      "title": "Parallel Bayesian network structure learning with application to gene networks",
      "venue": "International Conference for High Performance Computing, Networking, Storage and Analysis",
      "year": 2012,
      "referenceCount": 24,
      "citationCount": 18,
      "authors": [
        {
          "authorId": "3093005",
          "name": "O. Nikolova"
        },
        {
          "authorId": "143899699",
          "name": "S. Aluru"
        }
      ]
    },
    {
      "paperId": "473d9cee1678b97a09cb46192ce6cc9bf2883985",
      "externalIds": {
        "MAG": "2572077090",
        "DBLP": "conf/ideal/QiSWG16",
        "DOI": "10.1007/978-3-319-46257-8_44",
        "CorpusId": 27656370
      },
      "url": "https://www.semanticscholar.org/paper/473d9cee1678b97a09cb46192ce6cc9bf2883985",
      "title": "Grouping Parallel Bayesian Network Structure Learning Algorithm Based on Variable Ordering",
      "venue": "Ideal",
      "year": 2016,
      "referenceCount": 22,
      "citationCount": 1,
      "authors": [
        {
          "authorId": "47099175",
          "name": "Xiaolong Qi"
        },
        {
          "authorId": "2475959",
          "name": "Yinghuan Shi"
        },
        {
          "authorId": "46506174",
          "name": "Hao Wang"
        },
        {
          "authorId": "145644819",
          "name": "Yang Gao"
        }
      ]
    },
    {
      "paperId": "1be06778596f72559e1f19a5fd8fcbf192b2bbd6",
      "externalIds": {
        "DBLP": "journals/tpds/YangJWM24",
        "DOI": "10.1109/TPDS.2023.3326832",
        "CorpusId": 264466214
      },
      "url": "https://www.semanticscholar.org/paper/1be06778596f72559e1f19a5fd8fcbf192b2bbd6",
      "title": "Parallel and Distributed Bayesian Network Structure Learning",
      "venue": "IEEE Transactions on Parallel and Distributed Systems",
      "year": 2024,
      "referenceCount": 42,
      "citationCount": 1,
      "authors": [
        {
          "authorId": "2257010219",
          "name": "Jian Yang"
        },
        {
          "authorId": "22171652",
          "name": "Jiantong Jiang"
        },
        {
          "authorId": "2256993727",
          "name": "Zeyi Wen"
        },
        {
          "authorId": "79400735",
          "name": "A. Mian"
        }
      ]
    },
    {
      "paperId": "6c46d522c5bade616d7e96c38c0b316166732db5",
      "externalIds": {
        "DBLP": "journals/ijcsm/Wu24",
        "DOI": "10.1504/ijcsm.2024.140876",
        "CorpusId": 267148869
      },
      "url": "https://www.semanticscholar.org/paper/6c46d522c5bade616d7e96c38c0b316166732db5",
      "title": "A Spark-based parallel genetic algorithm for Bayesian network structure learning",
      "venue": "International Journal of Computing Science and Mathematics",
      "year": 2024,
      "referenceCount": 0,
      "citationCount": 0,
      "authors": [
        {
          "authorId": "2280478170",
          "name": "Naixin Wu"
        }
      ]
    },
    {
      "paperId": "9eacbc0ceff7cd5f393c35641e4ea345f65fdc5e",
      "externalIds": {
        "DBLP": "journals/tkde/LeeK20",
        "MAG": "2912826796",
        "DOI": "10.1109/TKDE.2019.2899096",
        "CorpusId": 86592434
      },
      "url": "https://www.semanticscholar.org/paper/9eacbc0ceff7cd5f393c35641e4ea345f65fdc5e",
      "title": "Parallel Simulated Annealing with a Greedy Algorithm for Bayesian Network Structure Learning",
      "venue": "IEEE Transactions on Knowledge and Data Engineering",
      "year": 2020,
      "referenceCount": 43,
      "citationCount": 72,
      "authors": [
        {
          "authorId": "2108151394",
          "name": "Sangmin Lee"
        },
        {
          "authorId": "2144239880",
          "name": "S. Kim"
        }
      ]
    },
    {
      "paperId": "8a961117eef824d5f6576130752da6adfab06691",
      "externalIds": {
        "DBLP": "journals/kbs/MadsenJSLN17",
        "MAG": "2485657344",
        "DOI": "10.1016/j.knosys.2016.07.031",
        "CorpusId": 4618579
      },
      "url": "https://www.semanticscholar.org/paper/8a961117eef824d5f6576130752da6adfab06691",
      "title": "A parallel algorithm for Bayesian network structure learning from large data sets",
      "venue": "Knowledge-Based Systems",
      "year": 2017,
      "referenceCount": 34,
      "citationCount": 78,
      "authors": [
        {
          "authorId": "144880939",
          "name": "A. Madsen"
        },
        {
          "authorId": "120177012",
          "name": "Frank Jensen"
        },
        {
          "authorId": "144845946",
          "name": "A. Salmerón"
        },
        {
          "authorId": "3310967",
          "name": "H. Langseth"
        },
        {
          "authorId": "145830646",
          "name": "Thomas D. Nielsen"
        }
      ]
    },
    {
      "paperId": "3021a12a92aa22952f207c3a07adb3b6840513cd",
      "externalIds": {
        "DOI": "10.1504/ijcsm.2023.10061827",
        "CorpusId": 276648246
      },
      "url": "https://www.semanticscholar.org/paper/3021a12a92aa22952f207c3a07adb3b6840513cd",
      "title": "A Spark-based Parallel Genetic Algorithm for Bayesian Network Structure Learning",
      "venue": "International Journal of Computing Science and Mathematics",
      "year": 2023,
      "referenceCount": 0,
      "citationCount": 0,
      "authors": [
        {
          "authorId": "2280478170",
          "name": "Naixin Wu"
        }
      ]
    }
  ]
}