{
  "total": 3771,
  "offset": 0,
  "next": 10,
  "data": [
    {
      "paperId": "ba847beb3ed679ff56d0414c04748de88ed46af9",
      "externalIds": {
        "MAG": "2952385510",
        "DBLP": "conf/icml/HallakM17",
        "ArXiv": "1702.07121",
        "CorpusId": 16071504
      },
      "url": "https://www.semanticscholar.org/paper/ba847beb3ed679ff56d0414c04748de88ed46af9",
      "title": "Consistent On-Line Off-Policy Evaluation",
      "venue": "International Conference on Machine Learning",
      "year": 2017,
      "referenceCount": 29,
      "citationCount": 97,
      "authors": [
        {
          "authorId": "21062872",
          "name": "Assaf Hallak"
        },
        {
          "authorId": "1712535",
          "name": "Shie Mannor"
        }
      ]
    },
    {
      "paperId": "527348eee28798036c3ccae84917bffe78b93e3b",
      "externalIds": {
        "DBLP": "conf/policy/GriffinBLJB12",
        "MAG": "2024134203",
        "DOI": "10.1109/POLICY.2012.15",
        "CorpusId": 1581729
      },
      "url": "https://www.semanticscholar.org/paper/527348eee28798036c3ccae84917bffe78b93e3b",
      "title": "On the Performance of Access Control Policy Evaluation",
      "venue": "IEEE International Symposium on Policies for Distributed Systems and Networks",
      "year": 2012,
      "referenceCount": 22,
      "citationCount": 27,
      "authors": [
        {
          "authorId": "39427216",
          "name": "L. Griffin"
        },
        {
          "authorId": "3181288",
          "name": "B. Butler"
        },
        {
          "authorId": "1760404",
          "name": "Eamonn de Leastar"
        },
        {
          "authorId": "1746673",
          "name": "B. Jennings"
        },
        {
          "authorId": "3069859",
          "name": "D. Botvich"
        }
      ]
    },
    {
      "paperId": "1f07ef9a501896ce3910aafda3f13898112f9781",
      "externalIds": {
        "MAG": "2764634968",
        "DOI": "10.2166/9781780407661",
        "CorpusId": 117217546
      },
      "url": "https://www.semanticscholar.org/paper/1f07ef9a501896ce3910aafda3f13898112f9781",
      "title": "The Governance of Water Regulators",
      "venue": "",
      "year": 2015,
      "referenceCount": 26,
      "citationCount": 28,
      "authors": [
        {
          "authorId": "67107927",
          "name": "Portland Press Ltd"
        }
      ]
    },
    {
      "paperId": "7ba4bfa28190726c95e2ddf9869c34d39b62db61",
      "externalIds": {
        "DBLP": "journals/ton/LandryS93",
        "MAG": "2128338525",
        "DOI": "10.1109/90.251916",
        "CorpusId": 14315840
      },
      "url": "https://www.semanticscholar.org/paper/7ba4bfa28190726c95e2ddf9869c34d39b62db61",
      "title": "Queueing study of a 3-priority policy with distinct service strategies",
      "venue": "TNET",
      "year": 1993,
      "referenceCount": 28,
      "citationCount": 17,
      "authors": [
        {
          "authorId": "40387025",
          "name": "R. Landry"
        },
        {
          "authorId": "1702769",
          "name": "I. Stavrakakis"
        }
      ]
    },
    {
      "paperId": "fd9cfc54b4722cf21fde6bb86c642a8c44bfe024",
      "externalIds": {
        "DBLP": "conf/infocom/LandryS93",
        "MAG": "2128837186",
        "DOI": "10.1109/INFCOM.1993.253258",
        "CorpusId": 13973148
      },
      "url": "https://www.semanticscholar.org/paper/fd9cfc54b4722cf21fde6bb86c642a8c44bfe024",
      "title": "A three-priority queueing policy with application to DQDB modeling",
      "venue": "IEEE INFOCOM '93 The Conference on Computer Communications, Proceedings",
      "year": 1993,
      "referenceCount": 15,
      "citationCount": 2,
      "authors": [
        {
          "authorId": "40387025",
          "name": "R. Landry"
        },
        {
          "authorId": "1702769",
          "name": "I. Stavrakakis"
        }
      ]
    },
    {
      "paperId": "8ded454beea2ab17c9356b1135dffc6edf1f6cd7",
      "externalIds": {
        "MAG": "2046090500",
        "DOI": "10.5089/9781475503920.001",
        "CorpusId": 167354333
      },
      "url": "https://www.semanticscholar.org/paper/8ded454beea2ab17c9356b1135dffc6edf1f6cd7",
      "title": "Managing Large-Scale Capital Inflows: The Case of the Czech Republic, Poland and Romania",
      "venue": "Social Science Research Network",
      "year": 2012,
      "referenceCount": 11,
      "citationCount": 9,
      "authors": [
        {
          "authorId": "41227702",
          "name": "Ibrahim Chowdhury"
        },
        {
          "authorId": "152122696",
          "name": "Leonor Keller"
        }
      ]
    },
    {
      "paperId": "8caeefff3443cc39ef757db3ce044fd57a84e863",
      "externalIds": {
        "MAG": "2145531770",
        "DOI": "10.1109/59.260893",
        "CorpusId": 111346477
      },
      "url": "https://www.semanticscholar.org/paper/8caeefff3443cc39ef757db3ce044fd57a84e863",
      "title": "Incorporation and effects of different supporting policies in multi-area generation system reliability assessment",
      "venue": "",
      "year": 1993,
      "referenceCount": 14,
      "citationCount": 8,
      "authors": [
        {
          "authorId": "2108693657",
          "name": "Wenyuan Li"
        },
        {
          "authorId": "2560520",
          "name": "R. Billinton"
        }
      ]
    },
    {
      "paperId": "4e1e5d5aef138cc2e20beaa8e7c099203a2897d7",
      "externalIds": {
        "DBLP": "conf/nips/ChaudhariD0T24",
        "ArXiv": "2410.02172",
        "DOI": "10.48550/arXiv.2410.02172",
        "CorpusId": 273098054
      },
      "url": "https://www.semanticscholar.org/paper/4e1e5d5aef138cc2e20beaa8e7c099203a2897d7",
      "title": "Abstract Reward Processes: Leveraging State Abstraction for Consistent Off-Policy Evaluation",
      "venue": "Neural Information Processing Systems",
      "year": 2024,
      "referenceCount": 65,
      "citationCount": 2,
      "authors": [
        {
          "authorId": "2275344575",
          "name": "Shreyas Chaudhari"
        },
        {
          "authorId": "33341943",
          "name": "A. Deshpande"
        },
        {
          "authorId": "2296662415",
          "name": "Bruno Castro da Silva"
        },
        {
          "authorId": "2264294242",
          "name": "Philip S. Thomas"
        }
      ]
    },
    {
      "paperId": "a74310f07dcecaa572ceb172ae85aa8c15fd35ad",
      "externalIds": {
        "DBLP": "conf/icml/ZhouHZYS25",
        "ArXiv": "2505.22492",
        "DOI": "10.48550/arXiv.2505.22492",
        "CorpusId": 278959880
      },
      "url": "https://www.semanticscholar.org/paper/a74310f07dcecaa572ceb172ae85aa8c15fd35ad",
      "title": "Demystifying the Paradox of Importance Sampling with an Estimated History-Dependent Behavior Policy in Off-Policy Evaluation",
      "venue": "International Conference on Machine Learning",
      "year": 2025,
      "referenceCount": 94,
      "citationCount": 4,
      "authors": [
        {
          "authorId": "2354224430",
          "name": "Hongyi Zhou"
        },
        {
          "authorId": "34719248",
          "name": "Josiah P. Hanna"
        },
        {
          "authorId": "2354195275",
          "name": "Jin Zhu"
        },
        {
          "authorId": "2293736279",
          "name": "Ying Yang"
        },
        {
          "authorId": "2325201916",
          "name": "Chengchun Shi"
        }
      ]
    },
    {
      "paperId": "64d5dd9561c27979319234785ae739a0a67357da",
      "externalIds": {
        "DBLP": "journals/corr/abs-2412-05783",
        "ArXiv": "2412.05783",
        "DOI": "10.48550/arXiv.2412.05783",
        "CorpusId": 274598126
      },
      "url": "https://www.semanticscholar.org/paper/64d5dd9561c27979319234785ae739a0a67357da",
      "title": "Two-way Deconfounder for Off-policy Evaluation in Causal Reinforcement Learning",
      "venue": "Neural Information Processing Systems",
      "year": 2024,
      "referenceCount": 109,
      "citationCount": 8,
      "authors": [
        {
          "authorId": "2334483592",
          "name": "Shuguang Yu"
        },
        {
          "authorId": "2335077818",
          "name": "Shuxing Fang"
        },
        {
          "authorId": "2334483445",
          "name": "Ruixin Peng"
        },
        {
          "authorId": "2262446599",
          "name": "Zhengling Qi"
        },
        {
          "authorId": "2265522800",
          "name": "Fan Zhou"
        },
        {
          "authorId": "2265521745",
          "name": "Chengchun Shi"
        }
      ]
    }
  ]
}