{
  "total": 5698,
  "offset": 0,
  "next": 10,
  "data": [
    {
      "paperId": "473238ddf6f7d30a5eaf0b3c185025c57864c9bd",
      "externalIds": {
        "DBLP": "conf/icml/KimXVS15",
        "MAG": "1874010440",
        "CorpusId": 7488853,
        "PubMed": "26973982"
      },
      "url": "https://www.semanticscholar.org/paper/473238ddf6f7d30a5eaf0b3c185025c57864c9bd",
      "title": "Manifold-valued Dirichlet Processes",
      "venue": "International Conference on Machine Learning",
      "year": 2015,
      "referenceCount": 48,
      "citationCount": 10,
      "authors": [
        {
          "authorId": "2154858133",
          "name": "Hyunwoo J. Kim"
        },
        {
          "authorId": "2110562225",
          "name": "Jia Xu"
        },
        {
          "authorId": "1733005",
          "name": "B. Vemuri"
        },
        {
          "authorId": "144711711",
          "name": "Vikas Singh"
        }
      ]
    },
    {
      "paperId": "156af1ae751b91117cdb454540271a851b519448",
      "externalIds": {
        "MAG": "1534823070",
        "DOI": "10.1023/A:1026443030345",
        "CorpusId": 7151156
      },
      "url": "https://www.semanticscholar.org/paper/156af1ae751b91117cdb454540271a851b519448",
      "title": "The Manifold-Valued Dirichlet Problem for Symmetric Diffusions",
      "venue": "",
      "year": 2001,
      "referenceCount": 42,
      "citationCount": 13,
      "authors": [
        {
          "authorId": "144853648",
          "name": "J. Picard"
        }
      ]
    },
    {
      "paperId": "64152caef69d93255a710bc54ca30e16425be205",
      "externalIds": {
        "MAG": "2922359465",
        "ArXiv": "1903.02857",
        "DOI": "10.1016/j.jmaa.2019.123624",
        "CorpusId": 119689245
      },
      "url": "https://www.semanticscholar.org/paper/64152caef69d93255a710bc54ca30e16425be205",
      "title": "Spectral gap for measure-valued diffusion processes",
      "venue": "Journal of Mathematical Analysis and Applications",
      "year": 2019,
      "referenceCount": 23,
      "citationCount": 13,
      "authors": [
        {
          "authorId": "14178702",
          "name": "Panpan Ren"
        },
        {
          "authorId": "46181538",
          "name": "Feng-Yu Wang"
        }
      ]
    },
    {
      "paperId": "eeb16588305f6b431c3a81e9fea1f15c23fd0c77",
      "externalIds": {
        "MAG": "2913468611",
        "DOI": "10.1360/N012017-00253",
        "CorpusId": 128211495
      },
      "url": "https://www.semanticscholar.org/paper/eeb16588305f6b431c3a81e9fea1f15c23fd0c77",
      "title": "Reversible measure-valued processes associated with the Poisson-Dirichlet distribution",
      "venue": "Scientia Sinica Mathematica",
      "year": 2019,
      "referenceCount": 44,
      "citationCount": 3,
      "authors": [
        {
          "authorId": "2358735867",
          "name": "Feng Shui"
        }
      ]
    },
    {
      "paperId": "a16a430fca9ac1a36f478407a413539f43a4b3f9",
      "externalIds": {
        "DBLP": "conf/acssc/WangBRF23",
        "DOI": "10.1109/IEEECONF59524.2023.10477092",
        "CorpusId": 268878847
      },
      "url": "https://www.semanticscholar.org/paper/a16a430fca9ac1a36f478407a413539f43a4b3f9",
      "title": "DIstributed Change Point Detection in Streaming Manifold-Valued Signals Over Graphs",
      "venue": "Asilomar Conference on Signals, Systems and Computers",
      "year": 2023,
      "referenceCount": 17,
      "citationCount": 1,
      "authors": [
        {
          "authorId": "153315956",
          "name": "Xiuheng Wang"
        },
        {
          "authorId": "19234500",
          "name": "R. Borsoi"
        },
        {
          "authorId": "2263910588",
          "name": "Cédric Richard"
        },
        {
          "authorId": "2294737556",
          "name": "André Ferrari"
        }
      ]
    },
    {
      "paperId": "c91c5520d9c78c40c077b81607990e85e3709947",
      "externalIds": {
        "DBLP": "journals/tii/LiuWFYG24",
        "DOI": "10.1109/TII.2024.3359416",
        "CorpusId": 267716019
      },
      "url": "https://www.semanticscholar.org/paper/c91c5520d9c78c40c077b81607990e85e3709947",
      "title": "Operating Condition Recognition of Industrial Flotation Processes Using Visual and Acoustic Bimodal Autoencoder With Manifold Learning",
      "venue": "IEEE Transactions on Industrial Informatics",
      "year": 2024,
      "referenceCount": 28,
      "citationCount": 20,
      "authors": [
        {
          "authorId": "2107891255",
          "name": "Chenliang Liu"
        },
        {
          "authorId": "2130385097",
          "name": "Yalin Wang"
        },
        {
          "authorId": "66810325",
          "name": "Yijing Fang"
        },
        {
          "authorId": "2249764485",
          "name": "Chunhua Yang"
        },
        {
          "authorId": "145202887",
          "name": "W. Gui"
        }
      ]
    },
    {
      "paperId": "4b32ee3953dd47aebff56c2f1232f02ed123c540",
      "externalIds": {
        "MAG": "2952768515",
        "ArXiv": "1105.4419",
        "DOI": "10.1142/S0219025712500075",
        "CorpusId": 17932255
      },
      "url": "https://www.semanticscholar.org/paper/4b32ee3953dd47aebff56c2f1232f02ed123c540",
      "title": "Generalized covariation and extended Fukushima decompositions for Banach valued processes. Application to windows of Dirichlet processes.",
      "venue": "",
      "year": 2011,
      "referenceCount": 32,
      "citationCount": 27,
      "authors": [
        {
          "authorId": "100856218",
          "name": "C. Girolami"
        },
        {
          "authorId": "143844995",
          "name": "F. Russo"
        }
      ]
    },
    {
      "paperId": "b101128f5ee8cb04e0273b92a74610ad5c279b09",
      "externalIds": {
        "MAG": "2971797722",
        "DOI": "10.1016/b978-0-12-814725-2.00010-8",
        "CorpusId": 202789536
      },
      "url": "https://www.semanticscholar.org/paper/b101128f5ee8cb04e0273b92a74610ad5c279b09",
      "title": "Manifold-valued image processing with SPD matrices",
      "venue": "Riemannian Geometric Statistics in Medical Image Analysis",
      "year": 2020,
      "referenceCount": 84,
      "citationCount": 55,
      "authors": [
        {
          "authorId": "1715990",
          "name": "X. Pennec"
        }
      ]
    },
    {
      "paperId": "217907ecda61bb8c86a601428bcef6e31e42fa97",
      "externalIds": {
        "MAG": "3106848602",
        "DOI": "10.1214/20-ejp551",
        "CorpusId": 227163191
      },
      "url": "https://www.semanticscholar.org/paper/217907ecda61bb8c86a601428bcef6e31e42fa97",
      "title": "Approximation of Hilbert-Valued Gaussians on Dirichlet structures",
      "venue": "Electronic Journal of Probability",
      "year": 2020,
      "referenceCount": 39,
      "citationCount": 19,
      "authors": [
        {
          "authorId": "90071996",
          "name": "S. Bourguin"
        },
        {
          "authorId": "102762305",
          "name": "Simon Campese"
        }
      ]
    },
    {
      "paperId": "19ecf04e897097801a436a275e63907932881783",
      "externalIds": {
        "ArXiv": "2004.07537",
        "MAG": "3016721236",
        "DOI": "10.1016/J.JFA.2021.108998",
        "CorpusId": 215786015
      },
      "url": "https://www.semanticscholar.org/paper/19ecf04e897097801a436a275e63907932881783",
      "title": "Precise limit in Wasserstein distance for conditional empirical measures of Dirichlet diffusion processes",
      "venue": "Journal of Functional Analysis",
      "year": 2020,
      "referenceCount": 19,
      "citationCount": 26,
      "authors": [
        {
          "authorId": "46181538",
          "name": "Feng-Yu Wang"
        }
      ]
    }
  ]
}