{
  "total": 13,
  "offset": 0,
  "next": 10,
  "data": [
    {
      "paperId": "829510ad6f975c939d589eeb01a3cf6fc6c8ce4d",
      "externalIds": {
        "MAG": "2116435618",
        "DBLP": "journals/corr/SrivastavaMS15",
        "ArXiv": "1502.04681",
        "CorpusId": 11699847
      },
      "url": "https://www.semanticscholar.org/paper/829510ad6f975c939d589eeb01a3cf6fc6c8ce4d",
      "title": "Unsupervised Learning of Video Representations using LSTMs",
      "venue": "International Conference on Machine Learning",
      "year": 2015,
      "referenceCount": 32,
      "citationCount": 2711,
      "authors": [
        {
          "authorId": "2897313",
          "name": "Nitish Srivastava"
        },
        {
          "authorId": "2711409",
          "name": "Elman Mansimov"
        },
        {
          "authorId": "145124475",
          "name": "R. Salakhutdinov"
        }
      ]
    },
    {
      "paperId": "6c11626ae08706e6185fceff0a6d05e4bfd6bd06",
      "externalIds": {
        "CorpusId": 2057504
      },
      "url": "https://www.semanticscholar.org/paper/6c11626ae08706e6185fceff0a6d05e4bfd6bd06",
      "title": "Unsupervised Learning of Visual Representations using Videos",
      "venue": "",
      "year": 2015,
      "referenceCount": 68,
      "citationCount": 1005,
      "authors": [
        {
          "authorId": "2897313",
          "name": "Nitish Srivastava"
        }
      ]
    },
    {
      "paperId": "6d4ff172c2d1820f33c0c72286d52b846ab5a216",
      "externalIds": {
        "MAG": "219040644",
        "DBLP": "journals/corr/WangG15a",
        "ArXiv": "1505.00687",
        "DOI": "10.1109/ICCV.2015.320",
        "CorpusId": 5276358
      },
      "url": "https://www.semanticscholar.org/paper/6d4ff172c2d1820f33c0c72286d52b846ab5a216",
      "title": "Unsupervised Learning of Visual Representations Using Videos",
      "venue": "IEEE International Conference on Computer Vision",
      "year": 2015,
      "referenceCount": 59,
      "citationCount": 230,
      "authors": [
        {
          "authorId": "39849136",
          "name": "X. Wang"
        },
        {
          "authorId": "1726095131",
          "name": "A. Gupta"
        }
      ]
    },
    {
      "paperId": "ddc479b2767189b7dde78944cf0bdc190f6402d7",
      "externalIds": {
        "DBLP": "journals/corr/LotterKC15",
        "MAG": "2175711684",
        "ArXiv": "1511.06380",
        "CorpusId": 5748154
      },
      "url": "https://www.semanticscholar.org/paper/ddc479b2767189b7dde78944cf0bdc190f6402d7",
      "title": "Unsupervised Learning of Visual Structure using Predictive Generative Networks",
      "venue": "arXiv.org",
      "year": 2015,
      "referenceCount": 44,
      "citationCount": 135,
      "authors": [
        {
          "authorId": "2023002",
          "name": "William Lotter"
        },
        {
          "authorId": "1852992",
          "name": "Gabriel Kreiman"
        },
        {
          "authorId": "2042941",
          "name": "David D. Cox"
        }
      ]
    },
    {
      "paperId": "b7d5d7e2e0b4af3ff8a7b1f7ee59281eca6e47e6",
      "externalIds": {
        "CorpusId": 265037622
      },
      "url": "https://www.semanticscholar.org/paper/b7d5d7e2e0b4af3ff8a7b1f7ee59281eca6e47e6",
      "title": "UNSUPERVISED LEARNING OF VISUAL STRUCTURE USING PREDICTIVE GENERATIVE NETWORKS",
      "venue": "",
      "year": 2015,
      "referenceCount": 38,
      "citationCount": 12,
      "authors": [
        {
          "authorId": "2023002",
          "name": "William Lotter"
        },
        {
          "authorId": "2254225851",
          "name": "Gabriel Kreiman"
        },
        {
          "authorId": "2042941",
          "name": "David D. Cox"
        }
      ]
    },
    {
      "paperId": "faafe2a76dbb9a5a1468b1a02b1f0f09ced8587e",
      "externalIds": {
        "ArXiv": "1510.01442",
        "DBLP": "conf/iccv/YangWLWGG15",
        "MAG": "2952694903",
        "DOI": "10.1109/ICCV.2015.526",
        "CorpusId": 1101153
      },
      "url": "https://www.semanticscholar.org/paper/faafe2a76dbb9a5a1468b1a02b1f0f09ced8587e",
      "title": "Unsupervised Extraction of Video Highlights via Robust Recurrent Auto-Encoders",
      "venue": "IEEE International Conference on Computer Vision",
      "year": 2015,
      "referenceCount": 34,
      "citationCount": 187,
      "authors": [
        {
          "authorId": "46402216",
          "name": "Huan Yang"
        },
        {
          "authorId": "2450889",
          "name": "Baoyuan Wang"
        },
        {
          "authorId": "145676588",
          "name": "Stephen Lin"
        },
        {
          "authorId": "2242717",
          "name": "D. Wipf"
        },
        {
          "authorId": "1697293",
          "name": "M. Guo"
        },
        {
          "authorId": "2261753424",
          "name": "B. Guo"
        }
      ]
    },
    {
      "paperId": "60fef33549f57f5cbb6712a510c3a444ab682429",
      "externalIds": {
        "MAG": "2951800876",
        "ArXiv": "1510.01553",
        "DBLP": "journals/corr/XuRYSS15",
        "DOI": "10.5244/C.29.8",
        "CorpusId": 795827
      },
      "url": "https://www.semanticscholar.org/paper/60fef33549f57f5cbb6712a510c3a444ab682429",
      "title": "Learning Deep Representations of Appearance and Motion for Anomalous Event Detection",
      "venue": "British Machine Vision Conference",
      "year": 2015,
      "referenceCount": 40,
      "citationCount": 536,
      "authors": [
        {
          "authorId": "144742695",
          "name": "Dan Xu"
        },
        {
          "authorId": "40811261",
          "name": "E. Ricci"
        },
        {
          "authorId": "2117857570",
          "name": "Yan Yan"
        },
        {
          "authorId": "2346105",
          "name": "Jingkuan Song"
        },
        {
          "authorId": "1703601",
          "name": "N. Sebe"
        }
      ]
    },
    {
      "paperId": "103c59ccffb0053e2a742cf992044c460c4bb379",
      "externalIds": {
        "MAG": "2952373872",
        "ArXiv": "1507.02380",
        "DBLP": "journals/corr/HeTDS15",
        "DOI": "10.1016/j.patcog.2017.02.005",
        "CorpusId": 12608331
      },
      "url": "https://www.semanticscholar.org/paper/103c59ccffb0053e2a742cf992044c460c4bb379",
      "title": "Learning structured ordinal measures for video based face recognition",
      "venue": "Pattern Recognition",
      "year": 2015,
      "referenceCount": 60,
      "citationCount": 29,
      "authors": [
        {
          "authorId": "143712929",
          "name": "R. He"
        },
        {
          "authorId": "143874948",
          "name": "T. Tan"
        },
        {
          "authorId": "1693428",
          "name": "L. Davis"
        },
        {
          "authorId": "1757186",
          "name": "Zhenan Sun"
        }
      ]
    },
    {
      "paperId": "f1c42c8f5b794c3944cde75f64d68cafafb86d91",
      "externalIds": {
        "MAG": "1547049143",
        "CorpusId": 118943300
      },
      "url": "https://www.semanticscholar.org/paper/f1c42c8f5b794c3944cde75f64d68cafafb86d91",
      "title": "Learning Discriminative Feature Representations for Visual Categorization",
      "venue": "",
      "year": 2015,
      "referenceCount": 174,
      "citationCount": 1,
      "authors": [
        {
          "authorId": "2150978083",
          "name": "Li Liu"
        }
      ]
    },
    {
      "paperId": "41c30841352c0162621071b6da8c5376020a5f9e",
      "externalIds": {
        "MAG": "2950473215",
        "DBLP": "conf/aaai/LeordeanuRBS16",
        "ArXiv": "1512.00517",
        "DOI": "10.1609/aaai.v30i1.10467",
        "CorpusId": 10339910
      },
      "url": "https://www.semanticscholar.org/paper/41c30841352c0162621071b6da8c5376020a5f9e",
      "title": "Labeling the Features Not the Samples: Efficient Video Classification with Minimal Supervision",
      "venue": "AAAI Conference on Artificial Intelligence",
      "year": 2015,
      "referenceCount": 42,
      "citationCount": 13,
      "authors": [
        {
          "authorId": "1749627",
          "name": "Marius Leordeanu"
        },
        {
          "authorId": "31499364",
          "name": "Alexandra Radu"
        },
        {
          "authorId": "1767244",
          "name": "S. Baluja"
        },
        {
          "authorId": "1694199",
          "name": "R. Sukthankar"
        }
      ]
    }
  ]
}