{
  "total": 32,
  "offset": 0,
  "next": 10,
  "data": [
    {
      "paperId": "bb77b9f2cd012c47d54e0bb64bb7da285f118e0a",
      "externalIds": {
        "DBLP": "conf/icml/JinYXYJFY18",
        "MAG": "2962908032",
        "CorpusId": 44203780
      },
      "url": "https://www.semanticscholar.org/paper/bb77b9f2cd012c47d54e0bb64bb7da285f118e0a",
      "title": "WSNet: Compact and Efficient Networks Through Weight Sampling",
      "venue": "International Conference on Machine Learning",
      "year": 2018,
      "referenceCount": 43,
      "citationCount": 8,
      "authors": [
        {
          "authorId": "2103483",
          "name": "Xiaojie Jin"
        },
        {
          "authorId": "2680237",
          "name": "Yingzhen Yang"
        },
        {
          "authorId": "145857599",
          "name": "N. Xu"
        },
        {
          "authorId": "1706007",
          "name": "Jianchao Yang"
        },
        {
          "authorId": "1698689",
          "name": "N. Jojic"
        },
        {
          "authorId": "33221685",
          "name": "Jiashi Feng"
        },
        {
          "authorId": "143653681",
          "name": "Shuicheng Yan"
        }
      ]
    },
    {
      "paperId": "be2f18a5afdc99fe9989fcedb380e7c2475e3447",
      "externalIds": {
        "ArXiv": "1711.10067",
        "MAG": "2770228505",
        "DBLP": "journals/corr/abs-1711-10067",
        "CorpusId": 85493262
      },
      "url": "https://www.semanticscholar.org/paper/be2f18a5afdc99fe9989fcedb380e7c2475e3447",
      "title": "WSNet: Compact and Efficient Networks with Weight Sampling",
      "venue": "arXiv.org",
      "year": 2017,
      "referenceCount": 53,
      "citationCount": 2,
      "authors": [
        {
          "authorId": "2103483",
          "name": "Xiaojie Jin"
        },
        {
          "authorId": "2680237",
          "name": "Yingzhen Yang"
        },
        {
          "authorId": "145857599",
          "name": "N. Xu"
        },
        {
          "authorId": "1706007",
          "name": "Jianchao Yang"
        },
        {
          "authorId": "33221685",
          "name": "Jiashi Feng"
        },
        {
          "authorId": "143653681",
          "name": "Shuicheng Yan"
        }
      ]
    },
    {
      "paperId": "be1ad66a82d24a416ab6a02a473f8160075d45e8",
      "externalIds": {
        "MAG": "2787591293",
        "CorpusId": 196022383
      },
      "url": "https://www.semanticscholar.org/paper/be1ad66a82d24a416ab6a02a473f8160075d45e8",
      "title": "WSNet: Learning Compact and Efficient Networks with Weight Sampling",
      "venue": "International Conference on Learning Representations",
      "year": 2018,
      "referenceCount": 0,
      "citationCount": 0,
      "authors": [
        {
          "authorId": "2103483",
          "name": "Xiaojie Jin"
        },
        {
          "authorId": "2680237",
          "name": "Yingzhen Yang"
        },
        {
          "authorId": "145857599",
          "name": "N. Xu"
        },
        {
          "authorId": "1706007",
          "name": "Jianchao Yang"
        },
        {
          "authorId": "33221685",
          "name": "Jiashi Feng"
        },
        {
          "authorId": "143653681",
          "name": "Shuicheng Yan"
        }
      ]
    },
    {
      "paperId": "bf3b8ce0192c902fc6f0b813e273e3afd5dd23fd",
      "externalIds": {
        "DBLP": "journals/jcisd/JalaliWFW25",
        "DOI": "10.1021/acs.jcim.5c01518",
        "CorpusId": 281701671,
        "PubMed": "41031749"
      },
      "url": "https://www.semanticscholar.org/paper/bf3b8ce0192c902fc6f0b813e273e3afd5dd23fd",
      "title": "The Black Hole Strategy: Gravity-Based Representative Sampling for Frugal Graph Learning on Metal-Organic Framework Networks",
      "venue": "Journal of Chemical Information and Modeling",
      "year": 2025,
      "referenceCount": 29,
      "citationCount": 2,
      "authors": [
        {
          "authorId": "2257024359",
          "name": "Mehrdad Jalali"
        },
        {
          "authorId": "2257024101",
          "name": "A. D. D. Wonanke"
        },
        {
          "authorId": "2279306964",
          "name": "Pascal Friederich"
        },
        {
          "authorId": "2257020513",
          "name": "Christof Wöll"
        }
      ]
    },
    {
      "paperId": "bdca52a1e1aca466c46690f0a4ced09e6acf05e1",
      "externalIds": {
        "DBLP": "journals/tog/RoccaDEA25",
        "DOI": "10.1145/3732285",
        "CorpusId": 278095709
      },
      "url": "https://www.semanticscholar.org/paper/bdca52a1e1aca466c46690f0a4ced09e6acf05e1",
      "title": "Policy-Space Diffusion for Physics-Based Character Animation",
      "venue": "ACM Transactions on Graphics",
      "year": 2025,
      "referenceCount": 30,
      "citationCount": 4,
      "authors": [
        {
          "authorId": "2357502877",
          "name": "Michele Rocca"
        },
        {
          "authorId": "1762901",
          "name": "S. Darkner"
        },
        {
          "authorId": "2239515677",
          "name": "K. Erleben"
        },
        {
          "authorId": "2302803269",
          "name": "Sheldon Andrews"
        }
      ]
    },
    {
      "paperId": "1e96f09de6f33c9dcaa350f827ad5f4d221be70e",
      "externalIds": {
        "ArXiv": "2603.14898",
        "CorpusId": 286572615
      },
      "url": "https://www.semanticscholar.org/paper/1e96f09de6f33c9dcaa350f827ad5f4d221be70e",
      "title": "Photonic Quantum-Enhanced Knowledge Distillation",
      "venue": "",
      "year": 2026,
      "referenceCount": 0,
      "citationCount": 0,
      "authors": [
        {
          "authorId": "2320513081",
          "name": "Kuan-Cheng Chen"
        },
        {
          "authorId": "2312676822",
          "name": "Shang Yu"
        },
        {
          "authorId": "2265863857",
          "name": "Chen-Yu Liu"
        },
        {
          "authorId": "2319599119",
          "name": "Samuel Yen-Chi Chen"
        },
        {
          "authorId": "2238634054",
          "name": "H. Tseng"
        },
        {
          "authorId": "2333412757",
          "name": "Yen-Jui Chang"
        },
        {
          "authorId": "2269025017",
          "name": "Wei-Hao Huang"
        },
        {
          "authorId": "2312399384",
          "name": "Felix Burt"
        },
        {
          "authorId": "2376511271",
          "name": "Esperanza Cuenca Gomez"
        },
        {
          "authorId": "2326841690",
          "name": "Zohim Chandani"
        },
        {
          "authorId": "2322802249",
          "name": "William R. Clements"
        },
        {
          "authorId": "2237864848",
          "name": "I. Walmsley"
        },
        {
          "authorId": "2314695473",
          "name": "Kin K. Leung"
        }
      ]
    },
    {
      "paperId": "525bf2b020306b8c9403400e2d5dba9a9bfad652",
      "externalIds": {
        "MAG": "2958232495",
        "DBLP": "journals/corr/abs-1907-05642",
        "CorpusId": 196470770
      },
      "url": "https://www.semanticscholar.org/paper/525bf2b020306b8c9403400e2d5dba9a9bfad652",
      "title": "Deep Model Compression via Filter Auto-sampling",
      "venue": "arXiv.org",
      "year": 2019,
      "referenceCount": 31,
      "citationCount": 2,
      "authors": [
        {
          "authorId": "18119920",
          "name": "Daquan Zhou"
        },
        {
          "authorId": "2103483",
          "name": "Xiaojie Jin"
        },
        {
          "authorId": "2393792699",
          "name": "Kaixin Wang"
        },
        {
          "authorId": "1706007",
          "name": "Jianchao Yang"
        },
        {
          "authorId": "33221685",
          "name": "Jiashi Feng"
        }
      ]
    },
    {
      "paperId": "c6a90019d6592718dbf37dbd9323ec0e061bacdc",
      "externalIds": {
        "MAG": "3089652814",
        "DBLP": "conf/icip/Geng0L20",
        "DOI": "10.1109/ICIP40778.2020.9190760",
        "CorpusId": 224850270
      },
      "url": "https://www.semanticscholar.org/paper/c6a90019d6592718dbf37dbd9323ec0e061bacdc",
      "title": "Cascaded Mixed-Precision Networks",
      "venue": "International Conference on Information Photonics",
      "year": 2020,
      "referenceCount": 27,
      "citationCount": 2,
      "authors": [
        {
          "authorId": "117174641",
          "name": "Xue Geng"
        },
        {
          "authorId": "144462791",
          "name": "Jie Lin"
        },
        {
          "authorId": "48831791",
          "name": "Shaohua Li"
        }
      ]
    },
    {
      "paperId": "d4b86f40bd1b4baf99e76d95ee5912c13d4c52fc",
      "externalIds": {
        "MAG": "2890401883",
        "ArXiv": "1810.02309",
        "DBLP": "journals/corr/abs-1810-02309",
        "CorpusId": 52832817,
        "PubMed": "31130799"
      },
      "url": "https://www.semanticscholar.org/paper/d4b86f40bd1b4baf99e76d95ee5912c13d4c52fc",
      "title": "Learning Compressed Transforms with Low Displacement Rank",
      "venue": "Neural Information Processing Systems",
      "year": 2018,
      "referenceCount": 53,
      "citationCount": 45,
      "authors": [
        {
          "authorId": "49219898",
          "name": "Anna T. Thomas"
        },
        {
          "authorId": "39499001",
          "name": "Albert Gu"
        },
        {
          "authorId": "24593911",
          "name": "Tri Dao"
        },
        {
          "authorId": "1755572",
          "name": "A. Rudra"
        },
        {
          "authorId": "2114485554",
          "name": "C. Ré"
        }
      ]
    },
    {
      "paperId": "46b8a52e30b3ad1402cf9daa5a1d968d1fad43db",
      "externalIds": {
        "DOI": "10.1109/EMC68537.2026.11441792",
        "CorpusId": 286779509
      },
      "url": "https://www.semanticscholar.org/paper/46b8a52e30b3ad1402cf9daa5a1d968d1fad43db",
      "title": "PocketKD: Adaptive Confidence Distillation and Lightweight Student Network for Embedded Applications",
      "venue": "2026 International Conference on Embedded Systems, Mobile Communication and Computing (EMC²)",
      "year": 2026,
      "referenceCount": 16,
      "citationCount": 0,
      "authors": [
        {
          "authorId": "2275251878",
          "name": "Min Wu"
        }
      ]
    }
  ]
}