{
  "total": 296228,
  "offset": 0,
  "next": 10,
  "data": [
    {
      "paperId": "f912d48fc9f6a91d5ee03d9e3d66f339eafa384c",
      "externalIds": {
        "DBLP": "conf/icml/0005P17",
        "MAG": "2964269637",
        "ArXiv": "1702.07803",
        "CorpusId": 2871873
      },
      "url": "https://www.semanticscholar.org/paper/f912d48fc9f6a91d5ee03d9e3d66f339eafa384c",
      "title": "Nonparanormal Information Estimation",
      "venue": "International Conference on Machine Learning",
      "year": 2017,
      "referenceCount": 81,
      "citationCount": 21,
      "authors": [
        {
          "authorId": "153204098",
          "name": "Shashank Singh"
        },
        {
          "authorId": "1719347",
          "name": "B. Póczos"
        }
      ]
    },
    {
      "paperId": "a376f5d1fda5d5969a4200d6edd3af97f8cc7686",
      "externalIds": {
        "DOI": "10.1007/s42519-021-00192-1",
        "CorpusId": 233248550
      },
      "url": "https://www.semanticscholar.org/paper/a376f5d1fda5d5969a4200d6edd3af97f8cc7686",
      "title": "Estimation of Undirected Graph with Finite Mixture of Nonparanormal Distribution",
      "venue": "",
      "year": 2021,
      "referenceCount": 16,
      "citationCount": 2,
      "authors": [
        {
          "authorId": "2057889310",
          "name": "Atefeh Khalili"
        },
        {
          "authorId": "3454478",
          "name": "F. Eskandari"
        },
        {
          "authorId": "2667084",
          "name": "N. Nematollahi"
        }
      ]
    },
    {
      "paperId": "b187c9949ccc1e5e089471f8ced9330d15fe089b",
      "externalIds": {
        "DOI": "10.1007/s42519-021-00192-1",
        "CorpusId": 257161620
      },
      "url": "https://www.semanticscholar.org/paper/b187c9949ccc1e5e089471f8ced9330d15fe089b",
      "title": "Estimation of Undirected Graph with Finite Mixture of Nonparanormal Distribution",
      "venue": "Journal of Statistical Theory and Practice",
      "year": 2021,
      "referenceCount": 26,
      "citationCount": 0,
      "authors": [
        {
          "authorId": "2057889310",
          "name": "Atefeh Khalili"
        },
        {
          "authorId": "3454478",
          "name": "F. Eskandari"
        },
        {
          "authorId": "2667084",
          "name": "N. Nematollahi"
        }
      ]
    },
    {
      "paperId": "2bd93f58d9b83226cef0abcfbabb38d943c4b45c",
      "externalIds": {
        "MAG": "2153433213",
        "DBLP": "conf/nips/ZhaoRL12",
        "CorpusId": 2078395
      },
      "url": "https://www.semanticscholar.org/paper/2bd93f58d9b83226cef0abcfbabb38d943c4b45c",
      "title": "Smooth-projected Neighborhood Pursuit for High-dimensional Nonparanormal Graph Estimation",
      "venue": "Neural Information Processing Systems",
      "year": 2012,
      "referenceCount": 24,
      "citationCount": 7,
      "authors": [
        {
          "authorId": "36345161",
          "name": "T. Zhao"
        },
        {
          "authorId": "144750484",
          "name": "K. Roeder"
        },
        {
          "authorId": "49957601",
          "name": "Han Liu"
        }
      ]
    },
    {
      "paperId": "e8e71a1871b358cbb3ec1e3d92b0ffc0a08ed196",
      "externalIds": {
        "MAG": "2280888015",
        "CorpusId": 61510906
      },
      "url": "https://www.semanticscholar.org/paper/e8e71a1871b358cbb3ec1e3d92b0ffc0a08ed196",
      "title": "High-dimensional Nonparanormal Graph Estimation via Smooth-projected Neighborhood Pursuit",
      "venue": "Neural Information Processing Systems",
      "year": 2012,
      "referenceCount": 0,
      "citationCount": 0,
      "authors": [
        {
          "authorId": "2118960179",
          "name": "Han Liu"
        }
      ]
    },
    {
      "paperId": "40327b0289403e2081652f7e36a511b0075df6ff",
      "externalIds": {
        "DBLP": "conf/icdm/CuiGH17",
        "MAG": "2772121406",
        "DOI": "10.1109/ICDM.2017.101",
        "CorpusId": 12428890
      },
      "url": "https://www.semanticscholar.org/paper/40327b0289403e2081652f7e36a511b0075df6ff",
      "title": "Robust Estimation of Gaussian Copula Causal Structure from Mixed Data with Missing Values",
      "venue": "Industrial Conference on Data Mining",
      "year": 2017,
      "referenceCount": 25,
      "citationCount": 5,
      "authors": [
        {
          "authorId": "3452376",
          "name": "Ruifei Cui"
        },
        {
          "authorId": "145121373",
          "name": "P. Groot"
        },
        {
          "authorId": "1790356",
          "name": "T. Heskes"
        }
      ]
    },
    {
      "paperId": "31e2d3fff13d9504ff6231b11d7602d186f63e46",
      "externalIds": {
        "MAG": "2554229117",
        "DBLP": "conf/nips/YuanLZLL16",
        "CorpusId": 6126050
      },
      "url": "https://www.semanticscholar.org/paper/31e2d3fff13d9504ff6231b11d7602d186f63e46",
      "title": "Learning Additive Exponential Family Graphical Models via \\ell_{2, 1}-norm Regularized M-Estimation",
      "venue": "Neural Information Processing Systems",
      "year": 2016,
      "referenceCount": 29,
      "citationCount": 6,
      "authors": [
        {
          "authorId": "8515907",
          "name": "Xiaotong Yuan"
        },
        {
          "authorId": "144785135",
          "name": "Ping Li"
        },
        {
          "authorId": "49104973",
          "name": "Tong Zhang"
        },
        {
          "authorId": "48873988",
          "name": "Qingshan Liu"
        },
        {
          "authorId": "1990768",
          "name": "Guangcan Liu"
        }
      ]
    },
    {
      "paperId": "d915777070772ebaa94aae6380ce13469b7dd3bd",
      "externalIds": {
        "DBLP": "conf/nips/LiuHZ12",
        "MAG": "2170192946",
        "CorpusId": 17473865
      },
      "url": "https://www.semanticscholar.org/paper/d915777070772ebaa94aae6380ce13469b7dd3bd",
      "title": "Transelliptical Graphical Models",
      "venue": "Neural Information Processing Systems",
      "year": 2012,
      "referenceCount": 34,
      "citationCount": 93,
      "authors": [
        {
          "authorId": "49957601",
          "name": "Han Liu"
        },
        {
          "authorId": "49162465",
          "name": "Fang Han"
        },
        {
          "authorId": "153884534",
          "name": "Cun-Hui Zhang"
        }
      ]
    },
    {
      "paperId": "b769565643cc6c36d9d3cf5ba48bc15e5a3c4dea",
      "externalIds": {
        "ArXiv": "2403.02187",
        "DBLP": "conf/nips/ButakovTMNF24",
        "DOI": "10.48550/arXiv.2403.02187",
        "CorpusId": 268247846
      },
      "url": "https://www.semanticscholar.org/paper/b769565643cc6c36d9d3cf5ba48bc15e5a3c4dea",
      "title": "Mutual Information Estimation via Normalizing Flows",
      "venue": "Neural Information Processing Systems",
      "year": 2024,
      "referenceCount": 66,
      "citationCount": 20,
      "authors": [
        {
          "authorId": "2113656433",
          "name": "I. Butakov"
        },
        {
          "authorId": "2290012751",
          "name": "Alexander Tolmachev"
        },
        {
          "authorId": "2113661022",
          "name": "S. Malanchuk"
        },
        {
          "authorId": "2113653166",
          "name": "A. Neopryatnaya"
        },
        {
          "authorId": "2290009881",
          "name": "Alexey A. Frolov"
        }
      ]
    },
    {
      "paperId": "0fddbd22dc5ba2820b4930d05f4738ca2da3e8d2",
      "externalIds": {
        "ArXiv": "2305.20025",
        "DBLP": "conf/nips/LetiziaNT24",
        "DOI": "10.52202/079017-3338",
        "CorpusId": 258987486
      },
      "url": "https://www.semanticscholar.org/paper/0fddbd22dc5ba2820b4930d05f4738ca2da3e8d2",
      "title": "Mutual Information Estimation via f-Divergence and Data Derangements",
      "venue": "Neural Information Processing Systems",
      "year": 2023,
      "referenceCount": 33,
      "citationCount": 17,
      "authors": [
        {
          "authorId": "116305286",
          "name": "N. A. Letizia"
        },
        {
          "authorId": "1997394606",
          "name": "Nicola Novello"
        },
        {
          "authorId": "145890929",
          "name": "A. Tonello"
        }
      ]
    }
  ]
}