{
  "total": 267,
  "offset": 0,
  "next": 10,
  "data": [
    {
      "paperId": "b4c460410cdb5061a207c2eb5eff5c894e94de6e",
      "externalIds": {
        "MAG": "2170678468",
        "DBLP": "conf/icml/GanCHCC15",
        "CorpusId": 15154782
      },
      "url": "https://www.semanticscholar.org/paper/b4c460410cdb5061a207c2eb5eff5c894e94de6e",
      "title": "Scalable Deep Poisson Factor Analysis for Topic Modeling",
      "venue": "International Conference on Machine Learning",
      "year": 2015,
      "referenceCount": 48,
      "citationCount": 99,
      "authors": [
        {
          "authorId": "144702900",
          "name": "Zhe Gan"
        },
        {
          "authorId": "1752041",
          "name": "Changyou Chen"
        },
        {
          "authorId": "145153424",
          "name": "Ricardo Henao"
        },
        {
          "authorId": "144752689",
          "name": "David Edwin Carlson"
        },
        {
          "authorId": "145006560",
          "name": "L. Carin"
        }
      ]
    },
    {
      "paperId": "84aaef46ce66d8344aed66375d85b03e28dd1672",
      "externalIds": {
        "DBLP": "conf/nips/Wang00WWZ20",
        "MAG": "3103576111",
        "CorpusId": 227274817
      },
      "url": "https://www.semanticscholar.org/paper/84aaef46ce66d8344aed66375d85b03e28dd1672",
      "title": "Deep Relational Topic Modeling via Graph Poisson Gamma Belief Network",
      "venue": "Neural Information Processing Systems",
      "year": 2020,
      "referenceCount": 67,
      "citationCount": 20,
      "authors": [
        {
          "authorId": "2136111348",
          "name": "Chaojie Wang"
        },
        {
          "authorId": "2144612104",
          "name": "Hao Zhang"
        },
        {
          "authorId": "2152686890",
          "name": "Bo Chen"
        },
        {
          "authorId": "2111243103",
          "name": "Dongsheng Wang"
        },
        {
          "authorId": "20591669",
          "name": "Zhengjue Wang"
        },
        {
          "authorId": "38026572",
          "name": "Mingyuan Zhou"
        }
      ]
    },
    {
      "paperId": "c873e87dbccc13299989f2301288f5ce2f0c6bec",
      "externalIds": {
        "DBLP": "conf/nips/HenaoGLC15",
        "MAG": "2186080577",
        "CorpusId": 2473654
      },
      "url": "https://www.semanticscholar.org/paper/c873e87dbccc13299989f2301288f5ce2f0c6bec",
      "title": "Deep Poisson Factor Modeling",
      "venue": "Neural Information Processing Systems",
      "year": 2015,
      "referenceCount": 34,
      "citationCount": 34,
      "authors": [
        {
          "authorId": "145153424",
          "name": "Ricardo Henao"
        },
        {
          "authorId": "144702900",
          "name": "Zhe Gan"
        },
        {
          "authorId": "2110084777",
          "name": "James Lu"
        },
        {
          "authorId": "145006560",
          "name": "L. Carin"
        }
      ]
    },
    {
      "paperId": "086eb4f5dd985ce01c90a02b2430c20941ab6dc7",
      "externalIds": {
        "ArXiv": "2410.09696",
        "DBLP": "journals/corr/abs-2410-09696",
        "DOI": "10.48550/arXiv.2410.09696",
        "CorpusId": 273346478
      },
      "url": "https://www.semanticscholar.org/paper/086eb4f5dd985ce01c90a02b2430c20941ab6dc7",
      "title": "Scalable Weibull Graph Attention Autoencoder for Modeling Document Networks",
      "venue": "arXiv.org",
      "year": 2024,
      "referenceCount": 74,
      "citationCount": 0,
      "authors": [
        {
          "authorId": "2136111348",
          "name": "Chaojie Wang"
        },
        {
          "authorId": "2322607503",
          "name": "Xinyang Liu"
        },
        {
          "authorId": "2111243103",
          "name": "Dongsheng Wang"
        },
        {
          "authorId": "2144612104",
          "name": "Hao Zhang"
        },
        {
          "authorId": "2152686890",
          "name": "Bo Chen"
        },
        {
          "authorId": "2262091016",
          "name": "Mingyuan Zhou"
        }
      ]
    },
    {
      "paperId": "76400ff0fceeeaa9c8377fc362aa7ac96352c625",
      "externalIds": {
        "MAG": "2541242421",
        "DBLP": "journals/jmlr/HenaoLLFC16",
        "CorpusId": 15333800
      },
      "url": "https://www.semanticscholar.org/paper/76400ff0fceeeaa9c8377fc362aa7ac96352c625",
      "title": "Electronic Health Record Analysis via Deep Poisson Factor Models",
      "venue": "Journal of machine learning research",
      "year": 2016,
      "referenceCount": 65,
      "citationCount": 23,
      "authors": [
        {
          "authorId": "145153424",
          "name": "Ricardo Henao"
        },
        {
          "authorId": "2110084777",
          "name": "James Lu"
        },
        {
          "authorId": "1816731",
          "name": "J. Lucas"
        },
        {
          "authorId": "2204838",
          "name": "J. Ferranti"
        },
        {
          "authorId": "145006560",
          "name": "L. Carin"
        }
      ]
    },
    {
      "paperId": "f7a87ce48fae5f8bcdbb9756567b47f2e84ef012",
      "externalIds": {
        "DBLP": "journals/corr/Kung15",
        "ArXiv": "1512.05840",
        "MAG": "2221006823",
        "CorpusId": 7643560
      },
      "url": "https://www.semanticscholar.org/paper/f7a87ce48fae5f8bcdbb9756567b47f2e84ef012",
      "title": "Deep Poisson Factorization Machines: factor analysis for mapping behaviors in journalist ecosystem",
      "venue": "arXiv.org",
      "year": 2015,
      "referenceCount": 8,
      "citationCount": 0,
      "authors": [
        {
          "authorId": "32735204",
          "name": "Pau Perng-Hwa Kung"
        }
      ]
    },
    {
      "paperId": "b9c675297c77d68028c38c71ba9291f6a3ed68b5",
      "externalIds": {
        "CorpusId": 3889594
      },
      "url": "https://www.semanticscholar.org/paper/b9c675297c77d68028c38c71ba9291f6a3ed68b5",
      "title": "Deep Poisson Factorization Machines : a factor analysis model for mapping behaviors in journalist ecosystem",
      "venue": "",
      "year": 2015,
      "referenceCount": 0,
      "citationCount": 0,
      "authors": []
    },
    {
      "paperId": "fdceef14d277980060dd1e5086e366bb239e41e6",
      "externalIds": {
        "PubMedCentral": "11620471",
        "DOI": "10.1371/journal.pone.0313450",
        "CorpusId": 274525134,
        "PubMed": "39636809"
      },
      "url": "https://www.semanticscholar.org/paper/fdceef14d277980060dd1e5086e366bb239e41e6",
      "title": "What do part-time employees in Japanese chain restaurants talk about when dissatisfied? Applying Structural Topic Modeling to employee reviews",
      "venue": "PLoS ONE",
      "year": 2024,
      "referenceCount": 37,
      "citationCount": 1,
      "authors": [
        {
          "authorId": "2115369075",
          "name": "Hiroki Takahashi"
        }
      ]
    },
    {
      "paperId": "801bcc6a2386b4a1cf17754e42d9dac8a393b901",
      "externalIds": {
        "DOI": "10.3390/su17135756",
        "CorpusId": 279662684
      },
      "url": "https://www.semanticscholar.org/paper/801bcc6a2386b4a1cf17754e42d9dac8a393b901",
      "title": "Developing a Deep Learning-Based Sentiment Analysis System of Hotel Customer Reviews for Sustainable Tourism",
      "venue": "Sustainability",
      "year": 2025,
      "referenceCount": 72,
      "citationCount": 15,
      "authors": [
        {
          "authorId": "2223475194",
          "name": "Dilşad Erdoğan"
        },
        {
          "authorId": "2090071708",
          "name": "M. Kayakuş"
        },
        {
          "authorId": "2320638670",
          "name": "Pinar Çelik Çaylak"
        },
        {
          "authorId": "2274529237",
          "name": "Nisa Ekşili"
        },
        {
          "authorId": "89335161",
          "name": "G. Moiceanu"
        },
        {
          "authorId": "4946884",
          "name": "O. Kabas"
        },
        {
          "authorId": "2335946041",
          "name": "Mirona Ana Maria Ichimov"
        }
      ]
    },
    {
      "paperId": "01cd36f75e9f9390bd60f9c2a9bfc938e180c991",
      "externalIds": {
        "MAG": "2952298272",
        "DBLP": "journals/corr/CongCLZ17",
        "ArXiv": "1706.01724",
        "CorpusId": 3999202
      },
      "url": "https://www.semanticscholar.org/paper/01cd36f75e9f9390bd60f9c2a9bfc938e180c991",
      "title": "Deep Latent Dirichlet Allocation with Topic-Layer-Adaptive Stochastic Gradient Riemannian MCMC",
      "venue": "International Conference on Machine Learning",
      "year": 2017,
      "referenceCount": 51,
      "citationCount": 70,
      "authors": [
        {
          "authorId": "2147914",
          "name": "Yulai Cong"
        },
        {
          "authorId": "1801915",
          "name": "Bo Chen"
        },
        {
          "authorId": "1725627",
          "name": "Hongwei Liu"
        },
        {
          "authorId": "38026572",
          "name": "Mingyuan Zhou"
        }
      ]
    }
  ]
}