{
  "total": 30,
  "offset": 0,
  "next": 10,
  "data": [
    {
      "paperId": "4ba62eaaebf340b74e99d1bc0d6e547be1174cbf",
      "externalIds": {
        "MAG": "1854251030",
        "DBLP": "conf/icml/LiuY15",
        "CorpusId": 6145987
      },
      "url": "https://www.semanticscholar.org/paper/4ba62eaaebf340b74e99d1bc0d6e547be1174cbf",
      "title": "Bipartite Edge Prediction via Transductive Learning over Product Graphs",
      "venue": "International Conference on Machine Learning",
      "year": 2015,
      "referenceCount": 28,
      "citationCount": 23,
      "authors": [
        {
          "authorId": "2391802",
          "name": "Hanxiao Liu"
        },
        {
          "authorId": "35729970",
          "name": "Yiming Yang"
        }
      ]
    },
    {
      "paperId": "dc6c129222f63f7d76723833cde1b8d94c1a60d3",
      "externalIds": {
        "ArXiv": "2508.08071",
        "DBLP": "journals/corr/abs-2508-08071",
        "DOI": "10.48550/arXiv.2508.08071",
        "CorpusId": 280566929
      },
      "url": "https://www.semanticscholar.org/paper/dc6c129222f63f7d76723833cde1b8d94c1a60d3",
      "title": "C-MAG: Cascade Multimodal Attributed Graphs for Supply Chain Link Prediction",
      "venue": "arXiv.org",
      "year": 2025,
      "referenceCount": 50,
      "citationCount": 1,
      "authors": [
        {
          "authorId": "2291438142",
          "name": "Yunqing Li"
        },
        {
          "authorId": "2376476515",
          "name": "Zixiang Tang"
        },
        {
          "authorId": "2340090567",
          "name": "Jiaying Zhuang"
        },
        {
          "authorId": "2313915769",
          "name": "Zhenyu Yang"
        },
        {
          "authorId": "2291418751",
          "name": "Farhad Ameri"
        },
        {
          "authorId": "2375393631",
          "name": "Jianbang Zhang"
        }
      ]
    },
    {
      "paperId": "79b2c54f6a7bfaf92d749fc232185756cc8ba3dc",
      "externalIds": {
        "DBLP": "journals/tnn/YingLWY25",
        "DOI": "10.1109/TNNLS.2025.3540195",
        "CorpusId": 276653229,
        "PubMed": "40031652"
      },
      "url": "https://www.semanticscholar.org/paper/79b2c54f6a7bfaf92d749fc232185756cc8ba3dc",
      "title": "DNRHP: Temporal Network Representation Learning via Hawkes Point Process",
      "venue": "IEEE Transactions on Neural Networks and Learning Systems",
      "year": 2025,
      "referenceCount": 27,
      "citationCount": 0,
      "authors": [
        {
          "authorId": "2296956153",
          "name": "Changtian Ying"
        },
        {
          "authorId": "2146239882",
          "name": "Qi Li"
        },
        {
          "authorId": "2348355216",
          "name": "Chen Wang"
        },
        {
          "authorId": "9185972",
          "name": "Donghua Yu"
        }
      ]
    },
    {
      "paperId": "6704abb5318d7be59b6c808ead1f5bdfaa394ef7",
      "externalIds": {
        "DOI": "10.1117/12.3094342",
        "CorpusId": 286314723
      },
      "url": "https://www.semanticscholar.org/paper/6704abb5318d7be59b6c808ead1f5bdfaa394ef7",
      "title": "Few-shot learning via dual hypergraph graph convolutional representation",
      "venue": "International Conference on Graphic and Image Processing",
      "year": 2026,
      "referenceCount": 25,
      "citationCount": 0,
      "authors": [
        {
          "authorId": "2309678341",
          "name": "Hanli Yu"
        },
        {
          "authorId": "2107974274",
          "name": "Xixi Wang"
        },
        {
          "authorId": "2242966439",
          "name": "Zhengzheng Tu"
        },
        {
          "authorId": "2292335802",
          "name": "Bo Jiang"
        }
      ]
    },
    {
      "paperId": "471fb2360d401801421e2074efe62530288b19d2",
      "externalIds": {
        "ArXiv": "1601.01507",
        "MAG": "2950330604",
        "DBLP": "journals/tnn/AirolaP18",
        "DOI": "10.1109/TNNLS.2017.2727545",
        "CorpusId": 17332862,
        "PubMed": "28783645"
      },
      "url": "https://www.semanticscholar.org/paper/471fb2360d401801421e2074efe62530288b19d2",
      "title": "Fast Kronecker Product Kernel Methods via Generalized Vec Trick",
      "venue": "IEEE Transactions on Neural Networks and Learning Systems",
      "year": 2016,
      "referenceCount": 72,
      "citationCount": 25,
      "authors": [
        {
          "authorId": "1735715",
          "name": "A. Airola"
        },
        {
          "authorId": "1731090",
          "name": "T. Pahikkala"
        }
      ]
    },
    {
      "paperId": "5754fe19b33e0c392b7750dab4f1837fe129cb16",
      "externalIds": {
        "DBLP": "conf/bcb/ChenGEL21",
        "DOI": "10.1145/3459930.3469505",
        "CorpusId": 236519337
      },
      "url": "https://www.semanticscholar.org/paper/5754fe19b33e0c392b7750dab4f1837fe129cb16",
      "title": "Gene-disease-drug link prediction using tripartite graphs",
      "venue": "ACM International Conference on Bioinformatics, Computational Biology and Biomedicine",
      "year": 2021,
      "referenceCount": 5,
      "citationCount": 1,
      "authors": [
        {
          "authorId": "2145774458",
          "name": "Cheng Chen"
        },
        {
          "authorId": "2070123869",
          "name": "S. Grady"
        },
        {
          "authorId": "145685049",
          "name": "Sally R. Ellingson"
        },
        {
          "authorId": "1739601",
          "name": "M. Langston"
        }
      ]
    },
    {
      "paperId": "fe38422bcfc5c9f4d9e7138bf1809d8537529a1a",
      "externalIds": {
        "DOI": "10.1109/CISES66934.2025.11265137",
        "CorpusId": 283570602
      },
      "url": "https://www.semanticscholar.org/paper/fe38422bcfc5c9f4d9e7138bf1809d8537529a1a",
      "title": "AI-Enhanced Drug Repurposing: A Graph Neural Network and Self-Supervised Learning Framework",
      "venue": "2025 International Conference on Intelligent and Secure Engineering Solutions (CISES)",
      "year": 2025,
      "referenceCount": 22,
      "citationCount": 0,
      "authors": [
        {
          "authorId": "9224965",
          "name": "H. Sabrol"
        },
        {
          "authorId": "2309338375",
          "name": "Revanth Madamala"
        },
        {
          "authorId": "2370261878",
          "name": "Sudhir Arora"
        },
        {
          "authorId": "2396513084",
          "name": "Deepti Raut"
        },
        {
          "authorId": "46960760",
          "name": "K. Tejaswi"
        }
      ]
    },
    {
      "paperId": "46ef9db738cae4491b590ea68f73dce0f077bb10",
      "externalIds": {
        "ArXiv": "2006.04637",
        "MAG": "3034082377",
        "DBLP": "journals/corr/abs-2006-04637",
        "CorpusId": 219530687
      },
      "url": "https://www.semanticscholar.org/paper/46ef9db738cae4491b590ea68f73dce0f077bb10",
      "title": "Graph Representation Learning Network via Adaptive Sampling",
      "venue": "arXiv.org",
      "year": 2020,
      "referenceCount": 31,
      "citationCount": 0,
      "authors": [
        {
          "authorId": "50605285",
          "name": "Anderson de Andrade"
        },
        {
          "authorId": "143876027",
          "name": "Chen Cecilia Liu"
        }
      ]
    },
    {
      "paperId": "2e707cfe9fb863af4f75e3a6f9209d34d738a16f",
      "externalIds": {
        "MAG": "2400851544",
        "DBLP": "conf/sdm/WangVM12",
        "DOI": "10.1137/1.9781611972825.94",
        "CorpusId": 316257
      },
      "url": "https://www.semanticscholar.org/paper/2e707cfe9fb863af4f75e3a6f9209d34d738a16f",
      "title": "Legislative Prediction via Random Walks over a Heterogeneous Graph",
      "venue": "SDM",
      "year": 2012,
      "referenceCount": 40,
      "citationCount": 14,
      "authors": [
        {
          "authorId": "2152810321",
          "name": "Jun Wang"
        },
        {
          "authorId": "1712865",
          "name": "Kush R. Varshney"
        },
        {
          "authorId": "144053687",
          "name": "A. Mojsilovic"
        }
      ]
    },
    {
      "paperId": "f1e5e65941617604923225cc4bf464e370fcae67",
      "externalIds": {
        "MAG": "3097264851",
        "DBLP": "conf/iclr/HuangHSLB21",
        "ArXiv": "2010.13993",
        "CorpusId": 225075866
      },
      "url": "https://www.semanticscholar.org/paper/f1e5e65941617604923225cc4bf464e370fcae67",
      "title": "Combining Label Propagation and Simple Models Out-performs Graph Neural Networks",
      "venue": "International Conference on Learning Representations",
      "year": 2020,
      "referenceCount": 59,
      "citationCount": 320,
      "authors": [
        {
          "authorId": "144862341",
          "name": "Qian Huang"
        },
        {
          "authorId": "46350295",
          "name": "Horace He"
        },
        {
          "authorId": "50286275",
          "name": "Abhay Singh"
        },
        {
          "authorId": "38760573",
          "name": "Ser-Nam Lim"
        },
        {
          "authorId": "3245681",
          "name": "Austin R. Benson"
        }
      ]
    }
  ]
}