{
  "total": 6171,
  "offset": 0,
  "next": 10,
  "data": [
    {
      "paperId": "c43bba87b4237a93d96b2a3e91da25d91fd0bb91",
      "externalIds": {
        "MAG": "2796284132",
        "DBLP": "journals/corr/abs-1804-02477",
        "ArXiv": "1804.02477",
        "CorpusId": 4712980
      },
      "url": "https://www.semanticscholar.org/paper/c43bba87b4237a93d96b2a3e91da25d91fd0bb91",
      "title": "Programmatically Interpretable Reinforcement Learning",
      "venue": "International Conference on Machine Learning",
      "year": 2018,
      "referenceCount": 41,
      "citationCount": 392,
      "authors": [
        {
          "authorId": "2973529",
          "name": "Abhinav Verma"
        },
        {
          "authorId": "32269195",
          "name": "V. Murali"
        },
        {
          "authorId": "50631599",
          "name": "Rishabh Singh"
        },
        {
          "authorId": "143967473",
          "name": "Pushmeet Kohli"
        },
        {
          "authorId": "35865989",
          "name": "Swarat Chaudhuri"
        }
      ]
    },
    {
      "paperId": "2e66836a861801b7b88a6f9df3ed70bfbbbe68d8",
      "externalIds": {
        "CorpusId": 198180636
      },
      "url": "https://www.semanticscholar.org/paper/2e66836a861801b7b88a6f9df3ed70bfbbbe68d8",
      "title": "L G ] 1 0 A pr 2 01 9 Programmatically Interpretable Reinforcement Learning",
      "venue": "",
      "year": 2019,
      "referenceCount": 27,
      "citationCount": 0,
      "authors": [
        {
          "authorId": "48124707",
          "name": "A. Verma"
        },
        {
          "authorId": "2099016329",
          "name": "VijayaraghavanMurali"
        },
        {
          "authorId": "50631599",
          "name": "Rishabh Singh"
        },
        {
          "authorId": "143967473",
          "name": "Pushmeet Kohli"
        },
        {
          "authorId": "35865989",
          "name": "Swarat Chaudhuri"
        }
      ]
    },
    {
      "paperId": "bfd28bc816e532629a04022a1915ca9dfcc7c264",
      "externalIds": {
        "CorpusId": 53500310
      },
      "url": "https://www.semanticscholar.org/paper/bfd28bc816e532629a04022a1915ca9dfcc7c264",
      "title": "Appendix : Programmatically Interpretable Reinforcement Learning",
      "venue": "",
      "year": 2018,
      "referenceCount": 0,
      "citationCount": 0,
      "authors": []
    },
    {
      "paperId": "77b2b707bc416293053d4244d57a035b78444e80",
      "externalIds": {
        "DBLP": "conf/iclr/QiuZ22",
        "CorpusId": 251648901
      },
      "url": "https://www.semanticscholar.org/paper/77b2b707bc416293053d4244d57a035b78444e80",
      "title": "Programmatic Reinforcement Learning without Oracles",
      "venue": "International Conference on Learning Representations",
      "year": 2022,
      "referenceCount": 56,
      "citationCount": 42,
      "authors": [
        {
          "authorId": "2057145836",
          "name": "Wenjie Qiu"
        },
        {
          "authorId": "47297198",
          "name": "He Zhu"
        }
      ]
    },
    {
      "paperId": "27056e49f0ffc29f23ad6b120cbce9f3b6bce071",
      "externalIds": {
        "DBLP": "journals/corr/abs-2308-02729",
        "ArXiv": "2308.02729",
        "DOI": "10.48550/arXiv.2308.02729",
        "CorpusId": 260682446
      },
      "url": "https://www.semanticscholar.org/paper/27056e49f0ffc29f23ad6b120cbce9f3b6bce071",
      "title": "Synthesizing Programmatic Policies with Actor-Critic Algorithms and ReLU Networks",
      "venue": "arXiv.org",
      "year": 2023,
      "referenceCount": 37,
      "citationCount": 6,
      "authors": [
        {
          "authorId": "40694770",
          "name": "S. Orfanos"
        },
        {
          "authorId": "2324546",
          "name": "Levi H. S. Lelis"
        }
      ]
    },
    {
      "paperId": "0f498fea75b6ffc2717b2407820612443bc575b5",
      "externalIds": {
        "DOI": "10.1609/aies.v8i2.36668",
        "CorpusId": 282173496
      },
      "url": "https://www.semanticscholar.org/paper/0f498fea75b6ffc2717b2407820612443bc575b5",
      "title": "Aligning Agent Policies with Preferences: Human-Centered Interpretable Reinforcement Learning",
      "venue": "Proceedings of the AAAI/ACM Conference on AI, Ethics, and Society",
      "year": 2025,
      "referenceCount": 0,
      "citationCount": 1,
      "authors": [
        {
          "authorId": "2310824103",
          "name": "Stephanie Milani"
        },
        {
          "authorId": "2300801323",
          "name": "Zhicheng Zhang"
        },
        {
          "authorId": "34887814",
          "name": "Nicholay Topin"
        },
        {
          "authorId": "2284049248",
          "name": "Lirong Xia"
        },
        {
          "authorId": "2303844773",
          "name": "Fei Fang"
        }
      ]
    },
    {
      "paperId": "74884d4e896176f135cac643c3e33e732cd1da25",
      "externalIds": {
        "ArXiv": "2503.08322",
        "DBLP": "journals/corr/abs-2503-08322",
        "DOI": "10.48550/arXiv.2503.08322",
        "CorpusId": 276929286
      },
      "url": "https://www.semanticscholar.org/paper/74884d4e896176f135cac643c3e33e732cd1da25",
      "title": "Evaluating Interpretable Reinforcement Learning by Distilling Policies into Programs",
      "venue": "arXiv.org",
      "year": 2025,
      "referenceCount": 50,
      "citationCount": 1,
      "authors": [
        {
          "authorId": "2193697009",
          "name": "Hector Kohler"
        },
        {
          "authorId": "2051175030",
          "name": "Quentin Delfosse"
        },
        {
          "authorId": "2187299844",
          "name": "Waris Radji"
        },
        {
          "authorId": "1688702",
          "name": "R. Akrour"
        },
        {
          "authorId": "2244619702",
          "name": "Philippe Preux"
        }
      ]
    },
    {
      "paperId": "567efa82fe95891d7d1e27cd3656e6bd2d7050dd",
      "externalIds": {
        "DBLP": "journals/algorithms/ZhaoJYWYZ25",
        "DOI": "10.3390/a18070427",
        "CorpusId": 280120232
      },
      "url": "https://www.semanticscholar.org/paper/567efa82fe95891d7d1e27cd3656e6bd2d7050dd",
      "title": "Interpretable Reinforcement Learning for Sequential Strategy Prediction in Language-Based Games",
      "venue": "Algorithms",
      "year": 2025,
      "referenceCount": 20,
      "citationCount": 1,
      "authors": [
        {
          "authorId": "2333739514",
          "name": "Jun Zhao"
        },
        {
          "authorId": "2374297574",
          "name": "Jintian Ji"
        },
        {
          "authorId": "9165064",
          "name": "R. Yasrab"
        },
        {
          "authorId": "2373518681",
          "name": "Shuxin Wang"
        },
        {
          "authorId": "2404006827",
          "name": "Liang Yu"
        },
        {
          "authorId": "2289195021",
          "name": "Lingzhen Zhao"
        }
      ]
    },
    {
      "paperId": "1dea5220c1a71763b8833694773ad4b89a26d1ca",
      "externalIds": {
        "DBLP": "conf/ifaamas/YangYBW25",
        "DOI": "10.5555/3709347.3743863",
        "CorpusId": 280336864
      },
      "url": "https://www.semanticscholar.org/paper/1dea5220c1a71763b8833694773ad4b89a26d1ca",
      "title": "Self-Interpretable Reinforcement Learning via Rule Ensembles",
      "venue": "Adaptive Agents and Multi-Agent Systems",
      "year": 2025,
      "referenceCount": 26,
      "citationCount": 1,
      "authors": [
        {
          "authorId": "2331903795",
          "name": "Yue Yang"
        },
        {
          "authorId": "2362966852",
          "name": "Fan Yang"
        },
        {
          "authorId": "2141377507",
          "name": "Yu Bai"
        },
        {
          "authorId": "2290063252",
          "name": "Hao Wang"
        }
      ]
    },
    {
      "paperId": "bf34500dc5c769bb28fd817a6d984fb22ff7d9ff",
      "externalIds": {
        "DBLP": "conf/aaai/GuZLGLZ24",
        "DOI": "10.1609/aaai.v38i19.30103",
        "CorpusId": 268701187
      },
      "url": "https://www.semanticscholar.org/paper/bf34500dc5c769bb28fd817a6d984fb22ff7d9ff",
      "title": "π-Light: Programmatic Interpretable Reinforcement Learning for Resource-Limited Traffic Signal Control",
      "venue": "AAAI Conference on Artificial Intelligence",
      "year": 2024,
      "referenceCount": 37,
      "citationCount": 16,
      "authors": [
        {
          "authorId": "2215748358",
          "name": "Yin Gu"
        },
        {
          "authorId": "2287962110",
          "name": "Kai Zhang"
        },
        {
          "authorId": "2293776102",
          "name": "Qi Liu"
        },
        {
          "authorId": "8361099",
          "name": "Weibo Gao"
        },
        {
          "authorId": "2238177474",
          "name": "Longfei Li"
        },
        {
          "authorId": "2290961452",
          "name": "Jun Zhou"
        }
      ]
    }
  ]
}