{
  "total": 193,
  "offset": 0,
  "next": 10,
  "data": [
    {
      "paperId": "fb9693183bc74568c72188431c18cb2b07c87213",
      "externalIds": {
        "MAG": "2789740610",
        "ArXiv": "1803.00590",
        "DBLP": "conf/icml/0001JADYD18",
        "CorpusId": 3694591
      },
      "url": "https://www.semanticscholar.org/paper/fb9693183bc74568c72188431c18cb2b07c87213",
      "title": "Hierarchical Imitation and Reinforcement Learning",
      "venue": "International Conference on Machine Learning",
      "year": 2018,
      "referenceCount": 38,
      "citationCount": 215,
      "authors": [
        {
          "authorId": "145000658",
          "name": "Hoang Minh Le"
        },
        {
          "authorId": "48272707",
          "name": "Nan Jiang"
        },
        {
          "authorId": "40333747",
          "name": "Alekh Agarwal"
        },
        {
          "authorId": "144652072",
          "name": "Miroslav Dudík"
        },
        {
          "authorId": "1740159",
          "name": "Yisong Yue"
        },
        {
          "authorId": "1722360",
          "name": "Hal Daumé"
        }
      ]
    },
    {
      "paperId": "b9e4bccd2e69132af961fceeb51d418ee106e3ff",
      "externalIds": {
        "ArXiv": "2012.07330",
        "DBLP": "journals/corr/abs-2012-07330",
        "MAG": "3111828986",
        "CorpusId": 229152942
      },
      "url": "https://www.semanticscholar.org/paper/b9e4bccd2e69132af961fceeb51d418ee106e3ff",
      "title": "Active Hierarchical Imitation and Reinforcement Learning",
      "venue": "arXiv.org",
      "year": 2020,
      "referenceCount": 27,
      "citationCount": 1,
      "authors": [
        {
          "authorId": "11874816",
          "name": "Yaru Niu"
        },
        {
          "authorId": "2112579190",
          "name": "Yijun Gu"
        }
      ]
    },
    {
      "paperId": "828f22553211cca198ec49e8e60e1b6bb1850173",
      "externalIds": {
        "DBLP": "phd/hal/Cordier23",
        "DOI": "10.70675/adf2c39ez8defz4141zb881za965257b5640",
        "CorpusId": 270925203
      },
      "url": "https://www.semanticscholar.org/paper/828f22553211cca198ec49e8e60e1b6bb1850173",
      "title": "Imitation hiérarchique et apprentissage par renforcement pour les systèmes de dialogue orientés tâches multi-domaines. (Hierarchical imitation and reinforcement learning for multi-domain Task-Oriented dialogue systems)",
      "venue": "",
      "year": 2023,
      "referenceCount": 0,
      "citationCount": 0,
      "authors": [
        {
          "authorId": "2034016941",
          "name": "Thibault Cordier"
        }
      ]
    },
    {
      "paperId": "8c54e8575e7c17a4097838305915e6e7b00fd4af",
      "externalIds": {
        "DBLP": "journals/corr/abs-1910-11956",
        "MAG": "2981701630",
        "ArXiv": "1910.11956",
        "CorpusId": 204955905
      },
      "url": "https://www.semanticscholar.org/paper/8c54e8575e7c17a4097838305915e6e7b00fd4af",
      "title": "Relay Policy Learning: Solving Long-Horizon Tasks via Imitation and Reinforcement Learning",
      "venue": "Conference on Robot Learning",
      "year": 2019,
      "referenceCount": 37,
      "citationCount": 535,
      "authors": [
        {
          "authorId": "2129458064",
          "name": "Abhishek Gupta"
        },
        {
          "authorId": "2109446216",
          "name": "Vikash Kumar"
        },
        {
          "authorId": "32245472",
          "name": "Corey Lynch"
        },
        {
          "authorId": "1736651",
          "name": "S. Levine"
        },
        {
          "authorId": "1944801",
          "name": "Karol Hausman"
        }
      ]
    },
    {
      "paperId": "948a154ecd7c0142e14a148f7a8e91eef5365440",
      "externalIds": {
        "DOI": "10.1109/IECON58223.2025.11221104",
        "CorpusId": 282824883
      },
      "url": "https://www.semanticscholar.org/paper/948a154ecd7c0142e14a148f7a8e91eef5365440",
      "title": "Obstacle Avoidance Control Design Using Imitation and Reinforcement Learning for Two-Wheeled Robot with A Stereo Camera",
      "venue": "Annual Conference of the IEEE Industrial Electronics Society",
      "year": 2025,
      "referenceCount": 38,
      "citationCount": 0,
      "authors": [
        {
          "authorId": "2275459680",
          "name": "Koichi Hidaka"
        }
      ]
    },
    {
      "paperId": "804109c571e2bd2af18cb3911704fc647424adf5",
      "externalIds": {
        "DOI": "10.65286/icic.v21i4.56438",
        "CorpusId": 282949991
      },
      "url": "https://www.semanticscholar.org/paper/804109c571e2bd2af18cb3911704fc647424adf5",
      "title": "Bidirectional Decoding Collaborating with Hierarchical Imitation for Long-Horizon Task Learning",
      "venue": "Poster Volume Ⅳ  The 2025 Twenty-First International  Conference on Intelligent Computing July 26-29, 2025  Ningbo, China",
      "year": 2025,
      "referenceCount": 0,
      "citationCount": 0,
      "authors": [
        {
          "authorId": "2303392678",
          "name": "Faquan Zhang"
        }
      ]
    },
    {
      "paperId": "71f266db403d69daf6c23b6062783315043fe032",
      "externalIds": {
        "DBLP": "journals/jrm/HanYO24",
        "DOI": "10.20965/jrm.2024.p0538",
        "CorpusId": 270650594
      },
      "url": "https://www.semanticscholar.org/paper/71f266db403d69daf6c23b6062783315043fe032",
      "title": "Collective Transport Behavior in a Robotic Swarm with Hierarchical Imitation Learning",
      "venue": "J. Robotics Mechatronics",
      "year": 2024,
      "referenceCount": 9,
      "citationCount": 1,
      "authors": [
        {
          "authorId": "2261026818",
          "name": "Ziyao Han"
        },
        {
          "authorId": "2307671702",
          "name": "Fan Yi"
        },
        {
          "authorId": "2255620696",
          "name": "Kazuhiro Ohkura"
        }
      ]
    },
    {
      "paperId": "abe78d1b68f8d797a60cfa03950c063d24545441",
      "externalIds": {
        "DBLP": "journals/eaai/ZhangZYCS25",
        "DOI": "10.1016/j.engappai.2025.112214",
        "CorpusId": 281912566
      },
      "url": "https://www.semanticscholar.org/paper/abe78d1b68f8d797a60cfa03950c063d24545441",
      "title": "A Hierarchical Reinforcement Learning framework with imitation learning and Bayesian Actor-Critic for distributed Unmanned Underwater Vehicle encirclement in dynamic maritime environments",
      "venue": "Engineering applications of artificial intelligence",
      "year": 2025,
      "referenceCount": 31,
      "citationCount": 1,
      "authors": [
        {
          "authorId": "2376017173",
          "name": "Hanbin Zhang"
        },
        {
          "authorId": "2066321233",
          "name": "Wenchuan Zang"
        },
        {
          "authorId": "2099668119",
          "name": "Peng Yao"
        },
        {
          "authorId": "2375918038",
          "name": "Jiangli Cao"
        },
        {
          "authorId": "2379730845",
          "name": "Dalei Song"
        }
      ]
    },
    {
      "paperId": "329d809a69eada0521da1b536bb9db9348d51868",
      "externalIds": {
        "DBLP": "journals/corr/abs-2301-12962",
        "ArXiv": "2301.12962",
        "DOI": "10.48550/arXiv.2301.12962",
        "CorpusId": 256389524
      },
      "url": "https://www.semanticscholar.org/paper/329d809a69eada0521da1b536bb9db9348d51868",
      "title": "Hierarchical Imitation Learning with Vector Quantized Models",
      "venue": "International Conference on Machine Learning",
      "year": 2023,
      "referenceCount": 73,
      "citationCount": 17,
      "authors": [
        {
          "authorId": "2131413735",
          "name": "Kalle Kujanpää"
        },
        {
          "authorId": "34906504",
          "name": "J. Pajarinen"
        },
        {
          "authorId": "2130303892",
          "name": "A. Ilin"
        }
      ]
    },
    {
      "paperId": "0cb8f3303b6fc62eddfe785b1d05202faf730096",
      "externalIds": {
        "ArXiv": "2512.14031",
        "DBLP": "journals/corr/abs-2512-14031",
        "DOI": "10.1061/JCCEE5/CPENG-7696",
        "CorpusId": 283909533
      },
      "url": "https://www.semanticscholar.org/paper/0cb8f3303b6fc62eddfe785b1d05202faf730096",
      "title": "Sample-Efficient Robot Skill Learning for Construction Tasks: Benchmarking Hierarchical Reinforcement Learning and Vision-Language-Action VLA Model",
      "venue": "arXiv.org",
      "year": 2025,
      "referenceCount": 60,
      "citationCount": 0,
      "authors": [
        {
          "authorId": "2373780352",
          "name": "Zhaofeng Hu"
        },
        {
          "authorId": "14878579",
          "name": "Hongrui Yu"
        },
        {
          "authorId": "2398903507",
          "name": "Vaidhyanathan Chandramouli"
        },
        {
          "authorId": "2374118431",
          "name": "Ci-Jyun Liang"
        }
      ]
    }
  ]
}