{
  "total": 2678,
  "offset": 0,
  "next": 10,
  "data": [
    {
      "paperId": "63ededacd697c68b8f98288294a5dbb3f37078e0",
      "externalIds": {
        "MAG": "2805523728",
        "DBLP": "conf/icml/PuMSK18",
        "CorpusId": 46950547
      },
      "url": "https://www.semanticscholar.org/paper/63ededacd697c68b8f98288294a5dbb3f37078e0",
      "title": "Selecting Representative Examples for Program Synthesis",
      "venue": "International Conference on Machine Learning",
      "year": 2017,
      "referenceCount": 26,
      "citationCount": 24,
      "authors": [
        {
          "authorId": "2155555",
          "name": "Yewen Pu"
        },
        {
          "authorId": "21720301",
          "name": "Zachery Miranda"
        },
        {
          "authorId": "1389870240",
          "name": "Armando Solar-Lezama"
        },
        {
          "authorId": "1709512",
          "name": "L. Kaelbling"
        }
      ]
    },
    {
      "paperId": "67972ea5039b5cf9c9aa6dc3df26866ac97aae8b",
      "externalIds": {
        "MAG": "2796428051",
        "CorpusId": 196008483
      },
      "url": "https://www.semanticscholar.org/paper/67972ea5039b5cf9c9aa6dc3df26866ac97aae8b",
      "title": "Discovering Representative Examples for Program Synthesis",
      "venue": "International Conference on Machine Learning",
      "year": 2018,
      "referenceCount": 14,
      "citationCount": 0,
      "authors": [
        {
          "authorId": "2155555",
          "name": "Yewen Pu"
        },
        {
          "authorId": "21720301",
          "name": "Zachery Miranda"
        },
        {
          "authorId": "1389870240",
          "name": "Armando Solar-Lezama"
        },
        {
          "authorId": "1709512",
          "name": "L. Kaelbling"
        }
      ]
    },
    {
      "paperId": "ca543785f2dd98aa15e63b354ca604f69a719ba9",
      "externalIds": {
        "DOI": "10.1117/12.2684635",
        "CorpusId": 264349557
      },
      "url": "https://www.semanticscholar.org/paper/ca543785f2dd98aa15e63b354ca604f69a719ba9",
      "title": "Focusing on representative examples for inductive program synthesis",
      "venue": "Other Conferences",
      "year": 2023,
      "referenceCount": 16,
      "citationCount": 0,
      "authors": [
        {
          "authorId": "2128731849",
          "name": "Congyi Yang"
        },
        {
          "authorId": "2260647625",
          "name": "Quansheng Dou"
        }
      ]
    },
    {
      "paperId": "956c52bf738517a8827f63be976e1291750e0ebc",
      "externalIds": {
        "DBLP": "journals/corr/abs-1711-03243",
        "MAG": "2768060368",
        "ArXiv": "1711.03243",
        "CorpusId": 36971819
      },
      "url": "https://www.semanticscholar.org/paper/956c52bf738517a8827f63be976e1291750e0ebc",
      "title": "Learning to select examples for program synthesis",
      "venue": "arXiv.org",
      "year": 2017,
      "referenceCount": 23,
      "citationCount": 2,
      "authors": [
        {
          "authorId": "2155555",
          "name": "Yewen Pu"
        },
        {
          "authorId": "21720301",
          "name": "Zachery Miranda"
        },
        {
          "authorId": "1389870240",
          "name": "Armando Solar-Lezama"
        },
        {
          "authorId": "1709512",
          "name": "L. Kaelbling"
        }
      ]
    },
    {
      "paperId": "d1b79dc678365c94a8ebdd0015efc154cb482a90",
      "externalIds": {
        "MAG": "2996371335",
        "DBLP": "conf/iclr/LaichBV20",
        "CorpusId": 212979047
      },
      "url": "https://www.semanticscholar.org/paper/d1b79dc678365c94a8ebdd0015efc154cb482a90",
      "title": "Guiding Program Synthesis by Learning to Generate Examples",
      "venue": "International Conference on Learning Representations",
      "year": 2020,
      "referenceCount": 46,
      "citationCount": 17,
      "authors": [
        {
          "authorId": "3139550",
          "name": "Larissa Laich"
        },
        {
          "authorId": "1689140",
          "name": "Pavol Bielik"
        },
        {
          "authorId": "1736447",
          "name": "Martin T. Vechev"
        }
      ]
    },
    {
      "paperId": "6127036c04775ae02a0a1beb95865eca671bd7ed",
      "externalIds": {
        "DBLP": "journals/corr/abs-2509-17393",
        "ArXiv": "2509.17393",
        "DOI": "10.48550/arXiv.2509.17393",
        "CorpusId": 281420236
      },
      "url": "https://www.semanticscholar.org/paper/6127036c04775ae02a0a1beb95865eca671bd7ed",
      "title": "Program Synthesis via Test-Time Transduction",
      "venue": "arXiv.org",
      "year": 2025,
      "referenceCount": 51,
      "citationCount": 1,
      "authors": [
        {
          "authorId": "2219388579",
          "name": "Kang-il Lee"
        },
        {
          "authorId": "2266840852",
          "name": "Jahyun Koo"
        },
        {
          "authorId": "144517919",
          "name": "Seunghyun Yoon"
        },
        {
          "authorId": "2250540",
          "name": "Minbeom Kim"
        },
        {
          "authorId": "2212319558",
          "name": "Hyukhun Koh"
        },
        {
          "authorId": "1709263",
          "name": "Dongryeol Lee"
        },
        {
          "authorId": "2269738216",
          "name": "Kyomin Jung"
        }
      ]
    },
    {
      "paperId": "cfabb2aa4dd5f81c1f5a546adafc924f52a8a8bb",
      "externalIds": {
        "DBLP": "journals/corr/abs-2006-12638",
        "MAG": "3036888323",
        "ArXiv": "2006.12638",
        "CorpusId": 219980632
      },
      "url": "https://www.semanticscholar.org/paper/cfabb2aa4dd5f81c1f5a546adafc924f52a8a8bb",
      "title": "Information-theoretic User Interaction: Significant Inputs for Program Synthesis",
      "venue": "arXiv.org",
      "year": 2020,
      "referenceCount": 39,
      "citationCount": 3,
      "authors": [
        {
          "authorId": "145219494",
          "name": "A. Tiwari"
        },
        {
          "authorId": "93750354",
          "name": "Arjun Radhakrishna"
        },
        {
          "authorId": "2108314",
          "name": "Sumit Gulwani"
        },
        {
          "authorId": "39513661",
          "name": "Daniel Perelman"
        }
      ]
    },
    {
      "paperId": "e93cb6cb9a88c923ad30ff13f90db4906e55a1db",
      "externalIds": {
        "ArXiv": "2604.08792",
        "DOI": "10.1145/3808279",
        "CorpusId": 287351575
      },
      "url": "https://www.semanticscholar.org/paper/e93cb6cb9a88c923ad30ff13f90db4906e55a1db",
      "title": "Choose, Don't Label: Multiple-Choice Query Synthesis for Program Disambiguation",
      "venue": "",
      "year": 2026,
      "referenceCount": 55,
      "citationCount": 0,
      "authors": [
        {
          "authorId": "144328108",
          "name": "Celeste Barnaby"
        },
        {
          "authorId": "2366019795",
          "name": "Daniel Ding"
        },
        {
          "authorId": "1697444",
          "name": "O. Bastani"
        },
        {
          "authorId": "1714075",
          "name": "Işıl Dillig"
        }
      ]
    },
    {
      "paperId": "93b9c18e5e4924f793241bb0fc359741032c9ff6",
      "externalIds": {
        "DBLP": "conf/pldi/ChenL0DBD21",
        "ArXiv": "2104.07162",
        "DOI": "10.1145/3453483.3454047",
        "CorpusId": 233240806
      },
      "url": "https://www.semanticscholar.org/paper/93b9c18e5e4924f793241bb0fc359741032c9ff6",
      "title": "Web question answering with neurosymbolic program synthesis",
      "venue": "ACM-SIGPLAN Symposium on Programming Language Design and Implementation",
      "year": 2021,
      "referenceCount": 65,
      "citationCount": 32,
      "authors": [
        {
          "authorId": "2146378324",
          "name": "Qiaochu Chen"
        },
        {
          "authorId": "2077429499",
          "name": "Aaron Lamoreaux"
        },
        {
          "authorId": "2115553121",
          "name": "Xinyu Wang"
        },
        {
          "authorId": "1814094",
          "name": "Greg Durrett"
        },
        {
          "authorId": "1697444",
          "name": "O. Bastani"
        },
        {
          "authorId": "1714075",
          "name": "Işıl Dillig"
        }
      ]
    },
    {
      "paperId": "d97b35bee3611d6d61ffa8e22d58e4c3503ff1d0",
      "externalIds": {
        "DOI": "10.1039/d4cc06306f",
        "CorpusId": 276369986,
        "PubMed": "39967497"
      },
      "url": "https://www.semanticscholar.org/paper/d97b35bee3611d6d61ffa8e22d58e4c3503ff1d0",
      "title": "Navigating electrochemical oxidative functionalization of olefins: selected mechanistic and synthetic examples.",
      "venue": "Chemical Communications",
      "year": 2025,
      "referenceCount": 0,
      "citationCount": 1,
      "authors": [
        {
          "authorId": "2296761684",
          "name": "Chun Qi"
        },
        {
          "authorId": "1573456649",
          "name": "Marharyta Laktsevich-Iskryk"
        },
        {
          "authorId": "50861136",
          "name": "D. Mazzarella"
        }
      ]
    }
  ]
}