{
  "total": 16,
  "offset": 0,
  "next": 10,
  "data": [
    {
      "paperId": "b4c460410cdb5061a207c2eb5eff5c894e94de6e",
      "externalIds": {
        "MAG": "2170678468",
        "DBLP": "conf/icml/GanCHCC15",
        "CorpusId": 15154782
      },
      "url": "https://www.semanticscholar.org/paper/b4c460410cdb5061a207c2eb5eff5c894e94de6e",
      "title": "Scalable Deep Poisson Factor Analysis for Topic Modeling",
      "venue": "International Conference on Machine Learning",
      "year": 2015,
      "referenceCount": 48,
      "citationCount": 98,
      "authors": [
        {
          "authorId": "144702900",
          "name": "Zhe Gan"
        },
        {
          "authorId": "1752041",
          "name": "Changyou Chen"
        },
        {
          "authorId": "145153424",
          "name": "Ricardo Henao"
        },
        {
          "authorId": "144752689",
          "name": "David Edwin Carlson"
        },
        {
          "authorId": "145006560",
          "name": "L. Carin"
        }
      ]
    },
    {
      "paperId": "c873e87dbccc13299989f2301288f5ce2f0c6bec",
      "externalIds": {
        "DBLP": "conf/nips/HenaoGLC15",
        "MAG": "2186080577",
        "CorpusId": 2473654
      },
      "url": "https://www.semanticscholar.org/paper/c873e87dbccc13299989f2301288f5ce2f0c6bec",
      "title": "Deep Poisson Factor Modeling",
      "venue": "Neural Information Processing Systems",
      "year": 2015,
      "referenceCount": 34,
      "citationCount": 34,
      "authors": [
        {
          "authorId": "145153424",
          "name": "Ricardo Henao"
        },
        {
          "authorId": "144702900",
          "name": "Zhe Gan"
        },
        {
          "authorId": "2110084777",
          "name": "James Lu"
        },
        {
          "authorId": "145006560",
          "name": "L. Carin"
        }
      ]
    },
    {
      "paperId": "f7a87ce48fae5f8bcdbb9756567b47f2e84ef012",
      "externalIds": {
        "DBLP": "journals/corr/Kung15",
        "ArXiv": "1512.05840",
        "MAG": "2221006823",
        "CorpusId": 7643560
      },
      "url": "https://www.semanticscholar.org/paper/f7a87ce48fae5f8bcdbb9756567b47f2e84ef012",
      "title": "Deep Poisson Factorization Machines: factor analysis for mapping behaviors in journalist ecosystem",
      "venue": "arXiv.org",
      "year": 2015,
      "referenceCount": 8,
      "citationCount": 0,
      "authors": [
        {
          "authorId": "32735204",
          "name": "Pau Perng-Hwa Kung"
        }
      ]
    },
    {
      "paperId": "b9c675297c77d68028c38c71ba9291f6a3ed68b5",
      "externalIds": {
        "CorpusId": 3889594
      },
      "url": "https://www.semanticscholar.org/paper/b9c675297c77d68028c38c71ba9291f6a3ed68b5",
      "title": "Deep Poisson Factorization Machines : a factor analysis model for mapping behaviors in journalist ecosystem",
      "venue": "",
      "year": 2015,
      "referenceCount": 0,
      "citationCount": 0,
      "authors": []
    },
    {
      "paperId": "bb16d78d8e7d5bc17a0b5741a9ae64c4f4f0ad37",
      "externalIds": {
        "PubMedCentral": "4300210",
        "MAG": "2024735418",
        "DOI": "10.1186/s12879-014-0712-z",
        "CorpusId": 16180806,
        "PubMed": "25567583"
      },
      "url": "https://www.semanticscholar.org/paper/bb16d78d8e7d5bc17a0b5741a9ae64c4f4f0ad37",
      "title": "A meta-analysis of ventriculostomy-associated cerebrospinal fluid infections",
      "venue": "BMC Infectious Diseases",
      "year": 2015,
      "referenceCount": 60,
      "citationCount": 149,
      "authors": [
        {
          "authorId": "2387777088",
          "name": "Mahesh Ramanan"
        },
        {
          "authorId": "144955730",
          "name": "J. Lipman"
        },
        {
          "authorId": "3587209",
          "name": "A. Shorr"
        },
        {
          "authorId": "5656006",
          "name": "A. Shankar"
        }
      ]
    },
    {
      "paperId": "3cf586a2bbdcb9bf9860b6ddf952e3a038d51811",
      "externalIds": {
        "CorpusId": 18278876
      },
      "url": "https://www.semanticscholar.org/paper/3cf586a2bbdcb9bf9860b6ddf952e3a038d51811",
      "title": "perspectives on Bitcoin and second-generation cryptocurrencies",
      "venue": "",
      "year": 2015,
      "referenceCount": 115,
      "citationCount": 21,
      "authors": [
        {
          "authorId": "144848951",
          "name": "Joseph Bonneau"
        },
        {
          "authorId": "145596465",
          "name": "Andrew K. Miller"
        },
        {
          "authorId": "47125503",
          "name": "Jeremy Clark"
        },
        {
          "authorId": "47735253",
          "name": "Arvind Narayanan"
        },
        {
          "authorId": "145973578",
          "name": "Joshua A. Kroll"
        },
        {
          "authorId": "1752733",
          "name": "E. Felten"
        }
      ]
    },
    {
      "paperId": "b87b46f432aef54137c95834f8a29c5259935875",
      "externalIds": {
        "MAG": "2603764074",
        "CorpusId": 55325061
      },
      "url": "https://www.semanticscholar.org/paper/b87b46f432aef54137c95834f8a29c5259935875",
      "title": "Social entrepreneurship in China: models, dynamics, challenges and opportunities",
      "venue": "",
      "year": 2015,
      "referenceCount": 63,
      "citationCount": 1,
      "authors": [
        {
          "authorId": "120434409",
          "name": "Meng-Chow Kang"
        }
      ]
    },
    {
      "paperId": "6af53351b0660a6ceb071652112267ec16adb077",
      "externalIds": {
        "CorpusId": 276698032
      },
      "url": "https://www.semanticscholar.org/paper/6af53351b0660a6ceb071652112267ec16adb077",
      "title": "The role of coral mucus in the material cycle in reef ecosystems",
      "venue": "",
      "year": 2015,
      "referenceCount": 1,
      "citationCount": 0,
      "authors": []
    },
    {
      "paperId": "9748890cc12855a25a44d4bdbc4facb108146509",
      "externalIds": {
        "MAG": "2732926258",
        "CorpusId": 110147921
      },
      "url": "https://www.semanticscholar.org/paper/9748890cc12855a25a44d4bdbc4facb108146509",
      "title": "L'Ancoraggio Flottante Sirive® per la stabilizzazione di movimenti franosi",
      "venue": "",
      "year": 2015,
      "referenceCount": 0,
      "citationCount": 1,
      "authors": [
        {
          "authorId": "2058813512",
          "name": "Alberto Bisson"
        }
      ]
    },
    {
      "paperId": "09720d2f6988f8da32e954f2cf56fa7a65034930",
      "externalIds": {
        "MAG": "2598533670",
        "CorpusId": 63576690
      },
      "url": "https://www.semanticscholar.org/paper/09720d2f6988f8da32e954f2cf56fa7a65034930",
      "title": "Rainfall conditions and magnitude of landslides in Taiwan",
      "venue": "",
      "year": 2015,
      "referenceCount": 0,
      "citationCount": 0,
      "authors": [
        {
          "authorId": "7863531",
          "name": "Chi-Wen Chen"
        },
        {
          "authorId": "50572352",
          "name": "T. Oguchi"
        }
      ]
    }
  ]
}