{
  "total": 756,
  "offset": 0,
  "next": 10,
  "data": [
    {
      "paperId": "d1c424c261c577958917055f72fb9e2ad0348865",
      "externalIds": {
        "ArXiv": "1712.09763",
        "MAG": "2951777598",
        "DBLP": "conf/iclr/0022MRA18",
        "CorpusId": 6199526
      },
      "url": "https://www.semanticscholar.org/paper/d1c424c261c577958917055f72fb9e2ad0348865",
      "title": "PixelSNAIL: An Improved Autoregressive Generative Model",
      "venue": "International Conference on Machine Learning",
      "year": 2017,
      "referenceCount": 38,
      "citationCount": 305,
      "authors": [
        {
          "authorId": "41192764",
          "name": "Xi Chen"
        },
        {
          "authorId": "3414570",
          "name": "Nikhil Mishra"
        },
        {
          "authorId": "22222033",
          "name": "Mostafa Rohaninejad"
        },
        {
          "authorId": "1689992",
          "name": "P. Abbeel"
        }
      ]
    },
    {
      "paperId": "e72efe88b16972f115f9dc85f0f2b165a9f4e6a9",
      "externalIds": {
        "DBLP": "journals/corr/abs-2504-13074",
        "ArXiv": "2504.13074",
        "DOI": "10.48550/arXiv.2504.13074",
        "CorpusId": 277856899
      },
      "url": "https://www.semanticscholar.org/paper/e72efe88b16972f115f9dc85f0f2b165a9f4e6a9",
      "title": "SkyReels-V2: Infinite-length Film Generative Model",
      "venue": "arXiv.org",
      "year": 2025,
      "referenceCount": 58,
      "citationCount": 126,
      "authors": [
        {
          "authorId": "2316443358",
          "name": "Guibin Chen"
        },
        {
          "authorId": "2356494572",
          "name": "Dixuan Lin"
        },
        {
          "authorId": "2316443000",
          "name": "Jiangping Yang"
        },
        {
          "authorId": "2356040787",
          "name": "Chunze Lin"
        },
        {
          "authorId": "2356037685",
          "name": "Juncheng Zhu"
        },
        {
          "authorId": "2261401335",
          "name": "Mingyuan Fan"
        },
        {
          "authorId": "2357080393",
          "name": "Hao Zhang"
        },
        {
          "authorId": "2366255182",
          "name": "Sheng Chen"
        },
        {
          "authorId": "2381821885",
          "name": "Zhenghao Chen"
        },
        {
          "authorId": "2276504986",
          "name": "Chengcheng Ma"
        },
        {
          "authorId": "2218062503",
          "name": "Weiming Xiong"
        },
        {
          "authorId": "2342873928",
          "name": "Wei Wang"
        },
        {
          "authorId": "2355864721",
          "name": "Nuo Pang"
        },
        {
          "authorId": "2114070355",
          "name": "K. Kang"
        },
        {
          "authorId": "2318091908",
          "name": "Zhi-Xin Xu"
        },
        {
          "authorId": "2355886407",
          "name": "Yuzhe Jin"
        },
        {
          "authorId": "2325728929",
          "name": "Yu Liang"
        },
        {
          "authorId": "2256682076",
          "name": "Yu-Ning Song"
        },
        {
          "authorId": "2348693639",
          "name": "Peng Zhao"
        },
        {
          "authorId": "2291209194",
          "name": "Bo Xu"
        },
        {
          "authorId": "2053957140",
          "name": "Di Qiu"
        },
        {
          "authorId": "2311862282",
          "name": "Debang Li"
        },
        {
          "authorId": "2066415714",
          "name": "Zhengcong Fei"
        },
        {
          "authorId": "2353891852",
          "name": "Yang Li"
        },
        {
          "authorId": "2353423689",
          "name": "Yahui Zhou"
        }
      ]
    },
    {
      "paperId": "e2d6c5d74ecd47ce416e01eff8367ce4259afb68",
      "externalIds": {
        "ArXiv": "2502.04521",
        "DBLP": "journals/corr/abs-2502-04521",
        "DOI": "10.48550/arXiv.2502.04521",
        "CorpusId": 276235798
      },
      "url": "https://www.semanticscholar.org/paper/e2d6c5d74ecd47ce416e01eff8367ce4259afb68",
      "title": "Generative Autoregressive Transformers for Model-Agnostic Federated MRI Reconstruction",
      "venue": "arXiv.org",
      "year": 2025,
      "referenceCount": 101,
      "citationCount": 10,
      "authors": [
        {
          "authorId": "2300752066",
          "name": "V. Nezhad"
        },
        {
          "authorId": "2153851145",
          "name": "Gokberk Elmas"
        },
        {
          "authorId": "2139707238",
          "name": "Bilal Kabas"
        },
        {
          "authorId": "2301154159",
          "name": "Fuat Arslan"
        },
        {
          "authorId": "2261752714",
          "name": "Tolga Çukur"
        }
      ]
    },
    {
      "paperId": "6bf0e42a2ad89a00c8be4c66303659144560d440",
      "externalIds": {
        "ArXiv": "2503.01103",
        "DBLP": "conf/icml/ZhengCCH00Z25",
        "DOI": "10.48550/arXiv.2503.01103",
        "CorpusId": 276741751
      },
      "url": "https://www.semanticscholar.org/paper/6bf0e42a2ad89a00c8be4c66303659144560d440",
      "title": "Direct Discriminative Optimization: Your Likelihood-Based Visual Generative Model is Secretly a GAN Discriminator",
      "venue": "International Conference on Machine Learning",
      "year": 2025,
      "referenceCount": 102,
      "citationCount": 17,
      "authors": [
        {
          "authorId": "1864036526",
          "name": "Kaiwen Zheng"
        },
        {
          "authorId": "2307051814",
          "name": "Yongxin Chen"
        },
        {
          "authorId": "2257328842",
          "name": "Huayu Chen"
        },
        {
          "authorId": "2218509878",
          "name": "Guande He"
        },
        {
          "authorId": "2269736504",
          "name": "Mingying Liu"
        },
        {
          "authorId": "2259945495",
          "name": "Jun Zhu"
        },
        {
          "authorId": "94615164",
          "name": "Qinsheng Zhang"
        }
      ]
    },
    {
      "paperId": "5b25bf2e384a5ed96134a816f3c7021a220f6a14",
      "externalIds": {
        "PubMedCentral": "11350878",
        "DBLP": "journals/jcisd/WellerR24",
        "DOI": "10.1021/acs.jcim.4c01193",
        "CorpusId": 271456484,
        "PubMed": "39058534"
      },
      "url": "https://www.semanticscholar.org/paper/5b25bf2e384a5ed96134a816f3c7021a220f6a14",
      "title": "Structure-Based Drug Design with a Deep Hierarchical Generative Model",
      "venue": "Journal of Chemical Information and Modeling",
      "year": 2024,
      "referenceCount": 54,
      "citationCount": 30,
      "authors": [
        {
          "authorId": "2276516172",
          "name": "Jesse A. Weller"
        },
        {
          "authorId": "3209392",
          "name": "R. Rohs"
        }
      ]
    },
    {
      "paperId": "04cdf09cee0d74324f60a00cd7fb5bdcb05ce7e8",
      "externalIds": {
        "DBLP": "journals/corr/abs-2505-07344",
        "ArXiv": "2505.07344",
        "DOI": "10.48550/arXiv.2505.07344",
        "CorpusId": 278501597
      },
      "url": "https://www.semanticscholar.org/paper/04cdf09cee0d74324f60a00cd7fb5bdcb05ce7e8",
      "title": "Generative Pre-trained Autoregressive Diffusion Transformer",
      "venue": "arXiv.org",
      "year": 2025,
      "referenceCount": 56,
      "citationCount": 15,
      "authors": [
        {
          "authorId": "2360791503",
          "name": "Yuan Zhang"
        },
        {
          "authorId": "2318174874",
          "name": "Jiacheng Jiang"
        },
        {
          "authorId": "2346782252",
          "name": "Guoqing Ma"
        },
        {
          "authorId": "2350525881",
          "name": "Zhiying Lu"
        },
        {
          "authorId": "2345959136",
          "name": "Haoyang Huang"
        },
        {
          "authorId": "2266843504",
          "name": "Jian-min Yuan"
        },
        {
          "authorId": "2360369479",
          "name": "Nan Duan"
        }
      ]
    },
    {
      "paperId": "e0d8f0d6fc12dca6687bac6c40e522f522ea9cc0",
      "externalIds": {
        "ArXiv": "2506.05685",
        "DBLP": "journals/corr/abs-2506-05685",
        "DOI": "10.48550/arXiv.2506.05685",
        "CorpusId": 279243642
      },
      "url": "https://www.semanticscholar.org/paper/e0d8f0d6fc12dca6687bac6c40e522f522ea9cc0",
      "title": "NGA: Non-autoregressive Generative Auction with Global Externalities for Advertising Systems",
      "venue": "arXiv.org",
      "year": 2025,
      "referenceCount": 31,
      "citationCount": 0,
      "authors": [
        {
          "authorId": "2363412527",
          "name": "Zuowu Zheng"
        },
        {
          "authorId": "2363741889",
          "name": "Ze Wang"
        },
        {
          "authorId": "2363681115",
          "name": "Fan Yang"
        },
        {
          "authorId": "2367228995",
          "name": "Wenqing Ye"
        },
        {
          "authorId": "2359398897",
          "name": "Weihua Huang"
        },
        {
          "authorId": "2367287510",
          "name": "Wenqiang He"
        },
        {
          "authorId": "2363403676",
          "name": "Teng Zhang"
        },
        {
          "authorId": "2301323946",
          "name": "Xingxing Wang"
        }
      ]
    },
    {
      "paperId": "d182fb77592b5b7fddd1555d6bf4ec9ad583a145",
      "externalIds": {
        "DBLP": "conf/interspeech/YangWAMKGR25",
        "DOI": "10.21437/interspeech.2025-2335",
        "CorpusId": 282368544
      },
      "url": "https://www.semanticscholar.org/paper/d182fb77592b5b7fddd1555d6bf4ec9ad583a145",
      "title": "Investigating continuous autoregressive generative speech enhancement",
      "venue": "Interspeech",
      "year": 2025,
      "referenceCount": 51,
      "citationCount": 2,
      "authors": [
        {
          "authorId": "2349580029",
          "name": "Haici Yang"
        },
        {
          "authorId": "1816785",
          "name": "G. Wichern"
        },
        {
          "authorId": "2367517114",
          "name": "Ryo Aihara"
        },
        {
          "authorId": "2263438224",
          "name": "Yoshiki Masuyama"
        },
        {
          "authorId": "2258716558",
          "name": "Sameer Khurana"
        },
        {
          "authorId": "2257296771",
          "name": "François G. Germain"
        },
        {
          "authorId": "2067299136",
          "name": "Jonathan Le Roux"
        }
      ]
    },
    {
      "paperId": "e19b5f4369f162a3f23170e3feadd3d208bd5813",
      "externalIds": {
        "ArXiv": "2512.05139",
        "DBLP": "journals/corr/abs-2512-05139",
        "DOI": "10.48550/arXiv.2512.05139",
        "CorpusId": 283672066
      },
      "url": "https://www.semanticscholar.org/paper/e19b5f4369f162a3f23170e3feadd3d208bd5813",
      "title": "Spatiotemporal Satellite Image Downscaling with Transfer Encoders and Autoregressive Generative Models",
      "venue": "arXiv.org",
      "year": 2025,
      "referenceCount": 37,
      "citationCount": 0,
      "authors": [
        {
          "authorId": "2068340050",
          "name": "Yang Xiang"
        },
        {
          "authorId": "2341921837",
          "name": "Jingwen Zhong"
        },
        {
          "authorId": "2325197397",
          "name": "Yige Yan"
        },
        {
          "authorId": "5014576",
          "name": "P. Koutrakis"
        },
        {
          "authorId": "2302720403",
          "name": "E. Garshick"
        },
        {
          "authorId": "2280553894",
          "name": "Meredith Franklin"
        }
      ]
    },
    {
      "paperId": "bff0c3d026afc75f82833e90a58fdabcf92fc834",
      "externalIds": {
        "ArXiv": "2407.02797",
        "DBLP": "conf/eccv/HuCYQLSZXL24",
        "DOI": "10.48550/arXiv.2407.02797",
        "CorpusId": 270924324
      },
      "url": "https://www.semanticscholar.org/paper/bff0c3d026afc75f82833e90a58fdabcf92fc834",
      "title": "Solving Motion Planning Tasks with a Scalable Generative Model",
      "venue": "European Conference on Computer Vision",
      "year": 2024,
      "referenceCount": 82,
      "citationCount": 44,
      "authors": [
        {
          "authorId": "1452986741",
          "name": "Yi Hu"
        },
        {
          "authorId": "2171618940",
          "name": "Siqi Chai"
        },
        {
          "authorId": "2171861370",
          "name": "Zhening Yang"
        },
        {
          "authorId": "2171658906",
          "name": "Jingyu Qian"
        },
        {
          "authorId": "2226425390",
          "name": "Kun Li"
        },
        {
          "authorId": "150339750",
          "name": "Wenxin Shao"
        },
        {
          "authorId": "2108640124",
          "name": "Haichao Zhang"
        },
        {
          "authorId": "2261365782",
          "name": "Wei Xu"
        },
        {
          "authorId": "2365262876",
          "name": "Qiang Liu"
        }
      ]
    }
  ]
}