{
  "total": 1475,
  "offset": 0,
  "next": 10,
  "data": [
    {
      "paperId": "6d1840e4d6a43ce46d80fba5327eb5c20b4c2e34",
      "externalIds": {
        "MAG": "2963582035",
        "DBLP": "conf/icml/Telgarsky17",
        "ArXiv": "1706.03301",
        "CorpusId": 528278
      },
      "url": "https://www.semanticscholar.org/paper/6d1840e4d6a43ce46d80fba5327eb5c20b4c2e34",
      "title": "Neural Networks and Rational Functions",
      "venue": "International Conference on Machine Learning",
      "year": 2017,
      "referenceCount": 20,
      "citationCount": 103,
      "authors": [
        {
          "authorId": "1750943",
          "name": "Matus Telgarsky"
        }
      ]
    },
    {
      "paperId": "40597274c7f5bd73113676e219738203613d2b3c",
      "externalIds": {
        "ArXiv": "2508.19672",
        "CorpusId": 280918962
      },
      "url": "https://www.semanticscholar.org/paper/40597274c7f5bd73113676e219738203613d2b3c",
      "title": "$\\mathcal{C}^1$-approximation with rational functions and rational neural networks",
      "venue": "",
      "year": 2025,
      "referenceCount": 27,
      "citationCount": 1,
      "authors": [
        {
          "authorId": "2219181881",
          "name": "Erion Morina"
        },
        {
          "authorId": "2307916149",
          "name": "Martin Holler"
        }
      ]
    },
    {
      "paperId": "3c84e20f1e440847562c411d98f1e9f476f56308",
      "externalIds": {
        "DBLP": "journals/corr/abs-2508-19672",
        "DOI": "10.48550/arXiv.2508.19672",
        "CorpusId": 281496976
      },
      "url": "https://www.semanticscholar.org/paper/3c84e20f1e440847562c411d98f1e9f476f56308",
      "title": "𝒞1-approximation with Rational Functions and Rational Neural Networks",
      "venue": "arXiv.org",
      "year": 2025,
      "referenceCount": 0,
      "citationCount": 0,
      "authors": [
        {
          "authorId": "2219181881",
          "name": "Erion Morina"
        },
        {
          "authorId": "2307916149",
          "name": "Martin Holler"
        }
      ]
    },
    {
      "paperId": "3580180bbdbccd040053081a80ffc520d22f0406",
      "externalIds": {
        "DOI": "10.1109/IWS58240.2023.10222429",
        "CorpusId": 261390394
      },
      "url": "https://www.semanticscholar.org/paper/3580180bbdbccd040053081a80ffc520d22f0406",
      "title": "Parametric Modeling of Four-Pole Waveguide Filter Integrating Neural Networks and MOR-Based Rational Transfer Functions",
      "venue": "IEEE International Wireless Symposium",
      "year": 2023,
      "referenceCount": 16,
      "citationCount": 0,
      "authors": [
        {
          "authorId": "2237130830",
          "name": "Fang Gao"
        },
        {
          "authorId": "143964541",
          "name": "F. Feng"
        },
        {
          "authorId": "40539614",
          "name": "Jianan Zhang"
        },
        {
          "authorId": "1698838706",
          "name": "Jing Jin"
        },
        {
          "authorId": "123870232",
          "name": "Kaixue Ma"
        },
        {
          "authorId": "49347025",
          "name": "Qi-jun Zhang"
        }
      ]
    },
    {
      "paperId": "a5e427e95385ff4708a00c2d4d92e9431d06d6ea",
      "externalIds": {
        "DBLP": "conf/cdc/DefourneauP19",
        "MAG": "2921235855",
        "ArXiv": "1903.05609",
        "DOI": "10.1109/CDC40024.2019.9029326",
        "CorpusId": 119174130
      },
      "url": "https://www.semanticscholar.org/paper/a5e427e95385ff4708a00c2d4d92e9431d06d6ea",
      "title": "Realization theory of recurrent neural networks and rational systems",
      "venue": "IEEE Conference on Decision and Control",
      "year": 2019,
      "referenceCount": 36,
      "citationCount": 3,
      "authors": [
        {
          "authorId": "102277126",
          "name": "Thibault Defourneau"
        },
        {
          "authorId": "2665610",
          "name": "M. Petreczky"
        }
      ]
    },
    {
      "paperId": "fbf38fb1ae6f0d7b0242c51f0562cdd55ca374e7",
      "externalIds": {
        "ArXiv": "2509.11088",
        "CorpusId": 281315844
      },
      "url": "https://www.semanticscholar.org/paper/fbf38fb1ae6f0d7b0242c51f0562cdd55ca374e7",
      "title": "Algebraic geometry of rational neural networks",
      "venue": "",
      "year": 2025,
      "referenceCount": 31,
      "citationCount": 0,
      "authors": [
        {
          "authorId": "1557531357",
          "name": "Alexandros Grosdos"
        },
        {
          "authorId": "2328308690",
          "name": "Elina Robeva"
        },
        {
          "authorId": "2312916967",
          "name": "Maksym Zubkov"
        }
      ]
    },
    {
      "paperId": "fc3ecf717c182a2de34ae87a657221b3cac3b458",
      "externalIds": {
        "MAG": "2753825888",
        "DOI": "10.1109/NAFIPS.2002.1018111",
        "CorpusId": 123571755
      },
      "url": "https://www.semanticscholar.org/paper/fc3ecf717c182a2de34ae87a657221b3cac3b458",
      "title": "Neural networks and rational Lukasiewicz logic",
      "venue": "2002 Annual Meeting of the North American Fuzzy Information Processing Society Proceedings. NAFIPS-FLINT 2002 (Cat. No. 02TH8622)",
      "year": 2002,
      "referenceCount": 5,
      "citationCount": 14,
      "authors": [
        {
          "authorId": "145089499",
          "name": "P. Amato"
        },
        {
          "authorId": "3007371",
          "name": "A. Nola"
        },
        {
          "authorId": "1746160",
          "name": "B. Gerla"
        }
      ]
    },
    {
      "paperId": "a766564b3a1fd92d66cc84b8eda021863eee9a96",
      "externalIds": {
        "DOI": "10.1109/lmwc.2022.3146376",
        "CorpusId": 246768930
      },
      "url": "https://www.semanticscholar.org/paper/a766564b3a1fd92d66cc84b8eda021863eee9a96",
      "title": "Parameterized Modeling Incorporating MOR-Based Rational Transfer Functions With Neural Networks for Microwave Components",
      "venue": "IEEE Microwave and Wireless Components Letters",
      "year": 2022,
      "referenceCount": 0,
      "citationCount": 25,
      "authors": [
        {
          "authorId": "40539614",
          "name": "Jianan Zhang"
        },
        {
          "authorId": "49252530",
          "name": "Jing-xin Chen"
        },
        {
          "authorId": "2153930012",
          "name": "Qian Guo"
        },
        {
          "authorId": "2157222952",
          "name": "Wei Liu"
        },
        {
          "authorId": "143964541",
          "name": "F. Feng"
        },
        {
          "authorId": "49347025",
          "name": "Qi-jun Zhang"
        }
      ]
    },
    {
      "paperId": "ce6f205fe789607ae714953a968dec2e8f33171d",
      "externalIds": {
        "DBLP": "journals/mvl/AmatoNG05",
        "MAG": "2396104172",
        "CorpusId": 42027325
      },
      "url": "https://www.semanticscholar.org/paper/ce6f205fe789607ae714953a968dec2e8f33171d",
      "title": "Neural Networks And Rational Mcnaughton Functions",
      "venue": "J. Multiple Valued Log. Soft Comput.",
      "year": 2005,
      "referenceCount": 0,
      "citationCount": 6,
      "authors": [
        {
          "authorId": "145089499",
          "name": "P. Amato"
        },
        {
          "authorId": "3007371",
          "name": "A. Nola"
        },
        {
          "authorId": "1746160",
          "name": "B. Gerla"
        }
      ]
    },
    {
      "paperId": "87cd7946707f66d59c50d248fb2a997669895478",
      "externalIds": {
        "ArXiv": "2310.13139",
        "CorpusId": 271860298
      },
      "url": "https://www.semanticscholar.org/paper/87cd7946707f66d59c50d248fb2a997669895478",
      "title": "The logic of rational graph neural networks",
      "venue": "",
      "year": 2023,
      "referenceCount": 21,
      "citationCount": 1,
      "authors": [
        {
          "authorId": "36646946",
          "name": "Sammy Khalife"
        }
      ]
    }
  ]
}