{
  "total": 77,
  "offset": 0,
  "next": 10,
  "data": [
    {
      "paperId": "d4c79ceae77d2f65ccd43fd2694ccd5c8a519fa6",
      "externalIds": {
        "MAG": "2591577911",
        "DBLP": "conf/icml/ScamanBBLM17",
        "ArXiv": "1702.08704",
        "CorpusId": 8438120
      },
      "url": "https://www.semanticscholar.org/paper/d4c79ceae77d2f65ccd43fd2694ccd5c8a519fa6",
      "title": "Optimal Algorithms for Smooth and Strongly Convex Distributed Optimization in Networks",
      "venue": "International Conference on Machine Learning",
      "year": 2017,
      "referenceCount": 29,
      "citationCount": 360,
      "authors": [
        {
          "authorId": "2695305",
          "name": "Kevin Scaman"
        },
        {
          "authorId": "144570279",
          "name": "F. Bach"
        },
        {
          "authorId": "1815542",
          "name": "Sébastien Bubeck"
        },
        {
          "authorId": "2109308930",
          "name": "Y. Lee"
        },
        {
          "authorId": "1768703",
          "name": "L. Massoulié"
        }
      ]
    },
    {
      "paperId": "4a17bd1aa27bd34a2ace9bcbf9c7e3c1c4837379",
      "externalIds": {
        "CorpusId": 260498157
      },
      "url": "https://www.semanticscholar.org/paper/4a17bd1aa27bd34a2ace9bcbf9c7e3c1c4837379",
      "title": "Optimal Algorithms for Smooth and Strongly Convex Distributed Optimization in Networks SUPPLEMENTARY MATERIAL",
      "venue": "",
      "year": 2017,
      "referenceCount": 3,
      "citationCount": 0,
      "authors": [
        {
          "authorId": "2695305",
          "name": "Kevin Scaman"
        },
        {
          "authorId": "144570279",
          "name": "F. Bach"
        },
        {
          "authorId": "1815542",
          "name": "Sébastien Bubeck"
        },
        {
          "authorId": "2109308930",
          "name": "Y. Lee"
        },
        {
          "authorId": "1768703",
          "name": "L. Massoulié"
        }
      ]
    },
    {
      "paperId": "0b4283f264d3ceeb97d17ac621c0e5ad101ec1db",
      "externalIds": {
        "MAG": "2807548807",
        "DBLP": "conf/nips/ScamanBBML18",
        "ArXiv": "1806.00291",
        "CorpusId": 54032844
      },
      "url": "https://www.semanticscholar.org/paper/0b4283f264d3ceeb97d17ac621c0e5ad101ec1db",
      "title": "Optimal Algorithms for Non-Smooth Distributed Optimization in Networks",
      "venue": "Neural Information Processing Systems",
      "year": 2018,
      "referenceCount": 25,
      "citationCount": 175,
      "authors": [
        {
          "authorId": "2695305",
          "name": "Kevin Scaman"
        },
        {
          "authorId": "144570279",
          "name": "F. Bach"
        },
        {
          "authorId": "1815542",
          "name": "Sébastien Bubeck"
        },
        {
          "authorId": "1768703",
          "name": "L. Massoulié"
        },
        {
          "authorId": "2109308930",
          "name": "Y. Lee"
        }
      ]
    },
    {
      "paperId": "97056d5d0759ff3ecec18ab7410cced91aea1e97",
      "externalIds": {
        "DBLP": "journals/jmlr/ScamanBBLM19",
        "MAG": "2989361410",
        "CorpusId": 204892508
      },
      "url": "https://www.semanticscholar.org/paper/97056d5d0759ff3ecec18ab7410cced91aea1e97",
      "title": "Optimal Convergence Rates for Convex Distributed Optimization in Networks",
      "venue": "Journal of machine learning research",
      "year": 2019,
      "referenceCount": 52,
      "citationCount": 85,
      "authors": [
        {
          "authorId": "2695305",
          "name": "Kevin Scaman"
        },
        {
          "authorId": "144570279",
          "name": "F. Bach"
        },
        {
          "authorId": "7446832",
          "name": "Kilian Q. Weinberger"
        }
      ]
    },
    {
      "paperId": "d04cc3153e611d841cc14f590fb9e89ca8ea3f0c",
      "externalIds": {
        "MAG": "3097910564",
        "DBLP": "journals/corr/abs-1809-00710",
        "ArXiv": "1809.00710",
        "DOI": "10.1109/ITA50056.2020.9244951",
        "CorpusId": 52153507
      },
      "url": "https://www.semanticscholar.org/paper/d04cc3153e611d841cc14f590fb9e89ca8ea3f0c",
      "title": "A Dual Approach for Optimal Algorithms in Distributed Optimization over Networks",
      "venue": "Information Theory and Applications Workshop",
      "year": 2018,
      "referenceCount": 101,
      "citationCount": 148,
      "authors": [
        {
          "authorId": "32030988",
          "name": "César A. Uribe"
        },
        {
          "authorId": "47090361",
          "name": "Soomin Lee"
        },
        {
          "authorId": "2663409",
          "name": "A. Gasnikov"
        },
        {
          "authorId": "1800855",
          "name": "A. Nedić"
        }
      ]
    },
    {
      "paperId": "efce016f3e15d64ff28abf98fb2caaed304130f6",
      "externalIds": {
        "ArXiv": "1712.00232",
        "MAG": "2772225710",
        "DBLP": "journals/corr/abs-1712-00232",
        "CorpusId": 37832079
      },
      "url": "https://www.semanticscholar.org/paper/efce016f3e15d64ff28abf98fb2caaed304130f6",
      "title": "Optimal Algorithms for Distributed Optimization",
      "venue": "arXiv.org",
      "year": 2017,
      "referenceCount": 76,
      "citationCount": 40,
      "authors": [
        {
          "authorId": "32030988",
          "name": "César A. Uribe"
        },
        {
          "authorId": "47090361",
          "name": "Soomin Lee"
        },
        {
          "authorId": "2663409",
          "name": "A. Gasnikov"
        },
        {
          "authorId": "1800855",
          "name": "A. Nedić"
        }
      ]
    },
    {
      "paperId": "2992e07fcd7a3ab6c30a87b3807c34ab45231812",
      "externalIds": {
        "ArXiv": "2003.13980",
        "DBLP": "journals/corr/abs-2003-13980",
        "MAG": "3014345690",
        "DOI": "10.1109/CDC42340.2020.9303917",
        "CorpusId": 214727748
      },
      "url": "https://www.semanticscholar.org/paper/2992e07fcd7a3ab6c30a87b3807c34ab45231812",
      "title": "A Robust Gradient Tracking Method for Distributed Optimization over Directed Networks",
      "venue": "IEEE Conference on Decision and Control",
      "year": 2020,
      "referenceCount": 48,
      "citationCount": 50,
      "authors": [
        {
          "authorId": "1627206254",
          "name": "Shi Pu"
        }
      ]
    },
    {
      "paperId": "47ace9e3544adf012322b00ae48048bd69e4d499",
      "externalIds": {
        "DOI": "10.1002/asjc.3775",
        "CorpusId": 279929895
      },
      "url": "https://www.semanticscholar.org/paper/47ace9e3544adf012322b00ae48048bd69e4d499",
      "title": "A variance‐reduced distributed stochastic momentum algorithm over directed networks",
      "venue": "Asian journal of control",
      "year": 2025,
      "referenceCount": 28,
      "citationCount": 0,
      "authors": [
        {
          "authorId": "2370650203",
          "name": "X. Gong"
        },
        {
          "authorId": "2357230617",
          "name": "Juan Gao"
        },
        {
          "authorId": "2108754318",
          "name": "Xinwei Liu"
        }
      ]
    },
    {
      "paperId": "0a2a965a1dcd69e73886fbdd8d124e680bfaf409",
      "externalIds": {
        "MAG": "2949362517",
        "DBLP": "conf/cdc/WuL17a",
        "DOI": "10.1109/CDC.2017.8264079",
        "CorpusId": 260504190
      },
      "url": "https://www.semanticscholar.org/paper/0a2a965a1dcd69e73886fbdd8d124e680bfaf409",
      "title": "Fenchel dual gradient methods for distributed convex optimization over time-varying networks",
      "venue": "IEEE Conference on Decision and Control",
      "year": 2017,
      "referenceCount": 43,
      "citationCount": 1,
      "authors": [
        {
          "authorId": "3367161",
          "name": "Xuyang Wu"
        },
        {
          "authorId": "2157816134",
          "name": "Jie Lu"
        }
      ]
    },
    {
      "paperId": "59b908a0396e71db04ce8af2ae418746baf7fae2",
      "externalIds": {
        "ArXiv": "1811.02521",
        "DBLP": "conf/amcc/ZhangUMJ19",
        "MAG": "2973149477",
        "DOI": "10.23919/ACC.2019.8814686",
        "CorpusId": 119312472
      },
      "url": "https://www.semanticscholar.org/paper/59b908a0396e71db04ce8af2ae418746baf7fae2",
      "title": "Achieving Acceleration in Distributed Optimization via Direct Discretization of the Heavy-Ball ODE",
      "venue": "American Control Conference",
      "year": 2018,
      "referenceCount": 33,
      "citationCount": 18,
      "authors": [
        {
          "authorId": "50561307",
          "name": "J. Zhang"
        },
        {
          "authorId": "32030988",
          "name": "César A. Uribe"
        },
        {
          "authorId": "2706423",
          "name": "Aryan Mokhtari"
        },
        {
          "authorId": "1688304",
          "name": "A. Jadbabaie"
        }
      ]
    }
  ]
}