{
  "total": 445,
  "offset": 0,
  "next": 10,
  "data": [
    {
      "paperId": "2a215755d7548ffc82079ce734c4ac60b62f6f56",
      "externalIds": {
        "DBLP": "conf/icml/HuYLSX17",
        "MAG": "2953029759",
        "ArXiv": "1703.00955",
        "CorpusId": 20981275
      },
      "url": "https://www.semanticscholar.org/paper/2a215755d7548ffc82079ce734c4ac60b62f6f56",
      "title": "Toward Controlled Generation of Text",
      "venue": "International Conference on Machine Learning",
      "year": 2017,
      "referenceCount": 41,
      "citationCount": 1028,
      "authors": [
        {
          "authorId": "2749311",
          "name": "Zhiting Hu"
        },
        {
          "authorId": "8387085",
          "name": "Zichao Yang"
        },
        {
          "authorId": "40250403",
          "name": "Xiaodan Liang"
        },
        {
          "authorId": "145124475",
          "name": "R. Salakhutdinov"
        },
        {
          "authorId": "143977260",
          "name": "E. Xing"
        }
      ]
    },
    {
      "paperId": "0b574244f2ecea75a536106789f08d3c3c2590e0",
      "externalIds": {
        "DBLP": "journals/corr/abs-2210-11109",
        "ArXiv": "2210.11109",
        "ACL": "2022.emnlp-main.93",
        "DOI": "10.48550/arXiv.2210.11109",
        "CorpusId": 253018728
      },
      "url": "https://www.semanticscholar.org/paper/0b574244f2ecea75a536106789f08d3c3c2590e0",
      "title": "Visual Spatial Description: Controlled Spatial-Oriented Image-to-Text Generation",
      "venue": "Conference on Empirical Methods in Natural Language Processing",
      "year": 2022,
      "referenceCount": 71,
      "citationCount": 18,
      "authors": [
        {
          "authorId": "2110263863",
          "name": "Yu Zhao"
        },
        {
          "authorId": "2170344171",
          "name": "Jianguo Wei"
        },
        {
          "authorId": "47778813",
          "name": "Zhichao Lin"
        },
        {
          "authorId": "1789944",
          "name": "Yueheng Sun"
        },
        {
          "authorId": "2117849151",
          "name": "Meishan Zhang"
        },
        {
          "authorId": "39767557",
          "name": "M. Zhang"
        }
      ]
    },
    {
      "paperId": "1b3094b5c34931ba7dd533a0cd946e29be25e01f",
      "externalIds": {
        "DOI": "10.3390/app13010264",
        "CorpusId": 255215009
      },
      "url": "https://www.semanticscholar.org/paper/1b3094b5c34931ba7dd533a0cd946e29be25e01f",
      "title": "Fine-Grained Sentiment-Controlled Text Generation Approach Based on Pre-Trained Language Model",
      "venue": "Applied Sciences",
      "year": 2022,
      "referenceCount": 46,
      "citationCount": 6,
      "authors": [
        {
          "authorId": "48324081",
          "name": "Linan Zhu"
        },
        {
          "authorId": "2198659534",
          "name": "Yifei Xu"
        },
        {
          "authorId": "2198624348",
          "name": "Zhechao Zhu"
        },
        {
          "authorId": "95809364",
          "name": "Yinwei Bao"
        },
        {
          "authorId": "2069030688",
          "name": "Xiangjie Kong"
        }
      ]
    },
    {
      "paperId": "08e3d7801d74caea9a086b6dc3ecaeb9c0bef099",
      "externalIds": {
        "ArXiv": "2510.02315",
        "CorpusId": 281724310
      },
      "url": "https://www.semanticscholar.org/paper/08e3d7801d74caea9a086b6dc3ecaeb9c0bef099",
      "title": "FOCUS: Optimal Control for Multi-Entity World Modeling in Text-to-Image Generation",
      "venue": "",
      "year": 2025,
      "referenceCount": 37,
      "citationCount": 0,
      "authors": [
        {
          "authorId": "2325183507",
          "name": "Eric Tillmann Bill"
        },
        {
          "authorId": "1395808197",
          "name": "Enis Simsar"
        },
        {
          "authorId": "2274106972",
          "name": "Thomas Hofmann"
        }
      ]
    },
    {
      "paperId": "c2a35e381f98d9fa36ab8eb6d0a62002a02e0ce4",
      "externalIds": {
        "DOI": "10.1109/O-COCOSDA68185.2025.11385230",
        "CorpusId": 285733877
      },
      "url": "https://www.semanticscholar.org/paper/c2a35e381f98d9fa36ab8eb6d0a62002a02e0ce4",
      "title": "Toward Natural Emotional Text-to-Speech System with Fine-Grained Non-Verbal Expression Control",
      "venue": "Oriental COCOSDA International Conference on Speech Database and Assessments",
      "year": 2025,
      "referenceCount": 18,
      "citationCount": 0,
      "authors": [
        {
          "authorId": "2412017217",
          "name": "Wangzixi Zhou"
        },
        {
          "authorId": "2345621897",
          "name": "Bagus Tris Atmaja"
        },
        {
          "authorId": "1783949",
          "name": "S. Sakti"
        }
      ]
    },
    {
      "paperId": "18ae33503f06c70a3388efb506abfeeaff2975e5",
      "externalIds": {
        "ArXiv": "2401.00896",
        "DBLP": "journals/corr/abs-2401-00896",
        "DOI": "10.1145/3680528.3687652",
        "CorpusId": 266725649
      },
      "url": "https://www.semanticscholar.org/paper/18ae33503f06c70a3388efb506abfeeaff2975e5",
      "title": "TrailBlazer: Trajectory Control for Diffusion-Based Video Generation",
      "venue": "ACM SIGGRAPH Conference and Exhibition on Computer Graphics and Interactive Techniques in Asia",
      "year": 2023,
      "referenceCount": 63,
      "citationCount": 83,
      "authors": [
        {
          "authorId": "2179862003",
          "name": "W. Ma"
        },
        {
          "authorId": "2311908845",
          "name": "J. P. Lewis"
        },
        {
          "authorId": "144015910",
          "name": "W. Kleijn"
        }
      ]
    },
    {
      "paperId": "82ae0d4b41046ccedb435ece08a61f198cf77bb9",
      "externalIds": {
        "DBLP": "journals/corr/abs-1901-09501",
        "MAG": "2911987598",
        "ArXiv": "1901.09501",
        "CorpusId": 59316969
      },
      "url": "https://www.semanticscholar.org/paper/82ae0d4b41046ccedb435ece08a61f198cf77bb9",
      "title": "Toward Unsupervised Text Content Manipulation",
      "venue": "arXiv.org",
      "year": 2019,
      "referenceCount": 35,
      "citationCount": 8,
      "authors": [
        {
          "authorId": "2108329007",
          "name": "Wentao Wang"
        },
        {
          "authorId": "2749311",
          "name": "Zhiting Hu"
        },
        {
          "authorId": "8387085",
          "name": "Zichao Yang"
        },
        {
          "authorId": "48626691",
          "name": "Haoran Shi"
        },
        {
          "authorId": "40027632",
          "name": "Frank F. Xu"
        },
        {
          "authorId": "143977260",
          "name": "E. Xing"
        }
      ]
    },
    {
      "paperId": "e79b77b52c79c40771e6462ff4965a96c366888a",
      "externalIds": {
        "CorpusId": 204749098
      },
      "url": "https://www.semanticscholar.org/paper/e79b77b52c79c40771e6462ff4965a96c366888a",
      "title": "TOWARD CONTROLLABLE TEXT CONTENT MANIPU-",
      "venue": "",
      "year": 2019,
      "referenceCount": 34,
      "citationCount": 0,
      "authors": []
    },
    {
      "paperId": "0aa19060e073e418064ac2271b34b241bb21cfac",
      "externalIds": {
        "DBLP": "journals/corr/abs-2503-17382",
        "ArXiv": "2503.17382",
        "DOI": "10.48550/arXiv.2503.17382",
        "CorpusId": 277272396
      },
      "url": "https://www.semanticscholar.org/paper/0aa19060e073e418064ac2271b34b241bb21cfac",
      "title": "State Fourier Diffusion Language Model (SFDLM): A Scalable, Novel Iterative Approach to Language Modeling",
      "venue": "arXiv.org",
      "year": 2025,
      "referenceCount": 10,
      "citationCount": 2,
      "authors": [
        {
          "authorId": "2316431606",
          "name": "A. Kiruluta"
        },
        {
          "authorId": "2142567000",
          "name": "Andreas Lemos"
        }
      ]
    },
    {
      "paperId": "fc141bb67f3314c281c8c1a3f4ea2b6cc44e4803",
      "externalIds": {
        "ArXiv": "2510.11117",
        "DBLP": "journals/corr/abs-2510-11117",
        "DOI": "10.48550/arXiv.2510.11117",
        "CorpusId": 282057486
      },
      "url": "https://www.semanticscholar.org/paper/fc141bb67f3314c281c8c1a3f4ea2b6cc44e4803",
      "title": "Demystifying Numerosity in Diffusion Models - Limitations and Remedies",
      "venue": "arXiv.org",
      "year": 2025,
      "referenceCount": 42,
      "citationCount": 2,
      "authors": [
        {
          "authorId": "2316586612",
          "name": "Yaqi Zhao"
        },
        {
          "authorId": "2390661917",
          "name": "Xiaochen Wang"
        },
        {
          "authorId": "2365416131",
          "name": "Li Dong"
        },
        {
          "authorId": "2316585161",
          "name": "Wentao Zhang"
        },
        {
          "authorId": "2275355640",
          "name": "Yuhui Yuan"
        }
      ]
    }
  ]
}