{
  "total": 234,
  "offset": 0,
  "next": 10,
  "data": [
    {
      "paperId": "dcc808993310a8a64fdd5efa9e46d0022ff12c27",
      "externalIds": {
        "MAG": "2963473542",
        "DBLP": "conf/icml/CaiYZHY18",
        "ArXiv": "1806.02639",
        "CorpusId": 46985193
      },
      "url": "https://www.semanticscholar.org/paper/dcc808993310a8a64fdd5efa9e46d0022ff12c27",
      "title": "Path-Level Network Transformation for Efficient Architecture Search",
      "venue": "International Conference on Machine Learning",
      "year": 2018,
      "referenceCount": 44,
      "citationCount": 217,
      "authors": [
        {
          "authorId": "145834074",
          "name": "Han Cai"
        },
        {
          "authorId": "2368275200",
          "name": "Jiacheng Yang"
        },
        {
          "authorId": "2108309275",
          "name": "Weinan Zhang"
        },
        {
          "authorId": "143840275",
          "name": "Song Han"
        },
        {
          "authorId": "1811427",
          "name": "Yong Yu"
        }
      ]
    },
    {
      "paperId": "42ce4c3236fd40fa55924f17bc7fe60ce530c985",
      "externalIds": {
        "DBLP": "conf/nips/PengSZTY19",
        "ArXiv": "1909.02293",
        "MAG": "2970867386",
        "CorpusId": 202539930
      },
      "url": "https://www.semanticscholar.org/paper/42ce4c3236fd40fa55924f17bc7fe60ce530c985",
      "title": "Efficient Neural Architecture Transformation Searchin Channel-Level for Object Detection",
      "venue": "Neural Information Processing Systems",
      "year": 2019,
      "referenceCount": 47,
      "citationCount": 57,
      "authors": [
        {
          "authorId": "34735086",
          "name": "Junran Peng"
        },
        {
          "authorId": "2118253835",
          "name": "Ming Sun"
        },
        {
          "authorId": "145274329",
          "name": "Zhaoxiang Zhang"
        },
        {
          "authorId": "143874948",
          "name": "T. Tan"
        },
        {
          "authorId": "1721677",
          "name": "Junjie Yan"
        }
      ]
    },
    {
      "paperId": "2b8732688c9c48a7c8301c9590a79c4430c09e24",
      "externalIds": {
        "DOI": "10.1109/JSEN.2024.3514112",
        "CorpusId": 274842671
      },
      "url": "https://www.semanticscholar.org/paper/2b8732688c9c48a7c8301c9590a79c4430c09e24",
      "title": "Attention-Boosted Path Exploration Neural Architecture Search for Fault Diagnosis of Rotating Machinery",
      "venue": "IEEE Sensors Journal",
      "year": 2025,
      "referenceCount": 42,
      "citationCount": 1,
      "authors": [
        {
          "authorId": "2336246984",
          "name": "Yujing Fang"
        },
        {
          "authorId": "2337019772",
          "name": "Hang Lu"
        },
        {
          "authorId": "2335891047",
          "name": "Dongming Xiao"
        },
        {
          "authorId": "2148947500",
          "name": "Jiebo Li"
        }
      ]
    },
    {
      "paperId": "ddf1f780935feae1bc626e9086554bfd32049f13",
      "externalIds": {
        "DBLP": "journals/corr/abs-2101-06658",
        "MAG": "3123491574",
        "ArXiv": "2101.06658",
        "CorpusId": 231632548
      },
      "url": "https://www.semanticscholar.org/paper/ddf1f780935feae1bc626e9086554bfd32049f13",
      "title": "Trilevel Neural Architecture Search for Efficient Single Image Super-Resolution",
      "venue": "arXiv.org",
      "year": 2021,
      "referenceCount": 33,
      "citationCount": 23,
      "authors": [
        {
          "authorId": "2145072050",
          "name": "Yan Wu"
        },
        {
          "authorId": "145314891",
          "name": "Zhiwu Huang"
        },
        {
          "authorId": "2409281",
          "name": "Suryansh Kumar"
        },
        {
          "authorId": "46219704",
          "name": "R. Sukthanker"
        },
        {
          "authorId": "1732855",
          "name": "R. Timofte"
        },
        {
          "authorId": "1681236",
          "name": "L. Gool"
        }
      ]
    },
    {
      "paperId": "0a39e5ba2f18bf400197c6a01380721334393a16",
      "externalIds": {
        "DBLP": "conf/aaai/00010Y025",
        "ArXiv": "2503.00782",
        "DOI": "10.48550/arXiv.2503.00782",
        "CorpusId": 276741425
      },
      "url": "https://www.semanticscholar.org/paper/0a39e5ba2f18bf400197c6a01380721334393a16",
      "title": "Wavelet-Driven Masked Image Modeling: A Path to Efficient Visual Representation",
      "venue": "AAAI Conference on Artificial Intelligence",
      "year": 2025,
      "referenceCount": 55,
      "citationCount": 3,
      "authors": [
        {
          "authorId": "2125037209",
          "name": "Wenzhao Xiang"
        },
        {
          "authorId": "2407671540",
          "name": "Chang Liu"
        },
        {
          "authorId": "2311513867",
          "name": "Hongyang Yu"
        },
        {
          "authorId": "2387623948",
          "name": "Xilin Chen"
        }
      ]
    },
    {
      "paperId": "05993b11b83f1e22b68c07617206718758814421",
      "externalIds": {
        "DBLP": "conf/wacv/VermaLVA23",
        "DOI": "10.1109/WACV56688.2023.00475",
        "CorpusId": 256651900
      },
      "url": "https://www.semanticscholar.org/paper/05993b11b83f1e22b68c07617206718758814421",
      "title": "RNAS-MER: A Refined Neural Architecture Search with Hybrid Spatiotemporal Operations for Micro-Expression Recognition",
      "venue": "IEEE Workshop/Winter Conference on Applications of Computer Vision",
      "year": 2023,
      "referenceCount": 46,
      "citationCount": 17,
      "authors": [
        {
          "authorId": "145809610",
          "name": "Monu Verma"
        },
        {
          "authorId": "2204876327",
          "name": "Priyanka Lubal"
        },
        {
          "authorId": "145353981",
          "name": "Santosh Kumar Vipparthi"
        },
        {
          "authorId": "92329551",
          "name": "M. Abdel-Mottaleb"
        }
      ]
    },
    {
      "paperId": "90031a84dce2bf4c18d40155b19814e7ae2806e1",
      "externalIds": {
        "DBLP": "conf/aaai/ChenZZP22",
        "DOI": "10.1609/aaai.v36i11.21599",
        "CorpusId": 250296340
      },
      "url": "https://www.semanticscholar.org/paper/90031a84dce2bf4c18d40155b19814e7ae2806e1",
      "title": "Thrifty Neural Architecture Search for Medical Image Segmentation (Student Abstract)",
      "venue": "AAAI Conference on Artificial Intelligence",
      "year": 2022,
      "referenceCount": 4,
      "citationCount": 3,
      "authors": [
        {
          "authorId": "1431760629",
          "name": "Ruibin Chen"
        },
        {
          "authorId": "2112175772",
          "name": "Miao Zhang"
        },
        {
          "authorId": "1430762233",
          "name": "Xin Zheng"
        },
        {
          "authorId": "2153326034",
          "name": "Shirui Pan"
        }
      ]
    },
    {
      "paperId": "9744e65be1ef32cf5101262abff83b641b386b06",
      "externalIds": {
        "DOI": "10.3390/biomimetics11040268",
        "CorpusId": 287451097
      },
      "url": "https://www.semanticscholar.org/paper/9744e65be1ef32cf5101262abff83b641b386b06",
      "title": "Multi-Head Attention Deep Q-Network with Prioritized Experience Replay for UAV Path Planning in Dynamic Environments: A Bio-Inspired Approach",
      "venue": "Biomimetics",
      "year": 2026,
      "referenceCount": 0,
      "citationCount": 0,
      "authors": [
        {
          "authorId": "2321328048",
          "name": "Yang Li"
        },
        {
          "authorId": "2368733433",
          "name": "Xinjie Qian"
        },
        {
          "authorId": "2161721286",
          "name": "Jiexin Zhang"
        },
        {
          "authorId": "2293565429",
          "name": "Xiao Yang"
        },
        {
          "authorId": "2337080983",
          "name": "Chao Deng"
        }
      ]
    },
    {
      "paperId": "10569189e9bdd395e1a5ba71ce223465a31d24da",
      "externalIds": {
        "ArXiv": "2206.08582",
        "DBLP": "conf/icml/ZhangLSL0022",
        "DOI": "10.48550/arXiv.2206.08582",
        "CorpusId": 249847992
      },
      "url": "https://www.semanticscholar.org/paper/10569189e9bdd395e1a5ba71ce223465a31d24da",
      "title": "DFG-NAS: Deep and Flexible Graph Neural Architecture Search",
      "venue": "International Conference on Machine Learning",
      "year": 2022,
      "referenceCount": 41,
      "citationCount": 5,
      "authors": [
        {
          "authorId": "2108232566",
          "name": "Wentao Zhang"
        },
        {
          "authorId": "2108740035",
          "name": "Zheyu Lin"
        },
        {
          "authorId": "2117688209",
          "name": "Yu Shen"
        },
        {
          "authorId": "2154902040",
          "name": "Yang Li"
        },
        {
          "authorId": "2109540175",
          "name": "Zhi Yang"
        },
        {
          "authorId": "2143385807",
          "name": "Bin Cui"
        }
      ]
    },
    {
      "paperId": "6cc14c628234951a14e6171de119732fe9b6fbc4",
      "externalIds": {
        "DBLP": "conf/hpca/XuCCMCZW23",
        "DOI": "10.1109/HPCA56546.2023.10071099",
        "CorpusId": 257720922
      },
      "url": "https://www.semanticscholar.org/paper/6cc14c628234951a14e6171de119732fe9b6fbc4",
      "title": "Efficient Supernet Training Using Path Parallelism",
      "venue": "International Symposium on High-Performance Computer Architecture",
      "year": 2023,
      "referenceCount": 40,
      "citationCount": 1,
      "authors": [
        {
          "authorId": "47103519",
          "name": "Ying-Hua Xu"
        },
        {
          "authorId": "2145203648",
          "name": "Long Cheng"
        },
        {
          "authorId": "92539286",
          "name": "Xuyi Cai"
        },
        {
          "authorId": "2136495336",
          "name": "Xiaohan Ma"
        },
        {
          "authorId": "2109821285",
          "name": "Weiwei Chen"
        },
        {
          "authorId": "1720539",
          "name": "L. Zhang"
        },
        {
          "authorId": "2155514103",
          "name": "Ying Wang"
        }
      ]
    }
  ]
}