{
  "total": 1625,
  "offset": 0,
  "next": 10,
  "data": [
    {
      "paperId": "1a11031f4c89e909b3e68835d3a66827eb5e9b65",
      "externalIds": {
        "MAG": "2537231727",
        "DBLP": "conf/icml/SakaiPNS17",
        "CorpusId": 5513184
      },
      "url": "https://www.semanticscholar.org/paper/1a11031f4c89e909b3e68835d3a66827eb5e9b65",
      "title": "Semi-Supervised Classification Based on Classification from Positive and Unlabeled Data",
      "venue": "International Conference on Machine Learning",
      "year": 2016,
      "referenceCount": 44,
      "citationCount": 99,
      "authors": [
        {
          "authorId": "151357825",
          "name": "Tomoya Sakai"
        },
        {
          "authorId": "3277454",
          "name": "M. C. D. Plessis"
        },
        {
          "authorId": "47537639",
          "name": "Gang Niu"
        },
        {
          "authorId": "67154907",
          "name": "Masashi Sugiyama"
        }
      ]
    },
    {
      "paperId": "781d2350cd81e3d783c9a9245471eba0bbdd8248",
      "externalIds": {
        "ArXiv": "2405.04295",
        "DBLP": "journals/corr/abs-2405-04295",
        "DOI": "10.1109/JBHI.2024.3349412",
        "CorpusId": 266800410,
        "PubMed": "38190665"
      },
      "url": "https://www.semanticscholar.org/paper/781d2350cd81e3d783c9a9245471eba0bbdd8248",
      "title": "Semi-Supervised Disease Classification Based on Limited Medical Image Data",
      "venue": "IEEE journal of biomedical and health informatics",
      "year": 2024,
      "referenceCount": 56,
      "citationCount": 17,
      "authors": [
        {
          "authorId": "2278256683",
          "name": "Yan Zhang"
        },
        {
          "authorId": "2109639708",
          "name": "Chun Li"
        },
        {
          "authorId": "2278186100",
          "name": "Zhaoxia Liu"
        },
        {
          "authorId": "2278183430",
          "name": "Ming Li"
        }
      ]
    },
    {
      "paperId": "1060526d643933d896bf6447db18933a021726c2",
      "externalIds": {
        "DOI": "10.1109/ICBAIE56435.2022.9985903",
        "CorpusId": 254999489
      },
      "url": "https://www.semanticscholar.org/paper/1060526d643933d896bf6447db18933a021726c2",
      "title": "Distributed Semi-Supervised Learning with Positive and Unlabeled Data",
      "venue": "2022 3rd International Conference on Big Data, Artificial Intelligence and Internet of Things Engineering (ICBAIE)",
      "year": 2022,
      "referenceCount": 22,
      "citationCount": 0,
      "authors": [
        {
          "authorId": "5172167",
          "name": "Ying-jia Liu"
        },
        {
          "authorId": "145107889",
          "name": "Chen Zhang"
        }
      ]
    },
    {
      "paperId": "47287831a36c1cc9e1af80c7c390a7dd9488e900",
      "externalIds": {
        "CorpusId": 52060952
      },
      "url": "https://www.semanticscholar.org/paper/47287831a36c1cc9e1af80c7c390a7dd9488e900",
      "title": "Semi-Supervised Classification based on Positive-Unlabeled Classification",
      "venue": "",
      "year": 2017,
      "referenceCount": 4,
      "citationCount": 1,
      "authors": [
        {
          "authorId": "151357825",
          "name": "Tomoya Sakai"
        },
        {
          "authorId": "3277454",
          "name": "M. C. D. Plessis"
        },
        {
          "authorId": "47537639",
          "name": "Gang Niu"
        },
        {
          "authorId": "67154907",
          "name": "Masashi Sugiyama"
        }
      ]
    },
    {
      "paperId": "2c16d9a1d1451a93bbd3fdf37de9f8d10bbb0e03",
      "externalIds": {
        "DBLP": "journals/kbs/HeLZ17",
        "MAG": "2592184791",
        "DOI": "10.1016/j.knosys.2017.03.004",
        "CorpusId": 34923828
      },
      "url": "https://www.semanticscholar.org/paper/2c16d9a1d1451a93bbd3fdf37de9f8d10bbb0e03",
      "title": "An uncertainty and density based active semi-supervised learning scheme for positive unlabeled multivariate time series classification",
      "venue": "Knowledge-Based Systems",
      "year": 2017,
      "referenceCount": 42,
      "citationCount": 35,
      "authors": [
        {
          "authorId": "7200135",
          "name": "Guoliang He"
        },
        {
          "authorId": "2110489492",
          "name": "Yifei Li"
        },
        {
          "authorId": "2118224328",
          "name": "Wen Zhao"
        }
      ]
    },
    {
      "paperId": "38a9b47ca648d12aed1d89d40313fe56958a51aa",
      "externalIds": {
        "DOI": "10.1109/IFEEA66847.2025.11387852",
        "CorpusId": 285731080
      },
      "url": "https://www.semanticscholar.org/paper/38a9b47ca648d12aed1d89d40313fe56958a51aa",
      "title": "A Suitability Assessment Method for Photovoltaic Power Plant Site Selection based on Semi-supervised Learning",
      "venue": "2025 12th International Forum on Electrical Engineering and Automation (IFEEA)",
      "year": 2025,
      "referenceCount": 13,
      "citationCount": 0,
      "authors": [
        {
          "authorId": "2362055585",
          "name": "Kai Yu"
        },
        {
          "authorId": "2276419482",
          "name": "Gang Wang"
        },
        {
          "authorId": "2411998561",
          "name": "X. Duan"
        },
        {
          "authorId": "2306471998",
          "name": "Xuekai Wang"
        },
        {
          "authorId": "2242953757",
          "name": "Maode Yan"
        }
      ]
    },
    {
      "paperId": "86ee1bd826dd9e2a5a1e82bc58d8743c2f50e6d6",
      "externalIds": {
        "MAG": "2611891615",
        "DBLP": "journals/ml/SakaiNS18",
        "ArXiv": "1705.01708",
        "DOI": "10.1007/s10994-017-5678-9",
        "CorpusId": 3901280
      },
      "url": "https://www.semanticscholar.org/paper/86ee1bd826dd9e2a5a1e82bc58d8743c2f50e6d6",
      "title": "Semi-supervised AUC optimization based on positive-unlabeled learning",
      "venue": "Machine-mediated learning",
      "year": 2017,
      "referenceCount": 36,
      "citationCount": 66,
      "authors": [
        {
          "authorId": "151357825",
          "name": "Tomoya Sakai"
        },
        {
          "authorId": "47537639",
          "name": "Gang Niu"
        },
        {
          "authorId": "67154907",
          "name": "Masashi Sugiyama"
        }
      ]
    },
    {
      "paperId": "25b79af99899876d38657983bb43b1aca2807ced",
      "externalIds": {
        "DBLP": "journals/corr/abs-2208-13946",
        "ArXiv": "2208.13946",
        "DOI": "10.48550/arXiv.2208.13946",
        "CorpusId": 251929323
      },
      "url": "https://www.semanticscholar.org/paper/25b79af99899876d38657983bb43b1aca2807ced",
      "title": "PercentMatch: Percentile-based Dynamic Thresholding for Multi-Label Semi-Supervised Classification",
      "venue": "arXiv.org",
      "year": 2022,
      "referenceCount": 38,
      "citationCount": 7,
      "authors": [
        {
          "authorId": "2118224125",
          "name": "Jun Huang"
        },
        {
          "authorId": "2383262727",
          "name": "A. Huang"
        },
        {
          "authorId": "2071176065",
          "name": "Beatriz C. Guerra"
        },
        {
          "authorId": "1915432",
          "name": "Yen-Yun Yu"
        }
      ]
    },
    {
      "paperId": "205a714cd09b59a2b0d06066bd97bc8207289c96",
      "externalIds": {
        "MAG": "188410078",
        "DBLP": "conf/amt/YuZL06",
        "CorpusId": 18657045
      },
      "url": "https://www.semanticscholar.org/paper/205a714cd09b59a2b0d06066bd97bc8207289c96",
      "title": "Semi-Supervised Text Classification Using Positive and Unlabeled Data",
      "venue": "Active Media Technology",
      "year": 2006,
      "referenceCount": 6,
      "citationCount": 2,
      "authors": [
        {
          "authorId": "2116618536",
          "name": "Shuang Yu"
        },
        {
          "authorId": "50177241",
          "name": "Xueyuan Zhou"
        },
        {
          "authorId": "2109333498",
          "name": "Chunping Li"
        }
      ]
    },
    {
      "paperId": "b2154d794a4cdbac6697c44f63df0a5583dbd0ce",
      "externalIds": {
        "DBLP": "journals/ml/SouzaNRMSR22",
        "PubMedCentral": "8601374",
        "DOI": "10.1007/s10994-021-06111-6",
        "CorpusId": 244412913,
        "PubMed": "34815619"
      },
      "url": "https://www.semanticscholar.org/paper/b2154d794a4cdbac6697c44f63df0a5583dbd0ce",
      "title": "A network-based positive and unlabeled learning approach for fake news detection",
      "venue": "Machine-mediated learning",
      "year": 2021,
      "referenceCount": 100,
      "citationCount": 36,
      "authors": [
        {
          "authorId": "2141502872",
          "name": "Mariana Caravanti de Souza"
        },
        {
          "authorId": "1949988",
          "name": "Bruno M. Nogueira"
        },
        {
          "authorId": "27076879",
          "name": "R. G. Rossi"
        },
        {
          "authorId": "1916456",
          "name": "R. Marcacini"
        },
        {
          "authorId": "2141359351",
          "name": "Brucce Neves dos Santos"
        },
        {
          "authorId": "1806906",
          "name": "S. O. Rezende"
        }
      ]
    }
  ]
}