{
  "total": 21,
  "offset": 0,
  "next": 10,
  "data": [
    {
      "paperId": "0f3a3e262beb57c31c0dc6adbd4aaac2fc6dd49a",
      "externalIds": {
        "DBLP": "journals/corr/abs-1806-06931",
        "MAG": "2950594258",
        "ArXiv": "1806.06931",
        "CorpusId": 4670331
      },
      "url": "https://www.semanticscholar.org/paper/0f3a3e262beb57c31c0dc6adbd4aaac2fc6dd49a",
      "title": "Reinforcement Learning with Function-Valued Action Spaces for Partial Differential Equation Control",
      "venue": "International Conference on Machine Learning",
      "year": 2018,
      "referenceCount": 62,
      "citationCount": 20,
      "authors": [
        {
          "authorId": "7303313",
          "name": "Yangchen Pan"
        },
        {
          "authorId": "5689899",
          "name": "Amir-massoud Farahmand"
        },
        {
          "authorId": "144542337",
          "name": "Martha White"
        },
        {
          "authorId": "1876327",
          "name": "S. Nabi"
        },
        {
          "authorId": "48288901",
          "name": "P. Grover"
        },
        {
          "authorId": "2965906",
          "name": "D. Nikovski"
        }
      ]
    },
    {
      "paperId": "667b276412d844a4bccb9d3178371a7f33d35cd2",
      "externalIds": {
        "ArXiv": "2509.06782",
        "DBLP": "journals/corr/abs-2509-06782",
        "DOI": "10.48550/arXiv.2509.06782",
        "CorpusId": 281203507
      },
      "url": "https://www.semanticscholar.org/paper/667b276412d844a4bccb9d3178371a7f33d35cd2",
      "title": "Physics-informed Value Learner for Offline Goal-Conditioned Reinforcement Learning",
      "venue": "arXiv.org",
      "year": 2025,
      "referenceCount": 51,
      "citationCount": 3,
      "authors": [
        {
          "authorId": "2404643537",
          "name": "Vittorio Giammarino"
        },
        {
          "authorId": "51152285",
          "name": "Ruiqi Ni"
        },
        {
          "authorId": "51014775",
          "name": "A. H. Qureshi"
        }
      ]
    },
    {
      "paperId": "3e34d2e14e9e67215efe6c59f971896cd0f282c9",
      "externalIds": {
        "DBLP": "journals/corr/abs-2203-16732",
        "DOI": "10.48550/arXiv.2203.16732",
        "CorpusId": 247839473
      },
      "url": "https://www.semanticscholar.org/paper/3e34d2e14e9e67215efe6c59f971896cd0f282c9",
      "title": "Deep Reinforcement Learning with Graph ConvNets for Distribution Network Voltage Control",
      "venue": "arXiv.org",
      "year": 2022,
      "referenceCount": 30,
      "citationCount": 1,
      "authors": [
        {
          "authorId": "2112559614",
          "name": "Tong Wu"
        },
        {
          "authorId": "2160887545",
          "name": "Ignacio Losada Carreño"
        },
        {
          "authorId": "3076463",
          "name": "A. Scaglione"
        },
        {
          "authorId": "143862363",
          "name": "D. Arnold"
        }
      ]
    },
    {
      "paperId": "e158058119c913918a30884c81ee5d46c8b26166",
      "externalIds": {
        "MAG": "3097267952",
        "DBLP": "journals/ijsysc/Perrusquia021",
        "DOI": "10.1080/00207721.2020.1839142",
        "CorpusId": 228836518
      },
      "url": "https://www.semanticscholar.org/paper/e158058119c913918a30884c81ee5d46c8b26166",
      "title": "Continuous-time reinforcement learning for robust control under worst-case uncertainty",
      "venue": "International Journal of Systems Science",
      "year": 2020,
      "referenceCount": 26,
      "citationCount": 26,
      "authors": [
        {
          "authorId": "7821397",
          "name": "Adolfo Perrusquía"
        },
        {
          "authorId": "98380615",
          "name": "Wen Yu"
        }
      ]
    },
    {
      "paperId": "68d2a1be197ff1b6669906b1de8c68d5f710bd91",
      "externalIds": {
        "MAG": "2201570790",
        "DOI": "10.1109/JAS.2014.7004690",
        "CorpusId": 23481986
      },
      "url": "https://www.semanticscholar.org/paper/68d2a1be197ff1b6669906b1de8c68d5f710bd91",
      "title": "Continuous action reinforcement learning for control-affine systems with unknown dynamics",
      "venue": "IEEE/CAA Journal of Automatica Sinica",
      "year": 2014,
      "referenceCount": 37,
      "citationCount": 27,
      "authors": [
        {
          "authorId": "34598653",
          "name": "Aleksandra Faust"
        },
        {
          "authorId": "101349223",
          "name": "P. Ruymgaart"
        },
        {
          "authorId": "48311172",
          "name": "Molly Salman"
        },
        {
          "authorId": "144973304",
          "name": "R. Fierro"
        },
        {
          "authorId": "144922292",
          "name": "Lydia Tapia"
        }
      ]
    },
    {
      "paperId": "9eea7eea0ab03d57dee39a98ca2ac5c0896a60ee",
      "externalIds": {
        "MAG": "2972586385",
        "DBLP": "conf/corl/LutterBLC019",
        "ArXiv": "1909.06153",
        "CorpusId": 202573070
      },
      "url": "https://www.semanticscholar.org/paper/9eea7eea0ab03d57dee39a98ca2ac5c0896a60ee",
      "title": "HJB Optimal Feedback Control with Deep Differential Value Functions and Action Constraints",
      "venue": "Conference on Robot Learning",
      "year": 2019,
      "referenceCount": 29,
      "citationCount": 23,
      "authors": [
        {
          "authorId": "49199170",
          "name": "M. Lutter"
        },
        {
          "authorId": "29505409",
          "name": "B. Belousov"
        },
        {
          "authorId": "3217690",
          "name": "Kim D. Listmann"
        },
        {
          "authorId": "33676233",
          "name": "Debora Clever"
        },
        {
          "authorId": "145197867",
          "name": "Jan Peters"
        }
      ]
    },
    {
      "paperId": "1c38a6912021dcf6792c152be3f7ee74da2752d7",
      "externalIds": {
        "MAG": "3115534767",
        "DOI": "10.3390/app11010229",
        "CorpusId": 234385563
      },
      "url": "https://www.semanticscholar.org/paper/1c38a6912021dcf6792c152be3f7ee74da2752d7",
      "title": "Preventive Control Policy Construction in Active Distribution Network of Cyber-Physical System with Reinforcement Learning",
      "venue": "Applied Sciences",
      "year": 2020,
      "referenceCount": 26,
      "citationCount": 4,
      "authors": [
        {
          "authorId": "2075417164",
          "name": "Pengpeng Sun"
        },
        {
          "authorId": "7572065",
          "name": "Yunwei Dong"
        },
        {
          "authorId": "2089683323",
          "name": "Sen Yuan"
        },
        {
          "authorId": "2108882854",
          "name": "Chong Wang"
        }
      ]
    },
    {
      "paperId": "663c60a7b42f254e5cc91cb21f808fde41079e05",
      "externalIds": {
        "ArXiv": "2602.23280",
        "DBLP": "journals/corr/abs-2602-23280",
        "DOI": "10.48550/arXiv.2602.23280",
        "CorpusId": 286083308
      },
      "url": "https://www.semanticscholar.org/paper/663c60a7b42f254e5cc91cb21f808fde41079e05",
      "title": "Physics Informed Viscous Value Representations",
      "venue": "arXiv.org",
      "year": 2026,
      "referenceCount": 48,
      "citationCount": 1,
      "authors": [
        {
          "authorId": "2121195389",
          "name": "Hrishikesh Viswanath"
        },
        {
          "authorId": "2053819036",
          "name": "Juanwu Lu"
        },
        {
          "authorId": "2379087290",
          "name": "S. Bukhari"
        },
        {
          "authorId": "2322792986",
          "name": "Damon Conover"
        },
        {
          "authorId": "4141749",
          "name": "Ziran Wang"
        },
        {
          "authorId": "2286848568",
          "name": "Aniket Bera"
        }
      ]
    },
    {
      "paperId": "f8063f46be054f0afbe8e0918615f2d879c9fba4",
      "externalIds": {
        "DBLP": "conf/nips/AltSK20",
        "MAG": "3089663915",
        "ArXiv": "2010.01014",
        "CorpusId": 222124817
      },
      "url": "https://www.semanticscholar.org/paper/f8063f46be054f0afbe8e0918615f2d879c9fba4",
      "title": "POMDPs in Continuous Time and Discrete Spaces",
      "venue": "Neural Information Processing Systems",
      "year": 2020,
      "referenceCount": 62,
      "citationCount": 9,
      "authors": [
        {
          "authorId": "20763559",
          "name": "Bastian Alt"
        },
        {
          "authorId": "50823872",
          "name": "M. Schultheis"
        },
        {
          "authorId": "1716763",
          "name": "H. Koeppl"
        }
      ]
    },
    {
      "paperId": "2ef6c9cd26337d799ffb0725b2276420eae5cde3",
      "externalIds": {
        "DBLP": "journals/tnn/WuL12",
        "MAG": "2019478222",
        "DOI": "10.1109/TNNLS.2012.2217349",
        "CorpusId": 450038,
        "PubMed": "24808144"
      },
      "url": "https://www.semanticscholar.org/paper/2ef6c9cd26337d799ffb0725b2276420eae5cde3",
      "title": "Neural Network Based Online Simultaneous Policy Update Algorithm for Solving the HJI Equation in Nonlinear $H_{\\infty}$ Control",
      "venue": "IEEE Transactions on Neural Networks and Learning Systems",
      "year": 2012,
      "referenceCount": 50,
      "citationCount": 133,
      "authors": [
        {
          "authorId": "1720367",
          "name": "Huai‐Ning Wu"
        },
        {
          "authorId": "36735407",
          "name": "Biao Luo"
        }
      ]
    }
  ]
}