{
  "total": 142,
  "offset": 0,
  "next": 10,
  "data": [
    {
      "paperId": "354fb2f2607040fb461095cf3b2c90fbc66bd852",
      "externalIds": {
        "MAG": "2592362528",
        "ArXiv": "1703.00854",
        "DBLP": "conf/icml/BachHRR17",
        "CorpusId": 5751352,
        "PubMed": "30882087"
      },
      "url": "https://www.semanticscholar.org/paper/354fb2f2607040fb461095cf3b2c90fbc66bd852",
      "title": "Learning the Structure of Generative Models without Labeled Data",
      "venue": "International Conference on Machine Learning",
      "year": 2017,
      "referenceCount": 37,
      "citationCount": 178,
      "authors": [
        {
          "authorId": "2870504",
          "name": "Stephen H. Bach"
        },
        {
          "authorId": "17303636",
          "name": "Bryan D. He"
        },
        {
          "authorId": "143711421",
          "name": "Alexander J. Ratner"
        },
        {
          "authorId": "2114485554",
          "name": "C. Ré"
        }
      ]
    },
    {
      "paperId": "65215b31a6d5398ce883cd172eb2160a1f85dd97",
      "externalIds": {
        "MAG": "2760375580",
        "ArXiv": "1610.08123",
        "CorpusId": 43893689
      },
      "url": "https://www.semanticscholar.org/paper/65215b31a6d5398ce883cd172eb2160a1f85dd97",
      "title": "Socratic Learning: Augmenting Generative Models to Incorporate Latent Subsets in Training Data",
      "venue": "",
      "year": 2016,
      "referenceCount": 34,
      "citationCount": 26,
      "authors": [
        {
          "authorId": "1782486",
          "name": "P. Varma"
        },
        {
          "authorId": "17303636",
          "name": "Bryan D. He"
        },
        {
          "authorId": "3310951",
          "name": "Dan Iter"
        },
        {
          "authorId": "2091437540",
          "name": "Peng Xu"
        },
        {
          "authorId": "2023052",
          "name": "Rose Yu"
        },
        {
          "authorId": "1801197",
          "name": "Christopher De Sa"
        },
        {
          "authorId": "1803218",
          "name": "Christopher Ré"
        }
      ]
    },
    {
      "paperId": "fc661a50c4265dde8e334f3ac57e7ce72446f5e4",
      "externalIds": {
        "DBLP": "journals/patterns/BhowmikZFIG24",
        "PubMedCentral": "11026973",
        "DOI": "10.1016/j.patter.2024.100947",
        "CorpusId": 268423149,
        "PubMed": "38645768"
      },
      "url": "https://www.semanticscholar.org/paper/fc661a50c4265dde8e334f3ac57e7ce72446f5e4",
      "title": "Enhancing molecular design efficiency: Uniting language models and generative networks with genetic algorithms",
      "venue": "Patterns",
      "year": 2024,
      "referenceCount": 40,
      "citationCount": 12,
      "authors": [
        {
          "authorId": "7937230",
          "name": "D. Bhowmik"
        },
        {
          "authorId": "2261892766",
          "name": "Pei Zhang"
        },
        {
          "authorId": "2240047952",
          "name": "Z. Fox"
        },
        {
          "authorId": "2267115236",
          "name": "Stephan Irle"
        },
        {
          "authorId": "2408279439",
          "name": "John Gounley"
        }
      ]
    },
    {
      "paperId": "278946c9b7748398331e8301b22af4826b2b85b3",
      "externalIds": {
        "DBLP": "journals/corr/abs-2404-00909",
        "ArXiv": "2404.00909",
        "DOI": "10.1109/CVPR52733.2024.01275",
        "CorpusId": 268819483
      },
      "url": "https://www.semanticscholar.org/paper/278946c9b7748398331e8301b22af4826b2b85b3",
      "title": "Learning by Correction: Efficient Tuning Task for Zero-Shot Generative Vision-Language Reasoning",
      "venue": "Computer Vision and Pattern Recognition",
      "year": 2024,
      "referenceCount": 44,
      "citationCount": 3,
      "authors": [
        {
          "authorId": "2119920690",
          "name": "Rongjie Li"
        },
        {
          "authorId": "2294513413",
          "name": "Yu Wu"
        },
        {
          "authorId": "2294516132",
          "name": "Xuming He"
        }
      ]
    },
    {
      "paperId": "b1c3d317eb9c0b35be89ffb1d3948ff828f84f94",
      "externalIds": {
        "DBLP": "conf/aaai/Ho26a",
        "DOI": "10.1609/aaai.v40i48.42153",
        "CorpusId": 286674740
      },
      "url": "https://www.semanticscholar.org/paper/b1c3d317eb9c0b35be89ffb1d3948ff828f84f94",
      "title": "Time-Series Anomaly Detection with Graph-Based Self-Supervised Learning and Foundation Models: Towards Real-World Applications",
      "venue": "AAAI Conference on Artificial Intelligence",
      "year": 2026,
      "referenceCount": 0,
      "citationCount": 0,
      "authors": [
        {
          "authorId": "2260338184",
          "name": "Thi Kieu Khanh Ho"
        }
      ]
    },
    {
      "paperId": "23ac024ead4265caa76f03bc74ab580405b12391",
      "externalIds": {
        "DBLP": "conf/uai/Re17",
        "MAG": "2773321653",
        "CorpusId": 41937365
      },
      "url": "https://www.semanticscholar.org/paper/23ac024ead4265caa76f03bc74ab580405b12391",
      "title": "Snorkel: Beyond Hand-labeled Data",
      "venue": "Conference on Uncertainty in Artificial Intelligence",
      "year": 2017,
      "referenceCount": 0,
      "citationCount": 1,
      "authors": [
        {
          "authorId": "2114485554",
          "name": "C. Ré"
        }
      ]
    },
    {
      "paperId": "34e30aaf0dd80b3f630a3d9fab1db4eb6a15a593",
      "externalIds": {
        "ArXiv": "1709.02477",
        "DBLP": "journals/corr/abs-1709-02477",
        "MAG": "2962778704",
        "CorpusId": 10053712,
        "PubMed": "29391769"
      },
      "url": "https://www.semanticscholar.org/paper/34e30aaf0dd80b3f630a3d9fab1db4eb6a15a593",
      "title": "Inferring Generative Model Structure with Static Analysis",
      "venue": "Neural Information Processing Systems",
      "year": 2017,
      "referenceCount": 51,
      "citationCount": 61,
      "authors": [
        {
          "authorId": "1782486",
          "name": "P. Varma"
        },
        {
          "authorId": "17303636",
          "name": "Bryan D. He"
        },
        {
          "authorId": "34765717",
          "name": "Payal Bajaj"
        },
        {
          "authorId": "24576644",
          "name": "Nishith Khandwala"
        },
        {
          "authorId": "2080947",
          "name": "I. Banerjee"
        },
        {
          "authorId": "143648587",
          "name": "D. Rubin"
        },
        {
          "authorId": "1803218",
          "name": "Christopher Ré"
        }
      ]
    },
    {
      "paperId": "7f30b482d0d11d0e5a3f0980093568967f462ed9",
      "externalIds": {
        "DBLP": "journals/corr/abs-2505-02654",
        "ArXiv": "2505.02654",
        "DOI": "10.1007/978-3-031-73281-2_9",
        "CorpusId": 273374641
      },
      "url": "https://www.semanticscholar.org/paper/7f30b482d0d11d0e5a3f0980093568967f462ed9",
      "title": "Sim2Real in Endoscopy Segmentation with a Novel Structure Aware Image Translation",
      "venue": "SASHIMI@MICCAI",
      "year": 2025,
      "referenceCount": 25,
      "citationCount": 1,
      "authors": [
        {
          "authorId": "2157274915",
          "name": "Clara Tomasini"
        },
        {
          "authorId": "2385425077",
          "name": "Luis Riazuelo"
        },
        {
          "authorId": "2254300670",
          "name": "A. C. Murillo"
        }
      ]
    },
    {
      "paperId": "ecb125b84ed9c4a2f634111c855a06ecb8956b10",
      "externalIds": {
        "MAG": "2789426727",
        "DBLP": "journals/mta/SunH20",
        "DOI": "10.1007/s11042-018-5748-4",
        "CorpusId": 64678375
      },
      "url": "https://www.semanticscholar.org/paper/ecb125b84ed9c4a2f634111c855a06ecb8956b10",
      "title": "A novel approach to generate a large scale of supervised data for short text sentiment analysis",
      "venue": "Multimedia tools and applications",
      "year": 2018,
      "referenceCount": 46,
      "citationCount": 57,
      "authors": [
        {
          "authorId": "1390891968",
          "name": "Xiao Sun"
        },
        {
          "authorId": "50774656",
          "name": "Jiajin He"
        }
      ]
    },
    {
      "paperId": "11de5b70918e4a118e8e49a3ae09110bbf59ea83",
      "externalIds": {
        "MAG": "2084336274",
        "DBLP": "journals/cogsci/Hinton14",
        "DOI": "10.1111/cogs.12049",
        "CorpusId": 6030039,
        "PubMed": "23800216"
      },
      "url": "https://www.semanticscholar.org/paper/11de5b70918e4a118e8e49a3ae09110bbf59ea83",
      "title": "Where Do Features Come From?",
      "venue": "Cognitive Sciences",
      "year": 2014,
      "referenceCount": 62,
      "citationCount": 82,
      "authors": [
        {
          "authorId": "1695689",
          "name": "Geoffrey E. Hinton"
        }
      ]
    }
  ]
}