{
  "total": 1623,
  "offset": 0,
  "next": 10,
  "data": [
    {
      "paperId": "b68673a166f9c620e13152f63d358fb8fce7850d",
      "externalIds": {
        "DBLP": "journals/corr/OmidshafieiPAHV17",
        "MAG": "2951896791",
        "ArXiv": "1703.06182",
        "CorpusId": 8894704
      },
      "url": "https://www.semanticscholar.org/paper/b68673a166f9c620e13152f63d358fb8fce7850d",
      "title": "Deep Decentralized Multi-task Multi-Agent Reinforcement Learning under Partial Observability",
      "venue": "International Conference on Machine Learning",
      "year": 2017,
      "referenceCount": 51,
      "citationCount": 559,
      "authors": [
        {
          "authorId": "3093004",
          "name": "Shayegan Omidshafiei"
        },
        {
          "authorId": "3140253",
          "name": "Jason Pazis"
        },
        {
          "authorId": "34903901",
          "name": "Chris Amato"
        },
        {
          "authorId": "1713935",
          "name": "J. How"
        },
        {
          "authorId": "40497882",
          "name": "J. Vian"
        }
      ]
    },
    {
      "paperId": "edd586ffe3baba8f722da776daeb103dac74def5",
      "externalIds": {
        "DBLP": "journals/nn/WangWYPLY24",
        "DOI": "10.1016/j.neunet.2024.106621",
        "CorpusId": 271809566,
        "PubMed": "39153402"
      },
      "url": "https://www.semanticscholar.org/paper/edd586ffe3baba8f722da776daeb103dac74def5",
      "title": "Joint computation offloading and resource allocation for end-edge collaboration in internet of vehicles via multi-agent reinforcement learning",
      "venue": "Neural Networks",
      "year": 2024,
      "referenceCount": 38,
      "citationCount": 19,
      "authors": [
        {
          "authorId": "2142659302",
          "name": "Cong Wang"
        },
        {
          "authorId": "2373991668",
          "name": "Yao Wang"
        },
        {
          "authorId": "1410122065",
          "name": "Ying Yuan"
        },
        {
          "authorId": "2038469",
          "name": "Sancheng Peng"
        },
        {
          "authorId": "2297935695",
          "name": "Guorui Li"
        },
        {
          "authorId": "49114549",
          "name": "Pengfei Yin"
        }
      ]
    },
    {
      "paperId": "bba4c4a827897dd63af452ffeea77d91a26c7b5b",
      "externalIds": {
        "MAG": "2966896140",
        "CorpusId": 201886040
      },
      "url": "https://www.semanticscholar.org/paper/bba4c4a827897dd63af452ffeea77d91a26c7b5b",
      "title": "Deep Decentralized Multi-task Multi-Agent RL under Partial Observability",
      "venue": "",
      "year": 2017,
      "referenceCount": 0,
      "citationCount": 27,
      "authors": [
        {
          "authorId": "3093004",
          "name": "Shayegan Omidshafiei"
        },
        {
          "authorId": "3140253",
          "name": "Jason Pazis"
        },
        {
          "authorId": "34903901",
          "name": "Chris Amato"
        },
        {
          "authorId": "1713935",
          "name": "J. How"
        },
        {
          "authorId": "40497882",
          "name": "J. Vian"
        }
      ]
    },
    {
      "paperId": "ce756c11e4e161778ee18123897542725d7cd612",
      "externalIds": {
        "DBLP": "journals/ijrr/XiaoTHXA25",
        "DOI": "10.1177/02783649241306124",
        "CorpusId": 276221577
      },
      "url": "https://www.semanticscholar.org/paper/ce756c11e4e161778ee18123897542725d7cd612",
      "title": "Asynchronous multi-agent deep reinforcement learning under partial observability",
      "venue": "Int. J. Robotics Res.",
      "year": 2025,
      "referenceCount": 87,
      "citationCount": 5,
      "authors": [
        {
          "authorId": "152130115",
          "name": "Yuchen Xiao"
        },
        {
          "authorId": "2390592529",
          "name": "Weihao Tan"
        },
        {
          "authorId": "2055095397",
          "name": "Joshua Hoffman"
        },
        {
          "authorId": "2143749749",
          "name": "Tian Xia"
        },
        {
          "authorId": "2301014213",
          "name": "Christopher Amato"
        }
      ]
    },
    {
      "paperId": "be1eee056b0412f4f2adac754c29c5e4cf1bc68b",
      "externalIds": {
        "DOI": "10.1109/TPWRS.2024.3403715",
        "CorpusId": 269965001
      },
      "url": "https://www.semanticscholar.org/paper/be1eee056b0412f4f2adac754c29c5e4cf1bc68b",
      "title": "Deep Multi-Task Multi-Agent Reinforcement Learning Based Joint Bidding and Pricing Strategy of Price-Maker Load Serving Entity",
      "venue": "IEEE Transactions on Power Systems",
      "year": 2025,
      "referenceCount": 0,
      "citationCount": 14,
      "authors": [
        {
          "authorId": "2146234550",
          "name": "Hongsheng Xu"
        },
        {
          "authorId": "3305560",
          "name": "Qinran Hu"
        },
        {
          "authorId": "2241103269",
          "name": "Qiuwei Wu"
        },
        {
          "authorId": "2261937257",
          "name": "Ke Wang"
        },
        {
          "authorId": "2302693350",
          "name": "Feng Wu"
        },
        {
          "authorId": "2240290397",
          "name": "Jinyu Wen"
        }
      ]
    },
    {
      "paperId": "57a7ea74538012281edf749a9f629f5282d5148f",
      "externalIds": {
        "DBLP": "journals/corr/abs-2504-08417",
        "ArXiv": "2504.08417",
        "DOI": "10.48550/arXiv.2504.08417",
        "CorpusId": 277741331
      },
      "url": "https://www.semanticscholar.org/paper/57a7ea74538012281edf749a9f629f5282d5148f",
      "title": "Belief States for Cooperative Multi-Agent Reinforcement Learning under Partial Observability",
      "venue": "arXiv.org",
      "year": 2025,
      "referenceCount": 45,
      "citationCount": 0,
      "authors": [
        {
          "authorId": "69943376",
          "name": "Paul J. Pritz"
        },
        {
          "authorId": "2355086251",
          "name": "Kin K. Leung"
        }
      ]
    },
    {
      "paperId": "20fab0f56faba9fa978c95bcc1e98d5113756b69",
      "externalIds": {
        "DBLP": "journals/corr/abs-2209-10003",
        "ArXiv": "2209.10003",
        "DOI": "10.48550/arXiv.2209.10003",
        "CorpusId": 252407760
      },
      "url": "https://www.semanticscholar.org/paper/20fab0f56faba9fa978c95bcc1e98d5113756b69",
      "title": "Macro-Action-Based Multi-Agent/Robot Deep Reinforcement Learning under Partial Observability",
      "venue": "arXiv.org",
      "year": 2022,
      "referenceCount": 0,
      "citationCount": 5,
      "authors": [
        {
          "authorId": "152130115",
          "name": "Yuchen Xiao"
        }
      ]
    },
    {
      "paperId": "ee752ffc51bf5da93ab24ccd6579454fa7a4cbd4",
      "externalIds": {
        "PubMedCentral": "12575782",
        "DOI": "10.1038/s41467-025-64591-9",
        "CorpusId": 282597203,
        "PubMed": "41168163"
      },
      "url": "https://www.semanticscholar.org/paper/ee752ffc51bf5da93ab24ccd6579454fa7a4cbd4",
      "title": "Hippocampus supports multi-task reinforcement learning under partial observability",
      "venue": "Nature Communications",
      "year": 2025,
      "referenceCount": 77,
      "citationCount": 4,
      "authors": [
        {
          "authorId": "41017883",
          "name": "Dabal Pedamonti"
        },
        {
          "authorId": "2381363244",
          "name": "Samia Mohinta"
        },
        {
          "authorId": "2266421071",
          "name": "Martin V. Dimitrov"
        },
        {
          "authorId": "1403414094",
          "name": "Hugo Malagon-Vina"
        },
        {
          "authorId": "2276434813",
          "name": "Stéphane Ciocchi"
        },
        {
          "authorId": "2238375986",
          "name": "Rui Ponte Costa"
        }
      ]
    },
    {
      "paperId": "fac2e7897d9580f66a8b09e0bf999293fc1d9df9",
      "externalIds": {
        "DBLP": "journals/corr/abs-2505-06997",
        "ArXiv": "2505.06997",
        "DOI": "10.48550/arXiv.2505.06997",
        "CorpusId": 278504061
      },
      "url": "https://www.semanticscholar.org/paper/fac2e7897d9580f66a8b09e0bf999293fc1d9df9",
      "title": "A Multi-Agent Reinforcement Learning Approach for Cooperative Air-Ground-Human Crowdsensing in Emergency Rescue",
      "venue": "arXiv.org",
      "year": 2025,
      "referenceCount": 53,
      "citationCount": 1,
      "authors": [
        {
          "authorId": "2360376383",
          "name": "Wenhao Lu"
        },
        {
          "authorId": "46637910",
          "name": "Zhengqiu Zhu"
        },
        {
          "authorId": "2360568404",
          "name": "Yong Zhao"
        },
        {
          "authorId": "32847052",
          "name": "Yonglin Tian"
        },
        {
          "authorId": "121821079",
          "name": "Junjie Zeng"
        },
        {
          "authorId": "2360791775",
          "name": "Jun Zhang"
        },
        {
          "authorId": "2264711433",
          "name": "Zhong Liu"
        },
        {
          "authorId": "2303425508",
          "name": "Fei Wang"
        }
      ]
    },
    {
      "paperId": "f74b9eca805ab2138d1560970c1fd5375722bc7e",
      "externalIds": {
        "ArXiv": "2512.04653",
        "CorpusId": 283557480
      },
      "url": "https://www.semanticscholar.org/paper/f74b9eca805ab2138d1560970c1fd5375722bc7e",
      "title": "A Semi Centralized Training Decentralized Execution Architecture for Multi Agent Deep Reinforcement Learning in Traffic Signal Control",
      "venue": "",
      "year": 2025,
      "referenceCount": 29,
      "citationCount": 0,
      "authors": [
        {
          "authorId": "2396368214",
          "name": "Arash Rezaali"
        },
        {
          "authorId": "2396355480",
          "name": "Pouria Yazdani"
        },
        {
          "authorId": "1793223",
          "name": "Monireh Abdoos"
        }
      ]
    }
  ]
}