{
  "total": 33331,
  "offset": 0,
  "next": 10,
  "data": [
    {
      "paperId": "9345235749cfa2c7b13ab2acfc5cef43a01e0723",
      "externalIds": {
        "DBLP": "journals/corr/LeeHPS17",
        "ArXiv": "1706.03475",
        "MAG": "2949444019",
        "CorpusId": 19441737
      },
      "url": "https://www.semanticscholar.org/paper/9345235749cfa2c7b13ab2acfc5cef43a01e0723",
      "title": "Confident Multiple Choice Learning",
      "venue": "International Conference on Machine Learning",
      "year": 2017,
      "referenceCount": 39,
      "citationCount": 51,
      "authors": [
        {
          "authorId": "3436470",
          "name": "Kimin Lee"
        },
        {
          "authorId": "9767431",
          "name": "Changho Hwang"
        },
        {
          "authorId": "1944837",
          "name": "Kyoungsoo Park"
        },
        {
          "authorId": "143720148",
          "name": "Jinwoo Shin"
        }
      ]
    },
    {
      "paperId": "f33800b2a43947583640fe63adb3e6455ae78c3a",
      "externalIds": {
        "DOI": "10.5626/jok.2022.49.4.284",
        "CorpusId": 248305090
      },
      "url": "https://www.semanticscholar.org/paper/f33800b2a43947583640fe63adb3e6455ae78c3a",
      "title": "Confident Multiple Choice Learning-based Ensemble Model for Video Question-Answering",
      "venue": "Journal of KIISE",
      "year": 2022,
      "referenceCount": 0,
      "citationCount": 0,
      "authors": [
        {
          "authorId": "2163016957",
          "name": "Gyu-Min Park"
        },
        {
          "authorId": "2144091",
          "name": "A.-Yeong Kim"
        },
        {
          "authorId": "1786338",
          "name": "Seong-Bae Park"
        }
      ]
    },
    {
      "paperId": "e4d648ad8ac83c1df4daa920ac51bdbcce079c47",
      "externalIds": {
        "MAG": "2909667955",
        "PubMedCentral": "4736609",
        "DOI": "10.1186/s12909-016-0564-x",
        "CorpusId": 11976579,
        "PubMed": "26830675"
      },
      "url": "https://www.semanticscholar.org/paper/e4d648ad8ac83c1df4daa920ac51bdbcce079c47",
      "title": "Case-based learning and multiple choice questioning methods favored by students",
      "venue": "BMC Medical Education",
      "year": 2016,
      "referenceCount": 41,
      "citationCount": 41,
      "authors": [
        {
          "authorId": "1413827088",
          "name": "M. Chéron"
        },
        {
          "authorId": "6535279",
          "name": "Mirlinda Ademi"
        },
        {
          "authorId": "145030115",
          "name": "F. Kraft"
        },
        {
          "authorId": "102064079",
          "name": "H. Löffler‐Stastka"
        }
      ]
    },
    {
      "paperId": "e5198ef2bf6865d4ac0dfa7bc37f8a9c4dc39850",
      "externalIds": {
        "MAG": "2749774426",
        "DOI": "10.1186/s12909-016-0564-x",
        "CorpusId": 149498521
      },
      "url": "https://www.semanticscholar.org/paper/e5198ef2bf6865d4ac0dfa7bc37f8a9c4dc39850",
      "title": "Case-based learning and multiple choice questioning methods favored by students",
      "venue": "BMC Medical Education",
      "year": 2016,
      "referenceCount": 0,
      "citationCount": 1,
      "authors": [
        {
          "authorId": "1413827088",
          "name": "M. Chéron"
        },
        {
          "authorId": "6535279",
          "name": "Mirlinda Ademi"
        },
        {
          "authorId": "145030115",
          "name": "F. Kraft"
        },
        {
          "authorId": "102064079",
          "name": "H. Löffler‐Stastka"
        }
      ]
    },
    {
      "paperId": "60e80336d053e69419464327439aed16e104c971",
      "externalIds": {
        "PubMedCentral": "12598980",
        "DOI": "10.1136/bmjresp-2024-002720",
        "CorpusId": 282813075,
        "PubMed": "41203299"
      },
      "url": "https://www.semanticscholar.org/paper/60e80336d053e69419464327439aed16e104c971",
      "title": "Targeted self-directed learning can support clinicians to improve patient adherence to inhaled corticosteroid therapy in asthma",
      "venue": "BMJ Open Respiratory Research",
      "year": 2025,
      "referenceCount": 30,
      "citationCount": 0,
      "authors": [
        {
          "authorId": "2262250895",
          "name": "Maeve Savage"
        },
        {
          "authorId": "2253988429",
          "name": "Ian P. Bates"
        },
        {
          "authorId": "2262321773",
          "name": "Gráinne d'Ancona"
        }
      ]
    },
    {
      "paperId": "774255c8762ab6d5d3f415c6296a26522d4b63a4",
      "externalIds": {
        "DOI": "10.24294/jipd9252",
        "CorpusId": 274874994
      },
      "url": "https://www.semanticscholar.org/paper/774255c8762ab6d5d3f415c6296a26522d4b63a4",
      "title": "Self-efficacy as students’ motivation factor in learning programming",
      "venue": "Journal of Infrastructure Policy and Development",
      "year": 2024,
      "referenceCount": 53,
      "citationCount": 0,
      "authors": [
        {
          "authorId": "2079651",
          "name": "R. Thinakaran"
        },
        {
          "authorId": "144205275",
          "name": "S. Chuprat"
        },
        {
          "authorId": "2336187876",
          "name": "Vijayakumar Varadarajan"
        },
        {
          "authorId": "2336182356",
          "name": "M. Yussubaliyeva"
        },
        {
          "authorId": "1581398493",
          "name": "M. Maqsood"
        }
      ]
    },
    {
      "paperId": "607ca3f782381059250395a6c5a2fc34faee37a8",
      "externalIds": {
        "DOI": "10.24036/jippsd.v7i1.120960",
        "CorpusId": 258512648
      },
      "url": "https://www.semanticscholar.org/paper/607ca3f782381059250395a6c5a2fc34faee37a8",
      "title": "Penerapan Quizizz Bernuansa Etnomatematika Melalui Problem Based Learning Untuk Meningkatkan Kemampuan Berpikir Kritis Siswa",
      "venue": "JURNAL INOVASI PENDIDIKAN DAN PEMBELAJARAN SEKOLAH DASAR",
      "year": 2023,
      "referenceCount": 29,
      "citationCount": 5,
      "authors": [
        {
          "authorId": "1665281361",
          "name": "Shofiyul Annisa"
        },
        {
          "authorId": "66587303",
          "name": "Zaenuri Zaenuri"
        },
        {
          "authorId": "82197165",
          "name": "Kustiono Kustiono"
        },
        {
          "authorId": "147481886",
          "name": "M. Guntur"
        }
      ]
    },
    {
      "paperId": "2e19c738d5b096472a43f86a2eadeb36f49a71e3",
      "externalIds": {
        "DBLP": "conf/iccma/NordaunetBKVA23",
        "DOI": "10.1109/ICCMA59762.2023.10374802",
        "CorpusId": 266737134
      },
      "url": "https://www.semanticscholar.org/paper/2e19c738d5b096472a43f86a2eadeb36f49a71e3",
      "title": "Competitive Reinforcement Learning Agents with Adaptive Networks",
      "venue": "International Conference on Control, Mechatronics and Automation",
      "year": 2023,
      "referenceCount": 20,
      "citationCount": 1,
      "authors": [
        {
          "authorId": "2277552180",
          "name": "Herman Pareli Nordaunet"
        },
        {
          "authorId": "2277551860",
          "name": "Trym Bø"
        },
        {
          "authorId": "2277498533",
          "name": "Evan Jåsund Kassab"
        },
        {
          "authorId": "2083926770",
          "name": "Frank Veenstra"
        },
        {
          "authorId": "48765047",
          "name": "Ulysse Côté Allard"
        }
      ]
    },
    {
      "paperId": "09abd7f81bfb33162fef7d649362d7ff8a51930a",
      "externalIds": {
        "DBLP": "conf/sigcse/ChipmanRB20",
        "MAG": "2918095567",
        "DOI": "10.1145/3287324.3287478",
        "CorpusId": 67866056
      },
      "url": "https://www.semanticscholar.org/paper/09abd7f81bfb33162fef7d649362d7ff8a51930a",
      "title": "\"I Impressed Myself With How Confident I Felt\": Reflections on a Computer Science Assessment for K-8 Teachers",
      "venue": "Technical Symposium on Computer Science Education",
      "year": 2019,
      "referenceCount": 22,
      "citationCount": 3,
      "authors": [
        {
          "authorId": "38550476",
          "name": "Hannah E. Chipman"
        },
        {
          "authorId": "38420295",
          "name": "Fernando J. Rodríguez"
        },
        {
          "authorId": "2115476",
          "name": "K. Boyer"
        }
      ]
    },
    {
      "paperId": "4fc5b26abe9df75f8c8070ec051c3687a86c29f0",
      "externalIds": {
        "DBLP": "journals/corr/abs-2102-07312",
        "ArXiv": "2102.07312",
        "CorpusId": 231924628
      },
      "url": "https://www.semanticscholar.org/paper/4fc5b26abe9df75f8c8070ec051c3687a86c29f0",
      "title": "Confidence-Aware Learning Assistant",
      "venue": "arXiv.org",
      "year": 2021,
      "referenceCount": 40,
      "citationCount": 6,
      "authors": [
        {
          "authorId": "48256136",
          "name": "Shoya Ishimaru"
        },
        {
          "authorId": "51879717",
          "name": "Takanori Maruichi"
        },
        {
          "authorId": "145279674",
          "name": "A. Dengel"
        },
        {
          "authorId": "3277321",
          "name": "K. Kise"
        }
      ]
    }
  ]
}