{
  "total": 231,
  "offset": 0,
  "next": 10,
  "data": [
    {
      "paperId": "5fe51e428f6a2d10ca7642feb3724bd9b8c9f06d",
      "externalIds": {
        "DBLP": "conf/icml/LengWCZL15",
        "MAG": "1922778857",
        "CorpusId": 14283511
      },
      "url": "https://www.semanticscholar.org/paper/5fe51e428f6a2d10ca7642feb3724bd9b8c9f06d",
      "title": "Hashing for Distributed Data",
      "venue": "International Conference on Machine Learning",
      "year": 2015,
      "referenceCount": 27,
      "citationCount": 31,
      "authors": [
        {
          "authorId": "3259574",
          "name": "Cong Leng"
        },
        {
          "authorId": "2321921828",
          "name": "Jiaxiang Wu"
        },
        {
          "authorId": "143949499",
          "name": "Jian Cheng"
        },
        {
          "authorId": "2125437856",
          "name": "Xi Zhang"
        },
        {
          "authorId": "1694235",
          "name": "Hanqing Lu"
        }
      ]
    },
    {
      "paperId": "05461974ddfbbc215ee4dbefb36977593d985ec4",
      "externalIds": {
        "MAG": "2166648275",
        "PubMedCentral": "4704892",
        "DOI": "10.2196/medinform.4959",
        "CorpusId": 26304263,
        "PubMed": "26554419"
      },
      "url": "https://www.semanticscholar.org/paper/05461974ddfbbc215ee4dbefb36977593d985ec4",
      "title": "NHash: Randomized N-Gram Hashing for Distributed Generation of Validatable Unique Study Identifiers in Multicenter Research",
      "venue": "JMIR Medical Informatics",
      "year": 2015,
      "referenceCount": 168,
      "citationCount": 3,
      "authors": [
        {
          "authorId": "119557989",
          "name": "Guoqiang Zhang"
        },
        {
          "authorId": "2463102",
          "name": "Shiqiang Tao"
        },
        {
          "authorId": "5070192",
          "name": "Guangming Xing"
        },
        {
          "authorId": "8650198",
          "name": "J. Mozes"
        },
        {
          "authorId": "3401983",
          "name": "Bilal Zonjy"
        },
        {
          "authorId": "32407335",
          "name": "S. Lhatoo"
        },
        {
          "authorId": "2648637",
          "name": "Licong Cui"
        }
      ]
    },
    {
      "paperId": "c3ef69228620c17b8c380859670c33715e6aec92",
      "externalIds": {
        "MAG": "2177492383",
        "DBLP": "journals/itiis/MaZXS15",
        "DOI": "10.3837/tiis.2015.07.015",
        "CorpusId": 19884808
      },
      "url": "https://www.semanticscholar.org/paper/c3ef69228620c17b8c380859670c33715e6aec92",
      "title": "Fast Search with Data-Oriented Multi-Index Hashing for Multimedia Data",
      "venue": "KSII Transactions on Internet and Information Systems",
      "year": 2015,
      "referenceCount": 30,
      "citationCount": 6,
      "authors": [
        {
          "authorId": "2148987163",
          "name": "Yanping Ma"
        },
        {
          "authorId": "7348022",
          "name": "Hailin Zou"
        },
        {
          "authorId": "143994657",
          "name": "Hongtao Xie"
        },
        {
          "authorId": "2514197",
          "name": "Qingtang Su"
        }
      ]
    },
    {
      "paperId": "6c9a33ac400f7baaf5b5ba9a6208b89cec02e6e4",
      "externalIds": {
        "MAG": "2271815276",
        "DBLP": "journals/informaticaSI/KawakamiIYT15",
        "CorpusId": 34416489
      },
      "url": "https://www.semanticscholar.org/paper/6c9a33ac400f7baaf5b5ba9a6208b89cec02e6e4",
      "title": "A Churn Resilience Technique on P2P Sensor Data Stream Delivery System Using Distributed Hashing",
      "venue": "Informatica",
      "year": 2015,
      "referenceCount": 18,
      "citationCount": 1,
      "authors": [
        {
          "authorId": "2766794",
          "name": "Tomoya Kawakami"
        },
        {
          "authorId": "2761997",
          "name": "Yoshimasa Ishi"
        },
        {
          "authorId": "2261468",
          "name": "T. Yoshihisa"
        },
        {
          "authorId": "39550577",
          "name": "Y. Teranishi"
        }
      ]
    },
    {
      "paperId": "92aaaeedfa572365c3c6f254b32759d3cf1c6938",
      "externalIds": {
        "MAG": "3023038860",
        "DBLP": "conf/aistats/DickLPWBS17",
        "ArXiv": "1512.04848",
        "CorpusId": 1163534
      },
      "url": "https://www.semanticscholar.org/paper/92aaaeedfa572365c3c6f254b32759d3cf1c6938",
      "title": "Data Driven Resource Allocation for Distributed Learning",
      "venue": "International Conference on Artificial Intelligence and Statistics",
      "year": 2015,
      "referenceCount": 54,
      "citationCount": 16,
      "authors": [
        {
          "authorId": "39503953",
          "name": "Travis Dick"
        },
        {
          "authorId": "2124778071",
          "name": "Mu Li"
        },
        {
          "authorId": "1507584470",
          "name": "Krishna Pillutla"
        },
        {
          "authorId": "2263465506",
          "name": "Colin White"
        },
        {
          "authorId": "1745410",
          "name": "Maria-Florina Balcan"
        },
        {
          "authorId": "46234526",
          "name": "Alex Smola"
        }
      ]
    },
    {
      "paperId": "9dd4694d10f76330c95e8a1165a101bce98f6fa8",
      "externalIds": {
        "DBLP": "conf/infocom/YuP15",
        "MAG": "1578015699",
        "DOI": "10.1109/INFOCOM.2015.7218428",
        "CorpusId": 14821043
      },
      "url": "https://www.semanticscholar.org/paper/9dd4694d10f76330c95e8a1165a101bce98f6fa8",
      "title": "Location-aware associated data placement for geo-distributed data-intensive applications",
      "venue": "IEEE Conference on Computer Communications",
      "year": 2015,
      "referenceCount": 23,
      "citationCount": 73,
      "authors": [
        {
          "authorId": "46806002",
          "name": "Boyang Yu"
        },
        {
          "authorId": "145431827",
          "name": "Jianping Pan"
        }
      ]
    },
    {
      "paperId": "398b32c3fc1cff979196902f10a21daff7c4bf96",
      "externalIds": {
        "CorpusId": 203584436
      },
      "url": "https://www.semanticscholar.org/paper/398b32c3fc1cff979196902f10a21daff7c4bf96",
      "title": "Enhancing Efficient Discovery of Variations under Distributed Data",
      "venue": "",
      "year": 2015,
      "referenceCount": 10,
      "citationCount": 0,
      "authors": [
        {
          "authorId": "2062566171",
          "name": "Ana"
        },
        {
          "authorId": "2079798255",
          "name": "Azhyeen"
        },
        {
          "authorId": "83495851",
          "name": "S. T."
        },
        {
          "authorId": "2056978566",
          "name": "Ai"
        },
        {
          "authorId": "97478086",
          "name": "Umari"
        },
        {
          "authorId": "2079012984",
          "name": "Aleha"
        },
        {
          "authorId": "2079401165",
          "name": "Arha"
        }
      ]
    },
    {
      "paperId": "23e6517b8ed4dd2ff5dd452f25fd5dafdf905906",
      "externalIds": {
        "DBLP": "conf/mir/MouraoM15",
        "MAG": "2037120834",
        "DOI": "10.1145/2671188.2749310",
        "CorpusId": 17319225
      },
      "url": "https://www.semanticscholar.org/paper/23e6517b8ed4dd2ff5dd452f25fd5dafdf905906",
      "title": "Scalable Multimodal Search with Distributed Indexing by Sparse Hashing",
      "venue": "International Conference on Multimedia Retrieval",
      "year": 2015,
      "referenceCount": 38,
      "citationCount": 5,
      "authors": [
        {
          "authorId": "1735598",
          "name": "André Mourão"
        },
        {
          "authorId": "144431718",
          "name": "João Magalhães"
        }
      ]
    },
    {
      "paperId": "eea249dcf945de7d61636fb7939c2bc436f1bc41",
      "externalIds": {
        "MAG": "2403925664",
        "DBLP": "conf/iscide/FuPH15",
        "DOI": "10.1007/978-3-319-23862-3_55",
        "CorpusId": 20308693
      },
      "url": "https://www.semanticscholar.org/paper/eea249dcf945de7d61636fb7939c2bc436f1bc41",
      "title": "A Consistent Hashing Based Data Redistribution Algorithm",
      "venue": "Sino-foreign-interchange Workshop on Intelligent Science and Intelligent Data Engineering",
      "year": 2015,
      "referenceCount": 8,
      "citationCount": 5,
      "authors": [
        {
          "authorId": "2119033245",
          "name": "Xiang Fu"
        },
        {
          "authorId": "2087282132",
          "name": "Can Peng"
        },
        {
          "authorId": "2114925991",
          "name": "Weihong Han"
        }
      ]
    },
    {
      "paperId": "be3ebe81ce22c11a2f5b76192241e8cdecb98284",
      "externalIds": {
        "MAG": "1481058826",
        "DBLP": "conf/icmcs/LiuXLZG15",
        "DOI": "10.1109/ICME.2015.7177420",
        "CorpusId": 23418944
      },
      "url": "https://www.semanticscholar.org/paper/be3ebe81ce22c11a2f5b76192241e8cdecb98284",
      "title": "Data-oriented multi-index hashing",
      "venue": "IEEE International Conference on Multimedia and Expo",
      "year": 2015,
      "referenceCount": 20,
      "citationCount": 4,
      "authors": [
        {
          "authorId": "48873848",
          "name": "Qingyun Liu"
        },
        {
          "authorId": "143994657",
          "name": "Hongtao Xie"
        },
        {
          "authorId": "46399157",
          "name": "Yizhi Liu"
        },
        {
          "authorId": "2118513874",
          "name": "Chuang Zhang"
        },
        {
          "authorId": "48358041",
          "name": "Li Guo"
        }
      ]
    }
  ]
}