{
  "total": 56,
  "offset": 0,
  "next": 10,
  "data": [
    {
      "paperId": "0d03c970454f55fc3627c340e92a1de55220a304",
      "externalIds": {
        "DBLP": "journals/corr/abs-1703-01968",
        "MAG": "2953387878",
        "ArXiv": "1703.01968",
        "CorpusId": 2633605
      },
      "url": "https://www.semanticscholar.org/paper/0d03c970454f55fc3627c340e92a1de55220a304",
      "title": "Max-value Entropy Search for Efficient Bayesian Optimization",
      "venue": "International Conference on Machine Learning",
      "year": 2017,
      "referenceCount": 40,
      "citationCount": 464,
      "authors": [
        {
          "authorId": "2274581656",
          "name": "Zi Wang"
        },
        {
          "authorId": "2594093",
          "name": "S. Jegelka"
        }
      ]
    },
    {
      "paperId": "e5eecc8a145ff276f36f02635e8550d474adeb65",
      "externalIds": {
        "ArXiv": "2303.05694",
        "DBLP": "conf/iros/MaZWC023",
        "DOI": "10.1109/IROS55552.2023.10341675",
        "CorpusId": 257482432
      },
      "url": "https://www.semanticscholar.org/paper/e5eecc8a145ff276f36f02635e8550d474adeb65",
      "title": "Gaussian Max-Value Entropy Search for Multi-Agent Bayesian Optimization",
      "venue": "IEEE/RJS International Conference on Intelligent RObots and Systems",
      "year": 2023,
      "referenceCount": 35,
      "citationCount": 15,
      "authors": [
        {
          "authorId": "2048987083",
          "name": "Haitong Ma"
        },
        {
          "authorId": "2146333443",
          "name": "Tianpeng Zhang"
        },
        {
          "authorId": "2293766957",
          "name": "Yixuan Wu"
        },
        {
          "authorId": "144717568",
          "name": "F. Calmon"
        },
        {
          "authorId": "2155792043",
          "name": "Na Li"
        }
      ]
    },
    {
      "paperId": "b8768da2721c45f2b641b05a920d61a305e40d9e",
      "externalIds": {
        "DBLP": "journals/neco/TakenoFTKSTK22",
        "DOI": "10.1162/neco_a_01530",
        "CorpusId": 251864953,
        "PubMed": "36027725"
      },
      "url": "https://www.semanticscholar.org/paper/b8768da2721c45f2b641b05a920d61a305e40d9e",
      "title": "A Generalized Framework of Multifidelity Max-Value Entropy Search Through Joint Entropy",
      "venue": "Neural Computation",
      "year": 2022,
      "referenceCount": 62,
      "citationCount": 7,
      "authors": [
        {
          "authorId": "66166455",
          "name": "Shion Takeno"
        },
        {
          "authorId": "2191095",
          "name": "H. Fukuoka"
        },
        {
          "authorId": "13162235",
          "name": "Yuhki Tsukada"
        },
        {
          "authorId": "25040560",
          "name": "T. Koyama"
        },
        {
          "authorId": "2132049825",
          "name": "Motoki Shiga"
        },
        {
          "authorId": "48050268",
          "name": "I. Takeuchi"
        },
        {
          "authorId": "1949261",
          "name": "Masayuki Karasuyama"
        }
      ]
    },
    {
      "paperId": "eeba9b94af9ca6e44011030972288905e4508842",
      "externalIds": {
        "ArXiv": "2102.08993",
        "DBLP": "journals/corr/abs-2102-08993",
        "CorpusId": 231951570
      },
      "url": "https://www.semanticscholar.org/paper/eeba9b94af9ca6e44011030972288905e4508842",
      "title": "Using Distance Correlation for Efficient Bayesian Optimization",
      "venue": "arXiv.org",
      "year": 2021,
      "referenceCount": 72,
      "citationCount": 3,
      "authors": [
        {
          "authorId": "6284540",
          "name": "T. Kanazawa"
        }
      ]
    },
    {
      "paperId": "d7781062510635605c6f61c2eb2c555527d29bef",
      "externalIds": {
        "ArXiv": "2103.09434",
        "DBLP": "journals/corr/abs-2103-09434",
        "CorpusId": 232257984
      },
      "url": "https://www.semanticscholar.org/paper/d7781062510635605c6f61c2eb2c555527d29bef",
      "title": "Efficient Bayesian Optimization using Multiscale Graph Correlation",
      "venue": "arXiv.org",
      "year": 2021,
      "referenceCount": 32,
      "citationCount": 2,
      "authors": [
        {
          "authorId": "6284540",
          "name": "T. Kanazawa"
        }
      ]
    },
    {
      "paperId": "b1079dfc16ac10d1f6f7c76662c83fb9f894ddb6",
      "externalIds": {
        "DBLP": "journals/corr/abs-2006-12093",
        "MAG": "3036906292",
        "ArXiv": "2006.12093",
        "DOI": "10.1007/978-3-030-67664-3_27",
        "CorpusId": 219966050
      },
      "url": "https://www.semanticscholar.org/paper/b1079dfc16ac10d1f6f7c76662c83fb9f894ddb6",
      "title": "MUMBO: MUlti-task Max-value Bayesian Optimization",
      "venue": "ECML/PKDD",
      "year": 2020,
      "referenceCount": 46,
      "citationCount": 37,
      "authors": [
        {
          "authorId": "51024046",
          "name": "Henry B. Moss"
        },
        {
          "authorId": "31819180",
          "name": "David S. Leslie"
        },
        {
          "authorId": "1929390",
          "name": "Paul Rayson"
        }
      ]
    },
    {
      "paperId": "bd47760fd13ff8a767252a31ae320e8722b5900b",
      "externalIds": {
        "DBLP": "journals/corr/abs-2106-09884",
        "ArXiv": "2106.09884",
        "CorpusId": 235485339
      },
      "url": "https://www.semanticscholar.org/paper/bd47760fd13ff8a767252a31ae320e8722b5900b",
      "title": "Batch Multi-Fidelity Bayesian Optimization with Deep Auto-Regressive Networks",
      "venue": "Neural Information Processing Systems",
      "year": 2021,
      "referenceCount": 65,
      "citationCount": 14,
      "authors": [
        {
          "authorId": "2118056567",
          "name": "Shibo Li"
        },
        {
          "authorId": "152534535",
          "name": "Robert M. Kirby"
        },
        {
          "authorId": "2390798",
          "name": "Shandian Zhe"
        }
      ]
    },
    {
      "paperId": "6df9776c9e44fb0e5e1a72ef72150422d4043a49",
      "externalIds": {
        "DOI": "10.1109/TTE.2021.3113958",
        "CorpusId": 237602940
      },
      "url": "https://www.semanticscholar.org/paper/6df9776c9e44fb0e5e1a72ef72150422d4043a49",
      "title": "Machine Learning Enabled Design Automation and Multi-Objective Optimization for Electric Transportation Power Systems",
      "venue": "IEEE Transactions on Transportation Electrification",
      "year": 2022,
      "referenceCount": 47,
      "citationCount": 6,
      "authors": [
        {
          "authorId": "30703788",
          "name": "Derek Jackson"
        },
        {
          "authorId": "11631312",
          "name": "Syrine Belakaria"
        },
        {
          "authorId": "2112823978",
          "name": "Yue Cao"
        },
        {
          "authorId": "2089333",
          "name": "J. Doppa"
        },
        {
          "authorId": "145661898",
          "name": "Xiaonan Lu"
        }
      ]
    },
    {
      "paperId": "c55349c6f4e93eb4ab4c1d2a3167a0c52f2bc3ba",
      "externalIds": {
        "ArXiv": "2012.10695",
        "DBLP": "journals/corr/abs-2012-10695",
        "DOI": "10.1609/aaai.v35i10.17102",
        "CorpusId": 229340610
      },
      "url": "https://www.semanticscholar.org/paper/c55349c6f4e93eb4ab4c1d2a3167a0c52f2bc3ba",
      "title": "An Information-Theoretic Framework for Unifying Active Learning Problems",
      "venue": "AAAI Conference on Artificial Intelligence",
      "year": 2020,
      "referenceCount": 29,
      "citationCount": 23,
      "authors": [
        {
          "authorId": "144124778",
          "name": "Q. Nguyen"
        },
        {
          "authorId": "40222533",
          "name": "B. Low"
        },
        {
          "authorId": "1805753",
          "name": "Patrick Jaillet"
        }
      ]
    },
    {
      "paperId": "20c5bfdf0a94940b11a645e29793c6a539a5b249",
      "externalIds": {
        "CorpusId": 271972004
      },
      "url": "https://www.semanticscholar.org/paper/20c5bfdf0a94940b11a645e29793c6a539a5b249",
      "title": "MIT Open Access Articles An Information-Theoretic Framework for Unifying Active Learning Problems",
      "venue": "",
      "year": null,
      "referenceCount": 24,
      "citationCount": 1,
      "authors": [
        {
          "authorId": "2317097126",
          "name": "Quoc Phong"
        },
        {
          "authorId": "2235737650",
          "name": "Nguyễn"
        },
        {
          "authorId": "2003246280",
          "name": "Bryan Kian"
        },
        {
          "authorId": "2003246325",
          "name": "Hsiang Low"
        },
        {
          "authorId": "2250770367",
          "name": "Patrick Jaillet"
        }
      ]
    }
  ]
}