{
  "total": 258,
  "offset": 0,
  "next": 10,
  "data": [
    {
      "paperId": "2a996166c3e3c9373981d3fc1f60b71957987ead",
      "externalIds": {
        "MAG": "2949535102",
        "ArXiv": "1606.01969",
        "DBLP": "conf/icml/LeiF16",
        "CorpusId": 11392327
      },
      "url": "https://www.semanticscholar.org/paper/2a996166c3e3c9373981d3fc1f60b71957987ead",
      "title": "Power of Ordered Hypothesis Testing",
      "venue": "International Conference on Machine Learning",
      "year": 2016,
      "referenceCount": 19,
      "citationCount": 34,
      "authors": [
        {
          "authorId": "40239086",
          "name": "Lihua Lei"
        },
        {
          "authorId": "1940063",
          "name": "William Fithian"
        }
      ]
    },
    {
      "paperId": "e55ec650aec8b37d21124e1d0965cf690247b110",
      "externalIds": {
        "DOI": "10.1007/s00362-022-01334-8",
        "CorpusId": 249832580
      },
      "url": "https://www.semanticscholar.org/paper/e55ec650aec8b37d21124e1d0965cf690247b110",
      "title": "Optimal design of experiments for hypothesis testing on ordered treatments via intersection-union tests",
      "venue": "Statistical Papers",
      "year": 2022,
      "referenceCount": 66,
      "citationCount": 2,
      "authors": [
        {
          "authorId": "3261840",
          "name": "B. Duarte"
        },
        {
          "authorId": "1943223",
          "name": "A. Atkinson"
        },
        {
          "authorId": "2161308606",
          "name": "Satya Prakash Singh"
        },
        {
          "authorId": "2160197593",
          "name": "Marco S. Reis"
        }
      ]
    },
    {
      "paperId": "86383a244ed2ce578dd014e6671f38cd8f88b316",
      "externalIds": {
        "DOI": "10.1007/s00362-022-01366-0",
        "CorpusId": 252938292
      },
      "url": "https://www.semanticscholar.org/paper/86383a244ed2ce578dd014e6671f38cd8f88b316",
      "title": "Testing for ordered alternatives in heteroscedastic ANOVA under normality",
      "venue": "Statistical Papers",
      "year": 2022,
      "referenceCount": 32,
      "citationCount": 9,
      "authors": [
        {
          "authorId": "2188025649",
          "name": "Anjana Mondal"
        },
        {
          "authorId": "49347525",
          "name": "Markus Pauly"
        },
        {
          "authorId": "2109551088",
          "name": "Somesh Kumar"
        }
      ]
    },
    {
      "paperId": "e03fcae87b049671f979106c215bd985475e3f7e",
      "externalIds": {
        "MAG": "2135445066",
        "DOI": "10.1146/ANNUREV.PS.46.020195.003021",
        "CorpusId": 7696063
      },
      "url": "https://www.semanticscholar.org/paper/e03fcae87b049671f979106c215bd985475e3f7e",
      "title": "Multiple Hypothesis Testing",
      "venue": "",
      "year": 1995,
      "referenceCount": 115,
      "citationCount": 1975,
      "authors": [
        {
          "authorId": "21801845",
          "name": "J. Shaffer"
        }
      ]
    },
    {
      "paperId": "7cd8d2234d4fae97b4bf82d9a116e25677ee38be",
      "externalIds": {
        "MAG": "2006832703",
        "DOI": "10.1007/S40300-014-0051-2",
        "CorpusId": 119971164
      },
      "url": "https://www.semanticscholar.org/paper/7cd8d2234d4fae97b4bf82d9a116e25677ee38be",
      "title": "Testing for equality of ordered eigenvectors of two multivariate normal populations",
      "venue": "",
      "year": 2015,
      "referenceCount": 27,
      "citationCount": 0,
      "authors": [
        {
          "authorId": "29836612",
          "name": "D. Najarzadeh"
        },
        {
          "authorId": "46592670",
          "name": "M. Khazaei"
        },
        {
          "authorId": "143623668",
          "name": "M. Ganjali"
        }
      ]
    },
    {
      "paperId": "ae29f40463c508b477e09f437264f8f8a5a3dfc9",
      "externalIds": {
        "DOI": "10.1007/s40300-014-0051-2",
        "CorpusId": 256375614
      },
      "url": "https://www.semanticscholar.org/paper/ae29f40463c508b477e09f437264f8f8a5a3dfc9",
      "title": "Testing for equality of ordered eigenvectors of two multivariate normal populations",
      "venue": "Metron",
      "year": 2014,
      "referenceCount": 27,
      "citationCount": 0,
      "authors": [
        {
          "authorId": "29836612",
          "name": "D. Najarzadeh"
        },
        {
          "authorId": "46592670",
          "name": "M. Khazaei"
        },
        {
          "authorId": "143623668",
          "name": "M. Ganjali"
        }
      ]
    },
    {
      "paperId": "f27b3430cc3a8a17d42ad2852c272d373cb61629",
      "externalIds": {
        "ArXiv": "2501.06133",
        "CorpusId": 275458335
      },
      "url": "https://www.semanticscholar.org/paper/f27b3430cc3a8a17d42ad2852c272d373cb61629",
      "title": "Testing conditional independence under isotonicity",
      "venue": "",
      "year": 2025,
      "referenceCount": 0,
      "citationCount": 1,
      "authors": [
        {
          "authorId": "2162044674",
          "name": "Rohan Hore"
        },
        {
          "authorId": "2301312093",
          "name": "Jake A. Soloff"
        },
        {
          "authorId": "2282469418",
          "name": "R. Barber"
        },
        {
          "authorId": "2788351",
          "name": "R. Samworth"
        }
      ]
    },
    {
      "paperId": "bb649651bf819b4f4bab6b345dd2173c1c64900f",
      "externalIds": {
        "MAG": "2615819038",
        "DOI": "10.5691/JJB.37.67",
        "CorpusId": 126364324
      },
      "url": "https://www.semanticscholar.org/paper/bb649651bf819b4f4bab6b345dd2173c1c64900f",
      "title": "Closed Testing Procedures Based on x̅ 2-Statistics in Multi-Sample Models with Bernoulli Responses under Simple Ordered Restrictions",
      "venue": "",
      "year": 2016,
      "referenceCount": 27,
      "citationCount": 1,
      "authors": [
        {
          "authorId": "102804499",
          "name": "T. Shiraishi"
        },
        {
          "authorId": "2057099657",
          "name": "Shin-ichi Matsuda"
        }
      ]
    },
    {
      "paperId": "bdeea5cce16ac7aabff4dc0cc98aacdf65e04907",
      "externalIds": {
        "MAG": "2023637098",
        "DOI": "10.1080/00949658008810412",
        "CorpusId": 121412392
      },
      "url": "https://www.semanticscholar.org/paper/bdeea5cce16ac7aabff4dc0cc98aacdf65e04907",
      "title": "A monte carlo study of the power of some k-sample tests for ordered binomial alternatives",
      "venue": "",
      "year": 1980,
      "referenceCount": 4,
      "citationCount": 9,
      "authors": [
        {
          "authorId": "103353019",
          "name": "A. Poon"
        }
      ]
    },
    {
      "paperId": "55f95bf0f2dccc0d6290b535b7af3863d913ccde",
      "externalIds": {
        "MAG": "1864985317",
        "DOI": "10.1111/j.1558-5646.2009.00874.x",
        "CorpusId": 205782518,
        "PubMed": "19863584"
      },
      "url": "https://www.semanticscholar.org/paper/55f95bf0f2dccc0d6290b535b7af3863d913ccde",
      "title": "THE DISTRIBUTION AND HYPOTHESIS TESTING OF EIGENVALUES FROM THE CANONICAL ANALYSIS OF THE GAMMA MATRIX OF QUADRATIC AND CORRELATIONAL SELECTION GRADIENTS",
      "venue": "Evolution; international journal of organic evolution",
      "year": 2009,
      "referenceCount": 27,
      "citationCount": 65,
      "authors": [
        {
          "authorId": "145463252",
          "name": "R. Reynolds"
        },
        {
          "authorId": "3695140",
          "name": "D. Childers"
        },
        {
          "authorId": "2353317370",
          "name": "N. Pajewski"
        }
      ]
    }
  ]
}