{
  "total": 143,
  "offset": 0,
  "next": 10,
  "data": [
    {
      "paperId": "8b20f103c1f20074fa35bd8fc41983964283acac",
      "externalIds": {
        "MAG": "2144274908",
        "DBLP": "conf/icml/HeinrichLS15",
        "CorpusId": 13937012
      },
      "url": "https://www.semanticscholar.org/paper/8b20f103c1f20074fa35bd8fc41983964283acac",
      "title": "Fictitious Self-Play in Extensive-Form Games",
      "venue": "International Conference on Machine Learning",
      "year": 2015,
      "referenceCount": 32,
      "citationCount": 339,
      "authors": [
        {
          "authorId": "2052354576",
          "name": "Johannes Heinrich"
        },
        {
          "authorId": "1975889",
          "name": "Marc Lanctot"
        },
        {
          "authorId": "145824029",
          "name": "David Silver"
        }
      ]
    },
    {
      "paperId": "c29525b81ca7802e80bd738c488fc4ca63d5c095",
      "externalIds": {
        "DBLP": "conf/ijcai/Xue0LW0Y21",
        "ArXiv": "2106.00897",
        "DOI": "10.24963/ijcai.2021/511",
        "CorpusId": 235293727
      },
      "url": "https://www.semanticscholar.org/paper/c29525b81ca7802e80bd738c488fc4ca63d5c095",
      "title": "Solving Large-Scale Extensive-Form Network Security Games via Neural Fictitious Self-Play",
      "venue": "International Joint Conference on Artificial Intelligence",
      "year": 2021,
      "referenceCount": 32,
      "citationCount": 15,
      "authors": [
        {
          "authorId": "2052308113",
          "name": "Wanqi Xue"
        },
        {
          "authorId": "2108399454",
          "name": "Youzhi Zhang"
        },
        {
          "authorId": "47319609",
          "name": "Shuxin Li"
        },
        {
          "authorId": "10737491",
          "name": "Xinrun Wang"
        },
        {
          "authorId": "143706343",
          "name": "Bo An"
        },
        {
          "authorId": "1751452",
          "name": "C. Yeo"
        }
      ]
    },
    {
      "paperId": "675df2f717bdd01cf2af849b1f146ddb1842e099",
      "externalIds": {
        "ArXiv": "2509.00923",
        "DBLP": "journals/corr/abs-2509-00923",
        "DOI": "10.48550/arXiv.2509.00923",
        "CorpusId": 281079609
      },
      "url": "https://www.semanticscholar.org/paper/675df2f717bdd01cf2af849b1f146ddb1842e099",
      "title": "Robust Deep Monte Carlo Counterfactual Regret Minimization: Addressing Theoretical Risks in Neural Fictitious Self-Play",
      "venue": "arXiv.org",
      "year": 2025,
      "referenceCount": 3,
      "citationCount": 0,
      "authors": [
        {
          "authorId": "2378706789",
          "name": "Zakaria El Jaafari"
        }
      ]
    },
    {
      "paperId": "de7ba78d2157f569d07f3e1cbaa77b1904bb66ac",
      "externalIds": {
        "DBLP": "journals/lgrs/GengJLZWL24",
        "DOI": "10.1109/LGRS.2024.3382041",
        "CorpusId": 268778673
      },
      "url": "https://www.semanticscholar.org/paper/de7ba78d2157f569d07f3e1cbaa77b1904bb66ac",
      "title": "Multiagent Reinforcement Learning for Antijamming Game of Frequency-Agile Radar",
      "venue": "IEEE Geoscience and Remote Sensing Letters",
      "year": 2024,
      "referenceCount": 24,
      "citationCount": 10,
      "authors": [
        {
          "authorId": "2197854938",
          "name": "Jie Geng"
        },
        {
          "authorId": "1765653",
          "name": "B. Jiu"
        },
        {
          "authorId": "2107514795",
          "name": "Kang Li"
        },
        {
          "authorId": "2198037116",
          "name": "Yu Zhao"
        },
        {
          "authorId": "2277170153",
          "name": "Chao Wang"
        },
        {
          "authorId": "2264095176",
          "name": "Hongwei Liu"
        }
      ]
    },
    {
      "paperId": "a296ea623a01278d8e4c8ef90c4cb153b909126e",
      "externalIds": {
        "CorpusId": 236922065
      },
      "url": "https://www.semanticscholar.org/paper/a296ea623a01278d8e4c8ef90c4cb153b909126e",
      "title": "P OLICY O PTIMIZATION IN Z ERO -S UM M ARKOV G AMES : F ICTITIOUS S ELF -P LAY P ROVABLY A TTAINS N ASH E QUILIBRIA",
      "venue": "",
      "year": 2020,
      "referenceCount": 70,
      "citationCount": 3,
      "authors": [
        {
          "authorId": "2289456524",
          "name": "N. A. E. Quilibria"
        }
      ]
    },
    {
      "paperId": "5c0d0caf02e46658f4914c65ad9c39ef7409dfb6",
      "externalIds": {
        "ArXiv": "2504.18075",
        "DBLP": "journals/corr/abs-2504-18075",
        "DOI": "10.48550/arXiv.2504.18075",
        "CorpusId": 278129777
      },
      "url": "https://www.semanticscholar.org/paper/5c0d0caf02e46658f4914c65ad9c39ef7409dfb6",
      "title": "Fictitious Play in Extensive-Form Games of Imperfect Information",
      "venue": "arXiv.org",
      "year": 2025,
      "referenceCount": 22,
      "citationCount": 0,
      "authors": [
        {
          "authorId": "2279920037",
          "name": "Jason Castiglione"
        },
        {
          "authorId": "34921523",
          "name": "Gürdal Arslan"
        }
      ]
    },
    {
      "paperId": "6aa09a17f0e1599c797cdcd436912fe43b57caec",
      "externalIds": {
        "DBLP": "journals/games/Bonanno22",
        "DOI": "10.3390/g13060072",
        "CorpusId": 253282846
      },
      "url": "https://www.semanticscholar.org/paper/6aa09a17f0e1599c797cdcd436912fe43b57caec",
      "title": "Rational Play in Extensive-Form Games",
      "venue": "Games",
      "year": 2022,
      "referenceCount": 0,
      "citationCount": 4,
      "authors": [
        {
          "authorId": "145787839",
          "name": "G. Bonanno"
        }
      ]
    },
    {
      "paperId": "ed9d91c749e8ab5e0c06b121c0e48ce5e62220ed",
      "externalIds": {
        "MAG": "2154207916",
        "DOI": "10.1006/GAME.1996.0065",
        "CorpusId": 122041514
      },
      "url": "https://www.semanticscholar.org/paper/ed9d91c749e8ab5e0c06b121c0e48ce5e62220ed",
      "title": "Fictitious Play in Extensive Form Games",
      "venue": "",
      "year": 1996,
      "referenceCount": 2,
      "citationCount": 38,
      "authors": [
        {
          "authorId": "145666672",
          "name": "E. Hendon"
        },
        {
          "authorId": "48200959",
          "name": "H. J. Jacobsen"
        },
        {
          "authorId": "46355672",
          "name": "B. Sloth"
        }
      ]
    },
    {
      "paperId": "3ef2af4a9c7594e83817fa5bfde48ad9f271d7ec",
      "externalIds": {
        "DBLP": "journals/taes/LiJP0P22",
        "DOI": "10.1109/TAES.2022.3175186",
        "CorpusId": 248851033
      },
      "url": "https://www.semanticscholar.org/paper/3ef2af4a9c7594e83817fa5bfde48ad9f271d7ec",
      "title": "Neural Fictitious Self-Play for Radar Antijamming Dynamic Game With Imperfect Information",
      "venue": "IEEE Transactions on Aerospace and Electronic Systems",
      "year": 2022,
      "referenceCount": 49,
      "citationCount": 44,
      "authors": [
        {
          "authorId": "2107514795",
          "name": "Kang Li"
        },
        {
          "authorId": "1765653",
          "name": "B. Jiu"
        },
        {
          "authorId": "3492460",
          "name": "Wenqiang Pu"
        },
        {
          "authorId": "46935308",
          "name": "Hongzhi Liu"
        },
        {
          "authorId": "2115816640",
          "name": "Xiaojun Peng"
        }
      ]
    },
    {
      "paperId": "4a40582a9eefd40909cbdcb69499e705f4e8fad7",
      "externalIds": {
        "DBLP": "journals/corr/abs-2403-00841",
        "ArXiv": "2403.00841",
        "DOI": "10.48550/arXiv.2403.00841",
        "CorpusId": 268230780
      },
      "url": "https://www.semanticscholar.org/paper/4a40582a9eefd40909cbdcb69499e705f4e8fad7",
      "title": "Offline Fictitious Self-Play for Competitive Games",
      "venue": "AAAI Conference on Artificial Intelligence",
      "year": 2024,
      "referenceCount": 43,
      "citationCount": 1,
      "authors": [
        {
          "authorId": "2257310624",
          "name": "Jingxiao Chen"
        },
        {
          "authorId": "2289944006",
          "name": "Weiji Xie"
        },
        {
          "authorId": "2240768092",
          "name": "Weinan Zhang"
        },
        {
          "authorId": "2297055830",
          "name": "Yong Yu"
        },
        {
          "authorId": "2289902495",
          "name": "Ying Wen"
        }
      ]
    }
  ]
}