{
  "total": 57,
  "offset": 0,
  "next": 10,
  "data": [
    {
      "paperId": "d2237f995d280edb8a47e27886261709ea3f654a",
      "externalIds": {
        "DBLP": "journals/corr/abs-1806-02934",
        "MAG": "2963695091",
        "ArXiv": "1806.02934",
        "CorpusId": 47007726
      },
      "url": "https://www.semanticscholar.org/paper/d2237f995d280edb8a47e27886261709ea3f654a",
      "title": "Learn from Your Neighbor: Learning Multi-modal Mappings from Sparse Annotations",
      "venue": "International Conference on Machine Learning",
      "year": 2018,
      "referenceCount": 46,
      "citationCount": 6,
      "authors": [
        {
          "authorId": "51043791",
          "name": "A. Kalyan"
        },
        {
          "authorId": "2297229",
          "name": "Stefan Lee"
        },
        {
          "authorId": "145721096",
          "name": "A. Kannan"
        },
        {
          "authorId": "1746610",
          "name": "Dhruv Batra"
        }
      ]
    },
    {
      "paperId": "7bd7a78518a60216780b90d9d7bae83fe0d164dc",
      "externalIds": {
        "DBLP": "journals/tmi/LiOZDZXSS24",
        "DOI": "10.1109/TMI.2024.3424884",
        "CorpusId": 271061729,
        "PubMed": "38976464"
      },
      "url": "https://www.semanticscholar.org/paper/7bd7a78518a60216780b90d9d7bae83fe0d164dc",
      "title": "Carotid Vessel Wall Segmentation Through Domain Aligner, Topological Learning, and Segment Anything Model for Sparse Annotation in MR Images",
      "venue": "IEEE Transactions on Medical Imaging",
      "year": 2024,
      "referenceCount": 55,
      "citationCount": 13,
      "authors": [
        {
          "authorId": "2237083213",
          "name": "Xibao Li"
        },
        {
          "authorId": "2251555215",
          "name": "Ouyang Xi"
        },
        {
          "authorId": "2237103578",
          "name": "Jiadong Zhang"
        },
        {
          "authorId": "2260733235",
          "name": "Zhongxiang Ding"
        },
        {
          "authorId": "2265685688",
          "name": "Yuyao Zhang"
        },
        {
          "authorId": "2288083079",
          "name": "Zhong Xue"
        },
        {
          "authorId": "2239622787",
          "name": "Feng Shi"
        },
        {
          "authorId": "2288084496",
          "name": "Dinggang Shen"
        }
      ]
    },
    {
      "paperId": "e3667c108e15e353e2326ba42a230ae5735ef85d",
      "externalIds": {
        "DOI": "10.1186/s12864-026-12834-4",
        "CorpusId": 287501548
      },
      "url": "https://www.semanticscholar.org/paper/e3667c108e15e353e2326ba42a230ae5735ef85d",
      "title": "EMGMDA: a multi-modal graph neural framework for robust prediction of miRNA–disease associations",
      "venue": "BMC Genomics",
      "year": 2026,
      "referenceCount": 50,
      "citationCount": 0,
      "authors": [
        {
          "authorId": "2243413248",
          "name": "Jianan Sui"
        },
        {
          "authorId": "2429716619",
          "name": "Deqiang Gu"
        },
        {
          "authorId": "1409863021",
          "name": "Shichao Song"
        },
        {
          "authorId": "2119203722",
          "name": "Xiaoqiang Shi"
        },
        {
          "authorId": "2326247487",
          "name": "Zhenyu Cui"
        }
      ]
    },
    {
      "paperId": "46a0fed9468ef1e0abe63343a848e5a6a6cfa865",
      "externalIds": {
        "MAG": "2962894772",
        "DBLP": "conf/ijcai/GuZZ017",
        "ArXiv": "1704.07734",
        "DOI": "10.24963/ijcai.2017/514",
        "CorpusId": 13856098
      },
      "url": "https://www.semanticscholar.org/paper/46a0fed9468ef1e0abe63343a848e5a6a6cfa865",
      "title": "DeepAM: Migrate APIs with Multi-modal Sequence to Sequence Learning",
      "venue": "International Joint Conference on Artificial Intelligence",
      "year": 2017,
      "referenceCount": 26,
      "citationCount": 75,
      "authors": [
        {
          "authorId": "48531491",
          "name": "Xiaodong Gu"
        },
        {
          "authorId": "46702864",
          "name": "Hongyu Zhang"
        },
        {
          "authorId": "46334641",
          "name": "D. Zhang"
        },
        {
          "authorId": "1787729",
          "name": "Sunghun Kim"
        }
      ]
    },
    {
      "paperId": "4d6f84dd95539fcf2e68a4ad95753a1d6e38e031",
      "externalIds": {
        "DOI": "10.1016/j.ijrobp.2023.06.1689",
        "CorpusId": 263299162,
        "PubMed": "37785510"
      },
      "url": "https://www.semanticscholar.org/paper/4d6f84dd95539fcf2e68a4ad95753a1d6e38e031",
      "title": "Objective Boundary Generation for Gross Target Volume and Organs at Risk Using 3D Multi-Modal Medical Images.",
      "venue": "International Journal of Radiation Oncology, Biology, Physics",
      "year": 2023,
      "referenceCount": 0,
      "citationCount": 1,
      "authors": [
        {
          "authorId": "97713271",
          "name": "X. Liu"
        },
        {
          "authorId": "2254256696",
          "name": "Z. Li"
        },
        {
          "authorId": "2249181459",
          "name": "X. Qi"
        },
        {
          "authorId": "2107603980",
          "name": "Q. Zhou"
        }
      ]
    },
    {
      "paperId": "1bdd5588e06360f9b2fa7c3440c6354a9dd63627",
      "externalIds": {
        "PubMedCentral": "12859501",
        "DOI": "10.1016/j.crmeth.2025.101241",
        "CorpusId": 283144364,
        "PubMed": "41265453"
      },
      "url": "https://www.semanticscholar.org/paper/1bdd5588e06360f9b2fa7c3440c6354a9dd63627",
      "title": "Vector-guided graph learning for spatial multi-slice multi-omics alignment",
      "venue": "Cell Reports Methods",
      "year": 2025,
      "referenceCount": 28,
      "citationCount": 1,
      "authors": [
        {
          "authorId": "2276241000",
          "name": "Y. Lou"
        },
        {
          "authorId": "2372414377",
          "name": "Xuan Li"
        },
        {
          "authorId": "2112449245",
          "name": "Qixing Yang"
        },
        {
          "authorId": "2363516481",
          "name": "Hao Dai"
        },
        {
          "authorId": "1599882388",
          "name": "Kaiyu Ma"
        },
        {
          "authorId": "2370307007",
          "name": "Chunman Zuo"
        }
      ]
    },
    {
      "paperId": "b7d5b2de7a8a2d23f3f746af2a3a61c115cc78ca",
      "externalIds": {
        "DBLP": "conf/midl/BlendowskiH19",
        "MAG": "3016106037",
        "CorpusId": 195785106
      },
      "url": "https://www.semanticscholar.org/paper/b7d5b2de7a8a2d23f3f746af2a3a61c115cc78ca",
      "title": "Learning interpretable multi-modal features for alignment with supervised iterative descent",
      "venue": "International Conference on Medical Imaging with Deep Learning",
      "year": 2018,
      "referenceCount": 20,
      "citationCount": 7,
      "authors": [
        {
          "authorId": "2641358",
          "name": "Maximilian Blendowski"
        },
        {
          "authorId": "1825371",
          "name": "M. Heinrich"
        }
      ]
    },
    {
      "paperId": "0f0dbff669de2b4487e6b16578999eeeab19f927",
      "externalIds": {
        "DOI": "10.18488/76.v12i4.4562",
        "CorpusId": 283654656
      },
      "url": "https://www.semanticscholar.org/paper/0f0dbff669de2b4487e6b16578999eeeab19f927",
      "title": "Iterative multi-scale deep learning framework for reliable breast cancer diagnosis",
      "venue": "Review of Computer Engineering Research",
      "year": 2025,
      "referenceCount": 23,
      "citationCount": 0,
      "authors": [
        {
          "authorId": "30082376",
          "name": "Komal S. Gandle"
        },
        {
          "authorId": "2308149888",
          "name": "D. B. Kshirsagar"
        }
      ]
    },
    {
      "paperId": "8bde1212735cddcccbfcdb6fbed37118ab0596fb",
      "externalIds": {
        "DOI": "10.3390/rs17020179",
        "CorpusId": 275366730
      },
      "url": "https://www.semanticscholar.org/paper/8bde1212735cddcccbfcdb6fbed37118ab0596fb",
      "title": "When Remote Sensing Meets Foundation Model: A Survey and Beyond",
      "venue": "Remote Sensing",
      "year": 2025,
      "referenceCount": 0,
      "citationCount": 27,
      "authors": [
        {
          "authorId": "2323669439",
          "name": "Chunlei Huo"
        },
        {
          "authorId": "2283603590",
          "name": "Keming Chen"
        },
        {
          "authorId": "2257652308",
          "name": "Shuaihao Zhang"
        },
        {
          "authorId": "2335470316",
          "name": "Zeyu Wang"
        },
        {
          "authorId": "2339252717",
          "name": "Heyu Yan"
        },
        {
          "authorId": "2324072905",
          "name": "Jing Shen"
        },
        {
          "authorId": "2386078743",
          "name": "Yuyang Hong"
        },
        {
          "authorId": "2312146",
          "name": "Geqi Qi"
        },
        {
          "authorId": "2256993795",
          "name": "Hongmei Fang"
        },
        {
          "authorId": "2189474881",
          "name": "Zihan Wang"
        }
      ]
    },
    {
      "paperId": "ddc6090a2d378a9e10cd261c538b16f3f932dcde",
      "externalIds": {
        "MAG": "2978894827",
        "DBLP": "phd/basesearch/Iqbal19",
        "CorpusId": 208120102
      },
      "url": "https://www.semanticscholar.org/paper/ddc6090a2d378a9e10cd261c538b16f3f932dcde",
      "title": "Learning sparse methods for multi-subject brain data analysis via dictionary learning",
      "venue": "",
      "year": 2019,
      "referenceCount": 0,
      "citationCount": 0,
      "authors": [
        {
          "authorId": "145089262",
          "name": "Asif Iqbal"
        }
      ]
    }
  ]
}