{
  "total": 2928,
  "offset": 0,
  "next": 10,
  "data": [
    {
      "paperId": "a6173a01a7dc3b647e11f20e3dca97bb6fde74b3",
      "externalIds": {
        "DBLP": "journals/corr/abs-1802-07510",
        "MAG": "2963096160",
        "ArXiv": "1802.07510",
        "CorpusId": 3389610
      },
      "url": "https://www.semanticscholar.org/paper/a6173a01a7dc3b647e11f20e3dca97bb6fde74b3",
      "title": "Spectrally approximating large graphs with smaller graphs",
      "venue": "International Conference on Machine Learning",
      "year": 2018,
      "referenceCount": 46,
      "citationCount": 122,
      "authors": [
        {
          "authorId": "1966031",
          "name": "Andreas Loukas"
        },
        {
          "authorId": "1697397",
          "name": "P. Vandergheynst"
        }
      ]
    },
    {
      "paperId": "66bd080d7c3dcda7e6d3dfa2be47c75e1971aea6",
      "externalIds": {
        "DBLP": "conf/icra/WernerAMRT24",
        "ArXiv": "2310.02875",
        "DOI": "10.1109/ICRA57147.2024.10610005",
        "CorpusId": 263620406
      },
      "url": "https://www.semanticscholar.org/paper/66bd080d7c3dcda7e6d3dfa2be47c75e1971aea6",
      "title": "Approximating Robot Configuration Spaces with few Convex Sets using Clique Covers of Visibility Graphs",
      "venue": "IEEE International Conference on Robotics and Automation",
      "year": 2023,
      "referenceCount": 33,
      "citationCount": 30,
      "authors": [
        {
          "authorId": "2163236060",
          "name": "P. Werner"
        },
        {
          "authorId": "1564628035",
          "name": "Alexandre Amice"
        },
        {
          "authorId": "9482298",
          "name": "Tobia Marcucci"
        },
        {
          "authorId": "2253476549",
          "name": "Daniela Rus"
        },
        {
          "authorId": "1726802",
          "name": "Russ Tedrake"
        }
      ]
    },
    {
      "paperId": "42e4609e79c58fbb0401887cb715cad3139f9ba6",
      "externalIds": {
        "DBLP": "journals/corr/abs-2404-17080",
        "ArXiv": "2404.17080",
        "DOI": "10.4230/LIPIcs.ESA.2024.94",
        "CorpusId": 272820073
      },
      "url": "https://www.semanticscholar.org/paper/42e4609e79c58fbb0401887cb715cad3139f9ba6",
      "title": "Solving the Graph Burning Problem for Large Graphs",
      "venue": "Embedded Systems and Applications",
      "year": 2024,
      "referenceCount": 32,
      "citationCount": 2,
      "authors": [
        {
          "authorId": "2298763037",
          "name": "F. D. C. Pereira"
        },
        {
          "authorId": "2277458587",
          "name": "P. Rezende"
        },
        {
          "authorId": "2553676",
          "name": "Tallys H. Yunes"
        },
        {
          "authorId": "2298755177",
          "name": "Luiz Fernando Batista Morato"
        }
      ]
    },
    {
      "paperId": "6d8b831d2ab841e843cf514e4b50c930b74b6ded",
      "externalIds": {
        "ArXiv": "1709.09477",
        "DBLP": "journals/corr/abs-1709-09477",
        "MAG": "2757318588",
        "CorpusId": 19729598
      },
      "url": "https://www.semanticscholar.org/paper/6d8b831d2ab841e843cf514e4b50c930b74b6ded",
      "title": "Random Overlapping Communities: Approximating Motif Densities of Large Graphs",
      "venue": "arXiv.org",
      "year": 2017,
      "referenceCount": 33,
      "citationCount": 1,
      "authors": [
        {
          "authorId": "32505510",
          "name": "Samantha Petti"
        },
        {
          "authorId": "1737804",
          "name": "S. Vempala"
        }
      ]
    },
    {
      "paperId": "12b545faf17cb08c4d6e56fb3547b28f02fcdd1e",
      "externalIds": {
        "DBLP": "conf/aips/StadlerBR23",
        "DOI": "10.1609/icaps.v33i1.27250",
        "CorpusId": 259359571
      },
      "url": "https://www.semanticscholar.org/paper/12b545faf17cb08c4d6e56fb3547b28f02fcdd1e",
      "title": "Approximating the Value of Collaborative Team Actions for Efficient Multiagent Navigation in Uncertain Graphs",
      "venue": "International Conference on Automated Planning and Scheduling",
      "year": 2023,
      "referenceCount": 24,
      "citationCount": 10,
      "authors": [
        {
          "authorId": "2059037666",
          "name": "M. Stadler"
        },
        {
          "authorId": "2283746",
          "name": "Jacopo Banfi"
        },
        {
          "authorId": "153676637",
          "name": "Nicholas A. Roy"
        }
      ]
    },
    {
      "paperId": "089a54ad426d1552622b6da87e8e0946ac074bb1",
      "externalIds": {
        "DBLP": "journals/corr/abs-2312-11109",
        "ArXiv": "2312.11109",
        "DOI": "10.48550/arXiv.2312.11109",
        "CorpusId": 266359088
      },
      "url": "https://www.semanticscholar.org/paper/089a54ad426d1552622b6da87e8e0946ac074bb1",
      "title": "Graph Transformers for Large Graphs",
      "venue": "arXiv.org",
      "year": 2023,
      "referenceCount": 61,
      "citationCount": 13,
      "authors": [
        {
          "authorId": "51235219",
          "name": "Vijay Prakash Dwivedi"
        },
        {
          "authorId": "152891495",
          "name": "Yozen Liu"
        },
        {
          "authorId": "1755919",
          "name": "A. Luu"
        },
        {
          "authorId": "2279831845",
          "name": "Xavier Bresson"
        },
        {
          "authorId": "2253409421",
          "name": "Neil Shah"
        },
        {
          "authorId": "2256340293",
          "name": "Tong Zhao"
        }
      ]
    },
    {
      "paperId": "2c999db0071fa695ce151598bc2af01760008528",
      "externalIds": {
        "ArXiv": "2303.03617",
        "DBLP": "conf/date/LiuY23",
        "DOI": "10.23919/DATE56975.2023.10137201",
        "CorpusId": 257378029
      },
      "url": "https://www.semanticscholar.org/paper/2c999db0071fa695ce151598bc2af01760008528",
      "title": "Computing Effective Resistances on Large Graphs Based on Approximate Inverse of Cholesky Factor",
      "venue": "Design, Automation and Test in Europe",
      "year": 2023,
      "referenceCount": 27,
      "citationCount": 7,
      "authors": [
        {
          "authorId": "2116307099",
          "name": "Zhiqiang Liu"
        },
        {
          "authorId": "2116672739",
          "name": "Wenjian Yu"
        }
      ]
    },
    {
      "paperId": "e4b720544adbc1c088d61e2eea57965497c5455b",
      "externalIds": {
        "DBLP": "journals/pvldb/Yang0LXLW22",
        "DOI": "10.14778/3565816.3565834",
        "CorpusId": 253527800
      },
      "url": "https://www.semanticscholar.org/paper/e4b720544adbc1c088d61e2eea57965497c5455b",
      "title": "Approximating Probabilistic Group Steiner Trees in Graphs",
      "venue": "Proceedings of the VLDB Endowment",
      "year": 2022,
      "referenceCount": 42,
      "citationCount": 5,
      "authors": [
        {
          "authorId": "2321447203",
          "name": "Shuang Yang"
        },
        {
          "authorId": "2108587727",
          "name": "Yahui Sun"
        },
        {
          "authorId": "2167513185",
          "name": "Jiesong Liu"
        },
        {
          "authorId": "33285410",
          "name": "Xiaokui Xiao"
        },
        {
          "authorId": "2121775",
          "name": "Ronghua Li"
        },
        {
          "authorId": "12457830",
          "name": "Zhewei Wei"
        }
      ]
    },
    {
      "paperId": "c2c29216c564c7f94c977f50580e4bea1809660f",
      "externalIds": {
        "MAG": "3022653112",
        "DBLP": "journals/pr/ZhengPQG20",
        "DOI": "10.1016/j.patcog.2020.107418",
        "CorpusId": 218943471
      },
      "url": "https://www.semanticscholar.org/paper/c2c29216c564c7f94c977f50580e4bea1809660f",
      "title": "Fast matching via ergodic markov chain for super-large graphs",
      "venue": "Pattern Recognition",
      "year": 2020,
      "referenceCount": 45,
      "citationCount": 9,
      "authors": [
        {
          "authorId": "153697473",
          "name": "Yali Zheng"
        },
        {
          "authorId": "144320550",
          "name": "L. Pan"
        },
        {
          "authorId": "2543829",
          "name": "Jiye Qian"
        },
        {
          "authorId": "143992318",
          "name": "Hongliang Guo"
        }
      ]
    },
    {
      "paperId": "da3c1508794ba0d4f070a9bc47b06575422f456f",
      "externalIds": {
        "DBLP": "conf/icml/ZhangCHZZ024",
        "CorpusId": 271794110
      },
      "url": "https://www.semanticscholar.org/paper/da3c1508794ba0d4f070a9bc47b06575422f456f",
      "title": "Improving Equivariant Graph Neural Networks on Large Geometric Graphs via Virtual Nodes Learning",
      "venue": "International Conference on Machine Learning",
      "year": 2024,
      "referenceCount": 35,
      "citationCount": 16,
      "authors": [
        {
          "authorId": "2315585483",
          "name": "Yuelin Zhang"
        },
        {
          "authorId": "2289611642",
          "name": "Jiacheng Cen"
        },
        {
          "authorId": "2047522640",
          "name": "Jiaqi Han"
        },
        {
          "authorId": "2294600199",
          "name": "Zhiqiang Zhang"
        },
        {
          "authorId": "2315786424",
          "name": "Jun Zhou"
        },
        {
          "authorId": "2294837053",
          "name": "Wenbing Huang"
        }
      ]
    }
  ]
}