{
  "total": 24833,
  "offset": 0,
  "next": 10,
  "data": [
    {
      "paperId": "e1aab01ce6425e513d13e88469a76d0a3c5395a9",
      "externalIds": {
        "MAG": "2271518208",
        "ArXiv": "1511.04839",
        "DBLP": "journals/corr/MichaeliWL15",
        "CorpusId": 1539344
      },
      "url": "https://www.semanticscholar.org/paper/e1aab01ce6425e513d13e88469a76d0a3c5395a9",
      "title": "Nonparametric Canonical Correlation Analysis",
      "venue": "International Conference on Machine Learning",
      "year": 2015,
      "referenceCount": 53,
      "citationCount": 91,
      "authors": [
        {
          "authorId": "1880407",
          "name": "T. Michaeli"
        },
        {
          "authorId": "1702290",
          "name": "Weiran Wang"
        },
        {
          "authorId": "2924113",
          "name": "Karen Livescu"
        }
      ]
    },
    {
      "paperId": "e2257e3f56ccb12875a57bc0a8cca1d9d7e93ec6",
      "externalIds": {
        "MAG": "1523385540",
        "DBLP": "conf/icml/AndrewABL13",
        "CorpusId": 2495132
      },
      "url": "https://www.semanticscholar.org/paper/e2257e3f56ccb12875a57bc0a8cca1d9d7e93ec6",
      "title": "Deep Canonical Correlation Analysis",
      "venue": "International Conference on Machine Learning",
      "year": 2013,
      "referenceCount": 41,
      "citationCount": 2041,
      "authors": [
        {
          "authorId": "144339350",
          "name": "Galen Andrew"
        },
        {
          "authorId": "144365054",
          "name": "R. Arora"
        },
        {
          "authorId": "1748118",
          "name": "J. Bilmes"
        },
        {
          "authorId": "2924113",
          "name": "Karen Livescu"
        }
      ]
    },
    {
      "paperId": "72bd0698f4371f0213a92dc3d35d80ac6f6c31c3",
      "externalIds": {
        "MAG": "2125211336",
        "DOI": "10.1002/mrm.10537",
        "CorpusId": 30028380,
        "PubMed": "12876712"
      },
      "url": "https://www.semanticscholar.org/paper/72bd0698f4371f0213a92dc3d35d80ac6f6c31c3",
      "title": "Novel nonparametric approach to canonical correlation analysis with applications to low CNR functional MRI data",
      "venue": "Magnetic Resonance in Medicine",
      "year": 2003,
      "referenceCount": 16,
      "citationCount": 40,
      "authors": [
        {
          "authorId": "32208125",
          "name": "R. Nandy"
        },
        {
          "authorId": "7789023",
          "name": "D. Cordes"
        }
      ]
    },
    {
      "paperId": "c928f2f941c00a619caa8939c6c15d127a53533e",
      "externalIds": {
        "MAG": "2027661509",
        "DBLP": "journals/ejasp/VaerenberghVS08",
        "DOI": "10.1155/2008/875351",
        "CorpusId": 4823666
      },
      "url": "https://www.semanticscholar.org/paper/c928f2f941c00a619caa8939c6c15d127a53533e",
      "title": "Adaptive Kernel Canonical Correlation Analysis Algorithms for Nonparametric Identification of Wiener and Hammerstein Systems",
      "venue": "EURASIP Journal on Advances in Signal Processing",
      "year": 2008,
      "referenceCount": 37,
      "citationCount": 19,
      "authors": [
        {
          "authorId": "1701126",
          "name": "S. V. Vaerenbergh"
        },
        {
          "authorId": "143727091",
          "name": "J. Vía"
        },
        {
          "authorId": "145275481",
          "name": "I. Santamaría"
        }
      ]
    },
    {
      "paperId": "75016541e3c106cd7262510f0ad04541254ebc52",
      "externalIds": {
        "CorpusId": 55443072
      },
      "url": "https://www.semanticscholar.org/paper/75016541e3c106cd7262510f0ad04541254ebc52",
      "title": "Ranking the Airports with Data Envelopment Analysis and Canonical Correlation Analysis",
      "venue": "",
      "year": 2017,
      "referenceCount": 17,
      "citationCount": 4,
      "authors": [
        {
          "authorId": "2075048964",
          "name": "E. Öztürk"
        },
        {
          "authorId": "145344082",
          "name": "H. Bal"
        }
      ]
    },
    {
      "paperId": "ad6a363fb2fb373dba2d8c5e160a13225cce0762",
      "externalIds": {
        "MAG": "2257777163",
        "CorpusId": 123573429
      },
      "url": "https://www.semanticscholar.org/paper/ad6a363fb2fb373dba2d8c5e160a13225cce0762",
      "title": "On nonparametric tests of independence and robust canonical correlation analysis",
      "venue": "",
      "year": 2003,
      "referenceCount": 0,
      "citationCount": 13,
      "authors": [
        {
          "authorId": "40604945",
          "name": "S. Taskinen"
        }
      ]
    },
    {
      "paperId": "9a671342e6131b06b0078e055ad7126630bfa8ec",
      "externalIds": {
        "MAG": "2559259166",
        "DBLP": "conf/bcb/AlamKCW16",
        "DOI": "10.1145/2975167.2975196",
        "CorpusId": 16009968
      },
      "url": "https://www.semanticscholar.org/paper/9a671342e6131b06b0078e055ad7126630bfa8ec",
      "title": "Robust Kernel Canonical Correlation Analysis to Detect Gene-Gene Interaction for Imaging Genetics Data",
      "venue": "ACM International Conference on Bioinformatics, Computational Biology and Biomedicine",
      "year": 2016,
      "referenceCount": 48,
      "citationCount": 9,
      "authors": [
        {
          "authorId": "89304432",
          "name": "Md. Ashad Alam"
        },
        {
          "authorId": "145794047",
          "name": "O. Komori"
        },
        {
          "authorId": "144048760",
          "name": "V. Calhoun"
        },
        {
          "authorId": "46394229",
          "name": "Yu-ping Wang"
        }
      ]
    },
    {
      "paperId": "9d1b7ac690286a9bf5b7c78f64755b4759606581",
      "externalIds": {
        "MAG": "2411522873",
        "ArXiv": "1606.00118",
        "CorpusId": 43318706
      },
      "url": "https://www.semanticscholar.org/paper/9d1b7ac690286a9bf5b7c78f64755b4759606581",
      "title": "Gene-Gene association for Imaging Genetics Data using Robust Kernel Canonical Correlation Analysis",
      "venue": "",
      "year": 2016,
      "referenceCount": 37,
      "citationCount": 0,
      "authors": [
        {
          "authorId": "89304432",
          "name": "Md. Ashad Alam"
        },
        {
          "authorId": "145794047",
          "name": "O. Komori"
        },
        {
          "authorId": "46394229",
          "name": "Yu-ping Wang"
        }
      ]
    },
    {
      "paperId": "0bfc4ff3b12fe654f970d9dc78b4fa13b0b82328",
      "externalIds": {
        "MAG": "2130866639",
        "DOI": "10.1016/J.JSPI.2008.10.011",
        "CorpusId": 122199186
      },
      "url": "https://www.semanticscholar.org/paper/0bfc4ff3b12fe654f970d9dc78b4fa13b0b82328",
      "title": "Nonlinear measures of association with kernel canonical correlation analysis and applications",
      "venue": "",
      "year": 2009,
      "referenceCount": 31,
      "citationCount": 37,
      "authors": [
        {
          "authorId": "2594603",
          "name": "Su‐Yun Huang"
        },
        {
          "authorId": "2108670446",
          "name": "Mei-Hsien Lee"
        },
        {
          "authorId": "8319297",
          "name": "C. K. Hsiao"
        }
      ]
    },
    {
      "paperId": "5e98d90ba1ae1d0f5dd2c7e801758df1d58167a6",
      "externalIds": {
        "MAG": "2070027106",
        "DBLP": "journals/eor/FriedmanS97",
        "DOI": "10.1016/S0377-2217(97)84108-2",
        "CorpusId": 13067323
      },
      "url": "https://www.semanticscholar.org/paper/5e98d90ba1ae1d0f5dd2c7e801758df1d58167a6",
      "title": "Scaling units via the canonical correlation analysis in the DEA context",
      "venue": "European Journal of Operational Research",
      "year": 1997,
      "referenceCount": 28,
      "citationCount": 182,
      "authors": [
        {
          "authorId": "36464021",
          "name": "Lea Friedman"
        },
        {
          "authorId": "1399079150",
          "name": "Z. Sinuany-Stern"
        }
      ]
    }
  ]
}