{
  "total": 210,
  "offset": 0,
  "next": 10,
  "data": [
    {
      "paperId": "779451967a5ed43ed539766e26ed3b1c9352dbe4",
      "externalIds": {
        "MAG": "2741826335",
        "DBLP": "conf/icml/WeiSKOG17",
        "CorpusId": 3093738
      },
      "url": "https://www.semanticscholar.org/paper/779451967a5ed43ed539766e26ed3b1c9352dbe4",
      "title": "Source-Target Similarity Modelings for Multi-Source Transfer Gaussian Process Regression",
      "venue": "International Conference on Machine Learning",
      "year": 2017,
      "referenceCount": 26,
      "citationCount": 27,
      "authors": [
        {
          "authorId": "48605043",
          "name": "Pengfei Wei"
        },
        {
          "authorId": "2844611",
          "name": "Ramón Sagarna"
        },
        {
          "authorId": "2636068",
          "name": "Yiping Ke"
        },
        {
          "authorId": "144848119",
          "name": "Y. Ong"
        },
        {
          "authorId": "144290538",
          "name": "C. Goh"
        }
      ]
    },
    {
      "paperId": "24c60b0ad1b50a60a23f0347978a460351b14b87",
      "externalIds": {
        "DBLP": "journals/pami/WeiVQOM23",
        "DOI": "10.1109/TPAMI.2022.3184696",
        "CorpusId": 249886982,
        "PubMed": "35727778"
      },
      "url": "https://www.semanticscholar.org/paper/24c60b0ad1b50a60a23f0347978a460351b14b87",
      "title": "Transfer Kernel Learning for Multi-Source Transfer Gaussian Process Regression",
      "venue": "IEEE Transactions on Pattern Analysis and Machine Intelligence",
      "year": 2022,
      "referenceCount": 41,
      "citationCount": 12,
      "authors": [
        {
          "authorId": "48605343",
          "name": "Pengfei Wei"
        },
        {
          "authorId": "51056329",
          "name": "Thanh Vinh Vo"
        },
        {
          "authorId": "40507824",
          "name": "Xinghua Qu"
        },
        {
          "authorId": "8748397",
          "name": "Y. Ong"
        },
        {
          "authorId": "2919563",
          "name": "Zejun Ma"
        }
      ]
    },
    {
      "paperId": "064b6ddda072765ffc97bfaaa0e6ff0041206379",
      "externalIds": {
        "DBLP": "journals/tcc/MoLZXL25",
        "DOI": "10.1109/TCC.2025.3575790",
        "CorpusId": 279098713
      },
      "url": "https://www.semanticscholar.org/paper/064b6ddda072765ffc97bfaaa0e6ff0041206379",
      "title": "A Cross-Workload Power Prediction Method Based on Transfer Gaussian Process Regression in Cloud Data Centers",
      "venue": "IEEE Transactions on Cloud Computing",
      "year": 2025,
      "referenceCount": 45,
      "citationCount": 0,
      "authors": [
        {
          "authorId": "2277948456",
          "name": "Ruichao Mo"
        },
        {
          "authorId": "2278421293",
          "name": "Weiwei Lin"
        },
        {
          "authorId": "2283593979",
          "name": "Haocheng Zhong"
        },
        {
          "authorId": "2277142965",
          "name": "Minxian Xu"
        },
        {
          "authorId": "2360051835",
          "name": "Keqin Li"
        }
      ]
    },
    {
      "paperId": "e1b401df9d5f5063f6b827f04aa266ba320a0f36",
      "externalIds": {
        "DOI": "10.1109/USYS62456.2024.11116574",
        "CorpusId": 281399427
      },
      "url": "https://www.semanticscholar.org/paper/e1b401df9d5f5063f6b827f04aa266ba320a0f36",
      "title": "Surrogate assisted Cooperative Differential Evolution using Hyperparameter Transfer Gaussian Process Regression",
      "venue": "2024 IEEE 10th International Conference on Underwater System Technology: Theory and Applications (USYS)",
      "year": 2024,
      "referenceCount": 14,
      "citationCount": 0,
      "authors": [
        {
          "authorId": "151475284",
          "name": "Puyu Jiang"
        },
        {
          "authorId": "2157175196",
          "name": "Jun Liu"
        },
        {
          "authorId": "3222099",
          "name": "Yuansheng Cheng"
        }
      ]
    },
    {
      "paperId": "19f02006490284beca3a235b5096bb62b6c42589",
      "externalIds": {
        "DBLP": "conf/iros/InotsumeK21",
        "DOI": "10.1109/IROS51168.2021.9636528",
        "CorpusId": 245319283
      },
      "url": "https://www.semanticscholar.org/paper/19f02006490284beca3a235b5096bb62b6c42589",
      "title": "Adaptive Terrain Traversability Prediction based on Multi-Source Transfer Gaussian Processes",
      "venue": "IEEE/RJS International Conference on Intelligent RObots and Systems",
      "year": 2021,
      "referenceCount": 17,
      "citationCount": 7,
      "authors": [
        {
          "authorId": "3179294",
          "name": "H. Inotsume"
        },
        {
          "authorId": "2054288430",
          "name": "Takashi Kubota"
        }
      ]
    },
    {
      "paperId": "d08251fb9270ac4ce3e92ba314d23f17107f01e2",
      "externalIds": {
        "DOI": "10.1088/1742-6596/3147/1/012022",
        "CorpusId": 283284531
      },
      "url": "https://www.semanticscholar.org/paper/d08251fb9270ac4ce3e92ba314d23f17107f01e2",
      "title": "Transfer Learning-Enhanced Gaussian Process Regression (GPR) Model for Optimizing Stimulation Parameters with Limited Local Field Potential (LFP) Data",
      "venue": "Journal of Physics: Conference Series",
      "year": 2025,
      "referenceCount": 21,
      "citationCount": 0,
      "authors": [
        {
          "authorId": "2323313598",
          "name": "Peijie Gao"
        },
        {
          "authorId": "2396496007",
          "name": "Long Chen"
        },
        {
          "authorId": "2359005494",
          "name": "Jing Wang"
        },
        {
          "authorId": "2323079231",
          "name": "Jing Zhao"
        }
      ]
    },
    {
      "paperId": "86d2848db442bc54f554f58b15a2c25a13162762",
      "externalIds": {
        "DBLP": "conf/cikm/WeiQSM22",
        "DOI": "10.1145/3511808.3557303",
        "CorpusId": 252905054
      },
      "url": "https://www.semanticscholar.org/paper/86d2848db442bc54f554f58b15a2c25a13162762",
      "title": "Dynamic Transfer Gaussian Process Regression",
      "venue": "International Conference on Information and Knowledge Management",
      "year": 2022,
      "referenceCount": 35,
      "citationCount": 1,
      "authors": [
        {
          "authorId": "2058771031",
          "name": "Pengfei Wei"
        },
        {
          "authorId": "40507824",
          "name": "Xinghua Qu"
        },
        {
          "authorId": "2152980965",
          "name": "Wen Song"
        },
        {
          "authorId": "2919563",
          "name": "Zejun Ma"
        }
      ]
    },
    {
      "paperId": "c67f31e7e9712a276efda8e4509632957933529a",
      "externalIds": {
        "MAG": "2903640311",
        "DBLP": "journals/kbs/DaOGFL19",
        "DOI": "10.1016/J.KNOSYS.2018.11.029",
        "CorpusId": 58005848
      },
      "url": "https://www.semanticscholar.org/paper/c67f31e7e9712a276efda8e4509632957933529a",
      "title": "Fast transfer Gaussian process regression with large-scale sources",
      "venue": "Knowledge-Based Systems",
      "year": 2019,
      "referenceCount": 52,
      "citationCount": 25,
      "authors": [
        {
          "authorId": "2965535",
          "name": "B. Da"
        },
        {
          "authorId": "144848119",
          "name": "Y. Ong"
        },
        {
          "authorId": "2129458064",
          "name": "Abhishek Gupta"
        },
        {
          "authorId": "50032417",
          "name": "Liang Feng"
        },
        {
          "authorId": "2115552258",
          "name": "Haitao Liu"
        }
      ]
    },
    {
      "paperId": "87023b975c066b2f0411bba5bde109e1d206cd96",
      "externalIds": {
        "PubMedCentral": "11270819",
        "DOI": "10.1021/acs.jctc.4c00402",
        "CorpusId": 271087140,
        "PubMed": "38981081"
      },
      "url": "https://www.semanticscholar.org/paper/87023b975c066b2f0411bba5bde109e1d206cd96",
      "title": "Incorporating Noncovalent Interactions in Transfer Learning Gaussian Process Regression Models for Molecular Simulations",
      "venue": "Journal of Chemical Theory and Computation",
      "year": 2024,
      "referenceCount": 46,
      "citationCount": 4,
      "authors": [
        {
          "authorId": "2259888060",
          "name": "Matthew L Brown"
        },
        {
          "authorId": "1671031720",
          "name": "B. K. Isamura"
        },
        {
          "authorId": "2241825017",
          "name": "Jonathan M. Skelton"
        },
        {
          "authorId": "1695053",
          "name": "P. Popelier"
        }
      ]
    },
    {
      "paperId": "c5a903958149d5090b262f18248fe1c9d620aa4d",
      "externalIds": {
        "DOI": "10.1115/detc2024-143998",
        "CorpusId": 274026150
      },
      "url": "https://www.semanticscholar.org/paper/c5a903958149d5090b262f18248fe1c9d620aa4d",
      "title": "Heterogeneous Transfer Learning for Design and Manufacturing Process Modeling Through Input Mapping and Multi-Fidelity Gaussian Process",
      "venue": "Conference on Computability in Europe",
      "year": 2024,
      "referenceCount": 0,
      "citationCount": 0,
      "authors": [
        {
          "authorId": "152650431",
          "name": "S. Ravi"
        },
        {
          "authorId": "51133365",
          "name": "Piyush Pandita"
        },
        {
          "authorId": "2268028054",
          "name": "Changjie Sun"
        },
        {
          "authorId": "2248237115",
          "name": "Liping Wang"
        }
      ]
    }
  ]
}