{
  "total": 989,
  "offset": 0,
  "next": 10,
  "data": [
    {
      "paperId": "301d1f3e87cd948aa47e7f9bad087d4b5702ba15",
      "externalIds": {
        "MAG": "2624188997",
        "ArXiv": "1706.02869",
        "DBLP": "conf/icml/0002TLFYG17",
        "CorpusId": 5924966
      },
      "url": "https://www.semanticscholar.org/paper/301d1f3e87cd948aa47e7f9bad087d4b5702ba15",
      "title": "Adaptive Consensus ADMM for Distributed Optimization",
      "venue": "International Conference on Machine Learning",
      "year": 2017,
      "referenceCount": 39,
      "citationCount": 70,
      "authors": [
        {
          "authorId": "144897102",
          "name": "Zheng Xu"
        },
        {
          "authorId": "2189083",
          "name": "Gavin Taylor"
        },
        {
          "authorId": "1706574",
          "name": "Hao Li"
        },
        {
          "authorId": "34659351",
          "name": "Mário A. T. Figueiredo"
        },
        {
          "authorId": "145802386",
          "name": "Xiaoming Yuan"
        },
        {
          "authorId": "1962083",
          "name": "T. Goldstein"
        }
      ]
    },
    {
      "paperId": "c5170fc1d322caa3ed94801995d9cd902e061908",
      "externalIds": {
        "ArXiv": "2109.01089",
        "DBLP": "journals/corr/abs-2109-01089",
        "DOI": "10.23952/jano.4.2022.2.10",
        "CorpusId": 237385261
      },
      "url": "https://www.semanticscholar.org/paper/c5170fc1d322caa3ed94801995d9cd902e061908",
      "title": "Adaptive Uncertainty-Weighted ADMM for Distributed Optimization",
      "venue": "Journal of Applied and Numerical Optimization",
      "year": 2021,
      "referenceCount": 32,
      "citationCount": 4,
      "authors": [
        {
          "authorId": "2116476085",
          "name": "Jianping Ye"
        },
        {
          "authorId": "2398875",
          "name": "Caleb Wan"
        },
        {
          "authorId": "143745940",
          "name": "Samy Wu Fung"
        }
      ]
    },
    {
      "paperId": "e78dddbac24afb0fa5542cdbb518c283260da494",
      "externalIds": {
        "ArXiv": "1506.08928",
        "MAG": "2963512942",
        "DBLP": "journals/corr/SongYP15",
        "DOI": "10.1609/aaai.v30i1.10069",
        "CorpusId": 3255975
      },
      "url": "https://www.semanticscholar.org/paper/e78dddbac24afb0fa5542cdbb518c283260da494",
      "title": "Fast ADMM Algorithm for Distributed Optimization with Adaptive Penalty",
      "venue": "AAAI Conference on Artificial Intelligence",
      "year": 2015,
      "referenceCount": 26,
      "citationCount": 80,
      "authors": [
        {
          "authorId": "2746116",
          "name": "Changkyu Song"
        },
        {
          "authorId": "2244969",
          "name": "Sejong Yoon"
        },
        {
          "authorId": "144658464",
          "name": "V. Pavlovic"
        }
      ]
    },
    {
      "paperId": "5d94d37d2cab29ebbf0d299d277056e1f4eade54",
      "externalIds": {
        "MAG": "3185904009",
        "DOI": "10.1109/tpwrs.2021.3097798",
        "CorpusId": 237718247
      },
      "url": "https://www.semanticscholar.org/paper/5d94d37d2cab29ebbf0d299d277056e1f4eade54",
      "title": "A Bi-Level Consensus ADMM-Based Fully Distributed Inverter-Based Volt/Var Control Method for Active Distribution Networks",
      "venue": "IEEE Transactions on Power Systems",
      "year": 2021,
      "referenceCount": 0,
      "citationCount": 21,
      "authors": [
        {
          "authorId": "2298081",
          "name": "Yuntao Ju"
        },
        {
          "authorId": "1628362516",
          "name": "Zifeng Zhang"
        },
        {
          "authorId": "1760691",
          "name": "Wenchuan Wu"
        },
        {
          "authorId": "2130052622",
          "name": "Wenwu Liu"
        },
        {
          "authorId": "6240043",
          "name": "Ruosi Zhang"
        }
      ]
    },
    {
      "paperId": "e76baec0ae787c3a9b501c5e7daacc14cff31b82",
      "externalIds": {
        "DOI": "10.1002/acs.3881",
        "CorpusId": 271353753
      },
      "url": "https://www.semanticscholar.org/paper/e76baec0ae787c3a9b501c5e7daacc14cff31b82",
      "title": "Distributed online optimization for integrated energy systems: A multi‐agent system consensus approach",
      "venue": "International Journal of Adaptive Control and Signal Processing",
      "year": 2024,
      "referenceCount": 59,
      "citationCount": 6,
      "authors": [
        {
          "authorId": "2117871400",
          "name": "Guofeng Wang"
        },
        {
          "authorId": "2265159807",
          "name": "Yongqi Liu"
        },
        {
          "authorId": "2272178931",
          "name": "Youbing Zhang"
        },
        {
          "authorId": "2312689158",
          "name": "Jun Yan"
        },
        {
          "authorId": "51908264",
          "name": "S. Xie"
        }
      ]
    },
    {
      "paperId": "26ffd3bd553eb996da7cd0c66030b8ac02209e0e",
      "externalIds": {
        "MAG": "2592817661",
        "DBLP": "journals/tsg/NguyenNK18",
        "DOI": "10.1109/TSG.2017.2676179",
        "CorpusId": 52124019
      },
      "url": "https://www.semanticscholar.org/paper/26ffd3bd553eb996da7cd0c66030b8ac02209e0e",
      "title": "Optimal Demand Response and Real-Time Pricing by a Sequential Distributed Consensus-Based ADMM Approach",
      "venue": "IEEE Transactions on Smart Grid",
      "year": 2018,
      "referenceCount": 20,
      "citationCount": 65,
      "authors": [
        {
          "authorId": "2023941",
          "name": "Dinh Hoa Nguyen"
        },
        {
          "authorId": "48516530",
          "name": "T. Narikiyo"
        },
        {
          "authorId": "3234136",
          "name": "M. Kawanishi"
        }
      ]
    },
    {
      "paperId": "a2befef04a822cda0b72872f803f78397c0f0ea2",
      "externalIds": {
        "DBLP": "journals/corr/abs-2510-17541",
        "ArXiv": "2510.17541",
        "DOI": "10.2514/1.G008979",
        "CorpusId": 282210349
      },
      "url": "https://www.semanticscholar.org/paper/a2befef04a822cda0b72872f803f78397c0f0ea2",
      "title": "Distributed Spatial-Temporal Trajectory Optimization for Unmanned-Aerial-Vehicle Swarm",
      "venue": "Journal of Guidance Control and Dynamics",
      "year": 2025,
      "referenceCount": 45,
      "citationCount": 1,
      "authors": [
        {
          "authorId": "2152198533",
          "name": "Xiaobo Zheng"
        },
        {
          "authorId": "2151137277",
          "name": "Pan Tang"
        },
        {
          "authorId": "2276774353",
          "name": "Defu Lin"
        },
        {
          "authorId": "2336550001",
          "name": "Shaoming He"
        }
      ]
    },
    {
      "paperId": "912ed94f376326ca929aaf995a1a1260bcd5f830",
      "externalIds": {
        "MAG": "2951979980",
        "ArXiv": "1710.05656",
        "DBLP": "conf/camsap/YatawattaDS17",
        "DOI": "10.1109/CAMSAP.2017.8313135",
        "CorpusId": 3837492
      },
      "url": "https://www.semanticscholar.org/paper/912ed94f376326ca929aaf995a1a1260bcd5f830",
      "title": "Adaptive ADMM in distributed radio interferometric calibration",
      "venue": "IEEE International Workshop on Computational Advances in Multi-Sensor Adaptive Processing",
      "year": 2017,
      "referenceCount": 32,
      "citationCount": 4,
      "authors": [
        {
          "authorId": "2174490",
          "name": "S. Yatawatta"
        },
        {
          "authorId": "47724070",
          "name": "F. Diblen"
        },
        {
          "authorId": "11653787",
          "name": "H. Spreeuw"
        }
      ]
    },
    {
      "paperId": "5077ddfbbf433f7414e9b056e7363a53308e49c8",
      "externalIds": {
        "ArXiv": "2511.18703",
        "DBLP": "journals/corr/abs-2511-18703",
        "DOI": "10.48550/arXiv.2511.18703",
        "CorpusId": 283244770
      },
      "url": "https://www.semanticscholar.org/paper/5077ddfbbf433f7414e9b056e7363a53308e49c8",
      "title": "Asynchronous Distributed Multi-Robot Motion Planning Under Imperfect Communication",
      "venue": "arXiv.org",
      "year": 2025,
      "referenceCount": 27,
      "citationCount": 1,
      "authors": [
        {
          "authorId": "2184246307",
          "name": "Ardalan Tajbakhsh"
        },
        {
          "authorId": "2080125432",
          "name": "A. Saravanos"
        },
        {
          "authorId": "2306866203",
          "name": "James Zhu"
        },
        {
          "authorId": "1751063",
          "name": "Evangelos A. Theodorou"
        },
        {
          "authorId": "2818509",
          "name": "L. Biegler"
        },
        {
          "authorId": "2326841548",
          "name": "Aaron M. Johnson"
        }
      ]
    },
    {
      "paperId": "e4290e9a160ab69e681e382b1b9e09d8e1107ebf",
      "externalIds": {
        "MAG": "2804510784",
        "DBLP": "journals/dsp/GuptaSS18",
        "DOI": "10.1016/J.DSP.2018.05.007",
        "CorpusId": 49588579
      },
      "url": "https://www.semanticscholar.org/paper/e4290e9a160ab69e681e382b1b9e09d8e1107ebf",
      "title": "Nonlinear space-time varying parameter estimation using consensus-based in-network distributed strategy",
      "venue": "Digit. Signal Process.",
      "year": 2018,
      "referenceCount": 35,
      "citationCount": 12,
      "authors": [
        {
          "authorId": "2118972579",
          "name": "Saurav Gupta"
        },
        {
          "authorId": "144640422",
          "name": "A. Sahoo"
        },
        {
          "authorId": "1836644",
          "name": "U. K. Sahoo"
        }
      ]
    }
  ]
}