{
  "total": 80,
  "offset": 0,
  "next": 10,
  "data": [
    {
      "paperId": "d505862e1942721e555c491bc85ece8869a4e63c",
      "externalIds": {
        "ArXiv": "1803.01273",
        "MAG": "2963403654",
        "DBLP": "conf/icml/SongSE18",
        "CorpusId": 3668354
      },
      "url": "https://www.semanticscholar.org/paper/d505862e1942721e555c491bc85ece8869a4e63c",
      "title": "Accelerating Natural Gradient with Higher-Order Invariance",
      "venue": "International Conference on Machine Learning",
      "year": 2018,
      "referenceCount": 43,
      "citationCount": 27,
      "authors": [
        {
          "authorId": "115504645",
          "name": "Yang Song"
        },
        {
          "authorId": "2490652",
          "name": "Stefano Ermon"
        }
      ]
    },
    {
      "paperId": "ef8552f77f06f794448721d8d8234ecea3f37615",
      "externalIds": {
        "CorpusId": 260442802
      },
      "url": "https://www.semanticscholar.org/paper/ef8552f77f06f794448721d8d8234ecea3f37615",
      "title": "Accelerating Natural Gradient with Higher-Order Invariance",
      "venue": "",
      "year": 2018,
      "referenceCount": 0,
      "citationCount": 0,
      "authors": []
    },
    {
      "paperId": "7ee1e6879dac5d75f6b6483698402d5fbaab8a34",
      "externalIds": {
        "DBLP": "journals/cphysics/LiXYG25",
        "DOI": "10.1016/j.cpc.2025.109714",
        "CorpusId": 279478880
      },
      "url": "https://www.semanticscholar.org/paper/7ee1e6879dac5d75f6b6483698402d5fbaab8a34",
      "title": "Extracting the nearest canonical equilibrium distribution via natural gradient descent method",
      "venue": "Computer Physics Communications",
      "year": 2025,
      "referenceCount": 24,
      "citationCount": 0,
      "authors": [
        {
          "authorId": "2368668975",
          "name": "Chao Li"
        },
        {
          "authorId": "3412001",
          "name": "Xiaotao Xiao"
        },
        {
          "authorId": "2118288052",
          "name": "L. Ye"
        },
        {
          "authorId": "2289839676",
          "name": "Zhibin Guo"
        }
      ]
    },
    {
      "paperId": "6de22f96b71c2aa44c4e98f952324cd3b8a29ffe",
      "externalIds": {
        "DBLP": "journals/cvgip/DanielssonS90",
        "MAG": "1999725997",
        "DOI": "10.1016/0734-189X(90)90137-K",
        "CorpusId": 5266809
      },
      "url": "https://www.semanticscholar.org/paper/6de22f96b71c2aa44c4e98f952324cd3b8a29ffe",
      "title": "Rotation Invariance in Gradient and Higher Order Derivative Detectors",
      "venue": "Computer Vision Graphics and Image Processing",
      "year": 1990,
      "referenceCount": 8,
      "citationCount": 47,
      "authors": [
        {
          "authorId": "35806347",
          "name": "P. Danielsson"
        },
        {
          "authorId": "2045127",
          "name": "O. Seger"
        }
      ]
    },
    {
      "paperId": "1709c2287a49147d518d59546d5db920c9e2b79c",
      "externalIds": {
        "DOI": "10.1080/15376494.2022.2163729",
        "CorpusId": 255639878
      },
      "url": "https://www.semanticscholar.org/paper/1709c2287a49147d518d59546d5db920c9e2b79c",
      "title": "A strategy improving stiffness to resist local vibration of sandwich plates by extended Legendre higher-order model",
      "venue": "Mechanics of Advanced Materials and Structures",
      "year": 2023,
      "referenceCount": 85,
      "citationCount": 4,
      "authors": [
        {
          "authorId": "30898019",
          "name": "Yu-Jie Xiao"
        },
        {
          "authorId": "47040114",
          "name": "Zhanghua Wu"
        },
        {
          "authorId": "2200096336",
          "name": "Xinyu Zhang"
        },
        {
          "authorId": "2385793814",
          "name": "Chunhua Zhang"
        },
        {
          "authorId": "12951973",
          "name": "Ren Xiaohui"
        }
      ]
    },
    {
      "paperId": "7d41a073324d8a6435548ded662768685f6f667c",
      "externalIds": {
        "PubMedCentral": "12456947",
        "DOI": "10.1101/2025.02.15.637892",
        "CorpusId": 276407419,
        "PubMed": "40985339"
      },
      "url": "https://www.semanticscholar.org/paper/7d41a073324d8a6435548ded662768685f6f667c",
      "title": "Hierarchical encoding of natural sound mixtures in ferret auditory cortex",
      "venue": "bioRxiv",
      "year": 2025,
      "referenceCount": 46,
      "citationCount": 1,
      "authors": [
        {
          "authorId": "1992964308",
          "name": "Agnès Landemard"
        },
        {
          "authorId": "5585935",
          "name": "C. Bimbard"
        },
        {
          "authorId": "5910582",
          "name": "Yves Boubenec"
        }
      ]
    },
    {
      "paperId": "a4ada84b29fb3bc541da57d74f45e8ea146915a7",
      "externalIds": {
        "DOI": "10.1088/1361-6544/ac5fd6",
        "CorpusId": 249495435
      },
      "url": "https://www.semanticscholar.org/paper/a4ada84b29fb3bc541da57d74f45e8ea146915a7",
      "title": "The mean-field approximation for higher-dimensional Coulomb flows in the scaling-critical L ∞ space",
      "venue": "",
      "year": 2022,
      "referenceCount": 66,
      "citationCount": 12,
      "authors": [
        {
          "authorId": "46815506",
          "name": "M. Rosenzweig"
        }
      ]
    },
    {
      "paperId": "6d4f21e1ef8632de182846958a11d4b16e630180",
      "externalIds": {
        "MAG": "2953381589",
        "DBLP": "journals/corr/WibisonoWJ16",
        "ArXiv": "1603.04245",
        "DOI": "10.1073/pnas.1614734113",
        "CorpusId": 4171712,
        "PubMed": "27834219"
      },
      "url": "https://www.semanticscholar.org/paper/6d4f21e1ef8632de182846958a11d4b16e630180",
      "title": "A variational perspective on accelerated methods in optimization",
      "venue": "Proceedings of the National Academy of Sciences of the United States of America",
      "year": 2016,
      "referenceCount": 37,
      "citationCount": 640,
      "authors": [
        {
          "authorId": "2951227",
          "name": "Andre Wibisono"
        },
        {
          "authorId": "144102853",
          "name": "Ashia C. Wilson"
        },
        {
          "authorId": "1694621",
          "name": "Michael I. Jordan"
        }
      ]
    },
    {
      "paperId": "2e2f96301e967a034c6ef2d9b34895d8cee129ec",
      "externalIds": {
        "ArXiv": "2106.02925",
        "DBLP": "conf/nips/RenG21",
        "CorpusId": 235358126
      },
      "url": "https://www.semanticscholar.org/paper/2e2f96301e967a034c6ef2d9b34895d8cee129ec",
      "title": "Tensor Normal Training for Deep Learning Models",
      "venue": "Neural Information Processing Systems",
      "year": 2021,
      "referenceCount": 57,
      "citationCount": 32,
      "authors": [
        {
          "authorId": null,
          "name": "Yi Ren"
        },
        {
          "authorId": "4745449",
          "name": "D. Goldfarb"
        }
      ]
    },
    {
      "paperId": "35855839624b95695e2f0d52106dc1f6b805c782",
      "externalIds": {
        "DOI": "10.3390/fluids10050129",
        "CorpusId": 278618426
      },
      "url": "https://www.semanticscholar.org/paper/35855839624b95695e2f0d52106dc1f6b805c782",
      "title": "A Review of Mesh Adaptation Technology Applied to Computational Fluid Dynamics",
      "venue": "Fluids",
      "year": 2025,
      "referenceCount": 181,
      "citationCount": 13,
      "authors": [
        {
          "authorId": "66511291",
          "name": "G. Vivarelli"
        },
        {
          "authorId": "2248538140",
          "name": "Ning Qin"
        },
        {
          "authorId": "2266198259",
          "name": "S. Shahpar"
        }
      ]
    }
  ]
}