{
  "total": 40,
  "offset": 0,
  "next": 10,
  "data": [
    {
      "paperId": "0132b27e3681ce910ae74643e33a53b74bd5f5c7",
      "externalIds": {
        "MAG": "2803533564",
        "DBLP": "conf/icml/DaiKDSS18",
        "CorpusId": 51681108
      },
      "url": "https://www.semanticscholar.org/paper/0132b27e3681ce910ae74643e33a53b74bd5f5c7",
      "title": "Learning Steady-States of Iterative Algorithms over Graphs",
      "venue": "International Conference on Machine Learning",
      "year": 2018,
      "referenceCount": 25,
      "citationCount": 222,
      "authors": [
        {
          "authorId": "2791430",
          "name": "H. Dai"
        },
        {
          "authorId": "1714932",
          "name": "Zornitsa Kozareva"
        },
        {
          "authorId": "144445933",
          "name": "Bo Dai"
        },
        {
          "authorId": "46234526",
          "name": "Alex Smola"
        },
        {
          "authorId": "1779453",
          "name": "Le Song"
        }
      ]
    },
    {
      "paperId": "ba8ce939894b68c41cf533cceb2bc3fa7bf66e64",
      "externalIds": {
        "MAG": "2920296973",
        "DBLP": "conf/acssc/ShafipourM18",
        "DOI": "10.1109/ACSSC.2018.8645419",
        "CorpusId": 67864388
      },
      "url": "https://www.semanticscholar.org/paper/ba8ce939894b68c41cf533cceb2bc3fa7bf66e64",
      "title": "Spread and Sparse: Learning Interpretable Transforms for Bandlimited Signals on Directed Graphs",
      "venue": "Asilomar Conference on Signals, Systems and Computers",
      "year": 2018,
      "referenceCount": 16,
      "citationCount": 2,
      "authors": [
        {
          "authorId": "18161302",
          "name": "Rasoul Shafipour"
        },
        {
          "authorId": "144328356",
          "name": "G. Mateos"
        }
      ]
    },
    {
      "paperId": "057bc2c39298bb052934aff82f67197198ce95aa",
      "externalIds": {
        "ArXiv": "1909.04255",
        "DBLP": "journals/corr/abs-1909-04255",
        "MAG": "2972809422",
        "DOI": "10.1109/CDC40024.2019.9029547",
        "CorpusId": 202542686
      },
      "url": "https://www.semanticscholar.org/paper/057bc2c39298bb052934aff82f67197198ce95aa",
      "title": "Non-Bayesian Social Learning with Uncertain Models over Time-Varying Directed Graphs",
      "venue": "IEEE Conference on Decision and Control",
      "year": 2019,
      "referenceCount": 27,
      "citationCount": 13,
      "authors": [
        {
          "authorId": "32030988",
          "name": "César A. Uribe"
        },
        {
          "authorId": "1516165546",
          "name": "J. Z. Hare"
        },
        {
          "authorId": "1795727",
          "name": "Lance M. Kaplan"
        },
        {
          "authorId": "1688304",
          "name": "A. Jadbabaie"
        }
      ]
    },
    {
      "paperId": "547a253926a702c8adeca9feccc862caa4eb8ce4",
      "externalIds": {
        "DBLP": "journals/corr/abs-2506-18748",
        "ArXiv": "2506.18748",
        "DOI": "10.48550/arXiv.2506.18748",
        "CorpusId": 280016158
      },
      "url": "https://www.semanticscholar.org/paper/547a253926a702c8adeca9feccc862caa4eb8ce4",
      "title": "Fast State-Augmented Learning for Wireless Resource Allocation with Dual Variable Regression",
      "venue": "arXiv.org",
      "year": 2025,
      "referenceCount": 31,
      "citationCount": 3,
      "authors": [
        {
          "authorId": "2358036314",
          "name": "Yigit Berkay Uslu"
        },
        {
          "authorId": "2150566",
          "name": "Navid Naderializadeh"
        },
        {
          "authorId": "39605173",
          "name": "Mark Eisen"
        },
        {
          "authorId": "2249904081",
          "name": "Alejandro Ribeiro"
        }
      ]
    },
    {
      "paperId": "870483aeed3e6fe117bb1231923db0f745890d6a",
      "externalIds": {
        "MAG": "3011904413",
        "DBLP": "conf/fusion/VyavahareSV19",
        "DOI": "10.23919/fusion43075.2019.9011353",
        "CorpusId": 211687400
      },
      "url": "https://www.semanticscholar.org/paper/870483aeed3e6fe117bb1231923db0f745890d6a",
      "title": "Distributed Learning over Time-Varying Graphs with Adversarial Agents",
      "venue": "Fusion",
      "year": 2019,
      "referenceCount": 16,
      "citationCount": 8,
      "authors": [
        {
          "authorId": "2300175",
          "name": "P. Vyavahare"
        },
        {
          "authorId": "2255869",
          "name": "Lili Su"
        },
        {
          "authorId": "119992855",
          "name": "N. Vaidya"
        }
      ]
    },
    {
      "paperId": "b65f678eb5c78a427821c4ae57ef5fd9b5962666",
      "externalIds": {
        "DBLP": "journals/iotj/WangJGHC25",
        "DOI": "10.1109/JIOT.2024.3485748",
        "CorpusId": 273614124
      },
      "url": "https://www.semanticscholar.org/paper/b65f678eb5c78a427821c4ae57ef5fd9b5962666",
      "title": "End-to-End Multitarget Flexible Job Shop Scheduling With Deep Reinforcement Learning",
      "venue": "IEEE Internet of Things Journal",
      "year": 2025,
      "referenceCount": 58,
      "citationCount": 29,
      "authors": [
        {
          "authorId": "22260912",
          "name": "Rongkai Wang"
        },
        {
          "authorId": "2327874899",
          "name": "Yiyang Jing"
        },
        {
          "authorId": "2267790778",
          "name": "Chaojie Gu"
        },
        {
          "authorId": "35372976",
          "name": "Shibo He"
        },
        {
          "authorId": "2138800088",
          "name": "Jiming Chen"
        }
      ]
    },
    {
      "paperId": "b37917bfb2c0c0e4a20f4527f1958aeaaeb8aac7",
      "externalIds": {
        "DBLP": "journals/evs/KumralbasCCT23",
        "DOI": "10.1007/s12530-022-09478-6",
        "CorpusId": 255691107
      },
      "url": "https://www.semanticscholar.org/paper/b37917bfb2c0c0e4a20f4527f1958aeaaeb8aac7",
      "title": "Autonomous acquisition of arbitrarily complex skills using locality based graph theoretic features: a syntactic approach to hierarchical reinforcement learning",
      "venue": "Evolutionary Systematics",
      "year": 2023,
      "referenceCount": 40,
      "citationCount": 0,
      "authors": [
        {
          "authorId": "2186187370",
          "name": "Zeynep Kumralbaş"
        },
        {
          "authorId": "2200483757",
          "name": "Semiha Hazel Çavuş"
        },
        {
          "authorId": "48494705",
          "name": "Kutalmış Coşkun"
        },
        {
          "authorId": "2162280317",
          "name": "Borahan Tümer"
        }
      ]
    },
    {
      "paperId": "aa75604e4a03a101eb8c83e8b53bb0f1b6313f5d",
      "externalIds": {
        "ArXiv": "2405.11727",
        "DBLP": "journals/corr/abs-2405-11727",
        "DOI": "10.48550/arXiv.2405.11727",
        "CorpusId": 269921746
      },
      "url": "https://www.semanticscholar.org/paper/aa75604e4a03a101eb8c83e8b53bb0f1b6313f5d",
      "title": "Highway Graph to Accelerate Reinforcement Learning",
      "venue": "Trans. Mach. Learn. Res.",
      "year": 2024,
      "referenceCount": 41,
      "citationCount": 0,
      "authors": [
        {
          "authorId": "2302692560",
          "name": "Zidu Yin"
        },
        {
          "authorId": "2261395519",
          "name": "Zhen Zhang"
        },
        {
          "authorId": "2251401897",
          "name": "Dong Gong"
        },
        {
          "authorId": "2302329194",
          "name": "Stefano V. Albrecht"
        },
        {
          "authorId": "2262197686",
          "name": "J. Q. Shi"
        }
      ]
    },
    {
      "paperId": "84217089f7393febd46ebc374570a0ff03b676be",
      "externalIds": {
        "MAG": "3025960736",
        "ArXiv": "2005.08357",
        "DBLP": "journals/corr/abs-2005-08357",
        "DOI": "10.1016/J.CMA.2021.113722",
        "CorpusId": 218673438
      },
      "url": "https://www.semanticscholar.org/paper/84217089f7393febd46ebc374570a0ff03b676be",
      "title": "DiscretizationNet: A Machine-Learning based solver for Navier-Stokes Equations using Finite Volume Discretization",
      "venue": "Computer Methods in Applied Mechanics and Engineering",
      "year": 2020,
      "referenceCount": 57,
      "citationCount": 151,
      "authors": [
        {
          "authorId": "94583808",
          "name": "Rishikesh Ranade"
        },
        {
          "authorId": "2150315516",
          "name": "C. Hill"
        },
        {
          "authorId": "143772779",
          "name": "Jay Pathak"
        }
      ]
    },
    {
      "paperId": "ec0b078243ad06fceda7cfd55ba8201953250cd5",
      "externalIds": {
        "DBLP": "conf/clear2/LuMT22",
        "CorpusId": 247571380
      },
      "url": "https://www.semanticscholar.org/paper/ec0b078243ad06fceda7cfd55ba8201953250cd5",
      "title": "Efficient Reinforcement Learning with Prior Causal Knowledge",
      "venue": "CLEaR",
      "year": 2022,
      "referenceCount": 32,
      "citationCount": 26,
      "authors": [
        {
          "authorId": "50028678",
          "name": "Yangyi Lu"
        },
        {
          "authorId": "3064914",
          "name": "Ambuj Tewari"
        }
      ]
    }
  ]
}