{
  "total": 3532,
  "offset": 0,
  "next": 10,
  "data": [
    {
      "paperId": "2218e2e1df2c3adfb70e0def2e326a39928aacfc",
      "externalIds": {
        "MAG": "2963432357",
        "DBLP": "conf/icml/TrouillonWRGB16",
        "ArXiv": "1606.06357",
        "CorpusId": 15150247
      },
      "url": "https://www.semanticscholar.org/paper/2218e2e1df2c3adfb70e0def2e326a39928aacfc",
      "title": "Complex Embeddings for Simple Link Prediction",
      "venue": "International Conference on Machine Learning",
      "year": 2016,
      "referenceCount": 30,
      "citationCount": 3545,
      "authors": [
        {
          "authorId": "2057146",
          "name": "Théo Trouillon"
        },
        {
          "authorId": "1851564",
          "name": "Johannes Welbl"
        },
        {
          "authorId": "48662861",
          "name": "Sebastian Riedel"
        },
        {
          "authorId": "1732180",
          "name": "Éric Gaussier"
        },
        {
          "authorId": "1684865",
          "name": "Guillaume Bouchard"
        }
      ]
    },
    {
      "paperId": "24e288d744180eff1692f6f0c90091db4784f6e7",
      "externalIds": {
        "ArXiv": "2505.19408",
        "DBLP": "journals/corr/abs-2505-19408",
        "DOI": "10.48550/arXiv.2505.19408",
        "CorpusId": 278905320
      },
      "url": "https://www.semanticscholar.org/paper/24e288d744180eff1692f6f0c90091db4784f6e7",
      "title": "Future Link Prediction Without Memory or Aggregation",
      "venue": "arXiv.org",
      "year": 2025,
      "referenceCount": 43,
      "citationCount": 1,
      "authors": [
        {
          "authorId": "2113298252",
          "name": "Lu Yi"
        },
        {
          "authorId": "2166787241",
          "name": "Runlin Lei"
        },
        {
          "authorId": "2346323372",
          "name": "Fengran Mo"
        },
        {
          "authorId": "2213807112",
          "name": "Yanping Zheng"
        },
        {
          "authorId": "2265516009",
          "name": "Zhewei Wei"
        },
        {
          "authorId": "2335106348",
          "name": "Yuhang Ye"
        }
      ]
    },
    {
      "paperId": "4987c7590d30827ab8e7b2b441816060e2e1e12d",
      "externalIds": {
        "DBLP": "conf/www/ZangariMT24",
        "DOI": "10.1145/3589334.3645646",
        "CorpusId": 269697087
      },
      "url": "https://www.semanticscholar.org/paper/4987c7590d30827ab8e7b2b441816060e2e1e12d",
      "title": "Link Prediction on Multilayer Networks through Learning of Within-Layer and Across-Layer Node-Pair Structural Features and Node Embedding Similarity",
      "venue": "The Web Conference",
      "year": 2024,
      "referenceCount": 49,
      "citationCount": 13,
      "authors": [
        {
          "authorId": "2088176131",
          "name": "L. Zangari"
        },
        {
          "authorId": "41019029",
          "name": "Domenico Mandaglio"
        },
        {
          "authorId": "2261507500",
          "name": "Andrea Tagarelli"
        }
      ]
    },
    {
      "paperId": "83eded75bb11ea5f742c3cce195396ab300fcece",
      "externalIds": {
        "DBLP": "conf/icisdm/PhoM22",
        "DOI": "10.1145/3546157.3546163",
        "CorpusId": 251724284
      },
      "url": "https://www.semanticscholar.org/paper/83eded75bb11ea5f742c3cce195396ab300fcece",
      "title": "Link prediction with Simple Graph Convolution and regularized Simple Graph Convolution",
      "venue": "International Conference on Information System and Data Mining",
      "year": 2022,
      "referenceCount": 29,
      "citationCount": 1,
      "authors": [
        {
          "authorId": "2139053116",
          "name": "Patrick Pho"
        },
        {
          "authorId": "1961938",
          "name": "A. Mantzaris"
        }
      ]
    },
    {
      "paperId": "7df526cedc5b107d75cc99a386b7e463f102957a",
      "externalIds": {
        "DBLP": "conf/complexnetworks/IslamAS21",
        "DOI": "10.1007/978-3-030-93413-2_46",
        "CorpusId": 245639197
      },
      "url": "https://www.semanticscholar.org/paper/7df526cedc5b107d75cc99a386b7e463f102957a",
      "title": "Simple Negative Sampling for Link Prediction in Knowledge Graphs",
      "venue": "International Workshop on Complex Networks & Their Applications",
      "year": 2021,
      "referenceCount": 17,
      "citationCount": 9,
      "authors": [
        {
          "authorId": "123048386",
          "name": "K. Islam"
        },
        {
          "authorId": "3172643",
          "name": "Sabeur Aridhi"
        },
        {
          "authorId": "1399515325",
          "name": "Malika Smaïl-Tabbone"
        }
      ]
    },
    {
      "paperId": "0da8e19468f2a304a398d6d4943e637279a9e150",
      "externalIds": {
        "DOI": "10.1109/ICACTE59887.2023.10335397",
        "CorpusId": 266197605
      },
      "url": "https://www.semanticscholar.org/paper/0da8e19468f2a304a398d6d4943e637279a9e150",
      "title": "Link Prediction Based on Relationally Encoded Aware Attention",
      "venue": "International Conference on Advanced Computer Theory and Engineering",
      "year": 2023,
      "referenceCount": 26,
      "citationCount": 0,
      "authors": [
        {
          "authorId": "2120321673",
          "name": "Runmei Zhang"
        },
        {
          "authorId": "2332297217",
          "name": "Yu Ding"
        },
        {
          "authorId": "2220765667",
          "name": "Lei Yin"
        },
        {
          "authorId": "2220756126",
          "name": "Weiwei Cao"
        }
      ]
    },
    {
      "paperId": "8b0582bc8cf882ecaebeb0336b2b3876e790c98b",
      "externalIds": {
        "ArXiv": "1911.04053",
        "DBLP": "journals/corr/abs-1911-04053",
        "MAG": "2987168455",
        "CorpusId": 207852502
      },
      "url": "https://www.semanticscholar.org/paper/8b0582bc8cf882ecaebeb0336b2b3876e790c98b",
      "title": "Decompressing Knowledge Graph Representations for Link Prediction",
      "venue": "arXiv.org",
      "year": 2019,
      "referenceCount": 28,
      "citationCount": 5,
      "authors": [
        {
          "authorId": "97791350",
          "name": "Xiang Kong"
        },
        {
          "authorId": "2135112672",
          "name": "Xianyang Chen"
        },
        {
          "authorId": "144547315",
          "name": "E. Hovy"
        }
      ]
    },
    {
      "paperId": "bf4ade660e85583f0b116d63cfbae47571de5a7a",
      "externalIds": {
        "DBLP": "conf/kgswc/EgamiMUF25",
        "ArXiv": "2503.21804",
        "DOI": "10.48550/arXiv.2503.21804",
        "CorpusId": 277435367
      },
      "url": "https://www.semanticscholar.org/paper/bf4ade660e85583f0b116d63cfbae47571de5a7a",
      "title": "Comparison of Metadata Representation Models for Knowledge Graph Embeddings",
      "venue": "Iberoamerican Conference on Knowledge Graphs and Semantic Web",
      "year": 2025,
      "referenceCount": 22,
      "citationCount": 1,
      "authors": [
        {
          "authorId": "2901859",
          "name": "S. Egami"
        },
        {
          "authorId": "2033176813",
          "name": "Kyoumoto Matsushita"
        },
        {
          "authorId": "2367255",
          "name": "Takanori Ugai"
        },
        {
          "authorId": "2271571539",
          "name": "Ken Fukuda"
        }
      ]
    },
    {
      "paperId": "1a8a8504722d9a39f17bbaa2968a89acc5cd0c48",
      "externalIds": {
        "DBLP": "journals/corr/abs-2011-03798",
        "ACL": "2021.acl-long.336",
        "MAG": "3099128825",
        "ArXiv": "2011.03798",
        "DOI": "10.18653/v1/2021.acl-long.336",
        "CorpusId": 226281660
      },
      "url": "https://www.semanticscholar.org/paper/1a8a8504722d9a39f17bbaa2968a89acc5cd0c48",
      "title": "PairRE: Knowledge Graph Embeddings via Paired Relation Vectors",
      "venue": "Annual Meeting of the Association for Computational Linguistics",
      "year": 2020,
      "referenceCount": 41,
      "citationCount": 217,
      "authors": [
        {
          "authorId": "1850313",
          "name": "Linlin Chao"
        },
        {
          "authorId": "51235263",
          "name": "Jianshan He"
        },
        {
          "authorId": "1799672",
          "name": "Taifeng Wang"
        },
        {
          "authorId": "2057047939",
          "name": "Wei Chu"
        }
      ]
    },
    {
      "paperId": "7e7499b47fe57033768f26ef98a3b644688eb2a2",
      "externalIds": {
        "DBLP": "journals/corr/abs-2008-12813",
        "ACL": "2021.emnlp-main.812",
        "MAG": "3082429057",
        "ArXiv": "2008.12813",
        "DOI": "10.18653/v1/2021.emnlp-main.812",
        "CorpusId": 221376974
      },
      "url": "https://www.semanticscholar.org/paper/7e7499b47fe57033768f26ef98a3b644688eb2a2",
      "title": "HittER: Hierarchical Transformers for Knowledge Graph Embeddings",
      "venue": "Conference on Empirical Methods in Natural Language Processing",
      "year": 2020,
      "referenceCount": 72,
      "citationCount": 134,
      "authors": [
        {
          "authorId": "2296722484",
          "name": "Sanxing Chen"
        },
        {
          "authorId": "2108860856",
          "name": "Xiaodong Liu"
        },
        {
          "authorId": "1800422",
          "name": "Jianfeng Gao"
        },
        {
          "authorId": "49097406",
          "name": "Jian Jiao"
        },
        {
          "authorId": "2124601065",
          "name": "Ruofei Zhang"
        },
        {
          "authorId": "2114167577",
          "name": "Yangfeng Ji"
        }
      ]
    }
  ]
}