{
  "total": 10737,
  "offset": 0,
  "next": 10,
  "data": [
    {
      "paperId": "b6ae160819742d9ef5cc4f005c42626aef05d061",
      "externalIds": {
        "MAG": "3025028706",
        "DBLP": "journals/corr/abs-2005-06462",
        "ArXiv": "2005.06462",
        "CorpusId": 51873592,
        "PubMed": "31355361"
      },
      "url": "https://www.semanticscholar.org/paper/b6ae160819742d9ef5cc4f005c42626aef05d061",
      "title": "Temporal Poisson Square Root Graphical Models",
      "venue": "International Conference on Machine Learning",
      "year": 2018,
      "referenceCount": 40,
      "citationCount": 13,
      "authors": [
        {
          "authorId": "29824845",
          "name": "Sinong Geng"
        },
        {
          "authorId": null,
          "name": "Zhaobin Kuang"
        },
        {
          "authorId": "7584224",
          "name": "P. Peissig"
        },
        {
          "authorId": "144334798",
          "name": "David Page"
        }
      ]
    },
    {
      "paperId": "9692ef8197af6ed27cd912861d417decc0e52eb8",
      "externalIds": {
        "DBLP": "conf/icml/InouyeRD16",
        "MAG": "2950724390",
        "ArXiv": "1603.03629",
        "CorpusId": 15404209,
        "PubMed": "27563373"
      },
      "url": "https://www.semanticscholar.org/paper/9692ef8197af6ed27cd912861d417decc0e52eb8",
      "title": "Square Root Graphical Models: Multivariate Generalizations of Univariate Exponential Families that Permit Positive Dependencies",
      "venue": "International Conference on Machine Learning",
      "year": 2016,
      "referenceCount": 22,
      "citationCount": 19,
      "authors": [
        {
          "authorId": "3373810",
          "name": "David I. Inouye"
        },
        {
          "authorId": "145969795",
          "name": "Pradeep Ravikumar"
        },
        {
          "authorId": "1783667",
          "name": "I. Dhillon"
        }
      ]
    },
    {
      "paperId": "7be071631103e043991a21f3142d4cdc61bbf015",
      "externalIds": {
        "ArXiv": "2411.12479",
        "DOI": "10.1080/10618600.2025.2571164",
        "CorpusId": 274141332
      },
      "url": "https://www.semanticscholar.org/paper/7be071631103e043991a21f3142d4cdc61bbf015",
      "title": "Graph-based Square-Root Estimation for Sparse Linear Regression",
      "venue": "Journal of Computational And Graphical Statistics",
      "year": 2024,
      "referenceCount": 53,
      "citationCount": 0,
      "authors": [
        {
          "authorId": "2112727384",
          "name": "Peili Li"
        },
        {
          "authorId": "2118393132",
          "name": "Zhuo Li"
        },
        {
          "authorId": "2331735116",
          "name": "Yunhai Xiao"
        },
        {
          "authorId": "2331410927",
          "name": "Chao Ying"
        },
        {
          "authorId": "2331460443",
          "name": "Zhou Yu"
        }
      ]
    },
    {
      "paperId": "9e881a5078ff3e334d8399046c072295c5be8e9f",
      "externalIds": {
        "MAG": "3081218754",
        "DOI": "10.1080/00224065.2020.1805380",
        "CorpusId": 225341165
      },
      "url": "https://www.semanticscholar.org/paper/9e881a5078ff3e334d8399046c072295c5be8e9f",
      "title": "Functional directed graphical models and applications in root-cause analysis and diagnosis",
      "venue": "Journal of QualityTechnology",
      "year": 2020,
      "referenceCount": 22,
      "citationCount": 16,
      "authors": [
        {
          "authorId": "2004702195",
          "name": "A. M. Gómez"
        },
        {
          "authorId": "1905257",
          "name": "K. Paynabar"
        },
        {
          "authorId": "2874606",
          "name": "M. Pacella"
        }
      ]
    },
    {
      "paperId": "e5ae5119cbd8c2e14b71b21bd8b23d8fde0dca98",
      "externalIds": {
        "DBLP": "journals/jap/LinLS25",
        "ArXiv": "2312.14246",
        "DOI": "10.1017/jpr.2024.102",
        "CorpusId": 266521325
      },
      "url": "https://www.semanticscholar.org/paper/e5ae5119cbd8c2e14b71b21bd8b23d8fde0dca98",
      "title": "Perturbation analysis of Markov chain Monte Carlo for graphical models",
      "venue": "Journal of Applied Probability",
      "year": 2023,
      "referenceCount": 40,
      "citationCount": 2,
      "authors": [
        {
          "authorId": "2276205417",
          "name": "Na Lin"
        },
        {
          "authorId": "2276327079",
          "name": "Yuanyuan Liu"
        },
        {
          "authorId": "2349749277",
          "name": "Aaron Smith"
        }
      ]
    },
    {
      "paperId": "a1ec80729cb420bc53a8141746a8ee6309d8f1cf",
      "externalIds": {
        "MAG": "2417187449",
        "ArXiv": "1606.00813",
        "CorpusId": 88515717
      },
      "url": "https://www.semanticscholar.org/paper/a1ec80729cb420bc53a8141746a8ee6309d8f1cf",
      "title": "Generalized Root Models: Beyond Pairwise Graphical Models for Univariate Exponential Families",
      "venue": "",
      "year": 2016,
      "referenceCount": 13,
      "citationCount": 2,
      "authors": [
        {
          "authorId": "3373810",
          "name": "David I. Inouye"
        },
        {
          "authorId": "145969795",
          "name": "Pradeep Ravikumar"
        },
        {
          "authorId": "1783667",
          "name": "I. Dhillon"
        }
      ]
    },
    {
      "paperId": "8d1618f56fe821b331a3f7381dc4f2016a9cc5a9",
      "externalIds": {
        "PubMedCentral": "8503421",
        "DOI": "10.1007/s13571-021-00269-8",
        "CorpusId": 238743670,
        "PubMed": "34658600"
      },
      "url": "https://www.semanticscholar.org/paper/8d1618f56fe821b331a3f7381dc4f2016a9cc5a9",
      "title": "Poisson Counts, Square Root Transformation and Small Area Estimation",
      "venue": "Sankhya B",
      "year": 2021,
      "referenceCount": 11,
      "citationCount": 5,
      "authors": [
        {
          "authorId": "143676590",
          "name": "M. Ghosh"
        },
        {
          "authorId": "2073451292",
          "name": "Tamal Ghosh"
        },
        {
          "authorId": "26889293",
          "name": "M. Y. Hirose"
        }
      ]
    },
    {
      "paperId": "ac5ba0f893ad3b8db05f8c15c083c0b0d978fed7",
      "externalIds": {
        "MAG": "2523477992",
        "DOI": "10.1016/J.JMP.2016.08.004",
        "CorpusId": 126232826
      },
      "url": "https://www.semanticscholar.org/paper/ac5ba0f893ad3b8db05f8c15c083c0b0d978fed7",
      "title": "Evaluating the model fit of diffusion models with the root mean square error of approximation",
      "venue": "",
      "year": 2017,
      "referenceCount": 56,
      "citationCount": 75,
      "authors": [
        {
          "authorId": "115921802",
          "name": "Anna-Lena Schubert"
        },
        {
          "authorId": "3469845",
          "name": "Dirk Hagemann"
        },
        {
          "authorId": "145635896",
          "name": "A. Voss"
        },
        {
          "authorId": "48498547",
          "name": "Katharina Bergmann"
        }
      ]
    },
    {
      "paperId": "ca2e2a1b19ff73d0db9145bb7054d385166f62eb",
      "externalIds": {
        "MAG": "2997511995",
        "DBLP": "conf/aaai/KarimiKK20",
        "DOI": "10.1609/AAAI.V34I06.6580",
        "CorpusId": 213784159
      },
      "url": "https://www.semanticscholar.org/paper/ca2e2a1b19ff73d0db9145bb7054d385166f62eb",
      "title": "Error-Correcting and Verifiable Parallel Inference in Graphical Models",
      "venue": "AAAI Conference on Artificial Intelligence",
      "year": 2020,
      "referenceCount": 37,
      "citationCount": 2,
      "authors": [
        {
          "authorId": "2223140",
          "name": "Negin Karimi"
        },
        {
          "authorId": "1789283",
          "name": "P. Kaski"
        },
        {
          "authorId": "2251289",
          "name": "Mikko Koivisto"
        }
      ]
    },
    {
      "paperId": "aab2b9320b4290cc9ae5111faf9c0e1179311097",
      "externalIds": {
        "DBLP": "journals/bmcbi/BofaZ24",
        "PubMedCentral": "11056055",
        "DOI": "10.1186/s12859-024-05791-w",
        "CorpusId": 269410618,
        "PubMed": "38678218"
      },
      "url": "https://www.semanticscholar.org/paper/aab2b9320b4290cc9ae5111faf9c0e1179311097",
      "title": "Optimizing spatio-temporal correlation structures for modeling food security in Africa: a simulation-based investigation",
      "venue": "BMC Bioinformatics",
      "year": 2024,
      "referenceCount": 38,
      "citationCount": 2,
      "authors": [
        {
          "authorId": "2089643154",
          "name": "Adusei Bofa"
        },
        {
          "authorId": "6090989",
          "name": "T. Zewotir"
        }
      ]
    }
  ]
}