{
  "total": 4153,
  "offset": 0,
  "next": 10,
  "data": [
    {
      "paperId": "f0bad439c8af545e80991a85bdf6ff27a2850955",
      "externalIds": {
        "ArXiv": "1703.01014",
        "MAG": "2950965163",
        "DBLP": "conf/icml/KrishnamurthyAH17",
        "CorpusId": 1825791
      },
      "url": "https://www.semanticscholar.org/paper/f0bad439c8af545e80991a85bdf6ff27a2850955",
      "title": "Active Learning for Cost-Sensitive Classification",
      "venue": "International Conference on Machine Learning",
      "year": 2017,
      "referenceCount": 49,
      "citationCount": 89,
      "authors": [
        {
          "authorId": "37019006",
          "name": "A. Krishnamurthy"
        },
        {
          "authorId": "40333747",
          "name": "Alekh Agarwal"
        },
        {
          "authorId": "1734755",
          "name": "Tzu-Kuo Huang"
        },
        {
          "authorId": "1722360",
          "name": "Hal Daumé"
        },
        {
          "authorId": "144162125",
          "name": "J. Langford"
        }
      ]
    },
    {
      "paperId": "8ca9b92c50aebb14697dcea59c08fe98ad5447fe",
      "externalIds": {
        "CorpusId": 265099643
      },
      "url": "https://www.semanticscholar.org/paper/8ca9b92c50aebb14697dcea59c08fe98ad5447fe",
      "title": "Active Learning for Cost-Sensitive Classification",
      "venue": "",
      "year": 2017,
      "referenceCount": 0,
      "citationCount": 43,
      "authors": []
    },
    {
      "paperId": "cb11bfcc44f91255ec3800b38368f40db56f34aa",
      "externalIds": {
        "ArXiv": "2310.00511",
        "DBLP": "journals/corr/abs-2310-00511",
        "DOI": "10.48550/arXiv.2310.00511",
        "CorpusId": 263334174
      },
      "url": "https://www.semanticscholar.org/paper/cb11bfcc44f91255ec3800b38368f40db56f34aa",
      "title": "Nonparametric active learning for cost-sensitive classification",
      "venue": "arXiv.org",
      "year": 2023,
      "referenceCount": 22,
      "citationCount": 1,
      "authors": [
        {
          "authorId": "69456621",
          "name": "Boris Ndjia Njike"
        },
        {
          "authorId": "2249763607",
          "name": "Xavier Siebert"
        }
      ]
    },
    {
      "paperId": "975d333a84e6e33ecb2bdc3cfbcf5f000be6e8ff",
      "externalIds": {
        "MAG": "2465187591",
        "DOI": "10.1109/ICBDA.2016.7509840",
        "CorpusId": 8368748
      },
      "url": "https://www.semanticscholar.org/paper/975d333a84e6e33ecb2bdc3cfbcf5f000be6e8ff",
      "title": "Active learning for cost-sensitive classification using logistic regression model",
      "venue": "2016 IEEE International Conference on Big Data Analysis (ICBDA)",
      "year": 2016,
      "referenceCount": 15,
      "citationCount": 8,
      "authors": [
        {
          "authorId": "2108884952",
          "name": "Siyuan Zhou"
        },
        {
          "authorId": "2108035782",
          "name": "Ya Zhang"
        }
      ]
    },
    {
      "paperId": "b4e9a262d396ca071b6204c6c8dc2acfe6571ca8",
      "externalIds": {
        "DOI": "10.1007/s10479-026-07118-9",
        "CorpusId": 287049973
      },
      "url": "https://www.semanticscholar.org/paper/b4e9a262d396ca071b6204c6c8dc2acfe6571ca8",
      "title": "A data-driven cost-sensitive sorting method with active learning for ordinal risk classification of failure modes",
      "venue": "Annals of Operations Research",
      "year": 2026,
      "referenceCount": 56,
      "citationCount": 0,
      "authors": [
        {
          "authorId": "2146327275",
          "name": "Fangshun Li"
        },
        {
          "authorId": "2468095",
          "name": "Decui Liang"
        },
        {
          "authorId": "1792561",
          "name": "Salvatore Corrente"
        }
      ]
    },
    {
      "paperId": "6ca8a8ab8de2b629bb1251058524a30f4f878ed3",
      "externalIds": {
        "ACL": "W13-3501",
        "DBLP": "conf/conll/XiaoG13",
        "MAG": "2175912444",
        "CorpusId": 1635392
      },
      "url": "https://www.semanticscholar.org/paper/6ca8a8ab8de2b629bb1251058524a30f4f878ed3",
      "title": "Online Active Learning for Cost Sensitive Domain Adaptation",
      "venue": "Conference on Computational Natural Language Learning",
      "year": 2013,
      "referenceCount": 23,
      "citationCount": 17,
      "authors": [
        {
          "authorId": "2099594128",
          "name": "Min Xiao"
        },
        {
          "authorId": "1798719",
          "name": "Yuhong Guo"
        }
      ]
    },
    {
      "paperId": "2631727b7580f9643d4d3ccf0f2e60545ec5d964",
      "externalIds": {
        "DBLP": "conf/ncaa/LiuGLW21",
        "MAG": "3193320038",
        "DOI": "10.1007/978-981-16-5188-5_36",
        "CorpusId": 238907093
      },
      "url": "https://www.semanticscholar.org/paper/2631727b7580f9643d4d3ccf0f2e60545ec5d964",
      "title": "Active Learning Method Based on Axiomatic Fuzzy Sets and Cost-Sensitive Classification",
      "venue": "NCAA",
      "year": 2021,
      "referenceCount": 25,
      "citationCount": 1,
      "authors": [
        {
          "authorId": "2108100867",
          "name": "Yifei Liu"
        },
        {
          "authorId": "2148902768",
          "name": "Jiayi Guo"
        },
        {
          "authorId": "50341218",
          "name": "Shufan Li"
        },
        {
          "authorId": "48170207",
          "name": "Lidong Wang"
        }
      ]
    },
    {
      "paperId": "342faed981dac6078390fbf56f9a10c3cc03a332",
      "externalIds": {
        "MAG": "2004865056",
        "DBLP": "conf/taai/ChenL13",
        "DOI": "10.1109/TAAI.2013.17",
        "CorpusId": 17683174
      },
      "url": "https://www.semanticscholar.org/paper/342faed981dac6078390fbf56f9a10c3cc03a332",
      "title": "Active Learning for Multiclass Cost-Sensitive Classification Using Probabilistic Models",
      "venue": "2013 Conference on Technologies and Applications of Artificial Intelligence",
      "year": 2013,
      "referenceCount": 23,
      "citationCount": 11,
      "authors": [
        {
          "authorId": "2118465701",
          "name": "Po-Lung Chen"
        },
        {
          "authorId": "1798966",
          "name": "Hsuan-Tien Lin"
        }
      ]
    },
    {
      "paperId": "dc6ea0a261d265e4c006e6b972038ae9beb8a33c",
      "externalIds": {
        "CorpusId": 32534809
      },
      "url": "https://www.semanticscholar.org/paper/dc6ea0a261d265e4c006e6b972038ae9beb8a33c",
      "title": "Optimised probabilistic active learning ( OPAL ) For fast , non-myopic , cost-sensitive active classification",
      "venue": "",
      "year": 2015,
      "referenceCount": 37,
      "citationCount": 12,
      "authors": [
        {
          "authorId": "1733347",
          "name": "G. Krempl"
        },
        {
          "authorId": "2182658",
          "name": "D. Kottke"
        },
        {
          "authorId": "145359583",
          "name": "V. Lemaire"
        }
      ]
    },
    {
      "paperId": "52b1b16e3864667369b156296cbd154488e1493c",
      "externalIds": {
        "DBLP": "conf/aaai/BernatchezDL22",
        "DOI": "10.1609/aaai.v36i11.21593",
        "CorpusId": 250242578
      },
      "url": "https://www.semanticscholar.org/paper/52b1b16e3864667369b156296cbd154488e1493c",
      "title": "Annotation Cost-Sensitive Deep Active Learning with Limited Data (Student Abstract)",
      "venue": "AAAI Conference on Artificial Intelligence",
      "year": 2022,
      "referenceCount": 6,
      "citationCount": 2,
      "authors": [
        {
          "authorId": "1995475499",
          "name": "Renaud Bernatchez"
        },
        {
          "authorId": "1777414",
          "name": "A. Durand"
        },
        {
          "authorId": "1398620408",
          "name": "Flavie Lavoie-Cardinal"
        }
      ]
    }
  ]
}