{
  "total": 31144,
  "offset": 0,
  "next": 10,
  "data": [
    {
      "paperId": "0ddaae9d31199394872a6251f58c082c1cd2f6eb",
      "externalIds": {
        "MAG": "2757411217",
        "DBLP": "conf/icml/Gaboardi018",
        "ArXiv": "1709.07155",
        "CorpusId": 3791566
      },
      "url": "https://www.semanticscholar.org/paper/0ddaae9d31199394872a6251f58c082c1cd2f6eb",
      "title": "Local Private Hypothesis Testing: Chi-Square Tests",
      "venue": "International Conference on Machine Learning",
      "year": 2017,
      "referenceCount": 31,
      "citationCount": 64,
      "authors": [
        {
          "authorId": "1759699",
          "name": "Marco Gaboardi"
        },
        {
          "authorId": "40101350",
          "name": "Ryan M. Rogers"
        }
      ]
    },
    {
      "paperId": "3ad6ba9181fe6feb8d9f263a3007a104749c2758",
      "externalIds": {
        "MAG": "2680102885",
        "DBLP": "conf/aistats/RogersK17",
        "CorpusId": 42667494
      },
      "url": "https://www.semanticscholar.org/paper/3ad6ba9181fe6feb8d9f263a3007a104749c2758",
      "title": "A New Class of Private Chi-Square Hypothesis Tests",
      "venue": "International Conference on Artificial Intelligence and Statistics",
      "year": 2017,
      "referenceCount": 0,
      "citationCount": 36,
      "authors": [
        {
          "authorId": "40101350",
          "name": "Ryan M. Rogers"
        },
        {
          "authorId": "1852261",
          "name": "Daniel Kifer"
        }
      ]
    },
    {
      "paperId": "f6554c2c383835edc303e62fcb04a008f5242933",
      "externalIds": {
        "DOI": "10.1117/1.OE.62.7.073104",
        "CorpusId": 259851909
      },
      "url": "https://www.semanticscholar.org/paper/f6554c2c383835edc303e62fcb04a008f5242933",
      "title": "Adaptive fading Kalman depth estimation with chi-square hypothesis testing for Geiger-mode avalanche photo diode LIDAR",
      "venue": "Optical Engineering: The Journal of SPIE",
      "year": 2023,
      "referenceCount": 36,
      "citationCount": 1,
      "authors": [
        {
          "authorId": "2166150987",
          "name": "Da Xie"
        },
        {
          "authorId": "2117977387",
          "name": "Chunyang Wang"
        },
        {
          "authorId": "2057747801",
          "name": "K. Yuan"
        },
        {
          "authorId": "1660926385",
          "name": "Xuyang Wei"
        },
        {
          "authorId": "46521904",
          "name": "Xuelian Liu"
        }
      ]
    },
    {
      "paperId": "61a4822028ec7fa78932ee829ed00e7d0a1b0c0e",
      "externalIds": {
        "ArXiv": "1610.07662",
        "MAG": "2542826318",
        "DBLP": "journals/corr/KiferR16",
        "CorpusId": 3848763
      },
      "url": "https://www.semanticscholar.org/paper/61a4822028ec7fa78932ee829ed00e7d0a1b0c0e",
      "title": "A New Class of Private Chi-Square Tests",
      "venue": "arXiv.org",
      "year": 2016,
      "referenceCount": 27,
      "citationCount": 27,
      "authors": [
        {
          "authorId": "1852261",
          "name": "Daniel Kifer"
        },
        {
          "authorId": "40101350",
          "name": "Ryan M. Rogers"
        }
      ]
    },
    {
      "paperId": "42305eee8b30150d82c3c18fb323a632998b68ea",
      "externalIds": {
        "MAG": "2950993856",
        "DOI": "10.4324/9781315182452-15",
        "CorpusId": 197499294
      },
      "url": "https://www.semanticscholar.org/paper/42305eee8b30150d82c3c18fb323a632998b68ea",
      "title": "Hypothesis Testing: Chi-Square Test",
      "venue": "",
      "year": 2017,
      "referenceCount": 0,
      "citationCount": 4,
      "authors": [
        {
          "authorId": "145139611",
          "name": "R. Ho"
        }
      ]
    },
    {
      "paperId": "3f9737c13ff44b5b13eaea94191840c75ab8a893",
      "externalIds": {
        "DBLP": "journals/corr/abs-2501-10152",
        "DOI": "10.1109/ISIT63088.2025.11195216",
        "CorpusId": 282260466
      },
      "url": "https://www.semanticscholar.org/paper/3f9737c13ff44b5b13eaea94191840c75ab8a893",
      "title": "Quantum Advantage in Private Multiple Hypothesis Testing",
      "venue": "International Symposium on Information Theory",
      "year": 2025,
      "referenceCount": 45,
      "citationCount": 3,
      "authors": [
        {
          "authorId": "2259020550",
          "name": "Seung-Hyun Nam"
        },
        {
          "authorId": "2216210446",
          "name": "Hyun-Young Park"
        },
        {
          "authorId": "2331502035",
          "name": "Joonwoo Bae"
        },
        {
          "authorId": "2328341981",
          "name": "Si-Hyeon Lee"
        }
      ]
    },
    {
      "paperId": "261ae0dc135da4bfd1517d475e7a235d3788d131",
      "externalIds": {
        "MAG": "2250155526",
        "DBLP": "journals/corr/WangLK15",
        "ArXiv": "1511.03376",
        "CorpusId": 14326935
      },
      "url": "https://www.semanticscholar.org/paper/261ae0dc135da4bfd1517d475e7a235d3788d131",
      "title": "Differentially Private Hypothesis Testing, Revisited",
      "venue": "arXiv.org",
      "year": 2015,
      "referenceCount": 29,
      "citationCount": 38,
      "authors": [
        {
          "authorId": "2118461416",
          "name": "Yue Wang"
        },
        {
          "authorId": "9174454",
          "name": "Jaewoo Lee"
        },
        {
          "authorId": "1852261",
          "name": "Daniel Kifer"
        }
      ]
    },
    {
      "paperId": "3afce7b0bfb38b6edda6151bc06eb9e5b2e55ca1",
      "externalIds": {
        "ArXiv": "2406.18651",
        "DBLP": "journals/tit/NuradhaW25",
        "DOI": "10.1109/TIT.2025.3527859",
        "CorpusId": 270765079
      },
      "url": "https://www.semanticscholar.org/paper/3afce7b0bfb38b6edda6151bc06eb9e5b2e55ca1",
      "title": "Contraction of Private Quantum Channels and Private Quantum Hypothesis Testing",
      "venue": "IEEE Transactions on Information Theory",
      "year": 2024,
      "referenceCount": 64,
      "citationCount": 22,
      "authors": [
        {
          "authorId": "66983351",
          "name": "Theshani Nuradha"
        },
        {
          "authorId": "2237984681",
          "name": "Mark M. Wilde"
        }
      ]
    },
    {
      "paperId": "897cfd9b46c65d95147f94d26d3626fe098d9b3c",
      "externalIds": {
        "MAG": "2786748283",
        "DBLP": "conf/icml/Sheffet18",
        "ArXiv": "1802.03441",
        "CorpusId": 3602718
      },
      "url": "https://www.semanticscholar.org/paper/897cfd9b46c65d95147f94d26d3626fe098d9b3c",
      "title": "Locally Private Hypothesis Testing",
      "venue": "International Conference on Machine Learning",
      "year": 2018,
      "referenceCount": 36,
      "citationCount": 56,
      "authors": [
        {
          "authorId": "2311910",
          "name": "Or Sheffet"
        }
      ]
    },
    {
      "paperId": "950511ea6b22b9b93ea4929385a55abfb735b12b",
      "externalIds": {
        "MAG": "2951582798",
        "DBLP": "journals/corr/GaboardiLRV16",
        "ArXiv": "1602.03090",
        "CorpusId": 215761788
      },
      "url": "https://www.semanticscholar.org/paper/950511ea6b22b9b93ea4929385a55abfb735b12b",
      "title": "Differentially Private Chi-Squared Hypothesis Testing: Goodness of Fit and Independence Testing",
      "venue": "International Conference on Machine Learning",
      "year": 2016,
      "referenceCount": 42,
      "citationCount": 150,
      "authors": [
        {
          "authorId": "1759699",
          "name": "Marco Gaboardi"
        },
        {
          "authorId": "2110706453",
          "name": "H. Lim"
        },
        {
          "authorId": "40101350",
          "name": "Ryan M. Rogers"
        },
        {
          "authorId": "1723744",
          "name": "S. Vadhan"
        }
      ]
    }
  ]
}