{
  "total": 21,
  "offset": 0,
  "next": 10,
  "data": [
    {
      "paperId": "5f2060ad5ba828288c9daa13f3bbaf0a6ac0e6f6",
      "externalIds": {
        "DBLP": "conf/icml/KandasamyDSP17",
        "ArXiv": "1703.06240",
        "MAG": "2613868844",
        "CorpusId": 9265504
      },
      "url": "https://www.semanticscholar.org/paper/5f2060ad5ba828288c9daa13f3bbaf0a6ac0e6f6",
      "title": "Multi-fidelity Bayesian Optimisation with Continuous Approximations",
      "venue": "International Conference on Machine Learning",
      "year": 2017,
      "referenceCount": 41,
      "citationCount": 257,
      "authors": [
        {
          "authorId": "1887808",
          "name": "Kirthevasan Kandasamy"
        },
        {
          "authorId": "1843941",
          "name": "Gautam Dasarathy"
        },
        {
          "authorId": "1753432",
          "name": "J. Schneider"
        },
        {
          "authorId": "1719347",
          "name": "B. Póczos"
        }
      ]
    },
    {
      "paperId": "61ff3c9a1510e7b92979026c33329c3c1116a9f8",
      "externalIds": {
        "DBLP": "journals/corr/abs-2009-05700",
        "MAG": "3085623401",
        "ArXiv": "2009.05700",
        "CorpusId": 221655539
      },
      "url": "https://www.semanticscholar.org/paper/61ff3c9a1510e7b92979026c33329c3c1116a9f8",
      "title": "Information-Theoretic Multi-Objective Bayesian Optimization with Continuous Approximations",
      "venue": "arXiv.org",
      "year": 2020,
      "referenceCount": 51,
      "citationCount": 8,
      "authors": [
        {
          "authorId": "11631312",
          "name": "Syrine Belakaria"
        },
        {
          "authorId": "151474453",
          "name": "Aryan Deshwal"
        },
        {
          "authorId": "2089333",
          "name": "J. Doppa"
        }
      ]
    },
    {
      "paperId": "f02d80cc16630cd5ebfe69bd313bcefdf70af2d6",
      "externalIds": {
        "DBLP": "journals/jmlr/KandasamyVNPC0P20",
        "MAG": "2921605821",
        "ArXiv": "1903.06694",
        "CorpusId": 80628408
      },
      "url": "https://www.semanticscholar.org/paper/f02d80cc16630cd5ebfe69bd313bcefdf70af2d6",
      "title": "Tuning Hyperparameters without Grad Students: Scalable and Robust Bayesian Optimisation with Dragonfly",
      "venue": "Journal of machine learning research",
      "year": 2019,
      "referenceCount": 86,
      "citationCount": 194,
      "authors": [
        {
          "authorId": "1887808",
          "name": "Kirthevasan Kandasamy"
        },
        {
          "authorId": "87962541",
          "name": "Karun Raju Vysyaraju"
        },
        {
          "authorId": "2934259",
          "name": "Willie Neiswanger"
        },
        {
          "authorId": "1920895",
          "name": "Biswajit Paria"
        },
        {
          "authorId": "47842419",
          "name": "Christopher R. Collins"
        },
        {
          "authorId": "1753432",
          "name": "J. Schneider"
        },
        {
          "authorId": "1719347",
          "name": "B. Póczos"
        },
        {
          "authorId": "143977260",
          "name": "E. Xing"
        }
      ]
    },
    {
      "paperId": "f729af1b547b5d599562c7755b7bfb184b402555",
      "externalIds": {
        "DOI": "10.1002/oca.2817",
        "CorpusId": 243949537
      },
      "url": "https://www.semanticscholar.org/paper/f729af1b547b5d599562c7755b7bfb184b402555",
      "title": "Computationally efficient integrated design and predictive control of flexible energy systems using multi‐fidelity simulation‐based Bayesian optimization",
      "venue": "Optimal control applications & methods",
      "year": 2021,
      "referenceCount": 107,
      "citationCount": 22,
      "authors": [
        {
          "authorId": "100697131",
          "name": "Farshud Sorourifar"
        },
        {
          "authorId": "2092644639",
          "name": "Naitik A. Choksi"
        },
        {
          "authorId": "145991520",
          "name": "J. Paulson"
        }
      ]
    },
    {
      "paperId": "da033344c1a4209284c772fa3af0dd69bc71a179",
      "externalIds": {
        "MAG": "2787550357",
        "CorpusId": 11754973
      },
      "url": "https://www.semanticscholar.org/paper/da033344c1a4209284c772fa3af0dd69bc71a179",
      "title": "Continuous-fidelity Bayesian Optimization with Knowledge Gradient",
      "venue": "",
      "year": 2018,
      "referenceCount": 23,
      "citationCount": 20,
      "authors": [
        {
          "authorId": "2115903447",
          "name": "Jian Wu"
        },
        {
          "authorId": "1922747",
          "name": "P. Frazier"
        }
      ]
    },
    {
      "paperId": "7c91b7e847dce9444f4c37530a85e941dd87140c",
      "externalIds": {
        "ArXiv": "2102.03324",
        "DBLP": "journals/corr/abs-2102-03324",
        "CorpusId": 231839492
      },
      "url": "https://www.semanticscholar.org/paper/7c91b7e847dce9444f4c37530a85e941dd87140c",
      "title": "GIBBON: General-purpose Information-Based Bayesian OptimisatioN",
      "venue": "Journal of machine learning research",
      "year": 2021,
      "referenceCount": 95,
      "citationCount": 55,
      "authors": [
        {
          "authorId": "51024046",
          "name": "Henry B. Moss"
        },
        {
          "authorId": "31819180",
          "name": "David S. Leslie"
        },
        {
          "authorId": "1390665327",
          "name": "Javier I. González"
        },
        {
          "authorId": "1929390",
          "name": "Paul Rayson"
        }
      ]
    },
    {
      "paperId": "29bc6b40e29732e6111c20b02dccc8a047dbd44b",
      "externalIds": {
        "DOI": "10.1115/detc2023-110455",
        "CorpusId": 265360449
      },
      "url": "https://www.semanticscholar.org/paper/29bc6b40e29732e6111c20b02dccc8a047dbd44b",
      "title": "Hierarchical Gaussian Process Surrogate Modeling Framework for Heterogeneous Multi-Fidelity Dataset",
      "venue": "Conference on Computability in Europe",
      "year": 2023,
      "referenceCount": 0,
      "citationCount": 1,
      "authors": [
        {
          "authorId": "2267864553",
          "name": "Juyoung Lee"
        },
        {
          "authorId": "2108722399",
          "name": "Mingyu Lee"
        },
        {
          "authorId": "2192185861",
          "name": "B. Lee"
        },
        {
          "authorId": "2254048941",
          "name": "Ikjin Lee"
        }
      ]
    },
    {
      "paperId": "849c507877ec5370cca57d7eba43c231b556583d",
      "externalIds": {
        "ArXiv": "2112.13901",
        "DBLP": "journals/mlst/IrshadKD24",
        "DOI": "10.1088/2632-2153/ad35a4",
        "CorpusId": 259275347
      },
      "url": "https://www.semanticscholar.org/paper/849c507877ec5370cca57d7eba43c231b556583d",
      "title": "Leveraging trust for joint multi-objective and multi-fidelity optimization",
      "venue": "Machine Learning: Science and Technology",
      "year": 2021,
      "referenceCount": 63,
      "citationCount": 14,
      "authors": [
        {
          "authorId": "47211878",
          "name": "F. Irshad"
        },
        {
          "authorId": "2074598569",
          "name": "S. Karsch"
        },
        {
          "authorId": "7024480",
          "name": "A. Döpp"
        }
      ]
    },
    {
      "paperId": "a84305addecc138368fd7b3aac1cdc9e70a57643",
      "externalIds": {
        "DBLP": "journals/corr/abs-2112-13901",
        "CorpusId": 245537835
      },
      "url": "https://www.semanticscholar.org/paper/a84305addecc138368fd7b3aac1cdc9e70a57643",
      "title": "Expected hypervolume improvement for simultaneous multi-objective and multi-fidelity optimization",
      "venue": "arXiv.org",
      "year": 2021,
      "referenceCount": 48,
      "citationCount": 10,
      "authors": [
        {
          "authorId": "47211878",
          "name": "F. Irshad"
        },
        {
          "authorId": "2890348",
          "name": "S. Karsch"
        },
        {
          "authorId": "7024480",
          "name": "A. Döpp"
        }
      ]
    },
    {
      "paperId": "dc18770608befd7f97c0eed6232673986451015e",
      "externalIds": {
        "DBLP": "journals/corr/abs-2402-04711",
        "ArXiv": "2402.04711",
        "DOI": "10.48550/arXiv.2402.04711",
        "CorpusId": 267523272
      },
      "url": "https://www.semanticscholar.org/paper/dc18770608befd7f97c0eed6232673986451015e",
      "title": "High-dimensional multidisciplinary design optimization for aircraft eco-design / Optimisation multi-disciplinaire en grande dimension pour l'éco-conception avion en avant-projet",
      "venue": "arXiv.org",
      "year": 2024,
      "referenceCount": 0,
      "citationCount": 3,
      "authors": [
        {
          "authorId": "2145081081",
          "name": "Paul Maxime Valentin Saves"
        }
      ]
    }
  ]
}