{
  "total": 23941,
  "offset": 0,
  "next": 10,
  "data": [
    {
      "paperId": "ff37cc844c6625ec8c41e8cc54943fdd1f18fee9",
      "externalIds": {
        "DBLP": "conf/icml/LuoXZL15",
        "MAG": "2132380474",
        "CorpusId": 16963124
      },
      "url": "https://www.semanticscholar.org/paper/ff37cc844c6625ec8c41e8cc54943fdd1f18fee9",
      "title": "Support Matrix Machines",
      "venue": "International Conference on Machine Learning",
      "year": 2015,
      "referenceCount": 32,
      "citationCount": 101,
      "authors": [
        {
          "authorId": "2020695",
          "name": "Luo Luo"
        },
        {
          "authorId": "2118596012",
          "name": "Yubo Xie"
        },
        {
          "authorId": "47294286",
          "name": "Zhihua Zhang"
        },
        {
          "authorId": "2108767848",
          "name": "Wu-Jun Li"
        }
      ]
    },
    {
      "paperId": "96c96fa10ca150d91b2b3aba38d8e34b9768c5b7",
      "externalIds": {
        "MAG": "2546884505",
        "DOI": "10.18642/ijamml_7100121564",
        "CorpusId": 63560787
      },
      "url": "https://www.semanticscholar.org/paper/96c96fa10ca150d91b2b3aba38d8e34b9768c5b7",
      "title": "IMPROVED LEAST SQUARES TWIN SUPPORT MATRIX MACHINES",
      "venue": "",
      "year": 2015,
      "referenceCount": 32,
      "citationCount": 1,
      "authors": [
        {
          "authorId": "71321828",
          "name": "Xizhan Gaoa"
        },
        {
          "authorId": "73342712",
          "name": "Liya Fanb"
        },
        {
          "authorId": "72163917",
          "name": "Haitao Xub"
        }
      ]
    },
    {
      "paperId": "06489dd1db26961d3322688c8a684f3b321924ab",
      "externalIds": {
        "PubMedCentral": "4426769",
        "MAG": "2056335234",
        "DOI": "10.1155/2015/867516",
        "CorpusId": 15246555,
        "PubMed": "26000305"
      },
      "url": "https://www.semanticscholar.org/paper/06489dd1db26961d3322688c8a684f3b321924ab",
      "title": "Detecting Protein-Protein Interactions with a Novel Matrix-Based Protein Sequence Representation and Support Vector Machines",
      "venue": "BioMed Research International",
      "year": 2015,
      "referenceCount": 34,
      "citationCount": 48,
      "authors": [
        {
          "authorId": "144640870",
          "name": "Zhuhong You"
        },
        {
          "authorId": "46275540",
          "name": "Jianqiang Li"
        },
        {
          "authorId": "143703146",
          "name": "Xin Gao"
        },
        {
          "authorId": "2109696695",
          "name": "Zhou He"
        },
        {
          "authorId": "39397633",
          "name": "Lin Zhu"
        },
        {
          "authorId": "40454694",
          "name": "Ying-Ke Lei"
        },
        {
          "authorId": "46932056",
          "name": "Zhiwei Ji"
        }
      ]
    },
    {
      "paperId": "0b18a9eb101eed5ef2ec12e8760f15b974faf3ca",
      "externalIds": {
        "MAG": "2621593675",
        "CorpusId": 9763118
      },
      "url": "https://www.semanticscholar.org/paper/0b18a9eb101eed5ef2ec12e8760f15b974faf3ca",
      "title": "Matrix Multiplication Algorithm Selection with Support Vector Machines",
      "venue": "",
      "year": 2015,
      "referenceCount": 20,
      "citationCount": 10,
      "authors": [
        {
          "authorId": "2416400",
          "name": "Omer Spillinger"
        },
        {
          "authorId": "3158546",
          "name": "D. Eliahu"
        },
        {
          "authorId": "143608596",
          "name": "A. Fox"
        },
        {
          "authorId": "1700326",
          "name": "J. Demmel"
        }
      ]
    },
    {
      "paperId": "322f74b053b42e7132763a184f3647a0ba6a1059",
      "externalIds": {
        "DBLP": "conf/ica3pp/WuFGL15",
        "MAG": "2275001420",
        "DOI": "10.1007/978-3-319-27137-8_18",
        "CorpusId": 10131358
      },
      "url": "https://www.semanticscholar.org/paper/322f74b053b42e7132763a184f3647a0ba6a1059",
      "title": "Parallel Column Subset Selection of Kernel Matrix for Scaling up Support Vector Machines",
      "venue": "International Conference on Algorithms and Architectures for Parallel Processing",
      "year": 2015,
      "referenceCount": 19,
      "citationCount": 0,
      "authors": [
        {
          "authorId": "2115691572",
          "name": "Jiangang Wu"
        },
        {
          "authorId": "144477473",
          "name": "Chang Feng"
        },
        {
          "authorId": "1879809",
          "name": "Peihuan Gao"
        },
        {
          "authorId": "8376033",
          "name": "Shizhong Liao"
        }
      ]
    },
    {
      "paperId": "2a60a8e5497d76e6e0b236e5ce621abb11d552c1",
      "externalIds": {
        "DBLP": "conf/aciids/CyganekK15",
        "MAG": "2187323635",
        "DOI": "10.1007/978-3-319-15702-3_51",
        "CorpusId": 37364060
      },
      "url": "https://www.semanticscholar.org/paper/2a60a8e5497d76e6e0b236e5ce621abb11d552c1",
      "title": "Data Classification with Ensembles of One-Class Support Vector Machines and Sparse Nonnegative Matrix Factorization",
      "venue": "Asian Conference on Intelligent Information and Database Systems",
      "year": 2015,
      "referenceCount": 25,
      "citationCount": 1,
      "authors": [
        {
          "authorId": "1757040",
          "name": "B. Cyganek"
        },
        {
          "authorId": "3022672",
          "name": "B. Krawczyk"
        }
      ]
    },
    {
      "paperId": "7e4b655bcc82b68067cf634edc125fe17586fcf9",
      "externalIds": {
        "DBLP": "conf/ipps/YouDCSV15",
        "MAG": "1506135481",
        "DOI": "10.1109/IPDPS.2015.117",
        "CorpusId": 11654881
      },
      "url": "https://www.semanticscholar.org/paper/7e4b655bcc82b68067cf634edc125fe17586fcf9",
      "title": "CA-SVM: Communication-Avoiding Support Vector Machines on Distributed Systems",
      "venue": "IEEE International Parallel and Distributed Processing Symposium",
      "year": 2015,
      "referenceCount": 36,
      "citationCount": 48,
      "authors": [
        {
          "authorId": "144259229",
          "name": "Yang You"
        },
        {
          "authorId": "1700326",
          "name": "J. Demmel"
        },
        {
          "authorId": "2970749",
          "name": "Kenneth Czechowski"
        },
        {
          "authorId": "2143476977",
          "name": "Le Song"
        },
        {
          "authorId": "1771649",
          "name": "R. Vuduc"
        }
      ]
    },
    {
      "paperId": "e45d4c924b78859557b530b5e9d674f7ed1117a1",
      "externalIds": {
        "DBLP": "conf/isda/KharratHA15",
        "MAG": "2429542676",
        "DOI": "10.1109/ISDA.2015.7489271",
        "CorpusId": 480171
      },
      "url": "https://www.semanticscholar.org/paper/e45d4c924b78859557b530b5e9d674f7ed1117a1",
      "title": "MRI brain tumor classification using Support Vector Machines and meta-heuristic method",
      "venue": "International Conference on Intelligent Systems Design and Applications",
      "year": 2015,
      "referenceCount": 16,
      "citationCount": 53,
      "authors": [
        {
          "authorId": "2423845",
          "name": "A. Kharrat"
        },
        {
          "authorId": "2892440",
          "name": "Mohamed Ben Halima"
        },
        {
          "authorId": "38519683",
          "name": "Mounir Ben Ayed"
        }
      ]
    },
    {
      "paperId": "a1ffa6894ba27813899e33eb0c6f3c4a816257eb",
      "externalIds": {
        "MAG": "1599510602",
        "DOI": "10.1109/ICTRC.2015.7156444",
        "CorpusId": 8161777
      },
      "url": "https://www.semanticscholar.org/paper/a1ffa6894ba27813899e33eb0c6f3c4a816257eb",
      "title": "Seizure detection with common spatial pattern and Support Vector Machines",
      "venue": "2015 International Conference on Information and Communication Technology Research (ICTRC)",
      "year": 2015,
      "referenceCount": 29,
      "citationCount": 23,
      "authors": [
        {
          "authorId": "3262634",
          "name": "T. Alotaiby"
        },
        {
          "authorId": "1403694220",
          "name": "F. A. Abd El‑Samie"
        },
        {
          "authorId": "1678707",
          "name": "S. Alshebeili"
        },
        {
          "authorId": "1405495320",
          "name": "Khaled H. Aljibreen"
        },
        {
          "authorId": "1405495328",
          "name": "Emaan Alkhanen"
        }
      ]
    },
    {
      "paperId": "3d6a903c4cae707a58abde41bb8688ca2fc370d4",
      "externalIds": {
        "CorpusId": 14950559
      },
      "url": "https://www.semanticscholar.org/paper/3d6a903c4cae707a58abde41bb8688ca2fc370d4",
      "title": "Safe screening for support vector machines",
      "venue": "",
      "year": 2015,
      "referenceCount": 20,
      "citationCount": 19,
      "authors": [
        {
          "authorId": "2301013950",
          "name": "Julian Zimmert"
        }
      ]
    }
  ]
}