{
  "total": 12,
  "offset": 0,
  "next": 10,
  "data": [
    {
      "paperId": "6d791513a695aadf1271100d9bf12e3e05b04cc5",
      "externalIds": {
        "MAG": "2964290417",
        "DBLP": "journals/corr/BlondelIFU16",
        "ArXiv": "1607.08810",
        "CorpusId": 1529311
      },
      "url": "https://www.semanticscholar.org/paper/6d791513a695aadf1271100d9bf12e3e05b04cc5",
      "title": "Polynomial Networks and Factorization Machines: New Insights and Efficient Training Algorithms",
      "venue": "International Conference on Machine Learning",
      "year": 2016,
      "referenceCount": 22,
      "citationCount": 82,
      "authors": [
        {
          "authorId": "27257992",
          "name": "Mathieu Blondel"
        },
        {
          "authorId": "1784290",
          "name": "Masakazu Ishihata"
        },
        {
          "authorId": "34433830",
          "name": "Akinori Fujino"
        },
        {
          "authorId": "1735221",
          "name": "N. Ueda"
        }
      ]
    },
    {
      "paperId": "f5e7ba3e3565ef2e74d049a480811b7a23143de1",
      "externalIds": {
        "DBLP": "journals/access/ZwirtesLSF25",
        "DOI": "10.1109/ACCESS.2025.3547838",
        "CorpusId": 276799142
      },
      "url": "https://www.semanticscholar.org/paper/f5e7ba3e3565ef2e74d049a480811b7a23143de1",
      "title": "Fault Detection in Photovoltaic Systems Using a Machine Learning Approach",
      "venue": "IEEE Access",
      "year": 2025,
      "referenceCount": 29,
      "citationCount": 7,
      "authors": [
        {
          "authorId": "2348648624",
          "name": "Jossias Zwirtes"
        },
        {
          "authorId": "2349628283",
          "name": "Fausto Bastos Líbano"
        },
        {
          "authorId": "2349623704",
          "name": "Luís Alvaro de Lima Silva"
        },
        {
          "authorId": "2349624321",
          "name": "and Edison Pignaton de Freitas"
        }
      ]
    },
    {
      "paperId": "482bcf661001eab487c19af1e343a194b3444f82",
      "externalIds": {
        "DBLP": "conf/nof/HillblomGW21",
        "DOI": "10.1109/NoF52522.2021.9609828",
        "CorpusId": 244272423
      },
      "url": "https://www.semanticscholar.org/paper/482bcf661001eab487c19af1e343a194b3444f82",
      "title": "Building Efficient Regular Expression Matchers Through GA Optimization With ML Surrogates",
      "venue": "International Conference on Network of the Future",
      "year": 2021,
      "referenceCount": 0,
      "citationCount": 0,
      "authors": [
        {
          "authorId": "2141038826",
          "name": "Jonathan Hillblom"
        },
        {
          "authorId": "2148907730",
          "name": "Johan Garcia"
        },
        {
          "authorId": "2141043616",
          "name": "Anders Waldenborg"
        }
      ]
    },
    {
      "paperId": "b1cea1cf180323597d4ddb1e9c6b496784883480",
      "externalIds": {
        "CorpusId": 261437126
      },
      "url": "https://www.semanticscholar.org/paper/b1cea1cf180323597d4ddb1e9c6b496784883480",
      "title": "Potential of Machine learning techniques compared to MIKE-SHE 1 model for drain flow predictions in tile-drained agricultural areas of 2 Denmark 3",
      "venue": "",
      "year": 2023,
      "referenceCount": 100,
      "citationCount": 3,
      "authors": [
        {
          "authorId": "2137950988",
          "name": "Hafsa Mahmood"
        },
        {
          "authorId": "144732721",
          "name": "T. Ferré"
        },
        {
          "authorId": "1405994341",
          "name": "R. Schneider"
        },
        {
          "authorId": "3169193",
          "name": "S. Stisen"
        },
        {
          "authorId": "108448877",
          "name": "R. R. Frederiksen"
        },
        {
          "authorId": "33260830",
          "name": "A. Christiansen"
        }
      ]
    },
    {
      "paperId": "62131951b718785810983c1071a86c7f8dc2fb13",
      "externalIds": {
        "MAG": "2737819567",
        "CorpusId": 58976330
      },
      "url": "https://www.semanticscholar.org/paper/62131951b718785810983c1071a86c7f8dc2fb13",
      "title": "Few algorithms for inverse problems in image processing",
      "venue": "",
      "year": 2016,
      "referenceCount": 98,
      "citationCount": 0,
      "authors": [
        {
          "authorId": "2116817809",
          "name": "Neeraj Kumar"
        }
      ]
    },
    {
      "paperId": "294ad7ef3f1835baa52b742ef90051e0d8a09add",
      "externalIds": {
        "MAG": "2950063177",
        "CorpusId": 196173989
      },
      "url": "https://www.semanticscholar.org/paper/294ad7ef3f1835baa52b742ef90051e0d8a09add",
      "title": "Artificial Hydrocarbon Networks: Chemical Nature Inspiration in Machine Learning",
      "venue": "",
      "year": 2019,
      "referenceCount": 13,
      "citationCount": 0,
      "authors": [
        {
          "authorId": "1963352",
          "name": "Hiram Ponce"
        }
      ]
    },
    {
      "paperId": "b4ed572e75e0cd861a6740e9c8a5e64283163b60",
      "externalIds": {
        "CorpusId": 249013019
      },
      "url": "https://www.semanticscholar.org/paper/b4ed572e75e0cd861a6740e9c8a5e64283163b60",
      "title": "Dual active bridge converter as a part of the DC microgrid",
      "venue": "",
      "year": null,
      "referenceCount": 0,
      "citationCount": 0,
      "authors": [
        {
          "authorId": "2135638668",
          "name": "G.V. Manko"
        },
        {
          "authorId": "2166120464",
          "name": "Krzysztof Anders"
        },
        {
          "authorId": "118439679",
          "name": "Bartłomiej Hryniewicki"
        }
      ]
    },
    {
      "paperId": "1b8f371244e5146dc3e8d6340ddf623a01e175b7",
      "externalIds": {
        "MAG": "1515202625",
        "CorpusId": 262282866
      },
      "url": "https://www.semanticscholar.org/paper/1b8f371244e5146dc3e8d6340ddf623a01e175b7",
      "title": "Advances in Knowledge Discovery and Data Mining, 12th Pacific-Asia Conference, PAKDD 2008, Osaka, Japan, May 20-23, 2008 Proceedings",
      "venue": "Pacific-Asia Conference on Knowledge Discovery and Data Mining",
      "year": 2008,
      "referenceCount": 0,
      "citationCount": 1,
      "authors": [
        {
          "authorId": "2245000229",
          "name": "Takashi Wahio"
        },
        {
          "authorId": "1690503",
          "name": "Einoshin Suzuki"
        },
        {
          "authorId": "35212893",
          "name": "K. Ting"
        },
        {
          "authorId": "2245002682",
          "name": "Akihiro Inokuchi"
        }
      ]
    },
    {
      "paperId": "a2d25e6817d3cb14e95e551835c0f3927e50a0cd",
      "externalIds": {
        "MAG": "1578631922",
        "CorpusId": 260889132
      },
      "url": "https://www.semanticscholar.org/paper/a2d25e6817d3cb14e95e551835c0f3927e50a0cd",
      "title": "Neural information processing : 16th International Conference, ICONIP 2009, Bangkok, Thailand, December 1-5, 2009 : proceedings",
      "venue": "International Conference on Neural Information Processing",
      "year": 2009,
      "referenceCount": 0,
      "citationCount": 0,
      "authors": [
        {
          "authorId": "66036597",
          "name": "C. Leung"
        },
        {
          "authorId": "2109502857",
          "name": "Minho Lee"
        },
        {
          "authorId": "2151246759",
          "name": "Jonathan H. Chan"
        }
      ]
    },
    {
      "paperId": "841a96cfb6def89925642fb892220cfdc8970559",
      "externalIds": {
        "MAG": "1512719150",
        "DBLP": "conf/pakdd/2009",
        "CorpusId": 261088182
      },
      "url": "https://www.semanticscholar.org/paper/841a96cfb6def89925642fb892220cfdc8970559",
      "title": "Advances in Knowledge Discovery and Data Mining, 13th Pacific-Asia Conference, PAKDD 2009, Bangkok, Thailand, April 27-30, 2009, Proceedings",
      "venue": "Pacific-Asia Conference on Knowledge Discovery and Data Mining",
      "year": 2009,
      "referenceCount": 0,
      "citationCount": 1,
      "authors": [
        {
          "authorId": "1751558",
          "name": "T. Theeramunkong"
        },
        {
          "authorId": "1683540",
          "name": "B. Kijsirikul"
        },
        {
          "authorId": "2245554487",
          "name": "Nick Cercone"
        },
        {
          "authorId": "2245007266",
          "name": "T. Ho"
        }
      ]
    }
  ]
}