{
  "total": 89492,
  "offset": 0,
  "next": 10,
  "data": [
    {
      "paperId": "2b474cf9e72628386c8abb12b2c7c1a21d8b1f1c",
      "externalIds": {
        "MAG": "2962764337",
        "DBLP": "conf/icml/LeeYH18",
        "ArXiv": "1708.00260",
        "CorpusId": 10639597
      },
      "url": "https://www.semanticscholar.org/paper/2b474cf9e72628386c8abb12b2c7c1a21d8b1f1c",
      "title": "Deep Asymmetric Multi-task Feature Learning",
      "venue": "International Conference on Machine Learning",
      "year": 2017,
      "referenceCount": 28,
      "citationCount": 46,
      "authors": [
        {
          "authorId": "2110308284",
          "name": "Haebeom Lee"
        },
        {
          "authorId": "1720494",
          "name": "Eunho Yang"
        },
        {
          "authorId": "35788904",
          "name": "Sung Ju Hwang"
        }
      ]
    },
    {
      "paperId": "cb6118c0bdc81c0ebfd5c759db67292c80083df7",
      "externalIds": {
        "DBLP": "journals/soco/MengSZPW25",
        "DOI": "10.1007/s00500-025-10915-2",
        "CorpusId": 281632465
      },
      "url": "https://www.semanticscholar.org/paper/cb6118c0bdc81c0ebfd5c759db67292c80083df7",
      "title": "An asymmetric lightweight multi-task network based on KAN convolution",
      "venue": "Soft Computing - A Fusion of Foundations, Methodologies and Applications",
      "year": 2025,
      "referenceCount": 36,
      "citationCount": 0,
      "authors": [
        {
          "authorId": "2343699667",
          "name": "Fanyun Meng"
        },
        {
          "authorId": "2343588404",
          "name": "Yongqiang Sun"
        },
        {
          "authorId": "2379602744",
          "name": "Zhenyu Zhu"
        },
        {
          "authorId": "2315756207",
          "name": "Liping Pang"
        },
        {
          "authorId": "2382725208",
          "name": "Jinlong Wang"
        }
      ]
    },
    {
      "paperId": "165c6cc88dd31269e123ab2497d85c23163448d5",
      "externalIds": {
        "DBLP": "conf/interspeech/NiPHZ24",
        "DOI": "10.21437/interspeech.2024-1355",
        "CorpusId": 272362973
      },
      "url": "https://www.semanticscholar.org/paper/165c6cc88dd31269e123ab2497d85c23163448d5",
      "title": "MSA-DPCRN: A Multi-Scale Asymmetric Dual-Path Convolution Recurrent Network with Attentional Feature Fusion for Acoustic Echo Cancellation",
      "venue": "Interspeech",
      "year": 2024,
      "referenceCount": 32,
      "citationCount": 1,
      "authors": [
        {
          "authorId": "2319293914",
          "name": "Ye Ni"
        },
        {
          "authorId": "2319294550",
          "name": "Cong Pang"
        },
        {
          "authorId": "2319494055",
          "name": "Chengwei Huang"
        },
        {
          "authorId": "2253586549",
          "name": "Cairong Zou"
        }
      ]
    },
    {
      "paperId": "fb88ebb08d600f5656e63c485fd8b8fb9f0faefc",
      "externalIds": {
        "DOI": "10.23919/CCC58697.2023.10239714",
        "CorpusId": 262059081
      },
      "url": "https://www.semanticscholar.org/paper/fb88ebb08d600f5656e63c485fd8b8fb9f0faefc",
      "title": "Hybrid Semi-supervised Fault Diagnosis Based on Asymmetric and Multi-scale Pooling Module",
      "venue": "Cybersecurity and Cyberforensics Conference",
      "year": 2023,
      "referenceCount": 24,
      "citationCount": 1,
      "authors": [
        {
          "authorId": "2108478359",
          "name": "Weiwei Zhang"
        },
        {
          "authorId": "2133835295",
          "name": "Deji Chen"
        },
        {
          "authorId": "2175451309",
          "name": "Yang Xiao"
        }
      ]
    },
    {
      "paperId": "7c68ad548257bd15a7a0ca69e40ab82cf2efa462",
      "externalIds": {
        "DOI": "10.1007/s10439-026-04032-w",
        "CorpusId": 286503289,
        "PubMed": "41817814"
      },
      "url": "https://www.semanticscholar.org/paper/7c68ad548257bd15a7a0ca69e40ab82cf2efa462",
      "title": "DDFU-Net: A Deep Decoder-Focused U-Net Model for Retinal Lesion Segmentation.",
      "venue": "Annals of Biomedical Engineering",
      "year": 2026,
      "referenceCount": 21,
      "citationCount": 0,
      "authors": [
        {
          "authorId": "2294974979",
          "name": "M. Herrero-Tudela"
        },
        {
          "authorId": "1416024709",
          "name": "R. Romero-Oraá"
        },
        {
          "authorId": "1403060622",
          "name": "G. Gutiérrez-Tobal"
        },
        {
          "authorId": "2259891534",
          "name": "R. Hornero"
        },
        {
          "authorId": "2218037477",
          "name": "M. I. López"
        },
        {
          "authorId": "1401546139",
          "name": "P. Romero-Aroca"
        },
        {
          "authorId": "2116591570",
          "name": "María García"
        }
      ]
    },
    {
      "paperId": "7ba4916f6d28f0b11b5e3503ab9db70f75ec3de3",
      "externalIds": {
        "DBLP": "conf/qrs/GaoWLR24",
        "DOI": "10.1109/QRS-C63300.2024.00082",
        "CorpusId": 273692706
      },
      "url": "https://www.semanticscholar.org/paper/7ba4916f6d28f0b11b5e3503ab9db70f75ec3de3",
      "title": "A Land-Based War-Gaming Simulation Method Based on Multi-Agent Proximal Policy Optimization",
      "venue": "IEEE International Conference on Software Quality, Reliability and Security Companion",
      "year": 2024,
      "referenceCount": 45,
      "citationCount": 0,
      "authors": [
        {
          "authorId": "2328339886",
          "name": "Xule Gao"
        },
        {
          "authorId": "2222518321",
          "name": "Rui Wang"
        },
        {
          "authorId": "1500526037",
          "name": "Zhaohui Liu"
        },
        {
          "authorId": "2307995547",
          "name": "Yi Ren"
        }
      ]
    },
    {
      "paperId": "756532d707209f13c44b96e6306ac0c96e6733a5",
      "externalIds": {
        "MAG": "2883723049",
        "DBLP": "journals/pr/YangYLDXHM19",
        "DOI": "10.1016/j.patcog.2018.07.028",
        "CorpusId": 53528704
      },
      "url": "https://www.semanticscholar.org/paper/756532d707209f13c44b96e6306ac0c96e6733a5",
      "title": "Asymmetric 3D Convolutional Neural Networks for action recognition",
      "venue": "Pattern Recognition",
      "year": 2019,
      "referenceCount": 54,
      "citationCount": 195,
      "authors": [
        {
          "authorId": "2115537621",
          "name": "Hao Yang"
        },
        {
          "authorId": "50199457",
          "name": "Chunfen Yuan"
        },
        {
          "authorId": "2152691925",
          "name": "Bing Li"
        },
        {
          "authorId": "145992021",
          "name": "Yang Du"
        },
        {
          "authorId": "1757173",
          "name": "Junliang Xing"
        },
        {
          "authorId": "40506509",
          "name": "Weiming Hu"
        },
        {
          "authorId": "144555237",
          "name": "S. Maybank"
        }
      ]
    },
    {
      "paperId": "14dce0850544fe5ed2b635f2b1b1dfba720d0a3e",
      "externalIds": {
        "DBLP": "conf/mir/GuGGLXW19",
        "MAG": "2949588459",
        "DOI": "10.1145/3323873.3325045",
        "CorpusId": 174803047
      },
      "url": "https://www.semanticscholar.org/paper/14dce0850544fe5ed2b635f2b1b1dfba720d0a3e",
      "title": "Adversary Guided Asymmetric Hashing for Cross-Modal Retrieval",
      "venue": "International Conference on Multimedia Retrieval",
      "year": 2019,
      "referenceCount": 33,
      "citationCount": 154,
      "authors": [
        {
          "authorId": "2061383063",
          "name": "Wen Gu"
        },
        {
          "authorId": "47019483",
          "name": "Xiaoyan Gu"
        },
        {
          "authorId": "2011163",
          "name": "Jingzi Gu"
        },
        {
          "authorId": "48218911",
          "name": "B. Li"
        },
        {
          "authorId": "2061495105",
          "name": "Zhi Xiong"
        },
        {
          "authorId": "47824616",
          "name": "Weiping Wang"
        }
      ]
    },
    {
      "paperId": "36a7f12582560e67bd8eae32ab0f209380b8e170",
      "externalIds": {
        "DOI": "10.1109/ICCE48956.2021.9352042",
        "CorpusId": 231976172
      },
      "url": "https://www.semanticscholar.org/paper/36a7f12582560e67bd8eae32ab0f209380b8e170",
      "title": "Accurate Modulation Classification with Reusable-Feature Convolutional Neural Network",
      "venue": "IEEE International Conference on Consumer Electronics",
      "year": 2021,
      "referenceCount": 28,
      "citationCount": 7,
      "authors": [
        {
          "authorId": "1402997421",
          "name": "Thien Huynh-The"
        },
        {
          "authorId": "40257216",
          "name": "Cam-Hao Hua"
        },
        {
          "authorId": "1712130922",
          "name": "Van-Sang Doan"
        },
        {
          "authorId": "2144021817",
          "name": "Dong-Seong Kim"
        }
      ]
    },
    {
      "paperId": "c14812ea47b8e2eb0989376c8ac49c61773b2290",
      "externalIds": {
        "ArXiv": "2308.15078",
        "DBLP": "journals/cm/DongJPWYPS25",
        "DOI": "10.1109/MCOM.001.2400076",
        "CorpusId": 261276447
      },
      "url": "https://www.semanticscholar.org/paper/c14812ea47b8e2eb0989376c8ac49c61773b2290",
      "title": "LAMBO: Large AI Model Empowered Edge Intelligence",
      "venue": "IEEE Communications Magazine",
      "year": 2023,
      "referenceCount": 17,
      "citationCount": 27,
      "authors": [
        {
          "authorId": "2152288497",
          "name": "Li Dong"
        },
        {
          "authorId": "40540111",
          "name": "Feibo Jiang"
        },
        {
          "authorId": "2111035161",
          "name": "Yubo Peng"
        },
        {
          "authorId": "1878751",
          "name": "Kezhi Wang"
        },
        {
          "authorId": "2214014346",
          "name": "Kun Yang"
        },
        {
          "authorId": "144442022",
          "name": "Cunhua Pan"
        },
        {
          "authorId": "143677566",
          "name": "R. Schober"
        }
      ]
    }
  ]
}