{
  "total": 19,
  "offset": 0,
  "next": 10,
  "data": [
    {
      "paperId": "ec65e4992d5242d68ff9198832d8dff3c38815fc",
      "externalIds": {
        "MAG": "2963036352",
        "DBLP": "journals/corr/abs-1806-09464",
        "ArXiv": "1806.09464",
        "CorpusId": 38215640
      },
      "url": "https://www.semanticscholar.org/paper/ec65e4992d5242d68ff9198832d8dff3c38815fc",
      "title": "Learning K-way D-dimensional Discrete Codes for Compact Embedding Representations",
      "venue": "International Conference on Machine Learning",
      "year": 2018,
      "referenceCount": 34,
      "citationCount": 72,
      "authors": [
        {
          "authorId": "145358498",
          "name": "Ting Chen"
        },
        {
          "authorId": "2984407",
          "name": "Martin Renqiang Min"
        },
        {
          "authorId": "2265615726",
          "name": "Yizhou Sun"
        }
      ]
    },
    {
      "paperId": "359ee886d9e0ae49b92d1189158c10e9d1e5db96",
      "externalIds": {
        "MAG": "2767768936",
        "DBLP": "journals/corr/abs-1711-03067",
        "ArXiv": "1711.03067",
        "CorpusId": 265038738
      },
      "url": "https://www.semanticscholar.org/paper/359ee886d9e0ae49b92d1189158c10e9d1e5db96",
      "title": "Learning K-way D-dimensional Discrete Code For Compact Embedding Representations",
      "venue": "arXiv.org",
      "year": 2017,
      "referenceCount": 29,
      "citationCount": 10,
      "authors": [
        {
          "authorId": "145358498",
          "name": "Ting Chen"
        },
        {
          "authorId": "2365263682",
          "name": "Martin Renqiang Min"
        },
        {
          "authorId": "2265615726",
          "name": "Yizhou Sun"
        }
      ]
    },
    {
      "paperId": "8dd5f1a759835f958def77394b85aba7bb9a6d72",
      "externalIds": {
        "MAG": "2965370967",
        "DBLP": "conf/ijcai/LiangMGW19",
        "DOI": "10.24963/ijcai.2019/411",
        "CorpusId": 199465960
      },
      "url": "https://www.semanticscholar.org/paper/8dd5f1a759835f958def77394b85aba7bb9a6d72",
      "title": "Learning K-way D-dimensional Discrete Embedding for Hierarchical Data Visualization and Retrieval",
      "venue": "International Joint Conference on Artificial Intelligence",
      "year": 2019,
      "referenceCount": 21,
      "citationCount": 1,
      "authors": [
        {
          "authorId": "2751089",
          "name": "Xiaoyuan Liang"
        },
        {
          "authorId": "2984407",
          "name": "Martin Renqiang Min"
        },
        {
          "authorId": "1694050",
          "name": "Hongyu Guo"
        },
        {
          "authorId": "2118560953",
          "name": "Guiling Wang"
        }
      ]
    },
    {
      "paperId": "0e177f69f49fbd8dd0c09efdc79ce8a76636e540",
      "externalIds": {
        "MAG": "3014037202",
        "DBLP": "journals/entropy/LeeKPC22",
        "ArXiv": "1905.11656",
        "PubMedCentral": "9030705",
        "DOI": "10.3390/e24040501",
        "CorpusId": 211259529,
        "PubMed": "35455164"
      },
      "url": "https://www.semanticscholar.org/paper/0e177f69f49fbd8dd0c09efdc79ce8a76636e540",
      "title": "Discrete Infomax Codes for Supervised Representation Learning",
      "venue": "Entropy",
      "year": 2019,
      "referenceCount": 70,
      "citationCount": 5,
      "authors": [
        {
          "authorId": "2110392124",
          "name": "Yoonho Lee"
        },
        {
          "authorId": "2382193",
          "name": "Wonjae Kim"
        },
        {
          "authorId": "107950764",
          "name": "Wonpyo Park"
        },
        {
          "authorId": "3960497",
          "name": "Seungjin Choi"
        }
      ]
    },
    {
      "paperId": "ca44ef9be97a1c211295785ba4b0290db90a6bf2",
      "externalIds": {
        "CorpusId": 251895517
      },
      "url": "https://www.semanticscholar.org/paper/ca44ef9be97a1c211295785ba4b0290db90a6bf2",
      "title": "international workshop on functions in algebra and geometry 2nd-6th 2022",
      "venue": "",
      "year": 2022,
      "referenceCount": 0,
      "citationCount": 0,
      "authors": [
        {
          "authorId": "144862636",
          "name": "D. Hernandez"
        },
        {
          "authorId": "34348393",
          "name": "J. Jeffries"
        },
        {
          "authorId": "2077113102",
          "name": "L. Núñez-Betancourt"
        },
        {
          "authorId": "1456645154",
          "name": "P."
        },
        {
          "authorId": "2076481619",
          "name": "Teixeira"
        },
        {
          "authorId": "47616698",
          "name": "E. Witt"
        }
      ]
    },
    {
      "paperId": "cc4393995c1aa5cecd852fc1a27428058fb2c39a",
      "externalIds": {
        "DBLP": "conf/hvei/BurciuMB16",
        "MAG": "2575175309",
        "DOI": "10.2352/ISSN.2470-1173.2016.16.HVEI-110",
        "CorpusId": 27755136
      },
      "url": "https://www.semanticscholar.org/paper/cc4393995c1aa5cecd852fc1a27428058fb2c39a",
      "title": "Hierarchical Manifold Sensing with Foveation and Adaptive Partitioning of the Dataset",
      "venue": "Human Vision and Electronic Imaging",
      "year": 2016,
      "referenceCount": 6,
      "citationCount": 2,
      "authors": [
        {
          "authorId": "40586416",
          "name": "Irina Burciu"
        },
        {
          "authorId": "1764560",
          "name": "T. Martinetz"
        },
        {
          "authorId": "1839848",
          "name": "E. Barth"
        }
      ]
    },
    {
      "paperId": "ea1b05092dab672e07a64ebdb819cb770918d359",
      "externalIds": {
        "CorpusId": 10346282
      },
      "url": "https://www.semanticscholar.org/paper/ea1b05092dab672e07a64ebdb819cb770918d359",
      "title": "A UNIFIED FRAMEWORK FOR UNSUPERVISED LEARNING",
      "venue": "",
      "year": 2012,
      "referenceCount": 16,
      "citationCount": 0,
      "authors": [
        {
          "authorId": "9971430",
          "name": "Guillermo D. Cañas"
        },
        {
          "authorId": "1685292",
          "name": "T. Poggio"
        },
        {
          "authorId": "1690976",
          "name": "L. Rosasco"
        }
      ]
    },
    {
      "paperId": "c2677586a69829c8000c52fa3f120fa2bc95e16f",
      "externalIds": {
        "MAG": "2911607182",
        "CorpusId": 65113306
      },
      "url": "https://www.semanticscholar.org/paper/c2677586a69829c8000c52fa3f120fa2bc95e16f",
      "title": "Vlsi architectures for video compression applications",
      "venue": "",
      "year": 1996,
      "referenceCount": 0,
      "citationCount": 1,
      "authors": [
        {
          "authorId": "1728271",
          "name": "V. Prasanna"
        },
        {
          "authorId": "40299474",
          "name": "Jongwoo Bae"
        }
      ]
    },
    {
      "paperId": "cecb457b8869c7a2d653d41f590c5e212ae2d2ed",
      "externalIds": {
        "CorpusId": 17979000
      },
      "url": "https://www.semanticscholar.org/paper/cecb457b8869c7a2d653d41f590c5e212ae2d2ed",
      "title": "Cauchy – Szegö kernels for Hardy spaces on simple Lie groups",
      "venue": "",
      "year": 1995,
      "referenceCount": 28,
      "citationCount": 5,
      "authors": [
        {
          "authorId": "2770476",
          "name": "G. Olshanski"
        }
      ]
    },
    {
      "paperId": "00cf202447427491d7f21dcf12c14278a18ce2b6",
      "externalIds": {
        "MAG": "2041434667",
        "DOI": "10.4171/OWR/2014/18",
        "CorpusId": 122064781
      },
      "url": "https://www.semanticscholar.org/paper/00cf202447427491d7f21dcf12c14278a18ce2b6",
      "title": "Mini-Workshop: Mathematical Physics meets Sparse Recovery",
      "venue": "",
      "year": 2014,
      "referenceCount": 12,
      "citationCount": 1,
      "authors": [
        {
          "authorId": "144296103",
          "name": "D. Gross"
        },
        {
          "authorId": "2942797",
          "name": "Felix Krahmer"
        },
        {
          "authorId": "32564459",
          "name": "Rachel A. Ward"
        },
        {
          "authorId": "144131351",
          "name": "A. Winter"
        }
      ]
    }
  ]
}