{
  "total": 13399,
  "offset": 0,
  "next": 10,
  "data": [
    {
      "paperId": "50890ecfad90328453c9552f68252e324c742711",
      "externalIds": {
        "MAG": "2803244426",
        "DBLP": "conf/icml/MarinoYM18",
        "ArXiv": "1807.09356",
        "CorpusId": 50785699
      },
      "url": "https://www.semanticscholar.org/paper/50890ecfad90328453c9552f68252e324c742711",
      "title": "Iterative Amortized Inference",
      "venue": "International Conference on Machine Learning",
      "year": 2018,
      "referenceCount": 34,
      "citationCount": 181,
      "authors": [
        {
          "authorId": "2062768160",
          "name": "Joseph Marino"
        },
        {
          "authorId": "1740159",
          "name": "Yisong Yue"
        },
        {
          "authorId": "2403511387",
          "name": "Stephan Mandt"
        }
      ]
    },
    {
      "paperId": "bf92f815fbf6fd4d50304c4b939447459d2e06d8",
      "externalIds": {
        "DBLP": "conf/icml/EmamiHRR21",
        "ArXiv": "2106.03630",
        "CorpusId": 235358373
      },
      "url": "https://www.semanticscholar.org/paper/bf92f815fbf6fd4d50304c4b939447459d2e06d8",
      "title": "Efficient Iterative Amortized Inference for Learning Symmetric and Disentangled Multi-Object Representations",
      "venue": "International Conference on Machine Learning",
      "year": 2021,
      "referenceCount": 52,
      "citationCount": 48,
      "authors": [
        {
          "authorId": "39804114",
          "name": "Patrick Emami"
        },
        {
          "authorId": "50462511",
          "name": "Pan He"
        },
        {
          "authorId": "143867972",
          "name": "S. Ranka"
        },
        {
          "authorId": "145257016",
          "name": "A. Rangarajan"
        }
      ]
    },
    {
      "paperId": "e2fa07f1b1dbe8a86fafd842a39262e697a6dcd8",
      "externalIds": {
        "DBLP": "journals/corr/abs-2510-11471",
        "ArXiv": "2510.11471",
        "DOI": "10.48550/arXiv.2510.11471",
        "CorpusId": 282058263
      },
      "url": "https://www.semanticscholar.org/paper/e2fa07f1b1dbe8a86fafd842a39262e697a6dcd8",
      "title": "Iterative Amortized Inference: Unifying In-Context Learning and Learned Optimizers",
      "venue": "arXiv.org",
      "year": 2025,
      "referenceCount": 0,
      "citationCount": 1,
      "authors": [
        {
          "authorId": "51519654",
          "name": "Sarthak Mittal"
        },
        {
          "authorId": "133841722",
          "name": "Divyat Mahajan"
        },
        {
          "authorId": "2253462182",
          "name": "Guillaume Lajoie"
        },
        {
          "authorId": "2249759469",
          "name": "Mohammad Pezeshki"
        }
      ]
    },
    {
      "paperId": "b87bdbfd6499d3e334470cb630444f41bbc7f190",
      "externalIds": {
        "DBLP": "journals/corr/abs-2410-11403",
        "ArXiv": "2410.11403",
        "DOI": "10.48550/arXiv.2410.11403",
        "CorpusId": 273350983
      },
      "url": "https://www.semanticscholar.org/paper/b87bdbfd6499d3e334470cb630444f41bbc7f190",
      "title": "Enhancing Unimodal Latent Representations in Multimodal VAEs through Iterative Amortized Inference",
      "venue": "arXiv.org",
      "year": 2024,
      "referenceCount": 36,
      "citationCount": 0,
      "authors": [
        {
          "authorId": "2290911034",
          "name": "Yuta Oshima"
        },
        {
          "authorId": "2111453022",
          "name": "Masahiro Suzuki"
        },
        {
          "authorId": "2257260914",
          "name": "Yutaka Matsuo"
        }
      ]
    },
    {
      "paperId": "8dd0ebc51d4794be9d0004e368a004cbf71e7b31",
      "externalIds": {
        "DOI": "10.1007/s00354-026-00321-z",
        "CorpusId": 287213718
      },
      "url": "https://www.semanticscholar.org/paper/8dd0ebc51d4794be9d0004e368a004cbf71e7b31",
      "title": "Enhancing Unimodal Latent Representations in Multimodal VAEs Through Iterative Amortized Inference",
      "venue": "New generation computing",
      "year": 2026,
      "referenceCount": 3,
      "citationCount": 0,
      "authors": [
        {
          "authorId": "2290911034",
          "name": "Yuta Oshima"
        },
        {
          "authorId": "2327006455",
          "name": "Masahiro Suzuki"
        },
        {
          "authorId": "2257260914",
          "name": "Yutaka Matsuo"
        }
      ]
    },
    {
      "paperId": "fceffb51f119713a78151bbf73e994280aa36862",
      "externalIds": {
        "CorpusId": 236772612
      },
      "url": "https://www.semanticscholar.org/paper/fceffb51f119713a78151bbf73e994280aa36862",
      "title": "Efficient Iterative Amortized Inference for Learning Symmetric and Disentangled Multi-Object Representations",
      "venue": "",
      "year": 2021,
      "referenceCount": 0,
      "citationCount": 1,
      "authors": [
        {
          "authorId": "2122328863",
          "name": "A. Equivariance"
        }
      ]
    },
    {
      "paperId": "e2d5e54626a8700f2bd4e276bb321805027223d2",
      "externalIds": {
        "ArXiv": "2405.05398",
        "DBLP": "journals/corr/abs-2405-05398",
        "DOI": "10.1088/1361-6420/adba3d",
        "CorpusId": 269635838
      },
      "url": "https://www.semanticscholar.org/paper/e2d5e54626a8700f2bd4e276bb321805027223d2",
      "title": "ASPIRE: iterative amortized posterior inference for Bayesian inverse problems",
      "venue": "Inverse Problems",
      "year": 2024,
      "referenceCount": 85,
      "citationCount": 8,
      "authors": [
        {
          "authorId": "2071247268",
          "name": "Rafael Orozco"
        },
        {
          "authorId": "2827860",
          "name": "Ali Siahkoohi"
        },
        {
          "authorId": "3451726",
          "name": "M. Louboutin"
        },
        {
          "authorId": "2263587027",
          "name": "Felix J. Herrmann"
        }
      ]
    },
    {
      "paperId": "dc59e2d8c953b1ed8b9abca34e294f1b52ab256a",
      "externalIds": {
        "DBLP": "journals/corr/abs-2601-15894",
        "ArXiv": "2601.15894",
        "DOI": "10.48550/arXiv.2601.15894",
        "CorpusId": 284935737
      },
      "url": "https://www.semanticscholar.org/paper/dc59e2d8c953b1ed8b9abca34e294f1b52ab256a",
      "title": "Iterative Amortized Hierarchical VAE",
      "venue": "IEEE International Conference on Acoustics, Speech, and Signal Processing",
      "year": 2026,
      "referenceCount": 28,
      "citationCount": 0,
      "authors": [
        {
          "authorId": "2338912015",
          "name": "Simon W. Penninga"
        },
        {
          "authorId": "2269460845",
          "name": "R. V. Sloun"
        }
      ]
    },
    {
      "paperId": "b164a7dd0d6124e3a86df8a8e7374f9be8364033",
      "externalIds": {
        "MAG": "3094567409",
        "DBLP": "conf/nips/MarinoPIY21",
        "ArXiv": "2010.10670",
        "CorpusId": 224819491
      },
      "url": "https://www.semanticscholar.org/paper/b164a7dd0d6124e3a86df8a8e7374f9be8364033",
      "title": "Iterative Amortized Policy Optimization",
      "venue": "Neural Information Processing Systems",
      "year": 2020,
      "referenceCount": 94,
      "citationCount": 23,
      "authors": [
        {
          "authorId": "2062768160",
          "name": "Joseph Marino"
        },
        {
          "authorId": "49504044",
          "name": "Alexandre Piché"
        },
        {
          "authorId": "46403120",
          "name": "Alessandro Davide Ialongo"
        },
        {
          "authorId": "1740159",
          "name": "Yisong Yue"
        }
      ]
    },
    {
      "paperId": "2b895c0637375e57577e9c15351ceebe9c795751",
      "externalIds": {
        "ArXiv": "2407.16125",
        "DBLP": "conf/eccv/LeePKK24",
        "DOI": "10.48550/arXiv.2407.16125",
        "CorpusId": 271334359
      },
      "url": "https://www.semanticscholar.org/paper/2b895c0637375e57577e9c15351ceebe9c795751",
      "title": "Diffusion Prior-Based Amortized Variational Inference for Noisy Inverse Problems",
      "venue": "European Conference on Computer Vision",
      "year": 2024,
      "referenceCount": 50,
      "citationCount": 12,
      "authors": [
        {
          "authorId": "2280400285",
          "name": "Sojin Lee"
        },
        {
          "authorId": "2237955944",
          "name": "Dogyun Park"
        },
        {
          "authorId": "2287839215",
          "name": "Inho Kong"
        },
        {
          "authorId": "2261450802",
          "name": "Hyunwoo J. Kim"
        }
      ]
    }
  ]
}