{
  "total": 524,
  "offset": 0,
  "next": 10,
  "data": [
    {
      "paperId": "26a45b83eb5cf6606f9de352acdae00487e116bb",
      "externalIds": {
        "DBLP": "journals/corr/abs-1806-02679",
        "MAG": "2950716649",
        "ArXiv": "1806.02679",
        "CorpusId": 46973147
      },
      "url": "https://www.semanticscholar.org/paper/26a45b83eb5cf6606f9de352acdae00487e116bb",
      "title": "Semi-Supervised Learning via Compact Latent Space Clustering",
      "venue": "International Conference on Machine Learning",
      "year": 2018,
      "referenceCount": 35,
      "citationCount": 94,
      "authors": [
        {
          "authorId": "3371321",
          "name": "K. Kamnitsas"
        },
        {
          "authorId": "39135119",
          "name": "Daniel Coelho de Castro"
        },
        {
          "authorId": "2411551",
          "name": "Loic Le Folgoc"
        },
        {
          "authorId": "2064707066",
          "name": "Ian Walker"
        },
        {
          "authorId": "3480712",
          "name": "Ryutaro Tanno"
        },
        {
          "authorId": "1717710",
          "name": "D. Rueckert"
        },
        {
          "authorId": "1709824",
          "name": "Ben Glocker"
        },
        {
          "authorId": "1716777",
          "name": "A. Criminisi"
        },
        {
          "authorId": "34894873",
          "name": "Aditya V. Nori"
        }
      ]
    },
    {
      "paperId": "a9aac34e52a28e9f68888fc76b1e0c6cdc688dbc",
      "externalIds": {
        "ArXiv": "2603.04223",
        "CorpusId": 286238761
      },
      "url": "https://www.semanticscholar.org/paper/a9aac34e52a28e9f68888fc76b1e0c6cdc688dbc",
      "title": "Semi-Supervised Generative Learning via Latent Space Distribution Matching",
      "venue": "",
      "year": 2026,
      "referenceCount": 0,
      "citationCount": 0,
      "authors": [
        {
          "authorId": "2421822379",
          "name": "Kwong Yu Chong"
        },
        {
          "authorId": "2299502919",
          "name": "Long Feng"
        }
      ]
    },
    {
      "paperId": "5ed50bc230c9158709caf4850631bbad584d488c",
      "externalIds": {
        "DBLP": "journals/nn/TuWYK22",
        "DOI": "10.1016/j.neunet.2021.11.026",
        "CorpusId": 244808544,
        "PubMed": "34929418"
      },
      "url": "https://www.semanticscholar.org/paper/5ed50bc230c9158709caf4850631bbad584d488c",
      "title": "Deep semi-supervised learning via dynamic anchor graph embedding in latent space",
      "venue": "Neural Networks",
      "year": 2021,
      "referenceCount": 57,
      "citationCount": 20,
      "authors": [
        {
          "authorId": "2851258",
          "name": "E. Tu"
        },
        {
          "authorId": "2129735133",
          "name": "Zihao Wang"
        },
        {
          "authorId": "2146105340",
          "name": "Jie Yang"
        },
        {
          "authorId": "1686744",
          "name": "N. Kasabov"
        }
      ]
    },
    {
      "paperId": "e005d447398de3830e122ac26bcdb943dd10bcc4",
      "externalIds": {
        "ArXiv": "2501.10466",
        "CorpusId": 275757159
      },
      "url": "https://www.semanticscholar.org/paper/e005d447398de3830e122ac26bcdb943dd10bcc4",
      "title": "Efficient Semi-Supervised Adversarial Training via Latent Clustering-Based Data Reduction",
      "venue": "",
      "year": 2025,
      "referenceCount": 56,
      "citationCount": 0,
      "authors": [
        {
          "authorId": "2116088880",
          "name": "Somrita Ghosh"
        },
        {
          "authorId": "2325207045",
          "name": "Yuelin Xu"
        },
        {
          "authorId": "2325698072",
          "name": "Xiao Zhang"
        }
      ]
    },
    {
      "paperId": "c5e2d03af04cc2b1a8f2c89531c6003573bf2bee",
      "externalIds": {
        "DBLP": "journals/mva/KhanKSY25",
        "DOI": "10.1007/s00138-024-01654-9",
        "CorpusId": 275868405
      },
      "url": "https://www.semanticscholar.org/paper/c5e2d03af04cc2b1a8f2c89531c6003573bf2bee",
      "title": "End-to-end unsupervised learning of latent-space clustering for image segmentation via fully dense-UNet and fuzzy C-means loss",
      "venue": "Machine Vision and Applications",
      "year": 2025,
      "referenceCount": 50,
      "citationCount": 4,
      "authors": [
        {
          "authorId": "152329612",
          "name": "Zubair Khan"
        },
        {
          "authorId": "2341989690",
          "name": "Tehreem Khan"
        },
        {
          "authorId": "25400887",
          "name": "Mohsin Sattar"
        },
        {
          "authorId": "2288151656",
          "name": "Jie Yang"
        }
      ]
    },
    {
      "paperId": "4b59327e10d18d98abbd1e894511c3609b721757",
      "externalIds": {
        "DOI": "10.3390/math13091535",
        "CorpusId": 278411911
      },
      "url": "https://www.semanticscholar.org/paper/4b59327e10d18d98abbd1e894511c3609b721757",
      "title": "Semi-Supervised Clustering via Constraints Self-Learning",
      "venue": "Mathematics",
      "year": 2025,
      "referenceCount": 18,
      "citationCount": 2,
      "authors": [
        {
          "authorId": "2342185258",
          "name": "Xin Sun"
        }
      ]
    },
    {
      "paperId": "fe66940d9652fd41a9af5f7d301d1484fbcd4540",
      "externalIds": {
        "DBLP": "journals/tkde/ZengPLWLY25",
        "DOI": "10.1109/TKDE.2024.3486530",
        "CorpusId": 273621318
      },
      "url": "https://www.semanticscholar.org/paper/fe66940d9652fd41a9af5f7d301d1484fbcd4540",
      "title": "Scalable Semi-Supervised Clustering via Structural Entropy With Different Constraints",
      "venue": "IEEE Transactions on Knowledge and Data Engineering",
      "year": 2025,
      "referenceCount": 56,
      "citationCount": 15,
      "authors": [
        {
          "authorId": "2061248533",
          "name": "Guangjie Zeng"
        },
        {
          "authorId": "2138444320",
          "name": "Hao Peng"
        },
        {
          "authorId": "2237960041",
          "name": "Angsheng Li"
        },
        {
          "authorId": "2109176690",
          "name": "Jia Wu"
        },
        {
          "authorId": "2212098398",
          "name": "Chunyang Liu"
        },
        {
          "authorId": "2200045681",
          "name": "Phillp S. Yu"
        }
      ]
    },
    {
      "paperId": "e19a93ae246127ef0f80f72496a6633c9cf5891b",
      "externalIds": {
        "ArXiv": "2303.13556",
        "DBLP": "journals/corr/abs-2303-13556",
        "DOI": "10.1109/CVPR52729.2023.01120",
        "CorpusId": 257757076
      },
      "url": "https://www.semanticscholar.org/paper/e19a93ae246127ef0f80f72496a6633c9cf5891b",
      "title": "Protocon: Pseudo-Label Refinement via Online Clustering and Prototypical Consistency for Efficient Semi-Supervised Learning",
      "venue": "Computer Vision and Pattern Recognition",
      "year": 2023,
      "referenceCount": 48,
      "citationCount": 30,
      "authors": [
        {
          "authorId": "47257217",
          "name": "Islam Nassar"
        },
        {
          "authorId": "145684318",
          "name": "Munawar Hayat"
        },
        {
          "authorId": "8088602",
          "name": "Ehsan Abbasnejad"
        },
        {
          "authorId": "2307081678",
          "name": "Hamid Rezatofighi"
        },
        {
          "authorId": "2561045",
          "name": "Gholamreza Haffari"
        }
      ]
    },
    {
      "paperId": "88cbbf07f52f8c4c4196974b9d6b1d88b7b70baf",
      "externalIds": {
        "DBLP": "journals/corr/abs-2408-12774",
        "ArXiv": "2408.12774",
        "DOI": "10.48550/arXiv.2408.12774",
        "CorpusId": 271947130
      },
      "url": "https://www.semanticscholar.org/paper/88cbbf07f52f8c4c4196974b9d6b1d88b7b70baf",
      "title": "Semi-Supervised Variational Adversarial Active Learning via Learning to Rank and Agreement-Based Pseudo Labeling",
      "venue": "International Conference on Pattern Recognition",
      "year": 2024,
      "referenceCount": 40,
      "citationCount": 4,
      "authors": [
        {
          "authorId": "2909445",
          "name": "Zongyao Lyu"
        },
        {
          "authorId": "2122340318",
          "name": "William J. Beksi"
        }
      ]
    },
    {
      "paperId": "309cf3d5580514659e355f2cfc59c342d59a770b",
      "externalIds": {
        "DBLP": "journals/tnsm/DangZLPCG25",
        "ArXiv": "2403.10550",
        "DOI": "10.1109/TNSM.2025.3591533",
        "CorpusId": 268513173
      },
      "url": "https://www.semanticscholar.org/paper/309cf3d5580514659e355f2cfc59c342d59a770b",
      "title": "Semi-Supervised Learning for Anomaly Traffic Detection via Bidirectional Normalizing Flows",
      "venue": "IEEE Transactions on Network and Service Management",
      "year": 2024,
      "referenceCount": 63,
      "citationCount": 9,
      "authors": [
        {
          "authorId": "2188054521",
          "name": "Zhan Dang"
        },
        {
          "authorId": "2149515591",
          "name": "Yu Zheng"
        },
        {
          "authorId": "2260652360",
          "name": "Xinglin Lian"
        },
        {
          "authorId": "2299758",
          "name": "Chunlei Peng"
        },
        {
          "authorId": "152489156",
          "name": "Qiuyu Chen"
        },
        {
          "authorId": "2239964615",
          "name": "Xinbo Gao"
        }
      ]
    }
  ]
}