{
  "total": 1623,
  "offset": 0,
  "next": 10,
  "data": [
    {
      "paperId": "5da035b7ea8f18548d427dd8cc211c145ee60a15",
      "externalIds": {
        "DBLP": "conf/icml/JenattonAGS17",
        "MAG": "2741261073",
        "CorpusId": 28374524
      },
      "url": "https://www.semanticscholar.org/paper/5da035b7ea8f18548d427dd8cc211c145ee60a15",
      "title": "Bayesian Optimization with Tree-structured Dependencies",
      "venue": "International Conference on Machine Learning",
      "year": 2017,
      "referenceCount": 30,
      "citationCount": 58,
      "authors": [
        {
          "authorId": "2068720",
          "name": "Rodolphe Jenatton"
        },
        {
          "authorId": "2824663",
          "name": "C. Archambeau"
        },
        {
          "authorId": "1390665327",
          "name": "Javier I. González"
        },
        {
          "authorId": "1680574",
          "name": "M. Seeger"
        }
      ]
    },
    {
      "paperId": "1b8def34f5d298d4b472cbf7eb765e1cdf151040",
      "externalIds": {
        "CorpusId": 35470010
      },
      "url": "https://www.semanticscholar.org/paper/1b8def34f5d298d4b472cbf7eb765e1cdf151040",
      "title": "Supplementary material : Bayesian Optimization with Tree-structured Dependencies",
      "venue": "",
      "year": 2017,
      "referenceCount": 3,
      "citationCount": 0,
      "authors": [
        {
          "authorId": "2068720",
          "name": "Rodolphe Jenatton"
        },
        {
          "authorId": "2824663",
          "name": "C. Archambeau"
        },
        {
          "authorId": "1390665327",
          "name": "Javier I. González"
        },
        {
          "authorId": "1680574",
          "name": "M. Seeger"
        }
      ]
    },
    {
      "paperId": "1b431f6d3ee5504bf00f89f233da26be22480d98",
      "externalIds": {
        "MAG": "3003242248",
        "DBLP": "journals/asc/NguyenLZ20",
        "DOI": "10.1016/j.asoc.2020.106116",
        "CorpusId": 213461213
      },
      "url": "https://www.semanticscholar.org/paper/1b431f6d3ee5504bf00f89f233da26be22480d98",
      "title": "A long-term prediction approach based on long short-term memory neural networks with automatic parameter optimization by Tree-structured Parzen Estimator and applied to time-series data of NPP steam generators",
      "venue": "Applied Soft Computing",
      "year": 2020,
      "referenceCount": 116,
      "citationCount": 153,
      "authors": [
        {
          "authorId": "66842742",
          "name": "Hoang-Phuong Nguyen"
        },
        {
          "authorId": "19671508",
          "name": "Jie Liu"
        },
        {
          "authorId": "144027144",
          "name": "E. Zio"
        }
      ]
    },
    {
      "paperId": "b8c3f4be250960c5cf9856bfecdac95d1520c4ec",
      "externalIds": {
        "DBLP": "journals/eswa/TaoPLSLW24",
        "DOI": "10.1016/j.eswa.2023.121294",
        "CorpusId": 261506060
      },
      "url": "https://www.semanticscholar.org/paper/b8c3f4be250960c5cf9856bfecdac95d1520c4ec",
      "title": "Supervised contrastive representation learning with tree-structured parzen estimator Bayesian optimization for imbalanced tabular data",
      "venue": "Expert systems with applications",
      "year": 2023,
      "referenceCount": 45,
      "citationCount": 44,
      "authors": [
        {
          "authorId": "123093063",
          "name": "Shuting Tao"
        },
        {
          "authorId": "2072677041",
          "name": "Peng Peng"
        },
        {
          "authorId": "2110442506",
          "name": "Yunfei Li"
        },
        {
          "authorId": "2217508633",
          "name": "Haiyue Sun"
        },
        {
          "authorId": "2118912705",
          "name": "Qi Li"
        },
        {
          "authorId": "2154853698",
          "name": "Hongwei Wang"
        }
      ]
    },
    {
      "paperId": "8e840e12bac0b8201680a46cbf9a654eed12b09d",
      "externalIds": {
        "ArXiv": "2510.00145",
        "CorpusId": 281705768
      },
      "url": "https://www.semanticscholar.org/paper/8e840e12bac0b8201680a46cbf9a654eed12b09d",
      "title": "Approximate Quantum State Preparation with Tree-Based Bayesian Optimization Surrogates",
      "venue": "",
      "year": 2025,
      "referenceCount": 74,
      "citationCount": 0,
      "authors": [
        {
          "authorId": "2130500318",
          "name": "Nicholas S. DiBrita"
        },
        {
          "authorId": "2350763482",
          "name": "Jason Han"
        },
        {
          "authorId": "2116630228",
          "name": "Younghyun Cho"
        },
        {
          "authorId": "2384447724",
          "name": "Hengrui Luo"
        },
        {
          "authorId": "2316947695",
          "name": "Tirthak Patel"
        }
      ]
    },
    {
      "paperId": "97ab4046f1166918daa87eb69690dfca96faff1f",
      "externalIds": {
        "ArXiv": "2210.10824",
        "DBLP": "journals/corr/abs-2210-10824",
        "DOI": "10.48550/arXiv.2210.10824",
        "CorpusId": 253116521
      },
      "url": "https://www.semanticscholar.org/paper/97ab4046f1166918daa87eb69690dfca96faff1f",
      "title": "Supervised Contrastive Learning with Tree-Structured Parzen Estimator Bayesian Optimization for Imbalanced Tabular Data",
      "venue": "arXiv.org",
      "year": 2022,
      "referenceCount": 41,
      "citationCount": 2,
      "authors": [
        {
          "authorId": "123093063",
          "name": "Shuting Tao"
        },
        {
          "authorId": "2072677041",
          "name": "Peng Peng"
        },
        {
          "authorId": "2118912705",
          "name": "Qi Li"
        },
        {
          "authorId": "2154853698",
          "name": "Hongwei Wang"
        }
      ]
    },
    {
      "paperId": "196645bfb3207053c19db2be845cecbb50ca95ed",
      "externalIds": {
        "DBLP": "conf/aaai/HanAS21",
        "ArXiv": "2012.13088",
        "DOI": "10.1609/aaai.v35i9.16933",
        "CorpusId": 229371449
      },
      "url": "https://www.semanticscholar.org/paper/196645bfb3207053c19db2be845cecbb50ca95ed",
      "title": "High-Dimensional Bayesian Optimization via Tree-Structured Additive Models",
      "venue": "AAAI Conference on Artificial Intelligence",
      "year": 2020,
      "referenceCount": 62,
      "citationCount": 26,
      "authors": [
        {
          "authorId": "2056284444",
          "name": "E. Han"
        },
        {
          "authorId": "1780744231",
          "name": "Ishank Arora"
        },
        {
          "authorId": "1784491",
          "name": "J. Scarlett"
        }
      ]
    },
    {
      "paperId": "e9b5d09527204be49caa76426b046b9cbf919e25",
      "externalIds": {
        "DBLP": "journals/pami/MaB21",
        "ArXiv": "2010.03171",
        "MAG": "3091953345",
        "DOI": "10.1109/TPAMI.2020.3026019",
        "CorpusId": 221864848,
        "PubMed": "32960762"
      },
      "url": "https://www.semanticscholar.org/paper/e9b5d09527204be49caa76426b046b9cbf919e25",
      "title": "Additive Tree-Structured Conditional Parameter Spaces in Bayesian Optimization: A Novel Covariance Function and a Fast Implementation",
      "venue": "IEEE Transactions on Pattern Analysis and Machine Intelligence",
      "year": 2020,
      "referenceCount": 41,
      "citationCount": 7,
      "authors": [
        {
          "authorId": "2115761449",
          "name": "Xingchen Ma"
        },
        {
          "authorId": "1758219",
          "name": "Matthew B. Blaschko"
        }
      ]
    },
    {
      "paperId": "32df515abd9249cd03fb8a7b4057eba59ed6bb8d",
      "externalIds": {
        "MAG": "3037090520",
        "DBLP": "journals/corr/abs-2006-11771",
        "ArXiv": "2006.11771",
        "CorpusId": 219966625
      },
      "url": "https://www.semanticscholar.org/paper/32df515abd9249cd03fb8a7b4057eba59ed6bb8d",
      "title": "Additive Tree-Structured Covariance Function for Conditional Parameter Spaces in Bayesian Optimization",
      "venue": "International Conference on Artificial Intelligence and Statistics",
      "year": 2020,
      "referenceCount": 27,
      "citationCount": 8,
      "authors": [
        {
          "authorId": "2115761449",
          "name": "Xingchen Ma"
        },
        {
          "authorId": "1758219",
          "name": "Matthew B. Blaschko"
        }
      ]
    },
    {
      "paperId": "324ac49412e3ef7ef4b2229dbb11e5b48f056068",
      "externalIds": {
        "DBLP": "conf/iccad2/VargasP25",
        "DOI": "10.1109/ICCAD64771.2025.11099492",
        "CorpusId": 280539829
      },
      "url": "https://www.semanticscholar.org/paper/324ac49412e3ef7ef4b2229dbb11e5b48f056068",
      "title": "Collaborative SLAM Optimization using Tree-Structured Parzen Estimators",
      "venue": "International Conference on Computer Aided Design",
      "year": 2025,
      "referenceCount": 19,
      "citationCount": 0,
      "authors": [
        {
          "authorId": "2072471886",
          "name": "K. Vargas"
        },
        {
          "authorId": "144776928",
          "name": "Leonardo Marín"
        }
      ]
    }
  ]
}