{
  "total": 66,
  "offset": 0,
  "next": 10,
  "data": [
    {
      "paperId": "02e8535850a4d3babc2e67efd65742d09eb19f9d",
      "externalIds": {
        "DBLP": "conf/icml/HoNYBHP17",
        "MAG": "2625346603",
        "ArXiv": "1706.03883",
        "CorpusId": 30127481
      },
      "url": "https://www.semanticscholar.org/paper/02e8535850a4d3babc2e67efd65742d09eb19f9d",
      "title": "Multilevel Clustering via Wasserstein Means",
      "venue": "International Conference on Machine Learning",
      "year": 2017,
      "referenceCount": 28,
      "citationCount": 158,
      "authors": [
        {
          "authorId": "3526349",
          "name": "Nhat Ho"
        },
        {
          "authorId": "145796039",
          "name": "X. Nguyen"
        },
        {
          "authorId": "8202372",
          "name": "M. Yurochkin"
        },
        {
          "authorId": "145365341",
          "name": "H. Bui"
        },
        {
          "authorId": "143650225",
          "name": "Viet Huynh"
        },
        {
          "authorId": "1749657",
          "name": "Dinh Q. Phung"
        }
      ]
    },
    {
      "paperId": "ffd4cf106df84e4a841d7e50a920dba64bf62956",
      "externalIds": {
        "CorpusId": 43784365
      },
      "url": "https://www.semanticscholar.org/paper/ffd4cf106df84e4a841d7e50a920dba64bf62956",
      "title": "Supplementary Material for Multilevel Clustering via Wasserstein Means",
      "venue": "",
      "year": 2017,
      "referenceCount": 6,
      "citationCount": 0,
      "authors": [
        {
          "authorId": "3526349",
          "name": "Nhat Ho"
        },
        {
          "authorId": "145796039",
          "name": "X. Nguyen"
        },
        {
          "authorId": "8202372",
          "name": "M. Yurochkin"
        },
        {
          "authorId": "145365341",
          "name": "H. Bui"
        },
        {
          "authorId": "143650225",
          "name": "Viet Huynh"
        },
        {
          "authorId": "1749657",
          "name": "Dinh Q. Phung"
        }
      ]
    },
    {
      "paperId": "3abfa4e6098ce7a0c17e9e2152fbd578799b6776",
      "externalIds": {
        "DBLP": "journals/corr/abs-1909-08787",
        "MAG": "2973974546",
        "ArXiv": "1909.08787",
        "CorpusId": 202677499
      },
      "url": "https://www.semanticscholar.org/paper/3abfa4e6098ce7a0c17e9e2152fbd578799b6776",
      "title": "On Efficient Multilevel Clustering via Wasserstein Distances",
      "venue": "Journal of machine learning research",
      "year": 2019,
      "referenceCount": 42,
      "citationCount": 8,
      "authors": [
        {
          "authorId": "143650225",
          "name": "Viet Huynh"
        },
        {
          "authorId": "3526349",
          "name": "Nhat Ho"
        },
        {
          "authorId": "35520711",
          "name": "Nhan Dam"
        },
        {
          "authorId": "145796039",
          "name": "X. Nguyen"
        },
        {
          "authorId": "8202372",
          "name": "M. Yurochkin"
        },
        {
          "authorId": "145365341",
          "name": "H. Bui"
        },
        {
          "authorId": "1749657",
          "name": "Dinh Q. Phung"
        }
      ]
    },
    {
      "paperId": "0a9eb07d0fccf46304c9a1359fdadb65dec5d290",
      "externalIds": {
        "DBLP": "journals/corr/abs-2201-00087",
        "CorpusId": 245650601
      },
      "url": "https://www.semanticscholar.org/paper/0a9eb07d0fccf46304c9a1359fdadb65dec5d290",
      "title": "Dynamic Persistent Homology for Brain Networks via Wasserstein Graph Clustering",
      "venue": "arXiv.org",
      "year": 2022,
      "referenceCount": 63,
      "citationCount": 2,
      "authors": [
        {
          "authorId": "119520849",
          "name": "M. Chung"
        },
        {
          "authorId": "3089528",
          "name": "Shih-Gu Huang"
        },
        {
          "authorId": "79631147",
          "name": "Ian C. Carroll"
        },
        {
          "authorId": "2133976600",
          "name": "Vince D. Calhoun"
        },
        {
          "authorId": "143757695",
          "name": "H. Goldsmith"
        }
      ]
    },
    {
      "paperId": "8ae071159665889cbf3cbe5bc1c3710893cdd838",
      "externalIds": {
        "CorpusId": 245854118
      },
      "url": "https://www.semanticscholar.org/paper/8ae071159665889cbf3cbe5bc1c3710893cdd838",
      "title": "Dynamic Topological Data Analysis for Brain Networks via Wasserstein Graph Clustering",
      "venue": "",
      "year": 2022,
      "referenceCount": 61,
      "citationCount": 1,
      "authors": [
        {
          "authorId": "119520849",
          "name": "M. Chung"
        },
        {
          "authorId": "3089528",
          "name": "Shih-Gu Huang"
        },
        {
          "authorId": "79631147",
          "name": "Ian C. Carroll"
        },
        {
          "authorId": "2133976600",
          "name": "Vince D. Calhoun"
        },
        {
          "authorId": "2059303566",
          "name": "H. Hill"
        },
        {
          "authorId": "2226073844",
          "name": "Goldsmith"
        }
      ]
    },
    {
      "paperId": "7f31593e68cd645791200bbc0b61a1250c12f236",
      "externalIds": {
        "DBLP": "journals/corr/abs-2409-18504",
        "ArXiv": "2409.18504",
        "DOI": "10.48550/arXiv.2409.18504",
        "CorpusId": 272968852
      },
      "url": "https://www.semanticscholar.org/paper/7f31593e68cd645791200bbc0b61a1250c12f236",
      "title": "WHOMP: Optimizing Randomized Controlled Trials via Wasserstein Homogeneity",
      "venue": "arXiv.org",
      "year": 2024,
      "referenceCount": 49,
      "citationCount": 0,
      "authors": [
        {
          "authorId": "2279666490",
          "name": "Shizhou Xu"
        },
        {
          "authorId": "2274617854",
          "name": "Thomas Strohmer"
        }
      ]
    },
    {
      "paperId": "4899bfa2d2281c610ccd60797bba34468928cdb1",
      "externalIds": {
        "ArXiv": "2305.19738",
        "DBLP": "journals/corr/abs-2305-19738",
        "DOI": "10.48550/arXiv.2305.19738",
        "CorpusId": 258987714
      },
      "url": "https://www.semanticscholar.org/paper/4899bfa2d2281c610ccd60797bba34468928cdb1",
      "title": "Bures-Wasserstein Means of Graphs",
      "venue": "International Conference on Artificial Intelligence and Statistics",
      "year": 2023,
      "referenceCount": 59,
      "citationCount": 6,
      "authors": [
        {
          "authorId": "52216671",
          "name": "Isabel Haasler"
        },
        {
          "authorId": "48036489",
          "name": "P. Frossard"
        }
      ]
    },
    {
      "paperId": "ef27b661fae3abedd7172d3be207ad78aa306094",
      "externalIds": {
        "ArXiv": "2205.14104",
        "DBLP": "journals/corr/abs-2205-14104",
        "DOI": "10.48550/arXiv.2205.14104",
        "CorpusId": 249151924
      },
      "url": "https://www.semanticscholar.org/paper/ef27b661fae3abedd7172d3be207ad78aa306094",
      "title": "Efficient Forecasting of Large Scale Hierarchical Time Series via Multilevel Clustering",
      "venue": "arXiv.org",
      "year": 2022,
      "referenceCount": 39,
      "citationCount": 0,
      "authors": [
        {
          "authorId": "2110566959",
          "name": "Xing Han"
        },
        {
          "authorId": "32453998",
          "name": "Tongzheng Ren"
        },
        {
          "authorId": "2219075402",
          "name": "Jing Hu"
        },
        {
          "authorId": "2068500758",
          "name": "J. Ghosh"
        },
        {
          "authorId": "3526349",
          "name": "Nhat Ho"
        }
      ]
    },
    {
      "paperId": "81a30ba87aa3a629bad190c9d277011162f32ef1",
      "externalIds": {
        "MAG": "3108410517",
        "DBLP": "conf/iconip/LiM20a",
        "DOI": "10.1007/978-3-030-63833-7_33",
        "CorpusId": 227075990
      },
      "url": "https://www.semanticscholar.org/paper/81a30ba87aa3a629bad190c9d277011162f32ef1",
      "title": "Functional Data Clustering Analysis via the Learning of Gaussian Processes with Wasserstein Distance",
      "venue": "International Conference on Neural Information Processing",
      "year": 2020,
      "referenceCount": 23,
      "citationCount": 3,
      "authors": [
        {
          "authorId": "2149200852",
          "name": "Tao Li"
        },
        {
          "authorId": "1685259",
          "name": "Jinwen Ma"
        }
      ]
    },
    {
      "paperId": "e7b3ba7a279fec63d19cf4d4a204a7dd9bb0c3cd",
      "externalIds": {
        "DBLP": "journals/tnn/WangTGJ24",
        "DOI": "10.1109/TNNLS.2022.3213374",
        "CorpusId": 253183616,
        "PubMed": "36306291"
      },
      "url": "https://www.semanticscholar.org/paper/e7b3ba7a279fec63d19cf4d4a204a7dd9bb0c3cd",
      "title": "Multi-View Subspace Clustering via Structured Multi-Pathway Network",
      "venue": "IEEE Transactions on Neural Networks and Learning Systems",
      "year": 2022,
      "referenceCount": 42,
      "citationCount": 63,
      "authors": [
        {
          "authorId": "40326660",
          "name": "Qianqian Wang"
        },
        {
          "authorId": "6018169",
          "name": "Zhiqiang Tao"
        },
        {
          "authorId": "38469552",
          "name": "Quanxue Gao"
        },
        {
          "authorId": "2143819911",
          "name": "Licheng Jiao"
        }
      ]
    }
  ]
}