{
  "total": 1151,
  "offset": 0,
  "next": 10,
  "data": [
    {
      "paperId": "a8675e7903b1c5d56c1bdcded927724767c06061",
      "externalIds": {
        "DBLP": "conf/icml/DalalGM16",
        "MAG": "2295053999",
        "ArXiv": "1603.01840",
        "CorpusId": 15927561
      },
      "url": "https://www.semanticscholar.org/paper/a8675e7903b1c5d56c1bdcded927724767c06061",
      "title": "Hierarchical Decision Making In Electricity Grid Management",
      "venue": "International Conference on Machine Learning",
      "year": 2016,
      "referenceCount": 49,
      "citationCount": 28,
      "authors": [
        {
          "authorId": "2801905",
          "name": "Gal Dalal"
        },
        {
          "authorId": "97671489",
          "name": "E. Gilboa"
        },
        {
          "authorId": "1712535",
          "name": "Shie Mannor"
        }
      ]
    },
    {
      "paperId": "15e4422aab0567c7f7464a1aed0437e60ef9dd0c",
      "externalIds": {
        "MAG": "2493249425",
        "DOI": "10.3390/EN9080595",
        "CorpusId": 6932056
      },
      "url": "https://www.semanticscholar.org/paper/15e4422aab0567c7f7464a1aed0437e60ef9dd0c",
      "title": "An event-based resource management framework for distributed decision-making in decentralized virtual power plants",
      "venue": "",
      "year": 2016,
      "referenceCount": 34,
      "citationCount": 10,
      "authors": [
        {
          "authorId": "2108173665",
          "name": "Jianchao Zhang"
        },
        {
          "authorId": "1796201",
          "name": "Boon-Chong Seet"
        },
        {
          "authorId": "145528183",
          "name": "T. Lie"
        }
      ]
    },
    {
      "paperId": "996e12d3bb53ba54be815475e15c32a5d2a12428",
      "externalIds": {
        "MAG": "2795276745",
        "DOI": "10.1016/J.APENERGY.2018.03.072",
        "CorpusId": 49270834
      },
      "url": "https://www.semanticscholar.org/paper/996e12d3bb53ba54be815475e15c32a5d2a12428",
      "title": "A Dynamic pricing demand response algorithm for smart grid: Reinforcement learning approach",
      "venue": "Applied Energy",
      "year": 2018,
      "referenceCount": 54,
      "citationCount": 382,
      "authors": [
        {
          "authorId": "48884363",
          "name": "Renzhi Lu"
        },
        {
          "authorId": "2111500607",
          "name": "S. Hong"
        },
        {
          "authorId": "26962828",
          "name": "Xiongfeng Zhang"
        }
      ]
    },
    {
      "paperId": "55215bd6a9edd18c9380ec256d412d65395143a0",
      "externalIds": {
        "DBLP": "journals/tii/LiuGLT25",
        "DOI": "10.1109/TII.2025.3563534",
        "CorpusId": 278415718
      },
      "url": "https://www.semanticscholar.org/paper/55215bd6a9edd18c9380ec256d412d65395143a0",
      "title": "Personalized Federated Management and Load Balancing for Multiple Charging Stations",
      "venue": "IEEE Transactions on Industrial Informatics",
      "year": 2025,
      "referenceCount": 33,
      "citationCount": 6,
      "authors": [
        {
          "authorId": "2267622607",
          "name": "Jie Liu"
        },
        {
          "authorId": "2164726084",
          "name": "Yongxin Guo"
        },
        {
          "authorId": "2263698695",
          "name": "Xi Leng"
        },
        {
          "authorId": "2118487494",
          "name": "Xiaoying Tang"
        }
      ]
    },
    {
      "paperId": "2dddc34d8d32414bfd9be657fb3c550575973566",
      "externalIds": {
        "MAG": "2803425274",
        "DOI": "10.1007/s40866-018-0042-0",
        "CorpusId": 169758383
      },
      "url": "https://www.semanticscholar.org/paper/2dddc34d8d32414bfd9be657fb3c550575973566",
      "title": "Secure Automated Home Energy Management in Multi-Agent Smart Grid Architecture",
      "venue": "Technology and Economics of Smart Grids and Sustainable Energy",
      "year": 2018,
      "referenceCount": 54,
      "citationCount": 11,
      "authors": [
        {
          "authorId": "1834336",
          "name": "Hisain Elshaafi"
        },
        {
          "authorId": "3351598",
          "name": "M. Vinyals"
        },
        {
          "authorId": "153707336",
          "name": "Ivan Grimaldi"
        },
        {
          "authorId": "1721324",
          "name": "S. Davy"
        }
      ]
    },
    {
      "paperId": "0ebc5b366a2f595766a1c91408cea82add2bda42",
      "externalIds": {
        "MAG": "2588851043",
        "DOI": "10.1109/ICPEICES.2016.7853441",
        "CorpusId": 17138712
      },
      "url": "https://www.semanticscholar.org/paper/0ebc5b366a2f595766a1c91408cea82add2bda42",
      "title": "Energy Management System in Smart Grid using Internet of Things",
      "venue": "IEEE International Conference on Power Electronics, Intelligent Control and Energy Systems",
      "year": 2016,
      "referenceCount": 12,
      "citationCount": 6,
      "authors": [
        {
          "authorId": "2054116214",
          "name": "Ravikumar V. Jadhav"
        },
        {
          "authorId": "32078822",
          "name": "S. S. Lokhande"
        },
        {
          "authorId": "144520839",
          "name": "V. Gohokar"
        }
      ]
    },
    {
      "paperId": "b59d1af2ea3bee0d59c36650cfffd2769cb037d8",
      "externalIds": {
        "DOI": "10.1109/EI268505.2025.11425286",
        "CorpusId": 286505898
      },
      "url": "https://www.semanticscholar.org/paper/b59d1af2ea3bee0d59c36650cfffd2769cb037d8",
      "title": "Distributed Resource Aggregation and Cloud-Edge Collaborative Operation Optimization Method",
      "venue": "2025 IEEE 9th Conference on Energy Internet and Energy System Integration (EI2)",
      "year": 2025,
      "referenceCount": 8,
      "citationCount": 0,
      "authors": [
        {
          "authorId": "2325094106",
          "name": "Hai He"
        },
        {
          "authorId": "2283809869",
          "name": "Qian Wang"
        },
        {
          "authorId": "2394034831",
          "name": "Bin Li"
        },
        {
          "authorId": "2408341596",
          "name": "Jipeng Li"
        }
      ]
    },
    {
      "paperId": "8e1204dbe07b1eaab5cd1c23d27a751bf29ad252",
      "externalIds": {
        "DBLP": "conf/africon/MasangoJN23",
        "DOI": "10.1109/AFRICON55910.2023.10293393",
        "CorpusId": 264881687
      },
      "url": "https://www.semanticscholar.org/paper/8e1204dbe07b1eaab5cd1c23d27a751bf29ad252",
      "title": "Modeling and Analysis of Residential DC Microgrid Energy Management Using System of Systems Architecture",
      "venue": "2023 IEEE AFRICON",
      "year": 2023,
      "referenceCount": 17,
      "citationCount": 1,
      "authors": [
        {
          "authorId": "2264453942",
          "name": "Fannie Isaac Masango"
        },
        {
          "authorId": "2714669",
          "name": "J. Jordaan"
        },
        {
          "authorId": "7814080",
          "name": "A. Nnachi"
        }
      ]
    },
    {
      "paperId": "e0530056f67ffc2659c49e0c0476ac4c88ed50a3",
      "externalIds": {
        "MAG": "2981860264",
        "DOI": "10.1016/j.enconman.2019.112199",
        "CorpusId": 208749820
      },
      "url": "https://www.semanticscholar.org/paper/e0530056f67ffc2659c49e0c0476ac4c88ed50a3",
      "title": "Deep reinforcement learning–based approach for optimizing energy conversion in integrated electrical and heating system with renewable energy",
      "venue": "Energy Conversion and Management",
      "year": 2019,
      "referenceCount": 44,
      "citationCount": 121,
      "authors": [
        {
          "authorId": "103810041",
          "name": "Bin Zhang"
        },
        {
          "authorId": "2218328",
          "name": "Weihao Hu"
        },
        {
          "authorId": "46690574",
          "name": "Di Cao"
        },
        {
          "authorId": "2226703290",
          "name": "Qi Huang"
        },
        {
          "authorId": "2117037134",
          "name": "Zhe Chen"
        },
        {
          "authorId": "144595648",
          "name": "F. Blaabjerg"
        }
      ]
    },
    {
      "paperId": "187f31fee378a5416c63a9c04b8c0adc81f4f440",
      "externalIds": {
        "MAG": "1497690909",
        "DBLP": "conf/ifip6-3/DAndreaL12",
        "CorpusId": 6033542
      },
      "url": "https://www.semanticscholar.org/paper/187f31fee378a5416c63a9c04b8c0adc81f4f440",
      "title": "Computational intelligence techniques for solar photovoltaic system applications",
      "venue": "Sustainable Internet and ICT for Sustainability",
      "year": 2012,
      "referenceCount": 8,
      "citationCount": 2,
      "authors": [
        {
          "authorId": "1398683232",
          "name": "Eleonora D'Andrea"
        },
        {
          "authorId": "1680609",
          "name": "B. Lazzerini"
        }
      ]
    }
  ]
}