{
  "total": 52,
  "offset": 0,
  "next": 10,
  "data": [
    {
      "paperId": "10d4baabc4205b4d91a8ad5e9c29244714ac78df",
      "externalIds": {
        "DBLP": "journals/corr/abs-1806-05009",
        "MAG": "2951586327",
        "ArXiv": "1806.05009",
        "CorpusId": 29159613
      },
      "url": "https://www.semanticscholar.org/paper/10d4baabc4205b4d91a8ad5e9c29244714ac78df",
      "title": "Tree Edit Distance Learning via Adaptive Symbol Embeddings",
      "venue": "International Conference on Machine Learning",
      "year": 2018,
      "referenceCount": 42,
      "citationCount": 24,
      "authors": [
        {
          "authorId": "2076081",
          "name": "Benjamin Paassen"
        },
        {
          "authorId": "2158038",
          "name": "C. Gallicchio"
        },
        {
          "authorId": "41231471",
          "name": "A. Micheli"
        },
        {
          "authorId": "143684647",
          "name": "B. Hammer"
        }
      ]
    },
    {
      "paperId": "2e22c0853645df00a7469e4fdc4e5d7b1192b7c0",
      "externalIds": {
        "ArXiv": "1805.07123",
        "MAG": "2804565161",
        "DBLP": "journals/corr/abs-1805-07123",
        "CorpusId": 260495481
      },
      "url": "https://www.semanticscholar.org/paper/2e22c0853645df00a7469e4fdc4e5d7b1192b7c0",
      "title": "Tree Edit Distance Learning via Adaptive Symbol Embeddings: Supplementary Materials and Results",
      "venue": "arXiv.org",
      "year": 2018,
      "referenceCount": 3,
      "citationCount": 2,
      "authors": [
        {
          "authorId": "2076081",
          "name": "Benjamin Paassen"
        }
      ]
    },
    {
      "paperId": "05f9689124903a6c6537421a16b7a4c6b4b122d6",
      "externalIds": {
        "DBLP": "conf/cvpr/WangZYYY21",
        "ArXiv": "2011.15039",
        "MAG": "3106992896",
        "DOI": "10.1109/CVPR46437.2021.00520",
        "CorpusId": 227239093
      },
      "url": "https://www.semanticscholar.org/paper/05f9689124903a6c6537421a16b7a4c6b4b122d6",
      "title": "Combinatorial Learning of Graph Edit Distance via Dynamic Embedding",
      "venue": "Computer Vision and Pattern Recognition",
      "year": 2020,
      "referenceCount": 53,
      "citationCount": 64,
      "authors": [
        {
          "authorId": "89674661",
          "name": "Runzhong Wang"
        },
        {
          "authorId": "2028209298",
          "name": "Tianqi Zhang"
        },
        {
          "authorId": "144149597",
          "name": "Tianshu Yu"
        },
        {
          "authorId": "3063894",
          "name": "Junchi Yan"
        },
        {
          "authorId": "1795291",
          "name": "Xiaokang Yang"
        }
      ]
    },
    {
      "paperId": "db9414f755d97e4673985670db90fee1533c015b",
      "externalIds": {
        "DOI": "10.1609/aaai.v40i6.42461",
        "CorpusId": 286648752
      },
      "url": "https://www.semanticscholar.org/paper/db9414f755d97e4673985670db90fee1533c015b",
      "title": "Dual-Geometry Graph Network: Unifying Local and Global Priors for Few-Shot Learning",
      "venue": "Proceedings of the AAAI Conference on Artificial Intelligence",
      "year": 2026,
      "referenceCount": 0,
      "citationCount": 0,
      "authors": [
        {
          "authorId": "2153092218",
          "name": "Zheng Han"
        },
        {
          "authorId": "2159182559",
          "name": "Xiaobin Zhu"
        },
        {
          "authorId": "2268703654",
          "name": "Chun Yang"
        },
        {
          "authorId": "2266149935",
          "name": "Jingyan Qin"
        },
        {
          "authorId": "2265978773",
          "name": "Xu-Cheng Yin"
        }
      ]
    },
    {
      "paperId": "a738007037f4aa2e7a1d01fc408e386fe28b86da",
      "externalIds": {
        "ArXiv": "2401.00826",
        "DBLP": "journals/fcomp/WittKKL24",
        "DOI": "10.3389/fcomp.2024.1356983",
        "CorpusId": 266693183
      },
      "url": "https://www.semanticscholar.org/paper/a738007037f4aa2e7a1d01fc408e386fe28b86da",
      "title": "ILP-based resource optimization realized by quantum annealing for optical wide-area communication networks - A framework for solving combinatorial problems of a real-world application by quantum annealing",
      "venue": "Frontiers Comput. Sci.",
      "year": 2024,
      "referenceCount": 19,
      "citationCount": 6,
      "authors": [
        {
          "authorId": "2277245739",
          "name": "Arthur Witt"
        },
        {
          "authorId": "2266421163",
          "name": "Jangho Kim"
        },
        {
          "authorId": "103062112",
          "name": "C. Korber"
        },
        {
          "authorId": "2266396073",
          "name": "Thomas Luu"
        }
      ]
    },
    {
      "paperId": "0649d650553dbc9830ab1da1d3e59acd894dd07f",
      "externalIds": {
        "DOI": "10.1016/j.ijrobp.2023.06.2087",
        "CorpusId": 263289179,
        "PubMed": "37785947"
      },
      "url": "https://www.semanticscholar.org/paper/0649d650553dbc9830ab1da1d3e59acd894dd07f",
      "title": "Determining the Dosimetric Accuracy of Deep Learning-Based Fully Automated Registration-Segmentation Approach for Thoracic Cancer Organs-at-Risk Contouring.",
      "venue": "International Journal of Radiation Oncology, Biology, Physics",
      "year": 2023,
      "referenceCount": 0,
      "citationCount": 0,
      "authors": [
        {
          "authorId": "2249546141",
          "name": "C. Choi"
        },
        {
          "authorId": "2249254114",
          "name": "M. Thor"
        },
        {
          "authorId": "2249101289",
          "name": "J. Jiang"
        },
        {
          "authorId": "2249336279",
          "name": "A. Rimner"
        },
        {
          "authorId": "2249293326",
          "name": "H. Veeraraghavan"
        }
      ]
    },
    {
      "paperId": "8c0864bd9c13d6b64439fb21bd6de0a215cc6d72",
      "externalIds": {
        "MAG": "3004938199",
        "DBLP": "phd/basesearch/Ganea19",
        "CorpusId": 213448469
      },
      "url": "https://www.semanticscholar.org/paper/8c0864bd9c13d6b64439fb21bd6de0a215cc6d72",
      "title": "Non-Euclidean Neural Representation Learning of Words, Entities and Hierarchies",
      "venue": "",
      "year": 2019,
      "referenceCount": 173,
      "citationCount": 3,
      "authors": [
        {
          "authorId": "1882451",
          "name": "O. Ganea"
        }
      ]
    },
    {
      "paperId": "cb81e0e319541450204a1c39083888654ee539c0",
      "externalIds": {
        "MAG": "2787180832",
        "DBLP": "conf/icdar/JarrayaTL17",
        "DOI": "10.1109/ICDAR.2017.268",
        "CorpusId": 4703288
      },
      "url": "https://www.semanticscholar.org/paper/cb81e0e319541450204a1c39083888654ee539c0",
      "title": "Learning Structural Loss Parameters on Graph Embedding Applied on Symbolic Graphs",
      "venue": "IEEE International Conference on Document Analysis and Recognition",
      "year": 2017,
      "referenceCount": 10,
      "citationCount": 0,
      "authors": [
        {
          "authorId": "7963705",
          "name": "H. Jarraya"
        },
        {
          "authorId": "3045937",
          "name": "O. R. Terrades"
        },
        {
          "authorId": "143826881",
          "name": "J. Lladós"
        }
      ]
    },
    {
      "paperId": "10d1e95d41f2afad74a6a72241635280ffff4e70",
      "externalIds": {
        "MAG": "1571715193",
        "DBLP": "conf/gbrpr/2007",
        "DOI": "10.1007/978-3-540-72903-7",
        "CorpusId": 8046585
      },
      "url": "https://www.semanticscholar.org/paper/10d1e95d41f2afad74a6a72241635280ffff4e70",
      "title": "Graph-Based Representations in Pattern Recognition, 6th IAPR-TC-15 International Workshop, GbRPR 2007, Alicante, Spain, June 11-13, 2007, Proceedings",
      "venue": "Workshop on Graph Based Representations in Pattern Recognition",
      "year": 2007,
      "referenceCount": 0,
      "citationCount": 128,
      "authors": [
        {
          "authorId": "1737289",
          "name": "A. Torsello"
        },
        {
          "authorId": "1704343",
          "name": "Francisco Escolano"
        },
        {
          "authorId": "145094363",
          "name": "L. Brun"
        }
      ]
    },
    {
      "paperId": "3bc0c945ff49e59e0a2a3a4dff45088d0a8c73db",
      "externalIds": {
        "MAG": "403777938",
        "CorpusId": 57947409
      },
      "url": "https://www.semanticscholar.org/paper/3bc0c945ff49e59e0a2a3a4dff45088d0a8c73db",
      "title": "String processing and information retrieval : 20th International Symposium, SPIRE 2013, Jerusalem, Israel, October 7-9, 2013, proceedings",
      "venue": "",
      "year": 2013,
      "referenceCount": 0,
      "citationCount": 1,
      "authors": [
        {
          "authorId": "1779654",
          "name": "O. Kurland"
        },
        {
          "authorId": "14443304",
          "name": "Moshe Lewenstein"
        },
        {
          "authorId": "2167957",
          "name": "E. Porat"
        }
      ]
    }
  ]
}