{
  "total": 47,
  "offset": 0,
  "next": 10,
  "data": [
    {
      "paperId": "ecb365ef9b67cd5540cc4c53035a6a7bd88678f9",
      "externalIds": {
        "MAG": "2472119793",
        "DBLP": "conf/icml/GuhaMRS16",
        "CorpusId": 927435
      },
      "url": "https://www.semanticscholar.org/paper/ecb365ef9b67cd5540cc4c53035a6a7bd88678f9",
      "title": "Robust Random Cut Forest Based Anomaly Detection on Streams",
      "venue": "International Conference on Machine Learning",
      "year": 2016,
      "referenceCount": 32,
      "citationCount": 329,
      "authors": [
        {
          "authorId": "144392463",
          "name": "S. Guha"
        },
        {
          "authorId": "2248758952",
          "name": "Nina Mishra"
        },
        {
          "authorId": "2055070172",
          "name": "Gourav Roy"
        },
        {
          "authorId": "2472220",
          "name": "Okke Schrijvers"
        }
      ]
    },
    {
      "paperId": "668bab6b27d55d574e0dd2374c840033aff30b9a",
      "externalIds": {
        "CorpusId": 14609775
      },
      "url": "https://www.semanticscholar.org/paper/668bab6b27d55d574e0dd2374c840033aff30b9a",
      "title": "Robust Random Cut Forest Based Anomaly Detection On Streams A . Theorem 1 : Low Stretch Spanning Trees",
      "venue": "",
      "year": 2016,
      "referenceCount": 0,
      "citationCount": 0,
      "authors": [
        {
          "authorId": "2098214879",
          "name": "Proof Of Lemma"
        }
      ]
    },
    {
      "paperId": "2fa2c8444719d0e3c613360bc86173085ad83918",
      "externalIds": {
        "DBLP": "journals/mlc/PangCY23",
        "DOI": "10.1007/s13042-023-01890-x",
        "CorpusId": 259415608
      },
      "url": "https://www.semanticscholar.org/paper/2fa2c8444719d0e3c613360bc86173085ad83918",
      "title": "Unsupervised concept drift detection method based on robust random cut forest",
      "venue": "International Journal of Machine Learning and Cybernetics",
      "year": 2023,
      "referenceCount": 55,
      "citationCount": 6,
      "authors": [
        {
          "authorId": "2130568067",
          "name": "Zijuan Pang"
        },
        {
          "authorId": "2167198044",
          "name": "Jianming Cen"
        },
        {
          "authorId": "2000636757",
          "name": "Minglei Yi"
        }
      ]
    },
    {
      "paperId": "c1fa25c224937a6fcfd25f21729d9d7f73eac267",
      "externalIds": {
        "MAG": "2928232427",
        "DBLP": "journals/jossw/BartosMT19",
        "DOI": "10.21105/JOSS.01336",
        "CorpusId": 132046403
      },
      "url": "https://www.semanticscholar.org/paper/c1fa25c224937a6fcfd25f21729d9d7f73eac267",
      "title": "rrcf: Implementation of the Robust Random Cut Forest algorithm for anomaly detection on streams",
      "venue": "Journal of Open Source Software",
      "year": 2019,
      "referenceCount": 9,
      "citationCount": 34,
      "authors": [
        {
          "authorId": "49910017",
          "name": "M. Bartos"
        },
        {
          "authorId": "51180766",
          "name": "Abhiram Mullapudi"
        },
        {
          "authorId": "25060021",
          "name": "Sara C. Troutman"
        }
      ]
    },
    {
      "paperId": "63048cc04bcbae1970374400cb000838df1dc795",
      "externalIds": {
        "DOI": "10.1109/ICIEA65512.2025.11148963",
        "CorpusId": 281245842
      },
      "url": "https://www.semanticscholar.org/paper/63048cc04bcbae1970374400cb000838df1dc795",
      "title": "Real-Time Anomaly Detection of Precision Instruments Based on Robust Random Cut Forest",
      "venue": "2025 IEEE 20th Conference on Industrial Electronics and Applications (ICIEA)",
      "year": 2025,
      "referenceCount": 16,
      "citationCount": 0,
      "authors": [
        {
          "authorId": "2306100722",
          "name": "Yuhang Zhang"
        },
        {
          "authorId": "2238203979",
          "name": "Chunling Yang"
        },
        {
          "authorId": "2154404009",
          "name": "Yong Li"
        }
      ]
    },
    {
      "paperId": "41b58117ab468bcb8dbc9099fd022aec9b3d35fd",
      "externalIds": {
        "DOI": "10.31127/tuje.1614930",
        "CorpusId": 276902040
      },
      "url": "https://www.semanticscholar.org/paper/41b58117ab468bcb8dbc9099fd022aec9b3d35fd",
      "title": "Comparative Performance Analysis of Machine Learning Algorithms: Random Cut Forest, Robust Random Cut Forest, and Amazon Sage Maker Random Cut Forest for Intrusion Detection Systems Using the CIS IDS 2017 Dataset",
      "venue": "Turkish Journal of Engineering",
      "year": 2025,
      "referenceCount": 13,
      "citationCount": 3,
      "authors": [
        {
          "authorId": "2349373402",
          "name": "Senthilkumar Perumal"
        },
        {
          "authorId": "2349387607",
          "name": "Kumaresan Devarajan"
        }
      ]
    },
    {
      "paperId": "47ac64c4783b30810c810f9e40dad76e7ea5491b",
      "externalIds": {
        "ArXiv": "2202.01891",
        "CorpusId": 246607854
      },
      "url": "https://www.semanticscholar.org/paper/47ac64c4783b30810c810f9e40dad76e7ea5491b",
      "title": "Weighted Isolation and Random Cut Forest Algorithms for Anomaly Detection",
      "venue": "",
      "year": 2022,
      "referenceCount": 29,
      "citationCount": 2,
      "authors": [
        {
          "authorId": "2153295493",
          "name": "sijin yeom"
        },
        {
          "authorId": "2122355385",
          "name": "Jae-Hun Jung"
        }
      ]
    },
    {
      "paperId": "1608501eb78c6af5fadccadd9c4b9b16a6b3473e",
      "externalIds": {
        "DOI": "10.1109/ICEEI68459.2025.11331053",
        "CorpusId": 284919756
      },
      "url": "https://www.semanticscholar.org/paper/1608501eb78c6af5fadccadd9c4b9b16a6b3473e",
      "title": "Random Forest-Based Intrusion Detection for Zero-Day Attack Mitigation in Industrial Control Systems",
      "venue": "International Conference on Electrical Engineering and Informatics",
      "year": 2025,
      "referenceCount": 56,
      "citationCount": 0,
      "authors": [
        {
          "authorId": "2405906321",
          "name": "Abdallah Altrad"
        },
        {
          "authorId": "2226011992",
          "name": "Aakansha Soy"
        },
        {
          "authorId": "2403792650",
          "name": "Dilbar Najmutdinova"
        },
        {
          "authorId": "2302582865",
          "name": "Mahmoud Mahfuri"
        },
        {
          "authorId": "2405914454",
          "name": "Q. R. H. Al-Zoubi"
        },
        {
          "authorId": "2366831586",
          "name": "K. Sanjay"
        }
      ]
    },
    {
      "paperId": "ad0df24d62fface2034b41df9593cbee1582724d",
      "externalIds": {
        "DOI": "10.1177/03611981251332259",
        "CorpusId": 278726434
      },
      "url": "https://www.semanticscholar.org/paper/ad0df24d62fface2034b41df9593cbee1582724d",
      "title": "Headway Anomaly Detection for Lane-Based Queuing Status Classification Using Detector Presence Data: Comparative Study",
      "venue": "Transportation Research Record",
      "year": 2025,
      "referenceCount": 61,
      "citationCount": 0,
      "authors": [
        {
          "authorId": "2283522352",
          "name": "Yuhang Gu"
        },
        {
          "authorId": "2284081771",
          "name": "Saiedeh Razavi"
        },
        {
          "authorId": "2333271507",
          "name": "Hao Yang"
        }
      ]
    },
    {
      "paperId": "84b3a82903c5bd68cc0269ddcc8db164cbd170d0",
      "externalIds": {
        "DOI": "10.63900/j960ab54",
        "CorpusId": 281987925
      },
      "url": "https://www.semanticscholar.org/paper/84b3a82903c5bd68cc0269ddcc8db164cbd170d0",
      "title": "Anomaly Detection in Smart Grids Using Machine Learning: A Real-Time Streaming Approach Using Apache Kafka and Kubernetes",
      "venue": "Interdisciplinary Journal of Papua New Guinea University of Technology",
      "year": 2025,
      "referenceCount": 0,
      "citationCount": 0,
      "authors": [
        {
          "authorId": "2385020012",
          "name": "Gau Taumaku"
        },
        {
          "authorId": "2385020057",
          "name": "Ashish Kumar Luhach"
        }
      ]
    }
  ]
}