{
  "total": 735,
  "offset": 0,
  "next": 10,
  "data": [
    {
      "paperId": "e0c96907297d3acbcadabd81e1fcd9acd449fd94",
      "externalIds": {
        "MAG": "2950822063",
        "DBLP": "conf/icml/JinKL18",
        "ArXiv": "1807.08440",
        "CorpusId": 51869300
      },
      "url": "https://www.semanticscholar.org/paper/e0c96907297d3acbcadabd81e1fcd9acd449fd94",
      "title": "Network Global Testing by Counting Graphlets",
      "venue": "International Conference on Machine Learning",
      "year": 2018,
      "referenceCount": 28,
      "citationCount": 34,
      "authors": [
        {
          "authorId": "37718006",
          "name": "Jiashun Jin"
        },
        {
          "authorId": "39622714",
          "name": "Z. Ke"
        },
        {
          "authorId": "51128577",
          "name": "Shengming Luo"
        }
      ]
    },
    {
      "paperId": "2c2c94d34dfdf2dae420e82f2e3517d9e5bb1ca8",
      "externalIds": {
        "CorpusId": 53406759
      },
      "url": "https://www.semanticscholar.org/paper/2c2c94d34dfdf2dae420e82f2e3517d9e5bb1ca8",
      "title": "Supplement of “ Network Global Testing by Counting Graphlets ”",
      "venue": "",
      "year": 2018,
      "referenceCount": 2,
      "citationCount": 1,
      "authors": [
        {
          "authorId": "37718006",
          "name": "Jiashun Jin"
        },
        {
          "authorId": "39622714",
          "name": "Z. Ke"
        },
        {
          "authorId": "51128577",
          "name": "Shengming Luo"
        }
      ]
    },
    {
      "paperId": "be7b63214a4e42d1f4d904c63196ac9fd6a240f7",
      "externalIds": {
        "ArXiv": "2409.00330",
        "DBLP": "journals/corr/abs-2409-00330",
        "DOI": "10.48550/arXiv.2409.00330",
        "CorpusId": 272366615
      },
      "url": "https://www.semanticscholar.org/paper/be7b63214a4e42d1f4d904c63196ac9fd6a240f7",
      "title": "GMFL-Net: A Global Multi-geometric Feature Learning Network for Repetitive Action Counting",
      "venue": "arXiv.org",
      "year": 2024,
      "referenceCount": 69,
      "citationCount": 2,
      "authors": [
        {
          "authorId": "2152750779",
          "name": "Jun Li"
        },
        {
          "authorId": "2319355846",
          "name": "Jinying Wu"
        },
        {
          "authorId": "50444365",
          "name": "Qiming Li"
        },
        {
          "authorId": "2159714063",
          "name": "Fei Guo"
        }
      ]
    },
    {
      "paperId": "fe347e6651374571c5e41aa587e6ff6ed70c860b",
      "externalIds": {
        "DBLP": "conf/icmcs/MouLZWG25",
        "DOI": "10.1109/ICME59968.2025.11209559",
        "CorpusId": 282612735
      },
      "url": "https://www.semanticscholar.org/paper/fe347e6651374571c5e41aa587e6ff6ed70c860b",
      "title": "Enhancing Handwritten Mathematical Expression Recognition with Structure and Counting Aware Network",
      "venue": "IEEE International Conference on Multimedia and Expo",
      "year": 2025,
      "referenceCount": 23,
      "citationCount": 0,
      "authors": [
        {
          "authorId": "2389548666",
          "name": "Shiqi Mou"
        },
        {
          "authorId": "2192513308",
          "name": "Zijie Li"
        },
        {
          "authorId": "2248168398",
          "name": "Juxiang Zhou"
        },
        {
          "authorId": "2303028282",
          "name": "Jun Wang"
        },
        {
          "authorId": "2294038849",
          "name": "Jianhou Gan"
        }
      ]
    },
    {
      "paperId": "71117851b82328067ea8db45bc70f3aaaf27b4d1",
      "externalIds": {
        "PubMedCentral": "12279841",
        "DOI": "10.3389/fpls.2025.1618214",
        "CorpusId": 280078735,
        "PubMed": "40697876"
      },
      "url": "https://www.semanticscholar.org/paper/71117851b82328067ea8db45bc70f3aaaf27b4d1",
      "title": "Ta-YOLO: overcoming target blocked challenges in greenhouse tomato detection and counting",
      "venue": "Frontiers in Plant Science",
      "year": 2025,
      "referenceCount": 39,
      "citationCount": 3,
      "authors": [
        {
          "authorId": "2366207839",
          "name": "Yun Zhao"
        },
        {
          "authorId": "2353661693",
          "name": "Yijia Chen"
        },
        {
          "authorId": "2367362252",
          "name": "Xing Xu"
        },
        {
          "authorId": "2265925020",
          "name": "Yong He"
        },
        {
          "authorId": "2280062933",
          "name": "Hao Gan"
        },
        {
          "authorId": "2290559360",
          "name": "Na Wu"
        },
        {
          "authorId": "2373435372",
          "name": "Zhechen Wang"
        },
        {
          "authorId": "2399648336",
          "name": "Xi Sun"
        },
        {
          "authorId": "2372348627",
          "name": "Yali Wang"
        },
        {
          "authorId": "2372659358",
          "name": "Petr Skobelev"
        },
        {
          "authorId": "2372327104",
          "name": "Yanan Mi"
        }
      ]
    },
    {
      "paperId": "27ca906f96743aa0e501091cb4d8d781a39b2ff3",
      "externalIds": {
        "DBLP": "journals/iotj/KongHDL25",
        "DOI": "10.1109/JIOT.2025.3590643",
        "CorpusId": 280165494
      },
      "url": "https://www.semanticscholar.org/paper/27ca906f96743aa0e501091cb4d8d781a39b2ff3",
      "title": "An Adversarial Perturbation Attack Method for Crowd Counting With Scope-Restricted Perturbation and Label-Setting Adaption",
      "venue": "IEEE Internet of Things Journal",
      "year": 2025,
      "referenceCount": 37,
      "citationCount": 0,
      "authors": [
        {
          "authorId": "2237252847",
          "name": "Weihang Kong"
        },
        {
          "authorId": "2374337494",
          "name": "Linya Huang"
        },
        {
          "authorId": "2374417745",
          "name": "Yiru Du"
        },
        {
          "authorId": "2153612541",
          "name": "He Li"
        }
      ]
    },
    {
      "paperId": "f11578d0b2010186da6dd4eebc164594a57ce602",
      "externalIds": {
        "ArXiv": "2005.05776",
        "MAG": "3025252724",
        "DBLP": "conf/eccv/LiuYDWWX20",
        "DOI": "10.1007/978-3-030-58586-0_15",
        "CorpusId": 218595750
      },
      "url": "https://www.semanticscholar.org/paper/f11578d0b2010186da6dd4eebc164594a57ce602",
      "title": "Adaptive Mixture Regression Network with Local Counting Map for Crowd Counting",
      "venue": "European Conference on Computer Vision",
      "year": 2020,
      "referenceCount": 36,
      "citationCount": 129,
      "authors": [
        {
          "authorId": "2110649962",
          "name": "Xiyang Liu"
        },
        {
          "authorId": "2118579490",
          "name": "Jie Yang"
        },
        {
          "authorId": "2911928",
          "name": "Wenrui Ding"
        }
      ]
    },
    {
      "paperId": "9d2d7b9f4dc808e517083a78ae270dc4e7b42dab",
      "externalIds": {
        "DBLP": "journals/access/WangWRZS23",
        "DOI": "10.1109/ACCESS.2023.3329985",
        "CorpusId": 264992815
      },
      "url": "https://www.semanticscholar.org/paper/9d2d7b9f4dc808e517083a78ae270dc4e7b42dab",
      "title": "Transformer-Based Feature Aggregation and Stitching Network for Crowd Counting",
      "venue": "IEEE Access",
      "year": 2023,
      "referenceCount": 62,
      "citationCount": 2,
      "authors": [
        {
          "authorId": "2145042588",
          "name": "Kehao Wang"
        },
        {
          "authorId": "2265025633",
          "name": "Yuhui Wang"
        },
        {
          "authorId": "2332776837",
          "name": "Ruiqi Ren"
        },
        {
          "authorId": "2265079450",
          "name": "Han Zou"
        },
        {
          "authorId": "2265136733",
          "name": "Zhichao Shao"
        }
      ]
    },
    {
      "paperId": "9447f5403dfce492cdc9b207c16709942fce9773",
      "externalIds": {
        "DBLP": "journals/lgrs/NampallyLGRMD25",
        "DOI": "10.1109/LGRS.2025.3582085",
        "CorpusId": 279723720
      },
      "url": "https://www.semanticscholar.org/paper/9447f5403dfce492cdc9b207c16709942fce9773",
      "title": "Improved Panicle Counting With Density-Aware Sampling and Enhanced Matching",
      "venue": "IEEE Geoscience and Remote Sensing Letters",
      "year": 2025,
      "referenceCount": 31,
      "citationCount": 1,
      "authors": [
        {
          "authorId": "2260707841",
          "name": "Tejasri Nampally"
        },
        {
          "authorId": "2290137110",
          "name": "Tang Li"
        },
        {
          "authorId": "2269552644",
          "name": "Wei Guo"
        },
        {
          "authorId": "2372794245",
          "name": "P. Rajalaksmi"
        },
        {
          "authorId": "4664654",
          "name": "B. Marathi"
        },
        {
          "authorId": "2199633727",
          "name": "U. B. Desai"
        }
      ]
    },
    {
      "paperId": "6b9420a341f23f2ef4f446d720838107ffc0ac2a",
      "externalIds": {
        "PubMedCentral": "10757923",
        "DOI": "10.3389/fpls.2023.1289726",
        "CorpusId": 266405713,
        "PubMed": "38164250"
      },
      "url": "https://www.semanticscholar.org/paper/6b9420a341f23f2ef4f446d720838107ffc0ac2a",
      "title": "A lightweight network for improving wheat ears detection and counting based on YOLOv5s",
      "venue": "Frontiers in Plant Science",
      "year": 2023,
      "referenceCount": 33,
      "citationCount": 10,
      "authors": [
        {
          "authorId": "2276198747",
          "name": "Xiaojun Shen"
        },
        {
          "authorId": "2187290655",
          "name": "Chu Zhang"
        },
        {
          "authorId": "2325915444",
          "name": "Kai Liu"
        },
        {
          "authorId": "2052632350",
          "name": "Wenjie Mao"
        },
        {
          "authorId": "2275562790",
          "name": "Cheng Zhou"
        },
        {
          "authorId": "2275535816",
          "name": "Lili Yao"
        }
      ]
    }
  ]
}