{
  "total": 189,
  "offset": 0,
  "next": 10,
  "data": [
    {
      "paperId": "66021a920001bc3e6258bffe7076d647614147b7",
      "externalIds": {
        "MAG": "658020064",
        "DBLP": "conf/icml/KusnerSKW15",
        "CorpusId": 14674248
      },
      "url": "https://www.semanticscholar.org/paper/66021a920001bc3e6258bffe7076d647614147b7",
      "title": "From Word Embeddings To Document Distances",
      "venue": "International Conference on Machine Learning",
      "year": 2015,
      "referenceCount": 49,
      "citationCount": 2240,
      "authors": [
        {
          "authorId": "1940272",
          "name": "Matt J. Kusner"
        },
        {
          "authorId": "2117103358",
          "name": "Yu Sun"
        },
        {
          "authorId": "1971973",
          "name": "Nicholas I. Kolkin"
        },
        {
          "authorId": "7446832",
          "name": "Kilian Q. Weinberger"
        }
      ]
    },
    {
      "paperId": "11f3474414d9c3fe3d9f85777b3292a5b31dd6f4",
      "externalIds": {
        "DBLP": "conf/emnlp/KobayashiNY15",
        "MAG": "2250361277",
        "ACL": "D15-1232",
        "DOI": "10.18653/v1/D15-1232",
        "CorpusId": 15448388
      },
      "url": "https://www.semanticscholar.org/paper/11f3474414d9c3fe3d9f85777b3292a5b31dd6f4",
      "title": "Summarization Based on Embedding Distributions",
      "venue": "Conference on Empirical Methods in Natural Language Processing",
      "year": 2015,
      "referenceCount": 22,
      "citationCount": 75,
      "authors": [
        {
          "authorId": "145111241",
          "name": "Hayato Kobayashi"
        },
        {
          "authorId": "2494829",
          "name": "Masaki Noguchi"
        },
        {
          "authorId": "3321637",
          "name": "Taichi Yatsuka"
        }
      ]
    },
    {
      "paperId": "8286f4d4e3cca04367f6d6a8e4381e1f2800a641",
      "externalIds": {
        "DBLP": "conf/acl/VulicM15",
        "ACL": "P15-2118",
        "MAG": "2252212383",
        "DOI": "10.3115/v1/P15-2118",
        "CorpusId": 14183678
      },
      "url": "https://www.semanticscholar.org/paper/8286f4d4e3cca04367f6d6a8e4381e1f2800a641",
      "title": "Bilingual Word Embeddings from Non-Parallel Document-Aligned Data Applied to Bilingual Lexicon Induction",
      "venue": "Annual Meeting of the Association for Computational Linguistics",
      "year": 2015,
      "referenceCount": 33,
      "citationCount": 135,
      "authors": [
        {
          "authorId": "1747849",
          "name": "Ivan Vulic"
        },
        {
          "authorId": "145446752",
          "name": "Marie-Francine Moens"
        }
      ]
    },
    {
      "paperId": "cd1c60f2701ae40bf267d45078a4120a5b3a4bd2",
      "externalIds": {
        "DBLP": "journals/corr/ChenLWCC15",
        "MAG": "2962887935",
        "ArXiv": "1506.04365",
        "DOI": "10.21437/Interspeech.2015-53",
        "CorpusId": 17228784
      },
      "url": "https://www.semanticscholar.org/paper/cd1c60f2701ae40bf267d45078a4120a5b3a4bd2",
      "title": "Leveraging word embeddings for spoken document summarization",
      "venue": "Interspeech",
      "year": 2015,
      "referenceCount": 43,
      "citationCount": 12,
      "authors": [
        {
          "authorId": "145578365",
          "name": "Kuan-Yu Chen"
        },
        {
          "authorId": "2724003",
          "name": "Shih-Hung Liu"
        },
        {
          "authorId": "1710199",
          "name": "H. Wang"
        },
        {
          "authorId": "2108381400",
          "name": "Berlin Chen"
        },
        {
          "authorId": "153924342",
          "name": "Hsin-Hsi Chen"
        }
      ]
    },
    {
      "paperId": "9ba1f8b61f134d970aa460f293b666752aaf5054",
      "externalIds": {
        "MAG": "2237124108",
        "DOI": "10.2991/jimet-15.2015.98",
        "CorpusId": 55424802
      },
      "url": "https://www.semanticscholar.org/paper/9ba1f8b61f134d970aa460f293b666752aaf5054",
      "title": "Single document summarization using word and sentence embeddings",
      "venue": "",
      "year": 2015,
      "referenceCount": 13,
      "citationCount": 0,
      "authors": [
        {
          "authorId": "3393818",
          "name": "Ayana"
        }
      ]
    },
    {
      "paperId": "0911181acb57035b78eee79f205741f890732ab3",
      "externalIds": {
        "MAG": "2250590551",
        "ACL": "D15-1089",
        "DBLP": "conf/emnlp/KimRV15",
        "DOI": "10.18653/v1/D15-1089",
        "CorpusId": 8455737
      },
      "url": "https://www.semanticscholar.org/paper/0911181acb57035b78eee79f205741f890732ab3",
      "title": "Convolutional Sentence Kernel from Word Embeddings for Short Text Categorization",
      "venue": "Conference on Empirical Methods in Natural Language Processing",
      "year": 2015,
      "referenceCount": 34,
      "citationCount": 23,
      "authors": [
        {
          "authorId": "2117146552",
          "name": "Jonghoon Kim"
        },
        {
          "authorId": "3416525",
          "name": "François Rousseau"
        },
        {
          "authorId": "1690383",
          "name": "M. Vazirgiannis"
        }
      ]
    },
    {
      "paperId": "b13a3939d4a822c246bb6ace395b450b99f1d454",
      "externalIds": {
        "DBLP": "conf/acl/DasZD15",
        "MAG": "2250753706",
        "ACL": "P15-1077",
        "DOI": "10.3115/v1/P15-1077",
        "CorpusId": 14502960
      },
      "url": "https://www.semanticscholar.org/paper/b13a3939d4a822c246bb6ace395b450b99f1d454",
      "title": "Gaussian LDA for Topic Models with Word Embeddings",
      "venue": "Annual Meeting of the Association for Computational Linguistics",
      "year": 2015,
      "referenceCount": 30,
      "citationCount": 359,
      "authors": [
        {
          "authorId": "143863023",
          "name": "Rajarshi Das"
        },
        {
          "authorId": "1771307",
          "name": "M. Zaheer"
        },
        {
          "authorId": "1745899",
          "name": "Chris Dyer"
        }
      ]
    },
    {
      "paperId": "6050944a981fe98f921ed779e59a9e44e045ce3d",
      "externalIds": {
        "MAG": "2068297964",
        "DBLP": "conf/sigir/VulicM15",
        "DOI": "10.1145/2766462.2767752",
        "CorpusId": 2583305
      },
      "url": "https://www.semanticscholar.org/paper/6050944a981fe98f921ed779e59a9e44e045ce3d",
      "title": "Monolingual and Cross-Lingual Information Retrieval Models Based on (Bilingual) Word Embeddings",
      "venue": "Annual International ACM SIGIR Conference on Research and Development in Information Retrieval",
      "year": 2015,
      "referenceCount": 49,
      "citationCount": 298,
      "authors": [
        {
          "authorId": "1747849",
          "name": "Ivan Vulic"
        },
        {
          "authorId": "145446752",
          "name": "Marie-Francine Moens"
        }
      ]
    },
    {
      "paperId": "42cf161894f4b9ebb86a9109dc2af45d9eee8916",
      "externalIds": {
        "MAG": "2270593706",
        "DBLP": "conf/adcs/ZucconKBA15",
        "DOI": "10.1145/2838931.2838936",
        "CorpusId": 11236762
      },
      "url": "https://www.semanticscholar.org/paper/42cf161894f4b9ebb86a9109dc2af45d9eee8916",
      "title": "Integrating and Evaluating Neural Word Embeddings in Information Retrieval",
      "venue": "Australasian Document Computing Symposium",
      "year": 2015,
      "referenceCount": 32,
      "citationCount": 137,
      "authors": [
        {
          "authorId": "1692855",
          "name": "G. Zuccon"
        },
        {
          "authorId": "1783566",
          "name": "B. Koopman"
        },
        {
          "authorId": "1755431",
          "name": "P. Bruza"
        },
        {
          "authorId": "1716332",
          "name": "L. Azzopardi"
        }
      ]
    },
    {
      "paperId": "e6180727be1760d0d9c9a3aaa20cf05bc6a54d27",
      "externalIds": {
        "MAG": "2250385423",
        "DBLP": "conf/acl/ShiLLS15",
        "ACL": "P15-2093",
        "DOI": "10.3115/v1/P15-2093",
        "CorpusId": 17196524
      },
      "url": "https://www.semanticscholar.org/paper/e6180727be1760d0d9c9a3aaa20cf05bc6a54d27",
      "title": "Learning Cross-lingual Word Embeddings via Matrix Co-factorization",
      "venue": "Annual Meeting of the Association for Computational Linguistics",
      "year": 2015,
      "referenceCount": 34,
      "citationCount": 54,
      "authors": [
        {
          "authorId": "2929835",
          "name": "Tianze Shi"
        },
        {
          "authorId": "49293587",
          "name": "Zhiyuan Liu"
        },
        {
          "authorId": "144090485",
          "name": "Yang Liu"
        },
        {
          "authorId": "1753344",
          "name": "Maosong Sun"
        }
      ]
    }
  ]
}