{
  "total": 76,
  "offset": 0,
  "next": 10,
  "data": [
    {
      "paperId": "f014cd65428b6b7889ba28fa9d99d456de0b7fed",
      "externalIds": {
        "MAG": "2963191884",
        "DBLP": "conf/icml/CelisKS0KV18",
        "ArXiv": "1802.04023",
        "CorpusId": 3639600
      },
      "url": "https://www.semanticscholar.org/paper/f014cd65428b6b7889ba28fa9d99d456de0b7fed",
      "title": "Fair and Diverse DPP-based Data Summarization",
      "venue": "International Conference on Machine Learning",
      "year": 2018,
      "referenceCount": 37,
      "citationCount": 130,
      "authors": [
        {
          "authorId": "144776615",
          "name": "L. E. Celis"
        },
        {
          "authorId": "35604162",
          "name": "Vijay Keswani"
        },
        {
          "authorId": "3041767",
          "name": "D. Straszak"
        },
        {
          "authorId": "144576872",
          "name": "A. Deshpande"
        },
        {
          "authorId": "3237687",
          "name": "Tarun Kathuria"
        },
        {
          "authorId": "1810064",
          "name": "Nisheeth K. Vishnoi"
        }
      ]
    },
    {
      "paperId": "b2e80457ead32276e1d19a986589749cc5604152",
      "externalIds": {
        "CorpusId": 53471686
      },
      "url": "https://www.semanticscholar.org/paper/b2e80457ead32276e1d19a986589749cc5604152",
      "title": "Supplementary File for Fair and Diverse DPP-Based Data Summarization",
      "venue": "",
      "year": 2018,
      "referenceCount": 2,
      "citationCount": 0,
      "authors": []
    },
    {
      "paperId": "6a74bbec2651061d8d15062d2b6c2cb729925a60",
      "externalIds": {
        "DBLP": "journals/corr/abs-2010-07431",
        "MAG": "3100496441",
        "ArXiv": "2010.07431",
        "CorpusId": 222378456
      },
      "url": "https://www.semanticscholar.org/paper/6a74bbec2651061d8d15062d2b6c2cb729925a60",
      "title": "Fairness in Streaming Submodular Maximization: Algorithms and Hardness",
      "venue": "Neural Information Processing Systems",
      "year": 2020,
      "referenceCount": 61,
      "citationCount": 56,
      "authors": [
        {
          "authorId": "2845064",
          "name": "Marwa El Halabi"
        },
        {
          "authorId": "2063077684",
          "name": "Slobodan Mitrovi'c"
        },
        {
          "authorId": "1398893199",
          "name": "A. Norouzi-Fard"
        },
        {
          "authorId": "90777210",
          "name": "Jakab Tardos"
        },
        {
          "authorId": "2220760",
          "name": "Jakub Tarnawski"
        }
      ]
    },
    {
      "paperId": "fbebe315a7f04eeea12a76396334a15e6d3259f7",
      "externalIds": {
        "PubMedCentral": "12816676",
        "DOI": "10.1038/s41597-025-06376-9",
        "CorpusId": 283710674,
        "PubMed": "41361242"
      },
      "url": "https://www.semanticscholar.org/paper/fbebe315a7f04eeea12a76396334a15e6d3259f7",
      "title": "Towards a FAIR metadata framework for drone and uncrewed aerial vehicle data",
      "venue": "Scientific Data",
      "year": 2025,
      "referenceCount": 65,
      "citationCount": 0,
      "authors": [
        {
          "authorId": "2331812825",
          "name": "Florian J. Ellsäßer"
        },
        {
          "authorId": "2397476937",
          "name": "Alice Nikuze"
        }
      ]
    },
    {
      "paperId": "00d71f783a5703b796f23aaac4ac74d84ae291ce",
      "externalIds": {
        "DBLP": "journals/access/DasGTLSMM25",
        "DOI": "10.1109/ACCESS.2025.3551124",
        "CorpusId": 277005471
      },
      "url": "https://www.semanticscholar.org/paper/00d71f783a5703b796f23aaac4ac74d84ae291ce",
      "title": "Presenting an Order-Aware Multimodal Fusion Framework for Financial Advisory Summarization With an Exclusive Video Dataset",
      "venue": "IEEE Access",
      "year": 2025,
      "referenceCount": 58,
      "citationCount": 2,
      "authors": [
        {
          "authorId": "2226438701",
          "name": "Sarmistha Das"
        },
        {
          "authorId": "2278978885",
          "name": "Samrat Ghosh"
        },
        {
          "authorId": "2063522518",
          "name": "Abhisek Tiwari"
        },
        {
          "authorId": "2351290933",
          "name": "R. E. Zera"
        },
        {
          "authorId": "2351291602",
          "name": "Marveen Lynghoi"
        },
        {
          "authorId": "2243463123",
          "name": "Sriparna Saha"
        },
        {
          "authorId": "2350085619",
          "name": "Zak Murad"
        },
        {
          "authorId": "2351281622",
          "name": "And Alka Maurya"
        }
      ]
    },
    {
      "paperId": "dd8369699cd01ed4a476be961f6481af6276b943",
      "externalIds": {
        "PubMedCentral": "11996372",
        "DOI": "10.1101/2025.03.31.646336",
        "CorpusId": 277626020,
        "PubMed": "40236174"
      },
      "url": "https://www.semanticscholar.org/paper/dd8369699cd01ed4a476be961f6481af6276b943",
      "title": "NeSyDPP4-QSAR: A Neuro-Symbolic AI Approach for Potent DPP-4-Inhibitor Discovery in Diabetes Treatment",
      "venue": "bioRxiv",
      "year": 2025,
      "referenceCount": 38,
      "citationCount": 1,
      "authors": [
        {
          "authorId": "2333262492",
          "name": "Delower Hossain"
        },
        {
          "authorId": "2283665346",
          "name": "Ehsan Saghapour"
        },
        {
          "authorId": "2215611185",
          "name": "J. Chen"
        }
      ]
    },
    {
      "paperId": "9825afd39bae7129da3166ef836681ac59cbbe8b",
      "externalIds": {
        "MAG": "2965667081",
        "DOI": "10.1109/ITAIC.2019.8785485",
        "CorpusId": 199490574
      },
      "url": "https://www.semanticscholar.org/paper/9825afd39bae7129da3166ef836681ac59cbbe8b",
      "title": "Quality-Diversity Automatic Summarization based on Determinantal Point Processes",
      "venue": "IEEE Joint International Information Technology and Artificial Intelligence Conference",
      "year": 2019,
      "referenceCount": 12,
      "citationCount": 0,
      "authors": [
        {
          "authorId": null,
          "name": "Lei Li"
        },
        {
          "authorId": "26666493",
          "name": "Zuying Huang"
        },
        {
          "authorId": "3416160",
          "name": "Yazhao Zhang"
        }
      ]
    },
    {
      "paperId": "f28bad7ffbfc23493ca882326fb55b80883a4e6e",
      "externalIds": {
        "ArXiv": "2405.01790",
        "ACL": "2024.vardial-1.10",
        "DBLP": "journals/corr/abs-2405-01790",
        "DOI": "10.48550/arXiv.2405.01790",
        "CorpusId": 269587755
      },
      "url": "https://www.semanticscholar.org/paper/f28bad7ffbfc23493ca882326fb55b80883a4e6e",
      "title": "Understanding Position Bias Effects on Fairness in Social Multi-Document Summarization",
      "venue": "Workshop on NLP for Similar Languages, Varieties and Dialects",
      "year": 2024,
      "referenceCount": 46,
      "citationCount": 4,
      "authors": [
        {
          "authorId": "2187455240",
          "name": "Olubusayo Olabisi"
        },
        {
          "authorId": "2338894436",
          "name": "Ameeta Agrawal"
        }
      ]
    },
    {
      "paperId": "de4c7e5b7a5a4db4d28b30d3cc8df0601e18d37b",
      "externalIds": {
        "MAG": "2963569619",
        "ArXiv": "1906.00072",
        "DBLP": "conf/acl/ChoLFL19",
        "ACL": "P19-1098",
        "DOI": "10.18653/v1/p19-1098",
        "CorpusId": 173990832
      },
      "url": "https://www.semanticscholar.org/paper/de4c7e5b7a5a4db4d28b30d3cc8df0601e18d37b",
      "title": "Improving the Similarity Measure of Determinantal Point Processes for Extractive Multi-Document Summarization",
      "venue": "Annual Meeting of the Association for Computational Linguistics",
      "year": 2019,
      "referenceCount": 70,
      "citationCount": 59,
      "authors": [
        {
          "authorId": "2173531",
          "name": "Sangwoo Cho"
        },
        {
          "authorId": "50827114",
          "name": "Logan Lebanoff"
        },
        {
          "authorId": "1691260",
          "name": "H. Foroosh"
        },
        {
          "authorId": "144544919",
          "name": "Fei Liu"
        }
      ]
    },
    {
      "paperId": "bd01a0252c2053dbc3d866d3e432ee0e22f7c0ab",
      "externalIds": {
        "DBLP": "conf/wsdm/WangGTYHX0024",
        "DOI": "10.1145/3616855.3635756",
        "CorpusId": 268733821
      },
      "url": "https://www.semanticscholar.org/paper/bd01a0252c2053dbc3d866d3e432ee0e22f7c0ab",
      "title": "Follow the LIBRA: Guiding Fair Policy for Unified Impression Allocation via Adversarial Rewarding",
      "venue": "Web Search and Data Mining",
      "year": 2024,
      "referenceCount": 48,
      "citationCount": 1,
      "authors": [
        {
          "authorId": "2155610276",
          "name": "Xiaoyu Wang"
        },
        {
          "authorId": "2260832278",
          "name": "Yonghui Guo"
        },
        {
          "authorId": "2057799413",
          "name": "Bin Tan"
        },
        {
          "authorId": "1958895984",
          "name": "Tao Yang"
        },
        {
          "authorId": "2110190611",
          "name": "Dongbo Huang"
        },
        {
          "authorId": "2293766237",
          "name": "Lan Xu"
        },
        {
          "authorId": "2293995302",
          "name": "Hao Zhou"
        },
        {
          "authorId": "2300914523",
          "name": "Xiangyang Li"
        }
      ]
    }
  ]
}