{
  "total": 49,
  "offset": 0,
  "next": 10,
  "data": [
    {
      "paperId": "feb2dd7e32dbe63b606f55ea31c72f23d3f8ba06",
      "externalIds": {
        "MAG": "2469914293",
        "DBLP": "conf/icml/XieZX16",
        "ArXiv": "1711.08770",
        "CorpusId": 1247717
      },
      "url": "https://www.semanticscholar.org/paper/feb2dd7e32dbe63b606f55ea31c72f23d3f8ba06",
      "title": "Diversity-Promoting Bayesian Learning of Latent Variable Models",
      "venue": "International Conference on Machine Learning",
      "year": 2016,
      "referenceCount": 63,
      "citationCount": 33,
      "authors": [
        {
          "authorId": "40526720",
          "name": "Pengtao Xie"
        },
        {
          "authorId": "145254043",
          "name": "Jun Zhu"
        },
        {
          "authorId": "143977260",
          "name": "E. Xing"
        }
      ]
    },
    {
      "paperId": "547b97a0c812d42042def94b8421235a910eecbb",
      "externalIds": {
        "PubMedCentral": "12461221",
        "DOI": "10.1098/rsta.2024.0041",
        "CorpusId": 281521964,
        "PubMed": "40994208"
      },
      "url": "https://www.semanticscholar.org/paper/547b97a0c812d42042def94b8421235a910eecbb",
      "title": "Bayesian machine learning for inverse design of ultra-high-performance concrete",
      "venue": "Philosophical transactions. Series A, Mathematical, physical, and engineering sciences",
      "year": 2025,
      "referenceCount": 84,
      "citationCount": 1,
      "authors": [
        {
          "authorId": "152833375",
          "name": "Christopher M. Childs"
        },
        {
          "authorId": "2115637097",
          "name": "A. Miller"
        },
        {
          "authorId": "2381956002",
          "name": "Willie Neiswanger"
        },
        {
          "authorId": "2265973087",
          "name": "Barnabás Póczos"
        },
        {
          "authorId": "2136722914",
          "name": "L. Stewart"
        },
        {
          "authorId": "2381956877",
          "name": "Kimberly Kurtis"
        },
        {
          "authorId": "2283413400",
          "name": "Newell Washburn"
        }
      ]
    },
    {
      "paperId": "85b6f6b0bbeb136e998bcaccf7fba944a9314386",
      "externalIds": {
        "DOI": "10.3390/app13095224",
        "CorpusId": 258320989
      },
      "url": "https://www.semanticscholar.org/paper/85b6f6b0bbeb136e998bcaccf7fba944a9314386",
      "title": "Diversified Kernel Latent Variable Space and Multi-Objective Optimization for Selective Ensemble Learning-Based Soft Sensor",
      "venue": "Applied Sciences",
      "year": 2023,
      "referenceCount": 47,
      "citationCount": 8,
      "authors": [
        {
          "authorId": "2191049064",
          "name": "Lijun Peng"
        },
        {
          "authorId": "3240912",
          "name": "Lichen Gu"
        },
        {
          "authorId": "2206525083",
          "name": "Lin He"
        },
        {
          "authorId": "2202288411",
          "name": "Yuan Shi"
        }
      ]
    },
    {
      "paperId": "fcac3a299fcb0cdff59303039ceef00c8b3239ca",
      "externalIds": {
        "ArXiv": "2601.13419",
        "CorpusId": 284911342
      },
      "url": "https://www.semanticscholar.org/paper/fcac3a299fcb0cdff59303039ceef00c8b3239ca",
      "title": "Pathway-based Bayesian factor models for'omics data",
      "venue": "",
      "year": 2026,
      "referenceCount": 53,
      "citationCount": 1,
      "authors": [
        {
          "authorId": "2322989742",
          "name": "L. Mauri"
        },
        {
          "authorId": "2284868235",
          "name": "Federica Stolf"
        },
        {
          "authorId": "2230143809",
          "name": "Amy H. Herring"
        },
        {
          "authorId": "2277915009",
          "name": "C. Miller"
        },
        {
          "authorId": "2251908998",
          "name": "D. Dunson"
        }
      ]
    },
    {
      "paperId": "22e2fbcff0d999918d942ae53cf63feff33bbb99",
      "externalIds": {
        "PubMedCentral": "12802236",
        "DOI": "10.1186/s12905-025-04087-2",
        "CorpusId": 276283810,
        "PubMed": "41382090"
      },
      "url": "https://www.semanticscholar.org/paper/22e2fbcff0d999918d942ae53cf63feff33bbb99",
      "title": "Physical activity phenotypes in endometriosis using unsupervised learning via functional mixture models",
      "venue": "BMC Women's Health",
      "year": 2025,
      "referenceCount": 52,
      "citationCount": 2,
      "authors": [
        {
          "authorId": "2404370911",
          "name": "Bryan T. Tricoche"
        },
        {
          "authorId": "2293209823",
          "name": "Billy A. Caceres"
        },
        {
          "authorId": "2246220196",
          "name": "Leslee J. Shaw"
        },
        {
          "authorId": "2276135770",
          "name": "C. E. Garber"
        },
        {
          "authorId": "2324571000",
          "name": "S. Konigorski"
        },
        {
          "authorId": "2202804515",
          "name": "Sahiti Kolli"
        },
        {
          "authorId": "2244310854",
          "name": "Thomas J. Fuchs"
        },
        {
          "authorId": "4165543",
          "name": "I. Ensari"
        }
      ]
    },
    {
      "paperId": "0e9864c64fc079947f7fffcc648aa10269aacffd",
      "externalIds": {
        "MAG": "1612439262",
        "ArXiv": "1501.05740",
        "DBLP": "journals/corr/SundinRJC15",
        "CorpusId": 6834236
      },
      "url": "https://www.semanticscholar.org/paper/0e9864c64fc079947f7fffcc648aa10269aacffd",
      "title": "Bayesian Learning for Low-Rank matrix reconstruction",
      "venue": "arXiv.org",
      "year": 2015,
      "referenceCount": 35,
      "citationCount": 1,
      "authors": [
        {
          "authorId": "2002288",
          "name": "Martin Sundin"
        },
        {
          "authorId": "144105548",
          "name": "C. Rojas"
        },
        {
          "authorId": "40491306",
          "name": "M. Jansson"
        },
        {
          "authorId": "1681830",
          "name": "S. Chatterjee"
        }
      ]
    },
    {
      "paperId": "0519bb39f7d6e9b02103e16411edf3d50fc8470b",
      "externalIds": {
        "PubMedCentral": "11607304",
        "DOI": "10.1007/s12264-024-01224-z",
        "CorpusId": 270283830,
        "PubMed": "38842612"
      },
      "url": "https://www.semanticscholar.org/paper/0519bb39f7d6e9b02103e16411edf3d50fc8470b",
      "title": "Quantitative Expression of Latent Disease Factors in Individuals Associated with Psychopathology Dimensions and Treatment Response",
      "venue": "Neuroscience Bulletin",
      "year": 2024,
      "referenceCount": 68,
      "citationCount": 1,
      "authors": [
        {
          "authorId": "2159549927",
          "name": "Shaolin Zhao"
        },
        {
          "authorId": "2502922",
          "name": "Qian Lv"
        },
        {
          "authorId": "1726048994",
          "name": "Gecang Zhang"
        },
        {
          "authorId": "2261890829",
          "name": "Jiangtao Zhang"
        },
        {
          "authorId": "2261360590",
          "name": "Heqiu Wang"
        },
        {
          "authorId": "2225607857",
          "name": "Jianmin Zhang"
        },
        {
          "authorId": "2145319281",
          "name": "Meiyun Wang"
        },
        {
          "authorId": "2261454178",
          "name": "Zheng Wang"
        }
      ]
    },
    {
      "paperId": "1effda8ce21573ed864eadfdc7b233aac39b8fe6",
      "externalIds": {
        "DBLP": "conf/iclr/HuJEKLBM24",
        "ArXiv": "2310.04363",
        "DOI": "10.48550/arXiv.2310.04363",
        "CorpusId": 263830173
      },
      "url": "https://www.semanticscholar.org/paper/1effda8ce21573ed864eadfdc7b233aac39b8fe6",
      "title": "Amortizing intractable inference in large language models",
      "venue": "International Conference on Learning Representations",
      "year": 2023,
      "referenceCount": 96,
      "citationCount": 91,
      "authors": [
        {
          "authorId": "2157840220",
          "name": "J. Hu"
        },
        {
          "authorId": "1383135665",
          "name": "Moksh Jain"
        },
        {
          "authorId": "2326838414",
          "name": "Eric Elmoznino"
        },
        {
          "authorId": "2257024037",
          "name": "Younesse Kaddar"
        },
        {
          "authorId": "2253462182",
          "name": "Guillaume Lajoie"
        },
        {
          "authorId": "1865800402",
          "name": "Y. Bengio"
        },
        {
          "authorId": "2067020770",
          "name": "Nikolay Malkin"
        }
      ]
    },
    {
      "paperId": "50f63fdea55375036a196664f125f24f4b1a9793",
      "externalIds": {
        "DBLP": "conf/aistats/WatsonLKP021",
        "CorpusId": 233237281
      },
      "url": "https://www.semanticscholar.org/paper/50f63fdea55375036a196664f125f24f4b1a9793",
      "title": "Latent Derivative Bayesian Last Layer Networks",
      "venue": "International Conference on Artificial Intelligence and Statistics",
      "year": 2021,
      "referenceCount": 84,
      "citationCount": 40,
      "authors": [
        {
          "authorId": "31349388",
          "name": "Joe Watson"
        },
        {
          "authorId": "2026844393",
          "name": "J. Lin"
        },
        {
          "authorId": "1389560206",
          "name": "P. Klink"
        },
        {
          "authorId": "34906504",
          "name": "J. Pajarinen"
        },
        {
          "authorId": "144719340",
          "name": "J. Peters"
        }
      ]
    },
    {
      "paperId": "c639b469d5926f6f0900b0c304dd54bad3f410bd",
      "externalIds": {
        "DBLP": "journals/corr/abs-2003-06094",
        "MAG": "2998453866",
        "ArXiv": "2003.06094",
        "DOI": "10.1609/AAAI.V34I05.6488",
        "CorpusId": 212718021
      },
      "url": "https://www.semanticscholar.org/paper/c639b469d5926f6f0900b0c304dd54bad3f410bd",
      "title": "MixPoet: Diverse Poetry Generation via Learning Controllable Mixed Latent Space",
      "venue": "AAAI Conference on Artificial Intelligence",
      "year": 2020,
      "referenceCount": 40,
      "citationCount": 41,
      "authors": [
        {
          "authorId": "3393196",
          "name": "Xiaoyuan Yi"
        },
        {
          "authorId": "2112079647",
          "name": "Ruoyu Li"
        },
        {
          "authorId": "2154170623",
          "name": "Cheng Yang"
        },
        {
          "authorId": "2108769389",
          "name": "Wenhao Li"
        },
        {
          "authorId": "1753344",
          "name": "Maosong Sun"
        }
      ]
    }
  ]
}