{
  "total": 274,
  "offset": 0,
  "next": 10,
  "data": [
    {
      "paperId": "8c895e324d2b10637d83d4c1beb2303489802940",
      "externalIds": {
        "MAG": "2427465082",
        "DBLP": "conf/icml/HeidariMSVY16",
        "CorpusId": 10299145
      },
      "url": "https://www.semanticscholar.org/paper/8c895e324d2b10637d83d4c1beb2303489802940",
      "title": "Pricing a Low-regret Seller",
      "venue": "International Conference on Machine Learning",
      "year": 2016,
      "referenceCount": 29,
      "citationCount": 14,
      "authors": [
        {
          "authorId": "2253600",
          "name": "Hoda Heidari"
        },
        {
          "authorId": "145967611",
          "name": "Mohammad Mahdian"
        },
        {
          "authorId": "38473726",
          "name": "Umar Syed"
        },
        {
          "authorId": "1749789",
          "name": "Sergei Vassilvitskii"
        },
        {
          "authorId": "2859909",
          "name": "Sadra Yazdanbod"
        }
      ]
    },
    {
      "paperId": "4ccb04716eb8369fa1d61e05e5df6c3e20507a2c",
      "externalIds": {
        "DBLP": "journals/corr/abs-2501-09740",
        "ArXiv": "2501.09740",
        "DOI": "10.1145/3709025.3712217",
        "CorpusId": 275570345
      },
      "url": "https://www.semanticscholar.org/paper/4ccb04716eb8369fa1d61e05e5df6c3e20507a2c",
      "title": "Regulation of Algorithmic Collusion, Refined: Testing Pessimistic Calibrated Regret",
      "venue": "Symposium on Computer Science and Law",
      "year": 2025,
      "referenceCount": 25,
      "citationCount": 7,
      "authors": [
        {
          "authorId": "2346641",
          "name": "Jason D. Hartline"
        },
        {
          "authorId": "2392314014",
          "name": "Chang Wang"
        },
        {
          "authorId": "2281788943",
          "name": "Chenhao Zhang"
        }
      ]
    },
    {
      "paperId": "c07ab60addc5b24a7b40c6d4c37772b3485ee82c",
      "externalIds": {
        "DBLP": "conf/aistats/GolrezaeiJLM23",
        "CorpusId": 259093049
      },
      "url": "https://www.semanticscholar.org/paper/c07ab60addc5b24a7b40c6d4c37772b3485ee82c",
      "title": "Pricing against a Budget and ROI Constrained Buyer",
      "venue": "International Conference on Artificial Intelligence and Statistics",
      "year": 2023,
      "referenceCount": 41,
      "citationCount": 7,
      "authors": [
        {
          "authorId": "3280330",
          "name": "Negin Golrezaei"
        },
        {
          "authorId": "1805753",
          "name": "Patrick Jaillet"
        },
        {
          "authorId": "143965577",
          "name": "Jason Cheuk Nam Liang"
        },
        {
          "authorId": "1728881",
          "name": "V. Mirrokni"
        }
      ]
    },
    {
      "paperId": "248cc00ba62c403cb15c174478d6f5141ba57a5d",
      "externalIds": {
        "ArXiv": "2112.13254",
        "DBLP": "journals/corr/abs-2112-13254",
        "CorpusId": 245501871
      },
      "url": "https://www.semanticscholar.org/paper/248cc00ba62c403cb15c174478d6f5141ba57a5d",
      "title": "On Dynamic Pricing with Covariates",
      "venue": "arXiv.org",
      "year": 2021,
      "referenceCount": 45,
      "citationCount": 13,
      "authors": [
        {
          "authorId": "48017300",
          "name": "Hanrui Wang"
        },
        {
          "authorId": "1829856",
          "name": "K. Talluri"
        },
        {
          "authorId": "47056752",
          "name": "Xiaocheng Li"
        }
      ]
    },
    {
      "paperId": "cd1809122478751f71163931d46a09c5300c822a",
      "externalIds": {
        "MAG": "3028555727",
        "DOI": "10.2139/ssrn.3402204",
        "CorpusId": 219378258
      },
      "url": "https://www.semanticscholar.org/paper/cd1809122478751f71163931d46a09c5300c822a",
      "title": "Robust Pricing in Non-Clairvoyant Dynamic Mechanism Design",
      "venue": "Social Science Research Network",
      "year": 2019,
      "referenceCount": 0,
      "citationCount": 3,
      "authors": [
        {
          "authorId": "66357890",
          "name": "Yuan Deng"
        },
        {
          "authorId": "51909421",
          "name": "Sébastien Lahaie"
        },
        {
          "authorId": "1728881",
          "name": "V. Mirrokni"
        }
      ]
    },
    {
      "paperId": "e00e11a8b60193339351d59d18ab86ca6f524b34",
      "externalIds": {
        "MAG": "1918272210",
        "DBLP": "journals/mansci/OzerZ16",
        "DOI": "10.1287/mnsc.2014.2147",
        "CorpusId": 35607075
      },
      "url": "https://www.semanticscholar.org/paper/e00e11a8b60193339351d59d18ab86ca6f524b34",
      "title": "Markdown or Everyday Low Price? The Role of Behavioral Motives",
      "venue": "Management Sciences",
      "year": 2015,
      "referenceCount": 77,
      "citationCount": 118,
      "authors": [
        {
          "authorId": "1776228",
          "name": "Ö. Özer"
        },
        {
          "authorId": "3442847",
          "name": "Yanchong Zheng"
        }
      ]
    },
    {
      "paperId": "2afd704f267701a6ed5d84f57f214dee20dae1eb",
      "externalIds": {
        "MAG": "2114291426",
        "DOI": "10.1162/JEEA.2008.6.2-3.560",
        "CorpusId": 14824825
      },
      "url": "https://www.semanticscholar.org/paper/2afd704f267701a6ed5d84f57f214dee20dae1eb",
      "title": "Pricing Without Priors",
      "venue": "",
      "year": 2008,
      "referenceCount": 14,
      "citationCount": 149,
      "authors": [
        {
          "authorId": "2616138",
          "name": "D. Bergemann"
        },
        {
          "authorId": "1943876",
          "name": "K. Schlag"
        }
      ]
    },
    {
      "paperId": "b718f4530b85458662efb7b5afbbccdcf9b77c0a",
      "externalIds": {
        "DBLP": "conf/nips/DengLM19",
        "MAG": "2970739773",
        "CorpusId": 202770783
      },
      "url": "https://www.semanticscholar.org/paper/b718f4530b85458662efb7b5afbbccdcf9b77c0a",
      "title": "A Robust Non-Clairvoyant Dynamic Mechanism for Contextual Auctions",
      "venue": "Neural Information Processing Systems",
      "year": 2019,
      "referenceCount": 24,
      "citationCount": 14,
      "authors": [
        {
          "authorId": "66357890",
          "name": "Yuan Deng"
        },
        {
          "authorId": "51909421",
          "name": "Sébastien Lahaie"
        },
        {
          "authorId": "1728881",
          "name": "V. Mirrokni"
        }
      ]
    },
    {
      "paperId": "98652546b84cb510ef03755f8f3a1855074eb92e",
      "externalIds": {
        "DBLP": "conf/pkdd/RhuggenaathCZAK20",
        "DOI": "10.1007/978-3-030-67661-2_25",
        "CorpusId": 221595888
      },
      "url": "https://www.semanticscholar.org/paper/98652546b84cb510ef03755f8f3a1855074eb92e",
      "title": "Low-Regret Algorithms for Strategic Buyers with Unknown Valuations in Repeated Posted-Price Auctions",
      "venue": "ECML/PKDD",
      "year": 2020,
      "referenceCount": 24,
      "citationCount": 3,
      "authors": [
        {
          "authorId": "81531612",
          "name": "Jason Rhuggenaath"
        },
        {
          "authorId": "145420906",
          "name": "P. D. Costa"
        },
        {
          "authorId": "94331684",
          "name": "Yingqian"
        },
        {
          "authorId": "2146910855",
          "name": "Zhang"
        },
        {
          "authorId": "33719277",
          "name": "A. Akçay"
        },
        {
          "authorId": "1678244",
          "name": "U. Kaymak"
        }
      ]
    },
    {
      "paperId": "8815b6289b8cba0e4f00b4af66d1a07eeb21b388",
      "externalIds": {
        "CorpusId": 237309198
      },
      "url": "https://www.semanticscholar.org/paper/8815b6289b8cba0e4f00b4af66d1a07eeb21b388",
      "title": "A low-regret , di � erentially-private price individualization framework",
      "venue": "",
      "year": 2021,
      "referenceCount": 0,
      "citationCount": 0,
      "authors": [
        {
          "authorId": "2124474624",
          "name": "Samuel Oshay"
        },
        {
          "authorId": "81338045",
          "name": "Michael Kearns"
        }
      ]
    }
  ]
}