{
  "total": 275,
  "offset": 0,
  "next": 10,
  "data": [
    {
      "paperId": "a06dd6e6bebed30b1ad9b406a370ba5934bbef89",
      "externalIds": {
        "MAG": "1836483694",
        "DBLP": "conf/icml/ShethWK15",
        "CorpusId": 27577327
      },
      "url": "https://www.semanticscholar.org/paper/a06dd6e6bebed30b1ad9b406a370ba5934bbef89",
      "title": "Sparse Variational Inference for Generalized GP Models",
      "venue": "International Conference on Machine Learning",
      "year": 2015,
      "referenceCount": 0,
      "citationCount": 27,
      "authors": [
        {
          "authorId": "2607233",
          "name": "Rishit Sheth"
        },
        {
          "authorId": "49416149",
          "name": "Bernie Wang"
        },
        {
          "authorId": "1746048",
          "name": "R. Khardon"
        }
      ]
    },
    {
      "paperId": "1dde015c383a400d8d56b29a9f9536cf6602ded0",
      "externalIds": {
        "MAG": "2728803307",
        "CorpusId": 16216140
      },
      "url": "https://www.semanticscholar.org/paper/1dde015c383a400d8d56b29a9f9536cf6602ded0",
      "title": "Sparse variational inference for generalized Gaussian process models",
      "venue": "International Conference on Machine Learning",
      "year": 2015,
      "referenceCount": 27,
      "citationCount": 17,
      "authors": [
        {
          "authorId": "2607233",
          "name": "Rishit Sheth"
        },
        {
          "authorId": "49416149",
          "name": "Bernie Wang"
        },
        {
          "authorId": "1746048",
          "name": "R. Khardon"
        }
      ]
    },
    {
      "paperId": "c48277b4dee7d975e3b00afde590e6bf1f95e8e1",
      "externalIds": {
        "MAG": "2949288418",
        "ArXiv": "1810.04416",
        "DBLP": "conf/aistats/ShenHK19",
        "CorpusId": 52958791
      },
      "url": "https://www.semanticscholar.org/paper/c48277b4dee7d975e3b00afde590e6bf1f95e8e1",
      "title": "Harmonizable mixture kernels with variational Fourier features",
      "venue": "International Conference on Artificial Intelligence and Statistics",
      "year": 2018,
      "referenceCount": 38,
      "citationCount": 18,
      "authors": [
        {
          "authorId": "24069072",
          "name": "Zheyan Shen"
        },
        {
          "authorId": "34066178",
          "name": "M. Heinonen"
        },
        {
          "authorId": "1711144",
          "name": "Samuel Kaski"
        }
      ]
    },
    {
      "paperId": "a3dd5566ac5f7163bbb64417a9b5081bc4ff32f4",
      "externalIds": {
        "DBLP": "journals/cstat/YangY24",
        "DOI": "10.1007/s00180-024-01485-2",
        "CorpusId": 268701151
      },
      "url": "https://www.semanticscholar.org/paper/a3dd5566ac5f7163bbb64417a9b5081bc4ff32f4",
      "title": "A sparse estimate based on variational approximations for semiparametric generalized additive models",
      "venue": "Computational statistics (Zeitschrift)",
      "year": 2024,
      "referenceCount": 28,
      "citationCount": 2,
      "authors": [
        {
          "authorId": "2335186139",
          "name": "Fan Yang"
        },
        {
          "authorId": "2109410128",
          "name": "Yuehan Yang"
        }
      ]
    },
    {
      "paperId": "f81777d5a7b6d50a72d20aa67ce06366e031c8a4",
      "externalIds": {
        "ArXiv": "2402.17570",
        "DOI": "10.1080/26941899.2024.2383281",
        "CorpusId": 268031880
      },
      "url": "https://www.semanticscholar.org/paper/f81777d5a7b6d50a72d20aa67ce06366e031c8a4",
      "title": "Sparse Variational Contaminated Noise Gaussian Process Regression with Applications in Geomagnetic Perturbations Forecasting",
      "venue": "Data Science in Science",
      "year": 2024,
      "referenceCount": 43,
      "citationCount": 5,
      "authors": [
        {
          "authorId": "2081895406",
          "name": "Daniel Iong"
        },
        {
          "authorId": "2287835550",
          "name": "Matthew McAnear"
        },
        {
          "authorId": "2287860167",
          "name": "Yuezhou Qu"
        },
        {
          "authorId": "2121740342",
          "name": "S. Zou"
        },
        {
          "authorId": "2287922417",
          "name": "Gabor Toth"
        },
        {
          "authorId": "2144355217",
          "name": "Yang Chen"
        }
      ]
    },
    {
      "paperId": "df779eac28532d722bd302f79cfa6379a44a7c95",
      "externalIds": {
        "DBLP": "journals/corr/abs-2402-17570",
        "DOI": "10.48550/arXiv.2402.17570",
        "CorpusId": 271723287
      },
      "url": "https://www.semanticscholar.org/paper/df779eac28532d722bd302f79cfa6379a44a7c95",
      "title": "Sparse Variational Contaminated Noise Gaussian Process Regression for Forecasting Geomagnetic Perturbations",
      "venue": "arXiv.org",
      "year": 2024,
      "referenceCount": 40,
      "citationCount": 1,
      "authors": [
        {
          "authorId": "2081895406",
          "name": "Daniel Iong"
        },
        {
          "authorId": "2287835550",
          "name": "Matthew McAnear"
        },
        {
          "authorId": "2287860167",
          "name": "Yuezhou Qu"
        },
        {
          "authorId": "2121740342",
          "name": "S. Zou"
        },
        {
          "authorId": "2287922417",
          "name": "Gabor Toth"
        },
        {
          "authorId": "2144355217",
          "name": "Yang Chen"
        }
      ]
    },
    {
      "paperId": "c2e161260ed4e98e7d8dceedaf57ac2c3f26c498",
      "externalIds": {
        "DBLP": "journals/sac/LiCJA25",
        "ArXiv": "2303.05263",
        "DOI": "10.1007/s11222-025-10695-7",
        "CorpusId": 270562498
      },
      "url": "https://www.semanticscholar.org/paper/c2e161260ed4e98e7d8dceedaf57ac2c3f26c498",
      "title": "Fast post-process Bayesian inference with Variational Sparse Bayesian Quadrature",
      "venue": "Statistics and computing",
      "year": 2023,
      "referenceCount": 89,
      "citationCount": 2,
      "authors": [
        {
          "authorId": "2307396714",
          "name": "Chengkun Li"
        },
        {
          "authorId": "1417481658",
          "name": "Gr'egoire Clart'e"
        },
        {
          "authorId": "2057887655",
          "name": "Martin Jørgensen"
        },
        {
          "authorId": "49719108",
          "name": "Luigi Acerbi"
        }
      ]
    },
    {
      "paperId": "24ab1b561ce6f4729b65f88387cac6c737b5de3a",
      "externalIds": {
        "MAG": "1674372427",
        "DBLP": "conf/dagstuhl/SeegerN09",
        "ArXiv": "0810.0901",
        "CorpusId": 8424615
      },
      "url": "https://www.semanticscholar.org/paper/24ab1b561ce6f4729b65f88387cac6c737b5de3a",
      "title": "Large Scale Variational Inference and Experimental Design for Sparse Generalized Linear Models",
      "venue": "Sampling-based Optimization in the Presence of Uncertainty",
      "year": 2008,
      "referenceCount": 77,
      "citationCount": 23,
      "authors": [
        {
          "authorId": "1680574",
          "name": "M. Seeger"
        },
        {
          "authorId": "1748758",
          "name": "H. Nickisch"
        }
      ]
    },
    {
      "paperId": "401b6979654165cdb8b90002de2741ecc00ec013",
      "externalIds": {
        "DBLP": "journals/corr/abs-2601-21217",
        "ArXiv": "2601.21217",
        "DOI": "10.48550/arXiv.2601.21217",
        "CorpusId": 285140480
      },
      "url": "https://www.semanticscholar.org/paper/401b6979654165cdb8b90002de2741ecc00ec013",
      "title": "A Flexible Empirical Bayes Approach to Generalized Linear Models, with Applications to Sparse Logistic Regression",
      "venue": "arXiv.org",
      "year": 2026,
      "referenceCount": 54,
      "citationCount": 0,
      "authors": [
        {
          "authorId": "2356385866",
          "name": "Dong-Yue Xie"
        },
        {
          "authorId": "2184463318",
          "name": "Wanrong Zhu"
        },
        {
          "authorId": "2205437693",
          "name": "Matthew Stephens"
        }
      ]
    },
    {
      "paperId": "d04f7f52f89ce42f88f9071d79a55c9ef03ff40c",
      "externalIds": {
        "ArXiv": "2408.06699",
        "DOI": "10.1109/TNNLS.2026.3673350",
        "CorpusId": 271860267,
        "PubMed": "41849180"
      },
      "url": "https://www.semanticscholar.org/paper/d04f7f52f89ce42f88f9071d79a55c9ef03ff40c",
      "title": "Sparse Variational Student-t Processes for Heavy-Tailed Modeling.",
      "venue": "IEEE Transactions on Neural Networks and Learning Systems",
      "year": 2024,
      "referenceCount": 66,
      "citationCount": 0,
      "authors": [
        {
          "authorId": "2244162557",
          "name": "Jian Xu"
        },
        {
          "authorId": "2244622763",
          "name": "Delu Zeng"
        },
        {
          "authorId": "2310341385",
          "name": "John W. Paisley"
        }
      ]
    }
  ]
}