{
  "total": 178,
  "offset": 0,
  "next": 10,
  "data": [
    {
      "paperId": "d9b2cbb244a8c9afc69f7aa518c78d6a8d5aed43",
      "externalIds": {
        "ArXiv": "1701.01722",
        "MAG": "2627073818",
        "DBLP": "conf/icml/Allen-ZhuL17b",
        "CorpusId": 24125908
      },
      "url": "https://www.semanticscholar.org/paper/d9b2cbb244a8c9afc69f7aa518c78d6a8d5aed43",
      "title": "Follow the Compressed Leader: Faster Online Learning of Eigenvectors and Faster MMWU",
      "venue": "International Conference on Machine Learning",
      "year": 2017,
      "referenceCount": 38,
      "citationCount": 47,
      "authors": [
        {
          "authorId": "1388725932",
          "name": "Zeyuan Allen-Zhu"
        },
        {
          "authorId": "2110486765",
          "name": "Yuanzhi Li"
        }
      ]
    },
    {
      "paperId": "165bfb993552823c3a7d3a7418bd2d5e4800d4c7",
      "externalIds": {
        "DBLP": "conf/icml/GarberHM15",
        "MAG": "1865760297",
        "CorpusId": 10069653
      },
      "url": "https://www.semanticscholar.org/paper/165bfb993552823c3a7d3a7418bd2d5e4800d4c7",
      "title": "Online Learning of Eigenvectors",
      "venue": "International Conference on Machine Learning",
      "year": 2015,
      "referenceCount": 22,
      "citationCount": 42,
      "authors": [
        {
          "authorId": "52292717",
          "name": "D. Garber"
        },
        {
          "authorId": "34840427",
          "name": "Elad Hazan"
        },
        {
          "authorId": "1901958",
          "name": "Tengyu Ma"
        }
      ]
    },
    {
      "paperId": "fde1bfc96278c446cc1c211b7b32478a17971307",
      "externalIds": {
        "DOI": "10.1080/10511970.2024.2327330",
        "CorpusId": 268735839
      },
      "url": "https://www.semanticscholar.org/paper/fde1bfc96278c446cc1c211b7b32478a17971307",
      "title": "Learning Eigenvalues and Eigenvectors with Online YouTube Resources: A Journey in the Embodied, Proceptual-symbolic, and Formal Worlds of Mathematics",
      "venue": "PRIMUS - Problems, Resources, and issues in mathematics undergraduate studies",
      "year": 2024,
      "referenceCount": 31,
      "citationCount": 4,
      "authors": [
        {
          "authorId": "66869692",
          "name": "Farzad Radmehr"
        }
      ]
    },
    {
      "paperId": "051c2f59de0df9fb8f27cd5530760f2682669fe0",
      "externalIds": {
        "DBLP": "journals/jei/Lee21",
        "DOI": "10.1117/1.JEI.30.4.043012",
        "CorpusId": 237378313
      },
      "url": "https://www.semanticscholar.org/paper/051c2f59de0df9fb8f27cd5530760f2682669fe0",
      "title": "Fast and more accurate incremental-decremental principal component analysis algorithm for online learning of face recognition",
      "venue": "J. Electronic Imaging",
      "year": 2021,
      "referenceCount": 32,
      "citationCount": 2,
      "authors": [
        {
          "authorId": "144742427",
          "name": "Geunseop Lee"
        }
      ]
    },
    {
      "paperId": "6d9344b15bb53ed5686547e9ccc648cbe563205a",
      "externalIds": {
        "DBLP": "journals/ijet/Wang22e",
        "DOI": "10.3991/ijet.v17i11.32037",
        "CorpusId": 249492390
      },
      "url": "https://www.semanticscholar.org/paper/6d9344b15bb53ed5686547e9ccc648cbe563205a",
      "title": "Evaluation and Measurement of Student Satisfaction with Online Learning Under Integration of Teaching Resources",
      "venue": "International Journal of Emerging Technologies in Learning (iJET)",
      "year": 2022,
      "referenceCount": 0,
      "citationCount": 1,
      "authors": [
        {
          "authorId": "2108971384",
          "name": "Honglei Wang"
        }
      ]
    },
    {
      "paperId": "1b1e173f28904db3d003daa95a2f3ef4f21eb08f",
      "externalIds": {
        "MAG": "3004520804",
        "DBLP": "journals/iotj/WangLYMZHO20",
        "DOI": "10.1109/JIOT.2020.2971318",
        "CorpusId": 213880163
      },
      "url": "https://www.semanticscholar.org/paper/1b1e173f28904db3d003daa95a2f3ef4f21eb08f",
      "title": "Personalized Stride-Length Estimation Based on Active Online Learning",
      "venue": "IEEE Internet of Things Journal",
      "year": 2020,
      "referenceCount": 38,
      "citationCount": 37,
      "authors": [
        {
          "authorId": "30698546",
          "name": "Qu Wang (王曲）"
        },
        {
          "authorId": "34288367",
          "name": "Haiyong Luo"
        },
        {
          "authorId": "79304728",
          "name": "L. Ye"
        },
        {
          "authorId": "1736046",
          "name": "Aidong Men"
        },
        {
          "authorId": "49372796",
          "name": "Fang Zhao"
        },
        {
          "authorId": "11833179",
          "name": "Y. Huang"
        },
        {
          "authorId": "2064188282",
          "name": "Changhai Ou"
        }
      ]
    },
    {
      "paperId": "05cde039d7f030d27f2168490a3cb64e52a8ce24",
      "externalIds": {
        "DBLP": "conf/eusipco/CaiKCCR20",
        "DOI": "10.23919/Eusipco47968.2020.9287345",
        "CorpusId": 229358065
      },
      "url": "https://www.semanticscholar.org/paper/05cde039d7f030d27f2168490a3cb64e52a8ce24",
      "title": "Online Dominant Generalized Eigenvectors Extraction Via A Randomized Method",
      "venue": "European Signal Processing Conference",
      "year": 2021,
      "referenceCount": 28,
      "citationCount": 4,
      "authors": [
        {
          "authorId": "2040433760",
          "name": "Haoyuan Cai"
        },
        {
          "authorId": "144659825",
          "name": "M. Kaloorazi"
        },
        {
          "authorId": "40445654",
          "name": "Jie Chen"
        },
        {
          "authorId": "2154940812",
          "name": "Wei Chen"
        },
        {
          "authorId": "145664777",
          "name": "C. Richard"
        }
      ]
    },
    {
      "paperId": "bc5c077016132a4f8430695f18182dc55845d1b9",
      "externalIds": {
        "MAG": "2789599845",
        "DBLP": "journals/nn/IkedaHHM18",
        "DOI": "10.1016/j.neunet.2018.02.009",
        "CorpusId": 3769236,
        "PubMed": "29524764"
      },
      "url": "https://www.semanticscholar.org/paper/bc5c077016132a4f8430695f18182dc55845d1b9",
      "title": "Non-monotonic convergence of online learning algorithms for perceptrons with noisy teacher",
      "venue": "Neural Networks",
      "year": 2018,
      "referenceCount": 10,
      "citationCount": 0,
      "authors": [
        {
          "authorId": "49230982",
          "name": "K. Ikeda"
        },
        {
          "authorId": "4800886",
          "name": "Arata Honda"
        },
        {
          "authorId": "32215180",
          "name": "Hiroaki Hanzawa"
        },
        {
          "authorId": "36733551",
          "name": "S. Miyoshi"
        }
      ]
    },
    {
      "paperId": "634a55cc3a8c5e9c9a908ab2682dd9cc250c6f3c",
      "externalIds": {
        "DBLP": "conf/cimca/KimuraOA05",
        "MAG": "2107275435",
        "DOI": "10.1109/CIMCA.2005.1631328",
        "CorpusId": 12166703
      },
      "url": "https://www.semanticscholar.org/paper/634a55cc3a8c5e9c9a908ab2682dd9cc250c6f3c",
      "title": "Incremental Kernel PCA for Online Learning of Feature Space",
      "venue": "International Conference on Computational Intelligence for Modelling, Control and Automation and International Conference on Intelligent Agents, Web Technologies and Internet Commerce (CIMCA-IAWTIC'06)",
      "year": 2005,
      "referenceCount": 8,
      "citationCount": 9,
      "authors": [
        {
          "authorId": "48404468",
          "name": "Shosuke Kimura"
        },
        {
          "authorId": "1704547",
          "name": "S. Ozawa"
        },
        {
          "authorId": "40089429",
          "name": "S. Abe"
        }
      ]
    },
    {
      "paperId": "c651188fb5fec1b2d231b3b1eb01e7e04105da31",
      "externalIds": {
        "DBLP": "conf/cdc/GusrialdiCQ18",
        "MAG": "2912387227",
        "DOI": "10.1109/CDC.2018.8618949",
        "CorpusId": 58672131
      },
      "url": "https://www.semanticscholar.org/paper/c651188fb5fec1b2d231b3b1eb01e7e04105da31",
      "title": "Distributed Learning of Mode Shapes in Power System Models",
      "venue": "IEEE Conference on Decision and Control",
      "year": 2018,
      "referenceCount": 10,
      "citationCount": 7,
      "authors": [
        {
          "authorId": "2428537",
          "name": "Azwirman Gusrialdi"
        },
        {
          "authorId": "1759215",
          "name": "A. Chakrabortty"
        },
        {
          "authorId": "145850537",
          "name": "Z. Qu"
        }
      ]
    }
  ]
}