{
  "total": 15321,
  "offset": 0,
  "next": 10,
  "data": [
    {
      "paperId": "bc6a0690c1236e1e89d239a6b2731debd4637c05",
      "externalIds": {
        "DBLP": "conf/icml/ChangCCCSD17",
        "MAG": "2740508732",
        "CorpusId": 10665570
      },
      "url": "https://www.semanticscholar.org/paper/bc6a0690c1236e1e89d239a6b2731debd4637c05",
      "title": "Multiple Clustering Views from Multiple Uncertain Experts",
      "venue": "International Conference on Machine Learning",
      "year": 2017,
      "referenceCount": 25,
      "citationCount": 11,
      "authors": [
        {
          "authorId": "3432685",
          "name": "Yale Chang"
        },
        {
          "authorId": "1808445",
          "name": "Junxiang Chen"
        },
        {
          "authorId": "2140598",
          "name": "M. Cho"
        },
        {
          "authorId": "35190471",
          "name": "P. Castaldi"
        },
        {
          "authorId": "9875892",
          "name": "E. Silverman"
        },
        {
          "authorId": "144729179",
          "name": "Jennifer G. Dy"
        }
      ]
    },
    {
      "paperId": "2575c96f68f8731d0195f8bcdac2e221cee1a9e3",
      "externalIds": {
        "CorpusId": 19644776
      },
      "url": "https://www.semanticscholar.org/paper/2575c96f68f8731d0195f8bcdac2e221cee1a9e3",
      "title": "Supplementary Material : Multiple Clustering Views from Multiple Uncertain Experts",
      "venue": "",
      "year": 2017,
      "referenceCount": 8,
      "citationCount": 0,
      "authors": [
        {
          "authorId": "3432685",
          "name": "Yale Chang"
        },
        {
          "authorId": "1808445",
          "name": "Junxiang Chen"
        },
        {
          "authorId": "2140598",
          "name": "M. Cho"
        },
        {
          "authorId": "35190471",
          "name": "P. Castaldi"
        },
        {
          "authorId": "9875892",
          "name": "E. Silverman"
        },
        {
          "authorId": "144729179",
          "name": "Jennifer G. Dy"
        }
      ]
    },
    {
      "paperId": "d6e42d5d0d9e1713ec16ab1ad3af3f0307deb375",
      "externalIds": {
        "DBLP": "conf/aistats/ChangCCCSD17",
        "MAG": "2626160437",
        "CorpusId": 2807255
      },
      "url": "https://www.semanticscholar.org/paper/d6e42d5d0d9e1713ec16ab1ad3af3f0307deb375",
      "title": "Clustering from Multiple Uncertain Experts",
      "venue": "International Conference on Artificial Intelligence and Statistics",
      "year": 2017,
      "referenceCount": 22,
      "citationCount": 3,
      "authors": [
        {
          "authorId": "3432685",
          "name": "Yale Chang"
        },
        {
          "authorId": "1808445",
          "name": "Junxiang Chen"
        },
        {
          "authorId": "2140598",
          "name": "M. Cho"
        },
        {
          "authorId": "35190471",
          "name": "P. Castaldi"
        },
        {
          "authorId": "9875892",
          "name": "E. Silverman"
        },
        {
          "authorId": "144729179",
          "name": "Jennifer G. Dy"
        }
      ]
    },
    {
      "paperId": "1626353dc9f8f642546cdffdd3ee4d125f18b3b3",
      "externalIds": {
        "MAG": "3108588766",
        "DBLP": "journals/soco/AgrebiA21",
        "DOI": "10.1007/s00500-020-05461-y",
        "CorpusId": 229478714
      },
      "url": "https://www.semanticscholar.org/paper/1626353dc9f8f642546cdffdd3ee4d125f18b3b3",
      "title": "Decision-making from multiple uncertain experts: case of distribution center location selection",
      "venue": "Soft Computing - A Fusion of Foundations, Methodologies and Applications",
      "year": 2020,
      "referenceCount": 85,
      "citationCount": 32,
      "authors": [
        {
          "authorId": "2075008",
          "name": "Maroi Agrebi"
        },
        {
          "authorId": "1993353",
          "name": "M. Abed"
        }
      ]
    },
    {
      "paperId": "b623d2005e94cbbc0320e21b5239d22792adabc8",
      "externalIds": {
        "DBLP": "conf/aaai/0001C0WN25",
        "DOI": "10.1609/aaai.v39i21.34430",
        "CorpusId": 277758043
      },
      "url": "https://www.semanticscholar.org/paper/b623d2005e94cbbc0320e21b5239d22792adabc8",
      "title": "Mixture of Experts as Representation Learner for Deep Multi-View Clustering",
      "venue": "AAAI Conference on Artificial Intelligence",
      "year": 2025,
      "referenceCount": 0,
      "citationCount": 14,
      "authors": [
        {
          "authorId": "2256995823",
          "name": "Yunhe Zhang"
        },
        {
          "authorId": "151474661",
          "name": "Jinyu Cai"
        },
        {
          "authorId": "2313736388",
          "name": "Zhihao Wu"
        },
        {
          "authorId": "2355229575",
          "name": "Pengyang Wang"
        },
        {
          "authorId": "2284830821",
          "name": "See-Kiong Ng"
        }
      ]
    },
    {
      "paperId": "6cdc510433caa30b82370c39b3deef168d53e599",
      "externalIds": {
        "DBLP": "journals/corr/abs-2209-11927",
        "ArXiv": "2209.11927",
        "DOI": "10.1049/cvi2.12147",
        "CorpusId": 252532166
      },
      "url": "https://www.semanticscholar.org/paper/6cdc510433caa30b82370c39b3deef168d53e599",
      "title": "Self-supervised Image Clustering from Multiple Incomplete Views via Constrastive Complementary Generation",
      "venue": "IET Computer Vision",
      "year": 2022,
      "referenceCount": 27,
      "citationCount": 15,
      "authors": [
        {
          "authorId": "2186275686",
          "name": "Jiatai Wang"
        },
        {
          "authorId": "2136441731",
          "name": "Zhiwei Xu"
        },
        {
          "authorId": "2145180741",
          "name": "Xuewen Yang"
        },
        {
          "authorId": "9078324",
          "name": "Dongjin Guo"
        },
        {
          "authorId": "2109337392",
          "name": "Limin Liu"
        }
      ]
    },
    {
      "paperId": "90b99f1c12716fd667e92aa170c5fb2702b11c64",
      "externalIds": {
        "PubMedCentral": "9940688",
        "DOI": "10.1038/s41598-023-29600-1",
        "CorpusId": 257024085,
        "PubMed": "36806209"
      },
      "url": "https://www.semanticscholar.org/paper/90b99f1c12716fd667e92aa170c5fb2702b11c64",
      "title": "Insect recognition based on complementary features from multiple views",
      "venue": "Scientific Reports",
      "year": 2023,
      "referenceCount": 62,
      "citationCount": 24,
      "authors": [
        {
          "authorId": "27212564",
          "name": "Jingmin An"
        },
        {
          "authorId": "2111867908",
          "name": "Yong Du"
        },
        {
          "authorId": "2208264092",
          "name": "Peng Hong"
        },
        {
          "authorId": "2152831821",
          "name": "Lei Zhang"
        },
        {
          "authorId": "2190119283",
          "name": "Xiaogang Weng"
        }
      ]
    },
    {
      "paperId": "7e49046ad5a69d15d75cc9b8136f581f6be4a247",
      "externalIds": {
        "DBLP": "conf/sdm/ZhangL11",
        "MAG": "2395581513",
        "DOI": "10.1137/1.9781611972818.79",
        "CorpusId": 432413
      },
      "url": "https://www.semanticscholar.org/paper/7e49046ad5a69d15d75cc9b8136f581f6be4a247",
      "title": "Extending Consensus Clustering to Explore Multiple Clustering Views",
      "venue": "SDM",
      "year": 2011,
      "referenceCount": 39,
      "citationCount": 14,
      "authors": [
        {
          "authorId": "2153912136",
          "name": "Yi Zhang"
        },
        {
          "authorId": "47268576",
          "name": "Tao Li"
        }
      ]
    },
    {
      "paperId": "e7822ed7018c79732e63b063139abdd1be4b9e2f",
      "externalIds": {
        "DBLP": "conf/wacv/YuRG24",
        "DOI": "10.1109/WACV57701.2024.00236",
        "CorpusId": 267261120
      },
      "url": "https://www.semanticscholar.org/paper/e7822ed7018c79732e63b063139abdd1be4b9e2f",
      "title": "Evolve: Enhancing Unsupervised Continual Learning with Multiple Experts",
      "venue": "IEEE Workshop/Winter Conference on Applications of Computer Vision",
      "year": 2024,
      "referenceCount": 97,
      "citationCount": 11,
      "authors": [
        {
          "authorId": "2276527794",
          "name": "Xiaofan Yu"
        },
        {
          "authorId": "2268682077",
          "name": "Tajana Simunic"
        },
        {
          "authorId": "2260849903",
          "name": "Yunhui Guo"
        }
      ]
    },
    {
      "paperId": "e671c6bd2c8c51f72adad9efecc3f5d3255222e0",
      "externalIds": {
        "DOI": "10.1515/bejte-2020-0171",
        "CorpusId": 209351040
      },
      "url": "https://www.semanticscholar.org/paper/e671c6bd2c8c51f72adad9efecc3f5d3255222e0",
      "title": "Cheap Talk with Multiple Experts and Uncertain Biases",
      "venue": "The B.E. Journal of Theoretical Economics",
      "year": 2021,
      "referenceCount": 29,
      "citationCount": 3,
      "authors": [
        {
          "authorId": "121318723",
          "name": "Gülen Karakoç"
        }
      ]
    }
  ]
}