{
  "total": 26,
  "offset": 0,
  "next": 10,
  "data": [
    {
      "paperId": "760a2ef68eb08aad617e4f9d569684d020e48427",
      "externalIds": {
        "MAG": "2949612112",
        "DBLP": "journals/corr/GarberH14",
        "ArXiv": "1406.1305",
        "CorpusId": 1484979
      },
      "url": "https://www.semanticscholar.org/paper/760a2ef68eb08aad617e4f9d569684d020e48427",
      "title": "Faster Rates for the Frank-Wolfe Method over Strongly-Convex Sets",
      "venue": "International Conference on Machine Learning",
      "year": 2014,
      "referenceCount": 25,
      "citationCount": 203,
      "authors": [
        {
          "authorId": "52292717",
          "name": "D. Garber"
        },
        {
          "authorId": "34840427",
          "name": "Elad Hazan"
        }
      ]
    },
    {
      "paperId": "ec5402cd3aaf0499a50546bac8f73db4efb9bbd1",
      "externalIds": {
        "MAG": "3019504987",
        "ArXiv": "2004.11053",
        "CorpusId": 216080705
      },
      "url": "https://www.semanticscholar.org/paper/ec5402cd3aaf0499a50546bac8f73db4efb9bbd1",
      "title": "Frank-Wolfe on Uniformly Convex Sets",
      "venue": "",
      "year": 2020,
      "referenceCount": 60,
      "citationCount": 3,
      "authors": [
        {
          "authorId": "40900821",
          "name": "Thomas Kerdreux"
        },
        {
          "authorId": "1387902104",
          "name": "A. d'Aspremont"
        }
      ]
    },
    {
      "paperId": "9fda857992a6342e2599c542f1f3ec341f95cba5",
      "externalIds": {
        "MAG": "2957939949",
        "CorpusId": 199130814
      },
      "url": "https://www.semanticscholar.org/paper/9fda857992a6342e2599c542f1f3ec341f95cba5",
      "title": "Convergence analysis and active set complexity for some FW variants",
      "venue": "",
      "year": 2019,
      "referenceCount": 0,
      "citationCount": 0,
      "authors": [
        {
          "authorId": "151429814",
          "name": "D. Zeffiro"
        }
      ]
    },
    {
      "paperId": "7500040f352da47af7c2eb180caa235fbc94cf46",
      "externalIds": {
        "ArXiv": "2602.04378",
        "CorpusId": 285285629
      },
      "url": "https://www.semanticscholar.org/paper/7500040f352da47af7c2eb180caa235fbc94cf46",
      "title": "Lower Bounds for Frank-Wolfe on Strongly Convex Sets",
      "venue": "",
      "year": 2026,
      "referenceCount": 22,
      "citationCount": 2,
      "authors": [
        {
          "authorId": "2342283692",
          "name": "Jannis Halbey"
        },
        {
          "authorId": "2268158838",
          "name": "D. Deza"
        },
        {
          "authorId": "2056708985",
          "name": "Max Zimmer"
        },
        {
          "authorId": "2069598408",
          "name": "Christophe Roux"
        },
        {
          "authorId": "8386952",
          "name": "Bartolomeo Stellato"
        },
        {
          "authorId": "145729210",
          "name": "S. Pokutta"
        }
      ]
    },
    {
      "paperId": "39c381859e2df2b71669f23786bc1904c8c37662",
      "externalIds": {
        "ArXiv": "2509.24279",
        "CorpusId": 281676262
      },
      "url": "https://www.semanticscholar.org/paper/39c381859e2df2b71669f23786bc1904c8c37662",
      "title": "Simplex Frank-Wolfe: Linear Convergence and Its Numerical Efficiency for Convex Optimization over Polytopes",
      "venue": "",
      "year": 2025,
      "referenceCount": 35,
      "citationCount": 0,
      "authors": [
        {
          "authorId": "2321032098",
          "name": "Haoning Wang"
        },
        {
          "authorId": "2192914247",
          "name": "Hou-Duo Qi"
        },
        {
          "authorId": "2290028849",
          "name": "Liping Zhang"
        }
      ]
    },
    {
      "paperId": "8bfe22ae50199da947e48c4659adc6e4c3176fbf",
      "externalIds": {
        "DBLP": "conf/acssc/FrancisC22",
        "DOI": "10.1109/IEEECONF56349.2022.10051910",
        "CorpusId": 257408471
      },
      "url": "https://www.semanticscholar.org/paper/8bfe22ae50199da947e48c4659adc6e4c3176fbf",
      "title": "Speeding up the Frank-Wolfe method using the Orthogonal Jacobi polynomials",
      "venue": "Asilomar Conference on Signals, Systems and Computers",
      "year": 2022,
      "referenceCount": 19,
      "citationCount": 3,
      "authors": [
        {
          "authorId": "2188274433",
          "name": "Robin Francis"
        },
        {
          "authorId": "1783510",
          "name": "S. Chepuri"
        }
      ]
    },
    {
      "paperId": "185026f2627bcf1f09fa03b6066d73dbadbfe2da",
      "externalIds": {
        "DBLP": "journals/corr/abs-2304-01432",
        "ArXiv": "2304.01432",
        "DOI": "10.48550/arXiv.2304.01432",
        "CorpusId": 257921810
      },
      "url": "https://www.semanticscholar.org/paper/185026f2627bcf1f09fa03b6066d73dbadbfe2da",
      "title": "Reducing Discretization Error in the Frank-Wolfe Method",
      "venue": "International Conference on Artificial Intelligence and Statistics",
      "year": 2023,
      "referenceCount": 37,
      "citationCount": 1,
      "authors": [
        {
          "authorId": "2111607206",
          "name": "Zhaoyue Chen"
        },
        {
          "authorId": "2108935606",
          "name": "Yifan Sun"
        }
      ]
    },
    {
      "paperId": "8fcd5b558abd0f856fdb4cdc894f583c29166db3",
      "externalIds": {
        "MAG": "2895356025",
        "DBLP": "journals/jota/KerdreuxdP22",
        "ArXiv": "1810.02429",
        "DOI": "10.1007/s10957-021-01989-7",
        "CorpusId": 119664780
      },
      "url": "https://www.semanticscholar.org/paper/8fcd5b558abd0f856fdb4cdc894f583c29166db3",
      "title": "Restarting Frank–Wolfe: Faster Rates under Hölderian Error Bounds",
      "venue": "Journal of Optimization Theory and Applications",
      "year": 2018,
      "referenceCount": 75,
      "citationCount": 19,
      "authors": [
        {
          "authorId": "40900821",
          "name": "Thomas Kerdreux"
        },
        {
          "authorId": "1387902104",
          "name": "A. d'Aspremont"
        },
        {
          "authorId": "145729210",
          "name": "S. Pokutta"
        }
      ]
    },
    {
      "paperId": "bf4638d061bea08cd772a3173dedc761a9cbd38c",
      "externalIds": {
        "ArXiv": "1810.04765",
        "MAG": "2896751699",
        "CorpusId": 53651241
      },
      "url": "https://www.semanticscholar.org/paper/bf4638d061bea08cd772a3173dedc761a9cbd38c",
      "title": "Frank-Wolfe Method is Automatically Adaptive to Error Bound Condition",
      "venue": "",
      "year": 2018,
      "referenceCount": 27,
      "citationCount": 13,
      "authors": [
        {
          "authorId": "2110289529",
          "name": "Yi Xu"
        },
        {
          "authorId": "40381920",
          "name": "Tianbao Yang"
        }
      ]
    },
    {
      "paperId": "0881d4bac366052af9dc92f3955973ec1ee750ee",
      "externalIds": {
        "DBLP": "conf/aistats/KerdreuxdP21",
        "MAG": "3034878498",
        "CorpusId": 219708369
      },
      "url": "https://www.semanticscholar.org/paper/0881d4bac366052af9dc92f3955973ec1ee750ee",
      "title": "Projection-Free Optimization on Uniformly Convex Sets",
      "venue": "International Conference on Artificial Intelligence and Statistics",
      "year": 2020,
      "referenceCount": 92,
      "citationCount": 45,
      "authors": [
        {
          "authorId": "40900821",
          "name": "Thomas Kerdreux"
        },
        {
          "authorId": "1387902104",
          "name": "A. d'Aspremont"
        },
        {
          "authorId": "145729210",
          "name": "S. Pokutta"
        }
      ]
    }
  ]
}