{
  "total": 2116,
  "offset": 0,
  "next": 10,
  "data": [
    {
      "paperId": "0913938acd3e98f29bbef85cd850a82ad7415bf9",
      "externalIds": {
        "MAG": "2804074107",
        "CorpusId": 51876363
      },
      "url": "https://www.semanticscholar.org/paper/0913938acd3e98f29bbef85cd850a82ad7415bf9",
      "title": "Learning in Reproducing Kernel Kreı̆n Spaces",
      "venue": "International Conference on Machine Learning",
      "year": 2018,
      "referenceCount": 31,
      "citationCount": 36,
      "authors": [
        {
          "authorId": "2345929",
          "name": "Dino Oglic"
        },
        {
          "authorId": "1693945",
          "name": "Thomas Gärtner"
        }
      ]
    },
    {
      "paperId": "9b9e09b49c6b59aa1264098ad5e99d09b75b1e87",
      "externalIds": {
        "MAG": "2949511774",
        "DBLP": "conf/icml/OglicG19",
        "CorpusId": 173187803
      },
      "url": "https://www.semanticscholar.org/paper/9b9e09b49c6b59aa1264098ad5e99d09b75b1e87",
      "title": "Scalable Learning in Reproducing Kernel Krein Spaces",
      "venue": "International Conference on Machine Learning",
      "year": 2018,
      "referenceCount": 46,
      "citationCount": 28,
      "authors": [
        {
          "authorId": "2345929",
          "name": "Dino Oglic"
        },
        {
          "authorId": "1693945",
          "name": "Thomas Gärtner"
        }
      ]
    },
    {
      "paperId": "c7a77c20a1aef99dce20fe01189ef16a209be43a",
      "externalIds": {
        "DBLP": "conf/nips/SahaP20",
        "MAG": "3101137838",
        "CorpusId": 227275093
      },
      "url": "https://www.semanticscholar.org/paper/c7a77c20a1aef99dce20fe01189ef16a209be43a",
      "title": "Learning with Operator-valued Kernels in Reproducing Kernel Krein Spaces",
      "venue": "Neural Information Processing Systems",
      "year": 2020,
      "referenceCount": 38,
      "citationCount": 5,
      "authors": [
        {
          "authorId": "2056290364",
          "name": "Akash Saha"
        },
        {
          "authorId": "2075355036",
          "name": "Balamurugan Palaniappan"
        }
      ]
    },
    {
      "paperId": "4166da29f108cbd75255c603a481e8220bdfad06",
      "externalIds": {
        "MAG": "3089930312",
        "CorpusId": 222142334
      },
      "url": "https://www.semanticscholar.org/paper/4166da29f108cbd75255c603a481e8220bdfad06",
      "title": "Fast Learning in Reproducing Kernel Krein Spaces via Generalized Measures",
      "venue": "",
      "year": 2020,
      "referenceCount": 41,
      "citationCount": 1,
      "authors": [
        {
          "authorId": "2803059",
          "name": "Fanghui Liu"
        },
        {
          "authorId": "47932717",
          "name": "Xiaolin Huang"
        },
        {
          "authorId": "2281434864",
          "name": "Yingyi Chen"
        },
        {
          "authorId": "1744439",
          "name": "J. Suykens"
        }
      ]
    },
    {
      "paperId": "71b86a14120cba004e1aab0500bab6b3e9ef81ae",
      "externalIds": {
        "DBLP": "journals/ml/LiuSHYS21",
        "MAG": "3110356276",
        "DOI": "10.1007/s10994-021-05955-2",
        "CorpusId": 227170697
      },
      "url": "https://www.semanticscholar.org/paper/71b86a14120cba004e1aab0500bab6b3e9ef81ae",
      "title": "Analysis of regularized least-squares in reproducing kernel Kreĭn spaces",
      "venue": "Machine-mediated learning",
      "year": 2020,
      "referenceCount": 57,
      "citationCount": 10,
      "authors": [
        {
          "authorId": "2803059",
          "name": "Fanghui Liu"
        },
        {
          "authorId": "144861513",
          "name": "Lei Shi"
        },
        {
          "authorId": "47932717",
          "name": "Xiaolin Huang"
        },
        {
          "authorId": "2146104027",
          "name": "Jie Yang"
        },
        {
          "authorId": "1744439",
          "name": "J. Suykens"
        }
      ]
    },
    {
      "paperId": "e7dd5b561141cc5d1a80738d1af4b2def0ab03c7",
      "externalIds": {
        "DBLP": "journals/corr/abs-2006-01073",
        "ArXiv": "2006.01073",
        "MAG": "3030410790",
        "CorpusId": 219177162
      },
      "url": "https://www.semanticscholar.org/paper/e7dd5b561141cc5d1a80738d1af4b2def0ab03c7",
      "title": "Analysis of Least Squares Regularized Regression in Reproducing Kernel Krein Spaces",
      "venue": "arXiv.org",
      "year": 2020,
      "referenceCount": 43,
      "citationCount": 0,
      "authors": [
        {
          "authorId": "2803059",
          "name": "Fanghui Liu"
        },
        {
          "authorId": "2117205218",
          "name": "Lei Shi"
        },
        {
          "authorId": "47932717",
          "name": "Xiaolin Huang"
        },
        {
          "authorId": "2146104027",
          "name": "Jie Yang"
        },
        {
          "authorId": "1744439",
          "name": "J. Suykens"
        }
      ]
    },
    {
      "paperId": "222ea9f4edcd31a8edf21d278f1d5f402cff2363",
      "externalIds": {
        "MAG": "1970994634",
        "DBLP": "journals/npl/Gnecco14",
        "DOI": "10.1007/s11063-013-9294-9",
        "CorpusId": 16668735
      },
      "url": "https://www.semanticscholar.org/paper/222ea9f4edcd31a8edf21d278f1d5f402cff2363",
      "title": "Approximation and Estimation Bounds for Subsets of Reproducing Kernel Kreǐn Spaces",
      "venue": "Neural Processing Letters",
      "year": 2013,
      "referenceCount": 45,
      "citationCount": 5,
      "authors": [
        {
          "authorId": "2264182",
          "name": "G. Gnecco"
        }
      ]
    },
    {
      "paperId": "ddccaf3da5e3379b0577b5b6f825dd733f102e18",
      "externalIds": {
        "ArXiv": "1809.02157",
        "MAG": "2889793478",
        "DBLP": "journals/corr/abs-1809-02157",
        "CorpusId": 52176698
      },
      "url": "https://www.semanticscholar.org/paper/ddccaf3da5e3379b0577b5b6f825dd733f102e18",
      "title": "Large Scale Learning with Kreĭn Kernels",
      "venue": "arXiv.org",
      "year": 2018,
      "referenceCount": 34,
      "citationCount": 0,
      "authors": [
        {
          "authorId": "2345929",
          "name": "Dino Oglic"
        },
        {
          "authorId": "1693945",
          "name": "Thomas Gärtner"
        }
      ]
    },
    {
      "paperId": "248f74f4c62860b4dbc0f4222de284c390fc4b16",
      "externalIds": {
        "DBLP": "journals/jmlr/CostaMOS24",
        "ArXiv": "2310.13821",
        "DOI": "10.48550/arXiv.2310.13821",
        "CorpusId": 264425967
      },
      "url": "https://www.semanticscholar.org/paper/248f74f4c62860b4dbc0f4222de284c390fc4b16",
      "title": "Geometric Learning with Positively Decomposable Kernels",
      "venue": "Journal of machine learning research",
      "year": 2023,
      "referenceCount": 61,
      "citationCount": 6,
      "authors": [
        {
          "authorId": "2208965918",
          "name": "Nathael Da Costa"
        },
        {
          "authorId": "5889827",
          "name": "Cyrus Mostajeran"
        },
        {
          "authorId": "2261278424",
          "name": "Juan-Pablo Ortega"
        },
        {
          "authorId": "2261278100",
          "name": "Salem Said"
        }
      ]
    },
    {
      "paperId": "f5ecc81e0817626e04b3c7ef4881d8c65cf98baf",
      "externalIds": {
        "MAG": "2884873460",
        "DBLP": "journals/tnn/LiuHGYS19",
        "DOI": "10.1109/TNNLS.2018.2851305",
        "CorpusId": 51718626,
        "PubMed": "30047906"
      },
      "url": "https://www.semanticscholar.org/paper/f5ecc81e0817626e04b3c7ef4881d8c65cf98baf",
      "title": "Indefinite Kernel Logistic Regression With Concave-Inexact-Convex Procedure",
      "venue": "IEEE Transactions on Neural Networks and Learning Systems",
      "year": 2019,
      "referenceCount": 35,
      "citationCount": 20,
      "authors": [
        {
          "authorId": "2803059",
          "name": "Fanghui Liu"
        },
        {
          "authorId": "47932717",
          "name": "Xiaolin Huang"
        },
        {
          "authorId": "1443742776",
          "name": "Chen Gong"
        },
        {
          "authorId": "145651836",
          "name": "Jie Yang"
        },
        {
          "authorId": "1744439",
          "name": "J. Suykens"
        }
      ]
    }
  ]
}