{
  "total": 496,
  "offset": 0,
  "next": 10,
  "data": [
    {
      "paperId": "c8c38fed36b374e4eb94f858a11a7d0006b7c9c4",
      "externalIds": {
        "MAG": "1836744047",
        "DBLP": "conf/icml/SunWKM15",
        "CorpusId": 6904845
      },
      "url": "https://www.semanticscholar.org/paper/c8c38fed36b374e4eb94f858a11a7d0006b7c9c4",
      "title": "Information Geometry and Minimum Description Length Networks",
      "venue": "International Conference on Machine Learning",
      "year": 2015,
      "referenceCount": 47,
      "citationCount": 2,
      "authors": [
        {
          "authorId": "143819050",
          "name": "Ke Sun"
        },
        {
          "authorId": "40362307",
          "name": "Jun Wang"
        },
        {
          "authorId": "1784711",
          "name": "Alexandros Kalousis"
        },
        {
          "authorId": "1398659765",
          "name": "S. Marchand-Maillet"
        }
      ]
    },
    {
      "paperId": "578637b12ee4448d50026af3b49a3aac55040a58",
      "externalIds": {
        "CorpusId": 207789919
      },
      "url": "https://www.semanticscholar.org/paper/578637b12ee4448d50026af3b49a3aac55040a58",
      "title": "Information Geometry and Minimum Description Length Networks",
      "venue": "",
      "year": 2015,
      "referenceCount": 40,
      "citationCount": 0,
      "authors": [
        {
          "authorId": "143819050",
          "name": "Ke Sun"
        }
      ]
    },
    {
      "paperId": "cc3aa13185b5c4682b8a431258c75d9bcd5ec9fb",
      "externalIds": {
        "DBLP": "journals/corr/abs-2511-23083",
        "ArXiv": "2511.23083",
        "DOI": "10.48550/arXiv.2511.23083",
        "CorpusId": 283439106
      },
      "url": "https://www.semanticscholar.org/paper/cc3aa13185b5c4682b8a431258c75d9bcd5ec9fb",
      "title": "Spectral Concentration at the Edge of Stability: Information Geometry of Kernel Associative Memory",
      "venue": "arXiv.org",
      "year": 2025,
      "referenceCount": 12,
      "citationCount": 0,
      "authors": [
        {
          "authorId": "2354557042",
          "name": "Akira Tamamori"
        }
      ]
    },
    {
      "paperId": "1624401691a74a8da4291ffe28131c4907931d91",
      "externalIds": {
        "MAG": "1567646163",
        "CorpusId": 15273957
      },
      "url": "https://www.semanticscholar.org/paper/1624401691a74a8da4291ffe28131c4907931d91",
      "title": "Learning the Structure of a Bayesian Network: An Application of Information Geometry and the Minimum Description Length Principle",
      "venue": "",
      "year": 2005,
      "referenceCount": 3,
      "citationCount": 4,
      "authors": [
        {
          "authorId": "2416360962",
          "name": "Eitelhuber A"
        }
      ]
    },
    {
      "paperId": "94466f3e5f63dfc33575c728cbdea958661cc6b2",
      "externalIds": {
        "MAG": "2116671437",
        "DBLP": "journals/tnn/Xu04",
        "DOI": "10.1109/TNN.2004.828767",
        "CorpusId": 1195029,
        "PubMed": "15461081"
      },
      "url": "https://www.semanticscholar.org/paper/94466f3e5f63dfc33575c728cbdea958661cc6b2",
      "title": "Advances on BYY harmony learning: information theoretic perspective, generalized projection geometry, and independent factor autodetermination",
      "venue": "IEEE Transactions on Neural Networks",
      "year": 2004,
      "referenceCount": 66,
      "citationCount": 59,
      "authors": [
        {
          "authorId": "145652961",
          "name": "L. Xu"
        }
      ]
    },
    {
      "paperId": "e9d8267c4d92eee954d1f42579611cf11016e301",
      "externalIds": {
        "MAG": "2946332190",
        "DBLP": "journals/corr/abs-1905-11027",
        "CorpusId": 166228156
      },
      "url": "https://www.semanticscholar.org/paper/e9d8267c4d92eee954d1f42579611cf11016e301",
      "title": "Lightlike Neuromanifolds, Occam's Razor and Deep Learning",
      "venue": "arXiv.org",
      "year": 2019,
      "referenceCount": 59,
      "citationCount": 13,
      "authors": [
        {
          "authorId": "143819052",
          "name": "Ke Sun"
        },
        {
          "authorId": "144863930",
          "name": "F. Nielsen"
        }
      ]
    },
    {
      "paperId": "dacd047fb80de76d1844d4662f0e99d9883f65fb",
      "externalIds": {
        "ArXiv": "1905.11027",
        "DOI": "10.1007/s41884-025-00167-2",
        "CorpusId": 245425238
      },
      "url": "https://www.semanticscholar.org/paper/dacd047fb80de76d1844d4662f0e99d9883f65fb",
      "title": "A geometric modeling of Occam’s razor in deep learning",
      "venue": "Information Geometry",
      "year": 2019,
      "referenceCount": 93,
      "citationCount": 8,
      "authors": [
        {
          "authorId": "143819052",
          "name": "Ke Sun"
        },
        {
          "authorId": "144863930",
          "name": "F. Nielsen"
        }
      ]
    },
    {
      "paperId": "576ca2cbe817286001da25bc7facf20aa699e9a4",
      "externalIds": {
        "DBLP": "series/sci/Lauria08",
        "MAG": "1492549760",
        "DOI": "10.1007/978-3-540-85066-3_8",
        "CorpusId": 12665490
      },
      "url": "https://www.semanticscholar.org/paper/576ca2cbe817286001da25bc7facf20aa699e9a4",
      "title": "An Information-Geometric Approach to Learning Bayesian Network Topologies from Data",
      "venue": "Innovations in Bayesian Networks",
      "year": 2008,
      "referenceCount": 32,
      "citationCount": 4,
      "authors": [
        {
          "authorId": "1846609",
          "name": "E. Lauría"
        }
      ]
    },
    {
      "paperId": "01b59275c9d46f8c8ea8e9136e96ba1fd7a0b237",
      "externalIds": {
        "DOI": "10.1111/cla.12603",
        "CorpusId": 276406720,
        "PubMed": "39956947"
      },
      "url": "https://www.semanticscholar.org/paper/01b59275c9d46f8c8ea8e9136e96ba1fd7a0b237",
      "title": "Phylogenetic minimum description length: an optimality criterion based on algorithmic complexity",
      "venue": "Cladistics",
      "year": 2025,
      "referenceCount": 101,
      "citationCount": 2,
      "authors": [
        {
          "authorId": "40384475",
          "name": "W. Wheeler"
        },
        {
          "authorId": "145267293",
          "name": "Andrés Varón"
        }
      ]
    },
    {
      "paperId": "20246e2cd349cf0894c55fbb96d69f447a4c7152",
      "externalIds": {
        "DBLP": "journals/corr/abs-2504-00395",
        "DOI": "10.48550/arXiv.2504.00395",
        "CorpusId": 286257431
      },
      "url": "https://www.semanticscholar.org/paper/20246e2cd349cf0894c55fbb96d69f447a4c7152",
      "title": "Minimum Description Length of a Spectrum Variational Autoencoder: A Theory",
      "venue": "arXiv.org",
      "year": 2025,
      "referenceCount": 78,
      "citationCount": 0,
      "authors": [
        {
          "authorId": "1390468139",
          "name": "Canlin Zhang"
        },
        {
          "authorId": "2256804695",
          "name": "Xiuwen Liu"
        }
      ]
    }
  ]
}