{
  "total": 11,
  "offset": 0,
  "next": 10,
  "data": [
    {
      "paperId": "2bdf35c191cb4df4dcfb7fb18d6582cd032d1c40",
      "externalIds": {
        "MAG": "2804697534",
        "DBLP": "conf/icml/KumarSJ18",
        "CorpusId": 49314079
      },
      "url": "https://www.semanticscholar.org/paper/2bdf35c191cb4df4dcfb7fb18d6582cd032d1c40",
      "title": "Trainable Calibration Measures For Neural Networks From Kernel Mean Embeddings",
      "venue": "International Conference on Machine Learning",
      "year": 2018,
      "referenceCount": 48,
      "citationCount": 335,
      "authors": [
        {
          "authorId": "1488785534",
          "name": "Aviral Kumar"
        },
        {
          "authorId": "1770124",
          "name": "S. Sarawagi"
        },
        {
          "authorId": "2119567525",
          "name": "Ujjwal Jain"
        }
      ]
    },
    {
      "paperId": "bcac4ca568f5f6f86b4495e3eeadf299951f4c35",
      "externalIds": {
        "MAG": "2746353734",
        "DOI": "10.14288/1.0354397",
        "CorpusId": 9975286
      },
      "url": "https://www.semanticscholar.org/paper/bcac4ca568f5f6f86b4495e3eeadf299951f4c35",
      "title": "Deep kernel mean embeddings for generative modeling and feedforward style transfer",
      "venue": "",
      "year": 2017,
      "referenceCount": 0,
      "citationCount": 0,
      "authors": [
        {
          "authorId": "11126631",
          "name": "T. Chen"
        }
      ]
    },
    {
      "paperId": "895a7b6b74c25b125182b5b6b53e008734a30009",
      "externalIds": {
        "DBLP": "conf/ecai/YoungSEHDJ25",
        "ArXiv": "2405.12412",
        "DOI": "10.3233/FAIA251414",
        "CorpusId": 269929902
      },
      "url": "https://www.semanticscholar.org/paper/895a7b6b74c25b125182b5b6b53e008734a30009",
      "title": "Assessing the Probabilistic Fit of Neural Regressors via Conditional Congruence",
      "venue": "European Conference on Artificial Intelligence",
      "year": 2024,
      "referenceCount": 47,
      "citationCount": 0,
      "authors": [
        {
          "authorId": "2302540521",
          "name": "Spencer Young"
        },
        {
          "authorId": "83816065",
          "name": "P. Jenkins"
        }
      ]
    },
    {
      "paperId": "7fa79be45772ee98e1c0c097e6a0c5c750e5a9ad",
      "externalIds": {
        "CorpusId": 285470833
      },
      "url": "https://www.semanticscholar.org/paper/7fa79be45772ee98e1c0c097e6a0c5c750e5a9ad",
      "title": "Beyond Calibration: Assessing the Probabilistic Fit of Neural Regressors via Conditional Congruence",
      "venue": "",
      "year": null,
      "referenceCount": 57,
      "citationCount": 0,
      "authors": [
        {
          "authorId": "2302540521",
          "name": "Spencer Young"
        },
        {
          "authorId": "2410032157",
          "name": "Cole Edgren"
        },
        {
          "authorId": "2410032538",
          "name": "Riley Sinema"
        },
        {
          "authorId": "2238154113",
          "name": "Andrew P. Hall"
        },
        {
          "authorId": "69892690",
          "name": "N. Dong"
        },
        {
          "authorId": "83816065",
          "name": "P. Jenkins"
        }
      ]
    },
    {
      "paperId": "36b408af1d65ac5a6642e349c74d4a3853523b0e",
      "externalIds": {
        "DBLP": "conf/ijcai/DingC0S18",
        "MAG": "2807907893",
        "DOI": "10.24963/ijcai.2018/560",
        "CorpusId": 51608742
      },
      "url": "https://www.semanticscholar.org/paper/36b408af1d65ac5a6642e349c74d4a3853523b0e",
      "title": "Domain Adaptation via Tree Kernel Based Maximum Mean Discrepancy for User Consumption Intention Identification",
      "venue": "International Joint Conference on Artificial Intelligence",
      "year": 2018,
      "referenceCount": 38,
      "citationCount": 16,
      "authors": [
        {
          "authorId": "145411800",
          "name": "Xiao Ding"
        },
        {
          "authorId": "2054380479",
          "name": "Bibo Cai"
        },
        {
          "authorId": "40282288",
          "name": "Ting Liu"
        },
        {
          "authorId": "2113758079",
          "name": "Qiankun Shi"
        }
      ]
    },
    {
      "paperId": "cd4e91cdc57ff7013a7c192efbcb8ec063ff332f",
      "externalIds": {
        "DBLP": "journals/tgrs/KeshavarzNJRS25",
        "DOI": "10.1109/TGRS.2025.3632343",
        "CorpusId": 283023881
      },
      "url": "https://www.semanticscholar.org/paper/cd4e91cdc57ff7013a7c192efbcb8ec063ff332f",
      "title": "Multiband Moisture and Salinity Sensor (MMSS): A Cost-Effective and Accurate ML-Driven Solution for Precision Soil Monitoring",
      "venue": "IEEE Transactions on Geoscience and Remote Sensing",
      "year": 2025,
      "referenceCount": 34,
      "citationCount": 1,
      "authors": [
        {
          "authorId": "40145319",
          "name": "R. Keshavarz"
        },
        {
          "authorId": "2363640550",
          "name": "Akifumi Nagatani"
        },
        {
          "authorId": "2346791851",
          "name": "J. Jafaryahya"
        },
        {
          "authorId": "2374823831",
          "name": "Michael Raikhman"
        },
        {
          "authorId": "145286890",
          "name": "N. Shariati"
        }
      ]
    },
    {
      "paperId": "71f9a228e67c308db733814fd440628f6593d997",
      "externalIds": {
        "CorpusId": 8432263
      },
      "url": "https://www.semanticscholar.org/paper/71f9a228e67c308db733814fd440628f6593d997",
      "title": "ON-LINE SENSOR CALIBRATION MONITORING AND FAULT DETECTION FOR CHEMICAL PROCESSES",
      "venue": "",
      "year": 1998,
      "referenceCount": 13,
      "citationCount": 7,
      "authors": [
        {
          "authorId": "2108894733",
          "name": "Xiao Xu"
        },
        {
          "authorId": "46702975",
          "name": "J. Hines"
        },
        {
          "authorId": "3243274",
          "name": "R. Uhrig"
        }
      ]
    },
    {
      "paperId": "7ca32edd45e1e648fb0fa13301c63b8b777aa6e9",
      "externalIds": {
        "MAG": "2553865689",
        "DOI": "10.2991/meici-16.2016.96",
        "CorpusId": 55495059
      },
      "url": "https://www.semanticscholar.org/paper/7ca32edd45e1e648fb0fa13301c63b8b777aa6e9",
      "title": "Comparing 128 Bit Architectures and Web Services",
      "venue": "",
      "year": 2016,
      "referenceCount": 8,
      "citationCount": 0,
      "authors": [
        {
          "authorId": "71868817",
          "name": "Cao-cao Xu"
        },
        {
          "authorId": "2143435369",
          "name": "Qiming Yang"
        }
      ]
    },
    {
      "paperId": "e25758f19a7e1ab37ecdc23df9769236882a429a",
      "externalIds": {
        "MAG": "38890282",
        "CorpusId": 6858148
      },
      "url": "https://www.semanticscholar.org/paper/e25758f19a7e1ab37ecdc23df9769236882a429a",
      "title": "An Applied Comparison of the Prediction Intervals of Common Empirical Modeling Strategies",
      "venue": "",
      "year": 2003,
      "referenceCount": 35,
      "citationCount": 4,
      "authors": [
        {
          "authorId": "144908134",
          "name": "B. Rasmussen"
        },
        {
          "authorId": "46702975",
          "name": "J. Hines"
        },
        {
          "authorId": "2135438",
          "name": "A. Gribok"
        }
      ]
    },
    {
      "paperId": "3bb5031431d30ecf06485fbedd6f2bbe6412cccc",
      "externalIds": {
        "PubMedCentral": "10399113",
        "DOI": "10.1159/000531224",
        "CorpusId": 260299797,
        "PubMed": "37545566"
      },
      "url": "https://www.semanticscholar.org/paper/3bb5031431d30ecf06485fbedd6f2bbe6412cccc",
      "title": "Development and Assessment of an Artificial Intelligence-Based Tool for Ptosis Measurement in Adult Myasthenia Gravis Patients Using Selfie Video Clips Recorded on Smartphones",
      "venue": "Digital Biomarkers",
      "year": 2023,
      "referenceCount": 31,
      "citationCount": 14,
      "authors": [
        {
          "authorId": "2487045",
          "name": "Meelis Lootus"
        },
        {
          "authorId": "2225809165",
          "name": "L. Beatson"
        },
        {
          "authorId": "2225804158",
          "name": "Lucas Atwood"
        },
        {
          "authorId": "2268491181",
          "name": "Théo Bourdais"
        },
        {
          "authorId": "38840526",
          "name": "S. Steyaert"
        },
        {
          "authorId": "2317113223",
          "name": "C. Sarabu"
        },
        {
          "authorId": "88982737",
          "name": "Zeenia Framroze"
        },
        {
          "authorId": "2065845747",
          "name": "H. Dickinson"
        },
        {
          "authorId": "2225807728",
          "name": "Jean-Christophe Steels"
        },
        {
          "authorId": "2197778539",
          "name": "Emily Lewis"
        },
        {
          "authorId": "2114062315",
          "name": "N. Shah"
        },
        {
          "authorId": "32228566",
          "name": "Francesca Rinaldo"
        }
      ]
    }
  ]
}