{
  "total": 45,
  "offset": 0,
  "next": 10,
  "data": [
    {
      "paperId": "ffc211476f2e40e79466ffc198c919a97da3bb76",
      "externalIds": {
        "MAG": "2794643322",
        "DBLP": "journals/corr/abs-1803-11485",
        "ArXiv": "1803.11485",
        "CorpusId": 4533648
      },
      "url": "https://www.semanticscholar.org/paper/ffc211476f2e40e79466ffc198c919a97da3bb76",
      "title": "QMIX: Monotonic Value Function Factorisation for Deep Multi-Agent Reinforcement Learning",
      "venue": "International Conference on Machine Learning",
      "year": 2018,
      "referenceCount": 77,
      "citationCount": 1956,
      "authors": [
        {
          "authorId": "36054740",
          "name": "Tabish Rashid"
        },
        {
          "authorId": "49089678",
          "name": "Mikayel Samvelyan"
        },
        {
          "authorId": "47542438",
          "name": "C. S. D. Witt"
        },
        {
          "authorId": "38698094",
          "name": "Gregory Farquhar"
        },
        {
          "authorId": "145356667",
          "name": "Jakob N. Foerster"
        },
        {
          "authorId": "1766767",
          "name": "Shimon Whiteson"
        }
      ]
    },
    {
      "paperId": "3f5f13c6f5c659754086a7faa51d6bc60f577cd1",
      "externalIds": {
        "ArXiv": "2003.08839",
        "DBLP": "journals/corr/abs-2003-08839",
        "MAG": "2963762747",
        "CorpusId": 213176860
      },
      "url": "https://www.semanticscholar.org/paper/3f5f13c6f5c659754086a7faa51d6bc60f577cd1",
      "title": "Monotonic Value Function Factorisation for Deep Multi-Agent Reinforcement Learning",
      "venue": "Journal of machine learning research",
      "year": 2020,
      "referenceCount": 85,
      "citationCount": 1319,
      "authors": [
        {
          "authorId": "36054740",
          "name": "Tabish Rashid"
        },
        {
          "authorId": "49089678",
          "name": "Mikayel Samvelyan"
        },
        {
          "authorId": "47542438",
          "name": "C. S. D. Witt"
        },
        {
          "authorId": "38698094",
          "name": "Gregory Farquhar"
        },
        {
          "authorId": "1412004702",
          "name": "J. Foerster"
        },
        {
          "authorId": "1766767",
          "name": "Shimon Whiteson"
        }
      ]
    },
    {
      "paperId": "363d250b01f6d6271917cdcbe9567554e5a4a661",
      "externalIds": {
        "DBLP": "journals/apin/WangXZ23",
        "DOI": "10.1007/s10489-022-03924-3",
        "CorpusId": 251450414
      },
      "url": "https://www.semanticscholar.org/paper/363d250b01f6d6271917cdcbe9567554e5a4a661",
      "title": "Transform networks for cooperative multi-agent deep reinforcement learning",
      "venue": "Applied intelligence (Boston)",
      "year": 2022,
      "referenceCount": 30,
      "citationCount": 8,
      "authors": [
        {
          "authorId": "2108980777",
          "name": "Hongbin Wang"
        },
        {
          "authorId": "2150661119",
          "name": "Xiaodong Xie"
        },
        {
          "authorId": "19286682",
          "name": "Lianke Zhou"
        }
      ]
    },
    {
      "paperId": "7e61f1787cbf97bb59eb7f5f383e654d66947f0d",
      "externalIds": {
        "DBLP": "conf/nips/PengRWKTBW21",
        "ArXiv": "2003.06709",
        "CorpusId": 234353700
      },
      "url": "https://www.semanticscholar.org/paper/7e61f1787cbf97bb59eb7f5f383e654d66947f0d",
      "title": "FACMAC: Factored Multi-Agent Centralised Policy Gradients",
      "venue": "Neural Information Processing Systems",
      "year": 2020,
      "referenceCount": 48,
      "citationCount": 354,
      "authors": [
        {
          "authorId": "2323268",
          "name": "Bei Peng"
        },
        {
          "authorId": "36054740",
          "name": "Tabish Rashid"
        },
        {
          "authorId": "47542438",
          "name": "C. S. D. Witt"
        },
        {
          "authorId": "1565543388",
          "name": "Pierre-Alexandre Kamienny"
        },
        {
          "authorId": "143635540",
          "name": "Philip H. S. Torr"
        },
        {
          "authorId": "84187676",
          "name": "Wendelin Bohmer"
        },
        {
          "authorId": "1766767",
          "name": "Shimon Whiteson"
        }
      ]
    },
    {
      "paperId": "2e9713e3d2986b0c9ec875b3c44a571f40a8e66b",
      "externalIds": {
        "DBLP": "conf/cacre/LiaoC21",
        "DOI": "10.1109/CACRE52464.2021.9501350",
        "CorpusId": 236981257
      },
      "url": "https://www.semanticscholar.org/paper/2e9713e3d2986b0c9ec875b3c44a571f40a8e66b",
      "title": "QMIX Algorithm for Coordinated Welding of Multiple Robots",
      "venue": "International Conference on Automation, Control and Robotics Engineering",
      "year": 2021,
      "referenceCount": 0,
      "citationCount": 3,
      "authors": [
        {
          "authorId": "51044058",
          "name": "Liangchuang Liao"
        },
        {
          "authorId": "2144353961",
          "name": "Yang-Yang Chen"
        }
      ]
    },
    {
      "paperId": "0a525977523869260aa5d94b03638b11471fcb4c",
      "externalIds": {
        "DBLP": "journals/corr/abs-2312-15555",
        "ArXiv": "2312.15555",
        "DOI": "10.48550/arXiv.2312.15555",
        "CorpusId": 266551673
      },
      "url": "https://www.semanticscholar.org/paper/0a525977523869260aa5d94b03638b11471fcb4c",
      "title": "ConcaveQ: Non-Monotonic Value Function Factorization via Concave Representations in Deep Multi-Agent Reinforcement Learning",
      "venue": "AAAI Conference on Artificial Intelligence",
      "year": 2023,
      "referenceCount": 23,
      "citationCount": 18,
      "authors": [
        {
          "authorId": "2225904594",
          "name": "Huiqun Li"
        },
        {
          "authorId": "2007579020",
          "name": "Hanhan Zhou"
        },
        {
          "authorId": "23159213",
          "name": "Yifei Zou"
        },
        {
          "authorId": "2238168276",
          "name": "Dongxiao Yu"
        },
        {
          "authorId": "2276431208",
          "name": "Tian Lan"
        }
      ]
    },
    {
      "paperId": "fe49053d68858437bceec12bdd6793dd12bc812d",
      "externalIds": {
        "DBLP": "journals/corr/abs-2104-01939",
        "ArXiv": "2104.01939",
        "CorpusId": 235490305
      },
      "url": "https://www.semanticscholar.org/paper/fe49053d68858437bceec12bdd6793dd12bc812d",
      "title": "Non-monotonic Value Function Factorization for Deep Multi-Agent Reinforcement Learning",
      "venue": "arXiv.org",
      "year": 2021,
      "referenceCount": 23,
      "citationCount": 0,
      "authors": [
        {
          "authorId": "2109397726",
          "name": "Quanlin Chen"
        }
      ]
    },
    {
      "paperId": "c8d8f1122f0cdb5b763765467a653ce942830394",
      "externalIds": {
        "ArXiv": "2009.04197",
        "DBLP": "journals/corr/abs-2009-04197",
        "MAG": "3083927356",
        "CorpusId": 221554020
      },
      "url": "https://www.semanticscholar.org/paper/c8d8f1122f0cdb5b763765467a653ce942830394",
      "title": "QR-MIX: Distributional Value Function Factorisation for Cooperative Multi-Agent Reinforcement Learning",
      "venue": "arXiv.org",
      "year": 2020,
      "referenceCount": 31,
      "citationCount": 9,
      "authors": [
        {
          "authorId": "2152180478",
          "name": "Jian Hu"
        },
        {
          "authorId": "1932146190",
          "name": "Seth Austin Harding"
        },
        {
          "authorId": "1430766392",
          "name": "Haibin Wu"
        },
        {
          "authorId": "40063567",
          "name": "Shih-Wei Liao"
        }
      ]
    },
    {
      "paperId": "9b4d2d6d1b02241d2696df4fe0a37fc2b09a3528",
      "externalIds": {
        "ArXiv": "2106.11652",
        "DBLP": "journals/corr/abs-2106-11652",
        "DOI": "10.1109/IJCNN52387.2021.9533636",
        "CorpusId": 235593204
      },
      "url": "https://www.semanticscholar.org/paper/9b4d2d6d1b02241d2696df4fe0a37fc2b09a3528",
      "title": "MMD-MIX: Value Function Factorisation with Maximum Mean Discrepancy for Cooperative Multi-Agent Reinforcement Learning",
      "venue": "IEEE International Joint Conference on Neural Network",
      "year": 2021,
      "referenceCount": 29,
      "citationCount": 12,
      "authors": [
        {
          "authorId": "153008118",
          "name": "Zhiwei Xu"
        },
        {
          "authorId": "2115499783",
          "name": "Dapeng Li"
        },
        {
          "authorId": "46931357",
          "name": "Yunpeng Bai"
        },
        {
          "authorId": "2067827377",
          "name": "Guoliang Fan"
        }
      ]
    },
    {
      "paperId": "9f0f4c74d8ed06c5b81869321061d8079763bfb3",
      "externalIds": {
        "DBLP": "journals/corr/abs-2112-06771",
        "CorpusId": 245124657
      },
      "url": "https://www.semanticscholar.org/paper/9f0f4c74d8ed06c5b81869321061d8079763bfb3",
      "title": "Value Function Factorisation with Hypergraph Convolution for Cooperative Multi-agent Reinforcement Learning",
      "venue": "arXiv.org",
      "year": 2021,
      "referenceCount": 25,
      "citationCount": 6,
      "authors": [
        {
          "authorId": "46931357",
          "name": "Yunpeng Bai"
        },
        {
          "authorId": "2057185016",
          "name": "Chen Gong"
        },
        {
          "authorId": "2119453124",
          "name": "Bin Zhang"
        },
        {
          "authorId": "2067827377",
          "name": "Guoliang Fan"
        },
        {
          "authorId": "1761961",
          "name": "Xinwen Hou"
        }
      ]
    }
  ]
}