{
  "total": 172935,
  "offset": 0,
  "next": 10,
  "data": [
    {
      "paperId": "4e748b630babb9c365c234c66b07224eb9153083",
      "externalIds": {
        "DBLP": "conf/icml/IzbickiS15",
        "MAG": "1883134643",
        "CorpusId": 10498952
      },
      "url": "https://www.semanticscholar.org/paper/4e748b630babb9c365c234c66b07224eb9153083",
      "title": "Faster cover trees",
      "venue": "International Conference on Machine Learning",
      "year": 2015,
      "referenceCount": 23,
      "citationCount": 34,
      "authors": [
        {
          "authorId": "31103337",
          "name": "Michael Izbicki"
        },
        {
          "authorId": "3564227",
          "name": "C. Shelton"
        }
      ]
    },
    {
      "paperId": "f5fd6cbbfb18bfb1ef22a40ffa22bbf1302f33be",
      "externalIds": {
        "MAG": "2049228574",
        "DOI": "10.1117/1.3156846",
        "CorpusId": 62673917
      },
      "url": "https://www.semanticscholar.org/paper/f5fd6cbbfb18bfb1ef22a40ffa22bbf1302f33be",
      "title": "Competitive code-based fast palmprint identification using a set of cover trees",
      "venue": "",
      "year": 2009,
      "referenceCount": 13,
      "citationCount": 13,
      "authors": [
        {
          "authorId": "2053696722",
          "name": "Feng Yue"
        },
        {
          "authorId": "1724520",
          "name": "W. Zuo"
        },
        {
          "authorId": "66396175",
          "name": "D. Zhang"
        },
        {
          "authorId": "1711542",
          "name": "Kuanquan Wang"
        }
      ]
    },
    {
      "paperId": "c307f4d8e548fcc54f8c745d25bf793f2aef68ff",
      "externalIds": {
        "PubMedCentral": "6505744",
        "MAG": "2944014825",
        "DOI": "10.1371/journal.pone.0215846",
        "CorpusId": 148568712,
        "PubMed": "31067257"
      },
      "url": "https://www.semanticscholar.org/paper/c307f4d8e548fcc54f8c745d25bf793f2aef68ff",
      "title": "Live fast, die young: Accelerated growth, mortality, and turnover in street trees",
      "venue": "PLoS ONE",
      "year": 2019,
      "referenceCount": 64,
      "citationCount": 116,
      "authors": [
        {
          "authorId": "2067915629",
          "name": "I. Smith"
        },
        {
          "authorId": "3834481",
          "name": "Victoria K. Dearborn"
        },
        {
          "authorId": "4511464",
          "name": "L. Hutyra"
        }
      ]
    },
    {
      "paperId": "db7a8aee178e71e40ec0c5543c801965d89ce54c",
      "externalIds": {
        "MAG": "2974636864",
        "DOI": "10.1002/ecy.2895",
        "CorpusId": 261728807,
        "PubMed": "31529703"
      },
      "url": "https://www.semanticscholar.org/paper/db7a8aee178e71e40ec0c5543c801965d89ce54c",
      "title": "Better lucky than good: How savanna trees escape the fire trap in a variable world.",
      "venue": "Ecology",
      "year": 2019,
      "referenceCount": 50,
      "citationCount": 38,
      "authors": [
        {
          "authorId": "31822431",
          "name": "W. Hoffmann"
        },
        {
          "authorId": "2408652292",
          "name": "R. Sanders"
        },
        {
          "authorId": "31840456",
          "name": "Michael G. Just"
        },
        {
          "authorId": "40559462",
          "name": "W. Wall"
        },
        {
          "authorId": "34101379",
          "name": "Matthew G. Hohmann"
        }
      ]
    },
    {
      "paperId": "72887aee93bcf548cdd1ebfc0ffaa486c852d418",
      "externalIds": {
        "MAG": "2604356698",
        "DOI": "10.1016/J.BIOCON.2017.03.024",
        "CorpusId": 89953742
      },
      "url": "https://www.semanticscholar.org/paper/72887aee93bcf548cdd1ebfc0ffaa486c852d418",
      "title": "Translating plant community responses to habitat loss into conservation practices: Forest cover matters",
      "venue": "",
      "year": 2017,
      "referenceCount": 69,
      "citationCount": 50,
      "authors": [
        {
          "authorId": "47440756",
          "name": "M. Benchimol"
        },
        {
          "authorId": "1398475758",
          "name": "E. Mariano‐Neto"
        },
        {
          "authorId": "3803099",
          "name": "D. Faria"
        },
        {
          "authorId": "1414698017",
          "name": "L. Rocha‐Santos"
        },
        {
          "authorId": "4609744",
          "name": "M. S. Pessoa"
        },
        {
          "authorId": "2057240292",
          "name": "Francisco Sanches Gomes"
        },
        {
          "authorId": "7913843",
          "name": "D. Talora"
        },
        {
          "authorId": "5429146",
          "name": "E. Cazetta"
        }
      ]
    },
    {
      "paperId": "a9aaca4764f856c1691b2759873267cc00d4d268",
      "externalIds": {
        "MAG": "1979746929",
        "DOI": "10.1016/S0378-1127(00)00603-4",
        "CorpusId": 83761766
      },
      "url": "https://www.semanticscholar.org/paper/a9aaca4764f856c1691b2759873267cc00d4d268",
      "title": "Intercropping legume trees with native timber trees rapidly restores cover to eroded tropical pasture without fertilization",
      "venue": "",
      "year": 2001,
      "referenceCount": 34,
      "citationCount": 83,
      "authors": [
        {
          "authorId": "144720484",
          "name": "J. D. Nichols"
        },
        {
          "authorId": "88480784",
          "name": "M. Rosemeyer"
        },
        {
          "authorId": "48353596",
          "name": "F. Carpenter"
        },
        {
          "authorId": "87650681",
          "name": "J. Kettler"
        }
      ]
    },
    {
      "paperId": "a5421ebf80e1de40e06d423fce4be7d3038e76a8",
      "externalIds": {
        "MAG": "2728827526",
        "DOI": "10.1002/rra.3166",
        "CorpusId": 134092680
      },
      "url": "https://www.semanticscholar.org/paper/a5421ebf80e1de40e06d423fce4be7d3038e76a8",
      "title": "The effect of the shortage of gravel sediment in midstream river channels on riparian vegetation cover",
      "venue": "",
      "year": 2017,
      "referenceCount": 91,
      "citationCount": 27,
      "authors": [
        {
          "authorId": "1778937",
          "name": "T. Asaeda"
        },
        {
          "authorId": "15408007",
          "name": "Kelum Sanjaya"
        }
      ]
    },
    {
      "paperId": "5bf4dfb7a3e85f93a4cbdb3fb66341b1b088b713",
      "externalIds": {
        "MAG": "3004549199",
        "DOI": "10.3832/ifor3183-012",
        "CorpusId": 211549885
      },
      "url": "https://www.semanticscholar.org/paper/5bf4dfb7a3e85f93a4cbdb3fb66341b1b088b713",
      "title": "Growth dynamics of the Norway spruce and silver fir understory in continuous cover forestry",
      "venue": "",
      "year": 2020,
      "referenceCount": 68,
      "citationCount": 9,
      "authors": [
        {
          "authorId": "21453809",
          "name": "J. Vencurik"
        },
        {
          "authorId": "21824082",
          "name": "S. Kucbel"
        },
        {
          "authorId": "6841158",
          "name": "M. Saniga"
        },
        {
          "authorId": "21805736",
          "name": "P. Jaloviar"
        },
        {
          "authorId": "69462652",
          "name": "Denisa Sedmáková"
        },
        {
          "authorId": "69420632",
          "name": "J. Pittner"
        },
        {
          "authorId": "69488647",
          "name": "Zuzana Parobeková"
        },
        {
          "authorId": "6271688",
          "name": "M. Bošeľa"
        }
      ]
    },
    {
      "paperId": "ccb46f235ccf3f388409f5b0e2e0d9e0114455d2",
      "externalIds": {
        "MAG": "2741879381",
        "DOI": "10.3390/F8080272",
        "CorpusId": 89643632
      },
      "url": "https://www.semanticscholar.org/paper/ccb46f235ccf3f388409f5b0e2e0d9e0114455d2",
      "title": "Remnant Trees in Enrichment Planted Gaps in Quintana Roo, Mexico: Reasons for Retention and Effects on Seedlings",
      "venue": "",
      "year": 2017,
      "referenceCount": 43,
      "citationCount": 16,
      "authors": [
        {
          "authorId": "1401309287",
          "name": "A. Navarro-Martínez"
        },
        {
          "authorId": "40377493",
          "name": "S. Palmas"
        },
        {
          "authorId": "48694025",
          "name": "E. Ellis"
        },
        {
          "authorId": "1422416242",
          "name": "Pascual Blanco-Reyes"
        },
        {
          "authorId": "1422416571",
          "name": "Carolina Vargas-Godínez"
        },
        {
          "authorId": "1422423898",
          "name": "Ana Cecilia Iuit-Jiménez"
        },
        {
          "authorId": "1401309301",
          "name": "Irving Hernández-Gómez"
        },
        {
          "authorId": "40106533",
          "name": "Peter W. Ellis"
        },
        {
          "authorId": "1422418293",
          "name": "Alfredo Álvarez-Ugalde"
        },
        {
          "authorId": "1422416191",
          "name": "Yavé Guadalupe Carrera-Quirino"
        },
        {
          "authorId": "1401309283",
          "name": "Samaria Armenta-Montero"
        },
        {
          "authorId": "3327762",
          "name": "F. Putz"
        }
      ]
    },
    {
      "paperId": "7e4b70521d23f49a23b23e9ed9239b700486dcaf",
      "externalIds": {
        "MAG": "2765545982",
        "DOI": "10.21726/ABC.V4I2.404",
        "CorpusId": 90645316
      },
      "url": "https://www.semanticscholar.org/paper/7e4b70521d23f49a23b23e9ed9239b700486dcaf",
      "title": "Canopy cover and invasive grasses effects in distinct ecological restoration technologies: 5-y monitoring in a Brazilian subtropical forest",
      "venue": "Acta Biológica Catarinense",
      "year": 2017,
      "referenceCount": 21,
      "citationCount": 5,
      "authors": [
        {
          "authorId": "2057880159",
          "name": "Dionatan Gerber"
        },
        {
          "authorId": "2096420633",
          "name": "Tatiene Yumi Kiwara"
        },
        {
          "authorId": "51974420",
          "name": "Patricia de Souza"
        },
        {
          "authorId": "138301699",
          "name": "M. Lubke"
        },
        {
          "authorId": "5957395",
          "name": "E. Vismara"
        },
        {
          "authorId": "39210659",
          "name": "F. Bechara"
        }
      ]
    }
  ]
}