{
  "total": 62876,
  "offset": 0,
  "next": 10,
  "data": [
    {
      "paperId": "442cd4209baf9d78ee0a48ccb222a5302f1fd290",
      "externalIds": {
        "DBLP": "conf/icml/TremblayPGV16",
        "MAG": "2252984395",
        "ArXiv": "1602.02018",
        "CorpusId": 11352995
      },
      "url": "https://www.semanticscholar.org/paper/442cd4209baf9d78ee0a48ccb222a5302f1fd290",
      "title": "Compressive Spectral Clustering",
      "venue": "International Conference on Machine Learning",
      "year": 2016,
      "referenceCount": 47,
      "citationCount": 118,
      "authors": [
        {
          "authorId": "145661354",
          "name": "Nicolas Tremblay"
        },
        {
          "authorId": "3242930",
          "name": "Gilles Puy"
        },
        {
          "authorId": "1731535",
          "name": "R. Gribonval"
        },
        {
          "authorId": "1697397",
          "name": "P. Vandergheynst"
        }
      ]
    },
    {
      "paperId": "45151057518aa91069c09ac7f1ec2db8b369c2cd",
      "externalIds": {
        "DBLP": "journals/tbd/LiZLXL22",
        "MAG": "2964457099",
        "DOI": "10.1109/TBDATA.2019.2931532",
        "CorpusId": 201145044
      },
      "url": "https://www.semanticscholar.org/paper/45151057518aa91069c09ac7f1ec2db8b369c2cd",
      "title": "Fast Compressive Spectral Clustering for Large-Scale Sparse Graph",
      "venue": "IEEE Transactions on Big Data",
      "year": 2019,
      "referenceCount": 0,
      "citationCount": 7,
      "authors": [
        {
          "authorId": "8660705",
          "name": "Tingshu Li"
        },
        {
          "authorId": "2108441198",
          "name": "Yiming Zhang"
        },
        {
          "authorId": "2143855944",
          "name": "Hao Liu"
        },
        {
          "authorId": "1684808",
          "name": "Guangtao Xue"
        },
        {
          "authorId": "46458150",
          "name": "Ling Liu"
        }
      ]
    },
    {
      "paperId": "a44f0f5b0d96a3187a2c7f53b4e0a48ff0bc3569",
      "externalIds": {
        "DBLP": "conf/icdm/LiZLLP17",
        "MAG": "2771379243",
        "DOI": "10.1109/ICDM.2017.120",
        "CorpusId": 21231351
      },
      "url": "https://www.semanticscholar.org/paper/a44f0f5b0d96a3187a2c7f53b4e0a48ff0bc3569",
      "title": "Fast Compressive Spectral Clustering",
      "venue": "Industrial Conference on Data Mining",
      "year": 2017,
      "referenceCount": 29,
      "citationCount": 4,
      "authors": [
        {
          "authorId": "8660705",
          "name": "Tingshu Li"
        },
        {
          "authorId": "1908353",
          "name": "Yiming Zhang"
        },
        {
          "authorId": "144032853",
          "name": "Dongsheng Li"
        },
        {
          "authorId": "2108754292",
          "name": "Xinwang Liu"
        },
        {
          "authorId": "2653582",
          "name": "Yuxing Peng"
        }
      ]
    },
    {
      "paperId": "8539b745e61d6780ca13cc9a794991979c66b824",
      "externalIds": {
        "CorpusId": 56518401
      },
      "url": "https://www.semanticscholar.org/paper/8539b745e61d6780ca13cc9a794991979c66b824",
      "title": "On Consistency of Compressive Spectral Clustering On Consistency of Compressive Spectral Clustering",
      "venue": "",
      "year": 2018,
      "referenceCount": 21,
      "citationCount": 0,
      "authors": [
        {
          "authorId": null,
          "name": "Muni Sreenivas Pydi"
        }
      ]
    },
    {
      "paperId": "0926b874bcd37d1f196728c226fdd9540ff67472",
      "externalIds": {
        "DBLP": "journals/corr/abs-1702-03522",
        "MAG": "2806276374",
        "ArXiv": "1702.03522",
        "DOI": "10.1109/ISIT.2018.8437911",
        "CorpusId": 48360591
      },
      "url": "https://www.semanticscholar.org/paper/0926b874bcd37d1f196728c226fdd9540ff67472",
      "title": "On Consistency of Compressive Spectral Clustering",
      "venue": "International Symposium on Information Theory",
      "year": 2017,
      "referenceCount": 22,
      "citationCount": 1,
      "authors": [
        {
          "authorId": "8791164",
          "name": "Muni Sreenivas Pydi"
        },
        {
          "authorId": "2440174",
          "name": "Ambedkar Dukkipati"
        }
      ]
    },
    {
      "paperId": "09487c99e826d4368d8e674366a2bffebcda4d04",
      "externalIds": {
        "MAG": "1988840873",
        "DOI": "10.1063/1.3498187",
        "CorpusId": 17506822
      },
      "url": "https://www.semanticscholar.org/paper/09487c99e826d4368d8e674366a2bffebcda4d04",
      "title": "Compressive Spectral Clustering",
      "venue": "",
      "year": 2010,
      "referenceCount": 5,
      "citationCount": 8,
      "authors": [
        {
          "authorId": "48059184",
          "name": "Blake Hunter"
        },
        {
          "authorId": "1794778",
          "name": "T. Strohmer"
        }
      ]
    },
    {
      "paperId": "32bca344473416c76a5557d6404c5f35a3628ac1",
      "externalIds": {
        "MAG": "2181697047",
        "DBLP": "conf/aaaifs/HunterS10",
        "CorpusId": 14562887
      },
      "url": "https://www.semanticscholar.org/paper/32bca344473416c76a5557d6404c5f35a3628ac1",
      "title": "Compressive Spectral Clustering - Error Analysis",
      "venue": "AAAI Fall Symposium: Manifold Learning and Its Applications",
      "year": 2010,
      "referenceCount": 5,
      "citationCount": 0,
      "authors": [
        {
          "authorId": "48059184",
          "name": "Blake Hunter"
        },
        {
          "authorId": "1794778",
          "name": "T. Strohmer"
        }
      ]
    },
    {
      "paperId": "a3c91c3aa1c7424f3b787bb7e3961e6f29246ecf",
      "externalIds": {
        "MAG": "2898190873",
        "DBLP": "journals/jstsp/HinojosaBA18",
        "DOI": "10.1109/JSTSP.2018.2878293",
        "CorpusId": 56598015
      },
      "url": "https://www.semanticscholar.org/paper/a3c91c3aa1c7424f3b787bb7e3961e6f29246ecf",
      "title": "Coded Aperture Design for Compressive Spectral Subspace Clustering",
      "venue": "IEEE Journal on Selected Topics in Signal Processing",
      "year": 2018,
      "referenceCount": 32,
      "citationCount": 53,
      "authors": [
        {
          "authorId": "144713301",
          "name": "Carlos Hinojosa"
        },
        {
          "authorId": "144477747",
          "name": "J. Bacca"
        },
        {
          "authorId": "1757234",
          "name": "H. Arguello"
        }
      ]
    },
    {
      "paperId": "2e22a9ce2fa39e179e833e871305eb13d026486e",
      "externalIds": {
        "DBLP": "journals/corr/abs-1911-01671",
        "ArXiv": "1911.01671",
        "MAG": "2985809079",
        "CorpusId": 207871101
      },
      "url": "https://www.semanticscholar.org/paper/2e22a9ce2fa39e179e833e871305eb13d026486e",
      "title": "Spatial Sparse subspace clustering for Compressive Spectral imaging",
      "venue": "arXiv.org",
      "year": 2019,
      "referenceCount": 15,
      "citationCount": 0,
      "authors": [
        {
          "authorId": "3300104",
          "name": "Jianchen Zhu"
        },
        {
          "authorId": "2146325649",
          "name": "Tong Zhang"
        },
        {
          "authorId": "47601434",
          "name": "Shengjie Zhao"
        },
        {
          "authorId": "2073224689",
          "name": "Carlos Hinojosa"
        },
        {
          "authorId": "9071847",
          "name": "Zengli Liu"
        },
        {
          "authorId": "1709612",
          "name": "G. Arce"
        }
      ]
    },
    {
      "paperId": "2d3edaecd6de48e3b53b74a91e36759cd6f4d970",
      "externalIds": {
        "MAG": "2981379655",
        "CorpusId": 54920675
      },
      "url": "https://www.semanticscholar.org/paper/2d3edaecd6de48e3b53b74a91e36759cd6f4d970",
      "title": "Spectral-Spatial Compressive Sensing of Hyperspectral Images with Spectral Clustering and Reconstruction via Spectral-Spatial Total Variation Regularization",
      "venue": "",
      "year": 2018,
      "referenceCount": 9,
      "citationCount": 0,
      "authors": [
        {
          "authorId": "107919644",
          "name": "H. Shokri"
        },
        {
          "authorId": "3270323",
          "name": "M. Kahaei"
        }
      ]
    }
  ]
}