{
  "total": 5943,
  "offset": 0,
  "next": 10,
  "data": [
    {
      "paperId": "aa6c644ce16fa178b3ef838336ad3e2f3e53dc8b",
      "externalIds": {
        "DBLP": "conf/icml/LianHRLC15",
        "MAG": "2165291667",
        "CorpusId": 15492288
      },
      "url": "https://www.semanticscholar.org/paper/aa6c644ce16fa178b3ef838336ad3e2f3e53dc8b",
      "title": "A Multitask Point Process Predictive Model",
      "venue": "International Conference on Machine Learning",
      "year": 2015,
      "referenceCount": 22,
      "citationCount": 64,
      "authors": [
        {
          "authorId": "39749922",
          "name": "Wenzhao Lian"
        },
        {
          "authorId": "145153424",
          "name": "Ricardo Henao"
        },
        {
          "authorId": "144208693",
          "name": "Vinayak A. Rao"
        },
        {
          "authorId": "1816731",
          "name": "J. Lucas"
        },
        {
          "authorId": "145006560",
          "name": "L. Carin"
        }
      ]
    },
    {
      "paperId": "bb10da9fda9781237808b92c71580901660be770",
      "externalIds": {
        "DBLP": "journals/corr/ZhaoEHRL15",
        "ArXiv": "1506.02594",
        "MAG": "2949377321",
        "DOI": "10.1145/2783258.2783401",
        "CorpusId": 6181286
      },
      "url": "https://www.semanticscholar.org/paper/bb10da9fda9781237808b92c71580901660be770",
      "title": "SEISMIC: A Self-Exciting Point Process Model for Predicting Tweet Popularity",
      "venue": "Knowledge Discovery and Data Mining",
      "year": 2015,
      "referenceCount": 36,
      "citationCount": 690,
      "authors": [
        {
          "authorId": "49033211",
          "name": "Qingyuan Zhao"
        },
        {
          "authorId": "2090630",
          "name": "Murat A. Erdogdu"
        },
        {
          "authorId": "1999037",
          "name": "Hera Y. He"
        },
        {
          "authorId": "69484854",
          "name": "A. Rajaraman"
        },
        {
          "authorId": "1702139",
          "name": "J. Leskovec"
        }
      ]
    },
    {
      "paperId": "cc7d686a5eb2e115dbaf94cdd99f76a91bc6571d",
      "externalIds": {
        "MAG": "2052332407",
        "DOI": "10.1016/j.foodchem.2015.01.049",
        "CorpusId": 207745049,
        "PubMed": "25660889"
      },
      "url": "https://www.semanticscholar.org/paper/cc7d686a5eb2e115dbaf94cdd99f76a91bc6571d",
      "title": "Development and validation of a predictive model for the influences of selected product and process variables on ascorbic acid degradation in simulated fruit juice.",
      "venue": "Food Chemistry",
      "year": 2015,
      "referenceCount": 36,
      "citationCount": 24,
      "authors": [
        {
          "authorId": "2646640",
          "name": "A. Gabriel"
        },
        {
          "authorId": "1403690617",
          "name": "Jochelle Elysse C. Cayabyab"
        },
        {
          "authorId": "1400518693",
          "name": "Athalie Kaye L. Tan"
        },
        {
          "authorId": "1403690613",
          "name": "Mark Lester F. Corook"
        },
        {
          "authorId": "1401212638",
          "name": "Errol John O. Ables"
        },
        {
          "authorId": "1403690595",
          "name": "Cecile Leah P. Tiangson-Bayaga"
        }
      ]
    },
    {
      "paperId": "04d8e8101d08f8c3eb9ab8f42b3884d3c98ca060",
      "externalIds": {
        "MAG": "2027375911",
        "DOI": "10.2460/javma.246.3.307",
        "CorpusId": 207389781,
        "PubMed": "25587730"
      },
      "url": "https://www.semanticscholar.org/paper/04d8e8101d08f8c3eb9ab8f42b3884d3c98ca060",
      "title": "Formulation and validation of a predictive model to correct blood glucose concentrations obtained with a veterinary point-of-care glucometer in hemodiluted and hemoconcentrated canine blood samples.",
      "venue": "Journal of the American Veterinary Medical Association",
      "year": 2015,
      "referenceCount": 24,
      "citationCount": 33,
      "authors": [
        {
          "authorId": "36991867",
          "name": "Selena L Lane"
        },
        {
          "authorId": "11554938",
          "name": "A. Koenig"
        },
        {
          "authorId": "5293509",
          "name": "B. Brainard"
        }
      ]
    },
    {
      "paperId": "c2337a3a7d0689defecece9c070aa328e8554f05",
      "externalIds": {
        "MAG": "2092709642",
        "DOI": "10.1071/WF14001",
        "CorpusId": 34114679
      },
      "url": "https://www.semanticscholar.org/paper/c2337a3a7d0689defecece9c070aa328e8554f05",
      "title": "Predicting wildfire occurrence distribution with spatial point process models and its uncertainty assessment: a case study in the Lake Tahoe Basin, USA",
      "venue": "",
      "year": 2015,
      "referenceCount": 54,
      "citationCount": 27,
      "authors": [
        {
          "authorId": "2118801297",
          "name": "Jian Yang"
        },
        {
          "authorId": "2871983",
          "name": "P. Weisberg"
        },
        {
          "authorId": "3549467",
          "name": "T. Dilts"
        },
        {
          "authorId": "5803515",
          "name": "E. L. Loudermilk"
        },
        {
          "authorId": "39804159",
          "name": "R. Scheller"
        },
        {
          "authorId": "38698671",
          "name": "A. Stanton"
        },
        {
          "authorId": "2293764",
          "name": "Carl N. Skinner"
        }
      ]
    },
    {
      "paperId": "68a9f448679be1b74c65cd35df7ba08b27720bb5",
      "externalIds": {
        "MAG": "2401453734",
        "DOI": "10.1109/SPC.2015.7473569",
        "CorpusId": 38261545
      },
      "url": "https://www.semanticscholar.org/paper/68a9f448679be1b74c65cd35df7ba08b27720bb5",
      "title": "Design of unconstrained and constrained model predictive control for pneumatic actuator system: Set-point tracking",
      "venue": "IEEE Conference on Systems, Process and Control",
      "year": 2015,
      "referenceCount": 24,
      "citationCount": 9,
      "authors": [
        {
          "authorId": "37403982",
          "name": "Siti Fatimah Sulaiman"
        },
        {
          "authorId": "152859626",
          "name": "M. F. Rahmat"
        },
        {
          "authorId": "9325550",
          "name": "A. Faudzi"
        },
        {
          "authorId": "35164611",
          "name": "K. Osman"
        }
      ]
    },
    {
      "paperId": "ba93bedc10f282976d01cc89828d34905d2be9e5",
      "externalIds": {
        "MAG": "2183963225",
        "DBLP": "conf/fie/RubianoG15",
        "DOI": "10.1109/FIE.2015.7344047",
        "CorpusId": 33418911
      },
      "url": "https://www.semanticscholar.org/paper/ba93bedc10f282976d01cc89828d34905d2be9e5",
      "title": "Formulation of a predictive model for academic performance based on students' academic and demographic data",
      "venue": "Frontiers in Education Conference",
      "year": 2015,
      "referenceCount": 24,
      "citationCount": 24,
      "authors": [
        {
          "authorId": "2273986507",
          "name": "S. Merchán-Rubiano"
        },
        {
          "authorId": "2110116960",
          "name": "Jorge Alberto Duarte Garcia"
        }
      ]
    },
    {
      "paperId": "9d4bc3c23d863b4e405ba89ada889fd9914fd5fb",
      "externalIds": {
        "ArXiv": "1507.04727",
        "MAG": "2234984629",
        "DBLP": "journals/corr/SheikhattarFSB15",
        "DOI": "10.1109/TSP.2015.2512560",
        "CorpusId": 12201718
      },
      "url": "https://www.semanticscholar.org/paper/9d4bc3c23d863b4e405ba89ada889fd9914fd5fb",
      "title": "Recursive Sparse Point Process Regression With Application to Spectrotemporal Receptive Field Plasticity Analysis",
      "venue": "IEEE Transactions on Signal Processing",
      "year": 2015,
      "referenceCount": 48,
      "citationCount": 26,
      "authors": [
        {
          "authorId": "2655806",
          "name": "Alireza Sheikhattar"
        },
        {
          "authorId": "1769429",
          "name": "J. Fritz"
        },
        {
          "authorId": "1805302",
          "name": "S. Shamma"
        },
        {
          "authorId": "1915425",
          "name": "B. Babadi"
        }
      ]
    },
    {
      "paperId": "566bbd707fb2caddf222b64330d9247cc67f9d63",
      "externalIds": {
        "MAG": "284777917",
        "DOI": "10.1017/S0956792515000492",
        "CorpusId": 12640706
      },
      "url": "https://www.semanticscholar.org/paper/566bbd707fb2caddf222b64330d9247cc67f9d63",
      "title": "Point-process models of social network interactions: Parameter estimation and missing data recovery",
      "venue": "European journal of applied mathematics",
      "year": 2015,
      "referenceCount": 41,
      "citationCount": 62,
      "authors": [
        {
          "authorId": "4924713",
          "name": "Joseph R. Zipkin"
        },
        {
          "authorId": "2722555",
          "name": "F. Schoenberg"
        },
        {
          "authorId": "1766923",
          "name": "Kathryn Coronges"
        },
        {
          "authorId": "144722242",
          "name": "A. Bertozzi"
        }
      ]
    },
    {
      "paperId": "b5e8e15f8a0ca59d772bd8c1cefeee2819124e28",
      "externalIds": {
        "MAG": "428954969",
        "DOI": "10.1016/J.SOLENER.2015.05.013",
        "CorpusId": 117556461
      },
      "url": "https://www.semanticscholar.org/paper/b5e8e15f8a0ca59d772bd8c1cefeee2819124e28",
      "title": "Predictive model for assessing and optimizing solar still performance using artificial neural network under hyper arid environment",
      "venue": "",
      "year": 2015,
      "referenceCount": 38,
      "citationCount": 90,
      "authors": [
        {
          "authorId": "49040753",
          "name": "Ahmed F. Mashaly"
        },
        {
          "authorId": "6563404",
          "name": "A. A. Alazba"
        },
        {
          "authorId": "1412402723",
          "name": "Alhussein M Al-Awaadh"
        },
        {
          "authorId": "144557812",
          "name": "M. Mattar"
        }
      ]
    }
  ]
}