{
  "total": 50,
  "offset": 0,
  "next": 10,
  "data": [
    {
      "paperId": "150347e51162e6017f0a2e4da722d4a871c388d9",
      "externalIds": {
        "MAG": "2470461961",
        "DBLP": "conf/icml/CouilletWAS16",
        "CorpusId": 7281986
      },
      "url": "https://www.semanticscholar.org/paper/150347e51162e6017f0a2e4da722d4a871c388d9",
      "title": "A Random Matrix Approach to Echo-State Neural Networks",
      "venue": "International Conference on Machine Learning",
      "year": 2016,
      "referenceCount": 12,
      "citationCount": 5,
      "authors": [
        {
          "authorId": "1690223",
          "name": "Romain Couillet"
        },
        {
          "authorId": "2083287",
          "name": "G. Wainrib"
        },
        {
          "authorId": "32810031",
          "name": "Hafiz Tiomoko Ali"
        },
        {
          "authorId": "3382962",
          "name": "Harry Sevi"
        }
      ]
    },
    {
      "paperId": "b4b7dc1f9cbed3be93c2756a0a650c2cfb33f793",
      "externalIds": {
        "MAG": "2108037792",
        "DOI": "10.1109/ICICSE.2009.69",
        "CorpusId": 9549934
      },
      "url": "https://www.semanticscholar.org/paper/b4b7dc1f9cbed3be93c2756a0a650c2cfb33f793",
      "title": "Effects of Spectral Radius on Echo-State-Network's Training",
      "venue": "2009 Fourth International Conference on Internet Computing for Science and Engineering",
      "year": 2009,
      "referenceCount": 18,
      "citationCount": 11,
      "authors": [
        {
          "authorId": "2146016499",
          "name": "Yuan-Bin Wang"
        },
        {
          "authorId": "2054555240",
          "name": "J. Ni"
        },
        {
          "authorId": "40061657",
          "name": "Zhiping Xu"
        }
      ]
    },
    {
      "paperId": "45e9075774c4b6f035e6c4f3c92f1e40be75bb5e",
      "externalIds": {
        "DOI": "10.1007/s40313-023-01061-x",
        "CorpusId": 266529710
      },
      "url": "https://www.semanticscholar.org/paper/45e9075774c4b6f035e6c4f3c92f1e40be75bb5e",
      "title": "A Neuroevolutionary Approach for System Identification",
      "venue": "Journal of Control Automation and Electrical Systems",
      "year": 2023,
      "referenceCount": 48,
      "citationCount": 2,
      "authors": [
        {
          "authorId": "2257020284",
          "name": "Thiago Carvalho"
        },
        {
          "authorId": "2276269073",
          "name": "Paulo R. M. Paiva"
        },
        {
          "authorId": "2257021023",
          "name": "Marley Vellasco"
        },
        {
          "authorId": "2257024177",
          "name": "José Franco Amaral"
        },
        {
          "authorId": "2257021148",
          "name": "Pedro H. G. Coelho"
        }
      ]
    },
    {
      "paperId": "df6832a04f74e9e427156549acd565934cd3819a",
      "externalIds": {
        "DBLP": "journals/orf/SaadatFEM25",
        "DOI": "10.1007/s43069-025-00514-0",
        "CorpusId": 281304444
      },
      "url": "https://www.semanticscholar.org/paper/df6832a04f74e9e427156549acd565934cd3819a",
      "title": "Establishing Echo State Network in Order to Be Used in Online Application",
      "venue": "Operations Research Forum",
      "year": 2025,
      "referenceCount": 47,
      "citationCount": 0,
      "authors": [
        {
          "authorId": "73465503",
          "name": "Javad Saadat"
        },
        {
          "authorId": "2286810861",
          "name": "Mohsen Farshad"
        },
        {
          "authorId": "2256832746",
          "name": "Hussein Eliasi"
        },
        {
          "authorId": "2380363193",
          "name": "Kazem Shokoohi Mehr"
        }
      ]
    },
    {
      "paperId": "ebadf1d26fb4d77728027d0f62ed10f0e6128b74",
      "externalIds": {
        "DOI": "10.3390/computation14020049",
        "CorpusId": 285644843
      },
      "url": "https://www.semanticscholar.org/paper/ebadf1d26fb4d77728027d0f62ed10f0e6128b74",
      "title": "ECG Heartbeat Classification Using Echo State Networks with Noisy Reservoirs and Variable Activation Function",
      "venue": "Computation",
      "year": 2026,
      "referenceCount": 28,
      "citationCount": 0,
      "authors": [
        {
          "authorId": "2259199766",
          "name": "Ioannis P. Antoniades"
        },
        {
          "authorId": "2257484427",
          "name": "A. N. Tsiftsis"
        },
        {
          "authorId": "2238307365",
          "name": "Christos K. Volos"
        },
        {
          "authorId": "3318064",
          "name": "A. Tsigopoulos"
        },
        {
          "authorId": "2411256723",
          "name": "Konstantia G. Kyritsi"
        },
        {
          "authorId": "2297023383",
          "name": "Hector E. Nistazakis"
        }
      ]
    },
    {
      "paperId": "d345b0d06e5bc1759cddcbd746e317c892481f8b",
      "externalIds": {
        "DOI": "10.3390/en16062635",
        "CorpusId": 257523723
      },
      "url": "https://www.semanticscholar.org/paper/d345b0d06e5bc1759cddcbd746e317c892481f8b",
      "title": "Application of Augmented Echo State Networks and Genetic Algorithm to Improve Short-Term Wind Speed Forecasting",
      "venue": "Energies",
      "year": 2023,
      "referenceCount": 19,
      "citationCount": 1,
      "authors": [
        {
          "authorId": "2085046291",
          "name": "Hugo T. V. Gouveia"
        },
        {
          "authorId": "2211598142",
          "name": "Murilo A. Souza"
        },
        {
          "authorId": "144597635",
          "name": "A. Ferreira"
        },
        {
          "authorId": "5632837",
          "name": "J. D. de Albuquerque"
        },
        {
          "authorId": "2211565683",
          "name": "Otoni Nóbrega Neto"
        },
        {
          "authorId": "14024844",
          "name": "M. M. da Silva Lira"
        },
        {
          "authorId": "2124225963",
          "name": "R. R. B. de Aquino"
        }
      ]
    },
    {
      "paperId": "edb885f47079d16e05820b88cc9656e707dc60ad",
      "externalIds": {
        "DBLP": "conf/icann/BabinecP07",
        "MAG": "1903866608",
        "DOI": "10.1007/978-3-540-74690-4_3",
        "CorpusId": 15060144
      },
      "url": "https://www.semanticscholar.org/paper/edb885f47079d16e05820b88cc9656e707dc60ad",
      "title": "Improving the Prediction Accuracy of Echo State Neural Networks by Anti-Oja's Learning",
      "venue": "International Conference on Artificial Neural Networks",
      "year": 2007,
      "referenceCount": 9,
      "citationCount": 24,
      "authors": [
        {
          "authorId": "2472037",
          "name": "Stefan Babinec"
        },
        {
          "authorId": "144032641",
          "name": "Jiri Pospíchal"
        }
      ]
    },
    {
      "paperId": "ec39cd3f0e00096d6b9eb80f18c62be3bfb074ea",
      "externalIds": {
        "ArXiv": "2207.07976",
        "DBLP": "journals/corr/abs-2207-07976",
        "DOI": "10.1145/3512290.3528721",
        "CorpusId": 250360482
      },
      "url": "https://www.semanticscholar.org/paper/ec39cd3f0e00096d6b9eb80f18c62be3bfb074ea",
      "title": "Hyperparameter tuning in echo state networks",
      "venue": "Annual Conference on Genetic and Evolutionary Computation",
      "year": 2022,
      "referenceCount": 39,
      "citationCount": 8,
      "authors": [
        {
          "authorId": "2339803",
          "name": "Filip Matzner"
        }
      ]
    },
    {
      "paperId": "962d59bf519ff324a0ec84e4e8473b3aa7f31e87",
      "externalIds": {
        "MAG": "2338887204",
        "CorpusId": 62340705
      },
      "url": "https://www.semanticscholar.org/paper/962d59bf519ff324a0ec84e4e8473b3aa7f31e87",
      "title": "Improving the Prediction Accuracy of Echo State Neural Networks by Anti-Oja's Learning",
      "venue": "",
      "year": 2007,
      "referenceCount": 3,
      "citationCount": 0,
      "authors": [
        {
          "authorId": "70348398",
          "name": "Jir ´ iP osp ´ ichal"
        }
      ]
    },
    {
      "paperId": "ea11d4b96e1367b8339502b963504dd9136132fe",
      "externalIds": {
        "DBLP": "journals/nca/MahmoudE22",
        "DOI": "10.1007/s00521-021-06838-2",
        "CorpusId": 246293905
      },
      "url": "https://www.semanticscholar.org/paper/ea11d4b96e1367b8339502b963504dd9136132fe",
      "title": "TSK fuzzy echo state neural network: a hybrid structure for black-box nonlinear systems identification",
      "venue": "Neural computing & applications (Print)",
      "year": 2022,
      "referenceCount": 73,
      "citationCount": 14,
      "authors": [
        {
          "authorId": "143632591",
          "name": "T. Mahmoud"
        },
        {
          "authorId": "1964152",
          "name": "Lamiaa M. Elshenawy"
        }
      ]
    }
  ]
}