{
  "total": 1794,
  "offset": 0,
  "next": 10,
  "data": [
    {
      "paperId": "434954d40776c87d8b354677ac393cb121f5c80b",
      "externalIds": {
        "DBLP": "conf/icml/WangKB17",
        "MAG": "2739530031",
        "CorpusId": 6335393
      },
      "url": "https://www.semanticscholar.org/paper/434954d40776c87d8b354677ac393cb121f5c80b",
      "title": "Robust Probabilistic Modeling with Bayesian Data Reweighting",
      "venue": "International Conference on Machine Learning",
      "year": 2016,
      "referenceCount": 37,
      "citationCount": 99,
      "authors": [
        {
          "authorId": "2108734693",
          "name": "Yixin Wang"
        },
        {
          "authorId": "3081817",
          "name": "A. Kucukelbir"
        },
        {
          "authorId": "1796335",
          "name": "D. Blei"
        }
      ]
    },
    {
      "paperId": "60be4d36bcdf537cf2503c944778422eecd29898",
      "externalIds": {
        "CorpusId": 281304772
      },
      "url": "https://www.semanticscholar.org/paper/60be4d36bcdf537cf2503c944778422eecd29898",
      "title": "Robust Probabilistic Modeling with Bayesian Data Reweighting",
      "venue": "",
      "year": 2017,
      "referenceCount": 3,
      "citationCount": 0,
      "authors": []
    },
    {
      "paperId": "52d7af342cb27831aa6ed564525e2dc34ca550e8",
      "externalIds": {
        "PubMedCentral": "12265541",
        "DOI": "10.1101/2025.05.23.655795",
        "CorpusId": 278899387,
        "PubMed": "40672255"
      },
      "url": "https://www.semanticscholar.org/paper/52d7af342cb27831aa6ed564525e2dc34ca550e8",
      "title": "Multiscale Probabilistic Modeling: A Bayesian Approach to Augment Mechanistic Models of Cell Signaling with Machine-Learning Predictions of Binding Affinity",
      "venue": "bioRxiv",
      "year": 2025,
      "referenceCount": 60,
      "citationCount": 1,
      "authors": [
        {
          "authorId": "4418025",
          "name": "H. Huber"
        },
        {
          "authorId": "2335607485",
          "name": "Stacey D. Finley"
        }
      ]
    },
    {
      "paperId": "b9edff8b142612c9d1a2075ec5064cf9ac4558d2",
      "externalIds": {
        "DOI": "10.31185/bsj.vol20.iss33.1401",
        "CorpusId": 283968236
      },
      "url": "https://www.semanticscholar.org/paper/b9edff8b142612c9d1a2075ec5064cf9ac4558d2",
      "title": "A Unified Framework for Quantifying Uncertainty: Synthesizing Classical and Bayesian Probabilistic Inference",
      "venue": "مجلة العلوم الأساسـية",
      "year": 2025,
      "referenceCount": 0,
      "citationCount": 0,
      "authors": [
        {
          "authorId": "2399374393",
          "name": "Mohammad Shakir Zghyr"
        }
      ]
    },
    {
      "paperId": "3c45f2d8446872e946c4e0f364c03e0514b99710",
      "externalIds": {
        "DBLP": "journals/qre/TanzeemM25",
        "DOI": "10.1002/qre.3808",
        "CorpusId": 278838908
      },
      "url": "https://www.semanticscholar.org/paper/3c45f2d8446872e946c4e0f364c03e0514b99710",
      "title": "Deep Variational Bayesian Approach for Sensor‐Driven Modeling and Monitoring of Dynamic Degrading Systems",
      "venue": "Quality and Reliability Engineering International",
      "year": 2025,
      "referenceCount": 22,
      "citationCount": 2,
      "authors": [
        {
          "authorId": "2363032135",
          "name": "Nadia Tanzeem"
        },
        {
          "authorId": "2060096",
          "name": "R. Moghaddass"
        }
      ]
    },
    {
      "paperId": "e3cb7e4dc0b88089c2b56f53ea35d2746a382fdb",
      "externalIds": {
        "DBLP": "journals/tii/YuHX25",
        "DOI": "10.1109/TII.2025.3528580",
        "CorpusId": 275963936
      },
      "url": "https://www.semanticscholar.org/paper/e3cb7e4dc0b88089c2b56f53ea35d2746a382fdb",
      "title": "A Robust Probabilistic Quality-Relevant Monitoring Model With Laplace Distribution",
      "venue": "IEEE Transactions on Industrial Informatics",
      "year": 2025,
      "referenceCount": 42,
      "citationCount": 7,
      "authors": [
        {
          "authorId": "50239996",
          "name": "Wanke Yu"
        },
        {
          "authorId": "2110783817",
          "name": "Biao Huang"
        },
        {
          "authorId": "2239888684",
          "name": "Gaoxi Xiao"
        }
      ]
    },
    {
      "paperId": "f3adc085a5e4ae709c39adb0885f99395d97c0c6",
      "externalIds": {
        "DOI": "10.3390/min15060591",
        "CorpusId": 279103458
      },
      "url": "https://www.semanticscholar.org/paper/f3adc085a5e4ae709c39adb0885f99395d97c0c6",
      "title": "Advancing Flotation Process Modeling: Bayesian vs. Sklearn Approaches for Gold Grade Prediction",
      "venue": "Minerals",
      "year": 2025,
      "referenceCount": 17,
      "citationCount": 3,
      "authors": [
        {
          "authorId": "2237902331",
          "name": "Sheila Devasahayam"
        }
      ]
    },
    {
      "paperId": "18eb893b085a403b94678aaed5b9f2a0feed4553",
      "externalIds": {
        "ArXiv": "2412.20416",
        "CorpusId": 275133849
      },
      "url": "https://www.semanticscholar.org/paper/18eb893b085a403b94678aaed5b9f2a0feed4553",
      "title": "Hierarchical Bayesian Modeling for Uncertainty Quantification and Reliability Updating using Data",
      "venue": "",
      "year": 2024,
      "referenceCount": 0,
      "citationCount": 5,
      "authors": [
        {
          "authorId": "9526385",
          "name": "Xinyu Jia"
        },
        {
          "authorId": "2337799078",
          "name": "Weinan Hou"
        },
        {
          "authorId": "30247105",
          "name": "C. Papadimitriou"
        }
      ]
    },
    {
      "paperId": "796d6c981c4183cfecb3ad67e0662c1dc0754af0",
      "externalIds": {
        "DOI": "10.1177/14759217231184584",
        "CorpusId": 259547503
      },
      "url": "https://www.semanticscholar.org/paper/796d6c981c4183cfecb3ad67e0662c1dc0754af0",
      "title": "Probabilistic outlier detection for robust regression modeling of structural response for high-speed railway track monitoring",
      "venue": "Structural Health Monitoring",
      "year": 2023,
      "referenceCount": 35,
      "citationCount": 16,
      "authors": [
        {
          "authorId": "2212048071",
          "name": "Qi Li"
        },
        {
          "authorId": "2167234576",
          "name": "Jingze Gao"
        },
        {
          "authorId": "34743789",
          "name": "J. Beck"
        },
        {
          "authorId": "16071027",
          "name": "Chao Lin"
        },
        {
          "authorId": "49866346",
          "name": "Yong Huang"
        },
        {
          "authorId": "144391286",
          "name": "Hui Li"
        }
      ]
    },
    {
      "paperId": "419887f4cd777b81ecd2d9163f873a971bcea67f",
      "externalIds": {
        "DBLP": "journals/corr/abs-2502-00846",
        "ArXiv": "2502.00846",
        "DOI": "10.48550/arXiv.2502.00846",
        "CorpusId": 276094764
      },
      "url": "https://www.semanticscholar.org/paper/419887f4cd777b81ecd2d9163f873a971bcea67f",
      "title": "Federated Generalised Variational Inference: A Robust Probabilistic Federated Learning Framework",
      "venue": "International Conference on Machine Learning",
      "year": 2025,
      "referenceCount": 84,
      "citationCount": 1,
      "authors": [
        {
          "authorId": "2343636421",
          "name": "Terje Mildner"
        },
        {
          "authorId": "147737271",
          "name": "Oliver Hamelijnck"
        },
        {
          "authorId": "2243335558",
          "name": "Paris Giampouras"
        },
        {
          "authorId": "1760294",
          "name": "T. Damoulas"
        }
      ]
    }
  ]
}