{
  "total": 1587,
  "offset": 0,
  "next": 10,
  "data": [
    {
      "paperId": "fc998c5e7b0fd1609d5a91d700fec3ec9c72838c",
      "externalIds": {
        "MAG": "2963201159",
        "DBLP": "journals/corr/abs-1803-06969",
        "ArXiv": "1803.06969",
        "DOI": "10.1088/1742-5468/ab3281",
        "CorpusId": 3975092
      },
      "url": "https://www.semanticscholar.org/paper/fc998c5e7b0fd1609d5a91d700fec3ec9c72838c",
      "title": "Comparing dynamics: deep neural networks versus glassy systems",
      "venue": "International Conference on Machine Learning",
      "year": 2018,
      "referenceCount": 47,
      "citationCount": 127,
      "authors": [
        {
          "authorId": "2334775257",
          "name": "Marco Baity-Jesi"
        },
        {
          "authorId": "2246570",
          "name": "Levent Sagun"
        },
        {
          "authorId": "31784839",
          "name": "M. Geiger"
        },
        {
          "authorId": "12658140",
          "name": "S. Spigler"
        },
        {
          "authorId": "3317660",
          "name": "G. B. Arous"
        },
        {
          "authorId": "50107829",
          "name": "C. Cammarota"
        },
        {
          "authorId": "1688882",
          "name": "Yann LeCun"
        },
        {
          "authorId": "2381413",
          "name": "M. Wyart"
        },
        {
          "authorId": "2188423",
          "name": "G. Biroli"
        }
      ]
    },
    {
      "paperId": "5edccf58098316ec6226632f0ce6b64697891d9e",
      "externalIds": {
        "DOI": "10.3847/1538-4365/ae173f",
        "CorpusId": 283346748
      },
      "url": "https://www.semanticscholar.org/paper/5edccf58098316ec6226632f0ce6b64697891d9e",
      "title": "Self-attention-enhanced Deep Neural Networks for Simulating Post-Newtonian Dynamics of Three-body Systems",
      "venue": "Astrophysical Journal Supplement Series",
      "year": 2025,
      "referenceCount": 30,
      "citationCount": 0,
      "authors": [
        {
          "authorId": "2394908402",
          "name": "Hengjian SiTu"
        },
        {
          "authorId": "2108006669",
          "name": "Xiao-Jun Wu"
        },
        {
          "authorId": "16234883",
          "name": "Bo Yang"
        },
        {
          "authorId": "2239039458",
          "name": "Wenbin Lin"
        }
      ]
    },
    {
      "paperId": "bac47a13d286d90f1436c9f51c2c57e92d2ec59f",
      "externalIds": {
        "DBLP": "journals/tai/RezvanfarWS25",
        "DOI": "10.1109/TAI.2025.3544591",
        "CorpusId": 276661274
      },
      "url": "https://www.semanticscholar.org/paper/bac47a13d286d90f1436c9f51c2c57e92d2ec59f",
      "title": "Enhancement of Robot Dynamics Learning by Integrating Analytical Models into Deep Neural Networks: A Data Fusion Perspective",
      "venue": "IEEE Transactions on Artificial Intelligence",
      "year": 2025,
      "referenceCount": 30,
      "citationCount": 0,
      "authors": [
        {
          "authorId": "2347644556",
          "name": "Erfaan Rezvanfar"
        },
        {
          "authorId": "2331268977",
          "name": "Jing Wang"
        },
        {
          "authorId": "1979525",
          "name": "C. D. de Silva"
        }
      ]
    },
    {
      "paperId": "a9b581a7636b54072ac3284dc6a2e363ccdb126d",
      "externalIds": {
        "PubMedCentral": "12085636",
        "DOI": "10.1038/s41598-025-94086-y",
        "CorpusId": 278720328,
        "PubMed": "40382439"
      },
      "url": "https://www.semanticscholar.org/paper/a9b581a7636b54072ac3284dc6a2e363ccdb126d",
      "title": "Poisson random measure noise-induced coherence in epidemiological priors informed deep neural networks to identify the intensity of virus dynamics",
      "venue": "Scientific Reports",
      "year": 2025,
      "referenceCount": 67,
      "citationCount": 2,
      "authors": [
        {
          "authorId": "46857491",
          "name": "S. Rashid"
        },
        {
          "authorId": "48684793",
          "name": "A. Siddiqa"
        },
        {
          "authorId": "1583168067",
          "name": "Fekadu Tesgera Agama"
        },
        {
          "authorId": "3163866",
          "name": "Nazeran Idrees"
        },
        {
          "authorId": "2167193298",
          "name": "M. S. Alharthi"
        }
      ]
    },
    {
      "paperId": "ffb53e9212bc08ebae53f37701a205d052a1f237",
      "externalIds": {
        "DBLP": "journals/access/ArslanogluAA25",
        "DOI": "10.1109/ACCESS.2025.3559794",
        "CorpusId": 277715804
      },
      "url": "https://www.semanticscholar.org/paper/ffb53e9212bc08ebae53f37701a205d052a1f237",
      "title": "Vision Transformers Versus Convolutional Neural Networks: Comparing Robustness by Exploiting Varying Local Features",
      "venue": "IEEE Access",
      "year": 2025,
      "referenceCount": 39,
      "citationCount": 5,
      "authors": [
        {
          "authorId": "2327642999",
          "name": "M. Arslanoğlu"
        },
        {
          "authorId": "2327639066",
          "name": "Abdülkadir Albayrak"
        },
        {
          "authorId": "2327643022",
          "name": "Hüseyin Acar"
        }
      ]
    },
    {
      "paperId": "6d0ce9ae3440181a0b9079a8ca336de2f3af06d1",
      "externalIds": {
        "DOI": "10.29020/nybg.ejpam.v18i4.6803",
        "CorpusId": 282855970
      },
      "url": "https://www.semanticscholar.org/paper/6d0ce9ae3440181a0b9079a8ca336de2f3af06d1",
      "title": "Data-Driven Modeling of Boussinesq-Burgers Equations: Comparing Physics-Informed Neural Networks (PINNs) with Exact Solutions",
      "venue": "European Journal of Pure and Applied Mathematics",
      "year": 2025,
      "referenceCount": 43,
      "citationCount": 0,
      "authors": [
        {
          "authorId": "2219229438",
          "name": "Ahmad Shafee"
        },
        {
          "authorId": "103780591",
          "name": "Yousuf Alkhezi"
        },
        {
          "authorId": "144335557",
          "name": "Kavikumar Jacob"
        }
      ]
    },
    {
      "paperId": "c69f87452cdde86e55cb13e9e562d22fd0576dc8",
      "externalIds": {
        "PubMedCentral": "12031716",
        "DOI": "10.1007/s11571-025-10247-9",
        "CorpusId": 278100835,
        "PubMed": "40290756"
      },
      "url": "https://www.semanticscholar.org/paper/c69f87452cdde86e55cb13e9e562d22fd0576dc8",
      "title": "Deep neural networks and stochastic methods for cognitive modeling of rat behavioral dynamics in \\documentclass[12pt]{minimal} \\usepackage{amsmath} \\usepackage{wasysym} \\usepackage{amsfonts} \\usepackage{amssymb} \\usepackage{amsbsy} \\usepackage{mathrsfs} \\usepackage{upgreek} \\setlength{\\oddsidemargin",
      "venue": "Cognitive Neurodynamics",
      "year": 2025,
      "referenceCount": 74,
      "citationCount": 0,
      "authors": [
        {
          "authorId": "6148647",
          "name": "A. Turab"
        },
        {
          "authorId": "2301074302",
          "name": "Josué-Antonio Nescolarde-Selva"
        },
        {
          "authorId": "2148716886",
          "name": "Farhan Ullah"
        },
        {
          "authorId": "2301080660",
          "name": "Andrés Montoyo"
        },
        {
          "authorId": "12600753",
          "name": "C. Alfiniyah"
        },
        {
          "authorId": "1947741",
          "name": "W. Sintunavarat"
        },
        {
          "authorId": "2293633289",
          "name": "Doaa Rizk"
        },
        {
          "authorId": "2209385952",
          "name": "Shujaat Ali Zaidi"
        }
      ]
    },
    {
      "paperId": "8bd0dcad3885fb7c22a5aea43cfd4ce33e31d777",
      "externalIds": {
        "DBLP": "journals/tits/YangYZD24",
        "DOI": "10.1109/TITS.2023.3329489",
        "CorpusId": 267121213
      },
      "url": "https://www.semanticscholar.org/paper/8bd0dcad3885fb7c22a5aea43cfd4ce33e31d777",
      "title": "Network-Wide Traffic Flow Dynamics Prediction Leveraging Macroscopic Traffic Flow Model and Deep Neural Networks",
      "venue": "IEEE transactions on intelligent transportation systems (Print)",
      "year": 2024,
      "referenceCount": 59,
      "citationCount": 18,
      "authors": [
        {
          "authorId": "2109714114",
          "name": "Hanyi Yang"
        },
        {
          "authorId": "2244585128",
          "name": "Wanxin Yu"
        },
        {
          "authorId": "2141568445",
          "name": "Guohui Zhang"
        },
        {
          "authorId": "2260473204",
          "name": "Lili Du"
        }
      ]
    },
    {
      "paperId": "c26b5a224482cdd930204534725f6dbe0b21375f",
      "externalIds": {
        "DOI": "10.1109/ICPRS66293.2025.11302850",
        "CorpusId": 284353988
      },
      "url": "https://www.semanticscholar.org/paper/c26b5a224482cdd930204534725f6dbe0b21375f",
      "title": "Physics-Informed Neural Networks for Coupled Fluid Dynamics and Nutrient Transport: A Comparative Study of Causal Training Methods",
      "venue": "2025 15th IEEE International Conference on Pattern Recognition Systems (ICPRS)",
      "year": 2025,
      "referenceCount": 21,
      "citationCount": 0,
      "authors": [
        {
          "authorId": "2401878271",
          "name": "Emir Chacra"
        },
        {
          "authorId": "2401878009",
          "name": "Paul Escapil-Inchauspé"
        },
        {
          "authorId": "2208978666",
          "name": "Luis Martí"
        },
        {
          "authorId": "1403843726",
          "name": "Nayat Sánchez-Pi"
        }
      ]
    },
    {
      "paperId": "8ab776546dc6ab93214df16895195a0aaa70b0ac",
      "externalIds": {
        "ArXiv": "2601.00473",
        "CorpusId": 284475340
      },
      "url": "https://www.semanticscholar.org/paper/8ab776546dc6ab93214df16895195a0aaa70b0ac",
      "title": "Deep Neural Networks as Discrete Dynamical Systems: Implications for Physics-Informed Learning",
      "venue": "",
      "year": 2026,
      "referenceCount": 29,
      "citationCount": 0,
      "authors": [
        {
          "authorId": "2349238241",
          "name": "Abhisek Ganguly"
        },
        {
          "authorId": "2689644",
          "name": "S. Ansumali"
        },
        {
          "authorId": "2252196906",
          "name": "Sauro Succi"
        }
      ]
    }
  ]
}