{
  "total": 4985,
  "offset": 0,
  "next": 10,
  "data": [
    {
      "paperId": "ce91967ac4249509c75d4867953e9516f0001aad",
      "externalIds": {
        "MAG": "2950469615",
        "DBLP": "journals/corr/ShuBG16",
        "ArXiv": "1611.08568",
        "CorpusId": 2818375
      },
      "url": "https://www.semanticscholar.org/paper/ce91967ac4249509c75d4867953e9516f0001aad",
      "title": "Bottleneck Conditional Density Estimation",
      "venue": "International Conference on Machine Learning",
      "year": 2016,
      "referenceCount": 30,
      "citationCount": 24,
      "authors": [
        {
          "authorId": "1978777",
          "name": "Rui Shu"
        },
        {
          "authorId": "145365341",
          "name": "H. Bui"
        },
        {
          "authorId": "1678622",
          "name": "M. Ghavamzadeh"
        }
      ]
    },
    {
      "paperId": "56017f750fff20fdfd151406d19fe852dfaa5c96",
      "externalIds": {
        "CorpusId": 9891050
      },
      "url": "https://www.semanticscholar.org/paper/56017f750fff20fdfd151406d19fe852dfaa5c96",
      "title": "Bottleneck Conditional Density Estimators",
      "venue": "",
      "year": 2016,
      "referenceCount": 28,
      "citationCount": 0,
      "authors": [
        {
          "authorId": "2390992233",
          "name": "R. Stanford"
        }
      ]
    },
    {
      "paperId": "5060ade9e8da500eb6c260134d038072564a7d95",
      "externalIds": {
        "DBLP": "journals/corr/abs-2602-17586",
        "ArXiv": "2602.17586",
        "DOI": "10.48550/arXiv.2602.17586",
        "CorpusId": 285788038
      },
      "url": "https://www.semanticscholar.org/paper/5060ade9e8da500eb6c260134d038072564a7d95",
      "title": "Conditional Flow Matching for Continuous Anomaly Detection in Autonomous Driving on a Manifold-Aware Spectral Space",
      "venue": "arXiv.org",
      "year": 2026,
      "referenceCount": 24,
      "citationCount": 0,
      "authors": [
        {
          "authorId": "2412729715",
          "name": "Antonio Guillen-Perez"
        }
      ]
    },
    {
      "paperId": "c92470b473148a9b92898404e64e9db7fa4ef87c",
      "externalIds": {
        "ArXiv": "2411.01740",
        "DBLP": "journals/jcam/LiLLL25",
        "DOI": "10.48550/arXiv.2411.01740",
        "CorpusId": 273812274
      },
      "url": "https://www.semanticscholar.org/paper/c92470b473148a9b92898404e64e9db7fa4ef87c",
      "title": "A conditional normalizing flow for domain decomposed uncertainty quantification",
      "venue": "Journal of Computational and Applied Mathematics",
      "year": 2024,
      "referenceCount": 68,
      "citationCount": 0,
      "authors": [
        {
          "authorId": "2299284040",
          "name": "Sen Li"
        },
        {
          "authorId": "2339414041",
          "name": "Ke Li"
        },
        {
          "authorId": "2339051892",
          "name": "Yu Liu"
        },
        {
          "authorId": "2278429515",
          "name": "Qifeng Liao"
        }
      ]
    },
    {
      "paperId": "abbe866a8be8d96da8fc0838c4034cecba2837e3",
      "externalIds": {
        "MAG": "2117999308",
        "DOI": "10.5705/SS.2011.319",
        "CorpusId": 55423497
      },
      "url": "https://www.semanticscholar.org/paper/abbe866a8be8d96da8fc0838c4034cecba2837e3",
      "title": "NONPARAMETRIC DENSITY ESTIMATION IN HIGH-DIMENSIONS",
      "venue": "",
      "year": 2013,
      "referenceCount": 14,
      "citationCount": 27,
      "authors": [
        {
          "authorId": "145720948",
          "name": "Chong Gu"
        },
        {
          "authorId": "3304956",
          "name": "Yongho Jeon"
        },
        {
          "authorId": "2419213909",
          "name": "Yi Lin"
        }
      ]
    },
    {
      "paperId": "5ec7b2cb2451b91c073d636a2254d145831119b2",
      "externalIds": {
        "MAG": "2020422536",
        "DBLP": "conf/iros/TaD14",
        "DOI": "10.1109/IROS.2014.6943208",
        "CorpusId": 15475950
      },
      "url": "https://www.semanticscholar.org/paper/5ec7b2cb2451b91c073d636a2254d145831119b2",
      "title": "Linear-time estimation with tree assumed density filtering and low-rank approximation",
      "venue": "2014 IEEE/RSJ International Conference on Intelligent Robots and Systems",
      "year": 2014,
      "referenceCount": 33,
      "citationCount": 1,
      "authors": [
        {
          "authorId": "2249702",
          "name": "Duy-Nguyen Ta"
        },
        {
          "authorId": "2038264",
          "name": "F. Dellaert"
        }
      ]
    },
    {
      "paperId": "d1c424c261c577958917055f72fb9e2ad0348865",
      "externalIds": {
        "ArXiv": "1712.09763",
        "MAG": "2951777598",
        "DBLP": "conf/iclr/0022MRA18",
        "CorpusId": 6199526
      },
      "url": "https://www.semanticscholar.org/paper/d1c424c261c577958917055f72fb9e2ad0348865",
      "title": "PixelSNAIL: An Improved Autoregressive Generative Model",
      "venue": "International Conference on Machine Learning",
      "year": 2017,
      "referenceCount": 38,
      "citationCount": 305,
      "authors": [
        {
          "authorId": "41192764",
          "name": "Xi Chen"
        },
        {
          "authorId": "3414570",
          "name": "Nikhil Mishra"
        },
        {
          "authorId": "22222033",
          "name": "Mostafa Rohaninejad"
        },
        {
          "authorId": "1689992",
          "name": "P. Abbeel"
        }
      ]
    },
    {
      "paperId": "5e5195545aaf34a0846e7f9d92bdc83973dbb535",
      "externalIds": {
        "MAG": "2949177598",
        "ArXiv": "1805.05480",
        "DOI": "10.1080/10618600.2018.1546594",
        "CorpusId": 88522703
      },
      "url": "https://www.semanticscholar.org/paper/5e5195545aaf34a0846e7f9d92bdc83973dbb535",
      "title": "ABC–CDE: Toward Approximate Bayesian Computation With Complex High-Dimensional Data and Limited Simulations",
      "venue": "Journal of Computational And Graphical Statistics",
      "year": 2018,
      "referenceCount": 53,
      "citationCount": 37,
      "authors": [
        {
          "authorId": "2790601",
          "name": "Rafael Izbicki"
        },
        {
          "authorId": "1832448",
          "name": "Ann B. Lee"
        },
        {
          "authorId": "41016167",
          "name": "T. Pospisil"
        }
      ]
    },
    {
      "paperId": "7f236978ab7425cb0252d25755263950b6313f67",
      "externalIds": {
        "MAG": "2900797118",
        "DBLP": "journals/corr/abs-1811-06060",
        "ArXiv": "1811.06060",
        "CorpusId": 53437726
      },
      "url": "https://www.semanticscholar.org/paper/7f236978ab7425cb0252d25755263950b6313f67",
      "title": "Hybrid Generative-Discriminative Models for Inverse Materials Design",
      "venue": "arXiv.org",
      "year": 2018,
      "referenceCount": 40,
      "citationCount": 6,
      "authors": [
        {
          "authorId": "2056638738",
          "name": "Phuoc Nguyen"
        },
        {
          "authorId": "6254479",
          "name": "T. Tran"
        },
        {
          "authorId": "119971153",
          "name": "Sunil Gupta"
        },
        {
          "authorId": "2285720075",
          "name": "Santu Rana"
        },
        {
          "authorId": "143761093",
          "name": "S. Venkatesh"
        }
      ]
    },
    {
      "paperId": "363e4b062525afc2b6447ffddc383226e5c85f9c",
      "externalIds": {
        "ArXiv": "1905.10945",
        "CorpusId": 251135457
      },
      "url": "https://www.semanticscholar.org/paper/363e4b062525afc2b6447ffddc383226e5c85f9c",
      "title": "Learning with Succinct Common Representation Based on Wyner's Common Information",
      "venue": "",
      "year": 2019,
      "referenceCount": 73,
      "citationCount": 3,
      "authors": [
        {
          "authorId": "51150422",
          "name": "J. Ryu"
        },
        {
          "authorId": "2501862",
          "name": "Yoojin Choi"
        },
        {
          "authorId": "2133040627",
          "name": "Young-Han Kim"
        },
        {
          "authorId": "1382637019",
          "name": "Mostafa El-Khamy"
        },
        {
          "authorId": "35462690",
          "name": "Jungwon Lee"
        }
      ]
    }
  ]
}