{
  "total": 714,
  "offset": 0,
  "next": 10,
  "data": [
    {
      "paperId": "4e2d0a6aacd02d1ba409ff421cfc3bf9cad7958f",
      "externalIds": {
        "DBLP": "journals/corr/ZhaoPX16",
        "MAG": "2311883613",
        "ArXiv": "1603.07323",
        "CorpusId": 7217962
      },
      "url": "https://www.semanticscholar.org/paper/4e2d0a6aacd02d1ba409ff421cfc3bf9cad7958f",
      "title": "Learning Mixtures of Plackett-Luce Models",
      "venue": "International Conference on Machine Learning",
      "year": 2016,
      "referenceCount": 33,
      "citationCount": 50,
      "authors": [
        {
          "authorId": "2495710",
          "name": "Zhibing Zhao"
        },
        {
          "authorId": "3373396",
          "name": "P. Piech"
        },
        {
          "authorId": "35276487",
          "name": "Lirong Xia"
        }
      ]
    },
    {
      "paperId": "03d12f37e7794607d5eca1397c98a52cbf80abf3",
      "externalIds": {
        "MAG": "2970931635",
        "ArXiv": "1910.11721",
        "DBLP": "journals/corr/abs-1910-11721",
        "CorpusId": 202767430
      },
      "url": "https://www.semanticscholar.org/paper/03d12f37e7794607d5eca1397c98a52cbf80abf3",
      "title": "Learning Mixtures of Plackett-Luce Models from Structured Partial Orders",
      "venue": "Neural Information Processing Systems",
      "year": 2019,
      "referenceCount": 38,
      "citationCount": 24,
      "authors": [
        {
          "authorId": "2495710",
          "name": "Zhibing Zhao"
        },
        {
          "authorId": "33406973",
          "name": "Lirong Xia"
        }
      ]
    },
    {
      "paperId": "b10dbb26277dd57374b5274929a9f10871d1130c",
      "externalIds": {
        "ArXiv": "2302.05343",
        "DBLP": "journals/corr/abs-2302-05343",
        "DOI": "10.48550/arXiv.2302.05343",
        "CorpusId": 256808702
      },
      "url": "https://www.semanticscholar.org/paper/b10dbb26277dd57374b5274929a9f10871d1130c",
      "title": "Efficient and Accurate Learning of Mixtures of Plackett-Luce Models",
      "venue": "AAAI Conference on Artificial Intelligence",
      "year": 2023,
      "referenceCount": 50,
      "citationCount": 8,
      "authors": [
        {
          "authorId": "2112294458",
          "name": "D. Nguyen"
        },
        {
          "authorId": "2715547",
          "name": "A. Zhang"
        }
      ]
    },
    {
      "paperId": "041f9e6ca65c0d8f8a6e3c5760c4475df391a5ac",
      "externalIds": {
        "MAG": "3033670814",
        "DBLP": "journals/corr/abs-2006-03869",
        "CorpusId": 219531847
      },
      "url": "https://www.semanticscholar.org/paper/041f9e6ca65c0d8f8a6e3c5760c4475df391a5ac",
      "title": "Learning Mixtures of Plackett-Luce Models with Features from Top-$l$ Orders",
      "venue": "arXiv.org",
      "year": 2020,
      "referenceCount": 36,
      "citationCount": 4,
      "authors": [
        {
          "authorId": "2495710",
          "name": "Zhibing Zhao"
        },
        {
          "authorId": "33406973",
          "name": "Lirong Xia"
        }
      ]
    },
    {
      "paperId": "26e16a4a02f2132b1dd2b863039d85bfca494c3a",
      "externalIds": {
        "MAG": "2549413660",
        "CorpusId": 63261187
      },
      "url": "https://www.semanticscholar.org/paper/26e16a4a02f2132b1dd2b863039d85bfca494c3a",
      "title": "Generalized method of moments algorithm for learning mixtures of Plackett-Luce models",
      "venue": "",
      "year": 2016,
      "referenceCount": 0,
      "citationCount": 0,
      "authors": [
        {
          "authorId": "3373396",
          "name": "P. Piech"
        }
      ]
    },
    {
      "paperId": "74939e4d1519d4b77e77437cf7eff7ad3c6a7aeb",
      "externalIds": {
        "DBLP": "conf/ijcai/ZhaoLX22",
        "ArXiv": "2006.03869",
        "DOI": "10.24963/ijcai.2022/525",
        "CorpusId": 248506233
      },
      "url": "https://www.semanticscholar.org/paper/74939e4d1519d4b77e77437cf7eff7ad3c6a7aeb",
      "title": "Learning Mixtures of Random Utility Models with Features from Incomplete Preferences",
      "venue": "International Joint Conference on Artificial Intelligence",
      "year": 2020,
      "referenceCount": 49,
      "citationCount": 7,
      "authors": [
        {
          "authorId": "2495710",
          "name": "Zhibing Zhao"
        },
        {
          "authorId": "2113950726",
          "name": "Ao Liu"
        },
        {
          "authorId": "33406973",
          "name": "Lirong Xia"
        }
      ]
    },
    {
      "paperId": "7aecc1724bb7b63eda1464e1200c0b21734343f6",
      "externalIds": {
        "DBLP": "conf/aaai/ZhaoVX18",
        "MAG": "2788924348",
        "DOI": "10.1609/aaai.v32i1.11727",
        "CorpusId": 22050266
      },
      "url": "https://www.semanticscholar.org/paper/7aecc1724bb7b63eda1464e1200c0b21734343f6",
      "title": "Learning Mixtures of Random Utility Models",
      "venue": "AAAI Conference on Artificial Intelligence",
      "year": 2018,
      "referenceCount": 26,
      "citationCount": 19,
      "authors": [
        {
          "authorId": "2495710",
          "name": "Zhibing Zhao"
        },
        {
          "authorId": "41036990",
          "name": "Tristan Villamil"
        },
        {
          "authorId": "35276487",
          "name": "Lirong Xia"
        }
      ]
    },
    {
      "paperId": "5307b587b047a09f9c16cb8867ae648bcf9ea88e",
      "externalIds": {
        "ArXiv": "2201.13132",
        "DBLP": "journals/corr/abs-2201-13132",
        "CorpusId": 246430274
      },
      "url": "https://www.semanticscholar.org/paper/5307b587b047a09f9c16cb8867ae648bcf9ea88e",
      "title": "On the identifiability of mixtures of ranking models",
      "venue": "arXiv.org",
      "year": 2022,
      "referenceCount": 57,
      "citationCount": 8,
      "authors": [
        {
          "authorId": "2128111429",
          "name": "Xiaomin Zhang"
        },
        {
          "authorId": "2108084285",
          "name": "Xucheng Zhang"
        },
        {
          "authorId": "31888158",
          "name": "Po-Ling Loh"
        },
        {
          "authorId": "40609253",
          "name": "Yingyu Liang"
        }
      ]
    },
    {
      "paperId": "3e1929f3662512a75ed5faa6524d8be04d89daa4",
      "externalIds": {
        "DBLP": "conf/iip/LiaoZBL24",
        "DOI": "10.1007/978-3-031-57919-6_2",
        "CorpusId": 269043572
      },
      "url": "https://www.semanticscholar.org/paper/3e1929f3662512a75ed5faa6524d8be04d89daa4",
      "title": "Dynamic Parameter Estimation for Mixtures of Plackett-Luce Models",
      "venue": "IFIP International Conference on Intelligent Information Processing",
      "year": 2024,
      "referenceCount": 0,
      "citationCount": 0,
      "authors": [
        {
          "authorId": "2295992580",
          "name": "A. Liao"
        },
        {
          "authorId": "2296130395",
          "name": "Zan Zhang"
        },
        {
          "authorId": "2295992572",
          "name": "Chenyang Bu"
        },
        {
          "authorId": "2296025074",
          "name": "Lei Li"
        }
      ]
    },
    {
      "paperId": "de23a31b1f81438f7b648cb8424dd75188955d88",
      "externalIds": {
        "DBLP": "journals/corr/abs-2511-17805",
        "ArXiv": "2511.17805",
        "DOI": "10.48550/arXiv.2511.17805",
        "CorpusId": 283245521
      },
      "url": "https://www.semanticscholar.org/paper/de23a31b1f81438f7b648cb8424dd75188955d88",
      "title": "A Stitch in Time: Learning Procedural Workflow via Self-Supervised Plackett-Luce Ranking",
      "venue": "arXiv.org",
      "year": 2025,
      "referenceCount": 70,
      "citationCount": 0,
      "authors": [
        {
          "authorId": "2352014061",
          "name": "Chengan Che"
        },
        {
          "authorId": "2352258796",
          "name": "Chao Wang"
        },
        {
          "authorId": "2352511125",
          "name": "Xinyue Chen"
        },
        {
          "authorId": "2245740879",
          "name": "Sophia Tsoka"
        },
        {
          "authorId": "1409483636",
          "name": "Luis C. García-Peraza-Herrera"
        }
      ]
    }
  ]
}