{
  "total": 18,
  "offset": 0,
  "next": 10,
  "data": [
    {
      "paperId": "8858f0265df83345335ab5629bf957560b9583d8",
      "externalIds": {
        "DBLP": "conf/icml/LiaoC18a",
        "ArXiv": "1805.11917",
        "MAG": "2803731016",
        "CorpusId": 44169649
      },
      "url": "https://www.semanticscholar.org/paper/8858f0265df83345335ab5629bf957560b9583d8",
      "title": "The Dynamics of Learning: A Random Matrix Approach",
      "venue": "International Conference on Machine Learning",
      "year": 2018,
      "referenceCount": 32,
      "citationCount": 43,
      "authors": [
        {
          "authorId": "143895642",
          "name": "Zhenyu Liao"
        },
        {
          "authorId": "1690223",
          "name": "Romain Couillet"
        }
      ]
    },
    {
      "paperId": "c17095099a4532a1650a81394507f41032a1676c",
      "externalIds": {
        "PubMedCentral": "8413283",
        "DOI": "10.1038/s41598-021-97100-1",
        "CorpusId": 237399623,
        "PubMed": "34475512"
      },
      "url": "https://www.semanticscholar.org/paper/c17095099a4532a1650a81394507f41032a1676c",
      "title": "Structure and dynamics of financial networks by feature ranking method",
      "venue": "Scientific Reports",
      "year": 2021,
      "referenceCount": 42,
      "citationCount": 14,
      "authors": [
        {
          "authorId": "2141114149",
          "name": "Mahmudul Islam Rakib"
        },
        {
          "authorId": "16300596",
          "name": "A. Nobi"
        },
        {
          "authorId": "46663433",
          "name": "Jae Woo Lee"
        }
      ]
    },
    {
      "paperId": "eabe17c604ce8e349b460bb383bb2fbf5e385ef2",
      "externalIds": {
        "DOI": "10.1177/09544119211000477",
        "CorpusId": 232161029,
        "PubMed": "33685288"
      },
      "url": "https://www.semanticscholar.org/paper/eabe17c604ce8e349b460bb383bb2fbf5e385ef2",
      "title": "Cerebral aneurysm rupture status classification using statistical and machine learning methods",
      "venue": "Proceedings of the Institution of mechanical engineers. Part H, journal of engineering in medicine",
      "year": 2021,
      "referenceCount": 42,
      "citationCount": 21,
      "authors": [
        {
          "authorId": "93097936",
          "name": "N. Amigo"
        },
        {
          "authorId": "144274831",
          "name": "Á. Valencia"
        },
        {
          "authorId": "2144356553",
          "name": "Wei Wu"
        },
        {
          "authorId": "36755203",
          "name": "Sourav S Patnaik"
        },
        {
          "authorId": "2642538",
          "name": "E. Finol"
        }
      ]
    },
    {
      "paperId": "66cf297078059eecfbf54fbe4b31f7aff9b29a7e",
      "externalIds": {
        "PubMedCentral": "12549937",
        "DOI": "10.1038/s41598-025-19288-w",
        "CorpusId": 282322671,
        "PubMed": "41131036"
      },
      "url": "https://www.semanticscholar.org/paper/66cf297078059eecfbf54fbe4b31f7aff9b29a7e",
      "title": "Prediction of waste generation forecast and emission potential on the Erode City solid waste dump yards based on machine learning approach",
      "venue": "Scientific Reports",
      "year": 2025,
      "referenceCount": 34,
      "citationCount": 34,
      "authors": [
        {
          "authorId": "9246913",
          "name": "E. Priyanka"
        },
        {
          "authorId": "2369594940",
          "name": "S. Vijayshanthy"
        },
        {
          "authorId": "73181166",
          "name": "S. Thangavel"
        },
        {
          "authorId": "2302396210",
          "name": "R. Anand"
        },
        {
          "authorId": "2322005653",
          "name": "G. Bhavana"
        },
        {
          "authorId": "2271667144",
          "name": "Baseem Khan"
        },
        {
          "authorId": "2369604438",
          "name": "K. Jeyanthi"
        },
        {
          "authorId": "2387377776",
          "name": "A. Ambikapathy"
        }
      ]
    },
    {
      "paperId": "cea45c353a69145574b43aa5900df432d931bf95",
      "externalIds": {
        "DOI": "10.1063/5.0253234",
        "CorpusId": 276378996
      },
      "url": "https://www.semanticscholar.org/paper/cea45c353a69145574b43aa5900df432d931bf95",
      "title": "High-to-low flow dynamics learning with deep convolutional encoder–decoder networks for randomly packed pebble-bed geometry",
      "venue": "The Physics of Fluids",
      "year": 2025,
      "referenceCount": 31,
      "citationCount": 5,
      "authors": [
        {
          "authorId": "2284566461",
          "name": "David Lanade"
        },
        {
          "authorId": "2369699505",
          "name": "Yang Liu"
        },
        {
          "authorId": "2242580508",
          "name": "Yassin A. Hassan"
        }
      ]
    },
    {
      "paperId": "60b1aa959be0c38a098851b614576ac9e7ffacda",
      "externalIds": {
        "DOI": "10.33920/vne-04-2406-06",
        "CorpusId": 272628905
      },
      "url": "https://www.semanticscholar.org/paper/60b1aa959be0c38a098851b614576ac9e7ffacda",
      "title": "Analysis of Stability of The Banking System with The Hurwitz Criterion and Forecasting by The Random Forest Deep Learning Model",
      "venue": "Mezhdunarodnaja jekonomika (The World Economics)",
      "year": 2024,
      "referenceCount": 10,
      "citationCount": 0,
      "authors": [
        {
          "authorId": "2320977237",
          "name": "N. I. N. I."
        },
        {
          "authorId": "2280968784",
          "name": "T. Kuzmina"
        },
        {
          "authorId": "134429281",
          "name": "M. S. Maramygin"
        },
        {
          "authorId": "2320972561",
          "name": "O. A. Minaeva"
        },
        {
          "authorId": "2276471746",
          "name": "O. Yurova"
        },
        {
          "authorId": "2139905922",
          "name": "M. Petrova"
        }
      ]
    },
    {
      "paperId": "0652becfe36f14a7c2340410a7d54c4d8d3b366b",
      "externalIds": {
        "ArXiv": "2505.14245",
        "DBLP": "journals/corr/abs-2505-14245",
        "DOI": "10.48550/arXiv.2505.14245",
        "CorpusId": 278769643
      },
      "url": "https://www.semanticscholar.org/paper/0652becfe36f14a7c2340410a7d54c4d8d3b366b",
      "title": "Path-integral molecular dynamics with actively-trained and universal machine learning force fields",
      "venue": "arXiv.org",
      "year": 2025,
      "referenceCount": 59,
      "citationCount": 0,
      "authors": [
        {
          "authorId": "89163221",
          "name": "A. A. Solovykh"
        },
        {
          "authorId": "103690110",
          "name": "N. Rybin"
        },
        {
          "authorId": "2362508285",
          "name": "I. Novikov"
        },
        {
          "authorId": "2362508398",
          "name": "A. University"
        },
        {
          "authorId": "7947259",
          "name": "F. O. Physics"
        },
        {
          "authorId": "2264641633",
          "name": "Moscow"
        },
        {
          "authorId": "2196510705",
          "name": "Russian Federation"
        },
        {
          "authorId": "152381886",
          "name": "S. I. O. N. Physics"
        },
        {
          "authorId": "103217910",
          "name": "Lomonosov Moscow State University"
        },
        {
          "authorId": "1388347253",
          "name": "Skolkovo Institute of Science"
        },
        {
          "authorId": "2172411001",
          "name": "Technology"
        },
        {
          "authorId": "2362508301",
          "name": "Digital Materials Llc"
        },
        {
          "authorId": "2362508344",
          "name": "Odintsovo"
        },
        {
          "authorId": "2067295223",
          "name": "Hse University"
        },
        {
          "authorId": "102746736",
          "name": "F. Science"
        },
        {
          "authorId": "51898543",
          "name": "Moscow Institute of Physics"
        },
        {
          "authorId": "2362502232",
          "name": "Emanuel Institute of Biochemical Physics of the Russian Ac Sciences"
        }
      ]
    },
    {
      "paperId": "0683b806d92081dd1b3b4ff3fb815d651703dcf1",
      "externalIds": {
        "DOI": "10.2523/iptc-23969-ms",
        "CorpusId": 268104354
      },
      "url": "https://www.semanticscholar.org/paper/0683b806d92081dd1b3b4ff3fb815d651703dcf1",
      "title": "Prediction of Pure Mineral-H2-Brine Wettability Using Data-Driven Machine Learning Modeling: Implications for H2 Geo-Storage",
      "venue": "Day 3 Wed, February 14, 2024",
      "year": 2024,
      "referenceCount": 49,
      "citationCount": 12,
      "authors": [
        {
          "authorId": "2288590677",
          "name": "Muhammad Ali"
        },
        {
          "authorId": "2238708714",
          "name": "Z. Tariq"
        },
        {
          "authorId": "2260333170",
          "name": "Muhammad Mubashir"
        },
        {
          "authorId": "2253499182",
          "name": "M. S. Kamal"
        },
        {
          "authorId": "2256660585",
          "name": "Bicheng Yan"
        },
        {
          "authorId": "1735604",
          "name": "H. Hoteit"
        }
      ]
    },
    {
      "paperId": "bec1b1249d1569cceee5e9952e03622ec5492481",
      "externalIds": {
        "PubMedCentral": "12650524",
        "DOI": "10.3390/bioengineering12111271",
        "CorpusId": 283182389,
        "PubMed": "41301229"
      },
      "url": "https://www.semanticscholar.org/paper/bec1b1249d1569cceee5e9952e03622ec5492481",
      "title": "A Novel Unsupervised You Only Listen Once (YOLO) Machine Learning Platform for Automatic Detection and Characterization of Prominent Bowel Sounds Towards Precision Medicine",
      "venue": "Bioengineering",
      "year": 2025,
      "referenceCount": 41,
      "citationCount": 1,
      "authors": [
        {
          "authorId": "2375436059",
          "name": "Gayathri Yerrapragada"
        },
        {
          "authorId": "2375408709",
          "name": "Jieun Lee"
        },
        {
          "authorId": "2393646954",
          "name": "Mohammad Naveed Shariff"
        },
        {
          "authorId": "2372086341",
          "name": "Poonguzhali Elangovan"
        },
        {
          "authorId": "2170010438",
          "name": "Keerthy Gopalakrishnan"
        },
        {
          "authorId": "2372099799",
          "name": "Avneet Kaur"
        },
        {
          "authorId": "2299975150",
          "name": "Divyanshi Sood"
        },
        {
          "authorId": "2372089419",
          "name": "Swetha Rapolu"
        },
        {
          "authorId": "2393654961",
          "name": "Jay Gohri"
        },
        {
          "authorId": "2211736042",
          "name": "Gianeshwaree Alias Rachna Panjwani"
        },
        {
          "authorId": "2372092127",
          "name": "R. Ansari"
        },
        {
          "authorId": "2386210261",
          "name": "Jahnavi Mikkilineni"
        },
        {
          "authorId": "2361573319",
          "name": "Naghmeh Asadimanesh"
        },
        {
          "authorId": "2383379993",
          "name": "Thangeswaran Natarajan"
        },
        {
          "authorId": "2383384473",
          "name": "Jayarajasekaran Janarthanan"
        },
        {
          "authorId": "2372089684",
          "name": "Shiva Sankari Karuppiah"
        },
        {
          "authorId": "2238934444",
          "name": "Vivek N Iyer"
        },
        {
          "authorId": "2301635281",
          "name": "Scott A. Helgeson"
        },
        {
          "authorId": "2370430862",
          "name": "Venkata S. Akshintala"
        },
        {
          "authorId": "2144825196",
          "name": "S. Arunachalam"
        }
      ]
    },
    {
      "paperId": "27fa337bbaae90b78be95513dd3e34b981e1b0bb",
      "externalIds": {
        "MAG": "2899961353",
        "ArXiv": "1807.05051",
        "DOI": "10.1103/PhysRevB.98.174202",
        "CorpusId": 119341207
      },
      "url": "https://www.semanticscholar.org/paper/27fa337bbaae90b78be95513dd3e34b981e1b0bb",
      "title": "Many-body localization and delocalization in large quantum chains",
      "venue": "Physical review B",
      "year": 2018,
      "referenceCount": 78,
      "citationCount": 148,
      "authors": [
        {
          "authorId": "9944129",
          "name": "Elmer V. H. Doggen"
        },
        {
          "authorId": "48576376",
          "name": "F. Schindler"
        },
        {
          "authorId": "5878930",
          "name": "K. Tikhonov"
        },
        {
          "authorId": "9969835",
          "name": "A. Mirlin"
        },
        {
          "authorId": "6035384",
          "name": "T. Neupert"
        },
        {
          "authorId": "2137736375",
          "name": "D. Polyakov"
        },
        {
          "authorId": "9923145",
          "name": "I. Gornyi"
        }
      ]
    }
  ]
}