{
  "total": 145625,
  "offset": 0,
  "next": 10,
  "data": [
    {
      "paperId": "aa6c644ce16fa178b3ef838336ad3e2f3e53dc8b",
      "externalIds": {
        "DBLP": "conf/icml/LianHRLC15",
        "MAG": "2165291667",
        "CorpusId": 15492288
      },
      "url": "https://www.semanticscholar.org/paper/aa6c644ce16fa178b3ef838336ad3e2f3e53dc8b",
      "title": "A Multitask Point Process Predictive Model",
      "venue": "International Conference on Machine Learning",
      "year": 2015,
      "referenceCount": 22,
      "citationCount": 64,
      "authors": [
        {
          "authorId": "39749922",
          "name": "Wenzhao Lian"
        },
        {
          "authorId": "145153424",
          "name": "Ricardo Henao"
        },
        {
          "authorId": "144208693",
          "name": "Vinayak A. Rao"
        },
        {
          "authorId": "1816731",
          "name": "J. Lucas"
        },
        {
          "authorId": "145006560",
          "name": "L. Carin"
        }
      ]
    },
    {
      "paperId": "7337ecea4d919c76734a41c6262f906c68cf98bb",
      "externalIds": {
        "DOI": "10.1155/2024/2308876",
        "CorpusId": 274096402
      },
      "url": "https://www.semanticscholar.org/paper/7337ecea4d919c76734a41c6262f906c68cf98bb",
      "title": "A Multiple‐Point Deformation Monitoring Model for Ultrahigh Arch Dams Using Temperature Lag and Optimized Gaussian Process Regression",
      "venue": "Structural Control & Health Monitoring",
      "year": 2024,
      "referenceCount": 42,
      "citationCount": 5,
      "authors": [
        {
          "authorId": "2303237201",
          "name": "Bangbin Wu"
        },
        {
          "authorId": "2303072121",
          "name": "Jingtai Niu"
        },
        {
          "authorId": "2305094778",
          "name": "Zhiping Deng"
        },
        {
          "authorId": "2000208720",
          "name": "Shuanglong Li"
        },
        {
          "authorId": "2331324366",
          "name": "Xinxin Jiang"
        },
        {
          "authorId": "51243606",
          "name": "Wuwen Qian"
        },
        {
          "authorId": "2108332389",
          "name": "Zhiqiang Wang"
        }
      ]
    },
    {
      "paperId": "07b78c932cdf83f8240b568fafc342b000ea6977",
      "externalIds": {
        "DOI": "10.1016/j.jprocont.2023.103133",
        "CorpusId": 265873478
      },
      "url": "https://www.semanticscholar.org/paper/07b78c932cdf83f8240b568fafc342b000ea6977",
      "title": "A two-dimensional model predictive iterative learning control based on the set point learning strategy for batch processes",
      "venue": "Journal of Process Control",
      "year": 2024,
      "referenceCount": 28,
      "citationCount": 15,
      "authors": [
        {
          "authorId": "2271493658",
          "name": "Haisheng Li"
        },
        {
          "authorId": "2271237004",
          "name": "Jianjun Bai"
        },
        {
          "authorId": "38451923",
          "name": "Hongbo Zou"
        },
        {
          "authorId": "2269952151",
          "name": "Xunyuan Yin"
        },
        {
          "authorId": "2269817665",
          "name": "Ridong Zhang"
        }
      ]
    },
    {
      "paperId": "1144245941c5e07e51bf5a82e15eeebd1dd02bcf",
      "externalIds": {
        "DBLP": "journals/corr/abs-2510-25053",
        "ArXiv": "2510.25053",
        "DOI": "10.48550/arXiv.2510.25053",
        "CorpusId": 282573565
      },
      "url": "https://www.semanticscholar.org/paper/1144245941c5e07e51bf5a82e15eeebd1dd02bcf",
      "title": "Scalable predictive processing framework for multitask caregiving robots",
      "venue": "arXiv.org",
      "year": 2025,
      "referenceCount": 0,
      "citationCount": 0,
      "authors": [
        {
          "authorId": "40893328",
          "name": "Hayato Idei"
        },
        {
          "authorId": "19469689",
          "name": "Tamon Miyake"
        },
        {
          "authorId": "2276525879",
          "name": "Tetsuya Ogata"
        },
        {
          "authorId": "2258710761",
          "name": "Yuichi Yamashita"
        }
      ]
    },
    {
      "paperId": "7966b7ca6cc65d518ce6bd454e98ebf9c0035aa0",
      "externalIds": {
        "DOI": "10.1177/09544089251377617",
        "CorpusId": 281481244
      },
      "url": "https://www.semanticscholar.org/paper/7966b7ca6cc65d518ce6bd454e98ebf9c0035aa0",
      "title": "Machine learning-based predictive model for wire electric discharge machining of Incoloy 800H",
      "venue": "Proceedings of the Institution of mechanical engineers. Part E, journal of process mechanical engineering",
      "year": 2025,
      "referenceCount": 33,
      "citationCount": 1,
      "authors": [
        {
          "authorId": "2330380689",
          "name": "Ashwani Sharma"
        },
        {
          "authorId": "2381420156",
          "name": "A. Thakur"
        },
        {
          "authorId": "2333284456",
          "name": "Joy Prakash Misra"
        }
      ]
    },
    {
      "paperId": "1f66699f86fde18cf39a5237ed41044f99ad1bea",
      "externalIds": {
        "DOI": "10.1016/j.psychres.2024.115896",
        "CorpusId": 268930726,
        "PubMed": "38626625"
      },
      "url": "https://www.semanticscholar.org/paper/1f66699f86fde18cf39a5237ed41044f99ad1bea",
      "title": "Enhancing psychiatric rehabilitation outcomes through a multimodal multitask learning model based on BERT and TabNet: An approach for personalized treatment and improved decision-making.",
      "venue": "Psychiatry Research",
      "year": 2024,
      "referenceCount": 122,
      "citationCount": 14,
      "authors": [
        {
          "authorId": "2290933857",
          "name": "Hongyi Yang"
        },
        {
          "authorId": "2290565299",
          "name": "Dian Zhu"
        },
        {
          "authorId": "2295308992",
          "name": "Siyuan He"
        },
        {
          "authorId": "2290622073",
          "name": "Zhiqi Xu"
        },
        {
          "authorId": "2295482845",
          "name": "Zhao Liu"
        },
        {
          "authorId": "2108226428",
          "name": "Weibo Zhang"
        },
        {
          "authorId": "2290476231",
          "name": "Jun Cai"
        }
      ]
    },
    {
      "paperId": "d6ce25f390c456f95b545e4c31f4139798a7a4e7",
      "externalIds": {
        "DBLP": "conf/rtsi/IborraRoncalesMSMM25",
        "DOI": "10.1109/RTSI64020.2025.11212419",
        "CorpusId": 282576062
      },
      "url": "https://www.semanticscholar.org/paper/d6ce25f390c456f95b545e4c31f4139798a7a4e7",
      "title": "Breast Cancer Staging From PET/MRI by Means of a Machine Learning-Based Predictive Model",
      "venue": "International Forum on Research and Technologies for Society and Industry Leveraging a better tomorrow",
      "year": 2025,
      "referenceCount": 7,
      "citationCount": 0,
      "authors": [
        {
          "authorId": "2389338432",
          "name": "Ignacio Iborra-Roncales"
        },
        {
          "authorId": "2274065954",
          "name": "Juan Antonio Romero Martín"
        },
        {
          "authorId": "51241726",
          "name": "J. M. Santabárbara"
        },
        {
          "authorId": "2274011285",
          "name": "A. Maceira"
        },
        {
          "authorId": "2251428490",
          "name": "David Moratal"
        }
      ]
    },
    {
      "paperId": "cc3c0490f39d5003b58fad340086a6f3affd4425",
      "externalIds": {
        "ArXiv": "2202.09942",
        "DBLP": "conf/icassp/ZandDFMGE22",
        "DOI": "10.1109/icassp43922.2022.9747776",
        "CorpusId": 247011989
      },
      "url": "https://www.semanticscholar.org/paper/cc3c0490f39d5003b58fad340086a6f3affd4425",
      "title": "Multiscale Crowd Counting and Localization By Multitask Point Supervision",
      "venue": "IEEE International Conference on Acoustics, Speech, and Signal Processing",
      "year": 2022,
      "referenceCount": 24,
      "citationCount": 49,
      "authors": [
        {
          "authorId": "34682108",
          "name": "Mohsen Zand"
        },
        {
          "authorId": "2029679966",
          "name": "Haleh Damirchi"
        },
        {
          "authorId": "2069773145",
          "name": "A. Farley"
        },
        {
          "authorId": "1491639188",
          "name": "Mahdiyar Molahasani"
        },
        {
          "authorId": "35019530",
          "name": "M. Greenspan"
        },
        {
          "authorId": "1379982213",
          "name": "Ali Etemad"
        }
      ]
    },
    {
      "paperId": "ec10f1bdb2796bfbc7af47d83fd596a818166647",
      "externalIds": {
        "PubMedCentral": "11711404",
        "DOI": "10.1038/s41598-024-83220-x",
        "CorpusId": 275422267,
        "PubMed": "39779771"
      },
      "url": "https://www.semanticscholar.org/paper/ec10f1bdb2796bfbc7af47d83fd596a818166647",
      "title": "Predecting power transformer health index and life expectation based on digital twins and multitask LSTM-GRU model",
      "venue": "Scientific Reports",
      "year": 2025,
      "referenceCount": 31,
      "citationCount": 18,
      "authors": [
        {
          "authorId": "2358382489",
          "name": "Nora El-Rashidy"
        },
        {
          "authorId": "100640630",
          "name": "Yara A. Sultan"
        },
        {
          "authorId": "2328461223",
          "name": "Zainab H. Ali"
        }
      ]
    },
    {
      "paperId": "82318c5c96d11eb1b525637d51650d81a7bafd06",
      "externalIds": {
        "DBLP": "journals/jihmsp/ChungCL16",
        "MAG": "2741318544",
        "CorpusId": 117422751
      },
      "url": "https://www.semanticscholar.org/paper/82318c5c96d11eb1b525637d51650d81a7bafd06",
      "title": "Constructing the predictive model for strategy execution problems -the application of the two-stage Analytic Network Process",
      "venue": "J. Inf. Hiding Multim. Signal Process.",
      "year": 2016,
      "referenceCount": 17,
      "citationCount": 0,
      "authors": [
        {
          "authorId": "46243592",
          "name": "Chih-Chao Chung"
        },
        {
          "authorId": "46172798",
          "name": "L. Chao"
        },
        {
          "authorId": "1795038",
          "name": "Shi-Jer Lou"
        }
      ]
    }
  ]
}