{
  "total": 199,
  "offset": 0,
  "next": 10,
  "data": [
    {
      "paperId": "17702ad83d1011abd059195a93a3f51952c2aa0d",
      "externalIds": {
        "MAG": "1839759725",
        "DBLP": "conf/icml/VirtanenG15",
        "CorpusId": 15660756
      },
      "url": "https://www.semanticscholar.org/paper/17702ad83d1011abd059195a93a3f51952c2aa0d",
      "title": "Ordinal Mixed Membership Models",
      "venue": "International Conference on Machine Learning",
      "year": 2015,
      "referenceCount": 22,
      "citationCount": 5,
      "authors": [
        {
          "authorId": "40210701",
          "name": "S. Virtanen"
        },
        {
          "authorId": "50859190",
          "name": "M. Girolami"
        }
      ]
    },
    {
      "paperId": "286a7efd62e7ea4d6353ac3dff05664bbdce5717",
      "externalIds": {
        "MAG": "2557088125",
        "ArXiv": "1512.08731",
        "DOI": "10.1214/17-AOAS1034",
        "CorpusId": 88520117
      },
      "url": "https://www.semanticscholar.org/paper/286a7efd62e7ea4d6353ac3dff05664bbdce5717",
      "title": "A Variational EM Method for Mixed Membership Models with Multivariate Rank Data: an Analysis of Public Policy Preferences",
      "venue": "",
      "year": 2015,
      "referenceCount": 37,
      "citationCount": 12,
      "authors": [
        {
          "authorId": "2152607207",
          "name": "Y. S. Wang"
        },
        {
          "authorId": "48742381",
          "name": "R. Matsueda"
        },
        {
          "authorId": "1868490",
          "name": "E. Erosheva"
        }
      ]
    },
    {
      "paperId": "a02ae42ff5c468244bbf40f215042e8bc96c3804",
      "externalIds": {
        "DBLP": "conf/icml/ZhangP15",
        "MAG": "1835150476",
        "CorpusId": 9706038
      },
      "url": "https://www.semanticscholar.org/paper/a02ae42ff5c468244bbf40f215042e8bc96c3804",
      "title": "Markov Mixed Membership Models",
      "venue": "International Conference on Machine Learning",
      "year": 2015,
      "referenceCount": 31,
      "citationCount": 10,
      "authors": [
        {
          "authorId": "2852051",
          "name": "Aonan Zhang"
        },
        {
          "authorId": "143855009",
          "name": "J. Paisley"
        }
      ]
    },
    {
      "paperId": "053d896bc460a22ceadab97e4be5bd0410b207f7",
      "externalIds": {
        "MAG": "2101391670",
        "DOI": "10.1093/aje/kwv051",
        "CorpusId": 46434579,
        "PubMed": "26209524"
      },
      "url": "https://www.semanticscholar.org/paper/053d896bc460a22ceadab97e4be5bd0410b207f7",
      "title": "Empirically Derived Trajectories to Dementia Over 15 Years of Follow-up Identified by Using Mixed Membership Models.",
      "venue": "American Journal of Epidemiology",
      "year": 2015,
      "referenceCount": 42,
      "citationCount": 6,
      "authors": [
        {
          "authorId": "2962773",
          "name": "F. Lecci"
        },
        {
          "authorId": "21695559",
          "name": "B. Junker"
        },
        {
          "authorId": "2604336",
          "name": "L. Kuller"
        },
        {
          "authorId": "2400866847",
          "name": "O. Lopez"
        },
        {
          "authorId": "32038841",
          "name": "J. Becker"
        }
      ]
    },
    {
      "paperId": "ee19f4365e3e1e47920d21d03dd68954ae3281a3",
      "externalIds": {
        "CorpusId": 55026803
      },
      "url": "https://www.semanticscholar.org/paper/ee19f4365e3e1e47920d21d03dd68954ae3281a3",
      "title": "Fitting Mixed Membership Models using mixedMem",
      "venue": "",
      "year": 2015,
      "referenceCount": 13,
      "citationCount": 4,
      "authors": [
        {
          "authorId": "2152607207",
          "name": "Y. S. Wang"
        },
        {
          "authorId": "1868490",
          "name": "E. Erosheva"
        }
      ]
    },
    {
      "paperId": "f92d59a9d56bb83723722aed82e11dd829f98db4",
      "externalIds": {
        "MAG": "2200768123",
        "CorpusId": 124227752
      },
      "url": "https://www.semanticscholar.org/paper/f92d59a9d56bb83723722aed82e11dd829f98db4",
      "title": "A Variational EM Method for Mixed Membership Models for Rank Data: an Analysis of Public Policy Preferences",
      "venue": "",
      "year": 2015,
      "referenceCount": 24,
      "citationCount": 1,
      "authors": [
        {
          "authorId": "2152607207",
          "name": "Y. S. Wang"
        },
        {
          "authorId": "48742381",
          "name": "R. Matsueda"
        },
        {
          "authorId": "1868490",
          "name": "E. Erosheva"
        }
      ]
    },
    {
      "paperId": "f3a9b1cc2167fd2a91b8e53f437d12ddf754c206",
      "externalIds": {
        "MAG": "1929235752",
        "CorpusId": 120748066
      },
      "url": "https://www.semanticscholar.org/paper/f3a9b1cc2167fd2a91b8e53f437d12ddf754c206",
      "title": "Tools for Discrete Multivariate Mixed Membership Models",
      "venue": "",
      "year": 2015,
      "referenceCount": 0,
      "citationCount": 4,
      "authors": [
        {
          "authorId": "2152607207",
          "name": "Y. S. Wang"
        },
        {
          "authorId": "1868490",
          "name": "E. Erosheva"
        }
      ]
    },
    {
      "paperId": "bd2110478dbd8ce2b7a295e32bc40a44cf152511",
      "externalIds": {
        "MAG": "2210066274",
        "CorpusId": 61220087
      },
      "url": "https://www.semanticscholar.org/paper/bd2110478dbd8ce2b7a295e32bc40a44cf152511",
      "title": "Learning mixed membership models with a separable latent structure: Theory, provably efficient algorithms, and applications",
      "venue": "",
      "year": 2015,
      "referenceCount": 89,
      "citationCount": 1,
      "authors": [
        {
          "authorId": "2365722",
          "name": "Weicong Ding"
        }
      ]
    },
    {
      "paperId": "0f89e287cdc194d7318d586e64f475b1e4fadcc2",
      "externalIds": {
        "MAG": "1984564569",
        "DOI": "10.1097/QAD.0000000000000561",
        "CorpusId": 6210230,
        "PubMed": "25565498"
      },
      "url": "https://www.semanticscholar.org/paper/0f89e287cdc194d7318d586e64f475b1e4fadcc2",
      "title": "Mixed membership trajectory models of cognitive impairment in the multicenter AIDS cohort study",
      "venue": "AIDS (London)",
      "year": 2015,
      "referenceCount": 32,
      "citationCount": 26,
      "authors": [
        {
          "authorId": "2324428762",
          "name": "Samantha A. Molsberry"
        },
        {
          "authorId": "2962773",
          "name": "F. Lecci"
        },
        {
          "authorId": "144396691",
          "name": "L. Kingsley"
        },
        {
          "authorId": "21695559",
          "name": "B. Junker"
        },
        {
          "authorId": "20758919",
          "name": "S. Reynolds"
        },
        {
          "authorId": "5306238",
          "name": "K. Goodkin"
        },
        {
          "authorId": "34759529",
          "name": "A. Levine"
        },
        {
          "authorId": "143859468",
          "name": "E. Martin"
        },
        {
          "authorId": "29549249",
          "name": "E. Miller"
        },
        {
          "authorId": "2110112",
          "name": "C. Munro"
        },
        {
          "authorId": "1679791",
          "name": "A. Ragin"
        },
        {
          "authorId": "5135991",
          "name": "N. Sacktor"
        },
        {
          "authorId": "32038841",
          "name": "J. Becker"
        }
      ]
    },
    {
      "paperId": "837c9537384d63e276ea92b49ce51d1f55613bf6",
      "externalIds": {
        "ArXiv": "1504.00757",
        "DBLP": "journals/corr/DingIS15",
        "MAG": "1574648663",
        "CorpusId": 11659832
      },
      "url": "https://www.semanticscholar.org/paper/837c9537384d63e276ea92b49ce51d1f55613bf6",
      "title": "Learning Mixed Membership Mallows Models from Pairwise Comparisons",
      "venue": "arXiv.org",
      "year": 2015,
      "referenceCount": 26,
      "citationCount": 13,
      "authors": [
        {
          "authorId": "2365722",
          "name": "Weicong Ding"
        },
        {
          "authorId": "1756038",
          "name": "P. Ishwar"
        },
        {
          "authorId": "1699322",
          "name": "Venkatesh Saligrama"
        }
      ]
    }
  ]
}