{
  "total": 205221,
  "offset": 0,
  "next": 10,
  "data": [
    {
      "paperId": "15dd061a323e4de0e3d2866328bc4b6637e8ad0a",
      "externalIds": {
        "MAG": "2951627691",
        "DBLP": "conf/icml/WeiZHY18",
        "CorpusId": 51869212
      },
      "url": "https://www.semanticscholar.org/paper/15dd061a323e4de0e3d2866328bc4b6637e8ad0a",
      "title": "Transfer Learning via Learning to Transfer",
      "venue": "International Conference on Machine Learning",
      "year": 2018,
      "referenceCount": 41,
      "citationCount": 166,
      "authors": [
        {
          "authorId": "153384423",
          "name": "Ying Wei"
        },
        {
          "authorId": "46867608",
          "name": "Yu Zhang"
        },
        {
          "authorId": "1768190",
          "name": "Junzhou Huang"
        },
        {
          "authorId": "153096457",
          "name": "Qiang Yang"
        }
      ]
    },
    {
      "paperId": "45e97ec40ed79b42e87be7d20a3381d4bab91ec1",
      "externalIds": {
        "DBLP": "journals/eswa/KumarMP23",
        "DOI": "10.1016/j.eswa.2022.118770",
        "CorpusId": 252144135
      },
      "url": "https://www.semanticscholar.org/paper/45e97ec40ed79b42e87be7d20a3381d4bab91ec1",
      "title": "Influence maximization in social networks using transfer learning via graph-based LSTM",
      "venue": "Expert systems with applications",
      "year": 2022,
      "referenceCount": 45,
      "citationCount": 94,
      "authors": [
        {
          "authorId": "2022404080",
          "name": "Sanjay Kumar"
        },
        {
          "authorId": "2064889460",
          "name": "Abhishek Mallik"
        },
        {
          "authorId": "70353878",
          "name": "B. Panda"
        }
      ]
    },
    {
      "paperId": "c9765a4bae3a926d642aac5880288bc9937cc8cf",
      "externalIds": {
        "ArXiv": "2305.15542",
        "CorpusId": 259693296
      },
      "url": "https://www.semanticscholar.org/paper/c9765a4bae3a926d642aac5880288bc9937cc8cf",
      "title": "TOAST: Transfer Learning via Attention Steering",
      "venue": "",
      "year": 2023,
      "referenceCount": 42,
      "citationCount": 20,
      "authors": [
        {
          "authorId": "1596823732",
          "name": "Baifeng Shi"
        },
        {
          "authorId": "148046695",
          "name": "Siyu Gai"
        },
        {
          "authorId": "1398038481",
          "name": "T. Darrell"
        },
        {
          "authorId": "2153688606",
          "name": "Xin Wang"
        }
      ]
    },
    {
      "paperId": "87dd96f0421507807973496a5277a364009f47fa",
      "externalIds": {
        "DBLP": "journals/tec/LiSLJT22",
        "DOI": "10.1109/TEVC.2022.3144180",
        "CorpusId": 246059732
      },
      "url": "https://www.semanticscholar.org/paper/87dd96f0421507807973496a5277a364009f47fa",
      "title": "Reducing Negative Transfer Learning via Clustering for Dynamic Multiobjective Optimization",
      "venue": "IEEE Transactions on Evolutionary Computation",
      "year": 2022,
      "referenceCount": 74,
      "citationCount": 57,
      "authors": [
        {
          "authorId": "2108981225",
          "name": "Jian-qiang Li"
        },
        {
          "authorId": "2088150132",
          "name": "Tao Sun"
        },
        {
          "authorId": "38345106",
          "name": "Qiuzhen Lin"
        },
        {
          "authorId": "2023650049",
          "name": "Min Jiang"
        },
        {
          "authorId": "1707078",
          "name": "K. Tan"
        }
      ]
    },
    {
      "paperId": "75cd0023bd8b45a8b38828629462a43e9ef324c6",
      "externalIds": {
        "DBLP": "conf/icse/ZhangLWLL0CL22",
        "DOI": "10.1145/3510003.3510191",
        "CorpusId": 248673777
      },
      "url": "https://www.semanticscholar.org/paper/75cd0023bd8b45a8b38828629462a43e9ef324c6",
      "title": "ReMoS: Reducing Defect Inheritance in Transfer Learning via Relevant Model Slicing",
      "venue": "International Conference on Software Engineering",
      "year": 2022,
      "referenceCount": 73,
      "citationCount": 51,
      "authors": [
        {
          "authorId": "2144370824",
          "name": "Ziqi Zhang"
        },
        {
          "authorId": "2144416765",
          "name": "Yuanchun Li"
        },
        {
          "authorId": "1519290245",
          "name": "Jindong Wang"
        },
        {
          "authorId": "70633617",
          "name": "Bingyan Liu"
        },
        {
          "authorId": "2151495692",
          "name": "Ding Li"
        },
        {
          "authorId": "145508275",
          "name": "Yao Guo"
        },
        {
          "authorId": "2143733795",
          "name": "Xiangqun Chen"
        },
        {
          "authorId": "2161440197",
          "name": "Yunxin Liu"
        }
      ]
    },
    {
      "paperId": "ef5ae093db63435b51681704de64fad4e95a01c4",
      "externalIds": {
        "DBLP": "journals/corr/abs-2106-10189",
        "ArXiv": "2106.10189",
        "CorpusId": 235485420
      },
      "url": "https://www.semanticscholar.org/paper/ef5ae093db63435b51681704de64fad4e95a01c4",
      "title": "Adversarial Training Helps Transfer Learning via Better Representations",
      "venue": "Neural Information Processing Systems",
      "year": 2021,
      "referenceCount": 71,
      "citationCount": 59,
      "authors": [
        {
          "authorId": "10394991",
          "name": "Zhun Deng"
        },
        {
          "authorId": "2249882382",
          "name": "Linjun Zhang"
        },
        {
          "authorId": "52224284",
          "name": "Kailas Vodrahalli"
        },
        {
          "authorId": "1392876047",
          "name": "Kenji Kawaguchi"
        },
        {
          "authorId": "145085305",
          "name": "James Y. Zou"
        }
      ]
    },
    {
      "paperId": "99a501b476adec3dd9b28bf8260d9dceb9a3b898",
      "externalIds": {
        "PubMedCentral": "8406877",
        "DBLP": "journals/bioinformatics/YangYLWZ21",
        "DOI": "10.1093/bioinformatics/btab533",
        "CorpusId": 236034621,
        "PubMed": "34273146"
      },
      "url": "https://www.semanticscholar.org/paper/99a501b476adec3dd9b28bf8260d9dceb9a3b898",
      "title": "Transfer learning via multi-scale convolutional neural layers for human–virus protein–protein interaction prediction",
      "venue": "bioRxiv",
      "year": 2021,
      "referenceCount": 76,
      "citationCount": 63,
      "authors": [
        {
          "authorId": "1890540636",
          "name": "Xiaodi Yang"
        },
        {
          "authorId": "2115360936",
          "name": "Shiping Yang"
        },
        {
          "authorId": "97701550",
          "name": "Xianyi Lian"
        },
        {
          "authorId": "3160568",
          "name": "S. Wuchty"
        },
        {
          "authorId": "47294012",
          "name": "Ziding Zhang"
        }
      ]
    },
    {
      "paperId": "94d9628df8c5c8df6cdee3a9663656a7141e26bb",
      "externalIds": {
        "MAG": "3041700978",
        "DBLP": "journals/tmm/LuWYLL21",
        "DOI": "10.1109/TMM.2020.3007340",
        "CorpusId": 226743157
      },
      "url": "https://www.semanticscholar.org/paper/94d9628df8c5c8df6cdee3a9663656a7141e26bb",
      "title": "Manifold Transfer Learning via Discriminant Regression Analysis",
      "venue": "IEEE transactions on multimedia",
      "year": 2021,
      "referenceCount": 55,
      "citationCount": 30,
      "authors": [
        {
          "authorId": "3018140",
          "name": "Yuwu Lu"
        },
        {
          "authorId": "49337008",
          "name": "Wenjing Wang"
        },
        {
          "authorId": "2117729099",
          "name": "C. Yuan"
        },
        {
          "authorId": "67180560",
          "name": "Xuelong Li"
        },
        {
          "authorId": "50737981",
          "name": "Zhihui Lai"
        }
      ]
    },
    {
      "paperId": "7a5d8e8051d5fc70ca00c85093b27685318c6f96",
      "externalIds": {
        "DBLP": "journals/tkde/DaiWXSW23",
        "ArXiv": "1909.01541",
        "DOI": "10.1109/TKDE.2022.3144250",
        "CorpusId": 246017023
      },
      "url": "https://www.semanticscholar.org/paper/7a5d8e8051d5fc70ca00c85093b27685318c6f96",
      "title": "Graph Transfer Learning via Adversarial Domain Adaptation With Graph Convolution",
      "venue": "IEEE Transactions on Knowledge and Data Engineering",
      "year": 2019,
      "referenceCount": 79,
      "citationCount": 134,
      "authors": [
        {
          "authorId": "29969336",
          "name": "Quanyu Dai"
        },
        {
          "authorId": "19195265",
          "name": "Xiao-Ming Wu"
        },
        {
          "authorId": "2144569459",
          "name": "Jiaren Xiao"
        },
        {
          "authorId": "2111113868",
          "name": "Xiao Shen"
        },
        {
          "authorId": "2155680873",
          "name": "Dan Wang"
        }
      ]
    },
    {
      "paperId": "87429aa0cf3d20b7a4109750f3cc7c9a2d61f32a",
      "externalIds": {
        "DBLP": "journals/titb/ZhangGWWBYXS21",
        "DOI": "10.1109/JBHI.2021.3073812",
        "CorpusId": 233277478,
        "PubMed": "33861717"
      },
      "url": "https://www.semanticscholar.org/paper/87429aa0cf3d20b7a4109750f3cc7c9a2d61f32a",
      "title": "Multi-Source Transfer Learning Via Multi-Kernel Support Vector Machine Plus for B-Mode Ultrasound-Based Computer-Aided Diagnosis of Liver Cancers",
      "venue": "IEEE journal of biomedical and health informatics",
      "year": 2021,
      "referenceCount": 0,
      "citationCount": 38,
      "authors": [
        {
          "authorId": "2108635640",
          "name": "Huili Zhang"
        },
        {
          "authorId": "11835438",
          "name": "Lehang Guo"
        },
        {
          "authorId": "46348508",
          "name": "Dan Wang"
        },
        {
          "authorId": "2152810218",
          "name": "Jun Wang"
        },
        {
          "authorId": "2056690614",
          "name": "L. Bao"
        },
        {
          "authorId": "2125536",
          "name": "Shihui Ying"
        },
        {
          "authorId": "7271505",
          "name": "Huixiong Xu"
        },
        {
          "authorId": "143860089",
          "name": "Jun Shi"
        }
      ]
    }
  ]
}