{
  "total": 9411,
  "offset": 0,
  "next": 10,
  "data": [
    {
      "paperId": "b8f9e19c52ad33dcbb766a0b016d58c89d8e48f1",
      "externalIds": {
        "MAG": "1859870454",
        "DBLP": "conf/icml/GornitzBK15",
        "CorpusId": 9397788
      },
      "url": "https://www.semanticscholar.org/paper/b8f9e19c52ad33dcbb766a0b016d58c89d8e48f1",
      "title": "Hidden Markov Anomaly Detection",
      "venue": "International Conference on Machine Learning",
      "year": 2015,
      "referenceCount": 44,
      "citationCount": 61,
      "authors": [
        {
          "authorId": "2948486",
          "name": "Nico Görnitz"
        },
        {
          "authorId": "2522031",
          "name": "Mikio L. Braun"
        },
        {
          "authorId": "2749512",
          "name": "M. Kloft"
        }
      ]
    },
    {
      "paperId": "4d0ce303270b6b0c1902129b076cc93e294c4bf5",
      "externalIds": {
        "ArXiv": "2506.17108",
        "DBLP": "journals/corr/abs-2506-17108",
        "DOI": "10.48550/arXiv.2506.17108",
        "CorpusId": 279464384
      },
      "url": "https://www.semanticscholar.org/paper/4d0ce303270b6b0c1902129b076cc93e294c4bf5",
      "title": "Searching for a Hidden Markov Anomaly over Multiple Processes",
      "venue": "arXiv.org",
      "year": 2025,
      "referenceCount": 50,
      "citationCount": 1,
      "authors": [
        {
          "authorId": "2316767996",
          "name": "Levli Citron"
        },
        {
          "authorId": "10748834",
          "name": "Kobi Cohen"
        },
        {
          "authorId": "2316955123",
          "name": "Qing Zhao"
        }
      ]
    },
    {
      "paperId": "b35f863bd0b883866f17589da06edabd71e06b66",
      "externalIds": {
        "DOI": "10.1109/WiSPNET64060.2025.11005367",
        "CorpusId": 278767983
      },
      "url": "https://www.semanticscholar.org/paper/b35f863bd0b883866f17589da06edabd71e06b66",
      "title": "Secure and Scalable Anomaly Detection in Cloud Environments Using Hidden Markov Models, SMPC, and Decentralized Federated Learning",
      "venue": "2025 International Conference on Wireless Communications Signal Processing and Networking (WiSPNET)",
      "year": 2025,
      "referenceCount": 22,
      "citationCount": 1,
      "authors": [
        {
          "authorId": "2090351180",
          "name": "Swapna Narla"
        },
        {
          "authorId": "2345059940",
          "name": "S. Kethu"
        },
        {
          "authorId": "2362497627",
          "name": "Durai Rajesh Natarajan"
        },
        {
          "authorId": "2345067458",
          "name": "Sreekar Peddi"
        },
        {
          "authorId": "2338751219",
          "name": "D. Valivarthi"
        },
        {
          "authorId": "2362503975",
          "name": "Aswathy Ravi"
        }
      ]
    },
    {
      "paperId": "340afc403306b239ebb64714e5d006fe90ed7b8b",
      "externalIds": {
        "DBLP": "journals/access/ParkRLY25",
        "DOI": "10.1109/ACCESS.2025.3648738",
        "CorpusId": 284315493
      },
      "url": "https://www.semanticscholar.org/paper/340afc403306b239ebb64714e5d006fe90ed7b8b",
      "title": "Anomaly Detection for Small Gas Pipeline Leaks Using an Acoustic Emission Sensor: A Semi-Supervised Approach via Ensemble Features and Gaussian Hidden Markov Model",
      "venue": "IEEE Access",
      "year": 2025,
      "referenceCount": 49,
      "citationCount": 0,
      "authors": [
        {
          "authorId": "2375964480",
          "name": "Byungjae Park"
        },
        {
          "authorId": "2354715431",
          "name": "Hyejeong Ryu"
        },
        {
          "authorId": "2328341979",
          "name": "Simaek Lee"
        },
        {
          "authorId": "2375527835",
          "name": "Hyeongmin Yoo"
        }
      ]
    },
    {
      "paperId": "d1428da1f174b51da7d4b11188922ff900348d2d",
      "externalIds": {
        "DOI": "10.4236/oalib.1114160",
        "CorpusId": 282370362
      },
      "url": "https://www.semanticscholar.org/paper/d1428da1f174b51da7d4b11188922ff900348d2d",
      "title": "Anomaly Detection in Selected Aerosol Optical Properties and Associated Climate Variables Using a Multivariate Hidden Markov Model: A Case Study over Kenya",
      "venue": "OALib",
      "year": 2025,
      "referenceCount": 0,
      "citationCount": 0,
      "authors": [
        {
          "authorId": "2383364772",
          "name": "Dennis W. Wanjala"
        },
        {
          "authorId": "2142104422",
          "name": "John W. Makokha"
        },
        {
          "authorId": "115116186",
          "name": "Geoffrey W. Khamala"
        }
      ]
    },
    {
      "paperId": "854dd95d2abd995ff6d976e75bc7bc3ff34c17dd",
      "externalIds": {
        "CorpusId": 17558179
      },
      "url": "https://www.semanticscholar.org/paper/854dd95d2abd995ff6d976e75bc7bc3ff34c17dd",
      "title": "Hidden Markov Anomaly Detection Supplementary Material A. Comparison to Structured Svms (ssvm) B. Comparison to Fisher Kernels",
      "venue": "",
      "year": null,
      "referenceCount": 0,
      "citationCount": 0,
      "authors": []
    },
    {
      "paperId": "ae5d4fdee2843edacf26ac6539a4db148a43e693",
      "externalIds": {
        "DBLP": "journals/access/SorostineanBG24",
        "DOI": "10.1109/ACCESS.2024.3400970",
        "CorpusId": 269821122
      },
      "url": "https://www.semanticscholar.org/paper/ae5d4fdee2843edacf26ac6539a4db148a43e693",
      "title": "Anomaly Detection in Smart Industrial Machinery Through Hidden Markov Models and Autoencoders",
      "venue": "IEEE Access",
      "year": 2024,
      "referenceCount": 29,
      "citationCount": 6,
      "authors": [
        {
          "authorId": "2106656617",
          "name": "Radu Sorostinean"
        },
        {
          "authorId": "2301669698",
          "name": "Zaharia Burghelea"
        },
        {
          "authorId": "1739895",
          "name": "A. Gellert"
        }
      ]
    },
    {
      "paperId": "18da4e69e3f1bcda275a92a290bbae18421acd84",
      "externalIds": {
        "DOI": "10.1109/IC2ECS64405.2024.10928701",
        "CorpusId": 277320852
      },
      "url": "https://www.semanticscholar.org/paper/18da4e69e3f1bcda275a92a290bbae18421acd84",
      "title": "Research on Anomaly Detection Method for Electric Energy Meter Data Based on Autoregressive Continuous Hidden Markov Model",
      "venue": "2024 4th International Conference on Electrical Engineering and Control Science (IC2ECS)",
      "year": 2024,
      "referenceCount": 7,
      "citationCount": 0,
      "authors": [
        {
          "authorId": "2244042389",
          "name": "Sitong Dong"
        },
        {
          "authorId": "2295778672",
          "name": "Xiaoze Liu"
        },
        {
          "authorId": "2344183182",
          "name": "Zhibo Feng"
        },
        {
          "authorId": "2243389390",
          "name": "Sicheng Zhou"
        },
        {
          "authorId": "2155450562",
          "name": "Ze Li"
        }
      ]
    },
    {
      "paperId": "6e15f0a446bd5b5fca7333d646d1850f6e487c01",
      "externalIds": {
        "DBLP": "journals/tgrs/LopezMAT22",
        "MAG": "3193235603",
        "DOI": "10.1109/tgrs.2021.3101127",
        "CorpusId": 238897283
      },
      "url": "https://www.semanticscholar.org/paper/6e15f0a446bd5b5fca7333d646d1850f6e487c01",
      "title": "Anomaly Detection and Classification in Multispectral Time Series Based on Hidden Markov Models",
      "venue": "IEEE Transactions on Geoscience and Remote Sensing",
      "year": 2022,
      "referenceCount": 0,
      "citationCount": 32,
      "authors": [
        {
          "authorId": "1405398027",
          "name": "K. León-López"
        },
        {
          "authorId": "50071414",
          "name": "Florian Mouret"
        },
        {
          "authorId": "1757234",
          "name": "H. Arguello"
        },
        {
          "authorId": "1742027",
          "name": "J. Tourneret"
        }
      ]
    },
    {
      "paperId": "c35873218d377077e1eb4e8850fee39bf03881f6",
      "externalIds": {
        "DBLP": "conf/iscc/LuoQZFZZ22",
        "DOI": "10.1109/ISCC55528.2022.9912983",
        "CorpusId": 252999236
      },
      "url": "https://www.semanticscholar.org/paper/c35873218d377077e1eb4e8850fee39bf03881f6",
      "title": "Spatial-based Bayesian Hidden Markov Models with Dirichlet Mixtures for Video Anomaly Detection",
      "venue": "International Symposium on Computers and Communications",
      "year": 2022,
      "referenceCount": 20,
      "citationCount": 0,
      "authors": [
        {
          "authorId": "2142400447",
          "name": "Guojian Luo"
        },
        {
          "authorId": "2555809",
          "name": "J. Qu"
        },
        {
          "authorId": "2144157005",
          "name": "Lina Zhang"
        },
        {
          "authorId": "2087230371",
          "name": "Xiaoyu Fang"
        },
        {
          "authorId": "2153914429",
          "name": "Yi Zhang"
        },
        {
          "authorId": "2401456320",
          "name": "Tongrui Zhou"
        }
      ]
    }
  ]
}