{
  "total": 79553,
  "offset": 0,
  "next": 10,
  "data": [
    {
      "paperId": "2cc9e70cd4664533af9bf34b2da7a1c2694616f8",
      "externalIds": {
        "DBLP": "journals/corr/abs-1802-04374",
        "MAG": "2963625494",
        "ArXiv": "1802.04374",
        "CorpusId": 2363435
      },
      "url": "https://www.semanticscholar.org/paper/2cc9e70cd4664533af9bf34b2da7a1c2694616f8",
      "title": "Tempered Adversarial Networks",
      "venue": "International Conference on Machine Learning",
      "year": 2018,
      "referenceCount": 29,
      "citationCount": 28,
      "authors": [
        {
          "authorId": "2283034",
          "name": "Mehdi S. M. Sajjadi"
        },
        {
          "authorId": "1707625",
          "name": "B. Scholkopf"
        }
      ]
    },
    {
      "paperId": "a067772f7477988e69143f1d278601a194ef1f49",
      "externalIds": {
        "DBLP": "journals/corr/abs-2411-11786",
        "DOI": "10.48550/arXiv.2411.11786",
        "CorpusId": 274131138
      },
      "url": "https://www.semanticscholar.org/paper/a067772f7477988e69143f1d278601a194ef1f49",
      "title": "Parallelly Tempered Generative Adversarial Networks",
      "venue": "arXiv.org",
      "year": 2024,
      "referenceCount": 0,
      "citationCount": 0,
      "authors": [
        {
          "authorId": "2266238725",
          "name": "Jinwon Sohn"
        },
        {
          "authorId": "2266295548",
          "name": "Qifan Song"
        }
      ]
    },
    {
      "paperId": "b1b6065fb735c21cb7a4235db3571158256b5956",
      "externalIds": {
        "MAG": "2922520078",
        "CorpusId": 88497298
      },
      "url": "https://www.semanticscholar.org/paper/b1b6065fb735c21cb7a4235db3571158256b5956",
      "title": "Noise-Tempered Generative Adversarial Networks",
      "venue": "",
      "year": 2018,
      "referenceCount": 0,
      "citationCount": 2,
      "authors": [
        {
          "authorId": "5641221",
          "name": "S. Jenni"
        },
        {
          "authorId": "145646305",
          "name": "P. Favaro"
        }
      ]
    },
    {
      "paperId": "a57d56bbe318397f49ab7ee867769b9142ba16cb",
      "externalIds": {
        "DBLP": "journals/corr/abs-2103-10182",
        "ArXiv": "2103.10182",
        "DOI": "10.1137/21m1406313",
        "CorpusId": 232270139
      },
      "url": "https://www.semanticscholar.org/paper/a57d56bbe318397f49ab7ee867769b9142ba16cb",
      "title": "Bayesian Imaging With Data-Driven Priors Encoded by Neural Networks: Theory, Methods, and Algorithms",
      "venue": "SIAM Journal of Imaging Sciences",
      "year": 2021,
      "referenceCount": 62,
      "citationCount": 40,
      "authors": [
        {
          "authorId": "79380984",
          "name": "M. Holden"
        },
        {
          "authorId": "145766647",
          "name": "M. Pereyra"
        },
        {
          "authorId": "1965903",
          "name": "K. Zygalakis"
        }
      ]
    },
    {
      "paperId": "6296aa7cab06eaf058f7291040b320b5a83c0091",
      "externalIds": {
        "DBLP": "journals/corr/abs-2203-00667",
        "ArXiv": "2203.00667",
        "DOI": "10.1109/ICCCNT56998.2023.10306417",
        "CorpusId": 1033682
      },
      "url": "https://www.semanticscholar.org/paper/6296aa7cab06eaf058f7291040b320b5a83c0091",
      "title": "Generative Adversarial Networks",
      "venue": "International Conference on Computing Communication and Networking Technologies",
      "year": 2021,
      "referenceCount": 118,
      "citationCount": 30490,
      "authors": [
        {
          "authorId": "153440022",
          "name": "I. Goodfellow"
        },
        {
          "authorId": "1403025868",
          "name": "Jean Pouget-Abadie"
        },
        {
          "authorId": "153583218",
          "name": "Mehdi Mirza"
        },
        {
          "authorId": "2113742925",
          "name": "Bing Xu"
        },
        {
          "authorId": "1393680089",
          "name": "David Warde-Farley"
        },
        {
          "authorId": "1955694",
          "name": "Sherjil Ozair"
        },
        {
          "authorId": "1760871",
          "name": "Aaron C. Courville"
        },
        {
          "authorId": "1751762",
          "name": "Yoshua Bengio"
        }
      ]
    },
    {
      "paperId": "ceb2ebef0b41e31c1a21b28c2734123900c005e2",
      "externalIds": {
        "DBLP": "journals/corr/abs-1812-04948",
        "MAG": "2904367110",
        "ArXiv": "1812.04948",
        "DOI": "10.1109/CVPR.2019.00453",
        "CorpusId": 54482423
      },
      "url": "https://www.semanticscholar.org/paper/ceb2ebef0b41e31c1a21b28c2734123900c005e2",
      "title": "A Style-Based Generator Architecture for Generative Adversarial Networks",
      "venue": "Computer Vision and Pattern Recognition",
      "year": 2018,
      "referenceCount": 64,
      "citationCount": 12732,
      "authors": [
        {
          "authorId": "2976930",
          "name": "Tero Karras"
        },
        {
          "authorId": "36436218",
          "name": "S. Laine"
        },
        {
          "authorId": "1761103",
          "name": "Timo Aila"
        }
      ]
    },
    {
      "paperId": "84de7d27e2f6160f634a483e8548c499a2cda7fa",
      "externalIds": {
        "MAG": "2785678896",
        "DBLP": "journals/corr/abs-1802-05957",
        "ArXiv": "1802.05957",
        "CorpusId": 3366315
      },
      "url": "https://www.semanticscholar.org/paper/84de7d27e2f6160f634a483e8548c499a2cda7fa",
      "title": "Spectral Normalization for Generative Adversarial Networks",
      "venue": "International Conference on Learning Representations",
      "year": 2018,
      "referenceCount": 47,
      "citationCount": 4919,
      "authors": [
        {
          "authorId": "3213400",
          "name": "Takeru Miyato"
        },
        {
          "authorId": "2056971870",
          "name": "Toshiki Kataoka"
        },
        {
          "authorId": "2877296",
          "name": "Masanori Koyama"
        },
        {
          "authorId": "51462146",
          "name": "Yuichi Yoshida"
        }
      ]
    },
    {
      "paperId": "c43d954cf8133e6254499f3d68e45218067e4941",
      "externalIds": {
        "MAG": "2951488027",
        "DBLP": "conf/iccv/ZhuPIE17",
        "ArXiv": "1703.10593",
        "DOI": "10.1109/ICCV.2017.244",
        "CorpusId": 206770979
      },
      "url": "https://www.semanticscholar.org/paper/c43d954cf8133e6254499f3d68e45218067e4941",
      "title": "Unpaired Image-to-Image Translation Using Cycle-Consistent Adversarial Networks",
      "venue": "IEEE International Conference on Computer Vision",
      "year": 2017,
      "referenceCount": 68,
      "citationCount": 5637,
      "authors": [
        {
          "authorId": "2436356",
          "name": "Jun-Yan Zhu"
        },
        {
          "authorId": "2071929129",
          "name": "Taesung Park"
        },
        {
          "authorId": "2094770",
          "name": "Phillip Isola"
        },
        {
          "authorId": "1763086",
          "name": "Alexei A. Efros"
        }
      ]
    },
    {
      "paperId": "1bdd30a8acc75c58a1bdd4daa4545d5f3971a826",
      "externalIds": {
        "DBLP": "journals/corr/abs-1809-00219",
        "ArXiv": "1809.00219",
        "MAG": "2952773607",
        "DOI": "10.1007/978-3-030-11021-5_5",
        "CorpusId": 52154773
      },
      "url": "https://www.semanticscholar.org/paper/1bdd30a8acc75c58a1bdd4daa4545d5f3971a826",
      "title": "ESRGAN: Enhanced Super-Resolution Generative Adversarial Networks",
      "venue": "ECCV Workshops",
      "year": 2018,
      "referenceCount": 50,
      "citationCount": 4566,
      "authors": [
        {
          "authorId": "47119707",
          "name": "Xintao Wang"
        },
        {
          "authorId": "2114076973",
          "name": "Ke Yu"
        },
        {
          "authorId": "23588983",
          "name": "Shixiang Wu"
        },
        {
          "authorId": "4398255",
          "name": "Jinjin Gu"
        },
        {
          "authorId": "145575334",
          "name": "Yihao Liu"
        },
        {
          "authorId": "30459277",
          "name": "Chao Dong"
        },
        {
          "authorId": "1717179",
          "name": "Chen Change Loy"
        },
        {
          "authorId": "143970608",
          "name": "Y. Qiao"
        },
        {
          "authorId": "50295995",
          "name": "Xiaoou Tang"
        }
      ]
    },
    {
      "paperId": "8acbe90d5b852dadea7810345451a99608ee54c7",
      "externalIds": {
        "MAG": "2963073614",
        "DBLP": "conf/cvpr/IsolaZZE17",
        "ArXiv": "1611.07004",
        "DOI": "10.1109/CVPR.2017.632",
        "CorpusId": 6200260
      },
      "url": "https://www.semanticscholar.org/paper/8acbe90d5b852dadea7810345451a99608ee54c7",
      "title": "Image-to-Image Translation with Conditional Adversarial Networks",
      "venue": "Computer Vision and Pattern Recognition",
      "year": 2016,
      "referenceCount": 70,
      "citationCount": 22067,
      "authors": [
        {
          "authorId": "2094770",
          "name": "Phillip Isola"
        },
        {
          "authorId": "2436356",
          "name": "Jun-Yan Zhu"
        },
        {
          "authorId": "1822702",
          "name": "Tinghui Zhou"
        },
        {
          "authorId": "1763086",
          "name": "Alexei A. Efros"
        }
      ]
    }
  ]
}