{
  "total": 413,
  "offset": 0,
  "next": 10,
  "data": [
    {
      "paperId": "3116c094f9c72fc42b7f63809849f4a63dae6b71",
      "externalIds": {
        "DBLP": "journals/corr/abs-1802-10399",
        "ArXiv": "1802.10399",
        "MAG": "2962921245",
        "CorpusId": 3574227
      },
      "url": "https://www.semanticscholar.org/paper/3116c094f9c72fc42b7f63809849f4a63dae6b71",
      "title": "Compressing Neural Networks using the Variational Information Bottleneck",
      "venue": "International Conference on Machine Learning",
      "year": 2018,
      "referenceCount": 54,
      "citationCount": 193,
      "authors": [
        {
          "authorId": "144065732",
          "name": "B. Dai"
        },
        {
          "authorId": "1431754650",
          "name": "Chen Zhu"
        },
        {
          "authorId": "2242717",
          "name": "D. Wipf"
        }
      ]
    },
    {
      "paperId": "ee80c5ac5f520e96bcc798d250bdd7079e498c7a",
      "externalIds": {
        "DOI": "10.51408/csit2025_35",
        "CorpusId": 281419958
      },
      "url": "https://www.semanticscholar.org/paper/ee80c5ac5f520e96bcc798d250bdd7079e498c7a",
      "title": "Improving CNN Generalization with PDE Preprocessing and the Variational Information Bottleneck",
      "venue": "Proceedings of “Computer Science and Information Technologies” International Conference",
      "year": 2025,
      "referenceCount": 9,
      "citationCount": 0,
      "authors": [
        {
          "authorId": "2286511885",
          "name": "Gor A. Gharagyozyan"
        }
      ]
    },
    {
      "paperId": "4c6bfd837c8b22240b740a82e0e728aecc757584",
      "externalIds": {
        "DOI": "10.1109/ICISC65841.2025.11187582",
        "CorpusId": 282076628
      },
      "url": "https://www.semanticscholar.org/paper/4c6bfd837c8b22240b740a82e0e728aecc757584",
      "title": "Data Fusion in IoMT Systems Using Variational Information Bottleneck for Multimodal Sensor Integration",
      "venue": "International Conference on Information Security and Cryptology",
      "year": 2025,
      "referenceCount": 21,
      "citationCount": 0,
      "authors": [
        {
          "authorId": "2211635712",
          "name": "A. Prabagaran"
        },
        {
          "authorId": "2270689712",
          "name": "N. M. Balamurugan"
        },
        {
          "authorId": "2281355571",
          "name": "S. Kalavathi"
        },
        {
          "authorId": "2309831493",
          "name": "John Ayeelyan"
        },
        {
          "authorId": "2385632233",
          "name": "Sudha D"
        },
        {
          "authorId": "2292750118",
          "name": "Angelin Blessy J"
        }
      ]
    },
    {
      "paperId": "fd6af4175d2cec1b485661e4f38b92822bf3d04a",
      "externalIds": {
        "ArXiv": "2412.15589",
        "DBLP": "journals/corr/abs-2412-15589",
        "DOI": "10.48550/arXiv.2412.15589",
        "CorpusId": 274965281
      },
      "url": "https://www.semanticscholar.org/paper/fd6af4175d2cec1b485661e4f38b92822bf3d04a",
      "title": "Pre-training Graph Neural Networks on Molecules by Using Subgraph-Conditioned Graph Information Bottleneck",
      "venue": "AAAI Conference on Artificial Intelligence",
      "year": 2024,
      "referenceCount": 47,
      "citationCount": 18,
      "authors": [
        {
          "authorId": "2215390187",
          "name": "Van Thuy Hoang"
        },
        {
          "authorId": "2276611578",
          "name": "O-Joun Lee"
        }
      ]
    },
    {
      "paperId": "551940284089778f7dd26d42835d9093cc86506b",
      "externalIds": {
        "DBLP": "journals/tjs/GuanAWS25",
        "DOI": "10.1007/s11227-025-07767-w",
        "CorpusId": 280888717
      },
      "url": "https://www.semanticscholar.org/paper/551940284089778f7dd26d42835d9093cc86506b",
      "title": "Multi-CNNs with variational information bottleneck for chest X-ray classification",
      "venue": "Journal of Supercomputing",
      "year": 2025,
      "referenceCount": 44,
      "citationCount": 0,
      "authors": [
        {
          "authorId": "2350219512",
          "name": "Chen Guan"
        },
        {
          "authorId": "2350218284",
          "name": "Haihong Ai"
        },
        {
          "authorId": "2375680452",
          "name": "Weiwei Wang"
        },
        {
          "authorId": "2345867999",
          "name": "Ravi P. Singh"
        }
      ]
    },
    {
      "paperId": "59308dedb4961cea59a95b1c2c68cee9662d42bd",
      "externalIds": {
        "DBLP": "conf/ecai/WangHYS24",
        "DOI": "10.3233/FAIA240794",
        "CorpusId": 273589304
      },
      "url": "https://www.semanticscholar.org/paper/59308dedb4961cea59a95b1c2c68cee9662d42bd",
      "title": "Lightweight Transformer for sEMG Gesture Recognition with Feature Distilled Variational Information Bottleneck",
      "venue": "European Conference on Artificial Intelligence",
      "year": 2024,
      "referenceCount": 42,
      "citationCount": 1,
      "authors": [
        {
          "authorId": "2243319025",
          "name": "Zefeng Wang"
        },
        {
          "authorId": "2327695709",
          "name": "Bingbing Hu"
        },
        {
          "authorId": "2290085946",
          "name": "Junfeng Yao"
        },
        {
          "authorId": "2269468248",
          "name": "Jinsong Su"
        }
      ]
    },
    {
      "paperId": "a1902005ab6963b6f5d66e4961c6e3c64e36fc9e",
      "externalIds": {
        "DBLP": "journals/concurrency/MaLSGWL24",
        "DOI": "10.1002/cpe.7963",
        "CorpusId": 266305732
      },
      "url": "https://www.semanticscholar.org/paper/a1902005ab6963b6f5d66e4961c6e3c64e36fc9e",
      "title": "Privacy‐preserving graph publishing with disentangled variational information bottleneck",
      "venue": "Concurrency and Computation",
      "year": 2023,
      "referenceCount": 50,
      "citationCount": 3,
      "authors": [
        {
          "authorId": "2274568828",
          "name": "Liya Ma"
        },
        {
          "authorId": "2260290790",
          "name": "Chen Li"
        },
        {
          "authorId": "2274711810",
          "name": "Siqi Sun"
        },
        {
          "authorId": "144019293",
          "name": "Shu Guo"
        },
        {
          "authorId": "2259984625",
          "name": "Lihong Wang"
        },
        {
          "authorId": "2274552581",
          "name": "Jianxin Li"
        }
      ]
    },
    {
      "paperId": "3f263a861271dd8c297c9dad39fdca0859c8aff9",
      "externalIds": {
        "ArXiv": "2403.15082",
        "DBLP": "journals/corr/abs-2403-15082",
        "DOI": "10.48550/arXiv.2403.15082",
        "CorpusId": 268667060
      },
      "url": "https://www.semanticscholar.org/paper/3f263a861271dd8c297c9dad39fdca0859c8aff9",
      "title": "Cell Variational Information Bottleneck Network",
      "venue": "arXiv.org",
      "year": 2024,
      "referenceCount": 44,
      "citationCount": 0,
      "authors": [
        {
          "authorId": "2273645764",
          "name": "Zhonghua Zhai"
        },
        {
          "authorId": "2269144495",
          "name": "Chen Ju"
        },
        {
          "authorId": "2269146046",
          "name": "Jinsong Lan"
        },
        {
          "authorId": "2292704421",
          "name": "Shuai Xiao"
        }
      ]
    },
    {
      "paperId": "2bd025e3fb9b6c2ae67de2f4440d7e6dfd707e0c",
      "externalIds": {
        "DBLP": "journals/access/GuXL20",
        "MAG": "3039918539",
        "DOI": "10.1109/ACCESS.2020.3006569",
        "CorpusId": 220568834
      },
      "url": "https://www.semanticscholar.org/paper/2bd025e3fb9b6c2ae67de2f4440d7e6dfd707e0c",
      "title": "Sentiment Analysis via Deep Multichannel Neural Networks With Variational Information Bottleneck",
      "venue": "IEEE Access",
      "year": 2020,
      "referenceCount": 35,
      "citationCount": 29,
      "authors": [
        {
          "authorId": "1819434817",
          "name": "Tong Gu"
        },
        {
          "authorId": "2115723775",
          "name": "Guoliang Xu"
        },
        {
          "authorId": "2889500",
          "name": "Jiangtao Luo"
        }
      ]
    },
    {
      "paperId": "a181fb5a42ad8fe2cc27b5542fa40384e9a8d72c",
      "externalIds": {
        "MAG": "2964160479",
        "DBLP": "conf/iclr/AlemiFD017",
        "ArXiv": "1612.00410",
        "CorpusId": 204922497
      },
      "url": "https://www.semanticscholar.org/paper/a181fb5a42ad8fe2cc27b5542fa40384e9a8d72c",
      "title": "Deep Variational Information Bottleneck",
      "venue": "International Conference on Learning Representations",
      "year": 2017,
      "referenceCount": 49,
      "citationCount": 2111,
      "authors": [
        {
          "authorId": "122113652",
          "name": "Alexander A. Alemi"
        },
        {
          "authorId": "2057616290",
          "name": "Ian Fischer"
        },
        {
          "authorId": "2403637",
          "name": "Joshua V. Dillon"
        }
      ]
    }
  ]
}