{
  "total": 39309,
  "offset": 0,
  "next": 10,
  "data": [
    {
      "paperId": "fa9decd1395cc2f39e9921f870ebc8a8ec2bd08d",
      "externalIds": {
        "ArXiv": "1709.07432",
        "MAG": "2757047188",
        "DBLP": "journals/corr/abs-1709-07432",
        "CorpusId": 215827131
      },
      "url": "https://www.semanticscholar.org/paper/fa9decd1395cc2f39e9921f870ebc8a8ec2bd08d",
      "title": "Dynamic Evaluation of Neural Sequence Models",
      "venue": "International Conference on Machine Learning",
      "year": 2017,
      "referenceCount": 53,
      "citationCount": 145,
      "authors": [
        {
          "authorId": "9340968",
          "name": "Ben Krause"
        },
        {
          "authorId": "26432578",
          "name": "Emmanuel Kahembwe"
        },
        {
          "authorId": "145797336",
          "name": "Iain Murray"
        },
        {
          "authorId": "145086187",
          "name": "S. Renals"
        }
      ]
    },
    {
      "paperId": "1d4733f1bf745d33045859e2d39dfd67956e5a86",
      "externalIds": {
        "PubMedCentral": "12352854",
        "DOI": "10.1371/journal.pone.0330211",
        "CorpusId": 280658280,
        "PubMed": "40811692"
      },
      "url": "https://www.semanticscholar.org/paper/1d4733f1bf745d33045859e2d39dfd67956e5a86",
      "title": "Filling gaps in PM2.5 time series: A broad evaluation from statistical to advanced neural network models",
      "venue": "PLoS ONE",
      "year": 2025,
      "referenceCount": 66,
      "citationCount": 1,
      "authors": [
        {
          "authorId": "2279655228",
          "name": "R. Safarov"
        },
        {
          "authorId": "95501100",
          "name": "Z. Shomanova"
        },
        {
          "authorId": "1581333944",
          "name": "Y. Nossenko"
        },
        {
          "authorId": "2279653333",
          "name": "E. Kopishev"
        },
        {
          "authorId": "2190328197",
          "name": "Zhuldyz Bexeitova"
        },
        {
          "authorId": "2279650254",
          "name": "R. Kamatov"
        }
      ]
    },
    {
      "paperId": "54e9aee33247930eb8542f00321eb29b5f2424e3",
      "externalIds": {
        "DOI": "10.1109/ICICT60155.2024.10544774",
        "CorpusId": 270315022
      },
      "url": "https://www.semanticscholar.org/paper/54e9aee33247930eb8542f00321eb29b5f2424e3",
      "title": "LSTM Sequence to Sequence Model for Dynamic Title Generation",
      "venue": "International Congress on Information and Communication Technology",
      "year": 2024,
      "referenceCount": 16,
      "citationCount": 1,
      "authors": [
        {
          "authorId": "2005009",
          "name": "S. Shilaskar"
        },
        {
          "authorId": "2305177454",
          "name": "Prerna Saitwal"
        },
        {
          "authorId": "2305175412",
          "name": "Pranav Raundal"
        },
        {
          "authorId": "2305178875",
          "name": "Manas Rathi"
        }
      ]
    },
    {
      "paperId": "50457c4cc3b79b3332b66028e57c2d1247c8bcfa",
      "externalIds": {
        "DBLP": "journals/corr/abs-2405-19036",
        "DOI": "10.48550/arXiv.2405.19036",
        "CorpusId": 279238154
      },
      "url": "https://www.semanticscholar.org/paper/50457c4cc3b79b3332b66028e57c2d1247c8bcfa",
      "title": "State Space Models are Comparable to Transformers in Estimating Functions with Dynamic Smoothness",
      "venue": "arXiv.org",
      "year": 2024,
      "referenceCount": 31,
      "citationCount": 3,
      "authors": [
        {
          "authorId": "2303655186",
          "name": "Naoki Nishikawa"
        },
        {
          "authorId": "2299189088",
          "name": "Taiji Suzuki"
        }
      ]
    },
    {
      "paperId": "8a4d7b945a6035b7b808247f3c296adf7ae2f61a",
      "externalIds": {
        "PubMedCentral": "7512800",
        "DBLP": "journals/entropy/WangZLW18",
        "MAG": "2797895653",
        "DOI": "10.3390/e20040283",
        "CorpusId": 4830523,
        "PubMed": "33265374"
      },
      "url": "https://www.semanticscholar.org/paper/8a4d7b945a6035b7b808247f3c296adf7ae2f61a",
      "title": "TRSWA-BP Neural Network for Dynamic Wind Power Forecasting Based on Entropy Evaluation",
      "venue": "Entropy",
      "year": 2018,
      "referenceCount": 30,
      "citationCount": 6,
      "authors": [
        {
          "authorId": "3297901",
          "name": "Shuangxin Wang"
        },
        {
          "authorId": "2145734334",
          "name": "Xin Zhao"
        },
        {
          "authorId": "49141060",
          "name": "M. Li"
        },
        {
          "authorId": "49528487",
          "name": "Hong Wang"
        }
      ]
    },
    {
      "paperId": "c2adbb8af1aedffbf4a0b8b13eda0e3fc12fbe76",
      "externalIds": {
        "DBLP": "journals/jaihc/Wang0PZ23",
        "DOI": "10.1007/s12652-023-04579-9",
        "CorpusId": 257516185
      },
      "url": "https://www.semanticscholar.org/paper/c2adbb8af1aedffbf4a0b8b13eda0e3fc12fbe76",
      "title": "Multivariate long sequence time-series forecasting using dynamic graph learning",
      "venue": "Journal of Ambient Intelligence and Humanized Computing",
      "year": 2023,
      "referenceCount": 35,
      "citationCount": 19,
      "authors": [
        {
          "authorId": "2179424201",
          "name": "Xiaohu Wang"
        },
        {
          "authorId": "2153953466",
          "name": "Yong Wang"
        },
        {
          "authorId": "46408298",
          "name": "Jianjian Peng"
        },
        {
          "authorId": "2110148822",
          "name": "Zhicheng Zhang"
        }
      ]
    },
    {
      "paperId": "b3f856ca751a4f90e4e5bb225a6cea017ce38597",
      "externalIds": {
        "PubMedCentral": "6638935",
        "MAG": "2962977835",
        "DOI": "10.1371/journal.pone.0219495",
        "CorpusId": 197665053,
        "PubMed": "31318901"
      },
      "url": "https://www.semanticscholar.org/paper/b3f856ca751a4f90e4e5bb225a6cea017ce38597",
      "title": "Evaluation of simulation models to mimic the distortions introduced into squiggles by nanopore sequencers and segmentation algorithms",
      "venue": "PLoS ONE",
      "year": 2019,
      "referenceCount": 13,
      "citationCount": 1,
      "authors": [
        {
          "authorId": "2116646081",
          "name": "Michael R. Smith"
        },
        {
          "authorId": "152120401",
          "name": "Rachel S. L. Chan"
        },
        {
          "authorId": "2058080297",
          "name": "Paul Gordon"
        }
      ]
    },
    {
      "paperId": "ebfdeffde1fff6543c9170761f1a16512af76695",
      "externalIds": {
        "DOI": "10.32628/cseit25112724",
        "CorpusId": 277535221
      },
      "url": "https://www.semanticscholar.org/paper/ebfdeffde1fff6543c9170761f1a16512af76695",
      "title": "Self-Healing Test Automation Using Deep Learning Models",
      "venue": "International Journal of Scientific Research in Computer Science Engineering and Information Technology",
      "year": 2025,
      "referenceCount": 0,
      "citationCount": 0,
      "authors": [
        {
          "authorId": "2353518230",
          "name": "Ajay Seelamneni"
        }
      ]
    },
    {
      "paperId": "f8d20c86d9d2d2d767df4b9cae0213a6e574ef69",
      "externalIds": {
        "DOI": "10.32628/ijsrset241492",
        "CorpusId": 282118625
      },
      "url": "https://www.semanticscholar.org/paper/f8d20c86d9d2d2d767df4b9cae0213a6e574ef69",
      "title": "Hybrid Deep Learning and BPNN Models for Stock Price Forecasting: A Quality and Performance Perspective",
      "venue": "International Journal of Scientific Research in Science Engineering and Technology",
      "year": 2025,
      "referenceCount": 14,
      "citationCount": 0,
      "authors": [
        {
          "authorId": "2373954674",
          "name": "Anjna Sharma"
        },
        {
          "authorId": "2370535127",
          "name": "Dr. Abid Hussain"
        }
      ]
    },
    {
      "paperId": "e0fb491daf5c44d4353935c3501f4f9de1419a43",
      "externalIds": {
        "MAG": "3040191126",
        "DOI": "10.1007/s40899-020-00423-6",
        "CorpusId": 220350752
      },
      "url": "https://www.semanticscholar.org/paper/e0fb491daf5c44d4353935c3501f4f9de1419a43",
      "title": "Application of artificial neural network for optimal operation of a multi-purpose multi-reservoir system, II: optimal solution and performance evaluation",
      "venue": "Sustainable Water Resources Management",
      "year": 2020,
      "referenceCount": 47,
      "citationCount": 5,
      "authors": [
        {
          "authorId": "73405618",
          "name": "Safayat Ali Shaikh"
        }
      ]
    }
  ]
}