{
  "total": 11,
  "offset": 0,
  "next": 10,
  "data": [
    {
      "paperId": "36efaa6c508e57a15da9b4c30b7f5bdd78a34a06",
      "externalIds": {
        "DBLP": "conf/icml/WiatowskiTSGB16",
        "MAG": "2406988585",
        "ArXiv": "1605.08283",
        "CorpusId": 14592531
      },
      "url": "https://www.semanticscholar.org/paper/36efaa6c508e57a15da9b4c30b7f5bdd78a34a06",
      "title": "Discrete Deep Feature Extraction: A Theory and New Architectures",
      "venue": "International Conference on Machine Learning",
      "year": 2016,
      "referenceCount": 40,
      "citationCount": 28,
      "authors": [
        {
          "authorId": "2076040",
          "name": "Thomas Wiatowski"
        },
        {
          "authorId": "143902495",
          "name": "Michael Tschannen"
        },
        {
          "authorId": "2064448663",
          "name": "Aleksandar Stanic"
        },
        {
          "authorId": "1690644",
          "name": "P. Grohs"
        },
        {
          "authorId": "1691809",
          "name": "H. Bölcskei"
        }
      ]
    },
    {
      "paperId": "be6f631136daf47ea63b9d3f57313bd5329be37a",
      "externalIds": {
        "MAG": "2780099243",
        "DOI": "10.1016/J.FCIJ.2017.12.001",
        "CorpusId": 64586614
      },
      "url": "https://www.semanticscholar.org/paper/be6f631136daf47ea63b9d3f57313bd5329be37a",
      "title": "Classification using deep learning neural networks for brain tumors",
      "venue": "Future Computing and Informatics Journal",
      "year": 2017,
      "referenceCount": 18,
      "citationCount": 911,
      "authors": [
        {
          "authorId": "12938235",
          "name": "Heba M. Mohsen"
        },
        {
          "authorId": "1409232526",
          "name": "E. El-Dahshan"
        },
        {
          "authorId": "1402345064",
          "name": "El-Sayed M. El-Horbaty"
        },
        {
          "authorId": "32256486",
          "name": "A. M. Salem"
        }
      ]
    },
    {
      "paperId": "f778afd045ce0b1c4d1b3640c03c9c9222c83582",
      "externalIds": {
        "DOI": "10.1109/CBMS65348.2025.00141",
        "CorpusId": 279899522
      },
      "url": "https://www.semanticscholar.org/paper/f778afd045ce0b1c4d1b3640c03c9c9222c83582",
      "title": "Hybrid 3D CNN-MAMBA for Emphysema Classification in the SCAPIS Cohort",
      "venue": "2025 IEEE 38th International Symposium on Computer-Based Medical Systems (CBMS)",
      "year": 2025,
      "referenceCount": 16,
      "citationCount": 0,
      "authors": [
        {
          "authorId": "2370137688",
          "name": "Francesco Di Feola"
        },
        {
          "authorId": "2150077541",
          "name": "Marida De Maria"
        },
        {
          "authorId": "2269083409",
          "name": "Göran Bergström"
        },
        {
          "authorId": "2265225705",
          "name": "Anders Blomberg"
        },
        {
          "authorId": "2058427631",
          "name": "Å. Johnsson"
        },
        {
          "authorId": "2270541236",
          "name": "Pierangelo Veltri"
        },
        {
          "authorId": "1720099",
          "name": "P. Soda"
        }
      ]
    },
    {
      "paperId": "79dc77bbece48044e4039b2304096ee99683521d",
      "externalIds": {
        "PubMedCentral": "10030221",
        "DOI": "10.1155/2023/7371907",
        "CorpusId": 257555809,
        "PubMed": "36959839"
      },
      "url": "https://www.semanticscholar.org/paper/79dc77bbece48044e4039b2304096ee99683521d",
      "title": "Image Classification Based on Light Convolutional Neural Network Using Pulse Couple Neural Network",
      "venue": "Computational Intelligence and Neuroscience",
      "year": 2023,
      "referenceCount": 46,
      "citationCount": 9,
      "authors": [
        {
          "authorId": "98446103",
          "name": "Maminiaina Alphonse Rafidison"
        },
        {
          "authorId": "2187375470",
          "name": "Hajasoa Malalatiana Ramafiarisona"
        },
        {
          "authorId": "2629961",
          "name": "P. A. Randriamitantsoa"
        },
        {
          "authorId": "2187372683",
          "name": "Sabine Harisoa Jacques Rafanantenana"
        },
        {
          "authorId": "2211719073",
          "name": "Faniriharisoa Maxime Rajaonarison Toky"
        },
        {
          "authorId": "2211719070",
          "name": "Lovasoa Patrick Rakotondrazaka"
        },
        {
          "authorId": "2187370031",
          "name": "Andry Harivony Rakotomihamina"
        }
      ]
    },
    {
      "paperId": "8ec016f4d6e0948762fc1175512659b3d86b1601",
      "externalIds": {
        "MAG": "3017573093",
        "DBLP": "conf/ccis/Chew19",
        "DOI": "10.1109/CCIS48116.2019.9073754",
        "CorpusId": 216105127
      },
      "url": "https://www.semanticscholar.org/paper/8ec016f4d6e0948762fc1175512659b3d86b1601",
      "title": "Novel multiscale grid representations of deep neural network layers for modelling complex engineering processes",
      "venue": "International Conference on Cloud Computing and Intelligence Systems",
      "year": 2019,
      "referenceCount": 0,
      "citationCount": 0,
      "authors": [
        {
          "authorId": "46194749",
          "name": "A. Chew"
        }
      ]
    },
    {
      "paperId": "a6a9c60fda6adeed3d54adb65fceb1848ce7c929",
      "externalIds": {
        "MAG": "2004450282",
        "DBLP": "journals/tsp/Steinhardt86",
        "DOI": "10.1109/TASSP.1986.1164800",
        "CorpusId": 21259468
      },
      "url": "https://www.semanticscholar.org/paper/a6a9c60fda6adeed3d54adb65fceb1848ce7c929",
      "title": "Fast algorithms for digital signal processing",
      "venue": "Proceedings of the IEEE",
      "year": 1986,
      "referenceCount": 8,
      "citationCount": 313,
      "authors": [
        {
          "authorId": "1746228",
          "name": "A. Steinhardt"
        }
      ]
    },
    {
      "paperId": "c2fbbaa126267bdb7564e06d39fd59024baa7051",
      "externalIds": {
        "MAG": "2084883566",
        "DBLP": "journals/robotica/Andrew02b",
        "DOI": "10.1017/S0263574701213952",
        "CorpusId": 62168583
      },
      "url": "https://www.semanticscholar.org/paper/c2fbbaa126267bdb7564e06d39fd59024baa7051",
      "title": "INTELLIGENT SYSTEMS: ARCHITECTURE, DESIGN, AND CONTROL, by Alexander M. Meystel and James R. Albus, Wiley-Interscience, New York, 2001, xxi + 696 pp., ISBN 0-471-19374-7 (Hardback, £55.95) Wiley Series on Intelligent Systems",
      "venue": "Robotica (Cambridge. Print)",
      "year": 2002,
      "referenceCount": 0,
      "citationCount": 125,
      "authors": [
        {
          "authorId": "1703768",
          "name": "A. Andrew"
        }
      ]
    },
    {
      "paperId": "1f52c20dc11f67bec0e3ddb64d4d20a08a93a154",
      "externalIds": {
        "MAG": "1563233961",
        "DBLP": "conf/ida/2009",
        "DOI": "10.1007/978-3-642-00599-2",
        "CorpusId": 45300656
      },
      "url": "https://www.semanticscholar.org/paper/1f52c20dc11f67bec0e3ddb64d4d20a08a93a154",
      "title": "Independent Component Analysis and Signal Separation, 8th International Conference, ICA 2009, Paraty, Brazil, March 15-18, 2009. Proceedings",
      "venue": "International Conference on Agents",
      "year": 2009,
      "referenceCount": 0,
      "citationCount": 7,
      "authors": [
        {
          "authorId": "144353151",
          "name": "T. Adalı"
        },
        {
          "authorId": "1696508",
          "name": "C. Jutten"
        },
        {
          "authorId": "145397802",
          "name": "J. Romano"
        },
        {
          "authorId": "1832777",
          "name": "A. Barros"
        }
      ]
    },
    {
      "paperId": "cb256bc2f0c0323c0e09f84c076def47e989a50b",
      "externalIds": {
        "MAG": "1595776380",
        "CorpusId": 60960227
      },
      "url": "https://www.semanticscholar.org/paper/cb256bc2f0c0323c0e09f84c076def47e989a50b",
      "title": "Advances in artificial intelligence -- IBERAMIA 2004 : 9th Ibero-American Conference on AI, Puebla, México, November 22-26, 2004 : proceedings",
      "venue": "",
      "year": 2004,
      "referenceCount": 0,
      "citationCount": 0,
      "authors": [
        {
          "authorId": "1729511",
          "name": "C. Lemaître"
        },
        {
          "authorId": "71845946",
          "name": "C. Reyes"
        },
        {
          "authorId": "145876100",
          "name": "Jesus A. Gonzalez"
        }
      ]
    },
    {
      "paperId": "bd2c381980a45d01837783c7bc0b8af2f80c515a",
      "externalIds": {
        "CorpusId": 14632599
      },
      "url": "https://www.semanticscholar.org/paper/bd2c381980a45d01837783c7bc0b8af2f80c515a",
      "title": "Automated Scoring of Neonatal Sleep",
      "venue": "",
      "year": 2005,
      "referenceCount": 25,
      "citationCount": 0,
      "authors": [
        {
          "authorId": "2867620",
          "name": "Todd J. Levy"
        },
        {
          "authorId": "144538578",
          "name": "K. Loparo"
        },
        {
          "authorId": "4447219",
          "name": "M. Scher"
        }
      ]
    }
  ]
}