{
  "total": 3016,
  "offset": 0,
  "next": 10,
  "data": [
    {
      "paperId": "bb184a6de06a888d136089bc8d76cc70c7401a6e",
      "externalIds": {
        "MAG": "2134264591",
        "DBLP": "conf/icml/ClarkS15",
        "CorpusId": 6254050
      },
      "url": "https://www.semanticscholar.org/paper/bb184a6de06a888d136089bc8d76cc70c7401a6e",
      "title": "Training Deep Convolutional Neural Networks to Play Go",
      "venue": "International Conference on Machine Learning",
      "year": 2015,
      "referenceCount": 20,
      "citationCount": 177,
      "authors": [
        {
          "authorId": "143997772",
          "name": "Christopher Clark"
        },
        {
          "authorId": "1728216",
          "name": "A. Storkey"
        }
      ]
    },
    {
      "paperId": "2c95217307edccf24a7e711c37b8995db7327fd9",
      "externalIds": {
        "DBLP": "journals/corr/ClarkS14",
        "MAG": "2951565863",
        "ArXiv": "1412.3409",
        "CorpusId": 263787430
      },
      "url": "https://www.semanticscholar.org/paper/2c95217307edccf24a7e711c37b8995db7327fd9",
      "title": "Teaching Deep Convolutional Neural Networks to Play Go",
      "venue": "arXiv.org",
      "year": 2014,
      "referenceCount": 18,
      "citationCount": 32,
      "authors": [
        {
          "authorId": "2323036630",
          "name": "Christopher Clark"
        },
        {
          "authorId": "1728216",
          "name": "A. Storkey"
        }
      ]
    },
    {
      "paperId": "77c0912ea9db5c3732c33e2787593ea6455aeef5",
      "externalIds": {
        "DBLP": "conf/crv/Xi0G17",
        "MAG": "2786622278",
        "DOI": "10.1109/CRV.2017.11",
        "CorpusId": 46748459
      },
      "url": "https://www.semanticscholar.org/paper/77c0912ea9db5c3732c33e2787593ea6455aeef5",
      "title": "Localizing 3-D Anatomical Landmarks Using Deep Convolutional Neural Networks",
      "venue": "Canadian Conference on Computer and Robot Vision",
      "year": 2017,
      "referenceCount": 29,
      "citationCount": 6,
      "authors": [
        {
          "authorId": "3111197",
          "name": "Pengcheng Xi"
        },
        {
          "authorId": "47707932",
          "name": "Chang Shu"
        },
        {
          "authorId": "1720674",
          "name": "R. Goubran"
        }
      ]
    },
    {
      "paperId": "8bab6722bb7ba3e08f0c18619fcc787aba45bb34",
      "externalIds": {
        "CorpusId": 204919102
      },
      "url": "https://www.semanticscholar.org/paper/8bab6722bb7ba3e08f0c18619fcc787aba45bb34",
      "title": "The SuperVision network Image classificaSon with deep convoluSonal neural networks",
      "venue": "",
      "year": 2018,
      "referenceCount": 0,
      "citationCount": 0,
      "authors": [
        {
          "authorId": "1757158",
          "name": "A. Cornuéjols"
        }
      ]
    },
    {
      "paperId": "77cd0099896c718e5d6503dd2d74916657fe0693",
      "externalIds": {
        "DBLP": "conf/sitis/AdjoboMGT19",
        "MAG": "3016587090",
        "DOI": "10.1109/SITIS.2019.00018",
        "CorpusId": 215817410
      },
      "url": "https://www.semanticscholar.org/paper/77cd0099896c718e5d6503dd2d74916657fe0693",
      "title": "Proposition of Convolutional Neural Network Based System for Skin Cancer Detection",
      "venue": "International Conference on Signal-Image Technology and Internet-Based Systems",
      "year": 2019,
      "referenceCount": 24,
      "citationCount": 12,
      "authors": [
        {
          "authorId": "1580475624",
          "name": "Esther Chabi Adjobo"
        },
        {
          "authorId": "3425239",
          "name": "A. T. S. Mahama"
        },
        {
          "authorId": "1683256",
          "name": "P. Gouton"
        },
        {
          "authorId": "144942851",
          "name": "J. Tossa"
        }
      ]
    },
    {
      "paperId": "1ccea72a136f16427622a3cc408be83fa51a407e",
      "externalIds": {
        "MAG": "3196853225",
        "DBLP": "journals/nca/GarciaRamirezME23",
        "DOI": "10.1007/s00521-021-06419-3",
        "CorpusId": 239630896
      },
      "url": "https://www.semanticscholar.org/paper/1ccea72a136f16427622a3cc408be83fa51a407e",
      "title": "Source tasks selection for transfer deep reinforcement learning: a case of study on Atari games",
      "venue": "Neural computing & applications (Print)",
      "year": 2021,
      "referenceCount": 29,
      "citationCount": 1,
      "authors": [
        {
          "authorId": "1401234667",
          "name": "Jesús García-Ramírez"
        },
        {
          "authorId": "34970419",
          "name": "E. Morales"
        },
        {
          "authorId": "1742688",
          "name": "Hugo Jair Escalante"
        }
      ]
    },
    {
      "paperId": "21d0263664ae265a761af82f8c016f9a194e804b",
      "externalIds": {
        "DOI": "10.1109/IEMECON69302.2025.11365713",
        "CorpusId": 285289920
      },
      "url": "https://www.semanticscholar.org/paper/21d0263664ae265a761af82f8c016f9a194e804b",
      "title": "Visual Intelligence for Indian Sign Language: Techniques and Trends in Recognition",
      "venue": "2025 13th International Conference on Intelligent Embedded, MicroElectronics, Communication and Optical Networks (IEMECON)",
      "year": 2025,
      "referenceCount": 49,
      "citationCount": 0,
      "authors": [
        {
          "authorId": "2355632533",
          "name": "Subhadip Chandra"
        },
        {
          "authorId": "2408679369",
          "name": "Gourab Bandhu"
        },
        {
          "authorId": "2275532355",
          "name": "Shreya Ghosh"
        },
        {
          "authorId": "2408660511",
          "name": "Prasanjeet Dutta"
        },
        {
          "authorId": "2327940148",
          "name": "S. Saha"
        }
      ]
    },
    {
      "paperId": "5d3292e521eef830a50337ef9cc1569de6b029a2",
      "externalIds": {
        "MAG": "2777094228",
        "PubMedCentral": "5747425",
        "DOI": "10.1371/journal.pone.0188129",
        "CorpusId": 38739602,
        "PubMed": "29287069"
      },
      "url": "https://www.semanticscholar.org/paper/5d3292e521eef830a50337ef9cc1569de6b029a2",
      "title": "On the prediction of DNA-binding proteins only from primary sequences: A deep learning approach",
      "venue": "PLoS ONE",
      "year": 2017,
      "referenceCount": 41,
      "citationCount": 56,
      "authors": [
        {
          "authorId": "2069178268",
          "name": "Y. Qu"
        },
        {
          "authorId": "2118682765",
          "name": "Hua Yu"
        },
        {
          "authorId": "1878747",
          "name": "X. Gong"
        },
        {
          "authorId": "2110501954",
          "name": "Jia-hui Xu"
        },
        {
          "authorId": "1390881857",
          "name": "Hong-Shun Lee"
        }
      ]
    },
    {
      "paperId": "179d04d9da112c16b6fa5310c273d66de65e5768",
      "externalIds": {
        "CorpusId": 26546754
      },
      "url": "https://www.semanticscholar.org/paper/179d04d9da112c16b6fa5310c273d66de65e5768",
      "title": "Playing Games with Deep Reinforcement Learning",
      "venue": "",
      "year": 2016,
      "referenceCount": 15,
      "citationCount": 2,
      "authors": [
        {
          "authorId": "2420123",
          "name": "Debidatta Dwibedi"
        },
        {
          "authorId": "2387189",
          "name": "Anirudh Vemula"
        }
      ]
    },
    {
      "paperId": "23cc423a4c3c69b9470aac4f401f6225441a6e6d",
      "externalIds": {
        "CorpusId": 265232711
      },
      "url": "https://www.semanticscholar.org/paper/23cc423a4c3c69b9470aac4f401f6225441a6e6d",
      "title": "Vision-based Deep Reinforcement Learning",
      "venue": "",
      "year": 2016,
      "referenceCount": 19,
      "citationCount": 0,
      "authors": [
        {
          "authorId": "2387189",
          "name": "Anirudh Vemula"
        }
      ]
    }
  ]
}