{
  "total": 944,
  "offset": 0,
  "next": 10,
  "data": [
    {
      "paperId": "63880b57b95de8afd73036e55b9c4bccb7a528b9",
      "externalIds": {
        "MAG": "2964281804",
        "DBLP": "conf/icml/ArikCCDGKLMNRSS17",
        "ArXiv": "1702.07825",
        "CorpusId": 5580515
      },
      "url": "https://www.semanticscholar.org/paper/63880b57b95de8afd73036e55b9c4bccb7a528b9",
      "title": "Deep Voice: Real-time Neural Text-to-Speech",
      "venue": "International Conference on Machine Learning",
      "year": 2017,
      "referenceCount": 30,
      "citationCount": 658,
      "authors": [
        {
          "authorId": "2676352",
          "name": "Sercan Ö. Arik"
        },
        {
          "authorId": "35977287",
          "name": "Mike Chrzanowski"
        },
        {
          "authorId": "144638694",
          "name": "A. Coates"
        },
        {
          "authorId": "2040049",
          "name": "G. Diamos"
        },
        {
          "authorId": "9544702",
          "name": "Andrew Gibiansky"
        },
        {
          "authorId": "1729563",
          "name": "Yongguo Kang"
        },
        {
          "authorId": "2116235414",
          "name": "Xian Li"
        },
        {
          "authorId": "2116337165",
          "name": "John Miller"
        },
        {
          "authorId": "145175379",
          "name": "Andrew Ng"
        },
        {
          "authorId": "34042420",
          "name": "Jonathan Raiman"
        },
        {
          "authorId": "2264597",
          "name": "Shubho Sengupta"
        },
        {
          "authorId": "1911755",
          "name": "M. Shoeybi"
        }
      ]
    },
    {
      "paperId": "d202c0922d0c7b7e91fde80323f649bef2026b44",
      "externalIds": {
        "DOI": "10.1109/ICETCS61022.2024.10543403",
        "CorpusId": 270260865
      },
      "url": "https://www.semanticscholar.org/paper/d202c0922d0c7b7e91fde80323f649bef2026b44",
      "title": "Neural Voice Replication: Multispeaker Text-to-Speech Synthesizer",
      "venue": "2024 International Conference on Emerging Technologies in Computer Science for Interdisciplinary Applications (ICETCS)",
      "year": 2024,
      "referenceCount": 3,
      "citationCount": 5,
      "authors": [
        {
          "authorId": "2237950837",
          "name": "Richa Gupta"
        },
        {
          "authorId": "2379253798",
          "name": "Praveen S Kumar"
        },
        {
          "authorId": "4764880",
          "name": "Pradipta K Swain"
        },
        {
          "authorId": "2305063264",
          "name": "Deepak Kumar"
        },
        {
          "authorId": "2257052890",
          "name": "Navin Garg"
        }
      ]
    },
    {
      "paperId": "91272fbf831579331fac186d6ed329d6a3ab9537",
      "externalIds": {
        "DOI": "10.1109/ICSADL67539.2026.11452056",
        "CorpusId": 287029025
      },
      "url": "https://www.semanticscholar.org/paper/91272fbf831579331fac186d6ed329d6a3ab9537",
      "title": "Real Time Speech to Speech Conversational AI System",
      "venue": "2026 5th International Conference on Sentiment Analysis and Deep Learning (ICSADL)",
      "year": 2026,
      "referenceCount": 17,
      "citationCount": 0,
      "authors": [
        {
          "authorId": "2254470836",
          "name": "Divya Pandey"
        },
        {
          "authorId": "9409076",
          "name": "Namrata Dhanda"
        },
        {
          "authorId": "2066788529",
          "name": "K. Gupta"
        }
      ]
    },
    {
      "paperId": "56faafd37643af3fb8a0afce07d61669b146c159",
      "externalIds": {
        "DBLP": "journals/corr/abs-2404-07807",
        "ArXiv": "2404.07807",
        "DOI": "10.48550/arXiv.2404.07807",
        "CorpusId": 258766483
      },
      "url": "https://www.semanticscholar.org/paper/56faafd37643af3fb8a0afce07d61669b146c159",
      "title": "Voice-Assisted Real-Time Traffic Sign Recognition System Using Convolutional Neural Network",
      "venue": "arXiv.org",
      "year": 2024,
      "referenceCount": 17,
      "citationCount": 11,
      "authors": [
        {
          "authorId": "2217535587",
          "name": "Mayura Manawadu"
        },
        {
          "authorId": "2260536381",
          "name": "U. Wijenayake"
        }
      ]
    },
    {
      "paperId": "0d6ffedbaded7afba97a81da0c754383870717c6",
      "externalIds": {
        "DOI": "10.1109/ICITEICS64870.2025.11341699",
        "CorpusId": 284966659
      },
      "url": "https://www.semanticscholar.org/paper/0d6ffedbaded7afba97a81da0c754383870717c6",
      "title": "Real Time Speech Recognition and Translation using Machine Learning Algorithm",
      "venue": "2025 IEEE 2nd International Conference on Information Technology, Electronics and Intelligent Communication Systems (ICITEICS)",
      "year": 2025,
      "referenceCount": 9,
      "citationCount": 0,
      "authors": [
        {
          "authorId": "2406280282",
          "name": "Kusuma Gs"
        },
        {
          "authorId": "2302165918",
          "name": "S. S"
        },
        {
          "authorId": "2406281057",
          "name": "Timothy Bhatt"
        },
        {
          "authorId": "2414778127",
          "name": "S. H"
        },
        {
          "authorId": null,
          "name": "Sushma N"
        }
      ]
    },
    {
      "paperId": "7bf42abb8a5593886b354c8665e8fe60a2b8a60a",
      "externalIds": {
        "DOI": "10.1109/ICOSEC58147.2023.10275836",
        "CorpusId": 264183005
      },
      "url": "https://www.semanticscholar.org/paper/7bf42abb8a5593886b354c8665e8fe60a2b8a60a",
      "title": "Real-Time Detection and Classification of Street Signs Using Deep Learning with Voice Alert system",
      "venue": "2023 4th International Conference on Smart Electronics and Communication (ICOSEC)",
      "year": 2023,
      "referenceCount": 22,
      "citationCount": 2,
      "authors": [
        {
          "authorId": "2261250640",
          "name": "Samundiswary S"
        },
        {
          "authorId": "11112027",
          "name": "Karthik Sridhar"
        },
        {
          "authorId": "2259018552",
          "name": "Mehul Aswar"
        },
        {
          "authorId": "2259018333",
          "name": "Simran Kaur Shembe"
        }
      ]
    },
    {
      "paperId": "4f677ea40117dff2df5a52a8ef1d0b3afca9186a",
      "externalIds": {
        "DBLP": "journals/mta/NazirMSP24",
        "DOI": "10.1007/s11042-024-18121-2",
        "CorpusId": 266980324
      },
      "url": "https://www.semanticscholar.org/paper/4f677ea40117dff2df5a52a8ef1d0b3afca9186a",
      "title": "Multi speaker text-to-speech synthesis using generalized end-to-end loss function",
      "venue": "Multimedia tools and applications",
      "year": 2024,
      "referenceCount": 32,
      "citationCount": 5,
      "authors": [
        {
          "authorId": "39633399",
          "name": "Owais Nazir"
        },
        {
          "authorId": "3491399",
          "name": "Aruna Malik"
        },
        {
          "authorId": "2108313627",
          "name": "Samayveer Singh"
        },
        {
          "authorId": "2197441131",
          "name": "Al-Sakib Khan Pathan"
        }
      ]
    },
    {
      "paperId": "72f4dd7fdc577cea4f040e168b9dc2f99206243c",
      "externalIds": {
        "DBLP": "journals/mta/MandeelAC23",
        "DOI": "10.1007/s11042-022-14005-5",
        "CorpusId": 253083699
      },
      "url": "https://www.semanticscholar.org/paper/72f4dd7fdc577cea4f040e168b9dc2f99206243c",
      "title": "Investigations on speaker adaptation using a continuous vocoder within recurrent neural network based text-to-speech synthesis",
      "venue": "Multimedia tools and applications",
      "year": 2022,
      "referenceCount": 50,
      "citationCount": 9,
      "authors": [
        {
          "authorId": "52133343",
          "name": "Ali Raheem Mandeel"
        },
        {
          "authorId": "1396588199",
          "name": "M. Al-Radhi"
        },
        {
          "authorId": "2649433",
          "name": "T. Csapó"
        }
      ]
    },
    {
      "paperId": "a40170df3cb0a8b874b0c30d513e0046a97b46a9",
      "externalIds": {
        "DOI": "10.37391/ijeer.100205",
        "CorpusId": 250328465
      },
      "url": "https://www.semanticscholar.org/paper/a40170df3cb0a8b874b0c30d513e0046a97b46a9",
      "title": "Object Detection and Recognition in Real Time Using Deep Learning for Visually Impaired People",
      "venue": "International journal of electrical and electronics research",
      "year": 2022,
      "referenceCount": 17,
      "citationCount": 63,
      "authors": [
        {
          "authorId": "2175204265",
          "name": "M. Hussan"
        },
        {
          "authorId": "2265433795",
          "name": "D. Saidulu"
        },
        {
          "authorId": "2175213620",
          "name": "P. T. Anitha"
        },
        {
          "authorId": "2163223432",
          "name": "A. Manikandan"
        },
        {
          "authorId": "46226658",
          "name": "Dr. A. Naresh"
        }
      ]
    },
    {
      "paperId": "dd32328c707220c5fbc01fe693f6a2187b1090b2",
      "externalIds": {
        "DOI": "10.1109/ETNCC63262.2024.10767556",
        "CorpusId": 274467240
      },
      "url": "https://www.semanticscholar.org/paper/dd32328c707220c5fbc01fe693f6a2187b1090b2",
      "title": "Speech-Based Visual Aid for the Blind Eye Using Deep Convolution Neural Network",
      "venue": "2024 International Conference on Emerging Trends in Networks and Computer Communications (ETNCC)",
      "year": 2024,
      "referenceCount": 38,
      "citationCount": 3,
      "authors": [
        {
          "authorId": "2333628273",
          "name": "Prasidhi Nandwani"
        },
        {
          "authorId": "2280550832",
          "name": "Garima Jain"
        },
        {
          "authorId": "2294788330",
          "name": "Sanat Jain"
        },
        {
          "authorId": "66644339",
          "name": "Ajay Kumar Phulre"
        },
        {
          "authorId": "2328002407",
          "name": "Suneet Joshi"
        },
        {
          "authorId": "2077524287",
          "name": "Rupayali Swaroop"
        }
      ]
    }
  ]
}