{
  "total": 70498,
  "offset": 0,
  "next": 10,
  "data": [
    {
      "paperId": "bc183ee72b40416548937b9155b427a65e5ecbb2",
      "externalIds": {
        "MAG": "2964237080",
        "ArXiv": "1705.10470",
        "DBLP": "journals/corr/LiuDRS17",
        "CorpusId": 26159929
      },
      "url": "https://www.semanticscholar.org/paper/bc183ee72b40416548937b9155b427a65e5ecbb2",
      "title": "Iterative Machine Teaching",
      "venue": "International Conference on Machine Learning",
      "year": 2017,
      "referenceCount": 27,
      "citationCount": 151,
      "authors": [
        {
          "authorId": "36326884",
          "name": "Weiyang Liu"
        },
        {
          "authorId": "144445933",
          "name": "Bo Dai"
        },
        {
          "authorId": "3162535",
          "name": "Ahmad Humayun"
        },
        {
          "authorId": "39367354",
          "name": "C. Tay"
        },
        {
          "authorId": "144136729",
          "name": "Chen Yu"
        },
        {
          "authorId": "2836466",
          "name": "Linda B. Smith"
        },
        {
          "authorId": "144177248",
          "name": "James M. Rehg"
        },
        {
          "authorId": "1779453",
          "name": "Le Song"
        }
      ]
    },
    {
      "paperId": "cf246fa433d9880597e6f7000afcead396b5c1f2",
      "externalIds": {
        "DBLP": "conf/icml/Zhang0LTK23",
        "ArXiv": "2306.03007",
        "DOI": "10.48550/arXiv.2306.03007",
        "CorpusId": 259076226
      },
      "url": "https://www.semanticscholar.org/paper/cf246fa433d9880597e6f7000afcead396b5c1f2",
      "title": "Nonparametric Iterative Machine Teaching",
      "venue": "International Conference on Machine Learning",
      "year": 2023,
      "referenceCount": 83,
      "citationCount": 13,
      "authors": [
        {
          "authorId": "145107889",
          "name": "Chen Zhang"
        },
        {
          "authorId": "48811990",
          "name": "Xiaofeng Cao"
        },
        {
          "authorId": "36326884",
          "name": "Weiyang Liu"
        },
        {
          "authorId": "1807998",
          "name": "I. Tsang"
        },
        {
          "authorId": "145193332",
          "name": "J. Kwok"
        }
      ]
    },
    {
      "paperId": "8a5bd92c58249ee847d1de8a90fe42cb0b40dfdd",
      "externalIds": {
        "DBLP": "conf/kes/Mosqueira-ReyAB21",
        "MAG": "3202085196",
        "DOI": "10.1016/j.procs.2021.08.057",
        "CorpusId": 244342932
      },
      "url": "https://www.semanticscholar.org/paper/8a5bd92c58249ee847d1de8a90fe42cb0b40dfdd",
      "title": "Integrating Iterative Machine Teaching and Active Learning into the Machine Learning Loop",
      "venue": "International Conference on Knowledge-Based Intelligent Information & Engineering Systems",
      "year": 2021,
      "referenceCount": 35,
      "citationCount": 19,
      "authors": [
        {
          "authorId": "1402122878",
          "name": "E. Mosqueira-Rey"
        },
        {
          "authorId": "1403901547",
          "name": "David Alonso-Ríos"
        },
        {
          "authorId": "2141217236",
          "name": "Andrés Baamonde-Lozano"
        }
      ]
    },
    {
      "paperId": "30bb9c78d16329b4910d68cf650c7572f23ebc2a",
      "externalIds": {
        "DBLP": "journals/corr/abs-1710-07742",
        "MAG": "2951032299",
        "ArXiv": "1710.07742",
        "CorpusId": 9427480
      },
      "url": "https://www.semanticscholar.org/paper/30bb9c78d16329b4910d68cf650c7572f23ebc2a",
      "title": "Towards Black-box Iterative Machine Teaching",
      "venue": "International Conference on Machine Learning",
      "year": 2017,
      "referenceCount": 34,
      "citationCount": 60,
      "authors": [
        {
          "authorId": "36326884",
          "name": "Weiyang Liu"
        },
        {
          "authorId": "144445933",
          "name": "Bo Dai"
        },
        {
          "authorId": "50078946",
          "name": "Xingguo Li"
        },
        {
          "authorId": "144177248",
          "name": "James M. Rehg"
        },
        {
          "authorId": "1779453",
          "name": "Le Song"
        }
      ]
    },
    {
      "paperId": "5514c694ce8d3ef723ef613c5fc676e7adde6870",
      "externalIds": {
        "MAG": "3037339423",
        "ArXiv": "2006.15339",
        "DBLP": "journals/corr/abs-2006-15339",
        "CorpusId": 220249716
      },
      "url": "https://www.semanticscholar.org/paper/5514c694ce8d3ef723ef613c5fc676e7adde6870",
      "title": "Iterative Machine Teaching without Teachers",
      "venue": "arXiv.org",
      "year": 2020,
      "referenceCount": 12,
      "citationCount": 1,
      "authors": [
        {
          "authorId": "83839862",
          "name": "Mingzhe Yang"
        },
        {
          "authorId": "2994688",
          "name": "Yukino Baba"
        }
      ]
    },
    {
      "paperId": "7e8378ac14af33bb96dd3e08de5e440409f3c633",
      "externalIds": {
        "CorpusId": 260445180
      },
      "url": "https://www.semanticscholar.org/paper/7e8378ac14af33bb96dd3e08de5e440409f3c633",
      "title": "Towards Black-box Iterative Machine Teaching",
      "venue": "",
      "year": 2018,
      "referenceCount": 0,
      "citationCount": 1,
      "authors": []
    },
    {
      "paperId": "e343a9d6b60268b6d2f9b6464f6baf58d390364b",
      "externalIds": {
        "CorpusId": 277963368
      },
      "url": "https://www.semanticscholar.org/paper/e343a9d6b60268b6d2f9b6464f6baf58d390364b",
      "title": "Iterative Machine Teaching for Black-box Markov Learners",
      "venue": "",
      "year": null,
      "referenceCount": 39,
      "citationCount": 0,
      "authors": [
        {
          "authorId": "144093796",
          "name": "Chaoqi Wang"
        },
        {
          "authorId": "2356630037",
          "name": "Sandra Zilles"
        },
        {
          "authorId": "1703727",
          "name": "A. Singla"
        },
        {
          "authorId": "2312315619",
          "name": "Yuxin Chen"
        }
      ]
    },
    {
      "paperId": "67469d0e7b192b1abee93e3ed4805ab67302f4d2",
      "externalIds": {
        "DBLP": "journals/corr/abs-2401-17865",
        "ArXiv": "2401.17865",
        "DOI": "10.48550/arXiv.2401.17865",
        "CorpusId": 267335147
      },
      "url": "https://www.semanticscholar.org/paper/67469d0e7b192b1abee93e3ed4805ab67302f4d2",
      "title": "Manipulating Predictions over Discrete Inputs in Machine Teaching",
      "venue": "arXiv.org",
      "year": 2024,
      "referenceCount": 49,
      "citationCount": 0,
      "authors": [
        {
          "authorId": "2282097657",
          "name": "Xiaodong Wu"
        },
        {
          "authorId": "2282136351",
          "name": "Yufei Han"
        },
        {
          "authorId": "3191981",
          "name": "H. Dahrouj"
        },
        {
          "authorId": "2281947823",
          "name": "Jianbing Ni"
        },
        {
          "authorId": "151474408",
          "name": "Zhenwen Liang"
        },
        {
          "authorId": "2248274721",
          "name": "Xiangliang Zhang"
        }
      ]
    },
    {
      "paperId": "5eded0680d15863cc1d5c2c5f6b8dd0a70de6c09",
      "externalIds": {
        "MAG": "3023626240",
        "DBLP": "journals/hhci/RamosMSSG20",
        "DOI": "10.1080/07370024.2020.1734931",
        "CorpusId": 219012438
      },
      "url": "https://www.semanticscholar.org/paper/5eded0680d15863cc1d5c2c5f6b8dd0a70de6c09",
      "title": "Interactive machine teaching: a human-centered approach to building machine-learned models",
      "venue": "Hum. Comput. Interact.",
      "year": 2020,
      "referenceCount": 96,
      "citationCount": 117,
      "authors": [
        {
          "authorId": "2057749310",
          "name": "Gonzalo Ramos"
        },
        {
          "authorId": "50004012",
          "name": "Christopher Meek"
        },
        {
          "authorId": "2812486",
          "name": "P. Simard"
        },
        {
          "authorId": "38972741",
          "name": "Jina Suh"
        },
        {
          "authorId": "39715299",
          "name": "S. Ghorashi"
        }
      ]
    },
    {
      "paperId": "0be0c62ce0a1a82de08036ca00c03b49c726a46d",
      "externalIds": {
        "ArXiv": "2108.11748",
        "DBLP": "journals/corr/abs-2108-11748",
        "DOI": "10.1145/3474349.3480194",
        "CorpusId": 237304021
      },
      "url": "https://www.semanticscholar.org/paper/0be0c62ce0a1a82de08036ca00c03b49c726a46d",
      "title": "Enhancing Model Assessment in Vision-based Interactive Machine Teaching through Real-time Saliency Map Visualization",
      "venue": "ACM Symposium on User Interface Software and Technology",
      "year": 2021,
      "referenceCount": 9,
      "citationCount": 6,
      "authors": [
        {
          "authorId": "144086255",
          "name": "Zhongyi Zhou"
        },
        {
          "authorId": "3260704",
          "name": "Koji Yatani"
        }
      ]
    }
  ]
}