{
  "total": 266,
  "offset": 0,
  "next": 10,
  "data": [
    {
      "paperId": "768bba6e8493ed40b100f4a1b380ab7b73abf09d",
      "externalIds": {
        "DBLP": "journals/corr/YogatamaFDS14",
        "MAG": "2963481018",
        "ArXiv": "1406.2035",
        "CorpusId": 4992154
      },
      "url": "https://www.semanticscholar.org/paper/768bba6e8493ed40b100f4a1b380ab7b73abf09d",
      "title": "Learning Word Representations with Hierarchical Sparse Coding",
      "venue": "International Conference on Machine Learning",
      "year": 2014,
      "referenceCount": 50,
      "citationCount": 61,
      "authors": [
        {
          "authorId": "1755465",
          "name": "Dani Yogatama"
        },
        {
          "authorId": "1779225",
          "name": "Manaal Faruqui"
        },
        {
          "authorId": "1745899",
          "name": "Chris Dyer"
        },
        {
          "authorId": "144365875",
          "name": "Noah A. Smith"
        }
      ]
    },
    {
      "paperId": "bb3d2f15fddf09827103877ce1874a04a33341fc",
      "externalIds": {
        "DBLP": "conf/cvpr/YuLL11",
        "MAG": "2020719522",
        "DOI": "10.1109/CVPR.2011.5995732",
        "CorpusId": 11575226
      },
      "url": "https://www.semanticscholar.org/paper/bb3d2f15fddf09827103877ce1874a04a33341fc",
      "title": "Learning image representations from the pixel level via hierarchical sparse coding",
      "venue": "Computer Vision and Pattern Recognition",
      "year": 2011,
      "referenceCount": 22,
      "citationCount": 241,
      "authors": [
        {
          "authorId": "144782042",
          "name": "Kai Yu"
        },
        {
          "authorId": "119916460",
          "name": "Yuanqing Lin"
        },
        {
          "authorId": "1739581",
          "name": "J. Lafferty"
        }
      ]
    },
    {
      "paperId": "380218a6d5532cc6b7b0b98946b217e7fdbc7010",
      "externalIds": {
        "DOI": "10.1109/RAIT65068.2025.11088927",
        "CorpusId": 280393202
      },
      "url": "https://www.semanticscholar.org/paper/380218a6d5532cc6b7b0b98946b217e7fdbc7010",
      "title": "Sparse Coding Techniques with Deep Neural Network for EEG Auto Encoding: Enhancing Feature Representation Efficiency",
      "venue": "International Conference on Recent Advances in Information Technology",
      "year": 2025,
      "referenceCount": 26,
      "citationCount": 0,
      "authors": [
        {
          "authorId": "2374055358",
          "name": "M. Rama"
        },
        {
          "authorId": "2339472912",
          "name": "T. Nalini"
        },
        {
          "authorId": "2374058567",
          "name": "P. Khyathi"
        },
        {
          "authorId": "2374055602",
          "name": "N. Saikiran"
        },
        {
          "authorId": "2374060902",
          "name": "Ch. Silpa"
        }
      ]
    },
    {
      "paperId": "a4fc3d86b84f351e87bcdbe1376eae64750629ac",
      "externalIds": {
        "DBLP": "conf/naacl/Berend22",
        "ArXiv": "2307.13776",
        "ACL": "2022.naacl-main.176",
        "DOI": "10.18653/v1/2022.naacl-main.176",
        "CorpusId": 250390978
      },
      "url": "https://www.semanticscholar.org/paper/a4fc3d86b84f351e87bcdbe1376eae64750629ac",
      "title": "Combating the Curse of Multilinguality in Cross-Lingual WSD by Aligning Sparse Contextualized Word Representations",
      "venue": "North American Chapter of the Association for Computational Linguistics",
      "year": 2023,
      "referenceCount": 54,
      "citationCount": 11,
      "authors": [
        {
          "authorId": "2866858",
          "name": "Gábor Berend"
        }
      ]
    },
    {
      "paperId": "cea22a2830b53fe05e789a9fae944d69a07ac89d",
      "externalIds": {
        "DOI": "10.1049/cvi2.70055",
        "CorpusId": 284764048
      },
      "url": "https://www.semanticscholar.org/paper/cea22a2830b53fe05e789a9fae944d69a07ac89d",
      "title": "A Multi‐Layer Convolutional Sparse Network for Pattern Classification Based on Sequential Dictionary Learning",
      "venue": "IET Computer Vision",
      "year": 2026,
      "referenceCount": 21,
      "citationCount": 0,
      "authors": [
        {
          "authorId": "2404819868",
          "name": "Farhad Sadeghi Almalou"
        },
        {
          "authorId": "1750805",
          "name": "F. Razzazi"
        },
        {
          "authorId": "2260111674",
          "name": "Arash Amini"
        }
      ]
    },
    {
      "paperId": "743c7ddfc00f19ffa86eb58936baeb92c8838b34",
      "externalIds": {
        "DBLP": "conf/cikm/ParkBPO025",
        "DOI": "10.1145/3746252.3761326",
        "CorpusId": 282902658
      },
      "url": "https://www.semanticscholar.org/paper/743c7ddfc00f19ffa86eb58936baeb92c8838b34",
      "title": "Temporal Distance-aware Subgoal Generation for Offline Hierarchical Reinforcement Learning",
      "venue": "International Conference on Information and Knowledge Management",
      "year": 2025,
      "referenceCount": 43,
      "citationCount": 0,
      "authors": [
        {
          "authorId": "2366178576",
          "name": "Taegeon Park"
        },
        {
          "authorId": "2316385456",
          "name": "Seungho Baek"
        },
        {
          "authorId": "2326994912",
          "name": "Jongchan Park"
        },
        {
          "authorId": "2327846369",
          "name": "Seungjun Oh"
        },
        {
          "authorId": "2275715296",
          "name": "Yusung Kim"
        }
      ]
    },
    {
      "paperId": "c65ee6d8c601befd4b077a1485cddf416d038ce7",
      "externalIds": {
        "DBLP": "journals/nn/ZhangXLZ26",
        "DOI": "10.1016/j.neunet.2025.108442",
        "CorpusId": 283763162,
        "PubMed": "41418559"
      },
      "url": "https://www.semanticscholar.org/paper/c65ee6d8c601befd4b077a1485cddf416d038ce7",
      "title": "Dilated memory in hierarchical reinforcement learning for long-horizontal task",
      "venue": "Neural Networks",
      "year": 2025,
      "referenceCount": 54,
      "citationCount": 0,
      "authors": [
        {
          "authorId": "2290126810",
          "name": "Zhenyu Zhang"
        },
        {
          "authorId": "2310297798",
          "name": "Shaorong Xie"
        },
        {
          "authorId": "33807333",
          "name": "Xiangfeng Luo"
        },
        {
          "authorId": "2292880108",
          "name": "Han Zhang"
        }
      ]
    },
    {
      "paperId": "7c005ccd8558d109c73fcfd95ccc43022a62dc03",
      "externalIds": {
        "CorpusId": 14462031
      },
      "url": "https://www.semanticscholar.org/paper/7c005ccd8558d109c73fcfd95ccc43022a62dc03",
      "title": "Learning Projections for Hierarchical Sparse Coding",
      "venue": "",
      "year": 2006,
      "referenceCount": 3,
      "citationCount": 0,
      "authors": [
        {
          "authorId": "2080889184",
          "name": "Chaitu Ekanadham"
        },
        {
          "authorId": "2056459947",
          "name": "David Ho"
        },
        {
          "authorId": "2065516943",
          "name": "D. Wagner"
        }
      ]
    },
    {
      "paperId": "440231102c31325b864953aa692127a3aa95f4a8",
      "externalIds": {
        "DBLP": "journals/corr/abs-2601-08165",
        "ArXiv": "2601.08165",
        "DOI": "10.48550/arXiv.2601.08165",
        "CorpusId": 284704706
      },
      "url": "https://www.semanticscholar.org/paper/440231102c31325b864953aa692127a3aa95f4a8",
      "title": "Representation Learning with Semantic-aware Instance and Sparse Token Alignments",
      "venue": "arXiv.org",
      "year": 2026,
      "referenceCount": 48,
      "citationCount": 0,
      "authors": [
        {
          "authorId": "2191747448",
          "name": "Phuoc-Nguyen Bui"
        },
        {
          "authorId": "2237076213",
          "name": "Toan Duc Nguyen"
        },
        {
          "authorId": "20630871",
          "name": "J. Bum"
        },
        {
          "authorId": "1833162",
          "name": "D. Le"
        },
        {
          "authorId": "2238313454",
          "name": "Hyunseung Choo"
        }
      ]
    },
    {
      "paperId": "909f291e698dfe0ee409ee74619e1e8bf17158c2",
      "externalIds": {
        "DBLP": "conf/aaai/0002S24",
        "DOI": "10.1609/aaai.v38i9.28903",
        "CorpusId": 268692708
      },
      "url": "https://www.semanticscholar.org/paper/909f291e698dfe0ee409ee74619e1e8bf17158c2",
      "title": "Hierarchical Planning and Learning for Robots in Stochastic Settings Using Zero-Shot Option Invention",
      "venue": "AAAI Conference on Artificial Intelligence",
      "year": 2024,
      "referenceCount": 34,
      "citationCount": 3,
      "authors": [
        {
          "authorId": "2114061918",
          "name": "Naman Shah"
        },
        {
          "authorId": "2283933883",
          "name": "Siddharth Srivastava"
        }
      ]
    }
  ]
}