{
  "total": 484,
  "offset": 0,
  "next": 10,
  "data": [
    {
      "paperId": "ff3dc920c8af4b1b767cde7b7021f92b94b26cc6",
      "externalIds": {
        "ArXiv": "1806.02476",
        "MAG": "2950889663",
        "DBLP": "conf/icml/LuFM18",
        "CorpusId": 51693907
      },
      "url": "https://www.semanticscholar.org/paper/ff3dc920c8af4b1b767cde7b7021f92b94b26cc6",
      "title": "Accelerating Greedy Coordinate Descent Methods",
      "venue": "International Conference on Machine Learning",
      "year": 2018,
      "referenceCount": 32,
      "citationCount": 36,
      "authors": [
        {
          "authorId": "9537209",
          "name": "Haihao Lu"
        },
        {
          "authorId": "1771659",
          "name": "R. Freund"
        },
        {
          "authorId": "1728881",
          "name": "V. Mirrokni"
        }
      ]
    },
    {
      "paperId": "794d8ab46922013a99ccc826b5d1e0b0cc9a9c35",
      "externalIds": {
        "CorpusId": 49748444
      },
      "url": "https://www.semanticscholar.org/paper/794d8ab46922013a99ccc826b5d1e0b0cc9a9c35",
      "title": "Supplementary Material for the Article “ Accelerating Greedy Coordinate Descent Methods ” 1 Proofs in Section 2 Lemma",
      "venue": "",
      "year": 2018,
      "referenceCount": 6,
      "citationCount": 0,
      "authors": []
    },
    {
      "paperId": "5ece6357f13177f153200c92297f13c53f66e126",
      "externalIds": {
        "CorpusId": 237542021
      },
      "url": "https://www.semanticscholar.org/paper/5ece6357f13177f153200c92297f13c53f66e126",
      "title": "Accelerating boosting via accelerated greedy coordinate descent",
      "venue": "",
      "year": 2019,
      "referenceCount": 28,
      "citationCount": 0,
      "authors": [
        {
          "authorId": "1491549107",
          "name": "Xiaomeng Ju"
        },
        {
          "authorId": "1711940",
          "name": "Sharan Vaswani"
        },
        {
          "authorId": "2264774098",
          "name": "Universit´e de Montr´eal"
        },
        {
          "authorId": "2288133917",
          "name": "Mark Schmidt"
        }
      ]
    },
    {
      "paperId": "00871b2a71c7544d0aa74120b2a0465681f02376",
      "externalIds": {
        "DOI": "10.1007/s13160-025-00699-1",
        "CorpusId": 277943703
      },
      "url": "https://www.semanticscholar.org/paper/00871b2a71c7544d0aa74120b2a0465681f02376",
      "title": "On the greedy coordinate descent methods for solving large linear least-squares problems",
      "venue": "Japan journal of industrial and applied mathematics",
      "year": 2025,
      "referenceCount": 21,
      "citationCount": 0,
      "authors": [
        {
          "authorId": "2224193710",
          "name": "Qin Dong"
        },
        {
          "authorId": "153708838",
          "name": "Naimin Zhang"
        }
      ]
    },
    {
      "paperId": "9177fe8ad9ff7754c2fd27e805fe6ed882fe2954",
      "externalIds": {
        "DBLP": "conf/nips/0006ZCLKGS24",
        "ArXiv": "2403.01251",
        "DOI": "10.52202/079017-1701",
        "CorpusId": 268230419
      },
      "url": "https://www.semanticscholar.org/paper/9177fe8ad9ff7754c2fd27e805fe6ed882fe2954",
      "title": "Accelerating Greedy Coordinate Gradient and General Prompt Optimization via Probe Sampling",
      "venue": "Neural Information Processing Systems",
      "year": 2024,
      "referenceCount": 70,
      "citationCount": 35,
      "authors": [
        {
          "authorId": "2249827256",
          "name": "Yiran Zhao"
        },
        {
          "authorId": "2289857220",
          "name": "Wenyue Zheng"
        },
        {
          "authorId": "2289845124",
          "name": "Tianle Cai"
        },
        {
          "authorId": "2060491855",
          "name": "Do Xuan Long"
        },
        {
          "authorId": "2266466003",
          "name": "Kenji Kawaguchi"
        },
        {
          "authorId": "1996705",
          "name": "Anirudh Goyal"
        },
        {
          "authorId": "2289844602",
          "name": "Michael Shieh"
        }
      ]
    },
    {
      "paperId": "21bcf0eae7346ff1a67fba41f617820de122ae09",
      "externalIds": {
        "MAG": "2923102530",
        "DBLP": "journals/nla/BaiW19",
        "DOI": "10.1002/nla.2237",
        "CorpusId": 126679025
      },
      "url": "https://www.semanticscholar.org/paper/21bcf0eae7346ff1a67fba41f617820de122ae09",
      "title": "On greedy randomized coordinate descent methods for solving large linear least‐squares problems",
      "venue": "Numerical Linear Algebra with Applications",
      "year": 2019,
      "referenceCount": 31,
      "citationCount": 94,
      "authors": [
        {
          "authorId": "2279827",
          "name": "Z. Bai"
        },
        {
          "authorId": "48714416",
          "name": "Wen-Ting Wu"
        }
      ]
    },
    {
      "paperId": "51a10e8b99a6f1edac8fe5a03373a93108f71377",
      "externalIds": {
        "DBLP": "journals/cam/ShenY26",
        "DOI": "10.1007/s40314-025-03592-2",
        "CorpusId": 284551737
      },
      "url": "https://www.semanticscholar.org/paper/51a10e8b99a6f1edac8fe5a03373a93108f71377",
      "title": "The multi-step randomized coordinate descent methods with new probability criterion",
      "venue": "Computational and Applied Mathematics",
      "year": 2026,
      "referenceCount": 28,
      "citationCount": 0,
      "authors": [
        {
          "authorId": "2403422396",
          "name": "Hai-Long Shen"
        },
        {
          "authorId": "2403288580",
          "name": "Wenjun Yu"
        }
      ]
    },
    {
      "paperId": "cb73411f6b67c867bf2b2ecd84bd0ba7b63748ab",
      "externalIds": {
        "MAG": "3039193804",
        "DOI": "10.1016/j.apnum.2020.06.014",
        "CorpusId": 224876077
      },
      "url": "https://www.semanticscholar.org/paper/cb73411f6b67c867bf2b2ecd84bd0ba7b63748ab",
      "title": "On relaxed greedy randomized coordinate descent methods for solving large linear least-squares problems",
      "venue": "",
      "year": 2020,
      "referenceCount": 23,
      "citationCount": 41,
      "authors": [
        {
          "authorId": "2108239709",
          "name": "Jianhua Zhang"
        },
        {
          "authorId": "2157959884",
          "name": "Jing Guo"
        }
      ]
    },
    {
      "paperId": "8948a6e28074cd6ad1b99ffe7dc0f8543bcfe508",
      "externalIds": {
        "DOI": "10.3390/electronics14173432",
        "CorpusId": 281009493
      },
      "url": "https://www.semanticscholar.org/paper/8948a6e28074cd6ad1b99ffe7dc0f8543bcfe508",
      "title": "Weighted STAP Algorithm Based on the Greedy Block Coordinate Descent Method",
      "venue": "Electronics",
      "year": 2025,
      "referenceCount": 24,
      "citationCount": 0,
      "authors": [
        {
          "authorId": "49538732",
          "name": "Zhiqi Gao"
        },
        {
          "authorId": "2366566371",
          "name": "Na Yang"
        },
        {
          "authorId": "2146254003",
          "name": "Zhixia Wu"
        },
        {
          "authorId": "2155782635",
          "name": "Wei Xu"
        },
        {
          "authorId": "9038332",
          "name": "W. Tan"
        }
      ]
    },
    {
      "paperId": "f2c0350dc5fd86deceee77cd7778bfaedeb048fb",
      "externalIds": {
        "DBLP": "journals/corr/abs-2510-19999",
        "ArXiv": "2510.19999",
        "DOI": "10.48550/arXiv.2510.19999",
        "CorpusId": 282304725
      },
      "url": "https://www.semanticscholar.org/paper/f2c0350dc5fd86deceee77cd7778bfaedeb048fb",
      "title": "Enhanced Cyclic Coordinate Descent Methods for Elastic Net Penalized Linear Models",
      "venue": "arXiv.org",
      "year": 2025,
      "referenceCount": 31,
      "citationCount": 0,
      "authors": [
        {
          "authorId": "2372348326",
          "name": "Yixiao Wang"
        },
        {
          "authorId": "2375315487",
          "name": "Zishan Shao"
        },
        {
          "authorId": "2375309993",
          "name": "Ting Jiang"
        },
        {
          "authorId": "2265552438",
          "name": "Aditya Devarakonda"
        }
      ]
    }
  ]
}