{
  "total": 187,
  "offset": 0,
  "next": 10,
  "data": [
    {
      "paperId": "8623fa6f788525959b5211657659cf46101a97ab",
      "externalIds": {
        "DBLP": "conf/icml/Kallus17",
        "MAG": "2953159223",
        "ArXiv": "1608.08925",
        "CorpusId": 308551
      },
      "url": "https://www.semanticscholar.org/paper/8623fa6f788525959b5211657659cf46101a97ab",
      "title": "Recursive Partitioning for Personalization using Observational Data",
      "venue": "International Conference on Machine Learning",
      "year": 2016,
      "referenceCount": 50,
      "citationCount": 101,
      "authors": [
        {
          "authorId": "2381986667",
          "name": "Nathan Kallus"
        }
      ]
    },
    {
      "paperId": "2591d0c3c661cb28cafe33058ed202573e248177",
      "externalIds": {
        "DBLP": "conf/mie/ChenLYHXQY18",
        "MAG": "2798304952",
        "DOI": "10.3233/978-1-61499-852-5-576",
        "CorpusId": 5017011,
        "PubMed": "29678026"
      },
      "url": "https://www.semanticscholar.org/paper/2591d0c3c661cb28cafe33058ed202573e248177",
      "title": "Using Model-Based Recursive Partitioning for Treatment-Subgroup Interactions Detection in Real-World Data: A Myocardial Infarction Case Study",
      "venue": "Medical Informatics Europe",
      "year": 2018,
      "referenceCount": 0,
      "citationCount": 1,
      "authors": [
        {
          "authorId": "18125690",
          "name": "Tiange Chen"
        },
        {
          "authorId": "2144438732",
          "name": "Xiang Li"
        },
        {
          "authorId": "2121281876",
          "name": "Jingang Yang"
        },
        {
          "authorId": "47756320",
          "name": "Jingyi Hu"
        },
        {
          "authorId": "9002098",
          "name": "M. Xu"
        },
        {
          "authorId": "144104145",
          "name": "Yong Qin"
        },
        {
          "authorId": "47796030",
          "name": "Yuejin Yang"
        }
      ]
    },
    {
      "paperId": "1a472d87ddd9cd3b4b2e3ccaec61a03053586897",
      "externalIds": {
        "MAG": "2950419429",
        "ArXiv": "1504.01132",
        "DOI": "10.1073/pnas.1510489113",
        "CorpusId": 16171120,
        "PubMed": "27382149"
      },
      "url": "https://www.semanticscholar.org/paper/1a472d87ddd9cd3b4b2e3ccaec61a03053586897",
      "title": "Recursive partitioning for heterogeneous causal effects",
      "venue": "Proceedings of the National Academy of Sciences of the United States of America",
      "year": 2015,
      "referenceCount": 44,
      "citationCount": 1632,
      "authors": [
        {
          "authorId": "2631417",
          "name": "S. Athey"
        },
        {
          "authorId": "47166531",
          "name": "G. Imbens"
        }
      ]
    },
    {
      "paperId": "c203141a8921d54a9a6b7a6ec45e54ea13448e41",
      "externalIds": {
        "CorpusId": 209525387
      },
      "url": "https://www.semanticscholar.org/paper/c203141a8921d54a9a6b7a6ec45e54ea13448e41",
      "title": "Identification of confounded subgroups using linear model-based recursive partitioning",
      "venue": "",
      "year": 2019,
      "referenceCount": 55,
      "citationCount": 4,
      "authors": [
        {
          "authorId": "2072485092",
          "name": "Michael P. van Wie"
        },
        {
          "authorId": "1502860576",
          "name": "Xintong Li"
        },
        {
          "authorId": "2482943",
          "name": "W. Wiedermann"
        }
      ]
    },
    {
      "paperId": "56a4ba7e2f0b4ff4c879c1ffd307db6986af5a73",
      "externalIds": {
        "DOI": "10.51521/ijmccr.2024.e4-2-114",
        "CorpusId": 283584152
      },
      "url": "https://www.semanticscholar.org/paper/56a4ba7e2f0b4ff4c879c1ffd307db6986af5a73",
      "title": "Identifying Patient Subgroups for Personalized Treatments with Model Based Recursive Partitioning",
      "venue": "International Journal Of Medical And Clinical Case Reports",
      "year": 2024,
      "referenceCount": 0,
      "citationCount": 0,
      "authors": [
        {
          "authorId": "2224358566",
          "name": "Habeeb Abolaji Bashir"
        },
        {
          "authorId": "2381606662",
          "name": "George Paul Komolafe"
        },
        {
          "authorId": "2171128683",
          "name": "Deborah Idowu Akinwolemiwa"
        }
      ]
    },
    {
      "paperId": "47842b5cf0f31003b86e97939a64d1835e428ccf",
      "externalIds": {
        "PubMedCentral": "9232809",
        "DOI": "10.1016/j.jval.2022.04.918",
        "CorpusId": 249993666
      },
      "url": "https://www.semanticscholar.org/paper/47842b5cf0f31003b86e97939a64d1835e428ccf",
      "title": "EPH167 Recursive Partitioning Analysis of COVID-19 Risk and Behavioral Measures in an Urban Setting",
      "venue": "Value in Health",
      "year": 2022,
      "referenceCount": 0,
      "citationCount": 0,
      "authors": [
        {
          "authorId": "4442481",
          "name": "O. Mgbere"
        },
        {
          "authorId": "151208981",
          "name": "S. Iloanusi"
        },
        {
          "authorId": "40991703",
          "name": "Ismaeel Yunusa"
        },
        {
          "authorId": "2172904737",
          "name": "Njr Iloanusi"
        },
        {
          "authorId": "2340668693",
          "name": "S. Gohil"
        },
        {
          "authorId": "2172903940",
          "name": "E. Essien"
        }
      ]
    },
    {
      "paperId": "d28464bf8690cb637de592f3e6c8a3ee9b2ea5e7",
      "externalIds": {
        "MAG": "3164546583",
        "PubMedCentral": "8367147",
        "DOI": "10.2196/26412",
        "CorpusId": 236516766,
        "PubMed": "34328443"
      },
      "url": "https://www.semanticscholar.org/paper/d28464bf8690cb637de592f3e6c8a3ee9b2ea5e7",
      "title": "Recursive Partitioning vs Computerized Adaptive Testing to Reduce the Burden of Health Assessments in Cleft Lip and/or Palate: Comparative Simulation Study",
      "venue": "Journal of Medical Internet Research",
      "year": 2020,
      "referenceCount": 22,
      "citationCount": 4,
      "authors": [
        {
          "authorId": "30299532",
          "name": "C. Harrison"
        },
        {
          "authorId": "1404920372",
          "name": "C. Sidey-Gibbons"
        },
        {
          "authorId": "6002721",
          "name": "A. Klassen"
        },
        {
          "authorId": "8756065",
          "name": "K. W. Wong Riff"
        },
        {
          "authorId": "46421806",
          "name": "D. Furniss"
        },
        {
          "authorId": "144564907",
          "name": "M. Swan"
        },
        {
          "authorId": "147143805",
          "name": "J. Rodrigues"
        }
      ]
    },
    {
      "paperId": "c1d87ae29769a126eb883956f73c50daa4901589",
      "externalIds": {
        "MAG": "2808238868",
        "CorpusId": 85551144
      },
      "url": "https://www.semanticscholar.org/paper/c1d87ae29769a126eb883956f73c50daa4901589",
      "title": "WARP: Wavelets with adaptive recursive partitioning for multi-dimensional data",
      "venue": "",
      "year": 2017,
      "referenceCount": 64,
      "citationCount": 1,
      "authors": [
        {
          "authorId": "50651589",
          "name": "Meng Li"
        },
        {
          "authorId": "1708204385",
          "name": "Li Ma"
        }
      ]
    },
    {
      "paperId": "36659413d95faa8f74c312a7dfad3539d702ec38",
      "externalIds": {
        "DOI": "10.2196/preprints.26412",
        "CorpusId": 241646659
      },
      "url": "https://www.semanticscholar.org/paper/36659413d95faa8f74c312a7dfad3539d702ec38",
      "title": "Recursive partitioning vs computerized adaptive testing to reduce the burden of health assessment in cleft lip and/or palate (Preprint)",
      "venue": "",
      "year": 2020,
      "referenceCount": 0,
      "citationCount": 0,
      "authors": [
        {
          "authorId": "30299532",
          "name": "C. Harrison"
        },
        {
          "authorId": "1404920372",
          "name": "C. Sidey-Gibbons"
        },
        {
          "authorId": "6002721",
          "name": "A. Klassen"
        },
        {
          "authorId": "8756065",
          "name": "K. W. Wong Riff"
        },
        {
          "authorId": "46421806",
          "name": "D. Furniss"
        },
        {
          "authorId": "144564907",
          "name": "M. Swan"
        },
        {
          "authorId": "147143805",
          "name": "J. Rodrigues"
        }
      ]
    },
    {
      "paperId": "e90b7e1396d843ef7c99d83d751074a84acc59e1",
      "externalIds": {
        "MAG": "3179952568",
        "DBLP": "journals/cssc/KimJB23",
        "DOI": "10.1080/03610918.2021.1944643",
        "CorpusId": 237746850
      },
      "url": "https://www.semanticscholar.org/paper/e90b7e1396d843ef7c99d83d751074a84acc59e1",
      "title": "Model-based recursive partitioning algorithm to penalized non-crossing multiple quantile regression for the right-censored data",
      "venue": "Communications in statistics. Simulation and computation",
      "year": 2021,
      "referenceCount": 58,
      "citationCount": 0,
      "authors": [
        {
          "authorId": "71324797",
          "name": "Jaeoh Kim"
        },
        {
          "authorId": "11963556",
          "name": "B. Jang"
        },
        {
          "authorId": "2337350",
          "name": "Sungwan Bang"
        }
      ]
    }
  ]
}