{
  "total": 5162,
  "offset": 0,
  "next": 10,
  "data": [
    {
      "paperId": "66daed57c5e58887583feea72fcaaacb4ea14a41",
      "externalIds": {
        "MAG": "2949979499",
        "DBLP": "journals/corr/abs-1802-08718",
        "ArXiv": "1802.08718",
        "CorpusId": 3523079
      },
      "url": "https://www.semanticscholar.org/paper/66daed57c5e58887583feea72fcaaacb4ea14a41",
      "title": "Learning with Abandonment",
      "venue": "International Conference on Machine Learning",
      "year": 2018,
      "referenceCount": 14,
      "citationCount": 9,
      "authors": [
        {
          "authorId": "1790944",
          "name": "Ramesh Johari"
        },
        {
          "authorId": "2364396731",
          "name": "Sven Schmit"
        }
      ]
    },
    {
      "paperId": "be41dfed860a72ee6a0524b1953c40e5a93571f9",
      "externalIds": {
        "CorpusId": 53318237
      },
      "url": "https://www.semanticscholar.org/paper/be41dfed860a72ee6a0524b1953c40e5a93571f9",
      "title": "Learning with Abandonment Appendix",
      "venue": "",
      "year": 2018,
      "referenceCount": 1,
      "citationCount": 0,
      "authors": [
        {
          "authorId": "2364396731",
          "name": "Sven Schmit"
        },
        {
          "authorId": "1790944",
          "name": "Ramesh Johari"
        }
      ]
    },
    {
      "paperId": "96ebc1bcdfb02f36a68815e5409706703c33f1cd",
      "externalIds": {
        "DBLP": "journals/ior/ZhongBW25",
        "DOI": "10.1287/opre.2022.0197",
        "CorpusId": 274297671
      },
      "url": "https://www.semanticscholar.org/paper/96ebc1bcdfb02f36a68815e5409706703c33f1cd",
      "title": "Learning to Schedule in Multiclass Many-Server Queues with Abandonment",
      "venue": "Operational Research",
      "year": 2024,
      "referenceCount": 36,
      "citationCount": 4,
      "authors": [
        {
          "authorId": "2112888772",
          "name": "Yueyang Zhong"
        },
        {
          "authorId": "2251275589",
          "name": "J. Birge"
        },
        {
          "authorId": "2248126784",
          "name": "Amy R. Ward"
        }
      ]
    },
    {
      "paperId": "3f0df831ef8eadcd8843244b0f9603fba0126ec9",
      "externalIds": {
        "DOI": "10.1111/gcb.70383",
        "CorpusId": 280400379,
        "PubMed": "40739724"
      },
      "url": "https://www.semanticscholar.org/paper/3f0df831ef8eadcd8843244b0f9603fba0126ec9",
      "title": "Afforestation Surpasses Abandonment in the Recovery of Post‐Agricultural Soil Organic Carbon in China as Estimated by Machine Learning Models",
      "venue": "Global Change Biology",
      "year": 2025,
      "referenceCount": 69,
      "citationCount": 10,
      "authors": [
        {
          "authorId": "2284661524",
          "name": "Tao Liu"
        },
        {
          "authorId": "2149231139",
          "name": "Le Yu"
        },
        {
          "authorId": "2385375351",
          "name": "Jizhen Chen"
        },
        {
          "authorId": "2361772881",
          "name": "Wenchao Qi"
        },
        {
          "authorId": "2284642304",
          "name": "Hui Wu"
        },
        {
          "authorId": "2248895845",
          "name": "Dailiang Peng"
        },
        {
          "authorId": "2261902744",
          "name": "Xin Chen"
        },
        {
          "authorId": "2355731919",
          "name": "Yuyu Zhou"
        }
      ]
    },
    {
      "paperId": "76042d9e7336548c623fca250443eec263586a44",
      "externalIds": {
        "DOI": "10.2139/ssrn.4090021",
        "CorpusId": 248711491
      },
      "url": "https://www.semanticscholar.org/paper/76042d9e7336548c623fca250443eec263586a44",
      "title": "Learning the Scheduling Policy in Time-Varying Multiclass Many Server Queues with Abandonment",
      "venue": "Social Science Research Network",
      "year": 2022,
      "referenceCount": 0,
      "citationCount": 13,
      "authors": [
        {
          "authorId": "2112888772",
          "name": "Yueyang Zhong"
        },
        {
          "authorId": "2049232",
          "name": "J. Birge"
        },
        {
          "authorId": "2457167",
          "name": "Amy R. Ward"
        }
      ]
    },
    {
      "paperId": "69f9a14507b5847daa5a25533adba7f2b12ad098",
      "externalIds": {
        "PubMedCentral": "11331972",
        "DOI": "10.1136/bmjoq-2024-002848",
        "CorpusId": 271881061,
        "PubMed": "39147403"
      },
      "url": "https://www.semanticscholar.org/paper/69f9a14507b5847daa5a25533adba7f2b12ad098",
      "title": "Adverse events and perceived abandonment: learning from patients’ accounts of medical mishaps",
      "venue": "BMJ Open Quality",
      "year": 2024,
      "referenceCount": 46,
      "citationCount": 3,
      "authors": [
        {
          "authorId": "2310310175",
          "name": "Mark Schlesinger"
        },
        {
          "authorId": "2316199855",
          "name": "Isha Dhingra"
        },
        {
          "authorId": "2062565868",
          "name": "B. Fain"
        },
        {
          "authorId": "2306664111",
          "name": "Julia C Prentice"
        },
        {
          "authorId": "3586524",
          "name": "V. Parkash"
        }
      ]
    },
    {
      "paperId": "40055a9d284047c0daab744ba7d24adec5053dff",
      "externalIds": {
        "DOI": "10.3390/land12101926",
        "CorpusId": 264179883
      },
      "url": "https://www.semanticscholar.org/paper/40055a9d284047c0daab744ba7d24adec5053dff",
      "title": "Improved Cropland Abandonment Detection with Deep Learning Vision Transformer (DL-ViT) and Multiple Vegetation Indices",
      "venue": "Land",
      "year": 2023,
      "referenceCount": 57,
      "citationCount": 7,
      "authors": [
        {
          "authorId": "2259004105",
          "name": "Mannan Karim"
        },
        {
          "authorId": "70394317",
          "name": "Jiqiu Deng"
        },
        {
          "authorId": "2259006935",
          "name": "Muhammad Ayoub"
        },
        {
          "authorId": "2218521180",
          "name": "Wuzhou Dong"
        },
        {
          "authorId": "2155711314",
          "name": "Baoyi Zhang"
        },
        {
          "authorId": "2259011485",
          "name": "Muhammad Shahzad Yousaf"
        },
        {
          "authorId": "2222107339",
          "name": "Yasir Ali Bhutto"
        },
        {
          "authorId": "2259009152",
          "name": "Muhammad Ishfaque"
        }
      ]
    },
    {
      "paperId": "1dbcead6294693bf5c3047d456eddd190ecd9154",
      "externalIds": {
        "DOI": "10.2118/216950-ms",
        "CorpusId": 263638215
      },
      "url": "https://www.semanticscholar.org/paper/1dbcead6294693bf5c3047d456eddd190ecd9154",
      "title": "Machine Learning Assisted Cement Integrity Evaluation During Plugging and Abandonment Operations",
      "venue": "Day 4 Thu, October 05, 2023",
      "year": 2023,
      "referenceCount": 21,
      "citationCount": 4,
      "authors": [
        {
          "authorId": "2092369907",
          "name": "I. G. Camerini"
        },
        {
          "authorId": "2253487663",
          "name": "G. R. Ferreira"
        },
        {
          "authorId": "2253598602",
          "name": "L. D. de Souza"
        },
        {
          "authorId": "2253777352",
          "name": "J. S. Hidalgo"
        },
        {
          "authorId": "2253881878",
          "name": "T. Correia"
        },
        {
          "authorId": "2256469628",
          "name": "A. Rodrigues"
        },
        {
          "authorId": "2089565818",
          "name": "J. Batista"
        }
      ]
    },
    {
      "paperId": "58a88d9f5ca529da29f46c11855cd3ef01e920bc",
      "externalIds": {
        "DBLP": "conf/fedcsis/RifatAMI22",
        "DOI": "10.15439/2022F167",
        "CorpusId": 252667226
      },
      "url": "https://www.semanticscholar.org/paper/58a88d9f5ca529da29f46c11855cd3ef01e920bc",
      "title": "An End-to-end Machine Learning System for Mitigating Checkout Abandonment in E-Commerce",
      "venue": "Conference on Computer Science and Information Systems",
      "year": 2022,
      "referenceCount": 13,
      "citationCount": 5,
      "authors": [
        {
          "authorId": "151132639",
          "name": "Md. Rifatul Islam Rifat"
        },
        {
          "authorId": "153546563",
          "name": "Md Nur Amin"
        },
        {
          "authorId": "2069496017",
          "name": "Mahmud Hasan Munna"
        },
        {
          "authorId": "6040817",
          "name": "Abdullah Al Imran"
        }
      ]
    },
    {
      "paperId": "737f0a7ebc09ae03adaca3d12ff0a18c3395c8ec",
      "externalIds": {
        "DOI": "10.1016/j.atech.2022.100068",
        "CorpusId": 248791494
      },
      "url": "https://www.semanticscholar.org/paper/737f0a7ebc09ae03adaca3d12ff0a18c3395c8ec",
      "title": "Detecting olive grove abandonment with Sentinel-2 and machine learning: the development of a web-based tool for land management.",
      "venue": "Smart Agricultural Technology",
      "year": 2022,
      "referenceCount": 32,
      "citationCount": 9,
      "authors": [
        {
          "authorId": "46890259",
          "name": "I. Volpi"
        },
        {
          "authorId": "7444588",
          "name": "S. Marchi"
        },
        {
          "authorId": "1712385",
          "name": "R. Petacchi"
        },
        {
          "authorId": "2157723866",
          "name": "Klean Hoxha"
        },
        {
          "authorId": "40652987",
          "name": "D. Guidotti"
        }
      ]
    }
  ]
}