{
  "total": 3588,
  "offset": 0,
  "next": 10,
  "data": [
    {
      "paperId": "ae9e5e72aefd19b81c1fe75d7baf6c0bedad75e5",
      "externalIds": {
        "MAG": "2408201877",
        "DBLP": "conf/icml/LongZ0J17",
        "ArXiv": "1605.06636",
        "CorpusId": 12757870
      },
      "url": "https://www.semanticscholar.org/paper/ae9e5e72aefd19b81c1fe75d7baf6c0bedad75e5",
      "title": "Deep Transfer Learning with Joint Adaptation Networks",
      "venue": "International Conference on Machine Learning",
      "year": 2016,
      "referenceCount": 46,
      "citationCount": 2721,
      "authors": [
        {
          "authorId": "35776445",
          "name": "Mingsheng Long"
        },
        {
          "authorId": "1485919236",
          "name": "Hanhua Zhu"
        },
        {
          "authorId": "2144499343",
          "name": "Jianmin Wang"
        },
        {
          "authorId": "1694621",
          "name": "Michael I. Jordan"
        }
      ]
    },
    {
      "paperId": "7411a1982a376166344c02cae3af8d159b8da678",
      "externalIds": {
        "DBLP": "journals/tgrs/GengDMJ20",
        "MAG": "3002497127",
        "DOI": "10.1109/TGRS.2020.2964679",
        "CorpusId": 213417872
      },
      "url": "https://www.semanticscholar.org/paper/7411a1982a376166344c02cae3af8d159b8da678",
      "title": "Transfer Learning for SAR Image Classification Via Deep Joint Distribution Adaptation Networks",
      "venue": "IEEE Transactions on Geoscience and Remote Sensing",
      "year": 2020,
      "referenceCount": 49,
      "citationCount": 100,
      "authors": [
        {
          "authorId": "1382076201",
          "name": "Jie Geng"
        },
        {
          "authorId": "1928801",
          "name": "Xinyang Deng"
        },
        {
          "authorId": "3075416",
          "name": "Xiaorui Ma"
        },
        {
          "authorId": "2116484978",
          "name": "Wen Jiang"
        }
      ]
    },
    {
      "paperId": "7c0957376b129ec5c82fd35c5d7282e151ed1ccb",
      "externalIds": {
        "DBLP": "journals/irjocs/Bulugu25",
        "DOI": "10.1007/s42044-025-00274-4",
        "CorpusId": 278920606
      },
      "url": "https://www.semanticscholar.org/paper/7c0957376b129ec5c82fd35c5d7282e151ed1ccb",
      "title": "Plant leaf disease recognition using deep dynamic joint adaptation networks based on partially labeled data",
      "venue": "Iran Journal of Computer Science",
      "year": 2025,
      "referenceCount": 36,
      "citationCount": 1,
      "authors": [
        {
          "authorId": "10726901",
          "name": "Isack E. Bulugu"
        }
      ]
    },
    {
      "paperId": "b2d2f6c8bd6fd16b982dd533151ea3fcd2eb9455",
      "externalIds": {
        "MAG": "3015386791",
        "DOI": "10.1142/s0219530520400035",
        "CorpusId": 216487940
      },
      "url": "https://www.semanticscholar.org/paper/b2d2f6c8bd6fd16b982dd533151ea3fcd2eb9455",
      "title": "Balanced joint maximum mean discrepancy for deep transfer learning",
      "venue": "Analysis and Applications",
      "year": 2020,
      "referenceCount": 33,
      "citationCount": 9,
      "authors": [
        {
          "authorId": "102825890",
          "name": "Chuangji Meng"
        },
        {
          "authorId": "48258843",
          "name": "Cunlu Xu"
        },
        {
          "authorId": "2066206150",
          "name": "Qin Lei"
        },
        {
          "authorId": "2113766786",
          "name": "W. Su"
        },
        {
          "authorId": "2110389738",
          "name": "Jinzhao Wu"
        }
      ]
    },
    {
      "paperId": "04821b7a961a253bbc130d586f930f5da2f471a4",
      "externalIds": {
        "DOI": "10.23919/CCC63176.2024.10661382",
        "CorpusId": 272720719
      },
      "url": "https://www.semanticscholar.org/paper/04821b7a961a253bbc130d586f930f5da2f471a4",
      "title": "A Joint Adaptation Conditional Adversarial Network for Rolling Bearing Cross-domain Fault Diagnosis",
      "venue": "Cybersecurity and Cyberforensics Conference",
      "year": 2024,
      "referenceCount": 15,
      "citationCount": 1,
      "authors": [
        {
          "authorId": "2117100923",
          "name": "Z. Chen"
        },
        {
          "authorId": "1717002",
          "name": "Yajie Ma"
        },
        {
          "authorId": "2114188930",
          "name": "Bin Jiang"
        },
        {
          "authorId": "2191241035",
          "name": "Zehui Mao"
        }
      ]
    },
    {
      "paperId": "e77c2b06cc4ea69aabe9b8034dd4c0267a5a185f",
      "externalIds": {
        "DBLP": "conf/ijcai/FangWPCG22",
        "DOI": "10.24963/ijcai.2022/282",
        "CorpusId": 250637098
      },
      "url": "https://www.semanticscholar.org/paper/e77c2b06cc4ea69aabe9b8034dd4c0267a5a185f",
      "title": "When Transfer Learning Meets Cross-City Urban Flow Prediction: Spatio-Temporal Adaptation Matters",
      "venue": "International Joint Conference on Artificial Intelligence",
      "year": 2022,
      "referenceCount": 28,
      "citationCount": 45,
      "authors": [
        {
          "authorId": "1726018749",
          "name": "Ziquan Fang"
        },
        {
          "authorId": "2151076774",
          "name": "Dongen Wu"
        },
        {
          "authorId": "2114093875",
          "name": "Lu Pan"
        },
        {
          "authorId": "2115384591",
          "name": "Lu Chen"
        },
        {
          "authorId": "1409828392",
          "name": "Yunjun Gao"
        }
      ]
    },
    {
      "paperId": "1bc14a6203583d27df753cd8283c03cf8041806d",
      "externalIds": {
        "DOI": "10.1109/NMITCON62075.2024.10699145",
        "CorpusId": 273104270
      },
      "url": "https://www.semanticscholar.org/paper/1bc14a6203583d27df753cd8283c03cf8041806d",
      "title": "Transfer Learning Based Framework for Detecting Abnormal ECG Signals",
      "venue": "2024 Second International Conference on Networks, Multimedia and Information Technology (NMITCON)",
      "year": 2024,
      "referenceCount": 16,
      "citationCount": 0,
      "authors": [
        {
          "authorId": "2354483480",
          "name": "Kai Qu"
        },
        {
          "authorId": "2221502688",
          "name": "Hai Zhao"
        },
        {
          "authorId": "2112497931",
          "name": "Han Shi"
        },
        {
          "authorId": "2216526072",
          "name": "Yi Chen"
        }
      ]
    },
    {
      "paperId": "ec6cdeef3bf936a6761da16bbf6023e27780b215",
      "externalIds": {
        "DBLP": "journals/tim/YuWLSYY23",
        "DOI": "10.1109/TIM.2023.3246494",
        "CorpusId": 257543740
      },
      "url": "https://www.semanticscholar.org/paper/ec6cdeef3bf936a6761da16bbf6023e27780b215",
      "title": "An Adaptive Domain Adaptation Method for Rolling Bearings’ Fault Diagnosis Fusing Deep Convolution and Self-Attention Networks",
      "venue": "IEEE Transactions on Instrumentation and Measurement",
      "year": 2023,
      "referenceCount": 52,
      "citationCount": 110,
      "authors": [
        {
          "authorId": "2139766308",
          "name": "Xiao Yu"
        },
        {
          "authorId": "2115726275",
          "name": "Youjie Wang"
        },
        {
          "authorId": "2427085370",
          "name": "Zhongting Liang"
        },
        {
          "authorId": "9209645",
          "name": "Haidong Shao"
        },
        {
          "authorId": "2165326549",
          "name": "Kun Yu"
        },
        {
          "authorId": "2117068012",
          "name": "Wanli Yu"
        }
      ]
    },
    {
      "paperId": "0322da6f5b749f7f6ff833d6e8ee6a3506c01825",
      "externalIds": {
        "MAG": "3025171967",
        "DOI": "10.1016/j.ymssp.2020.106962",
        "CorpusId": 219506702
      },
      "url": "https://www.semanticscholar.org/paper/0322da6f5b749f7f6ff833d6e8ee6a3506c01825",
      "title": "Residual joint adaptation adversarial network for intelligent transfer fault diagnosis",
      "venue": "",
      "year": 2020,
      "referenceCount": 37,
      "citationCount": 202,
      "authors": [
        {
          "authorId": "51513081",
          "name": "Jinyang Jiao"
        },
        {
          "authorId": "145327825",
          "name": "Mingde Zhao"
        },
        {
          "authorId": "1845592115",
          "name": "Jing Lin"
        },
        {
          "authorId": "30587655",
          "name": "Kaixuan Liang"
        }
      ]
    },
    {
      "paperId": "45824905119ec09447d60e1809434062d5f4c1e4",
      "externalIds": {
        "MAG": "2769976062",
        "DBLP": "conf/iccvw/Xia0W17",
        "DOI": "10.1109/ICCVW.2017.196",
        "CorpusId": 4729126
      },
      "url": "https://www.semanticscholar.org/paper/45824905119ec09447d60e1809434062d5f4c1e4",
      "title": "Detecting Smiles of Young Children via Deep Transfer Learning",
      "venue": "2017 IEEE International Conference on Computer Vision Workshops (ICCVW)",
      "year": 2017,
      "referenceCount": 35,
      "citationCount": 13,
      "authors": [
        {
          "authorId": "2111276135",
          "name": "Yu Xia"
        },
        {
          "authorId": "40119164",
          "name": "Di Huang"
        },
        {
          "authorId": "2108702972",
          "name": "Yunhong Wang"
        }
      ]
    }
  ]
}