{
  "total": 13,
  "offset": 0,
  "next": 10,
  "data": [
    {
      "paperId": "01fdc49b0f44294308f49ca69e6d93592d143404",
      "externalIds": {
        "DBLP": "conf/icml/WangYKN18",
        "MAG": "2963173680",
        "ArXiv": "1804.10366",
        "CorpusId": 13742122
      },
      "url": "https://www.semanticscholar.org/paper/01fdc49b0f44294308f49ca69e6d93592d143404",
      "title": "Online Convolutional Sparse Coding with Sample-Dependent Dictionary",
      "venue": "International Conference on Machine Learning",
      "year": 2018,
      "referenceCount": 41,
      "citationCount": 7,
      "authors": [
        {
          "authorId": "49416601",
          "name": "Yaqing Wang"
        },
        {
          "authorId": "3259992",
          "name": "Quanming Yao"
        },
        {
          "authorId": "145193332",
          "name": "J. Kwok"
        },
        {
          "authorId": "1726587",
          "name": "L. Ni"
        }
      ]
    },
    {
      "paperId": "8383458ca43cffe603dd8d31098db1399ba48183",
      "externalIds": {
        "DOI": "10.1007/s13369-023-07716-w",
        "CorpusId": 257329978
      },
      "url": "https://www.semanticscholar.org/paper/8383458ca43cffe603dd8d31098db1399ba48183",
      "title": "A Novel Fusion Method Based on Online Convolutional Sparse Coding with Sample-Dependent Dictionary for Visible–Infrared Images",
      "venue": "The Arabian journal for science and engineering",
      "year": 2023,
      "referenceCount": 48,
      "citationCount": 6,
      "authors": [
        {
          "authorId": "49404193",
          "name": "Haoyue Li"
        },
        {
          "authorId": "96775506",
          "name": "Chengfang Zhang"
        },
        {
          "authorId": "2210559961",
          "name": "Sidi He"
        },
        {
          "authorId": "2108859713",
          "name": "Ziliang Feng"
        },
        {
          "authorId": "145055186",
          "name": "Liangzhong Yi"
        }
      ]
    },
    {
      "paperId": "d504f626a247ed5ed5bed1eaa1cd292e6ea352ab",
      "externalIds": {
        "DBLP": "journals/spic/HeZLF25",
        "DOI": "10.1016/j.image.2024.117213",
        "CorpusId": 272774722
      },
      "url": "https://www.semanticscholar.org/paper/d504f626a247ed5ed5bed1eaa1cd292e6ea352ab",
      "title": "Improved multi-focus image fusion using online convolutional sparse coding based on sample-dependent dictionary",
      "venue": "Signal processing. Image communication",
      "year": 2024,
      "referenceCount": 60,
      "citationCount": 1,
      "authors": [
        {
          "authorId": "2210559961",
          "name": "Sidi He"
        },
        {
          "authorId": "2290769214",
          "name": "Chengfang Zhang"
        },
        {
          "authorId": "49404193",
          "name": "Haoyue Li"
        },
        {
          "authorId": "2108859713",
          "name": "Ziliang Feng"
        }
      ]
    },
    {
      "paperId": "73b0cb00982165c44862d75223d0166005661256",
      "externalIds": {
        "DBLP": "conf/icig/ZhangFZY23",
        "DOI": "10.1007/978-3-031-46317-4_1",
        "CorpusId": 265069010
      },
      "url": "https://www.semanticscholar.org/paper/73b0cb00982165c44862d75223d0166005661256",
      "title": "An Efficient Medical Image Fusion via Online Convolutional Sparse Coding with Sample-Dependent Dictionary",
      "venue": "International Conference on Image and Graphics",
      "year": 2023,
      "referenceCount": 0,
      "citationCount": 0,
      "authors": [
        {
          "authorId": "96775506",
          "name": "Chengfang Zhang"
        },
        {
          "authorId": "2108859713",
          "name": "Ziliang Feng"
        },
        {
          "authorId": "2341852585",
          "name": "Chao Zhang"
        },
        {
          "authorId": "2248999695",
          "name": "Kai Yi"
        }
      ]
    },
    {
      "paperId": "df3bd85b051b97bbd5963a25cef5b2f09c5bb1de",
      "externalIds": {
        "MAG": "2720595576",
        "DBLP": "journals/corr/WangYKN17",
        "CorpusId": 195345879
      },
      "url": "https://www.semanticscholar.org/paper/df3bd85b051b97bbd5963a25cef5b2f09c5bb1de",
      "title": "Online Convolutional Sparse Coding",
      "venue": "arXiv.org",
      "year": 2017,
      "referenceCount": 32,
      "citationCount": 13,
      "authors": [
        {
          "authorId": "49416601",
          "name": "Yaqing Wang"
        },
        {
          "authorId": "3259992",
          "name": "Quanming Yao"
        },
        {
          "authorId": "145193332",
          "name": "J. Kwok"
        },
        {
          "authorId": "1726587",
          "name": "L. Ni"
        }
      ]
    },
    {
      "paperId": "2e60892656361d4e9f3fc5ded66636668920c202",
      "externalIds": {
        "DBLP": "journals/vc/NozaripourS23",
        "DOI": "10.1007/s00371-022-02441-1",
        "CorpusId": 248017132
      },
      "url": "https://www.semanticscholar.org/paper/2e60892656361d4e9f3fc5ded66636668920c202",
      "title": "Image classification via convolutional sparse coding",
      "venue": "The Visual Computer",
      "year": 2022,
      "referenceCount": 58,
      "citationCount": 6,
      "authors": [
        {
          "authorId": "2137490703",
          "name": "Ali Nozaripour"
        },
        {
          "authorId": "3008654",
          "name": "Hadi Soltanizadeh"
        }
      ]
    },
    {
      "paperId": "854ecdfd94bcb39ff3b09ad2e6f213c5ea8bf041",
      "externalIds": {
        "MAG": "2971817287",
        "DBLP": "journals/corr/abs-1909-00145",
        "ArXiv": "1909.00145",
        "DOI": "10.2312/vmv.20191317",
        "CorpusId": 202540731
      },
      "url": "https://www.semanticscholar.org/paper/854ecdfd94bcb39ff3b09ad2e6f213c5ea8bf041",
      "title": "Stochastic Convolutional Sparse Coding",
      "venue": "International Symposium on Vision, Modeling, and Visualization",
      "year": 2019,
      "referenceCount": 30,
      "citationCount": 5,
      "authors": [
        {
          "authorId": "3058286",
          "name": "J. Xiong"
        },
        {
          "authorId": "2662221",
          "name": "Peter Richtárik"
        },
        {
          "authorId": "1752192",
          "name": "W. Heidrich"
        }
      ]
    },
    {
      "paperId": "2ff7a5aec83dc63f029b3ae92670f390efd9b241",
      "externalIds": {
        "DOI": "10.1145/3689089.3689705",
        "CorpusId": 273583144
      },
      "url": "https://www.semanticscholar.org/paper/2ff7a5aec83dc63f029b3ae92670f390efd9b241",
      "title": "Slice-based Approximate Online Convolutional Dictionary Learning via Convergent Accelerated Inertial Algorithm",
      "venue": "Proceedings of the 2nd International Workshop on Methodologies for Multimedia",
      "year": 2024,
      "referenceCount": 32,
      "citationCount": 0,
      "authors": [
        {
          "authorId": "2327509014",
          "name": "Yanjuan Zhao"
        },
        {
          "authorId": "2293560822",
          "name": "Zhiyuan Deng"
        },
        {
          "authorId": "2327835372",
          "name": "Yi Yin"
        },
        {
          "authorId": "2301629499",
          "name": "Jinjia Wang"
        }
      ]
    },
    {
      "paperId": "b0dc32a65e99974c7294a5f4af14a4777c25e88c",
      "externalIds": {
        "DBLP": "journals/lgrs/XingCWW22",
        "DOI": "10.1109/LGRS.2022.3155595",
        "CorpusId": 247183089
      },
      "url": "https://www.semanticscholar.org/paper/b0dc32a65e99974c7294a5f4af14a4777c25e88c",
      "title": "Fusion of Hyperspectral and Multispectral Images by Convolutional Sparse Representation",
      "venue": "IEEE Geoscience and Remote Sensing Letters",
      "year": 2022,
      "referenceCount": 26,
      "citationCount": 12,
      "authors": [
        {
          "authorId": "52555031",
          "name": "Changda Xing"
        },
        {
          "authorId": "2156736125",
          "name": "Yuhua Cong"
        },
        {
          "authorId": "2146358105",
          "name": "Zhisheng Wang"
        },
        {
          "authorId": "2118662939",
          "name": "Meiling Wang"
        }
      ]
    },
    {
      "paperId": "ca69bd141d4d1c0223e5aa6c3c5cfec2e99d7dbf",
      "externalIds": {
        "MAG": "1496936869",
        "DBLP": "conf/icann/2005-1",
        "DOI": "10.1007/11550822",
        "CorpusId": 12475269
      },
      "url": "https://www.semanticscholar.org/paper/ca69bd141d4d1c0223e5aa6c3c5cfec2e99d7dbf",
      "title": "Artificial Neural Networks: Biological Inspirations - ICANN 2005, 15th International Conference, Warsaw, Poland, September 11-15, 2005, Proceedings, Part I",
      "venue": "International Conference on Artificial Neural Networks",
      "year": 2005,
      "referenceCount": 0,
      "citationCount": 70,
      "authors": [
        {
          "authorId": "1679601",
          "name": "Wlodzislaw Duch"
        },
        {
          "authorId": "1760085",
          "name": "J. Kacprzyk"
        },
        {
          "authorId": "1726997",
          "name": "E. Oja"
        },
        {
          "authorId": "1759803",
          "name": "S. Zadrożny"
        }
      ]
    }
  ]
}