{
  "total": 345,
  "offset": 0,
  "next": 10,
  "data": [
    {
      "paperId": "51ddc46563379cf0fcd96e7b8be62ce318771f9a",
      "externalIds": {
        "MAG": "2552233335",
        "DBLP": "conf/icml/MillerFA17",
        "ArXiv": "1611.06585",
        "CorpusId": 2827101
      },
      "url": "https://www.semanticscholar.org/paper/51ddc46563379cf0fcd96e7b8be62ce318771f9a",
      "title": "Variational Boosting: Iteratively Refining Posterior Approximations",
      "venue": "International Conference on Machine Learning",
      "year": 2016,
      "referenceCount": 39,
      "citationCount": 132,
      "authors": [
        {
          "authorId": "144360230",
          "name": "Andrew C. Miller"
        },
        {
          "authorId": "40135449",
          "name": "N. Foti"
        },
        {
          "authorId": "1722180",
          "name": "Ryan P. Adams"
        }
      ]
    },
    {
      "paperId": "5ee4e9aea2269cbb78825261bd10033c2964f45d",
      "externalIds": {
        "CorpusId": 31050045
      },
      "url": "https://www.semanticscholar.org/paper/5ee4e9aea2269cbb78825261bd10033c2964f45d",
      "title": "Supplement for Variational Boosting : Iteratively Refining Posterior Approximations",
      "venue": "",
      "year": null,
      "referenceCount": 0,
      "citationCount": 0,
      "authors": []
    },
    {
      "paperId": "e7c497c3e472cd2485bb8d2e34baa3a44793b7a9",
      "externalIds": {
        "DBLP": "journals/corr/abs-2503-13909",
        "ArXiv": "2503.13909",
        "DOI": "10.48550/arXiv.2503.13909",
        "CorpusId": 277104846
      },
      "url": "https://www.semanticscholar.org/paper/e7c497c3e472cd2485bb8d2e34baa3a44793b7a9",
      "title": "Quantification of Uncertainties in Probabilistic Deep Neural Network by Implementing Boosting of Variational Inference",
      "venue": "arXiv.org",
      "year": 2025,
      "referenceCount": 48,
      "citationCount": 2,
      "authors": [
        {
          "authorId": "2283608355",
          "name": "Pavia Bera"
        },
        {
          "authorId": "1732608",
          "name": "S. Bhanja"
        }
      ]
    },
    {
      "paperId": "3a33ec6fb1d946c2c916e9076025b73bfefc2d34",
      "externalIds": {
        "ArXiv": "2502.19839",
        "CorpusId": 276647587
      },
      "url": "https://www.semanticscholar.org/paper/3a33ec6fb1d946c2c916e9076025b73bfefc2d34",
      "title": "Fast Variational Boosting for Latent Variable Models",
      "venue": "",
      "year": 2025,
      "referenceCount": 38,
      "citationCount": 0,
      "authors": [
        {
          "authorId": "144861521",
          "name": "D. Gunawan"
        },
        {
          "authorId": "34750239",
          "name": "D. Nott"
        },
        {
          "authorId": "2286918619",
          "name": "Robert Kohn"
        }
      ]
    },
    {
      "paperId": "9d4fc9a8d545da99d5b5601b7c970fb5024c278d",
      "externalIds": {
        "ArXiv": "2305.08733",
        "DBLP": "journals/corr/abs-2305-08733",
        "DOI": "10.48550/arXiv.2305.08733",
        "CorpusId": 258685774
      },
      "url": "https://www.semanticscholar.org/paper/9d4fc9a8d545da99d5b5601b7c970fb5024c278d",
      "title": "Refining Amortized Posterior Approximations using Gradient-Based Summary Statistics",
      "venue": "arXiv.org",
      "year": 2023,
      "referenceCount": 24,
      "citationCount": 3,
      "authors": [
        {
          "authorId": "2071247268",
          "name": "Rafael Orozco"
        },
        {
          "authorId": "2827860",
          "name": "Ali Siahkoohi"
        },
        {
          "authorId": "3451726",
          "name": "M. Louboutin"
        },
        {
          "authorId": "3191410",
          "name": "F. Herrmann"
        }
      ]
    },
    {
      "paperId": "75929c4c030eba9483cba33486463471c3031282",
      "externalIds": {
        "MAG": "2998346770",
        "CorpusId": 209321721
      },
      "url": "https://www.semanticscholar.org/paper/75929c4c030eba9483cba33486463471c3031282",
      "title": "Refining the variational posterior through iterative optimization",
      "venue": "",
      "year": 2019,
      "referenceCount": 4,
      "citationCount": 4,
      "authors": [
        {
          "authorId": "51040874",
          "name": "Marton Havasi"
        },
        {
          "authorId": "144108062",
          "name": "Jasper Snoek"
        },
        {
          "authorId": "47497262",
          "name": "Dustin Tran"
        },
        {
          "authorId": "88090186",
          "name": "Jonathan Gordon"
        },
        {
          "authorId": "1388574431",
          "name": "José Miguel Hernández-Lobato"
        }
      ]
    },
    {
      "paperId": "773f2f6ef078d22e240251c12d457d195cc8d2a0",
      "externalIds": {
        "ArXiv": "2312.17646",
        "DOI": "10.1029/2023JB027789",
        "CorpusId": 266690574
      },
      "url": "https://www.semanticscholar.org/paper/773f2f6ef078d22e240251c12d457d195cc8d2a0",
      "title": "Bayesian Inversion, Uncertainty Analysis and Interrogation Using Boosting Variational Inference",
      "venue": "Journal of Geophysical Research: Solid Earth",
      "year": 2023,
      "referenceCount": 129,
      "citationCount": 21,
      "authors": [
        {
          "authorId": "2145743499",
          "name": "Xuebin Zhao"
        },
        {
          "authorId": "2247970961",
          "name": "A. Curtis"
        }
      ]
    },
    {
      "paperId": "68cbb2e515cd186d0f82d11a0e4b4ed66f3be24d",
      "externalIds": {
        "MAG": "2550354998",
        "ArXiv": "1611.05559",
        "DBLP": "journals/corr/GuoWFBD16",
        "CorpusId": 10050219
      },
      "url": "https://www.semanticscholar.org/paper/68cbb2e515cd186d0f82d11a0e4b4ed66f3be24d",
      "title": "Boosting Variational Inference",
      "venue": "arXiv.org",
      "year": 2016,
      "referenceCount": 41,
      "citationCount": 80,
      "authors": [
        {
          "authorId": "49078685",
          "name": "Fangjian Guo"
        },
        {
          "authorId": "2144797353",
          "name": "Xiangyu Wang"
        },
        {
          "authorId": "152124022",
          "name": "Kai Fan"
        },
        {
          "authorId": "1840690",
          "name": "Tamara Broderick"
        },
        {
          "authorId": "39775017",
          "name": "D. Dunson"
        }
      ]
    },
    {
      "paperId": "c2ab8670ed608791b29a0d99d521904cea6d60f0",
      "externalIds": {
        "ArXiv": "2105.09240",
        "DBLP": "journals/corr/abs-2105-09240",
        "MAG": "3189173577",
        "DOI": "10.24963/ijcai.2021/322",
        "CorpusId": 234778059
      },
      "url": "https://www.semanticscholar.org/paper/c2ab8670ed608791b29a0d99d521904cea6d60f0",
      "title": "Boosting Variational Inference With Locally Adaptive Step-Sizes",
      "venue": "International Joint Conference on Artificial Intelligence",
      "year": 2021,
      "referenceCount": 33,
      "citationCount": 2,
      "authors": [
        {
          "authorId": "25927447",
          "name": "Gideon Dresdner"
        },
        {
          "authorId": "2057331165",
          "name": "Saurav Shekhar"
        },
        {
          "authorId": "2570016",
          "name": "Fabian Pedregosa"
        },
        {
          "authorId": "9557137",
          "name": "Francesco Locatello"
        },
        {
          "authorId": "2097712597",
          "name": "G. Ratsch"
        }
      ]
    },
    {
      "paperId": "6441914ab615d0cb69a96c5ebd0be4d84ce8051c",
      "externalIds": {
        "ArXiv": "2403.08941",
        "DBLP": "journals/corr/abs-2403-08941",
        "DOI": "10.48550/arXiv.2403.08941",
        "CorpusId": 268384757
      },
      "url": "https://www.semanticscholar.org/paper/6441914ab615d0cb69a96c5ebd0be4d84ce8051c",
      "title": "Towards Model-Agnostic Posterior Approximation for Fast and Accurate Variational Autoencoders",
      "venue": "arXiv.org",
      "year": 2024,
      "referenceCount": 42,
      "citationCount": 0,
      "authors": [
        {
          "authorId": "1394333587",
          "name": "Yaniv Yacoby"
        },
        {
          "authorId": "3291783",
          "name": "Weiwei Pan"
        },
        {
          "authorId": "1388372395",
          "name": "F. Doshi-Velez"
        }
      ]
    }
  ]
}