{
  "total": 12,
  "offset": 0,
  "next": 10,
  "data": [
    {
      "paperId": "84e981572544e11f8640f66133b057000824fb81",
      "externalIds": {
        "MAG": "2467110937",
        "DBLP": "conf/icml/ShahG16",
        "CorpusId": 17919568
      },
      "url": "https://www.semanticscholar.org/paper/84e981572544e11f8640f66133b057000824fb81",
      "title": "Pareto Frontier Learning with Expensive Correlated Objectives",
      "venue": "International Conference on Machine Learning",
      "year": 2016,
      "referenceCount": 37,
      "citationCount": 84,
      "authors": [
        {
          "authorId": "2244796",
          "name": "Amar Shah"
        },
        {
          "authorId": "1744700",
          "name": "Zoubin Ghahramani"
        }
      ]
    },
    {
      "paperId": "4a5808c4e810910ae4ce3ae89ce65c560ac61280",
      "externalIds": {
        "DBLP": "journals/corr/abs-2506-21887",
        "ArXiv": "2506.21887",
        "DOI": "10.48550/arXiv.2506.21887",
        "CorpusId": 280011265
      },
      "url": "https://www.semanticscholar.org/paper/4a5808c4e810910ae4ce3ae89ce65c560ac61280",
      "title": "Interactive Multi-Objective Probabilistic Preference Learning with Soft and Hard Bounds",
      "venue": "arXiv.org",
      "year": 2025,
      "referenceCount": 83,
      "citationCount": 1,
      "authors": [
        {
          "authorId": "2334712515",
          "name": "Edward Chen"
        },
        {
          "authorId": "2350756249",
          "name": "Sang T. Truong"
        },
        {
          "authorId": "2334471670",
          "name": "Natalie Dullerud"
        },
        {
          "authorId": "143812875",
          "name": "Oluwasanmi Koyejo"
        },
        {
          "authorId": "1412355294",
          "name": "Carlos Guestrin"
        }
      ]
    },
    {
      "paperId": "7865eaa2610e5a9dae48dae6471d18947f647fd2",
      "externalIds": {
        "DOI": "10.3390/sym18020372",
        "CorpusId": 285821760
      },
      "url": "https://www.semanticscholar.org/paper/7865eaa2610e5a9dae48dae6471d18947f647fd2",
      "title": "Pareto-Aware Dual-Preference Optimization for Task-Oriented Dialogue",
      "venue": "Symmetry",
      "year": 2026,
      "referenceCount": 41,
      "citationCount": 0,
      "authors": [
        {
          "authorId": "2368458412",
          "name": "Shenghui Bao"
        },
        {
          "authorId": "51246731",
          "name": "Mideth B. Abisado"
        }
      ]
    },
    {
      "paperId": "fbf4476908330a793866ff9dd12dda4877b55e91",
      "externalIds": {
        "DOI": "10.1109/TTE.2022.3215782",
        "CorpusId": 253313629
      },
      "url": "https://www.semanticscholar.org/paper/fbf4476908330a793866ff9dd12dda4877b55e91",
      "title": "Electric Machine Design by a Novel Fast Model Predictive Optimization Strategy Treating Dimension-Expensive Problem",
      "venue": "IEEE Transactions on Transportation Electrification",
      "year": 2023,
      "referenceCount": 25,
      "citationCount": 15,
      "authors": [
        {
          "authorId": "144669882",
          "name": "Zaixin Song"
        },
        {
          "authorId": "2767916",
          "name": "Chunhua Liu"
        }
      ]
    },
    {
      "paperId": "5828a6f7d8f814b049e4e07a3adf8a7bf7a568f7",
      "externalIds": {
        "ArXiv": "2512.11114",
        "DBLP": "journals/corr/abs-2512-11114",
        "DOI": "10.48550/arXiv.2512.11114",
        "CorpusId": 283883105
      },
      "url": "https://www.semanticscholar.org/paper/5828a6f7d8f814b049e4e07a3adf8a7bf7a568f7",
      "title": "In-Context Multi-Objective Optimization",
      "venue": "arXiv.org",
      "year": 2025,
      "referenceCount": 46,
      "citationCount": 0,
      "authors": [
        {
          "authorId": "2349243006",
          "name": "Xinyu Zhang"
        },
        {
          "authorId": "2385424097",
          "name": "Conor Hassan"
        },
        {
          "authorId": "2302803897",
          "name": "Julien Martinelli"
        },
        {
          "authorId": "2182013412",
          "name": "Daolang Huang"
        },
        {
          "authorId": "2250901027",
          "name": "Samuel Kaski"
        }
      ]
    },
    {
      "paperId": "fe1906c9cb5d5f5d73b9fe99b54b01ca483c1d78",
      "externalIds": {
        "MAG": "1962704097",
        "DBLP": "journals/tse/KrallMD15",
        "DOI": "10.1109/TSE.2015.2432024",
        "CorpusId": 18985551
      },
      "url": "https://www.semanticscholar.org/paper/fe1906c9cb5d5f5d73b9fe99b54b01ca483c1d78",
      "title": "GALE: Geometric Active Learning for Search-Based Software Engineering",
      "venue": "IEEE Transactions on Software Engineering",
      "year": 2015,
      "referenceCount": 65,
      "citationCount": 43,
      "authors": [
        {
          "authorId": "37687978",
          "name": "Joseph Krall"
        },
        {
          "authorId": "1703872",
          "name": "T. Menzies"
        },
        {
          "authorId": "2868924",
          "name": "M. Davies"
        }
      ]
    },
    {
      "paperId": "8fc65853b7c20a52a3be3dbfca85ad7fd631c154",
      "externalIds": {
        "DOI": "10.12731/3033-5965-2025-15-4-409",
        "CorpusId": 286267478
      },
      "url": "https://www.semanticscholar.org/paper/8fc65853b7c20a52a3be3dbfca85ad7fd631c154",
      "title": "Research methods for multicriteria optimization of logistics based on hybrid evolutionary-predictive models",
      "venue": "Transportation and Information Technologies in Russia",
      "year": 2025,
      "referenceCount": 5,
      "citationCount": 0,
      "authors": [
        {
          "authorId": "2333621779",
          "name": "A. M. Borzenkov"
        },
        {
          "authorId": "2397989564",
          "name": "C. Pronin"
        },
        {
          "authorId": "2272133906",
          "name": "A. A. Podberezkin"
        },
        {
          "authorId": "2384260972",
          "name": "A. Ostroukh"
        },
        {
          "authorId": "2397992405",
          "name": "Artyom M. Shmonin"
        }
      ]
    },
    {
      "paperId": "da6570dc0e87861cdf3cf15d8bd356647a05dc5a",
      "externalIds": {
        "ArXiv": "2111.09266",
        "DBLP": "journals/corr/abs-2111-09266",
        "CorpusId": 244270393
      },
      "url": "https://www.semanticscholar.org/paper/da6570dc0e87861cdf3cf15d8bd356647a05dc5a",
      "title": "GFlowNet Foundations",
      "venue": "Journal of machine learning research",
      "year": 2021,
      "referenceCount": 72,
      "citationCount": 334,
      "authors": [
        {
          "authorId": "1751762",
          "name": "Yoshua Bengio"
        },
        {
          "authorId": "7636193",
          "name": "T. Deleu"
        },
        {
          "authorId": "2157840220",
          "name": "J. Hu"
        },
        {
          "authorId": "51474466",
          "name": "S. Lahlou"
        },
        {
          "authorId": "1748906738",
          "name": "Mo Tiwari"
        },
        {
          "authorId": "2416433",
          "name": "Emmanuel Bengio"
        }
      ]
    },
    {
      "paperId": "71ae4fd3fa906093897784884b69bf5d61d51ea3",
      "externalIds": {
        "CorpusId": 282693129
      },
      "url": "https://www.semanticscholar.org/paper/71ae4fd3fa906093897784884b69bf5d61d51ea3",
      "title": "M ULTI -O BJECTIVE P ROBABILISTIC P REFERENCE L EARNING WITH S OFT AND H ARD B OUNDS",
      "venue": "",
      "year": null,
      "referenceCount": 36,
      "citationCount": 0,
      "authors": [
        {
          "authorId": "2390023295",
          "name": "Sang T Edward Chen"
        },
        {
          "authorId": "118468814",
          "name": "Natalie Truong"
        },
        {
          "authorId": "2390023290",
          "name": "Sanmi Dullerud"
        },
        {
          "authorId": "2390023286",
          "name": "Koyejo Carlos"
        },
        {
          "authorId": "2390019292",
          "name": "Guestrin"
        }
      ]
    },
    {
      "paperId": "c5b1db5595e01ccf569ea7234f94ee6f3f373844",
      "externalIds": {
        "MAG": "2520791161",
        "DOI": "10.33915/etd.243",
        "CorpusId": 58283886
      },
      "url": "https://www.semanticscholar.org/paper/c5b1db5595e01ccf569ea7234f94ee6f3f373844",
      "title": "Faster Evolutionary Multi-Objective Optimization via GALE, the Geometric Active Learner",
      "venue": "",
      "year": 2014,
      "referenceCount": 217,
      "citationCount": 8,
      "authors": [
        {
          "authorId": "37687978",
          "name": "Joseph Krall"
        }
      ]
    }
  ]
}