{
  "total": 1703,
  "offset": 0,
  "next": 10,
  "data": [
    {
      "paperId": "0d38a46c74bdf86548644678c3cc0b5c07c51b58",
      "externalIds": {
        "MAG": "2804460413",
        "DBLP": "conf/icml/JiangEL18",
        "ArXiv": "1805.05935",
        "CorpusId": 21686041
      },
      "url": "https://www.semanticscholar.org/paper/0d38a46c74bdf86548644678c3cc0b5c07c51b58",
      "title": "Feedback-Based Tree Search for Reinforcement Learning",
      "venue": "International Conference on Machine Learning",
      "year": 2018,
      "referenceCount": 52,
      "citationCount": 30,
      "authors": [
        {
          "authorId": "1859529",
          "name": "Daniel R. Jiang"
        },
        {
          "authorId": "3315009",
          "name": "E. Ekwedike"
        },
        {
          "authorId": "2118959751",
          "name": "Han Liu"
        }
      ]
    },
    {
      "paperId": "90197fc28d2dd97461aa56561f674dbfbd9e8d0d",
      "externalIds": {
        "CorpusId": 53541394
      },
      "url": "https://www.semanticscholar.org/paper/90197fc28d2dd97461aa56561f674dbfbd9e8d0d",
      "title": "Supplementary Material for Feedback-Based Tree Search for Reinforcement Learning",
      "venue": "",
      "year": 2018,
      "referenceCount": 2,
      "citationCount": 0,
      "authors": [
        {
          "authorId": "1859529",
          "name": "Daniel R. Jiang"
        },
        {
          "authorId": "3315009",
          "name": "E. Ekwedike"
        },
        {
          "authorId": null,
          "name": "Han Liu"
        }
      ]
    },
    {
      "paperId": "ee1348bf049c6523e27d16cc4e38e3ea96e7d3c4",
      "externalIds": {
        "ArXiv": "2510.26287",
        "DBLP": "journals/corr/abs-2510-26287",
        "DOI": "10.48550/arXiv.2510.26287",
        "CorpusId": 282592626
      },
      "url": "https://www.semanticscholar.org/paper/ee1348bf049c6523e27d16cc4e38e3ea96e7d3c4",
      "title": "Empowering RepoQA-Agent based on Reinforcement Learning Driven by Monte-carlo Tree Search",
      "venue": "arXiv.org",
      "year": 2025,
      "referenceCount": 54,
      "citationCount": 1,
      "authors": [
        {
          "authorId": "2305608281",
          "name": "Guochang Li"
        },
        {
          "authorId": "2328998523",
          "name": "Yuchen Liu"
        },
        {
          "authorId": "2376046833",
          "name": "Zhen Qin"
        },
        {
          "authorId": "2311782838",
          "name": "Yunkun Wang"
        },
        {
          "authorId": "2401779356",
          "name": "Jianping Zhong"
        },
        {
          "authorId": "2247816929",
          "name": "Chen Zhi"
        },
        {
          "authorId": "66200440",
          "name": "Binhua Li"
        },
        {
          "authorId": "2331376953",
          "name": "Fei Huang"
        },
        {
          "authorId": "2323761746",
          "name": "Yongbin Li"
        },
        {
          "authorId": "2239865956",
          "name": "Shuiguang Deng"
        }
      ]
    },
    {
      "paperId": "425ac7a79a681d71414ea919939050c82eb61867",
      "externalIds": {
        "DBLP": "journals/apin/WangH23",
        "DOI": "10.1007/s10489-023-04881-1",
        "CorpusId": 260915758
      },
      "url": "https://www.semanticscholar.org/paper/425ac7a79a681d71414ea919939050c82eb61867",
      "title": "Routing optimization with Monte Carlo Tree Search-based multi-agent reinforcement learning",
      "venue": "Applied intelligence (Boston)",
      "year": 2023,
      "referenceCount": 46,
      "citationCount": 9,
      "authors": [
        {
          "authorId": "2151571148",
          "name": "Qi Wang"
        },
        {
          "authorId": "40161364",
          "name": "Yongsheng Hao"
        }
      ]
    },
    {
      "paperId": "f1239277af35b24e174aeb81a1225dfd1e5ff0c0",
      "externalIds": {
        "DBLP": "journals/corr/abs-2405-15383",
        "ArXiv": "2405.15383",
        "DOI": "10.48550/arXiv.2405.15383",
        "CorpusId": 270045176
      },
      "url": "https://www.semanticscholar.org/paper/f1239277af35b24e174aeb81a1225dfd1e5ff0c0",
      "title": "Generating Code World Models with Large Language Models Guided by Monte Carlo Tree Search",
      "venue": "Neural Information Processing Systems",
      "year": 2024,
      "referenceCount": 68,
      "citationCount": 30,
      "authors": [
        {
          "authorId": "2273550686",
          "name": "Nicola Dainese"
        },
        {
          "authorId": "2298964763",
          "name": "Matteo Merler"
        },
        {
          "authorId": "2112206379",
          "name": "Minttu Alakuijala"
        },
        {
          "authorId": "2265492561",
          "name": "Pekka Marttinen"
        }
      ]
    },
    {
      "paperId": "bdee24dab3cbbcea8b78611614c06d97039aa8e8",
      "externalIds": {
        "DOI": "10.1109/SSITCON66133.2025.11342220",
        "CorpusId": 284968565
      },
      "url": "https://www.semanticscholar.org/paper/bdee24dab3cbbcea8b78611614c06d97039aa8e8",
      "title": "Dynamic Strategy Adjustment using Reinforcement Learning Algorithms in Digital Psychological Intervention",
      "venue": "2025 2nd International Conference on Software, Systems and Information Technology (SSITCON)",
      "year": 2025,
      "referenceCount": 12,
      "citationCount": 0,
      "authors": [
        {
          "authorId": "2280863182",
          "name": "Tao He"
        }
      ]
    },
    {
      "paperId": "1e663e30fc4dd1658f565eaca4ba8d4f20040c8e",
      "externalIds": {
        "DOI": "10.3390/buildings12050641",
        "CorpusId": 248737344
      },
      "url": "https://www.semanticscholar.org/paper/1e663e30fc4dd1658f565eaca4ba8d4f20040c8e",
      "title": "AlphaTruss: Monte Carlo Tree Search for Optimal Truss Layout Design",
      "venue": "Buildings",
      "year": 2022,
      "referenceCount": 40,
      "citationCount": 24,
      "authors": [
        {
          "authorId": "2165015887",
          "name": "Ruifeng Luo"
        },
        {
          "authorId": "2143645551",
          "name": "Yifan Wang"
        },
        {
          "authorId": "2165041538",
          "name": "Weifang Xiao"
        },
        {
          "authorId": "2116708346",
          "name": "Xianzhong Zhao"
        }
      ]
    },
    {
      "paperId": "e738b8991924db6a2febca81dbf1c06b7eb5577d",
      "externalIds": {
        "ArXiv": "2402.09051",
        "DBLP": "journals/symmetry/ZouZHZL24",
        "DOI": "10.48550/arXiv.2402.09051",
        "CorpusId": 267657795
      },
      "url": "https://www.semanticscholar.org/paper/e738b8991924db6a2febca81dbf1c06b7eb5577d",
      "title": "FGeo-DRL: Deductive Reasoning for Geometric Problems through Deep Reinforcement Learning",
      "venue": "Symmetry",
      "year": 2024,
      "referenceCount": 30,
      "citationCount": 7,
      "authors": [
        {
          "authorId": "2263398114",
          "name": "Jia Zou"
        },
        {
          "authorId": "2262275741",
          "name": "Xiaokai Zhang"
        },
        {
          "authorId": "2262403157",
          "name": "Yiming He"
        },
        {
          "authorId": "2262218041",
          "name": "Na Zhu"
        },
        {
          "authorId": "2259980083",
          "name": "Tuo Leng"
        }
      ]
    },
    {
      "paperId": "38ff608c5f8131c03f9603ab06c4bfe550c1bee2",
      "externalIds": {
        "ArXiv": "2412.10253",
        "DBLP": "journals/corr/abs-2412-10253",
        "DOI": "10.48550/arXiv.2412.10253",
        "CorpusId": 274762769
      },
      "url": "https://www.semanticscholar.org/paper/38ff608c5f8131c03f9603ab06c4bfe550c1bee2",
      "title": "A Novel Framework Using Deep Reinforcement Learning for Join Order Selection",
      "venue": "arXiv.org",
      "year": 2024,
      "referenceCount": 0,
      "citationCount": 1,
      "authors": [
        {
          "authorId": "2335513831",
          "name": "Chang Liu"
        },
        {
          "authorId": "2278722296",
          "name": "Amin Kamali"
        },
        {
          "authorId": "2278721267",
          "name": "Verena Kantere"
        },
        {
          "authorId": "1716871",
          "name": "C. Zuzarte"
        },
        {
          "authorId": "3154244",
          "name": "Vincent Corvinelli"
        }
      ]
    },
    {
      "paperId": "290ff5c5d510863692ac19ec90a9df9690847b96",
      "externalIds": {
        "DOI": "10.1109/ICBASE53849.2021.00053",
        "CorpusId": 246532090
      },
      "url": "https://www.semanticscholar.org/paper/290ff5c5d510863692ac19ec90a9df9690847b96",
      "title": "General Pacman AI: Game Agent With Tree Search, Adversarial Search And Model-Based RL Algorithms",
      "venue": "2021 2nd International Conference on Big Data & Artificial Intelligence & Software Engineering (ICBASE)",
      "year": 2021,
      "referenceCount": 0,
      "citationCount": 0,
      "authors": [
        {
          "authorId": "2153727255",
          "name": "Yang Zou"
        }
      ]
    }
  ]
}