{
  "total": 14,
  "offset": 0,
  "next": 10,
  "data": [
    {
      "paperId": "03e04983f7ce6a9c2b42948840b3312aea33f9f3",
      "externalIds": {
        "DBLP": "conf/icml/RaghuPKGS17",
        "ArXiv": "1606.05336",
        "MAG": "2433379750",
        "CorpusId": 2838204
      },
      "url": "https://www.semanticscholar.org/paper/03e04983f7ce6a9c2b42948840b3312aea33f9f3",
      "title": "On the Expressive Power of Deep Neural Networks",
      "venue": "International Conference on Machine Learning",
      "year": 2016,
      "referenceCount": 43,
      "citationCount": 873,
      "authors": [
        {
          "authorId": "40297238",
          "name": "M. Raghu"
        },
        {
          "authorId": "16443937",
          "name": "Ben Poole"
        },
        {
          "authorId": "3371403",
          "name": "J. Kleinberg"
        },
        {
          "authorId": "25769960",
          "name": "S. Ganguli"
        },
        {
          "authorId": "1407546424",
          "name": "Jascha Narain Sohl-Dickstein"
        }
      ]
    },
    {
      "paperId": "badabb2984b51e9817d80501018c26fd340e8a9d",
      "externalIds": {
        "CorpusId": 260490596
      },
      "url": "https://www.semanticscholar.org/paper/badabb2984b51e9817d80501018c26fd340e8a9d",
      "title": "On the Expressive Power of Deep Neural Networks",
      "venue": "",
      "year": null,
      "referenceCount": 0,
      "citationCount": 43,
      "authors": []
    },
    {
      "paperId": "ca31edac44040d7833607d38d69cc40025abe359",
      "externalIds": {
        "DBLP": "journals/corr/abs-2312-12578",
        "ArXiv": "2312.12578",
        "DOI": "10.48550/arXiv.2312.12578",
        "CorpusId": 266374699
      },
      "url": "https://www.semanticscholar.org/paper/ca31edac44040d7833607d38d69cc40025abe359",
      "title": "Improving the Expressive Power of Deep Neural Networks through Integral Activation Transform",
      "venue": "arXiv.org",
      "year": 2023,
      "referenceCount": 35,
      "citationCount": 1,
      "authors": [
        {
          "authorId": "2237953001",
          "name": "Zezhong Zhang"
        },
        {
          "authorId": "2237808579",
          "name": "Feng Bao"
        },
        {
          "authorId": "2261360347",
          "name": "Guannan Zhang"
        }
      ]
    },
    {
      "paperId": "9c5c1ab2506fb356c92ecbfb121b4a893a0fed97",
      "externalIds": {
        "DOI": "10.4208/ijnam2024-1030",
        "CorpusId": 273249808
      },
      "url": "https://www.semanticscholar.org/paper/9c5c1ab2506fb356c92ecbfb121b4a893a0fed97",
      "title": "Improving the Expressive Power of Deep Neural Networks Through Integral Activation Transform",
      "venue": "International Journal of Numerical Analysis and Modeling",
      "year": 2024,
      "referenceCount": 0,
      "citationCount": 1,
      "authors": [
        {
          "authorId": "2237953001",
          "name": "Zezhong Zhang"
        },
        {
          "authorId": "2216548847",
          "name": "Feng Bao null"
        },
        {
          "authorId": "2261360347",
          "name": "Guannan Zhang"
        }
      ]
    },
    {
      "paperId": "9e87f8cfbd3db53ef4b0cb94b8c84f0b9c659c41",
      "externalIds": {
        "CorpusId": 268427022
      },
      "url": "https://www.semanticscholar.org/paper/9e87f8cfbd3db53ef4b0cb94b8c84f0b9c659c41",
      "title": "O N THE EXPRESSIVE POWER OF DEEP NEURAL NETWORKS",
      "venue": "",
      "year": 2016,
      "referenceCount": 27,
      "citationCount": 0,
      "authors": [
        {
          "authorId": "40297238",
          "name": "M. Raghu"
        }
      ]
    },
    {
      "paperId": "eb327a8b644d874b4637d4765803d3a449098559",
      "externalIds": {
        "CorpusId": 218899504
      },
      "url": "https://www.semanticscholar.org/paper/eb327a8b644d874b4637d4765803d3a449098559",
      "title": "Theoretical and computational aspects of expressive power of deep neural networks",
      "venue": "",
      "year": 2020,
      "referenceCount": 6,
      "citationCount": 0,
      "authors": [
        {
          "authorId": "2285142115",
          "name": "Summer At"
        }
      ]
    },
    {
      "paperId": "1fa3956e0d53e352434c2fd3bd8a9834df8e4624",
      "externalIds": {
        "MAG": "2925181468",
        "CorpusId": 108391132
      },
      "url": "https://www.semanticscholar.org/paper/1fa3956e0d53e352434c2fd3bd8a9834df8e4624",
      "title": "The Expressive Power of Deep Neural Networks with Circulant Matrices",
      "venue": "",
      "year": 2018,
      "referenceCount": 0,
      "citationCount": 0,
      "authors": [
        {
          "authorId": "145533439",
          "name": "Alexandre Araujo"
        },
        {
          "authorId": "2511985",
          "name": "Benjamin Négrevergne"
        },
        {
          "authorId": "1705871",
          "name": "Y. Chevaleyre"
        },
        {
          "authorId": "1773774",
          "name": "J. Atif"
        }
      ]
    },
    {
      "paperId": "d0de3a2683c3241f0073c396ff89c6669167bfe8",
      "externalIds": {
        "DOI": "10.1145/3765416.3765423",
        "CorpusId": 284264953
      },
      "url": "https://www.semanticscholar.org/paper/d0de3a2683c3241f0073c396ff89c6669167bfe8",
      "title": "The Application and Boundary Exploration of AI Technology in Visual Arts",
      "venue": "Proceedings of the 2025 International Conference on Artificial Intelligence and Product Design",
      "year": 2025,
      "referenceCount": 14,
      "citationCount": 0,
      "authors": [
        {
          "authorId": "2280504284",
          "name": "Yingyu Zhang"
        }
      ]
    },
    {
      "paperId": "3506d09c9ebb78a1666d6e1bd0fe11d5e1ae65a3",
      "externalIds": {
        "ArXiv": "2410.07250",
        "CorpusId": 273233894
      },
      "url": "https://www.semanticscholar.org/paper/3506d09c9ebb78a1666d6e1bd0fe11d5e1ae65a3",
      "title": "Lightweight Deep Learning Framework for Accurate Particle Flow Energy Reconstruction",
      "venue": "",
      "year": 2024,
      "referenceCount": 21,
      "citationCount": 0,
      "authors": [
        {
          "authorId": "2356392686",
          "name": "Han Zhang"
        },
        {
          "authorId": "2145249205",
          "name": "Sheng-Cai Lin"
        },
        {
          "authorId": "2325729765",
          "name": "Xingyi Zhang"
        },
        {
          "authorId": "2250090469",
          "name": "Yu Wang"
        },
        {
          "authorId": "2372812375",
          "name": "Yang Liu The College of Intelligence"
        },
        {
          "authorId": "103088703",
          "name": "Automation"
        },
        {
          "authorId": "1707027469",
          "name": "Hohai University"
        },
        {
          "authorId": "2325152946",
          "name": "Faculty of Electronic"
        },
        {
          "authorId": "1389938790",
          "name": "Information Engineering"
        },
        {
          "authorId": "2359144961",
          "name": "Xi'an Jiaotong-Liverpool University"
        },
        {
          "authorId": "52033839",
          "name": "School of Electrical Engineering"
        },
        {
          "authorId": "102642891",
          "name": "S. University"
        },
        {
          "authorId": "2325159226",
          "name": "School of Control"
        },
        {
          "authorId": "5545125",
          "name": "Computer Engineering"
        },
        {
          "authorId": "2277449550",
          "name": "N. University"
        },
        {
          "authorId": "2145148648",
          "name": "School of Automation"
        },
        {
          "authorId": "70633389",
          "name": "Electrical Engineering"
        },
        {
          "authorId": "2239104852",
          "name": "University of Science"
        },
        {
          "authorId": "123533802",
          "name": "Technology Beijing"
        }
      ]
    },
    {
      "paperId": "c4d7613c4bb388fd72b910b6ba7ffaab5bdcd730",
      "externalIds": {
        "ArXiv": "2510.07215",
        "CorpusId": 281891543
      },
      "url": "https://www.semanticscholar.org/paper/c4d7613c4bb388fd72b910b6ba7ffaab5bdcd730",
      "title": "AppleCiDEr II: SpectraNet -- A Deep Learning Network for Spectroscopic Data",
      "venue": "",
      "year": 2025,
      "referenceCount": 15,
      "citationCount": 0,
      "authors": [
        {
          "authorId": "2372136254",
          "name": "Maojie Xu"
        },
        {
          "authorId": "2184244832",
          "name": "A. Sasli"
        },
        {
          "authorId": "2367743382",
          "name": "Alexandra Junell"
        },
        {
          "authorId": "2371997945",
          "name": "Felipe Fontinele Nunes"
        },
        {
          "authorId": "2368512325",
          "name": "Yu-Jing Qin"
        },
        {
          "authorId": "1379566234",
          "name": "C. Fremling"
        },
        {
          "authorId": "2282534473",
          "name": "Sam Rose"
        },
        {
          "authorId": "2205550777",
          "name": "Theophile Jegou du Laz"
        },
        {
          "authorId": "2372000095",
          "name": "B. Border"
        },
        {
          "authorId": "2371998658",
          "name": "A. Calloch"
        },
        {
          "authorId": "2211084958",
          "name": "S. Chaudhary"
        },
        {
          "authorId": "2384443193",
          "name": "Hailey Markoff"
        },
        {
          "authorId": "2376329203",
          "name": "Avyukt Raghuvanshi"
        },
        {
          "authorId": "2113801542",
          "name": "N. Rehemtulla"
        },
        {
          "authorId": "144127644",
          "name": "J. Sollerman"
        },
        {
          "authorId": "151360936",
          "name": "Y. Sharma"
        },
        {
          "authorId": "101891377",
          "name": "N. Sravan"
        },
        {
          "authorId": "2376126610",
          "name": "J. Adler"
        },
        {
          "authorId": "2302525938",
          "name": "Tracy X. Chen"
        },
        {
          "authorId": "6313748",
          "name": "R. Dekany"
        },
        {
          "authorId": "2257000885",
          "name": "R. Riddle"
        },
        {
          "authorId": "2174455774",
          "name": "M. Kasliwal"
        },
        {
          "authorId": "2348477887",
          "name": "Matthew J. Graham"
        },
        {
          "authorId": "2384443516",
          "name": "Michael W. Coughlin Department of Computer ScienceEngineering"
        },
        {
          "authorId": "70668871",
          "name": "U. Minnesota"
        },
        {
          "authorId": "80773497",
          "name": "Minneapolis"
        },
        {
          "authorId": "74588416",
          "name": "Mn"
        },
        {
          "authorId": "2264608017",
          "name": "Usa"
        },
        {
          "authorId": "2384443561",
          "name": "N. A. W. C. F. D. Discovery"
        },
        {
          "authorId": "89909107",
          "name": "S. O. Physics"
        },
        {
          "authorId": "2286309677",
          "name": "Astronomy"
        },
        {
          "authorId": "88663126",
          "name": "D. Physics"
        },
        {
          "authorId": "88739085",
          "name": "Mathematics"
        },
        {
          "authorId": "102611508",
          "name": "C. I. O. Technology."
        },
        {
          "authorId": "119874209",
          "name": "Pasadena"
        },
        {
          "authorId": "51281501",
          "name": "Ca"
        },
        {
          "authorId": "152261835",
          "name": "Caltech Optical Observatories"
        },
        {
          "authorId": "1388328091",
          "name": "C. C. F. Astrophysics"
        },
        {
          "authorId": "2264621082",
          "name": "Department of Applied Physics"
        },
        {
          "authorId": "102720319",
          "name": "N. University"
        },
        {
          "authorId": "83037819",
          "name": "Evanston"
        },
        {
          "authorId": "2251813496",
          "name": "Il"
        },
        {
          "authorId": "102237571",
          "name": "Center for Interdisciplinary Exploration"
        },
        {
          "authorId": "102648075",
          "name": "Research in Astrophysics"
        },
        {
          "authorId": "2384443710",
          "name": "NSF-Simons AI Institute for the Sky"
        },
        {
          "authorId": "2223368305",
          "name": "Chicago"
        },
        {
          "authorId": "102339916",
          "name": "D. O. Astronomy"
        },
        {
          "authorId": "2303761481",
          "name": "S. University"
        },
        {
          "authorId": "78799120",
          "name": "Stockholm"
        },
        {
          "authorId": "2228273244",
          "name": "Sweden"
        },
        {
          "authorId": "2303446132",
          "name": "D. University"
        },
        {
          "authorId": "2173503347",
          "name": "Philadelphia"
        },
        {
          "authorId": "2095101591",
          "name": "Pa"
        },
        {
          "authorId": "103150610",
          "name": "Ipac"
        }
      ]
    }
  ]
}