{
  "total": 343,
  "offset": 0,
  "next": 10,
  "data": [
    {
      "paperId": "478f6d62656d6d7d503d5d12601cdc5af1daf19a",
      "externalIds": {
        "MAG": "2425860297",
        "DBLP": "conf/icml/AnavaM16",
        "CorpusId": 11225795
      },
      "url": "https://www.semanticscholar.org/paper/478f6d62656d6d7d503d5d12601cdc5af1daf19a",
      "title": "Heteroscedastic Sequences: Beyond Gaussianity",
      "venue": "International Conference on Machine Learning",
      "year": 2016,
      "referenceCount": 27,
      "citationCount": 6,
      "authors": [
        {
          "authorId": "2576215",
          "name": "Oren Anava"
        },
        {
          "authorId": "1712535",
          "name": "Shie Mannor"
        }
      ]
    },
    {
      "paperId": "fa82afb04c08b6a4c12be5981f6e46bd1ef91ac3",
      "externalIds": {
        "DBLP": "journals/corr/abs-2511-07836",
        "ArXiv": "2511.07836",
        "DOI": "10.48550/arXiv.2511.07836",
        "CorpusId": 282922265
      },
      "url": "https://www.semanticscholar.org/paper/fa82afb04c08b6a4c12be5981f6e46bd1ef91ac3",
      "title": "Hyperellipsoid Density Sampling: Exploitative Sequences to Accelerate High-Dimensional Optimization",
      "venue": "arXiv.org",
      "year": 2025,
      "referenceCount": 8,
      "citationCount": 1,
      "authors": [
        {
          "authorId": "2391808224",
          "name": "Julian Soltes"
        }
      ]
    },
    {
      "paperId": "37c535e1c01db4f864d8f5a184ca5d518c5172cc",
      "externalIds": {
        "ArXiv": "2512.22286",
        "DBLP": "journals/corr/abs-2512-22286",
        "DOI": "10.48550/arXiv.2512.22286",
        "CorpusId": 284312367
      },
      "url": "https://www.semanticscholar.org/paper/37c535e1c01db4f864d8f5a184ca5d518c5172cc",
      "title": "A General Weighting Theory for Ensemble Learning: Beyond Variance Reduction via Spectral and Geometric Structure",
      "venue": "arXiv.org",
      "year": 2025,
      "referenceCount": 24,
      "citationCount": 1,
      "authors": [
        {
          "authorId": "2401491825",
          "name": "Ernest Fokou'e"
        }
      ]
    },
    {
      "paperId": "c584794be62aeb51590e75582542fa41c110f6dd",
      "externalIds": {
        "ArXiv": "2308.15370",
        "DBLP": "journals/corr/abs-2308-15370",
        "DOI": "10.48550/arXiv.2308.15370",
        "CorpusId": 261277605
      },
      "url": "https://www.semanticscholar.org/paper/c584794be62aeb51590e75582542fa41c110f6dd",
      "title": "Multi-Response Heteroscedastic Gaussian Process Models and Their Inference",
      "venue": "arXiv.org",
      "year": 2023,
      "referenceCount": 41,
      "citationCount": 2,
      "authors": [
        {
          "authorId": "2046734734",
          "name": "Taehee Lee"
        },
        {
          "authorId": "50740237",
          "name": "Jun S. Liu"
        }
      ]
    },
    {
      "paperId": "a3b418cc29d754429180dcd430adadafedeec3f3",
      "externalIds": {
        "DBLP": "journals/corr/abs-2508-02874",
        "ArXiv": "2508.02874",
        "DOI": "10.48550/arXiv.2508.02874",
        "CorpusId": 280527366
      },
      "url": "https://www.semanticscholar.org/paper/a3b418cc29d754429180dcd430adadafedeec3f3",
      "title": "Beyond Least Squares: Robust Regression Transformer (R2T)",
      "venue": "arXiv.org",
      "year": 2025,
      "referenceCount": 11,
      "citationCount": 0,
      "authors": [
        {
          "authorId": "2065943656",
          "name": "R. Gutiérrez"
        },
        {
          "authorId": "2375278081",
          "name": "Tony Kai Tang"
        },
        {
          "authorId": "2374964880",
          "name": "Isabel Gutierrez"
        }
      ]
    },
    {
      "paperId": "376393d3f826e26ab8feb7da89ba8a4e9c2ddf6b",
      "externalIds": {
        "ArXiv": "2601.02127",
        "DOI": "10.1063/5.0315484",
        "CorpusId": 284487696,
        "PubMed": "41810780"
      },
      "url": "https://www.semanticscholar.org/paper/376393d3f826e26ab8feb7da89ba8a4e9c2ddf6b",
      "title": "Beyond the Kuhn segment: Conformational substructures and relaxation dynamics in flexible chains.",
      "venue": "Journal of Chemical Physics",
      "year": 2026,
      "referenceCount": 69,
      "citationCount": 0,
      "authors": [
        {
          "authorId": "2251970496",
          "name": "José A. Martins"
        }
      ]
    },
    {
      "paperId": "04dc5729cee7d9abba6f1efef100f74ea975215e",
      "externalIds": {
        "ArXiv": "2603.00955",
        "CorpusId": 286222859
      },
      "url": "https://www.semanticscholar.org/paper/04dc5729cee7d9abba6f1efef100f74ea975215e",
      "title": "Beyond False Discovery Rate: A Stepdown Group SLOPE Approach for Grouped Variable Selection",
      "venue": "",
      "year": 2026,
      "referenceCount": 63,
      "citationCount": 0,
      "authors": [
        {
          "authorId": "2303801951",
          "name": "Xuelin Zhang"
        },
        {
          "authorId": "2325750603",
          "name": "Jingxuan Liang"
        },
        {
          "authorId": "2368960468",
          "name": "Xinyue Liu"
        },
        {
          "authorId": "2320734382",
          "name": "Hong Chen"
        },
        {
          "authorId": "2815304",
          "name": "Biqin Song"
        }
      ]
    },
    {
      "paperId": "b1e90b67675b6d7ae88b563a93cb4d375857cb15",
      "externalIds": {
        "DBLP": "conf/iclr/WenTDD0XT24",
        "DOI": "10.1101/2023.10.03.560734",
        "CorpusId": 263803068
      },
      "url": "https://www.semanticscholar.org/paper/b1e90b67675b6d7ae88b563a93cb4d375857cb15",
      "title": "CellPLM: Pre-training of Cell Language Model Beyond Single Cells",
      "venue": "bioRxiv",
      "year": 2023,
      "referenceCount": 75,
      "citationCount": 74,
      "authors": [
        {
          "authorId": "2256788829",
          "name": "Hongzhi Wen"
        },
        {
          "authorId": "2188792890",
          "name": "Wenzhuo Tang"
        },
        {
          "authorId": "2257010522",
          "name": "Xinnan Dai"
        },
        {
          "authorId": "46496977",
          "name": "Jiayuan Ding"
        },
        {
          "authorId": "144767914",
          "name": "Wei Jin"
        },
        {
          "authorId": "2154871510",
          "name": "Yuying Xie"
        },
        {
          "authorId": "2256937217",
          "name": "Jiliang Tang"
        }
      ]
    },
    {
      "paperId": "102a7560313e7ded30fc3bae04a14897b0dd047d",
      "externalIds": {
        "DOI": "10.1109/ISITIA66279.2025.11137440",
        "CorpusId": 281149734
      },
      "url": "https://www.semanticscholar.org/paper/102a7560313e7ded30fc3bae04a14897b0dd047d",
      "title": "Deep Learning-Based Channel Estimation for 5G-Advanced and Beyond",
      "venue": "International Seminar on Intelligent Technology and Its Applications",
      "year": 2025,
      "referenceCount": 12,
      "citationCount": 0,
      "authors": [
        {
          "authorId": "2379227828",
          "name": "Annisa Puji Lestari"
        },
        {
          "authorId": "2147079831",
          "name": "Khoirul Anwar"
        },
        {
          "authorId": "2264483485",
          "name": "Gelar Budiman"
        }
      ]
    },
    {
      "paperId": "513f3e2052362f47b2de3e05af12ba41672921ea",
      "externalIds": {
        "MAG": "2766515099",
        "DOI": "10.1111/rssb.12255",
        "CorpusId": 126205275
      },
      "url": "https://www.semanticscholar.org/paper/513f3e2052362f47b2de3e05af12ba41672921ea",
      "title": "From multiple Gaussian sequences to functional data and beyond: a Stein estimation approach",
      "venue": "",
      "year": 2018,
      "referenceCount": 45,
      "citationCount": 8,
      "authors": [
        {
          "authorId": "103893684",
          "name": "Mark Koudstaal"
        },
        {
          "authorId": "47243480",
          "name": "Fang Yao"
        }
      ]
    }
  ]
}