{
  "total": 4082,
  "offset": 0,
  "next": 10,
  "data": [
    {
      "paperId": "69b647afe6526256a93033eac14ce470204e7bae",
      "externalIds": {
        "MAG": "2414504425",
        "DBLP": "conf/icml/SongSZU16",
        "ArXiv": "1511.06411",
        "CorpusId": 6103568
      },
      "url": "https://www.semanticscholar.org/paper/69b647afe6526256a93033eac14ce470204e7bae",
      "title": "Training Deep Neural Networks via Direct Loss Minimization",
      "venue": "International Conference on Machine Learning",
      "year": 2015,
      "referenceCount": 23,
      "citationCount": 102,
      "authors": [
        {
          "authorId": "115504645",
          "name": "Yang Song"
        },
        {
          "authorId": "2068227",
          "name": "A. Schwing"
        },
        {
          "authorId": "1804104",
          "name": "R. Zemel"
        },
        {
          "authorId": "2422559",
          "name": "R. Urtasun"
        }
      ]
    },
    {
      "paperId": "b32dae451979e73307b906b6bd8014b895633dd7",
      "externalIds": {
        "CorpusId": 265101359
      },
      "url": "https://www.semanticscholar.org/paper/b32dae451979e73307b906b6bd8014b895633dd7",
      "title": "Training Deep Neural Networks via Direct Loss Minimization: Supplementary Materials 1 Proof of the General Loss Gradient Theorem",
      "venue": "",
      "year": null,
      "referenceCount": 2,
      "citationCount": 0,
      "authors": []
    },
    {
      "paperId": "02df2078b0dbcda01652598dd5244a51b530dbd2",
      "externalIds": {
        "DBLP": "journals/corr/abs-2506-07008",
        "ArXiv": "2506.07008",
        "DOI": "10.48550/arXiv.2506.07008",
        "CorpusId": 279250546
      },
      "url": "https://www.semanticscholar.org/paper/02df2078b0dbcda01652598dd5244a51b530dbd2",
      "title": "Deep regularization networks for inverse problems with noisy operators",
      "venue": "arXiv.org",
      "year": 2025,
      "referenceCount": 62,
      "citationCount": 1,
      "authors": [
        {
          "authorId": "12262649",
          "name": "Fatemeh Pourahmadian"
        },
        {
          "authorId": "2330829164",
          "name": "Yang Xu"
        }
      ]
    },
    {
      "paperId": "5e76d304bc62f07b06c6cb4c5f315e5f6f6014ea",
      "externalIds": {
        "DBLP": "journals/corr/abs-2208-14318",
        "ArXiv": "2208.14318",
        "DOI": "10.1007/s11590-023-02026-4",
        "CorpusId": 251929310
      },
      "url": "https://www.semanticscholar.org/paper/5e76d304bc62f07b06c6cb4c5f315e5f6f6014ea",
      "title": "Convergence rates of training deep neural networks via alternating minimization methods",
      "venue": "Optimization Letters",
      "year": 2022,
      "referenceCount": 49,
      "citationCount": 5,
      "authors": [
        {
          "authorId": "2143806594",
          "name": "Jintao Xu"
        },
        {
          "authorId": "2060106235",
          "name": "Chenglong Bao"
        },
        {
          "authorId": "40587737",
          "name": "W. Xing"
        }
      ]
    },
    {
      "paperId": "acdc333f7b32d987e65ce15f21db64e850ca9471",
      "externalIds": {
        "MAG": "2177665015",
        "DBLP": "journals/corr/SongSZU15",
        "CorpusId": 14698744
      },
      "url": "https://www.semanticscholar.org/paper/acdc333f7b32d987e65ce15f21db64e850ca9471",
      "title": "Direct Loss Minimization for Training Deep Neural Nets",
      "venue": "arXiv.org",
      "year": 2015,
      "referenceCount": 18,
      "citationCount": 8,
      "authors": [
        {
          "authorId": "115504645",
          "name": "Yang Song"
        },
        {
          "authorId": "2068227",
          "name": "A. Schwing"
        },
        {
          "authorId": "1804104",
          "name": "R. Zemel"
        },
        {
          "authorId": "2422559",
          "name": "R. Urtasun"
        }
      ]
    },
    {
      "paperId": "5091d308e7a42d569ca0e279f27005c022302188",
      "externalIds": {
        "DOI": "10.1080/21642583.2025.2488120",
        "CorpusId": 277599008
      },
      "url": "https://www.semanticscholar.org/paper/5091d308e7a42d569ca0e279f27005c022302188",
      "title": "A survey on learning from data with label noise via deep neural networks",
      "venue": "Systems Science &amp; Control Engineering",
      "year": 2025,
      "referenceCount": 144,
      "citationCount": 20,
      "authors": [
        {
          "authorId": "46851646",
          "name": "Baoye Song"
        },
        {
          "authorId": "2354060584",
          "name": "Shihao Zhao"
        },
        {
          "authorId": "2316885680",
          "name": "Luyao Dang"
        },
        {
          "authorId": "2354065823",
          "name": "Haoguang Wang"
        },
        {
          "authorId": "2152895859",
          "name": "Lin Xu"
        }
      ]
    },
    {
      "paperId": "efeaa77602c13e521e8359d2dad21228cac435f6",
      "externalIds": {
        "ArXiv": "2303.00565",
        "DBLP": "journals/nn/SunSZDCSLST24",
        "DOI": "10.48550/arXiv.2303.00565",
        "CorpusId": 257255005,
        "PubMed": "37944247"
      },
      "url": "https://www.semanticscholar.org/paper/efeaa77602c13e521e8359d2dad21228cac435f6",
      "title": "AdaSAM: Boosting Sharpness-Aware Minimization with Adaptive Learning Rate and Momentum for Training Deep Neural Networks",
      "venue": "Neural Networks",
      "year": 2023,
      "referenceCount": 76,
      "citationCount": 48,
      "authors": [
        {
          "authorId": "2118181077",
          "name": "Hao Sun"
        },
        {
          "authorId": "2144035454",
          "name": "Li Shen"
        },
        {
          "authorId": "2114810150",
          "name": "Qihuang Zhong"
        },
        {
          "authorId": "46573238",
          "name": "Liang Ding"
        },
        {
          "authorId": "145891473",
          "name": "Shixiang Chen"
        },
        {
          "authorId": "46969142",
          "name": "Jingwei Sun"
        },
        {
          "authorId": "2152912323",
          "name": "Jing Li"
        },
        {
          "authorId": "2091052605",
          "name": "Guangzhong Sun"
        },
        {
          "authorId": "2135519749",
          "name": "Dacheng Tao"
        }
      ]
    },
    {
      "paperId": "4400c4144641a3fb2a67442a5f5ff885d7e8454f",
      "externalIds": {
        "ArXiv": "2409.13280",
        "DBLP": "journals/wsarai/KarumuriGG25",
        "DOI": "10.48550/arXiv.2409.13280",
        "CorpusId": 272770711
      },
      "url": "https://www.semanticscholar.org/paper/4400c4144641a3fb2a67442a5f5ff885d7e8454f",
      "title": "Efficient Training of Deep Neural Operator Networks via Randomized Sampling",
      "venue": "World Sci. Annu. Rev. Artif. Intell.",
      "year": 2024,
      "referenceCount": 25,
      "citationCount": 9,
      "authors": [
        {
          "authorId": "102582442",
          "name": "Sharmila Karumuri"
        },
        {
          "authorId": "2322097919",
          "name": "Lori Graham-Brady"
        },
        {
          "authorId": "2317242386",
          "name": "Somdatta Goswami"
        }
      ]
    },
    {
      "paperId": "bc696c8b7b507b9e2c72d48b1ba1abaa62bd705d",
      "externalIds": {
        "MAG": "2965154261",
        "ArXiv": "1905.11713",
        "DBLP": "conf/ijcai/LiYZZ19",
        "DOI": "10.24963/ijcai.2019/403",
        "CorpusId": 167217432
      },
      "url": "https://www.semanticscholar.org/paper/bc696c8b7b507b9e2c72d48b1ba1abaa62bd705d",
      "title": "Improving the Robustness of Deep Neural Networks via Adversarial Training with Triplet Loss",
      "venue": "International Joint Conference on Artificial Intelligence",
      "year": 2019,
      "referenceCount": 32,
      "citationCount": 38,
      "authors": [
        {
          "authorId": "2144884134",
          "name": "Pengcheng Li"
        },
        {
          "authorId": "2882166",
          "name": "Jinfeng Yi"
        },
        {
          "authorId": "145218984",
          "name": "Bowen Zhou"
        },
        {
          "authorId": "2108876951",
          "name": "Lijun Zhang"
        }
      ]
    },
    {
      "paperId": "978327ba825dbb62bdea1a5d3e6814e61c634a41",
      "externalIds": {
        "DBLP": "journals/sncs/BartlettBUMPSSTR23",
        "PubMedCentral": "9836982",
        "DOI": "10.1007/s42979-022-01553-8",
        "CorpusId": 255800263,
        "PubMed": "36647373"
      },
      "url": "https://www.semanticscholar.org/paper/978327ba825dbb62bdea1a5d3e6814e61c634a41",
      "title": "Invasive or More Direct Measurements Can Provide an Objective Early-Stopping Ceiling for Training Deep Neural Networks on Non-invasive or Less-Direct Biomedical Data",
      "venue": "SN Computer Science",
      "year": 2023,
      "referenceCount": 34,
      "citationCount": 13,
      "authors": [
        {
          "authorId": "2149748642",
          "name": "Christopher W. Bartlett"
        },
        {
          "authorId": "2121341303",
          "name": "Jamie Bossenbroek"
        },
        {
          "authorId": "49322750",
          "name": "Y. Ueyama"
        },
        {
          "authorId": "12381947",
          "name": "Patricia E. Mccallinhart"
        },
        {
          "authorId": "2200698649",
          "name": "Olivia A. Peters"
        },
        {
          "authorId": "3135116",
          "name": "D. Santillan"
        },
        {
          "authorId": "6192681",
          "name": "M. Santillan"
        },
        {
          "authorId": "3622500",
          "name": "A. Trask"
        },
        {
          "authorId": "1910325",
          "name": "William C. Ray"
        }
      ]
    }
  ]
}