{
  "total": 232966,
  "offset": 0,
  "next": 10,
  "data": [
    {
      "paperId": "da398dd57a31a663eb572ec85db7cdfe2f70dc99",
      "externalIds": {
        "ArXiv": "1602.03032",
        "DBLP": "conf/icml/DanihelkaWUKG16",
        "MAG": "2265796482",
        "CorpusId": 8239112
      },
      "url": "https://www.semanticscholar.org/paper/da398dd57a31a663eb572ec85db7cdfe2f70dc99",
      "title": "Associative Long Short-Term Memory",
      "venue": "International Conference on Machine Learning",
      "year": 2016,
      "referenceCount": 20,
      "citationCount": 195,
      "authors": [
        {
          "authorId": "1841008",
          "name": "Ivo Danihelka"
        },
        {
          "authorId": "89504302",
          "name": "Greg Wayne"
        },
        {
          "authorId": "2825051",
          "name": "Benigno Uria"
        },
        {
          "authorId": "2583391",
          "name": "Nal Kalchbrenner"
        },
        {
          "authorId": "1753223",
          "name": "Alex Graves"
        }
      ]
    },
    {
      "paperId": "a7628f4eaaae73d5f5251c408615b01369acf8f2",
      "externalIds": {
        "MAG": "3157175643",
        "DOI": "10.1016/J.PROCIR.2021.03.088",
        "CorpusId": 227068901
      },
      "url": "https://www.semanticscholar.org/paper/a7628f4eaaae73d5f5251c408615b01369acf8f2",
      "title": "A survey on long short-term memory networks for time series prediction",
      "venue": "Procedia CIRP",
      "year": 2021,
      "referenceCount": 36,
      "citationCount": 609,
      "authors": [
        {
          "authorId": "81698431",
          "name": "Benjamin Lindemann"
        },
        {
          "authorId": "2046055026",
          "name": "Timo Müller"
        },
        {
          "authorId": "1992920363",
          "name": "Hannes Vietz"
        },
        {
          "authorId": "2509708",
          "name": "Nasser Jazdi"
        },
        {
          "authorId": "2273478",
          "name": "M. Weyrich"
        }
      ]
    },
    {
      "paperId": "7e1ade1adc0f85e0d839d0b8c862fe04e75cd40e",
      "externalIds": {
        "PubMedCentral": "5809536",
        "MAG": "2756482636",
        "DOI": "10.3758/s13421-017-0759-3",
        "CorpusId": 3448451,
        "PubMed": "28971367"
      },
      "url": "https://www.semanticscholar.org/paper/7e1ade1adc0f85e0d839d0b8c862fe04e75cd40e",
      "title": "Long-term associative learning predicts verbal short-term memory performance",
      "venue": "Memory & Cognition",
      "year": 2017,
      "referenceCount": 62,
      "citationCount": 35,
      "authors": [
        {
          "authorId": "2110603316",
          "name": "Gary Jones"
        },
        {
          "authorId": "3910815",
          "name": "Bill Macken"
        }
      ]
    },
    {
      "paperId": "32c7c3623b5294f0d10a3d265429af5c75e4b911",
      "externalIds": {
        "PubMedCentral": "11525173",
        "DOI": "10.1038/s41586-024-07819-w",
        "CorpusId": 271330996,
        "PubMed": "39038490"
      },
      "url": "https://www.semanticscholar.org/paper/32c7c3623b5294f0d10a3d265429af5c75e4b911",
      "title": "Dopamine-mediated interactions between short- and long-term memory dynamics",
      "venue": "Nature",
      "year": 2024,
      "referenceCount": 70,
      "citationCount": 16,
      "authors": [
        {
          "authorId": "47396531",
          "name": "Cheng Huang"
        },
        {
          "authorId": "2217823739",
          "name": "Junjie Luo"
        },
        {
          "authorId": "2312361512",
          "name": "Seung Je Woo"
        },
        {
          "authorId": "2312363523",
          "name": "Lucas A Roitman"
        },
        {
          "authorId": "1682111212",
          "name": "Jizhou Li"
        },
        {
          "authorId": "1907534",
          "name": "V. Pieribone"
        },
        {
          "authorId": "46633478",
          "name": "Madhuvanthi Kannan"
        },
        {
          "authorId": "7357270",
          "name": "G. Vasan"
        },
        {
          "authorId": "3292329",
          "name": "M. Schnitzer"
        }
      ]
    },
    {
      "paperId": "4f4576e565055765972950896cde71561eb6aec6",
      "externalIds": {
        "MAG": "2419015445",
        "DOI": "10.1016/J.JML.2016.05.007",
        "CorpusId": 53126309
      },
      "url": "https://www.semanticscholar.org/paper/4f4576e565055765972950896cde71561eb6aec6",
      "title": "The role of schematic support in age-related associative deficits in short-term and long-term memory",
      "venue": "",
      "year": 2017,
      "referenceCount": 60,
      "citationCount": 20,
      "authors": [
        {
          "authorId": "4902224",
          "name": "Dwight J. Peterson"
        },
        {
          "authorId": "47337941",
          "name": "Nicholas E. Schmidt"
        },
        {
          "authorId": "1398769372",
          "name": "M. Naveh-Benjamin"
        }
      ]
    },
    {
      "paperId": "5174bf594748a95a5229af68b9f6d2fa3e47217a",
      "externalIds": {
        "MAG": "1833910424",
        "DOI": "10.1016/j.cognition.2015.07.009",
        "CorpusId": 14097602,
        "PubMed": "26209910"
      },
      "url": "https://www.semanticscholar.org/paper/5174bf594748a95a5229af68b9f6d2fa3e47217a",
      "title": "Questioning short-term memory and its measurement: Why digit span measures long-term associative learning.",
      "venue": "Cognition",
      "year": 2015,
      "referenceCount": 112,
      "citationCount": 190,
      "authors": [
        {
          "authorId": "2110603316",
          "name": "Gary Jones"
        },
        {
          "authorId": "3910815",
          "name": "Bill Macken"
        }
      ]
    },
    {
      "paperId": "e709941c09b83e192a8ce4fe308be97dfd417431",
      "externalIds": {
        "MAG": "2787079996",
        "DOI": "10.1523/JNEUROSCI.1802-17.2017",
        "CorpusId": 4378192,
        "PubMed": "29449430"
      },
      "url": "https://www.semanticscholar.org/paper/e709941c09b83e192a8ce4fe308be97dfd417431",
      "title": "A Critical Role for the Nucleus Reuniens in Long-Term, But Not Short-Term Associative Recognition Memory Formation",
      "venue": "Journal of Neuroscience",
      "year": 2018,
      "referenceCount": 70,
      "citationCount": 57,
      "authors": [
        {
          "authorId": "5206741",
          "name": "G. Barker"
        },
        {
          "authorId": "33627081",
          "name": "E. Warburton"
        }
      ]
    },
    {
      "paperId": "fe15cde2d67f85afb145becba3b750ad8aa3b695",
      "externalIds": {
        "DOI": "10.1037/pag0000701",
        "CorpusId": 250732488,
        "PubMed": "35862130"
      },
      "url": "https://www.semanticscholar.org/paper/fe15cde2d67f85afb145becba3b750ad8aa3b695",
      "title": "Adult age differences in specific and gist associative episodic memory across short- and long-term retention intervals.",
      "venue": "Psychology and Aging",
      "year": 2022,
      "referenceCount": 0,
      "citationCount": 18,
      "authors": [
        {
          "authorId": "34093654",
          "name": "Nathaniel R. Greene"
        },
        {
          "authorId": "1398769372",
          "name": "M. Naveh-Benjamin"
        }
      ]
    },
    {
      "paperId": "3a2ed50fbe1fd577f5b6e1e572f20baa90dd7158",
      "externalIds": {
        "MAG": "2069299507",
        "DOI": "10.1037//0278-7393.26.3.796",
        "CorpusId": 27662296,
        "PubMed": "10855432"
      },
      "url": "https://www.semanticscholar.org/paper/3a2ed50fbe1fd577f5b6e1e572f20baa90dd7158",
      "title": "The effects of word co-occurrence on short-term memory: associative links in long-term memory affect short-term memory performance.",
      "venue": "Journal of Experimental Psychology. Learning, Memory and Cognition",
      "year": 2000,
      "referenceCount": 21,
      "citationCount": 111,
      "authors": [
        {
          "authorId": "145085703",
          "name": "George P. Stuart"
        },
        {
          "authorId": "145601716",
          "name": "C. Hulme"
        }
      ]
    },
    {
      "paperId": "778b241815d2d05c4c02a074ac8dd7e745d992e9",
      "externalIds": {
        "MAG": "2890666325",
        "DOI": "10.1016/j.nlm.2018.09.009",
        "CorpusId": 52339233,
        "PubMed": "30243851"
      },
      "url": "https://www.semanticscholar.org/paper/778b241815d2d05c4c02a074ac8dd7e745d992e9",
      "title": "Manipulation of hippocampal CA3 firing via luminopsins modulates spatial and episodic short‐term memory, especially working memory, but not long‐term memory",
      "venue": "Neurobiology of Learning and Memory",
      "year": 2018,
      "referenceCount": 44,
      "citationCount": 15,
      "authors": [
        {
          "authorId": "48437320",
          "name": "Da Song"
        },
        {
          "authorId": "3539975",
          "name": "Qinghu Yang"
        },
        {
          "authorId": "152564619",
          "name": "Yiran Lang"
        },
        {
          "authorId": "51317270",
          "name": "Zhaosen Wen"
        },
        {
          "authorId": "2114113343",
          "name": "Zhen Xie"
        },
        {
          "authorId": "2055037076",
          "name": "Da Zheng"
        },
        {
          "authorId": "2059616370",
          "name": "Tianyi Yan"
        },
        {
          "authorId": "2142393320",
          "name": "Yujun Deng"
        },
        {
          "authorId": "50391111",
          "name": "H. Nakanishi"
        },
        {
          "authorId": "49216802",
          "name": "Zhenzhen Quan"
        },
        {
          "authorId": "2339765",
          "name": "H. Qing"
        }
      ]
    }
  ]
}