{
  "total": 345,
  "offset": 0,
  "next": 10,
  "data": [
    {
      "paperId": "40df15ce1de6eb0366179f4726aa55a3e50141fc",
      "externalIds": {
        "DBLP": "conf/icml/XuLZP18",
        "CorpusId": 51870507
      },
      "url": "https://www.semanticscholar.org/paper/40df15ce1de6eb0366179f4726aa55a3e50141fc",
      "title": "Learning to Explore via Meta-Policy Gradient",
      "venue": "International Conference on Machine Learning",
      "year": 2018,
      "referenceCount": 38,
      "citationCount": 51,
      "authors": [
        {
          "authorId": "35533477",
          "name": "Tianbing Xu"
        },
        {
          "authorId": "47362268",
          "name": "Qiang Liu"
        },
        {
          "authorId": "2116734918",
          "name": "Liang Zhao"
        },
        {
          "authorId": "143718676",
          "name": "Jian Peng"
        }
      ]
    },
    {
      "paperId": "5a5646bdc1b8830502c2b6edb7adc683ca9cf705",
      "externalIds": {
        "DBLP": "journals/corr/abs-2512-16848",
        "ArXiv": "2512.16848",
        "DOI": "10.48550/arXiv.2512.16848",
        "CorpusId": 283933584
      },
      "url": "https://www.semanticscholar.org/paper/5a5646bdc1b8830502c2b6edb7adc683ca9cf705",
      "title": "Meta-RL Induces Exploration in Language Agents",
      "venue": "arXiv.org",
      "year": 2025,
      "referenceCount": 57,
      "citationCount": 6,
      "authors": [
        {
          "authorId": "2305679576",
          "name": "Yulun Jiang"
        },
        {
          "authorId": "2276992714",
          "name": "Liangze Jiang"
        },
        {
          "authorId": "2253463627",
          "name": "Damien Teney"
        },
        {
          "authorId": "2371073132",
          "name": "Michael Moor"
        },
        {
          "authorId": "2117751468",
          "name": "Maria Brbić"
        }
      ]
    },
    {
      "paperId": "5bf2008cafadcaf043926625a04df1959409aff4",
      "externalIds": {
        "DBLP": "journals/wcl/FarhadiMTMRH24",
        "DOI": "10.1109/LWC.2024.3375796",
        "CorpusId": 268779524
      },
      "url": "https://www.semanticscholar.org/paper/5bf2008cafadcaf043926625a04df1959409aff4",
      "title": "A Meta-DDPG Algorithm for Energy and Spectral Efficiency Optimization in STAR-RIS-Aided SWIPT",
      "venue": "IEEE Wireless Communications Letters",
      "year": 2024,
      "referenceCount": 13,
      "citationCount": 15,
      "authors": [
        {
          "authorId": "2279546442",
          "name": "Armin Farhadi"
        },
        {
          "authorId": "2294107327",
          "name": "Mohsen Moomivand"
        },
        {
          "authorId": "81618543",
          "name": "Shiva Kazemi Taskou"
        },
        {
          "authorId": "1772819",
          "name": "Mohammad Robat Mili"
        },
        {
          "authorId": "2643835",
          "name": "M. Rasti"
        },
        {
          "authorId": "2244484586",
          "name": "Ekram Hossain"
        }
      ]
    },
    {
      "paperId": "7f567f1e8972ff31a7ced59c329e7d75da645baf",
      "externalIds": {
        "MAG": "2963459627",
        "DBLP": "journals/corr/abs-1803-05044",
        "ArXiv": "1803.05044",
        "CorpusId": 4408112
      },
      "url": "https://www.semanticscholar.org/paper/7f567f1e8972ff31a7ced59c329e7d75da645baf",
      "title": "Learning to Explore with Meta-Policy Gradient",
      "venue": "International Conference on Machine Learning",
      "year": 2018,
      "referenceCount": 32,
      "citationCount": 54,
      "authors": [
        {
          "authorId": "35533477",
          "name": "Tianbing Xu"
        },
        {
          "authorId": "47362268",
          "name": "Qiang Liu"
        },
        {
          "authorId": "2116734918",
          "name": "Liang Zhao"
        },
        {
          "authorId": "144439558",
          "name": "Jian Peng"
        }
      ]
    },
    {
      "paperId": "1d82e135bf9e7006c12ddda894d98cae3e8f3042",
      "externalIds": {
        "ArXiv": "2503.02831",
        "DBLP": "journals/corr/abs-2503-02831",
        "DOI": "10.48550/arXiv.2503.02831",
        "CorpusId": 276768899
      },
      "url": "https://www.semanticscholar.org/paper/1d82e135bf9e7006c12ddda894d98cae3e8f3042",
      "title": "Meta-Learning to Explore via Memory Density Feedback",
      "venue": "arXiv.org",
      "year": 2025,
      "referenceCount": 25,
      "citationCount": 0,
      "authors": [
        {
          "authorId": "2348096203",
          "name": "Kevin McKee"
        }
      ]
    },
    {
      "paperId": "65f9782423cc015bab4dcff64a13b6986f925bfb",
      "externalIds": {
        "ArXiv": "2306.08460",
        "DBLP": "conf/ijcai/0011SL0Y25",
        "DOI": "10.48550/arXiv.2306.08460",
        "CorpusId": 259164461
      },
      "url": "https://www.semanticscholar.org/paper/65f9782423cc015bab4dcff64a13b6986f925bfb",
      "title": "Improving Generalization in Meta-Learning via Meta-Gradient Augmentation",
      "venue": "International Joint Conference on Artificial Intelligence",
      "year": 2023,
      "referenceCount": 66,
      "citationCount": 1,
      "authors": [
        {
          "authorId": "2108876280",
          "name": "Ren Wang"
        },
        {
          "authorId": "2776765",
          "name": "Haoliang Sun"
        },
        {
          "authorId": "2114826675",
          "name": "Qi Wei"
        },
        {
          "authorId": "3082612",
          "name": "Xiushan Nie"
        },
        {
          "authorId": "1998921670",
          "name": "Yuling Ma"
        },
        {
          "authorId": "102446355",
          "name": "Yilong Yin"
        }
      ]
    },
    {
      "paperId": "59d31491d3b9e61ef5a844778454462f6a6ddc2d",
      "externalIds": {
        "DBLP": "journals/corr/abs-2511-12779",
        "ArXiv": "2511.12779",
        "DOI": "10.48550/arXiv.2511.12779",
        "CorpusId": 283072197
      },
      "url": "https://www.semanticscholar.org/paper/59d31491d3b9e61ef5a844778454462f6a6ddc2d",
      "title": "Scalable Multi-Objective and Meta Reinforcement Learning via Gradient Estimation",
      "venue": "AAAI Conference on Artificial Intelligence",
      "year": 2025,
      "referenceCount": 45,
      "citationCount": 3,
      "authors": [
        {
          "authorId": "2377642899",
          "name": "Zhenshuo Zhang"
        },
        {
          "authorId": "2392872457",
          "name": "Minxuan Duan"
        },
        {
          "authorId": "2403006439",
          "name": "Youran Ye"
        },
        {
          "authorId": "2296245618",
          "name": "Hongyan Zhang"
        }
      ]
    },
    {
      "paperId": "adffea92f3e74535754e9ce9e5ae94b49bb4dfa8",
      "externalIds": {
        "DBLP": "journals/corr/abs-2503-00385",
        "ArXiv": "2503.00385",
        "DOI": "10.48550/arXiv.2503.00385",
        "CorpusId": 276742549
      },
      "url": "https://www.semanticscholar.org/paper/adffea92f3e74535754e9ce9e5ae94b49bb4dfa8",
      "title": "Model-Agnostic Meta-Policy Optimization via Zeroth-Order Estimation: A Linear Quadratic Regulator Perspective",
      "venue": "arXiv.org",
      "year": 2025,
      "referenceCount": 50,
      "citationCount": 3,
      "authors": [
        {
          "authorId": "2044590502",
          "name": "Yunian Pan"
        },
        {
          "authorId": "1876824505",
          "name": "Tao Li"
        },
        {
          "authorId": "2238232076",
          "name": "Quanyan Zhu"
        }
      ]
    },
    {
      "paperId": "537f877b7e1e82a4e0e6821ec8eadb07819bcbf8",
      "externalIds": {
        "DBLP": "journals/corr/abs-2601-00095",
        "ArXiv": "2601.00095",
        "DOI": "10.48550/arXiv.2601.00095",
        "CorpusId": 284475451
      },
      "url": "https://www.semanticscholar.org/paper/537f877b7e1e82a4e0e6821ec8eadb07819bcbf8",
      "title": "Adaptive Constraint Propagation: Scaling Structured Inference for Large Language Models via Meta-Reinforcement Learning",
      "venue": "arXiv.org",
      "year": 2025,
      "referenceCount": 58,
      "citationCount": 0,
      "authors": [
        {
          "authorId": "66226596",
          "name": "Ibne Farabi Shihab"
        },
        {
          "authorId": "2359252749",
          "name": "Sanjeda Akter"
        },
        {
          "authorId": "2297251026",
          "name": "Anuj Sharma"
        }
      ]
    },
    {
      "paperId": "a7e07e0ecd1727778ade42d2e1df856171ec0898",
      "externalIds": {
        "DBLP": "journals/corr/abs-1809-05214",
        "ArXiv": "1809.05214",
        "MAG": "2949571867",
        "CorpusId": 52282277
      },
      "url": "https://www.semanticscholar.org/paper/a7e07e0ecd1727778ade42d2e1df856171ec0898",
      "title": "Model-Based Reinforcement Learning via Meta-Policy Optimization",
      "venue": "Conference on Robot Learning",
      "year": 2018,
      "referenceCount": 50,
      "citationCount": 251,
      "authors": [
        {
          "authorId": "15593386",
          "name": "Ignasi Clavera"
        },
        {
          "authorId": "35309584",
          "name": "Jonas Rothfuss"
        },
        {
          "authorId": "47971768",
          "name": "John Schulman"
        },
        {
          "authorId": "2055409786",
          "name": "Yasuhiro Fujita"
        },
        {
          "authorId": "1722677",
          "name": "T. Asfour"
        },
        {
          "authorId": "1689992",
          "name": "P. Abbeel"
        }
      ]
    }
  ]
}