{
  "total": 33,
  "offset": 0,
  "next": 10,
  "data": [
    {
      "paperId": "3a21ef1a4761fd90eb2092dee455d8da5dc8f317",
      "externalIds": {
        "ArXiv": "1502.03255",
        "DBLP": "conf/icml/HallakSMM15",
        "MAG": "1859820673",
        "CorpusId": 262143399
      },
      "url": "https://www.semanticscholar.org/paper/3a21ef1a4761fd90eb2092dee455d8da5dc8f317",
      "title": "Off-policy Model-based Learning under Unknown Factored Dynamics",
      "venue": "International Conference on Machine Learning",
      "year": 2015,
      "referenceCount": 30,
      "citationCount": 28,
      "authors": [
        {
          "authorId": "21062872",
          "name": "Assaf Hallak"
        },
        {
          "authorId": "2244097655",
          "name": "François Schnitzler"
        },
        {
          "authorId": "2554720",
          "name": "Timothy A. Mann"
        },
        {
          "authorId": "49185899",
          "name": "Shie Mannor"
        }
      ]
    },
    {
      "paperId": "7ac8ffc903247c1730c9297bceade233f9740545",
      "externalIds": {
        "DBLP": "journals/corr/HallakSMM15",
        "MAG": "1656041229",
        "CorpusId": 17298984
      },
      "url": "https://www.semanticscholar.org/paper/7ac8ffc903247c1730c9297bceade233f9740545",
      "title": "Off-policy evaluation for MDPs with unknown structure",
      "venue": "arXiv.org",
      "year": 2015,
      "referenceCount": 4,
      "citationCount": 7,
      "authors": [
        {
          "authorId": "21062872",
          "name": "Assaf Hallak"
        },
        {
          "authorId": "1704809",
          "name": "François Schnitzler"
        },
        {
          "authorId": "2554720",
          "name": "Timothy A. Mann"
        },
        {
          "authorId": "1712535",
          "name": "Shie Mannor"
        }
      ]
    },
    {
      "paperId": "b501355078fd679247a1a5a6a73035c064791a7e",
      "externalIds": {
        "MAG": "2963420299",
        "ArXiv": "1503.06375",
        "DBLP": "journals/corr/SankaranBRS15",
        "CorpusId": 16067303
      },
      "url": "https://www.semanticscholar.org/paper/b501355078fd679247a1a5a6a73035c064791a7e",
      "title": "Policy Learning with Hypothesis based Local Action Selection",
      "venue": "arXiv.org",
      "year": 2015,
      "referenceCount": 6,
      "citationCount": 4,
      "authors": [
        {
          "authorId": "96597219",
          "name": "Bharathwaj Sankaran"
        },
        {
          "authorId": "1775407",
          "name": "Jeannette Bohg"
        },
        {
          "authorId": "13693897",
          "name": "Nathan D. Ratliff"
        },
        {
          "authorId": "1745219",
          "name": "S. Schaal"
        }
      ]
    },
    {
      "paperId": "cdc1cd9b1bc6c96d287a2ae508261cdee99c54f1",
      "externalIds": {
        "CorpusId": 195793916
      },
      "url": "https://www.semanticscholar.org/paper/cdc1cd9b1bc6c96d287a2ae508261cdee99c54f1",
      "title": "Solving Nonlinear Zero-Sum Game with Completely Unknown Dynamics via Iterative Adaptive Dynamic Programming",
      "venue": "",
      "year": 2015,
      "referenceCount": 20,
      "citationCount": 0,
      "authors": [
        {
          "authorId": "3124762",
          "name": "Yuanheng Zhu"
        },
        {
          "authorId": "1699234",
          "name": "Dongbin Zhao"
        },
        {
          "authorId": "2198278",
          "name": "Haibo He"
        }
      ]
    },
    {
      "paperId": "8a6afb91e8610f50c4bef7adb3365de03ba76284",
      "externalIds": {
        "DBLP": "conf/iros/UreOLAHV15",
        "MAG": "2221395504",
        "DOI": "10.1109/IROS.2015.7354107",
        "CorpusId": 16615087
      },
      "url": "https://www.semanticscholar.org/paper/8a6afb91e8610f50c4bef7adb3365de03ba76284",
      "title": "Online heterogeneous multiagent learning under limited communication with applications to forest fire management",
      "venue": "IEEE/RJS International Conference on Intelligent RObots and Systems",
      "year": 2015,
      "referenceCount": 30,
      "citationCount": 14,
      "authors": [
        {
          "authorId": "2877453",
          "name": "N. K. Ure"
        },
        {
          "authorId": "3093004",
          "name": "Shayegan Omidshafiei"
        },
        {
          "authorId": "3330704",
          "name": "B. Lopez"
        },
        {
          "authorId": "120393937",
          "name": "Ali-akbar Agha-mohammadi"
        },
        {
          "authorId": "1713935",
          "name": "J. How"
        },
        {
          "authorId": "40497882",
          "name": "J. Vian"
        }
      ]
    },
    {
      "paperId": "9113c663a78c46ff404f40207bce5f385debe0b2",
      "externalIds": {
        "MAG": "1550326966",
        "DOI": "10.3310/HSDR03400",
        "CorpusId": 55105173
      },
      "url": "https://www.semanticscholar.org/paper/9113c663a78c46ff404f40207bce5f385debe0b2",
      "title": "A realist analysis of hospital patient safety in Wales: Applied learning for alternative contexts from a multisite case study",
      "venue": "",
      "year": 2015,
      "referenceCount": 727,
      "citationCount": 21,
      "authors": [
        {
          "authorId": "73091399",
          "name": "A. Herepath"
        },
        {
          "authorId": "2106419",
          "name": "M. Kitchener"
        },
        {
          "authorId": "46674337",
          "name": "J. Waring"
        }
      ]
    },
    {
      "paperId": "5621031b9b4b09e6a9feccc954554c3c337c53dd",
      "externalIds": {
        "DBLP": "journals/asc/PaulaAM15",
        "MAG": "786087805",
        "DOI": "10.1016/j.asoc.2015.06.041",
        "CorpusId": 34554563
      },
      "url": "https://www.semanticscholar.org/paper/5621031b9b4b09e6a9feccc954554c3c337c53dd",
      "title": "Controlling blood glucose variability under uncertainty using reinforcement learning and Gaussian processes",
      "venue": "Applied Soft Computing",
      "year": 2015,
      "referenceCount": 43,
      "citationCount": 33,
      "authors": [
        {
          "authorId": "145825862",
          "name": "M. D. Paula"
        },
        {
          "authorId": "1694435",
          "name": "L. Ávila"
        },
        {
          "authorId": "143791387",
          "name": "E. Martínez"
        }
      ]
    },
    {
      "paperId": "eeb7391b48ebcf127819e67049345dbfb603e81a",
      "externalIds": {
        "DBLP": "journals/af/Mandes15",
        "MAG": "2262225869",
        "DOI": "10.3233/AF-150049",
        "CorpusId": 40635797
      },
      "url": "https://www.semanticscholar.org/paper/eeb7391b48ebcf127819e67049345dbfb603e81a",
      "title": "Microstructure-based order placement in a continuous double auction agent based model",
      "venue": "Algorithmic Finance",
      "year": 2015,
      "referenceCount": 46,
      "citationCount": 8,
      "authors": [
        {
          "authorId": "34456891",
          "name": "Alexandru Mandes"
        }
      ]
    },
    {
      "paperId": "97b76e87529c96c0bac7d3954061275480bec23d",
      "externalIds": {
        "MAG": "1615509193",
        "PubMedCentral": "4562296",
        "DOI": "10.1038/srep13799",
        "CorpusId": 8245172,
        "PubMed": "26347998"
      },
      "url": "https://www.semanticscholar.org/paper/97b76e87529c96c0bac7d3954061275480bec23d",
      "title": "Water use efficiency of China’s terrestrial ecosystems and responses to drought",
      "venue": "Scientific Reports",
      "year": 2015,
      "referenceCount": 65,
      "citationCount": 247,
      "authors": [
        {
          "authorId": "2108357098",
          "name": "Yibo Liu"
        },
        {
          "authorId": "2786708",
          "name": "J. Xiao"
        },
        {
          "authorId": "3003855",
          "name": "W. Ju"
        },
        {
          "authorId": "2624698",
          "name": "Yanlian Zhou"
        },
        {
          "authorId": "1599731656",
          "name": "Shaoqiang Wang"
        },
        {
          "authorId": "51012015",
          "name": "Xiaocui Wu"
        }
      ]
    },
    {
      "paperId": "7484b3f7d3a002240d5a8e73aa2e73ba24e10b4c",
      "externalIds": {
        "DBLP": "conf/icra/FaustMT15",
        "MAG": "1540465515",
        "DOI": "10.1109/ICRA.2015.7139692",
        "CorpusId": 16040361
      },
      "url": "https://www.semanticscholar.org/paper/7484b3f7d3a002240d5a8e73aa2e73ba24e10b4c",
      "title": "Preference-balancing motion planning under stochastic disturbances",
      "venue": "IEEE International Conference on Robotics and Automation",
      "year": 2015,
      "referenceCount": 30,
      "citationCount": 11,
      "authors": [
        {
          "authorId": "145520045",
          "name": "Aleksandra Faust"
        },
        {
          "authorId": "40554086",
          "name": "Nick Malone"
        },
        {
          "authorId": "144922292",
          "name": "Lydia Tapia"
        }
      ]
    }
  ]
}