{
  "total": 260,
  "offset": 0,
  "next": 10,
  "data": [
    {
      "paperId": "b3bf9480281d38049413ca0456879827043c1d62",
      "externalIds": {
        "DBLP": "conf/icml/MishraAM17",
        "ArXiv": "1703.04070",
        "MAG": "2949772331",
        "CorpusId": 993205
      },
      "url": "https://www.semanticscholar.org/paper/b3bf9480281d38049413ca0456879827043c1d62",
      "title": "Prediction and Control with Temporal Segment Models",
      "venue": "International Conference on Machine Learning",
      "year": 2017,
      "referenceCount": 38,
      "citationCount": 66,
      "authors": [
        {
          "authorId": "3414570",
          "name": "Nikhil Mishra"
        },
        {
          "authorId": "1689992",
          "name": "P. Abbeel"
        },
        {
          "authorId": "2080746",
          "name": "Igor Mordatch"
        }
      ]
    },
    {
      "paperId": "d790f029425ccd4e6e483fa5ebe2e9cf0ff6b99c",
      "externalIds": {
        "DBLP": "conf/ai/GongLZFWP24",
        "DOI": "10.21428/594757db.1ff8cafc",
        "CorpusId": 277626192
      },
      "url": "https://www.semanticscholar.org/paper/d790f029425ccd4e6e483fa5ebe2e9cf0ff6b99c",
      "title": "An Attention-Based Parallel Hybrid Prediction Model for Intersection Level Turning Movement Forecasting",
      "venue": "Canadian AI",
      "year": 2024,
      "referenceCount": 15,
      "citationCount": 0,
      "authors": [
        {
          "authorId": "2342104368",
          "name": "Yancheng Gong"
        },
        {
          "authorId": "2128566496",
          "name": "Chunhao Liu"
        },
        {
          "authorId": "2340788205",
          "name": "Ce Zhang"
        },
        {
          "authorId": "2265730600",
          "name": "Liping Fu"
        },
        {
          "authorId": "2223104780",
          "name": "Hao Wei"
        },
        {
          "authorId": "2351274995",
          "name": "Guangyuan Pan"
        }
      ]
    },
    {
      "paperId": "91cfbef2c23c32d037aa8ee4647f3bcc8588a541",
      "externalIds": {
        "DOI": "10.1109/IC3IT66137.2025.11341184",
        "CorpusId": 284966917
      },
      "url": "https://www.semanticscholar.org/paper/91cfbef2c23c32d037aa8ee4647f3bcc8588a541",
      "title": "Adaptive Video Streaming Over 5G Networks Using Deep Reinforcement Learning with Closed-Loop Feedback Mechanism for Bitrate Control",
      "venue": "2025 International Conference on Communication, Computer, and Information Technology (IC3IT)",
      "year": 2025,
      "referenceCount": 15,
      "citationCount": 0,
      "authors": [
        {
          "authorId": "2257966909",
          "name": "S. Radha"
        },
        {
          "authorId": "2390855663",
          "name": "V. Gottimukkala"
        },
        {
          "authorId": "2406280263",
          "name": "Swathi Thottara"
        },
        {
          "authorId": "2406282014",
          "name": "K. Vandhana"
        },
        {
          "authorId": "2406282181",
          "name": "Gokulraj. J"
        }
      ]
    },
    {
      "paperId": "7c5445d3c4395964b8e71e32ae4419a3335b691f",
      "externalIds": {
        "MAG": "2013551812",
        "DBLP": "journals/ton/Gatmir-MotahariZR13",
        "DOI": "10.1109/TNET.2012.2225443",
        "CorpusId": 31809
      },
      "url": "https://www.semanticscholar.org/paper/7c5445d3c4395964b8e71e32ae4419a3335b691f",
      "title": "Time-Clustering-Based Place Prediction for Wireless Subscribers",
      "venue": "IEEE/ACM Transactions on Networking",
      "year": 2013,
      "referenceCount": 31,
      "citationCount": 16,
      "authors": [
        {
          "authorId": "1398640341",
          "name": "Sara Gatmir-Motahari"
        },
        {
          "authorId": "2315521",
          "name": "H. Zang"
        },
        {
          "authorId": "22172172",
          "name": "Phyllis Reuther"
        }
      ]
    },
    {
      "paperId": "eb38359e93eb612bd5ff39e9751b8ae36b4e9ae6",
      "externalIds": {
        "MAG": "2766637697",
        "DOI": "10.1007/978-3-319-70730-3_4",
        "CorpusId": 65168730
      },
      "url": "https://www.semanticscholar.org/paper/eb38359e93eb612bd5ff39e9751b8ae36b4e9ae6",
      "title": "Predicting the Travel Time in Using Recurrent Neural Networks: A Case Study of Fuzhou",
      "venue": "",
      "year": 2017,
      "referenceCount": 18,
      "citationCount": 3,
      "authors": [
        {
          "authorId": "2114025953",
          "name": "Luming Li"
        },
        {
          "authorId": "2058236",
          "name": "Xinhua Jiang"
        }
      ]
    },
    {
      "paperId": "9a74e9fa2ea056b65b707695ae5c7143d2bc232a",
      "externalIds": {
        "DOI": "10.3390/su16020910",
        "CorpusId": 267127584
      },
      "url": "https://www.semanticscholar.org/paper/9a74e9fa2ea056b65b707695ae5c7143d2bc232a",
      "title": "Shield Tunnel (Segment) Uplift Prediction and Control Based on Interpretable Machine Learning",
      "venue": "Sustainability",
      "year": 2024,
      "referenceCount": 30,
      "citationCount": 12,
      "authors": [
        {
          "authorId": "2281042147",
          "name": "Min Hu"
        },
        {
          "authorId": "2306134551",
          "name": "Jun Sun"
        },
        {
          "authorId": "144651026",
          "name": "Bingjian Wu"
        },
        {
          "authorId": "2280910954",
          "name": "Huiming Wu"
        },
        {
          "authorId": "80541317",
          "name": "Zhenjian Xu"
        }
      ]
    },
    {
      "paperId": "28471d5aee76eaa65012e4a7baf4b216c1da2ce6",
      "externalIds": {
        "DOI": "10.3390/atmos16101213",
        "CorpusId": 282265214
      },
      "url": "https://www.semanticscholar.org/paper/28471d5aee76eaa65012e4a7baf4b216c1da2ce6",
      "title": "High-Resolution Traffic Flow Prediction and Vehicle Emission Inventory Estimation for Chinese Cities Using Geo-Spatial Data of Jinan City, China",
      "venue": "Atmosphere",
      "year": 2025,
      "referenceCount": 32,
      "citationCount": 0,
      "authors": [
        {
          "authorId": "2110709485",
          "name": "Xuejun Yan"
        },
        {
          "authorId": "2116902644",
          "name": "Qi Yang"
        },
        {
          "authorId": "2325896274",
          "name": "Jingyang Fan"
        },
        {
          "authorId": "2244075745",
          "name": "Ziyuan Cai"
        },
        {
          "authorId": "2403011933",
          "name": "Pan Wang"
        },
        {
          "authorId": "2155283387",
          "name": "Xiuli Zhang"
        },
        {
          "authorId": "2386930342",
          "name": "Hengzhi Wang"
        },
        {
          "authorId": "2358405968",
          "name": "Chenxi Zhu"
        },
        {
          "authorId": "50987386",
          "name": "D. He"
        },
        {
          "authorId": "2258368571",
          "name": "Chunxiao Hao"
        }
      ]
    },
    {
      "paperId": "f2907fbd11f79a9de3444e61c674649a1583b257",
      "externalIds": {
        "DOI": "10.1109/jsen.2024.3453435",
        "CorpusId": 272743176
      },
      "url": "https://www.semanticscholar.org/paper/f2907fbd11f79a9de3444e61c674649a1583b257",
      "title": "Multiscale Temporal-Variable Patches Network for Long-Term Prediction of Industrial Key Parameters",
      "venue": "IEEE Sensors Journal",
      "year": 2024,
      "referenceCount": 0,
      "citationCount": 1,
      "authors": [
        {
          "authorId": "2321798242",
          "name": "Changyao Lv"
        },
        {
          "authorId": "145187070",
          "name": "Xiaofeng Zhou"
        },
        {
          "authorId": "2180559682",
          "name": "Guoliang Hu"
        },
        {
          "authorId": "2133435753",
          "name": "Shuai Li"
        },
        {
          "authorId": "2108388682",
          "name": "Shurui Liu"
        },
        {
          "authorId": "2145672498",
          "name": "Mengchen Li"
        }
      ]
    },
    {
      "paperId": "6be08afc3894dacd27105fd197b934068007d6dd",
      "externalIds": {
        "DBLP": "journals/jits/HeshamiK24",
        "DOI": "10.1080/15472450.2022.2130291",
        "CorpusId": 255703222
      },
      "url": "https://www.semanticscholar.org/paper/6be08afc3894dacd27105fd197b934068007d6dd",
      "title": "A stochastic microscopic based freeway traffic state and spatial-temporal pattern prediction in a connected vehicle environment",
      "venue": "Journal of Intelligent Transportation Systems / Taylor & Francis",
      "year": 2023,
      "referenceCount": 100,
      "citationCount": 13,
      "authors": [
        {
          "authorId": "97782147",
          "name": "Seiran Heshami"
        },
        {
          "authorId": "48515977",
          "name": "L. Kattan"
        }
      ]
    },
    {
      "paperId": "2066899c5e7cdc4705c82d3ad25391155c329d97",
      "externalIds": {
        "PubMedCentral": "13009498",
        "DOI": "10.1038/s41598-026-41571-7",
        "CorpusId": 286752068,
        "PubMed": "41865039"
      },
      "url": "https://www.semanticscholar.org/paper/2066899c5e7cdc4705c82d3ad25391155c329d97",
      "title": "Early prediction of wind turbine anomalies using 1D-CNN and temporal feature engineering on multi-source SCADA data",
      "venue": "Scientific Reports",
      "year": 2026,
      "referenceCount": 62,
      "citationCount": 0,
      "authors": [
        {
          "authorId": "36555872",
          "name": "M. M. Ata"
        },
        {
          "authorId": "2425212058",
          "name": "Shorok Osama"
        },
        {
          "authorId": "102618845",
          "name": "Mai. R. Ibraheem"
        },
        {
          "authorId": "9206207",
          "name": "Ahmed R. Abas"
        }
      ]
    }
  ]
}