{
  "total": 7806,
  "offset": 0,
  "next": 10,
  "data": [
    {
      "paperId": "e72207254282130820f9e8f9e68935749495b32b",
      "externalIds": {
        "DBLP": "conf/icml/JiangMCSMG17",
        "MAG": "2740571411",
        "CorpusId": 19210095
      },
      "url": "https://www.semanticscholar.org/paper/e72207254282130820f9e8f9e68935749495b32b",
      "title": "Efficient Nonmyopic Active Search",
      "venue": "International Conference on Machine Learning",
      "year": 2017,
      "referenceCount": 28,
      "citationCount": 63,
      "authors": [
        {
          "authorId": "1944535",
          "name": "Shali Jiang"
        },
        {
          "authorId": "2594102",
          "name": "Gustavo Malkomes"
        },
        {
          "authorId": "146783292",
          "name": "Geoffrey A. Converse"
        },
        {
          "authorId": "20668101",
          "name": "Alyssa Shofner"
        },
        {
          "authorId": "1867769",
          "name": "Benjamin Moseley"
        },
        {
          "authorId": "145974030",
          "name": "R. Garnett"
        }
      ]
    },
    {
      "paperId": "344a64e7be2a736c6bbeb0833a03766a36b624ab",
      "externalIds": {
        "DBLP": "journals/corr/abs-1811-08871",
        "MAG": "2901607058",
        "ArXiv": "1811.08871",
        "CorpusId": 53732021
      },
      "url": "https://www.semanticscholar.org/paper/344a64e7be2a736c6bbeb0833a03766a36b624ab",
      "title": "Efficient nonmyopic active search with applications in drug and materials discovery",
      "venue": "arXiv.org",
      "year": 2018,
      "referenceCount": 17,
      "citationCount": 7,
      "authors": [
        {
          "authorId": "1944535",
          "name": "Shali Jiang"
        },
        {
          "authorId": "2594102",
          "name": "Gustavo Malkomes"
        },
        {
          "authorId": "1867769",
          "name": "Benjamin Moseley"
        },
        {
          "authorId": "145974030",
          "name": "R. Garnett"
        }
      ]
    },
    {
      "paperId": "7a6efb07776f5f05fd9b1805dbb2e845ebb0ac0f",
      "externalIds": {
        "CorpusId": 38938514
      },
      "url": "https://www.semanticscholar.org/paper/7a6efb07776f5f05fd9b1805dbb2e845ebb0ac0f",
      "title": "Supplementary Material for Efficient Nonmyopic Active Search",
      "venue": "",
      "year": 2017,
      "referenceCount": 4,
      "citationCount": 0,
      "authors": [
        {
          "authorId": "1944535",
          "name": "Shali Jiang"
        },
        {
          "authorId": "2594102",
          "name": "Gustavo Malkomes"
        },
        {
          "authorId": "146783292",
          "name": "Geoffrey A. Converse"
        },
        {
          "authorId": "20668101",
          "name": "Alyssa Shofner"
        },
        {
          "authorId": "1867769",
          "name": "Benjamin Moseley"
        },
        {
          "authorId": "145974030",
          "name": "R. Garnett"
        }
      ]
    },
    {
      "paperId": "62c8c6595f6589d5dedb46dbd31a725fad1c87b0",
      "externalIds": {
        "DBLP": "conf/nips/JiangMAMG18",
        "MAG": "2891257569",
        "CorpusId": 53970504
      },
      "url": "https://www.semanticscholar.org/paper/62c8c6595f6589d5dedb46dbd31a725fad1c87b0",
      "title": "Efficient nonmyopic batch active search",
      "venue": "Neural Information Processing Systems",
      "year": 2018,
      "referenceCount": 35,
      "citationCount": 35,
      "authors": [
        {
          "authorId": "1944535",
          "name": "Shali Jiang"
        },
        {
          "authorId": "2594102",
          "name": "Gustavo Malkomes"
        },
        {
          "authorId": "39852050",
          "name": "Matthew Abbott"
        },
        {
          "authorId": "1867769",
          "name": "Benjamin Moseley"
        },
        {
          "authorId": "145974030",
          "name": "R. Garnett"
        }
      ]
    },
    {
      "paperId": "636ec0b9f08f8d356d2613650c652d2370555908",
      "externalIds": {
        "DBLP": "conf/aistats/NguyenG23",
        "ArXiv": "2202.03593",
        "CorpusId": 252967673
      },
      "url": "https://www.semanticscholar.org/paper/636ec0b9f08f8d356d2613650c652d2370555908",
      "title": "Nonmyopic Multiclass Active Search with Diminishing Returns for Diverse Discovery",
      "venue": "International Conference on Artificial Intelligence and Statistics",
      "year": 2022,
      "referenceCount": 52,
      "citationCount": 7,
      "authors": [
        {
          "authorId": "152749916",
          "name": "Quan Nguyen"
        },
        {
          "authorId": "145974030",
          "name": "R. Garnett"
        }
      ]
    },
    {
      "paperId": "e8c1795a381e9fc6f040181a2ed5b6cf687bcb81",
      "externalIds": {
        "DBLP": "journals/corr/abs-2202-03593",
        "CorpusId": 246652056
      },
      "url": "https://www.semanticscholar.org/paper/e8c1795a381e9fc6f040181a2ed5b6cf687bcb81",
      "title": "Nonmyopic Multiclass Active Search for Diverse Discovery",
      "venue": "arXiv.org",
      "year": 2022,
      "referenceCount": 39,
      "citationCount": 3,
      "authors": [
        {
          "authorId": "152749916",
          "name": "Quan Nguyen"
        },
        {
          "authorId": "145974030",
          "name": "R. Garnett"
        }
      ]
    },
    {
      "paperId": "9a560471da3e621d609f300e18243586bec48ba3",
      "externalIds": {
        "ArXiv": "2106.06356",
        "DBLP": "journals/corr/abs-2106-06356",
        "CorpusId": 235417529
      },
      "url": "https://www.semanticscholar.org/paper/9a560471da3e621d609f300e18243586bec48ba3",
      "title": "Nonmyopic Multifidelity Active Search",
      "venue": "arXiv.org",
      "year": 2021,
      "referenceCount": 26,
      "citationCount": 2,
      "authors": [
        {
          "authorId": "152749916",
          "name": "Quan Nguyen"
        },
        {
          "authorId": "34362142",
          "name": "Arghavan Modiri"
        },
        {
          "authorId": "145974030",
          "name": "R. Garnett"
        }
      ]
    },
    {
      "paperId": "5091874d9dafd5ed2e514ce9b08c4e1b9c63eb75",
      "externalIds": {
        "DBLP": "conf/nips/JiangGM19",
        "MAG": "2970699572",
        "CorpusId": 202780709
      },
      "url": "https://www.semanticscholar.org/paper/5091874d9dafd5ed2e514ce9b08c4e1b9c63eb75",
      "title": "Cost Effective Active Search",
      "venue": "Neural Information Processing Systems",
      "year": 2019,
      "referenceCount": 17,
      "citationCount": 24,
      "authors": [
        {
          "authorId": "1944535",
          "name": "Shali Jiang"
        },
        {
          "authorId": "145974030",
          "name": "R. Garnett"
        },
        {
          "authorId": "1867769",
          "name": "Benjamin Moseley"
        }
      ]
    },
    {
      "paperId": "89bd5cba73e50c899c1cd6a01350c2c7228d7ae6",
      "externalIds": {
        "DBLP": "conf/icra/AtanasovNDP15",
        "MAG": "1562003885",
        "DOI": "10.1109/ICRA.2015.7139863",
        "CorpusId": 1284636
      },
      "url": "https://www.semanticscholar.org/paper/89bd5cba73e50c899c1cd6a01350c2c7228d7ae6",
      "title": "Decentralized active information acquisition: Theory and application to multi-robot SLAM",
      "venue": "IEEE International Conference on Robotics and Automation",
      "year": 2015,
      "referenceCount": 37,
      "citationCount": 188,
      "authors": [
        {
          "authorId": "50365495",
          "name": "Nikolay A. Atanasov"
        },
        {
          "authorId": "1786838",
          "name": "J. L. Ny"
        },
        {
          "authorId": "1751586",
          "name": "Kostas Daniilidis"
        },
        {
          "authorId": "143770945",
          "name": "George Pappas"
        }
      ]
    },
    {
      "paperId": "68121a7224f98ec255cdf1635553e3f028599776",
      "externalIds": {
        "DBLP": "journals/corr/abs-2405-15031",
        "ArXiv": "2405.15031",
        "DOI": "10.48550/arXiv.2405.15031",
        "CorpusId": 270045418
      },
      "url": "https://www.semanticscholar.org/paper/68121a7224f98ec255cdf1635553e3f028599776",
      "title": "Amortized nonmyopic active search via deep imitation learning",
      "venue": "arXiv.org",
      "year": 2024,
      "referenceCount": 55,
      "citationCount": 2,
      "authors": [
        {
          "authorId": "152749916",
          "name": "Quan Nguyen"
        },
        {
          "authorId": "2146908291",
          "name": "Anindya Sarkar"
        },
        {
          "authorId": "2286879334",
          "name": "Roman Garnett"
        }
      ]
    }
  ]
}