{
  "total": 475,
  "offset": 0,
  "next": 10,
  "data": [
    {
      "paperId": "6af5644d958520c276b9ba00a63eb1cf54e41aae",
      "externalIds": {
        "DBLP": "conf/icml/Mesaoudi-PaulHB18",
        "MAG": "2803846199",
        "CorpusId": 51872676
      },
      "url": "https://www.semanticscholar.org/paper/6af5644d958520c276b9ba00a63eb1cf54e41aae",
      "title": "Ranking Distributions based on Noisy Sorting",
      "venue": "International Conference on Machine Learning",
      "year": 2018,
      "referenceCount": 20,
      "citationCount": 2,
      "authors": [
        {
          "authorId": "1414398597",
          "name": "Adil El Mesaoudi-Paul"
        },
        {
          "authorId": "1691955",
          "name": "Eyke Hüllermeier"
        },
        {
          "authorId": "1398396696",
          "name": "R. Busa-Fekete"
        }
      ]
    },
    {
      "paperId": "38d7db2465d0ed0a9fe067442d1814535e57d6cc",
      "externalIds": {
        "DBLP": "conf/isbi/LinASBWPRSNTCF24",
        "ArXiv": "2402.08294",
        "DOI": "10.1109/ISBI56570.2024.10635225",
        "CorpusId": 267636604
      },
      "url": "https://www.semanticscholar.org/paper/38d7db2465d0ed0a9fe067442d1814535e57d6cc",
      "title": "Learning Semantic Image Quality for Fetal Ultrasound from Noisy Ranking Annotation",
      "venue": "IEEE International Symposium on Biomedical Imaging",
      "year": 2024,
      "referenceCount": 31,
      "citationCount": 5,
      "authors": [
        {
          "authorId": "2148636287",
          "name": "Manxi Lin"
        },
        {
          "authorId": "2283933682",
          "name": "Jakob Ambsdorf"
        },
        {
          "authorId": "2292579361",
          "name": "E. P. F. Sejer"
        },
        {
          "authorId": "2166046410",
          "name": "Zahra Bashir"
        },
        {
          "authorId": "2284228397",
          "name": "Chun Kit Wong"
        },
        {
          "authorId": "52213576",
          "name": "Paraskevas Pegios"
        },
        {
          "authorId": "2214225355",
          "name": "Alberto Raheli"
        },
        {
          "authorId": "2256516877",
          "name": "M. B. S. Svendsen"
        },
        {
          "authorId": "2256541058",
          "name": "Mads Nielsen"
        },
        {
          "authorId": "143921274",
          "name": "M. Tolsgaard"
        },
        {
          "authorId": "2256516796",
          "name": "A. N. Christensen"
        },
        {
          "authorId": "2283532729",
          "name": "A. Feragen"
        }
      ]
    },
    {
      "paperId": "d64eb9ebe1a713824ab329b7151a034fd5e6d734",
      "externalIds": {
        "MAG": "2766453097",
        "DBLP": "journals/corr/abs-1710-10388",
        "ArXiv": "1710.10388",
        "CorpusId": 4881108
      },
      "url": "https://www.semanticscholar.org/paper/d64eb9ebe1a713824ab329b7151a034fd5e6d734",
      "title": "Minimax Rates and Efficient Algorithms for Noisy Sorting",
      "venue": "International Conference on Algorithmic Learning Theory",
      "year": 2017,
      "referenceCount": 55,
      "citationCount": 44,
      "authors": [
        {
          "authorId": "12826846",
          "name": "Cheng Mao"
        },
        {
          "authorId": "51071691",
          "name": "J. Weed"
        },
        {
          "authorId": "2352281",
          "name": "P. Rigollet"
        }
      ]
    },
    {
      "paperId": "405fcb75d5d07576597d3eddb9e13ec74d9ecf88",
      "externalIds": {
        "DBLP": "conf/icmcs/LuJJCF23",
        "DOI": "10.1109/ICME55011.2023.00248",
        "CorpusId": 261127047
      },
      "url": "https://www.semanticscholar.org/paper/405fcb75d5d07576597d3eddb9e13ec74d9ecf88",
      "title": "A Novel Channel Pruning Approach based on Local Attention and Global Ranking for CNN Model Compression",
      "venue": "IEEE International Conference on Multimedia and Expo",
      "year": 2023,
      "referenceCount": 28,
      "citationCount": 2,
      "authors": [
        {
          "authorId": "2153424542",
          "name": "Wei Lu"
        },
        {
          "authorId": "2233534474",
          "name": "Yang Jiang"
        },
        {
          "authorId": "2989256",
          "name": "Peiguang Jing"
        },
        {
          "authorId": "2098877",
          "name": "Jinghui Chu"
        },
        {
          "authorId": "74612383",
          "name": "Fugui Fan"
        }
      ]
    },
    {
      "paperId": "2a7c9da8415409cdd709a962e9493635fbbb5993",
      "externalIds": {
        "DOI": "10.34314/jalca.v118i7.7856",
        "CorpusId": 266115629
      },
      "url": "https://www.semanticscholar.org/paper/2a7c9da8415409cdd709a962e9493635fbbb5993",
      "title": "Region Wise Surface Level Defect Detection and Ranking of Crust Leather Images Based on Image Processing Techniques",
      "venue": "The Journal of the American Leather Chemists Association",
      "year": 2023,
      "referenceCount": 35,
      "citationCount": 2,
      "authors": [
        {
          "authorId": "91475654",
          "name": "S. N. Vasagam"
        },
        {
          "authorId": "2273262943",
          "name": "M. Sornam"
        }
      ]
    },
    {
      "paperId": "b0e1091506b0e8c7b7bd193e24ee35413b025492",
      "externalIds": {
        "ArXiv": "2512.02813",
        "CorpusId": 283457876
      },
      "url": "https://www.semanticscholar.org/paper/b0e1091506b0e8c7b7bd193e24ee35413b025492",
      "title": "Implementation and Analysis of Quantum Majority Rules under Noisy Conditions",
      "venue": "",
      "year": 2025,
      "referenceCount": 26,
      "citationCount": 0,
      "authors": [
        {
          "authorId": "66215253",
          "name": "G. Amit"
        },
        {
          "authorId": "2219227839",
          "name": "Yuval Idan"
        },
        {
          "authorId": "2237905082",
          "name": "Michael Suleymanov"
        },
        {
          "authorId": "2395766917",
          "name": "Luis Razo"
        },
        {
          "authorId": "2382996945",
          "name": "Eliahu Cohen"
        }
      ]
    },
    {
      "paperId": "10ac757fff783ef7053ccaccf810a4559705001a",
      "externalIds": {
        "DBLP": "conf/nips/CalauzenesU20",
        "MAG": "3098283384",
        "CorpusId": 227276336
      },
      "url": "https://www.semanticscholar.org/paper/10ac757fff783ef7053ccaccf810a4559705001a",
      "title": "On ranking via sorting by estimated expected utility",
      "venue": "Neural Information Processing Systems",
      "year": 2020,
      "referenceCount": 47,
      "citationCount": 5,
      "authors": [
        {
          "authorId": "2891754",
          "name": "Clément Calauzènes"
        },
        {
          "authorId": "1746841",
          "name": "Nicolas Usunier"
        }
      ]
    },
    {
      "paperId": "498c3d1c33f390d21d4b634563bd763583986758",
      "externalIds": {
        "DBLP": "conf/coginfocom/TothG24",
        "DOI": "10.1109/CogInfoCom63007.2024.10894737",
        "CorpusId": 276584586
      },
      "url": "https://www.semanticscholar.org/paper/498c3d1c33f390d21d4b634563bd763583986758",
      "title": "Classification of the Noisy Texts Based on Feature Vectors",
      "venue": "IEEE International Conference on Cognitive Infocommunications",
      "year": 2024,
      "referenceCount": 26,
      "citationCount": 0,
      "authors": [
        {
          "authorId": "2281346335",
          "name": "Erzsébet Tóth"
        },
        {
          "authorId": "2281348282",
          "name": "Zoltán Gál"
        }
      ]
    },
    {
      "paperId": "851a21693baa922bfc0224c8d35219c5f9c6db48",
      "externalIds": {
        "ArXiv": "2412.13875",
        "DOI": "10.1109/icip55913.2025.11084658",
        "CorpusId": 274822261
      },
      "url": "https://www.semanticscholar.org/paper/851a21693baa922bfc0224c8d35219c5f9c6db48",
      "title": "Enhancing Visual Re-Ranking Through Denoising Nearest Neighbor Graph via Continuous CRF",
      "venue": "International Conference on Information Photonics",
      "year": 2024,
      "referenceCount": 27,
      "citationCount": 0,
      "authors": [
        {
          "authorId": "2268288089",
          "name": "Jaeyoon Kim"
        },
        {
          "authorId": "1784670",
          "name": "Yoonki Cho"
        },
        {
          "authorId": "2273820006",
          "name": "Taeyong Kim"
        },
        {
          "authorId": "2331463016",
          "name": "Sung-eui Yoon"
        }
      ]
    },
    {
      "paperId": "d238818705722829c08c054bcccac5e08d99f34a",
      "externalIds": {
        "DOI": "10.1109/ICBAIE59714.2023.10281331",
        "CorpusId": 264294142
      },
      "url": "https://www.semanticscholar.org/paper/d238818705722829c08c054bcccac5e08d99f34a",
      "title": "VRLVMix: Combating Noisy Labels with Sample Selection based on Loss Variation",
      "venue": "2023 4th International Conference on Big Data, Artificial Intelligence and Internet of Things Engineering (ICBAIE)",
      "year": 2023,
      "referenceCount": 54,
      "citationCount": 0,
      "authors": [
        {
          "authorId": "2113219628",
          "name": "Hailun Wang"
        },
        {
          "authorId": "2242966439",
          "name": "Zhengzheng Tu"
        },
        {
          "authorId": "2258471483",
          "name": "Bo Jiang"
        },
        {
          "authorId": "1643675519",
          "name": "Yuhe Ding"
        }
      ]
    }
  ]
}