{
  "total": 12672,
  "offset": 0,
  "next": 10,
  "data": [
    {
      "paperId": "573cffbf49069037a2fb73f671809ad2b3f0cafb",
      "externalIds": {
        "ArXiv": "1506.04782",
        "DBLP": "journals/corr/HanawalSVM15",
        "MAG": "2294739201",
        "CorpusId": 9298468
      },
      "url": "https://www.semanticscholar.org/paper/573cffbf49069037a2fb73f671809ad2b3f0cafb",
      "title": "Cheap Bandits",
      "venue": "International Conference on Machine Learning",
      "year": 2015,
      "referenceCount": 35,
      "citationCount": 31,
      "authors": [
        {
          "authorId": "2098597",
          "name": "M. Hanawal"
        },
        {
          "authorId": "1699322",
          "name": "Venkatesh Saligrama"
        },
        {
          "authorId": "1806291",
          "name": "Michal Valko"
        },
        {
          "authorId": "1708654",
          "name": "R. Munos"
        }
      ]
    },
    {
      "paperId": "e5da5e6b95be07bab2d62682a447a602f6a69898",
      "externalIds": {
        "CorpusId": 9744014
      },
      "url": "https://www.semanticscholar.org/paper/e5da5e6b95be07bab2d62682a447a602f6a69898",
      "title": "Supplementary Material : Cheap Bandits 1 . Proof of Proposition 1",
      "venue": "",
      "year": 2015,
      "referenceCount": 7,
      "citationCount": 0,
      "authors": []
    },
    {
      "paperId": "5171da66f87d735987bfe8515fe5237307f82596",
      "externalIds": {
        "MAG": "2950113463",
        "ArXiv": "1502.02763",
        "DBLP": "journals/corr/KvetonSWA15",
        "CorpusId": 1537525
      },
      "url": "https://www.semanticscholar.org/paper/5171da66f87d735987bfe8515fe5237307f82596",
      "title": "Cascading Bandits: Learning to Rank in the Cascade Model",
      "venue": "International Conference on Machine Learning",
      "year": 2015,
      "referenceCount": 30,
      "citationCount": 297,
      "authors": [
        {
          "authorId": "1681967",
          "name": "B. Kveton"
        },
        {
          "authorId": "40868287",
          "name": "Csaba Szepesvari"
        },
        {
          "authorId": "39761651",
          "name": "Zheng Wen"
        },
        {
          "authorId": "1715458",
          "name": "Azin Ashkan"
        }
      ]
    },
    {
      "paperId": "7282c7f7f138bc79f8eb5482020684424433a4f2",
      "externalIds": {
        "MAG": "2139805416",
        "DBLP": "conf/icml/KandasamySP15",
        "ArXiv": "1503.01673",
        "CorpusId": 9618037
      },
      "url": "https://www.semanticscholar.org/paper/7282c7f7f138bc79f8eb5482020684424433a4f2",
      "title": "High Dimensional Bayesian Optimisation and Bandits via Additive Models",
      "venue": "International Conference on Machine Learning",
      "year": 2015,
      "referenceCount": 43,
      "citationCount": 406,
      "authors": [
        {
          "authorId": "1887808",
          "name": "Kirthevasan Kandasamy"
        },
        {
          "authorId": "1753432",
          "name": "J. Schneider"
        },
        {
          "authorId": "1719347",
          "name": "B. Póczos"
        }
      ]
    },
    {
      "paperId": "fbb2b34ecc10cf514b7b78fbba3ac1a6edcd8030",
      "externalIds": {
        "MAG": "2962838655",
        "ArXiv": "1507.06738",
        "DBLP": "conf/nips/AgrawalD16",
        "CorpusId": 7061528
      },
      "url": "https://www.semanticscholar.org/paper/fbb2b34ecc10cf514b7b78fbba3ac1a6edcd8030",
      "title": "Linear Contextual Bandits with Knapsacks",
      "venue": "Neural Information Processing Systems",
      "year": 2015,
      "referenceCount": 39,
      "citationCount": 167,
      "authors": [
        {
          "authorId": "1703744",
          "name": "Shipra Agrawal"
        },
        {
          "authorId": "7692691",
          "name": "Nikhil R. Devanur"
        }
      ]
    },
    {
      "paperId": "5e0531c9ab0150a0bcb8f2b86cd44fc6075834fb",
      "externalIds": {
        "MAG": "1951936954",
        "ArXiv": "1502.06362",
        "DBLP": "journals/corr/DudikHSSZ15",
        "CorpusId": 2913015
      },
      "url": "https://www.semanticscholar.org/paper/5e0531c9ab0150a0bcb8f2b86cd44fc6075834fb",
      "title": "Contextual Dueling Bandits",
      "venue": "Annual Conference Computational Learning Theory",
      "year": 2015,
      "referenceCount": 30,
      "citationCount": 153,
      "authors": [
        {
          "authorId": "144652072",
          "name": "Miroslav Dudík"
        },
        {
          "authorId": "145186674",
          "name": "Katja Hofmann"
        },
        {
          "authorId": "1716301",
          "name": "R. Schapire"
        },
        {
          "authorId": "2158559",
          "name": "Aleksandrs Slivkins"
        },
        {
          "authorId": "36572609",
          "name": "M. Zoghi"
        }
      ]
    },
    {
      "paperId": "239c953a3ac6849451b21a58758b61d1b603889c",
      "externalIds": {
        "CorpusId": 1364437
      },
      "url": "https://www.semanticscholar.org/paper/239c953a3ac6849451b21a58758b61d1b603889c",
      "title": "Tight Regret Bounds for Stochastic Combinatorial Semi-Bandits",
      "venue": "",
      "year": 2015,
      "referenceCount": 0,
      "citationCount": 280,
      "authors": [
        {
          "authorId": "2087928348",
          "name": "Wtt Wtt"
        }
      ]
    },
    {
      "paperId": "9520b741f8d20b26ae5703dc3138db59ad9e522a",
      "externalIds": {
        "MAG": "2167331200",
        "DBLP": "conf/nips/CombesSPL15",
        "CorpusId": 9697688
      },
      "url": "https://www.semanticscholar.org/paper/9520b741f8d20b26ae5703dc3138db59ad9e522a",
      "title": "Combinatorial Bandits Revisited",
      "venue": "Neural Information Processing Systems",
      "year": 2015,
      "referenceCount": 37,
      "citationCount": 233,
      "authors": [
        {
          "authorId": "144344665",
          "name": "Richard Combes"
        },
        {
          "authorId": "47181013",
          "name": "M. S. Talebi"
        },
        {
          "authorId": "1745481",
          "name": "A. Proutière"
        },
        {
          "authorId": "1801397",
          "name": "M. Lelarge"
        }
      ]
    },
    {
      "paperId": "71be31d0a28ccb5acf85b43132953943a9009074",
      "externalIds": {
        "MAG": "1630558870",
        "ArXiv": "1507.04208",
        "DBLP": "conf/nips/KvetonWAS15",
        "CorpusId": 1083153
      },
      "url": "https://www.semanticscholar.org/paper/71be31d0a28ccb5acf85b43132953943a9009074",
      "title": "Combinatorial Cascading Bandits",
      "venue": "Neural Information Processing Systems",
      "year": 2015,
      "referenceCount": 22,
      "citationCount": 114,
      "authors": [
        {
          "authorId": "1681967",
          "name": "B. Kveton"
        },
        {
          "authorId": "39761651",
          "name": "Zheng Wen"
        },
        {
          "authorId": "1715458",
          "name": "Azin Ashkan"
        },
        {
          "authorId": "40868287",
          "name": "Csaba Szepesvari"
        }
      ]
    },
    {
      "paperId": "f1a8c6ec6d9e54cbc0bb96ec73a5f47a49189b86",
      "externalIds": {
        "MAG": "2951371685",
        "ArXiv": "1506.03271",
        "DBLP": "journals/corr/Neu15a",
        "CorpusId": 5846129
      },
      "url": "https://www.semanticscholar.org/paper/f1a8c6ec6d9e54cbc0bb96ec73a5f47a49189b86",
      "title": "Explore no more: Improved high-probability regret bounds for non-stochastic bandits",
      "venue": "Neural Information Processing Systems",
      "year": 2015,
      "referenceCount": 29,
      "citationCount": 204,
      "authors": [
        {
          "authorId": "1741549",
          "name": "Gergely Neu"
        }
      ]
    }
  ]
}