{
  "total": 55,
  "offset": 0,
  "next": 10,
  "data": [
    {
      "paperId": "098388c08ef7d23ab583819b793b0057c0396dc8",
      "externalIds": {
        "DBLP": "conf/icml/UbaruMS15",
        "MAG": "1870871427",
        "CorpusId": 7369990
      },
      "url": "https://www.semanticscholar.org/paper/098388c08ef7d23ab583819b793b0057c0396dc8",
      "title": "Low Rank Approximation using Error Correcting Coding Matrices",
      "venue": "International Conference on Machine Learning",
      "year": 2015,
      "referenceCount": 36,
      "citationCount": 12,
      "authors": [
        {
          "authorId": "2855794",
          "name": "Shashanka Ubaru"
        },
        {
          "authorId": "143764713",
          "name": "A. Mazumdar"
        },
        {
          "authorId": "1765199",
          "name": "Y. Saad"
        }
      ]
    },
    {
      "paperId": "b7dc15efe71d39dc27976f5c4d2e7a59445c5322",
      "externalIds": {
        "MAG": "3106046840",
        "ArXiv": "1512.09156",
        "DBLP": "journals/tit/UbaruMS17",
        "DOI": "10.1109/TIT.2017.2723898",
        "CorpusId": 1814892
      },
      "url": "https://www.semanticscholar.org/paper/b7dc15efe71d39dc27976f5c4d2e7a59445c5322",
      "title": "Low Rank Approximation and Decomposition of Large Matrices Using Error Correcting Codes",
      "venue": "IEEE Transactions on Information Theory",
      "year": 2015,
      "referenceCount": 61,
      "citationCount": 11,
      "authors": [
        {
          "authorId": "2855794",
          "name": "Shashanka Ubaru"
        },
        {
          "authorId": "143764713",
          "name": "A. Mazumdar"
        },
        {
          "authorId": "1765199",
          "name": "Y. Saad"
        }
      ]
    },
    {
      "paperId": "21200e23bac40d59eed9c6c5e1f639cc887abf4e",
      "externalIds": {
        "CorpusId": 12915970
      },
      "url": "https://www.semanticscholar.org/paper/21200e23bac40d59eed9c6c5e1f639cc887abf4e",
      "title": "Stat 260 / CS 294 : Randomized Algorithms for Matrices and Data Lecture 14-10 / 21 / 2013 Lecture 14 : Additive-error Low-rank Matrix Approximation with Sampling and Projections",
      "venue": "",
      "year": 2015,
      "referenceCount": 0,
      "citationCount": 0,
      "authors": [
        {
          "authorId": "143884212",
          "name": "Michael Mahoney"
        }
      ]
    },
    {
      "paperId": "5b9b7e46da55e6ee90e4a6d45e5866306395cdc0",
      "externalIds": {
        "MAG": "2017370464",
        "DOI": "10.1134/S1054661815010125",
        "CorpusId": 731066
      },
      "url": "https://www.semanticscholar.org/paper/5b9b7e46da55e6ee90e4a6d45e5866306395cdc0",
      "title": "Incremental generalized low rank approximation of matrices for visual learning and recognition",
      "venue": "Pattern Recognition and Image Analysis",
      "year": 2015,
      "referenceCount": 11,
      "citationCount": 8,
      "authors": [
        {
          "authorId": "2690306",
          "name": "H. Nakouri"
        },
        {
          "authorId": "2643011",
          "name": "M. Limam"
        }
      ]
    },
    {
      "paperId": "a65301ec723dfac73c1e884d26dedeb4de309429",
      "externalIds": {
        "DOI": "10.1134/S1054661815010125",
        "CorpusId": 255270523
      },
      "url": "https://www.semanticscholar.org/paper/a65301ec723dfac73c1e884d26dedeb4de309429",
      "title": "Incremental generalized low rank approximation of matrices for visual learning and recognition",
      "venue": "Pattern Recognition and Image Analysis",
      "year": 2015,
      "referenceCount": 0,
      "citationCount": 0,
      "authors": [
        {
          "authorId": "2690306",
          "name": "H. Nakouri"
        },
        {
          "authorId": "103082657",
          "name": "M. Limam"
        }
      ]
    },
    {
      "paperId": "500dc9bafcd088e1c124deb090356731cd6194be",
      "externalIds": {
        "DBLP": "journals/tcsv/HouCMH17",
        "MAG": "2953064603",
        "DOI": "10.1109/TCSVT.2015.2513698",
        "CorpusId": 14724665
      },
      "url": "https://www.semanticscholar.org/paper/500dc9bafcd088e1c124deb090356731cd6194be",
      "title": "Sparse Low-Rank Matrix Approximation for Data Compression",
      "venue": "IEEE transactions on circuits and systems for video technology (Print)",
      "year": 2015,
      "referenceCount": 50,
      "citationCount": 35,
      "authors": [
        {
          "authorId": "40630305",
          "name": "Junhui Hou"
        },
        {
          "authorId": "145662587",
          "name": "Lap-Pui Chau"
        },
        {
          "authorId": "1387241200",
          "name": "N. Magnenat-Thalmann"
        },
        {
          "authorId": "144984514",
          "name": "Ying He"
        }
      ]
    },
    {
      "paperId": "221aef61ba240c04bf52eb2525edaa501dcae0b7",
      "externalIds": {
        "DBLP": "journals/kbs/ZhangYZL15",
        "MAG": "580109248",
        "DOI": "10.1016/j.knosys.2015.06.001",
        "CorpusId": 38298716
      },
      "url": "https://www.semanticscholar.org/paper/221aef61ba240c04bf52eb2525edaa501dcae0b7",
      "title": "Bilinear low-rank coding framework and extension for robust image recovery and feature representation",
      "venue": "Knowledge-Based Systems",
      "year": 2015,
      "referenceCount": 56,
      "citationCount": 19,
      "authors": [
        {
          "authorId": "72871365",
          "name": "Zhao Zhang"
        },
        {
          "authorId": "143653681",
          "name": "Shuicheng Yan"
        },
        {
          "authorId": "2482149",
          "name": "Mingbo Zhao"
        },
        {
          "authorId": "2314391",
          "name": "Fanzhang Li"
        }
      ]
    },
    {
      "paperId": "1176a59e37e0c8a440d0723e3cf652d3955462b8",
      "externalIds": {
        "DBLP": "journals/dcc/Martinez-PenasP17",
        "ArXiv": "1512.08144",
        "MAG": "2275724313",
        "DOI": "10.1007/s10623-016-0284-6",
        "CorpusId": 5942634
      },
      "url": "https://www.semanticscholar.org/paper/1176a59e37e0c8a440d0723e3cf652d3955462b8",
      "title": "Rank error-correcting pairs",
      "venue": "Designs, Codes and Cryptography",
      "year": 2015,
      "referenceCount": 30,
      "citationCount": 5,
      "authors": [
        {
          "authorId": "1403858491",
          "name": "Umberto Martínez-Peñas"
        },
        {
          "authorId": "1742612",
          "name": "R. Pellikaan"
        }
      ]
    },
    {
      "paperId": "795d9763eb5320fc4831c435904e8941c7202843",
      "externalIds": {
        "DBLP": "phd/ndltd/Guo15",
        "MAG": "2277182544",
        "CorpusId": 28914741
      },
      "url": "https://www.semanticscholar.org/paper/795d9763eb5320fc4831c435904e8941c7202843",
      "title": "New error correcting codes from lifting",
      "venue": "",
      "year": 2015,
      "referenceCount": 45,
      "citationCount": 0,
      "authors": [
        {
          "authorId": "39169968",
          "name": "Alan J. X. Guo"
        }
      ]
    },
    {
      "paperId": "ab7a62cad2c7c769bae5b3eb322c216146bcdae9",
      "externalIds": {
        "DBLP": "journals/iet-com/EsmaeiliG15",
        "MAG": "658016334",
        "DOI": "10.1049/iet-com.2015.0026",
        "CorpusId": 21033601
      },
      "url": "https://www.semanticscholar.org/paper/ab7a62cad2c7c769bae5b3eb322c216146bcdae9",
      "title": "Joint channel coding-cryptography based on random insertions and deletions in quasi-cyclic-low-density parity check codes",
      "venue": "IET Communications",
      "year": 2015,
      "referenceCount": 20,
      "citationCount": 15,
      "authors": [
        {
          "authorId": "2273292829",
          "name": "Mostafa Esmaeili"
        },
        {
          "authorId": "2246301732",
          "name": "T. Gulliver"
        }
      ]
    }
  ]
}