{
  "total": 1830,
  "offset": 0,
  "next": 10,
  "data": [
    {
      "paperId": "03135b76577c31fce2c1c004806129c3dd126bf5",
      "externalIds": {
        "DBLP": "conf/icml/XieZCC18",
        "MAG": "2803297029",
        "CorpusId": 51869182
      },
      "url": "https://www.semanticscholar.org/paper/03135b76577c31fce2c1c004806129c3dd126bf5",
      "title": "Learning Semantic Representations for Unsupervised Domain Adaptation",
      "venue": "International Conference on Machine Learning",
      "year": 2018,
      "referenceCount": 39,
      "citationCount": 527,
      "authors": [
        {
          "authorId": "25106675",
          "name": "Shaoan Xie"
        },
        {
          "authorId": "144291579",
          "name": "Zibin Zheng"
        },
        {
          "authorId": "1853048147",
          "name": "Liang Chen"
        },
        {
          "authorId": "50434146",
          "name": "Chuan Chen"
        }
      ]
    },
    {
      "paperId": "af935bf26101b71b2a7b4eebc0aad991de3afaba",
      "externalIds": {
        "DOI": "10.1109/ESDC56251.2023.10149872",
        "CorpusId": 259300081
      },
      "url": "https://www.semanticscholar.org/paper/af935bf26101b71b2a7b4eebc0aad991de3afaba",
      "title": "Learning Semantic Representations and Discriminative Features in Unsupervised Domain Adaptation",
      "venue": "2023 11th International Symposium on Electronic Systems Devices and Computing (ESDC)",
      "year": 2023,
      "referenceCount": 28,
      "citationCount": 0,
      "authors": [
        {
          "authorId": "2220905846",
          "name": "Rushendra Sidibomma"
        },
        {
          "authorId": "50846717",
          "name": "R. Sanodiya"
        }
      ]
    },
    {
      "paperId": "d445c48898840e8be298119d9c3640450f2f9815",
      "externalIds": {
        "ArXiv": "2506.11493",
        "DBLP": "conf/cvpr/VuongPVBD0P25",
        "DOI": "10.1109/CVPR52734.2025.01860",
        "CorpusId": 279391392
      },
      "url": "https://www.semanticscholar.org/paper/d445c48898840e8be298119d9c3640450f2f9815",
      "title": "Preserving Clusters in Prompt Learning for Unsupervised Domain Adaptation",
      "venue": "Computer Vision and Pattern Recognition",
      "year": 2025,
      "referenceCount": 65,
      "citationCount": 7,
      "authors": [
        {
          "authorId": "67329496",
          "name": "Tung-Long Vuong"
        },
        {
          "authorId": "2111857252",
          "name": "Hoang Phan"
        },
        {
          "authorId": "2286320982",
          "name": "Vy Vo"
        },
        {
          "authorId": "2007884558",
          "name": "Anh-Vu Bui"
        },
        {
          "authorId": "2277602586",
          "name": "Thanh-Toan Do"
        },
        {
          "authorId": "2249909946",
          "name": "Trung Le"
        },
        {
          "authorId": "1400659302",
          "name": "Dinh Q. Phung"
        }
      ]
    },
    {
      "paperId": "815932981cbf8ec3b8849de97fbe16829935eca9",
      "externalIds": {
        "DBLP": "journals/es/RodriguezSanchezCP25",
        "DOI": "10.1111/exsy.13763",
        "CorpusId": 273643499
      },
      "url": "https://www.semanticscholar.org/paper/815932981cbf8ec3b8849de97fbe16829935eca9",
      "title": "Leveraging Unsupervised Task Adaptation and Semi‐Supervised Learning With Semantic‐Enriched Representations for Online Sexism Detection",
      "venue": "Expert Syst. J. Knowl. Eng.",
      "year": 2024,
      "referenceCount": 46,
      "citationCount": 2,
      "authors": [
        {
          "authorId": "2257218037",
          "name": "Francisco J. Rodríguez-Sanchez"
        },
        {
          "authorId": "1410230608",
          "name": "Jorge Carrillo-de-Albornoz"
        },
        {
          "authorId": "2062871058",
          "name": "Laura Plaza"
        }
      ]
    },
    {
      "paperId": "200f6aa24f2b40e2aaf1e9becc580bbbd19d0061",
      "externalIds": {
        "DBLP": "journals/corr/abs-2512-12303",
        "ArXiv": "2512.12303",
        "DOI": "10.48550/arXiv.2512.12303",
        "CorpusId": 283897355
      },
      "url": "https://www.semanticscholar.org/paper/200f6aa24f2b40e2aaf1e9becc580bbbd19d0061",
      "title": "OMUDA: Omni-level Masking for Unsupervised Domain Adaptation in Semantic Segmentation",
      "venue": "arXiv.org",
      "year": 2025,
      "referenceCount": 75,
      "citationCount": 1,
      "authors": [
        {
          "authorId": "2060944407",
          "name": "Yangyiwen Ou"
        },
        {
          "authorId": "2162228470",
          "name": "Xiongwei Zhao"
        },
        {
          "authorId": "2332525717",
          "name": "Xinye Yang"
        },
        {
          "authorId": "2398588539",
          "name": "Yihan Wang"
        },
        {
          "authorId": "2320310359",
          "name": "Yichen Di"
        },
        {
          "authorId": "2398805097",
          "name": "Rong Yuan"
        },
        {
          "authorId": "2390399331",
          "name": "Xieyuanli Chen"
        },
        {
          "authorId": "2398798671",
          "name": "Xu Zhu"
        }
      ]
    },
    {
      "paperId": "52654b3d964bf84928ebe70d5faecbf965e83321",
      "externalIds": {
        "DBLP": "journals/corr/abs-2511-05782",
        "ArXiv": "2511.05782",
        "DOI": "10.48550/arXiv.2511.05782",
        "CorpusId": 282911755
      },
      "url": "https://www.semanticscholar.org/paper/52654b3d964bf84928ebe70d5faecbf965e83321",
      "title": "TCSA-UDA: Text-Driven Cross-Semantic Alignment for Unsupervised Domain Adaptation in Medical Image Segmentation",
      "venue": "arXiv.org",
      "year": 2025,
      "referenceCount": 37,
      "citationCount": 0,
      "authors": [
        {
          "authorId": "3469993",
          "name": "Lalit Maurya"
        },
        {
          "authorId": "2391767536",
          "name": "Honghai Liu"
        },
        {
          "authorId": "1692038",
          "name": "R. Zwiggelaar"
        }
      ]
    },
    {
      "paperId": "9344203f3f58ad5603b0749f4ea347348aab659a",
      "externalIds": {
        "DOI": "10.1109/EEE64897.2025.11162898",
        "CorpusId": 281510149
      },
      "url": "https://www.semanticscholar.org/paper/9344203f3f58ad5603b0749f4ea347348aab659a",
      "title": "Uniform Clustering Based Unsupervised Domain Adaptation for Semantic Segmentation",
      "venue": "International Conference on E-Learning, E-Business, Enterprise Information Systems, & E-Government",
      "year": 2025,
      "referenceCount": 54,
      "citationCount": 0,
      "authors": [
        {
          "authorId": "2244146312",
          "name": "Jun Han"
        },
        {
          "authorId": "67344863",
          "name": "Anjie Fan"
        },
        {
          "authorId": "2053993001",
          "name": "Chao Cai"
        },
        {
          "authorId": "2243979094",
          "name": "Wenjie Pan"
        },
        {
          "authorId": "123654953",
          "name": "Haofei Chen"
        }
      ]
    },
    {
      "paperId": "50018797d4dfe7f77d3c331a9af51c83b599679f",
      "externalIds": {
        "DBLP": "journals/corr/abs-2302-01708",
        "ArXiv": "2302.01708",
        "DOI": "10.1109/IJCNN54540.2023.10191498",
        "CorpusId": 256597883
      },
      "url": "https://www.semanticscholar.org/paper/50018797d4dfe7f77d3c331a9af51c83b599679f",
      "title": "Crucial Semantic Classifier-based Adversarial Learning for Unsupervised Domain Adaptation",
      "venue": "IEEE International Joint Conference on Neural Network",
      "year": 2023,
      "referenceCount": 60,
      "citationCount": 0,
      "authors": [
        {
          "authorId": "2142962639",
          "name": "Yumin Zhang"
        },
        {
          "authorId": null,
          "name": "Yajun Gao"
        },
        {
          "authorId": "2115563835",
          "name": "Hongliu Li"
        },
        {
          "authorId": "2158928758",
          "name": "Ating Yin"
        },
        {
          "authorId": "2109577329",
          "name": "Duzhen Zhang"
        },
        {
          "authorId": "30917866",
          "name": "Xiuyi Chen"
        }
      ]
    },
    {
      "paperId": "1ae88f36d96d06f8ca8904c4404dbc13a0fc20e6",
      "externalIds": {
        "DBLP": "journals/tgrs/SunZLHL25",
        "DOI": "10.1109/TGRS.2025.3613701",
        "CorpusId": 281533515
      },
      "url": "https://www.semanticscholar.org/paper/1ae88f36d96d06f8ca8904c4404dbc13a0fc20e6",
      "title": "GRLDASeg: Unsupervised Domain Adaptive Semantic Segmentation of High Spatial Resolution Remote Sensing Imagery Based on General Representation Learning",
      "venue": "IEEE Transactions on Geoscience and Remote Sensing",
      "year": 2025,
      "referenceCount": 52,
      "citationCount": 0,
      "authors": [
        {
          "authorId": "2303052369",
          "name": "Wenjie Sun"
        },
        {
          "authorId": "2303459299",
          "name": "Jie Zhang"
        },
        {
          "authorId": "2238397701",
          "name": "Yujie Lei"
        },
        {
          "authorId": "2333357604",
          "name": "Danfeng Hong"
        },
        {
          "authorId": "2243224925",
          "name": "Qingquan Li"
        }
      ]
    },
    {
      "paperId": "5fabcecf817261d38a6bccfd3c8ba6fc97873c97",
      "externalIds": {
        "ArXiv": "2008.10464",
        "DBLP": "journals/corr/abs-2008-10464",
        "MAG": "3080098971",
        "DOI": "10.1007/978-3-030-58598-3_44",
        "CorpusId": 221265908
      },
      "url": "https://www.semanticscholar.org/paper/5fabcecf817261d38a6bccfd3c8ba6fc97873c97",
      "title": "CSCL: Critical Semantic-Consistent Learning for Unsupervised Domain Adaptation",
      "venue": "European Conference on Computer Vision",
      "year": 2020,
      "referenceCount": 48,
      "citationCount": 46,
      "authors": [
        {
          "authorId": "46436215",
          "name": "Jiahua Dong"
        },
        {
          "authorId": "145702758",
          "name": "Yang Cong"
        },
        {
          "authorId": "7332901",
          "name": "Gan Sun"
        },
        {
          "authorId": "2116382754",
          "name": "Yuyang Liu"
        },
        {
          "authorId": "48670688",
          "name": "Xiaowei Xu"
        }
      ]
    }
  ]
}