{
  "total": 35292,
  "offset": 0,
  "next": 10,
  "data": [
    {
      "paperId": "98e8b2f6a8583e83ce0159dd29cf5d848adcbd24",
      "externalIds": {
        "MAG": "2963847403",
        "ArXiv": "1703.07950",
        "DBLP": "conf/icml/Shalev-ShwartzS17",
        "CorpusId": 7403403
      },
      "url": "https://www.semanticscholar.org/paper/98e8b2f6a8583e83ce0159dd29cf5d848adcbd24",
      "title": "Failures of Gradient-Based Deep Learning",
      "venue": "International Conference on Machine Learning",
      "year": 2017,
      "referenceCount": 36,
      "citationCount": 226,
      "authors": [
        {
          "authorId": "1389955537",
          "name": "S. Shalev-Shwartz"
        },
        {
          "authorId": "1768909",
          "name": "Ohad Shamir"
        },
        {
          "authorId": "40364567",
          "name": "Shaked Shammah"
        }
      ]
    },
    {
      "paperId": "ec484581fd0dde1ef4a94473bca1aad65d7568d6",
      "externalIds": {
        "CorpusId": 260553612
      },
      "url": "https://www.semanticscholar.org/paper/ec484581fd0dde1ef4a94473bca1aad65d7568d6",
      "title": "Failures of Gradient-Based Deep Learning",
      "venue": "",
      "year": 2017,
      "referenceCount": 0,
      "citationCount": 2,
      "authors": []
    },
    {
      "paperId": "a28b31f23f999f6dc13dfe41eadfad33d4e3c4f0",
      "externalIds": {
        "DBLP": "journals/fcomp/NoyoriWFOKN23",
        "DOI": "10.3389/fcomp.2023.1032440",
        "CorpusId": 259597668
      },
      "url": "https://www.semanticscholar.org/paper/a28b31f23f999f6dc13dfe41eadfad33d4e3c4f0",
      "title": "Deep learning and gradient-based extraction of bug report features related to bug fixing time",
      "venue": "Frontiers Comput. Sci.",
      "year": 2023,
      "referenceCount": 35,
      "citationCount": 3,
      "authors": [
        {
          "authorId": "47330477",
          "name": "Yuki Noyori"
        },
        {
          "authorId": "1794290",
          "name": "H. Washizaki"
        },
        {
          "authorId": "1759835",
          "name": "Y. Fukazawa"
        },
        {
          "authorId": "2046171065",
          "name": "Keishi Ooshima"
        },
        {
          "authorId": "35990447",
          "name": "Hideyuki Kanuka"
        },
        {
          "authorId": "1379726831",
          "name": "Shuhei Nojiri"
        }
      ]
    },
    {
      "paperId": "df8be367dd19c8459b74b3aa320d174d409d4224",
      "externalIds": {
        "DOI": "10.1007/s10346-025-02613-9",
        "CorpusId": 284554039
      },
      "url": "https://www.semanticscholar.org/paper/df8be367dd19c8459b74b3aa320d174d409d4224",
      "title": "InSAR-based deep learning prediction model for multi-type landslides displacement and failure time in Zigui, Three Gorges Area, China",
      "venue": "Landslides",
      "year": 2025,
      "referenceCount": 61,
      "citationCount": 2,
      "authors": [
        {
          "authorId": "2149474487",
          "name": "Xudong Hu"
        },
        {
          "authorId": "2403426040",
          "name": "Zimo Sun"
        },
        {
          "authorId": "2117974620",
          "name": "Zhenjie Wang"
        },
        {
          "authorId": "2116885851",
          "name": "Xiaoyi Huang"
        },
        {
          "authorId": "2346891628",
          "name": "Mingtao Zhou"
        },
        {
          "authorId": "108413064",
          "name": "Songtang He"
        },
        {
          "authorId": "2376208537",
          "name": "Hai Xiao"
        },
        {
          "authorId": "2306572712",
          "name": "Daxiang Liu"
        },
        {
          "authorId": "51090468",
          "name": "Y. Yang"
        },
        {
          "authorId": "2359020733",
          "name": "Wennian Xu"
        }
      ]
    },
    {
      "paperId": "a923aa494fd20e57eb12448c73328804331a12f1",
      "externalIds": {
        "DOI": "10.1088/1742-6596/3019/1/012074",
        "CorpusId": 279171091
      },
      "url": "https://www.semanticscholar.org/paper/a923aa494fd20e57eb12448c73328804331a12f1",
      "title": "Research on fault prediction models based on deep learning",
      "venue": "Journal of Physics: Conference Series",
      "year": 2025,
      "referenceCount": 5,
      "citationCount": 0,
      "authors": [
        {
          "authorId": "2318517507",
          "name": "Jinke Liu"
        },
        {
          "authorId": "2337031066",
          "name": "Tao Bian"
        },
        {
          "authorId": "2366144395",
          "name": "Pengyu Chen"
        },
        {
          "authorId": "2365997730",
          "name": "Ximing Zhu"
        }
      ]
    },
    {
      "paperId": "87082cb370cad1e146617c86dcabc1f612c7fcaf",
      "externalIds": {
        "DBLP": "journals/peerj-cs/BaiYZ25",
        "DOI": "10.7717/peerj-cs.3289",
        "CorpusId": 283614058
      },
      "url": "https://www.semanticscholar.org/paper/87082cb370cad1e146617c86dcabc1f612c7fcaf",
      "title": "A deep learning-based GAN-LSTM framework for friction failure detection and acoustic emission signal enhancement in machine engines",
      "venue": "PeerJ Computer Science",
      "year": 2025,
      "referenceCount": 26,
      "citationCount": 0,
      "authors": [
        {
          "authorId": "2396767838",
          "name": "Guojun Bai"
        },
        {
          "authorId": "2328017334",
          "name": "Yang Yu"
        },
        {
          "authorId": "2397292031",
          "name": "Yue Zhang"
        }
      ]
    },
    {
      "paperId": "a9ac430e0b8c86867feae6b7d2c33760a3c7190a",
      "externalIds": {
        "DOI": "10.3390/electronics13183723",
        "CorpusId": 272796024
      },
      "url": "https://www.semanticscholar.org/paper/a9ac430e0b8c86867feae6b7d2c33760a3c7190a",
      "title": "A Multi-Model Architecture Based on Deep Learning for Longitudinal Available Overload Prediction of Commercial Subsonic Aircraft with Actuator Faults",
      "venue": "Electronics",
      "year": 2024,
      "referenceCount": 31,
      "citationCount": 2,
      "authors": [
        {
          "authorId": "2322262807",
          "name": "Shengqiang Shan"
        },
        {
          "authorId": "2221140994",
          "name": "Yuehua Cheng"
        },
        {
          "authorId": "2253471185",
          "name": "Bin Jiang"
        },
        {
          "authorId": "2322488167",
          "name": "Cheng Xu"
        },
        {
          "authorId": "2221106934",
          "name": "Kun Guo"
        },
        {
          "authorId": "2322162047",
          "name": "Xingyu Lin"
        }
      ]
    },
    {
      "paperId": "9f62096d1935ad7b1e96beef09779ffaca74eb46",
      "externalIds": {
        "DOI": "10.1109/ICERCS57948.2023.10434234",
        "CorpusId": 267773855
      },
      "url": "https://www.semanticscholar.org/paper/9f62096d1935ad7b1e96beef09779ffaca74eb46",
      "title": "Fault Diagnosis Using a Resnet-based Deep Learning Multilayer Fault Detection Model",
      "venue": "2023 International Conference on Emerging Research in Computational Science (ICERCS)",
      "year": 2023,
      "referenceCount": 21,
      "citationCount": 0,
      "authors": [
        {
          "authorId": "2245943072",
          "name": "A. M. Abed"
        },
        {
          "authorId": "1389967890",
          "name": "M. Alkhafaji"
        },
        {
          "authorId": "2281407688",
          "name": "Aqeel Ali"
        },
        {
          "authorId": "2242621520",
          "name": "Noor Hanoon Haroon"
        },
        {
          "authorId": "2284080193",
          "name": "Safa Majed"
        },
        {
          "authorId": "2284887021",
          "name": "Z. Majeed"
        }
      ]
    },
    {
      "paperId": "1ac7b843b70e245c8676bf05cabeca803328609a",
      "externalIds": {
        "DOI": "10.1109/OTCON56053.2023.10114020",
        "CorpusId": 258583555
      },
      "url": "https://www.semanticscholar.org/paper/1ac7b843b70e245c8676bf05cabeca803328609a",
      "title": "Machine Learning and Deep Learning based Stock Market Prediction considering Covid-19 as a Feature",
      "venue": "2022 OPJU International Technology Conference on Emerging Technologies for Sustainable Development (OTCON)",
      "year": 2023,
      "referenceCount": 19,
      "citationCount": 2,
      "authors": [
        {
          "authorId": "2216653564",
          "name": "Bhaskar Mondal"
        },
        {
          "authorId": "98252023",
          "name": "A. Dandapat"
        }
      ]
    },
    {
      "paperId": "99111c34e02c04d611714ecee72d7f6b00b4152d",
      "externalIds": {
        "DOI": "10.1109/cac53003.2021.9728420",
        "CorpusId": 247470566
      },
      "url": "https://www.semanticscholar.org/paper/99111c34e02c04d611714ecee72d7f6b00b4152d",
      "title": "A hybrid method based deep learning approach for Predicting residual Life of Machinery",
      "venue": "ACM Cloud and Autonomic Computing Conference",
      "year": 2021,
      "referenceCount": 0,
      "citationCount": 1,
      "authors": [
        {
          "authorId": "2112620235",
          "name": "Hui Gao"
        },
        {
          "authorId": "2110470030",
          "name": "Yibin Li"
        },
        {
          "authorId": "145918926",
          "name": "Yan Song"
        },
        {
          "authorId": "2153928770",
          "name": "Qingwen Guo"
        },
        {
          "authorId": "30443023",
          "name": "Daichao Wang"
        }
      ]
    }
  ]
}