{
  "total": 9116,
  "offset": 0,
  "next": 10,
  "data": [
    {
      "paperId": "5072ae1d8449cb1e8589f090e0791d3c95b1ea08",
      "externalIds": {
        "DOI": "10.1117/1.OE.64.8.083102",
        "CorpusId": 280928811
      },
      "url": "https://www.semanticscholar.org/paper/5072ae1d8449cb1e8589f090e0791d3c95b1ea08",
      "title": "Speckle reduction in digital holography by fast adaptive three-operator splitting low-rank total variation filtering",
      "venue": "Optical Engineering: The Journal of SPIE",
      "year": 2025,
      "referenceCount": 31,
      "citationCount": 0,
      "authors": [
        {
          "authorId": "2348794526",
          "name": "Ping Dai"
        },
        {
          "authorId": "2348789589",
          "name": "Junmin Leng"
        },
        {
          "authorId": "2349605808",
          "name": "Chao Wang"
        },
        {
          "authorId": "2153606893",
          "name": "Yu Wang"
        }
      ]
    },
    {
      "paperId": "9ac9c5795a47230991a8b75b838daf905808609d",
      "externalIds": {
        "MAG": "2795962259",
        "DBLP": "conf/icml/PedregosaG18",
        "ArXiv": "1804.02339",
        "CorpusId": 4693405
      },
      "url": "https://www.semanticscholar.org/paper/9ac9c5795a47230991a8b75b838daf905808609d",
      "title": "Adaptive Three Operator Splitting",
      "venue": "International Conference on Machine Learning",
      "year": 2018,
      "referenceCount": 50,
      "citationCount": 37,
      "authors": [
        {
          "authorId": "2570016",
          "name": "Fabian Pedregosa"
        },
        {
          "authorId": "8150760",
          "name": "G. Gidel"
        }
      ]
    },
    {
      "paperId": "908b704d3aaf1dfcc2d9ba222454890025a44fe8",
      "externalIds": {
        "DBLP": "journals/corr/abs-2602-17545",
        "ArXiv": "2602.17545",
        "DOI": "10.48550/arXiv.2602.17545",
        "CorpusId": 285788066
      },
      "url": "https://www.semanticscholar.org/paper/908b704d3aaf1dfcc2d9ba222454890025a44fe8",
      "title": "Adaptive Decentralized Composite Optimization via Three-Operator Splitting",
      "venue": "arXiv.org",
      "year": 2026,
      "referenceCount": 36,
      "citationCount": 1,
      "authors": [
        {
          "authorId": "2335088121",
          "name": "Xiaokai Chen"
        },
        {
          "authorId": "1752829405",
          "name": "Ilya A. Kuruzov"
        },
        {
          "authorId": "1690788",
          "name": "G. Scutari"
        }
      ]
    },
    {
      "paperId": "afd6933a2c6cef8d791ecdbf57cc100a788c6756",
      "externalIds": {
        "DBLP": "conf/nips/YurtseverGS21",
        "ArXiv": "2110.03274",
        "CorpusId": 238419484
      },
      "url": "https://www.semanticscholar.org/paper/afd6933a2c6cef8d791ecdbf57cc100a788c6756",
      "title": "Three Operator Splitting with Subgradients, Stochastic Gradients, and Adaptive Learning Rates",
      "venue": "Neural Information Processing Systems",
      "year": 2021,
      "referenceCount": 61,
      "citationCount": 13,
      "authors": [
        {
          "authorId": "34119589",
          "name": "A. Yurtsever"
        },
        {
          "authorId": "2060030589",
          "name": "Alex Gu"
        },
        {
          "authorId": "3072326",
          "name": "S. Sra"
        }
      ]
    },
    {
      "paperId": "aaa3fd9b0afcbeb9d404d5da413f81632acc6c28",
      "externalIds": {
        "DOI": "10.1364/oe.465501",
        "CorpusId": 251753610,
        "PubMed": "36258483"
      },
      "url": "https://www.semanticscholar.org/paper/aaa3fd9b0afcbeb9d404d5da413f81632acc6c28",
      "title": "Elastic net-based non-negative iterative three-operator splitting strategy for Cerenkov luminescence tomography.",
      "venue": "Optics Express",
      "year": 2022,
      "referenceCount": 61,
      "citationCount": 6,
      "authors": [
        {
          "authorId": "2127628327",
          "name": "Yi Chen"
        },
        {
          "authorId": "2108791653",
          "name": "Weitong Li"
        },
        {
          "authorId": "147453995",
          "name": "Mengfei Du"
        },
        {
          "authorId": "2069855335",
          "name": "Linzhi Su"
        },
        {
          "authorId": "11425534",
          "name": "Huangjian Yi"
        },
        {
          "authorId": "46350775",
          "name": "Fengjun Zhao"
        },
        {
          "authorId": "2158261405",
          "name": "Kang Li"
        },
        {
          "authorId": "2144738405",
          "name": "Lin Wang"
        },
        {
          "authorId": "2149212488",
          "name": "Xin Cao"
        }
      ]
    },
    {
      "paperId": "f3b06f7a2cd73648913fdf079a639646b866480a",
      "externalIds": {
        "MAG": "2943824970",
        "ArXiv": "1904.12980",
        "CorpusId": 140229305
      },
      "url": "https://www.semanticscholar.org/paper/f3b06f7a2cd73648913fdf079a639646b866480a",
      "title": "Inertial Three-Operator Splitting Method and Applications.",
      "venue": "",
      "year": 2019,
      "referenceCount": 38,
      "citationCount": 0,
      "authors": [
        {
          "authorId": "1678641",
          "name": "V. Cevher"
        },
        {
          "authorId": "2332627",
          "name": "B. Vu"
        },
        {
          "authorId": "34119589",
          "name": "A. Yurtsever"
        }
      ]
    },
    {
      "paperId": "1eb6ffbc5ad3bcc76ba04361e9767d56435760c9",
      "externalIds": {
        "DBLP": "journals/cma/WangXF22",
        "DOI": "10.1016/j.camwa.2022.06.015",
        "CorpusId": 250362429
      },
      "url": "https://www.semanticscholar.org/paper/1eb6ffbc5ad3bcc76ba04361e9767d56435760c9",
      "title": "An efficient maximum bound principle preserving p-adaptive operator-splitting method for three-dimensional phase field shape transformation model",
      "venue": "Computers and Mathematics with Applications",
      "year": 2022,
      "referenceCount": 39,
      "citationCount": 16,
      "authors": [
        {
          "authorId": "2152550916",
          "name": "Yan Wang"
        },
        {
          "authorId": "3192854",
          "name": "Xufeng Xiao"
        },
        {
          "authorId": "1758264",
          "name": "Xinlong Feng"
        }
      ]
    },
    {
      "paperId": "54f983c4525acd4d47620ce73374c12441d410b7",
      "externalIds": {
        "ArXiv": "2302.01092",
        "CorpusId": 256503799
      },
      "url": "https://www.semanticscholar.org/paper/54f983c4525acd4d47620ce73374c12441d410b7",
      "title": "Construction of adaptive exponential multi-operator splitting methods",
      "venue": "",
      "year": 2023,
      "referenceCount": 21,
      "citationCount": 0,
      "authors": [
        {
          "authorId": "1710212",
          "name": "O. Koch"
        },
        {
          "authorId": "2203908635",
          "name": "Koray Acar"
        },
        {
          "authorId": "98514950",
          "name": "W. Auzinger"
        },
        {
          "authorId": "2349459496",
          "name": "Daniel Hoffmann"
        },
        {
          "authorId": "2160775",
          "name": "F. Kupka"
        },
        {
          "authorId": "2064375336",
          "name": "B. Moser"
        }
      ]
    },
    {
      "paperId": "7488072d22f472cd11c7fffbb26398f9c0f3da49",
      "externalIds": {
        "DOI": "10.1002/cnm.3670",
        "CorpusId": 254677608,
        "PubMed": "36510350"
      },
      "url": "https://www.semanticscholar.org/paper/7488072d22f472cd11c7fffbb26398f9c0f3da49",
      "title": "A simple and efficient adaptive time stepping technique for low‐order operator splitting schemes applied to cardiac electrophysiology",
      "venue": "International Journal for Numerical Methods in Biomedical Engineering",
      "year": 2022,
      "referenceCount": 73,
      "citationCount": 2,
      "authors": [
        {
          "authorId": "117468629",
          "name": "Dennis Ogiermann"
        },
        {
          "authorId": "145349170",
          "name": "L. Perotti"
        },
        {
          "authorId": "7289915",
          "name": "D. Balzani"
        }
      ]
    },
    {
      "paperId": "a1e31963a0e1d8293f2657f617c3fe8d09ce104d",
      "externalIds": {
        "DOI": "10.1186/s13663-021-00701-8",
        "CorpusId": 238255306
      },
      "url": "https://www.semanticscholar.org/paper/a1e31963a0e1d8293f2657f617c3fe8d09ce104d",
      "title": "An adaptive splitting algorithm for the sum of two generalized monotone operators and one cocoercive operator",
      "venue": "Fixed Point Theory and Algorithms for Sciences and Engineering",
      "year": 2021,
      "referenceCount": 17,
      "citationCount": 7,
      "authors": [
        {
          "authorId": "3411455",
          "name": "Minh N. Dao"
        },
        {
          "authorId": "144568097",
          "name": "Hung M. Phan"
        }
      ]
    }
  ]
}