{
  "total": 32,
  "offset": 0,
  "next": 10,
  "data": [
    {
      "paperId": "58123025178256279bb060ca5da971b62bc329ee",
      "externalIds": {
        "DBLP": "conf/icml/DinhPBB17",
        "MAG": "2950928354",
        "ArXiv": "1703.04933",
        "CorpusId": 7636159
      },
      "url": "https://www.semanticscholar.org/paper/58123025178256279bb060ca5da971b62bc329ee",
      "title": "Sharp Minima Can Generalize For Deep Nets",
      "venue": "International Conference on Machine Learning",
      "year": 2017,
      "referenceCount": 75,
      "citationCount": 871,
      "authors": [
        {
          "authorId": "46573521",
          "name": "Laurent Dinh"
        },
        {
          "authorId": "1996134",
          "name": "Razvan Pascanu"
        },
        {
          "authorId": "1751569",
          "name": "Samy Bengio"
        },
        {
          "authorId": "1751762",
          "name": "Yoshua Bengio"
        }
      ]
    },
    {
      "paperId": "228349ebb4c960dcce461a69774a748c1500a3d4",
      "externalIds": {
        "DBLP": "journals/corr/abs-2511-04808",
        "ArXiv": "2511.04808",
        "DOI": "10.48550/arXiv.2511.04808",
        "CorpusId": 282890275
      },
      "url": "https://www.semanticscholar.org/paper/228349ebb4c960dcce461a69774a748c1500a3d4",
      "title": "Sharp Minima Can Generalize: A Loss Landscape Perspective On Data",
      "venue": "arXiv.org",
      "year": 2025,
      "referenceCount": 31,
      "citationCount": 1,
      "authors": [
        {
          "authorId": "3366710",
          "name": "R. Fan"
        },
        {
          "authorId": "15359818",
          "name": "Bryce Sandlund"
        },
        {
          "authorId": "2391519958",
          "name": "Lin Myat Ko"
        }
      ]
    },
    {
      "paperId": "0d6b4c7bb6246ad6ddca0fa44b19f1bda43e91fa",
      "externalIds": {
        "DBLP": "conf/iclr/XieSS21",
        "MAG": "3027810930",
        "CorpusId": 219966151
      },
      "url": "https://www.semanticscholar.org/paper/0d6b4c7bb6246ad6ddca0fa44b19f1bda43e91fa",
      "title": "A Diffusion Theory For Deep Learning Dynamics: Stochastic Gradient Descent Exponentially Favors Flat Minima",
      "venue": "International Conference on Learning Representations",
      "year": 2020,
      "referenceCount": 63,
      "citationCount": 165,
      "authors": [
        {
          "authorId": "30014947",
          "name": "Zeke Xie"
        },
        {
          "authorId": "73355331",
          "name": "Issei Sato"
        },
        {
          "authorId": "67154907",
          "name": "Masashi Sugiyama"
        }
      ]
    },
    {
      "paperId": "0fbc23db45c484e85296d4f37cebe24003a1334b",
      "externalIds": {
        "DBLP": "journals/corr/abs-2412-13573",
        "ArXiv": "2412.13573",
        "DOI": "10.1109/CVPR52734.2025.01430",
        "CorpusId": 274822725
      },
      "url": "https://www.semanticscholar.org/paper/0fbc23db45c484e85296d4f37cebe24003a1334b",
      "title": "Seeking Consistent Flat Minima for Better Domain Generalization via Refining Loss Landscapes",
      "venue": "Computer Vision and Pattern Recognition",
      "year": 2024,
      "referenceCount": 113,
      "citationCount": 9,
      "authors": [
        {
          "authorId": "2293542813",
          "name": "Aodi Li"
        },
        {
          "authorId": "1734743",
          "name": "Liansheng Zhuang"
        },
        {
          "authorId": "2203792852",
          "name": "Xiao Long"
        },
        {
          "authorId": "2281806505",
          "name": "Minghong Yao"
        },
        {
          "authorId": "2120491653",
          "name": "Shafei Wang"
        }
      ]
    },
    {
      "paperId": "1842fffd928a9a52e872808cf5c49a818e87cdca",
      "externalIds": {
        "ArXiv": "2505.18950",
        "CorpusId": 278904660
      },
      "url": "https://www.semanticscholar.org/paper/1842fffd928a9a52e872808cf5c49a818e87cdca",
      "title": "Physics-Informed Deep Learning for Nonlinear Friction Model of Bow-string Interaction",
      "venue": "",
      "year": 2025,
      "referenceCount": 32,
      "citationCount": 1,
      "authors": [
        {
          "authorId": "2202396089",
          "name": "Xinmeng Luan"
        },
        {
          "authorId": "2280445861",
          "name": "Gary Scavone"
        }
      ]
    },
    {
      "paperId": "264c562087f20be981b58c7f84c24c526fab45db",
      "externalIds": {
        "CorpusId": 267893968
      },
      "url": "https://www.semanticscholar.org/paper/264c562087f20be981b58c7f84c24c526fab45db",
      "title": "A DIFFUSION THEORY FOR DEEP LEARNING DYNAM-",
      "venue": "",
      "year": 2020,
      "referenceCount": 57,
      "citationCount": 1,
      "authors": [
        {
          "authorId": "2286264007",
          "name": "Descent Exponen"
        },
        {
          "authorId": "2286264039",
          "name": "Tially Favors"
        },
        {
          "authorId": "2286263506",
          "name": "Flat Minima"
        }
      ]
    },
    {
      "paperId": "430de87a0a8996bc93b1998f9a6261f7558a5679",
      "externalIds": {
        "MAG": "2952142973",
        "DBLP": "journals/corr/abs-1710-05468",
        "ArXiv": "1710.05468",
        "DOI": "10.1017/9781009025096.003",
        "CorpusId": 3520119
      },
      "url": "https://www.semanticscholar.org/paper/430de87a0a8996bc93b1998f9a6261f7558a5679",
      "title": "Generalization in Deep Learning",
      "venue": "arXiv.org",
      "year": 2017,
      "referenceCount": 62,
      "citationCount": 498,
      "authors": [
        {
          "authorId": "2324666",
          "name": "Kenji Kawaguchi"
        },
        {
          "authorId": "1709512",
          "name": "L. Kaelbling"
        },
        {
          "authorId": "1751762",
          "name": "Yoshua Bengio"
        }
      ]
    },
    {
      "paperId": "5ebb14f1de5eb16993564be2196891943ff42ad3",
      "externalIds": {
        "DOI": "10.1109/BigDIA63733.2024.10808837",
        "CorpusId": 275068812
      },
      "url": "https://www.semanticscholar.org/paper/5ebb14f1de5eb16993564be2196891943ff42ad3",
      "title": "Constructing Complexity Metrics for Measuring Generalization Ability of Deep Learning Models",
      "venue": "2024 10th International Conference on Big Data and Information Analytics (BigDIA)",
      "year": 2024,
      "referenceCount": 15,
      "citationCount": 0,
      "authors": [
        {
          "authorId": "2337397767",
          "name": "Wantao Wen"
        },
        {
          "authorId": "2337394504",
          "name": "Wenjun Ke"
        },
        {
          "authorId": "2321140432",
          "name": "Jianhong Feng"
        },
        {
          "authorId": "2218890853",
          "name": "Shaotong Liu"
        },
        {
          "authorId": "2337424495",
          "name": "Zhewei Xu"
        },
        {
          "authorId": "2337396807",
          "name": "Xiaojuan Sheng"
        }
      ]
    },
    {
      "paperId": "d61999e6f9ecbca226f28649f2827ac437460ee6",
      "externalIds": {
        "DBLP": "conf/iclr/ZhaoGWYD23",
        "ArXiv": "2210.17216",
        "DOI": "10.48550/arXiv.2210.17216",
        "CorpusId": 253237810
      },
      "url": "https://www.semanticscholar.org/paper/d61999e6f9ecbca226f28649f2827ac437460ee6",
      "title": "Symmetries, flat minima, and the conserved quantities of gradient flow",
      "venue": "International Conference on Learning Representations",
      "year": 2022,
      "referenceCount": 50,
      "citationCount": 37,
      "authors": [
        {
          "authorId": "2116551935",
          "name": "Bo Zhao"
        },
        {
          "authorId": "88727159",
          "name": "I. Ganev"
        },
        {
          "authorId": "153401894",
          "name": "R. Walters"
        },
        {
          "authorId": "2023052",
          "name": "Rose Yu"
        },
        {
          "authorId": "9716460",
          "name": "Nima Dehmamy"
        }
      ]
    },
    {
      "paperId": "74d8ebadc43e677334bc99310d5d78051b1122ae",
      "externalIds": {
        "DBLP": "conf/visapp/AliA023",
        "DOI": "10.5220/0011771700003417",
        "CorpusId": 257355808
      },
      "url": "https://www.semanticscholar.org/paper/74d8ebadc43e677334bc99310d5d78051b1122ae",
      "title": "BGD: Generalization Using Large Step Sizes to Attract Flat Minima",
      "venue": "VISIGRAPP",
      "year": 2023,
      "referenceCount": 20,
      "citationCount": 0,
      "authors": [
        {
          "authorId": "2111292158",
          "name": "Muhammad Ali"
        },
        {
          "authorId": "2210747908",
          "name": "Omar Alsuwaidi"
        },
        {
          "authorId": "2210828030",
          "name": "Salman H. Khan"
        }
      ]
    }
  ]
}