{
  "total": 38155,
  "offset": 0,
  "next": 10,
  "data": [
    {
      "paperId": "9c4082bfbd46b781e70657f14895306c57c842e3",
      "externalIds": {
        "ArXiv": "1703.02702",
        "DBLP": "conf/icml/PintoDSG17",
        "MAG": "2602963933",
        "CorpusId": 15313471
      },
      "url": "https://www.semanticscholar.org/paper/9c4082bfbd46b781e70657f14895306c57c842e3",
      "title": "Robust Adversarial Reinforcement Learning",
      "venue": "International Conference on Machine Learning",
      "year": 2017,
      "referenceCount": 43,
      "citationCount": 1022,
      "authors": [
        {
          "authorId": "34026610",
          "name": "Lerrel Pinto"
        },
        {
          "authorId": "2068894907",
          "name": "James Davidson"
        },
        {
          "authorId": "1694199",
          "name": "R. Sukthankar"
        },
        {
          "authorId": "1726095131",
          "name": "A. Gupta"
        }
      ]
    },
    {
      "paperId": "7a7a4758ff7dd65bfb3f0ca89ef99b22e02cde5d",
      "externalIds": {
        "DBLP": "journals/tai/YangWDXS25",
        "DOI": "10.1109/TAI.2024.3499938",
        "CorpusId": 274109298
      },
      "url": "https://www.semanticscholar.org/paper/7a7a4758ff7dd65bfb3f0ca89ef99b22e02cde5d",
      "title": "Active Robust Adversarial Reinforcement Learning Under Temporally Coupled Perturbations",
      "venue": "IEEE Transactions on Artificial Intelligence",
      "year": 2025,
      "referenceCount": 50,
      "citationCount": 4,
      "authors": [
        {
          "authorId": "2281908508",
          "name": "Jiacheng Yang"
        },
        {
          "authorId": "2281990879",
          "name": "Yuanda Wang"
        },
        {
          "authorId": "2315261068",
          "name": "Lu Dong"
        },
        {
          "authorId": "2114051718",
          "name": "Lei Xue"
        },
        {
          "authorId": "2245226185",
          "name": "Changyin Sun"
        }
      ]
    },
    {
      "paperId": "be75981f33c3e8e061b496a95f88427e51adce73",
      "externalIds": {
        "DBLP": "journals/eaai/CuongYLKNT25",
        "DOI": "10.1016/j.engappai.2025.112127",
        "CorpusId": 281159597
      },
      "url": "https://www.semanticscholar.org/paper/be75981f33c3e8e061b496a95f88427e51adce73",
      "title": "Maritime supply chain optimization using robust adversarial reinforcement learning",
      "venue": "Engineering applications of artificial intelligence",
      "year": 2025,
      "referenceCount": 37,
      "citationCount": 3,
      "authors": [
        {
          "authorId": "2071990703",
          "name": "Truong Ngoc Cuong"
        },
        {
          "authorId": "2181472821",
          "name": "S. You"
        },
        {
          "authorId": "2146939056",
          "name": "Le Ngoc Bao Long"
        },
        {
          "authorId": "2274424826",
          "name": "H. Kim"
        },
        {
          "authorId": "2168614779",
          "name": "A. Nguyen"
        },
        {
          "authorId": "2145877746",
          "name": "Nguyen Duy Tan"
        }
      ]
    },
    {
      "paperId": "d6ebaa2daebcb509250f633badc3fb154ef53f72",
      "externalIds": {
        "DBLP": "conf/aaai/ZhaiLDZWY22",
        "DOI": "10.1609/aaai.v36i5.20481",
        "CorpusId": 250302133
      },
      "url": "https://www.semanticscholar.org/paper/d6ebaa2daebcb509250f633badc3fb154ef53f72",
      "title": "Robust Adversarial Reinforcement Learning with Dissipation Inequation Constraint",
      "venue": "AAAI Conference on Artificial Intelligence",
      "year": 2022,
      "referenceCount": 38,
      "citationCount": 29,
      "authors": [
        {
          "authorId": "2133273745",
          "name": "Peng Zhai"
        },
        {
          "authorId": "2116783049",
          "name": "Jie Luo"
        },
        {
          "authorId": "2087106468",
          "name": "Zhiyan Dong"
        },
        {
          "authorId": "1930287",
          "name": "L. Zhang"
        },
        {
          "authorId": "2108655879",
          "name": "Shunli Wang"
        },
        {
          "authorId": "2143920085",
          "name": "Dingkang Yang"
        }
      ]
    },
    {
      "paperId": "abe695a36cad091c2bbc1bba22389c14b426ada4",
      "externalIds": {
        "MAG": "2967292964",
        "DBLP": "journals/corr/abs-1904-00511",
        "ArXiv": "1904.00511",
        "DOI": "10.1109/ICRA.2019.8794293",
        "CorpusId": 90262410
      },
      "url": "https://www.semanticscholar.org/paper/abe695a36cad091c2bbc1bba22389c14b426ada4",
      "title": "Risk Averse Robust Adversarial Reinforcement Learning",
      "venue": "IEEE International Conference on Robotics and Automation",
      "year": 2019,
      "referenceCount": 41,
      "citationCount": 112,
      "authors": [
        {
          "authorId": "4753513",
          "name": "Xinlei Pan"
        },
        {
          "authorId": "2499035",
          "name": "Daniel Seita"
        },
        {
          "authorId": "2145972498",
          "name": "Yang Gao"
        },
        {
          "authorId": "1729041",
          "name": "J. Canny"
        }
      ]
    },
    {
      "paperId": "813565db631285045eb3582d626024c4551a6d0d",
      "externalIds": {
        "DOI": "10.1016/j.ast.2024.109402",
        "CorpusId": 271346203
      },
      "url": "https://www.semanticscholar.org/paper/813565db631285045eb3582d626024c4551a6d0d",
      "title": "UAV Air Combat Autonomous Trajectory Planning Method Based on Robust Adversarial Reinforcement Learning",
      "venue": "Aerospace Science and Technology",
      "year": 2024,
      "referenceCount": 28,
      "citationCount": 11,
      "authors": [
        {
          "authorId": "40367854",
          "name": "Lixin Wang"
        },
        {
          "authorId": "2148276415",
          "name": "Sizhuang Zheng"
        },
        {
          "authorId": "143801345",
          "name": "S. Tai"
        },
        {
          "authorId": "2168290379",
          "name": "Hailiang Liu"
        },
        {
          "authorId": "3200035",
          "name": "Ting Yue"
        }
      ]
    },
    {
      "paperId": "dec2de8daa55d0424f3b811f37eb001d0aca6f87",
      "externalIds": {
        "ArXiv": "2311.01642",
        "DBLP": "conf/iclr/ReddiT0CD24",
        "DOI": "10.48550/arXiv.2311.01642",
        "CorpusId": 265018937
      },
      "url": "https://www.semanticscholar.org/paper/dec2de8daa55d0424f3b811f37eb001d0aca6f87",
      "title": "Robust Adversarial Reinforcement Learning via Bounded Rationality Curricula",
      "venue": "International Conference on Learning Representations",
      "year": 2023,
      "referenceCount": 46,
      "citationCount": 11,
      "authors": [
        {
          "authorId": "2265381449",
          "name": "Aryaman Reddi"
        },
        {
          "authorId": "2265588342",
          "name": "Maximilian Tölle"
        },
        {
          "authorId": "2258414437",
          "name": "Jan Peters"
        },
        {
          "authorId": "1989757",
          "name": "G. Chalvatzaki"
        },
        {
          "authorId": "1399348619",
          "name": "Carlo D'Eramo"
        }
      ]
    },
    {
      "paperId": "a755eb90071bf81906e95180ff91da2c844fbb08",
      "externalIds": {
        "MAG": "3100975812",
        "DBLP": "conf/nips/ZhangHB20",
        "CorpusId": 227276428
      },
      "url": "https://www.semanticscholar.org/paper/a755eb90071bf81906e95180ff91da2c844fbb08",
      "title": "On the Stability and Convergence of Robust Adversarial Reinforcement Learning: A Case Study on Linear Quadratic Systems",
      "venue": "Neural Information Processing Systems",
      "year": 2020,
      "referenceCount": 69,
      "citationCount": 51,
      "authors": [
        {
          "authorId": "1776230",
          "name": "K. Zhang"
        },
        {
          "authorId": "144010722",
          "name": "Bin Hu"
        },
        {
          "authorId": "2243689",
          "name": "T. Başar"
        }
      ]
    },
    {
      "paperId": "9771a99f7db2e4648598edb47c1f74f9fa79e9b0",
      "externalIds": {
        "DBLP": "journals/corr/abs-2510-11877",
        "ArXiv": "2510.11877",
        "DOI": "10.48550/arXiv.2510.11877",
        "CorpusId": 282065011
      },
      "url": "https://www.semanticscholar.org/paper/9771a99f7db2e4648598edb47c1f74f9fa79e9b0",
      "title": "Robust Adversarial Reinforcement Learning in Stochastic Games via Sequence Modeling",
      "venue": "arXiv.org",
      "year": 2025,
      "referenceCount": 32,
      "citationCount": 0,
      "authors": [
        {
          "authorId": "2313692271",
          "name": "Xiaohang Tang"
        },
        {
          "authorId": "2407664111",
          "name": "Z. Cheng"
        },
        {
          "authorId": "2385736748",
          "name": "Satyabrat Kumar"
        }
      ]
    },
    {
      "paperId": "99044e5088d4442387d1457b70e656c04604702b",
      "externalIds": {
        "ArXiv": "2007.00691",
        "MAG": "3039444993",
        "DBLP": "journals/corr/abs-2007-00691",
        "DOI": "10.1109/ICMLA51294.2020.00042",
        "CorpusId": 220302021
      },
      "url": "https://www.semanticscholar.org/paper/99044e5088d4442387d1457b70e656c04604702b",
      "title": "Falsification-Based Robust Adversarial Reinforcement Learning",
      "venue": "International Conference on Machine Learning and Applications",
      "year": 2020,
      "referenceCount": 54,
      "citationCount": 22,
      "authors": [
        {
          "authorId": "2118448448",
          "name": "Xiao Wang"
        },
        {
          "authorId": "51469374",
          "name": "Saasha Nair"
        },
        {
          "authorId": "3280431",
          "name": "M. Althoff"
        }
      ]
    }
  ]
}