{
  "total": 1846,
  "offset": 0,
  "next": 10,
  "data": [
    {
      "paperId": "590d4bf689b271125c0c81cf7e4f4fdf7ffaa3c0",
      "externalIds": {
        "MAG": "2787636496",
        "DBLP": "journals/corr/abs-1802-04762",
        "ArXiv": "1802.04762",
        "CorpusId": 3602599
      },
      "url": "https://www.semanticscholar.org/paper/590d4bf689b271125c0c81cf7e4f4fdf7ffaa3c0",
      "title": "Deep Predictive Coding Network for Object Recognition",
      "venue": "International Conference on Machine Learning",
      "year": 2018,
      "referenceCount": 78,
      "citationCount": 90,
      "authors": [
        {
          "authorId": "2319668747",
          "name": "Haiguang Wen"
        },
        {
          "authorId": "3418794",
          "name": "Kuan Han"
        },
        {
          "authorId": "48377120",
          "name": "Junxing Shi"
        },
        {
          "authorId": "121310793",
          "name": "Yizhen Zhang"
        },
        {
          "authorId": "2889774",
          "name": "E. Culurciello"
        },
        {
          "authorId": "46271319",
          "name": "Zhongming Liu"
        }
      ]
    },
    {
      "paperId": "a3d8122c8c470b2f7b81d97145b75330d8949cfb",
      "externalIds": {
        "MAG": "2963786199",
        "ArXiv": "1805.07526",
        "DBLP": "conf/nips/HanWZFCL18",
        "CorpusId": 29164907
      },
      "url": "https://www.semanticscholar.org/paper/a3d8122c8c470b2f7b81d97145b75330d8949cfb",
      "title": "Deep Predictive Coding Network with Local Recurrent Processing for Object Recognition",
      "venue": "Neural Information Processing Systems",
      "year": 2018,
      "referenceCount": 70,
      "citationCount": 81,
      "authors": [
        {
          "authorId": "3418794",
          "name": "Kuan Han"
        },
        {
          "authorId": "2319668747",
          "name": "Haiguang Wen"
        },
        {
          "authorId": "121310793",
          "name": "Yizhen Zhang"
        },
        {
          "authorId": "2061347623",
          "name": "Di Fu"
        },
        {
          "authorId": "2889774",
          "name": "E. Culurciello"
        },
        {
          "authorId": "46271319",
          "name": "Zhongming Liu"
        }
      ]
    },
    {
      "paperId": "681befed962d3c301345eead8e1570485c130a27",
      "externalIds": {
        "DBLP": "journals/nn/AlamiaMCV23",
        "DOI": "10.1016/j.neunet.2022.10.020",
        "CorpusId": 253194402,
        "PubMed": "36375346"
      },
      "url": "https://www.semanticscholar.org/paper/681befed962d3c301345eead8e1570485c130a27",
      "title": "On the role of feedback in image recognition under noise and adversarial attacks: A predictive coding perspective",
      "venue": "Neural Networks",
      "year": 2022,
      "referenceCount": 38,
      "citationCount": 15,
      "authors": [
        {
          "authorId": "3432960",
          "name": "A. Alamia"
        },
        {
          "authorId": "9660519",
          "name": "Milad Mozafari"
        },
        {
          "authorId": "93165011",
          "name": "Bhavin Choksi"
        },
        {
          "authorId": "2129492059",
          "name": "Rufin VanRullen"
        }
      ]
    },
    {
      "paperId": "43c52ea5d01b76a498952e429fd1ff7eca0f963f",
      "externalIds": {
        "DBLP": "journals/corr/abs-2106-04225",
        "ArXiv": "2106.04225",
        "DOI": "10.32470/ccn.2022.1062-0",
        "CorpusId": 235367798
      },
      "url": "https://www.semanticscholar.org/paper/43c52ea5d01b76a498952e429fd1ff7eca0f963f",
      "title": "On the role of feedback in visual processing: a predictive coding perspective",
      "venue": "2022 Conference on Cognitive Computational Neuroscience",
      "year": 2021,
      "referenceCount": 48,
      "citationCount": 7,
      "authors": [
        {
          "authorId": "3432960",
          "name": "A. Alamia"
        },
        {
          "authorId": "9660519",
          "name": "Milad Mozafari"
        },
        {
          "authorId": "93165011",
          "name": "Bhavin Choksi"
        },
        {
          "authorId": "4814195",
          "name": "R. VanRullen"
        }
      ]
    },
    {
      "paperId": "2638e38d5133d88314d403b4d8e424a56666d2af",
      "externalIds": {
        "PubMedCentral": "11860245",
        "DBLP": "journals/ncs/GrecoS25",
        "ArXiv": "2403.04940",
        "DOI": "10.1038/s43588-024-00746-w",
        "CorpusId": 268297406,
        "PubMed": "39706876"
      },
      "url": "https://www.semanticscholar.org/paper/2638e38d5133d88314d403b4d8e424a56666d2af",
      "title": "A spatiotemporal style transfer algorithm for dynamic visual stimulus generation",
      "venue": "Nature Computational Science",
      "year": 2024,
      "referenceCount": 106,
      "citationCount": 8,
      "authors": [
        {
          "authorId": "1518628656",
          "name": "Antonino Greco"
        },
        {
          "authorId": "2290481392",
          "name": "Markus Siegel"
        }
      ]
    },
    {
      "paperId": "776ac3d0207a5491745526f5002a51370d559981",
      "externalIds": {
        "DBLP": "journals/tnn/SantanaEZP18",
        "MAG": "2950201593",
        "ArXiv": "1611.00050",
        "DOI": "10.1109/TNNLS.2017.2735903",
        "CorpusId": 7132589,
        "PubMed": "28880191"
      },
      "url": "https://www.semanticscholar.org/paper/776ac3d0207a5491745526f5002a51370d559981",
      "title": "Exploiting Spatio-Temporal Structure with Recurrent Winner-Take-All Networks",
      "venue": "IEEE Transactions on Neural Networks and Learning Systems",
      "year": 2016,
      "referenceCount": 46,
      "citationCount": 17,
      "authors": [
        {
          "authorId": "145805087",
          "name": "Eder Santana"
        },
        {
          "authorId": "32818596",
          "name": "Matthew S. Emigh"
        },
        {
          "authorId": "144919173",
          "name": "P. Zegers"
        },
        {
          "authorId": "143961030",
          "name": "J. Príncipe"
        }
      ]
    },
    {
      "paperId": "68e1e566fde2723c9eebca1ed3449375de27c892",
      "externalIds": {
        "DBLP": "conf/icann/DoraPB18",
        "MAG": "2895356779",
        "DOI": "10.1007/978-3-030-01424-7_45",
        "CorpusId": 52913055
      },
      "url": "https://www.semanticscholar.org/paper/68e1e566fde2723c9eebca1ed3449375de27c892",
      "title": "A Deep Predictive Coding Network for Inferring Hierarchical Causes Underlying Sensory Inputs",
      "venue": "International Conference on Artificial Neural Networks",
      "year": 2018,
      "referenceCount": 13,
      "citationCount": 11,
      "authors": [
        {
          "authorId": "1743518",
          "name": "Shirin Dora"
        },
        {
          "authorId": "2107385",
          "name": "C. Pennartz"
        },
        {
          "authorId": "1929254",
          "name": "S. Bohté"
        }
      ]
    },
    {
      "paperId": "49e0e1db147bf193888e8eb6c0296f9d51bdd19d",
      "externalIds": {
        "MAG": "2786379829",
        "DOI": "10.1101/278218",
        "CorpusId": 91035249
      },
      "url": "https://www.semanticscholar.org/paper/49e0e1db147bf193888e8eb6c0296f9d51bdd19d",
      "title": "A Deep Predictive Coding Network for Learning Latent Representations",
      "venue": "bioRxiv",
      "year": 2018,
      "referenceCount": 16,
      "citationCount": 7,
      "authors": [
        {
          "authorId": "1743518",
          "name": "Shirin Dora"
        },
        {
          "authorId": "2107385",
          "name": "C. Pennartz"
        },
        {
          "authorId": "1929254",
          "name": "S. Bohté"
        }
      ]
    },
    {
      "paperId": "3c17e0756e76cada214e295cbc799ac71eee047f",
      "externalIds": {
        "DOI": "10.1016/j.neunet.2026.108836",
        "CorpusId": 286523696,
        "PubMed": "41861778"
      },
      "url": "https://www.semanticscholar.org/paper/3c17e0756e76cada214e295cbc799ac71eee047f",
      "title": "Training sparse convolutional deep predictive coding networks with attention.",
      "venue": "Neural Networks",
      "year": 2026,
      "referenceCount": 43,
      "citationCount": 0,
      "authors": [
        {
          "authorId": "2155674834",
          "name": "Hongming Li"
        },
        {
          "authorId": "2320818961",
          "name": "Chi Ding"
        },
        {
          "authorId": "2300419200",
          "name": "J. C. Príncipe"
        }
      ]
    },
    {
      "paperId": "ad367b44f3434b9ba6b46b41ab083210f6827a9f",
      "externalIds": {
        "MAG": "2964151830",
        "DBLP": "journals/corr/LotterKC16",
        "ArXiv": "1605.08104",
        "CorpusId": 71638
      },
      "url": "https://www.semanticscholar.org/paper/ad367b44f3434b9ba6b46b41ab083210f6827a9f",
      "title": "Deep Predictive Coding Networks for Video Prediction and Unsupervised Learning",
      "venue": "International Conference on Learning Representations",
      "year": 2016,
      "referenceCount": 69,
      "citationCount": 993,
      "authors": [
        {
          "authorId": "2023002",
          "name": "William Lotter"
        },
        {
          "authorId": "1852992",
          "name": "Gabriel Kreiman"
        },
        {
          "authorId": "2042941",
          "name": "David D. Cox"
        }
      ]
    }
  ]
}