{
  "total": 69,
  "offset": 0,
  "next": 10,
  "data": [
    {
      "paperId": "a3d37bf66c8f36df0e9481b0da848ee989f6986b",
      "externalIds": {
        "MAG": "2428862780",
        "DBLP": "conf/icml/CanevetJF16",
        "CorpusId": 133981
      },
      "url": "https://www.semanticscholar.org/paper/a3d37bf66c8f36df0e9481b0da848ee989f6986b",
      "title": "Importance Sampling Tree for Large-scale Empirical Expectation",
      "venue": "International Conference on Machine Learning",
      "year": 2016,
      "referenceCount": 14,
      "citationCount": 22,
      "authors": [
        {
          "authorId": "1920448",
          "name": "Olivier Canévet"
        },
        {
          "authorId": "39602054",
          "name": "C. Jose"
        },
        {
          "authorId": "2721983",
          "name": "F. Fleuret"
        }
      ]
    },
    {
      "paperId": "23cd950fd823efd69a87742387fa16983bc05b4e",
      "externalIds": {
        "DBLP": "journals/bcds/Wang25",
        "DOI": "10.71448/bcds2561-5",
        "CorpusId": 285831174
      },
      "url": "https://www.semanticscholar.org/paper/23cd950fd823efd69a87742387fa16983bc05b4e",
      "title": "ork Visibility and Language Survivability in Large-Scale Open Source Ecosystems",
      "venue": "Bull. Comput. Data Sci.",
      "year": 2025,
      "referenceCount": 0,
      "citationCount": 0,
      "authors": [
        {
          "authorId": "46396045",
          "name": "Yajuan Wang"
        }
      ]
    },
    {
      "paperId": "b0fe8ecda139c94bd1fc94ab2723605512dd446e",
      "externalIds": {
        "ArXiv": "2503.04412",
        "DBLP": "journals/corr/abs-2503-04412",
        "DOI": "10.48550/arXiv.2503.04412",
        "CorpusId": 276813234
      },
      "url": "https://www.semanticscholar.org/paper/b0fe8ecda139c94bd1fc94ab2723605512dd446e",
      "title": "Wider or Deeper? Scaling LLM Inference-Time Compute with Adaptive Branching Tree Search",
      "venue": "arXiv.org",
      "year": 2025,
      "referenceCount": 54,
      "citationCount": 35,
      "authors": [
        {
          "authorId": "2342505900",
          "name": "Kou Misaki"
        },
        {
          "authorId": "2106362686",
          "name": "Yuichi Inoue"
        },
        {
          "authorId": "2348739505",
          "name": "Yuki Imajuku"
        },
        {
          "authorId": "2326990759",
          "name": "So Kuroki"
        },
        {
          "authorId": "2294513555",
          "name": "Taishi Nakamura"
        },
        {
          "authorId": "2292261829",
          "name": "Takuya Akiba"
        }
      ]
    },
    {
      "paperId": "199cdb221645ecb4d974af82531e972d2499f630",
      "externalIds": {
        "DBLP": "journals/es/YaoHZZ22",
        "DOI": "10.1111/exsy.12953",
        "CorpusId": 246715994
      },
      "url": "https://www.semanticscholar.org/paper/199cdb221645ecb4d974af82531e972d2499f630",
      "title": "Enterprise credit risk prediction using supply chain information: A decision tree ensemble model based on the differential sampling rate, Synthetic Minority Oversampling Technique and AdaBoost",
      "venue": "Expert Syst. J. Knowl. Eng.",
      "year": 2022,
      "referenceCount": 65,
      "citationCount": 33,
      "authors": [
        {
          "authorId": "2064611682",
          "name": "Gang Yao"
        },
        {
          "authorId": "50049817",
          "name": "Xiaojian Hu"
        },
        {
          "authorId": "2004353760",
          "name": "Taiyun Zhou"
        },
        {
          "authorId": null,
          "name": "Yue Zhang"
        }
      ]
    },
    {
      "paperId": "95942eeee87b047d0e624ef992b57a6152384f92",
      "externalIds": {
        "MAG": "2560378576",
        "DOI": "10.1016/j.fsigen.2016.12.004",
        "CorpusId": 29847404,
        "PubMed": "28012376"
      },
      "url": "https://www.semanticscholar.org/paper/95942eeee87b047d0e624ef992b57a6152384f92",
      "title": "Importance sampling allows Hd true tests of highly discriminating DNA profiles.",
      "venue": "Forensic Science International: Genetics",
      "year": 2017,
      "referenceCount": 10,
      "citationCount": 16,
      "authors": [
        {
          "authorId": "38088089",
          "name": "Duncan A. Taylor"
        },
        {
          "authorId": "1815462",
          "name": "J. Curran"
        },
        {
          "authorId": "4677581",
          "name": "J. Buckleton"
        }
      ]
    },
    {
      "paperId": "029279f792a758f21efd5cf74da8830e9248a751",
      "externalIds": {
        "DOI": "10.48206/kceba.2026.10.1.01",
        "CorpusId": 285883313
      },
      "url": "https://www.semanticscholar.org/paper/029279f792a758f21efd5cf74da8830e9248a751",
      "title": "Student and Teacher Perceptions of the ‘Youth Entrepreneurship’ Elective under the High School Credit System: Applying Importance-Expectation Analysis (IEA)",
      "venue": "The Korean Career, Entrepreneurship &amp; Business Association",
      "year": 2026,
      "referenceCount": 0,
      "citationCount": 0,
      "authors": [
        {
          "authorId": "2065048870",
          "name": "H. Bae"
        },
        {
          "authorId": "2110945552",
          "name": "So-hee Shin"
        },
        {
          "authorId": "2346561490",
          "name": "Jeongmin Nam"
        }
      ]
    },
    {
      "paperId": "5403308cdf96e9b2e8f4170ace16d335bfe5ad65",
      "externalIds": {
        "MAG": "2301141985",
        "CorpusId": 87974623
      },
      "url": "https://www.semanticscholar.org/paper/5403308cdf96e9b2e8f4170ace16d335bfe5ad65",
      "title": "Understanding the importance of taxonomic sampling for large-scale phylogenetic analyses by simulating evolutionary processes under complex models",
      "venue": "",
      "year": 2008,
      "referenceCount": 386,
      "citationCount": 1,
      "authors": [
        {
          "authorId": "40388948",
          "name": "T. Heath"
        }
      ]
    },
    {
      "paperId": "da4f2a6f6f3e0bed2437588bdae578685883c28d",
      "externalIds": {
        "ArXiv": "2305.10696",
        "DBLP": "journals/corr/abs-2305-10696",
        "DOI": "10.48550/arXiv.2305.10696",
        "CorpusId": 258762829
      },
      "url": "https://www.semanticscholar.org/paper/da4f2a6f6f3e0bed2437588bdae578685883c28d",
      "title": "Unbiased Gradient Boosting Decision Tree with Unbiased Feature Importance",
      "venue": "International Joint Conference on Artificial Intelligence",
      "year": 2023,
      "referenceCount": 45,
      "citationCount": 14,
      "authors": [
        {
          "authorId": "2187842945",
          "name": "Zheyu Zhang"
        },
        {
          "authorId": "1811139",
          "name": "T. Zhang"
        },
        {
          "authorId": "46276037",
          "name": "Jun Yu Li"
        }
      ]
    },
    {
      "paperId": "7dae6f3fbbddd4eba062d5cd22fd2f9cb9239d21",
      "externalIds": {
        "PubMedCentral": "5447239",
        "DBLP": "journals/bioinformatics/KapliLZKPSF17",
        "MAG": "2953269546",
        "DOI": "10.1093/bioinformatics/btx025",
        "CorpusId": 3820176,
        "PubMed": "28108445"
      },
      "url": "https://www.semanticscholar.org/paper/7dae6f3fbbddd4eba062d5cd22fd2f9cb9239d21",
      "title": "Multi-rate Poisson tree processes for single-locus species delimitation under maximum likelihood and Markov chain Monte Carlo",
      "venue": "bioRxiv",
      "year": 2016,
      "referenceCount": 58,
      "citationCount": 837,
      "authors": [
        {
          "authorId": "2433219",
          "name": "P. Kapli"
        },
        {
          "authorId": "3305821",
          "name": "S. Lutteropp"
        },
        {
          "authorId": "2107982589",
          "name": "Jiajie Zhang"
        },
        {
          "authorId": "2820350",
          "name": "Kassian Kobert"
        },
        {
          "authorId": "1718001",
          "name": "P. Pavlidis"
        },
        {
          "authorId": "143958048",
          "name": "A. Stamatakis"
        },
        {
          "authorId": "3357808",
          "name": "T. Flouri"
        }
      ]
    },
    {
      "paperId": "2af015c72c09593504e11b1a54f298209ae5e91a",
      "externalIds": {
        "MAG": "2949410613",
        "PubMedCentral": "6573793",
        "DOI": "10.3389/fpsyg.2019.01163",
        "CorpusId": 184487903,
        "PubMed": "31244703"
      },
      "url": "https://www.semanticscholar.org/paper/2af015c72c09593504e11b1a54f298209ae5e91a",
      "title": "Location-Scale Matching for Approximate Quasi-Order Sampling",
      "venue": "Frontiers in Psychology",
      "year": 2019,
      "referenceCount": 52,
      "citationCount": 1,
      "authors": [
        {
          "authorId": "3120814",
          "name": "A. Ünlü"
        },
        {
          "authorId": "48504582",
          "name": "Martin Schrepp"
        }
      ]
    }
  ]
}