{
  "total": 960,
  "offset": 0,
  "next": 10,
  "data": [
    {
      "paperId": "00c584d73a9f87a42db10a8a98d09f57f6eeaa7f",
      "externalIds": {
        "MAG": "2963637229",
        "DBLP": "conf/icml/OstrovskiiH18",
        "ArXiv": "1803.11262",
        "CorpusId": 51876882
      },
      "url": "https://www.semanticscholar.org/paper/00c584d73a9f87a42db10a8a98d09f57f6eeaa7f",
      "title": "Efficient First-Order Algorithms for Adaptive Signal Denoising",
      "venue": "International Conference on Machine Learning",
      "year": 2018,
      "referenceCount": 33,
      "citationCount": 5,
      "authors": [
        {
          "authorId": "144008152",
          "name": "Dmitrii Ostrovskii"
        },
        {
          "authorId": "1753355",
          "name": "Z. Harchaoui"
        }
      ]
    },
    {
      "paperId": "cd4cecedd57a91665188064333b03763322af48b",
      "externalIds": {
        "MAG": "2791156577",
        "DOI": "10.1109/STA.2017.8314972",
        "CorpusId": 3936333
      },
      "url": "https://www.semanticscholar.org/paper/cd4cecedd57a91665188064333b03763322af48b",
      "title": "ECG signal parameters extraction using intelligent adaptive algorithm",
      "venue": "International Conference on Secure and Trust Computing, Data Management and Applications",
      "year": 2017,
      "referenceCount": 7,
      "citationCount": 0,
      "authors": [
        {
          "authorId": "2062828760",
          "name": "S. Troudi"
        },
        {
          "authorId": "3475905",
          "name": "S. Ktata"
        },
        {
          "authorId": "1409838459",
          "name": "Y. Ben Fathel"
        },
        {
          "authorId": "144243573",
          "name": "S. Rahmani"
        },
        {
          "authorId": "2075272275",
          "name": "K. Al-Haddad"
        }
      ]
    },
    {
      "paperId": "2c2dd0c4a85a4dab491914ad5285d663c7ceabcf",
      "externalIds": {
        "MAG": "2061380709",
        "DBLP": "conf/ipas/PaliyTKA07",
        "DOI": "10.1117/12.713595",
        "CorpusId": 6869662
      },
      "url": "https://www.semanticscholar.org/paper/2c2dd0c4a85a4dab491914ad5285d663c7ceabcf",
      "title": "Demosaicing of noisy data: spatially adaptive approach",
      "venue": "Electronic imaging",
      "year": 2007,
      "referenceCount": 0,
      "citationCount": 12,
      "authors": [
        {
          "authorId": "3346407",
          "name": "D. Paliy"
        },
        {
          "authorId": "34767941",
          "name": "Mejdi Trimeche"
        },
        {
          "authorId": "1718100",
          "name": "V. Katkovnik"
        },
        {
          "authorId": "47662728",
          "name": "S. Alenius"
        }
      ]
    },
    {
      "paperId": "3eb86589df943c854703f4a358bb7358edfea23c",
      "externalIds": {
        "DBLP": "journals/dsp/Katkovnik05",
        "MAG": "2042615495",
        "DOI": "10.1016/j.dsp.2004.06.004",
        "CorpusId": 9849869
      },
      "url": "https://www.semanticscholar.org/paper/3eb86589df943c854703f4a358bb7358edfea23c",
      "title": "Multiresolution local polynomial regression: A new approach to pointwise spatial adaptation",
      "venue": "Digit. Signal Process.",
      "year": 2005,
      "referenceCount": 39,
      "citationCount": 19,
      "authors": [
        {
          "authorId": "1718100",
          "name": "V. Katkovnik"
        }
      ]
    },
    {
      "paperId": "be2eec77219b3bf4585f6a7a7608842cba1f538d",
      "externalIds": {
        "DBLP": "journals/tim/YanTSL24",
        "DOI": "10.1109/TIM.2024.3379094",
        "CorpusId": 268573959
      },
      "url": "https://www.semanticscholar.org/paper/be2eec77219b3bf4585f6a7a7608842cba1f538d",
      "title": "Implementation of Adaptive Partial Discharge Denoising in Resource-Limited Embedded Systems via Efficient Time-Frequency Matrix Factorization",
      "venue": "IEEE Transactions on Instrumentation and Measurement",
      "year": 2024,
      "referenceCount": 42,
      "citationCount": 9,
      "authors": [
        {
          "authorId": "7957685",
          "name": "Yuan Yan"
        },
        {
          "authorId": "38369017",
          "name": "R. Trinchero"
        },
        {
          "authorId": "2189669391",
          "name": "I. Stievano"
        },
        {
          "authorId": "2108546092",
          "name": "Hongjie Li"
        }
      ]
    },
    {
      "paperId": "1472ab420ba8555b2c605707e0c850deb8f6c787",
      "externalIds": {
        "DBLP": "journals/dai/LiaoL25",
        "DOI": "10.1007/s44163-025-00622-0",
        "CorpusId": 283147001
      },
      "url": "https://www.semanticscholar.org/paper/1472ab420ba8555b2c605707e0c850deb8f6c787",
      "title": "F-LOAM: an efficient hybrid model for stock price prediction based on SVMD denoising",
      "venue": "Discover Artificial Intelligence",
      "year": 2025,
      "referenceCount": 50,
      "citationCount": 0,
      "authors": [
        {
          "authorId": "2302859662",
          "name": "Liefa Liao"
        },
        {
          "authorId": "2186043531",
          "name": "Jingjing Lin"
        }
      ]
    },
    {
      "paperId": "14d85b10d762b71d89544fbf8de348a6cd97799a",
      "externalIds": {
        "DOI": "10.1109/ICCSIE65832.2025.00110",
        "CorpusId": 285316398
      },
      "url": "https://www.semanticscholar.org/paper/14d85b10d762b71d89544fbf8de348a6cd97799a",
      "title": "A Unified Framework for Adaptive Audio Encoding and Denoising using Time-Frequency Analysis and a Novel Quality Index",
      "venue": "2025 10th International Conference on Cyber Security and Information Engineering (ICCSIE)",
      "year": 2025,
      "referenceCount": 16,
      "citationCount": 0,
      "authors": [
        {
          "authorId": "2408938089",
          "name": "Ninghang Zeng"
        },
        {
          "authorId": "2389123935",
          "name": "Jiajun Tang"
        },
        {
          "authorId": "2409067263",
          "name": "Zongyuan Liang"
        },
        {
          "authorId": "2409821927",
          "name": "Baiqiang Chen"
        }
      ]
    },
    {
      "paperId": "d49c50d53cd9988451794718b27cf56e8e10c52a",
      "externalIds": {
        "DOI": "10.1109/ARRAY58370.2024.10880401",
        "CorpusId": 276508695
      },
      "url": "https://www.semanticscholar.org/paper/d49c50d53cd9988451794718b27cf56e8e10c52a",
      "title": "Covariance Denoising with Applications to Adaptive Beamforming",
      "venue": "2024 IEEE International Symposium on Phased Array Systems and Technology (ARRAY)",
      "year": 2024,
      "referenceCount": 17,
      "citationCount": 0,
      "authors": [
        {
          "authorId": "2197525723",
          "name": "Ruifu Li"
        },
        {
          "authorId": "2285109511",
          "name": "D. Cabric"
        }
      ]
    },
    {
      "paperId": "cd91890a7e23e7d5d9e70a5e8aed8c22945aee4e",
      "externalIds": {
        "DOI": "10.3390/machines13010050",
        "CorpusId": 275534324
      },
      "url": "https://www.semanticscholar.org/paper/cd91890a7e23e7d5d9e70a5e8aed8c22945aee4e",
      "title": "Bearing Fault Feature Extraction Method Based on Adaptive Time-Varying Filtering Empirical Mode Decomposition and Singular Value Decomposition Denoising",
      "venue": "Machines",
      "year": 2025,
      "referenceCount": 25,
      "citationCount": 8,
      "authors": [
        {
          "authorId": "2226344235",
          "name": "Xuezhuang E"
        },
        {
          "authorId": "2308535235",
          "name": "Wenbo Wang"
        },
        {
          "authorId": "2340418900",
          "name": "Hao Yuan"
        }
      ]
    },
    {
      "paperId": "3b04bbc9ddd360bbb6fe8e133f5ca9779d1a35dd",
      "externalIds": {
        "MAG": "2336675008",
        "DOI": "10.1016/J.BBE.2016.04.001",
        "CorpusId": 51996760
      },
      "url": "https://www.semanticscholar.org/paper/3b04bbc9ddd360bbb6fe8e133f5ca9779d1a35dd",
      "title": "An efficient algorithm of ECG signal denoising using the adaptive dual threshold filter and the discrete wavelet transform",
      "venue": "",
      "year": 2016,
      "referenceCount": 31,
      "citationCount": 160,
      "authors": [
        {
          "authorId": "8919885",
          "name": "W. Jenkal"
        },
        {
          "authorId": "2700168",
          "name": "R. Latif"
        },
        {
          "authorId": "3167929",
          "name": "A. Toumanari"
        },
        {
          "authorId": "9460109",
          "name": "A. Dliou"
        },
        {
          "authorId": "1409249094",
          "name": "O. E. B'charri"
        },
        {
          "authorId": "2605905",
          "name": "F. Maoulainine"
        }
      ]
    }
  ]
}