{
  "total": 2625,
  "offset": 0,
  "next": 10,
  "data": [
    {
      "paperId": "20442e4299c233f0fe1bdd23f70944b756f5a841",
      "externalIds": {
        "MAG": "2296112516",
        "CorpusId": 2454092
      },
      "url": "https://www.semanticscholar.org/paper/20442e4299c233f0fe1bdd23f70944b756f5a841",
      "title": "Starting small: learning with adaptive sample sizes",
      "venue": "International Conference on Machine Learning",
      "year": 2016,
      "referenceCount": 27,
      "citationCount": 48,
      "authors": [
        {
          "authorId": "1764651",
          "name": "Hadi Daneshmand"
        },
        {
          "authorId": "40401747",
          "name": "Aurélien Lucchi"
        },
        {
          "authorId": "143936663",
          "name": "Thomas Hofmann"
        }
      ]
    },
    {
      "paperId": "3fe8b990d628bfdea47b2ee668a25488e1a1a8d3",
      "externalIds": {
        "DBLP": "conf/icml/DaneshmandLH16",
        "ArXiv": "1603.02839",
        "MAG": "2950991820",
        "CorpusId": 263796721
      },
      "url": "https://www.semanticscholar.org/paper/3fe8b990d628bfdea47b2ee668a25488e1a1a8d3",
      "title": "Starting Small - Learning with Adaptive Sample Sizes",
      "venue": "International Conference on Machine Learning",
      "year": 2016,
      "referenceCount": 29,
      "citationCount": 0,
      "authors": [
        {
          "authorId": "1764651",
          "name": "Hadi Daneshmand"
        },
        {
          "authorId": "40401747",
          "name": "Aurélien Lucchi"
        },
        {
          "authorId": "2243267340",
          "name": "Thomas Hofmann"
        }
      ]
    },
    {
      "paperId": "8f43d06e339e2c9e7264ce0da21c83736323dbd1",
      "externalIds": {
        "DBLP": "journals/tmm/WangMMLS25",
        "DOI": "10.1109/TMM.2024.3521819",
        "CorpusId": 275214562
      },
      "url": "https://www.semanticscholar.org/paper/8f43d06e339e2c9e7264ce0da21c83736323dbd1",
      "title": "HTACPE: A Hybrid Transformer With Adaptive Content and Position Embedding for Sample Learning Efficiency of Hyperspectral Tracker",
      "venue": "IEEE transactions on multimedia",
      "year": 2025,
      "referenceCount": 52,
      "citationCount": 6,
      "authors": [
        {
          "authorId": "2115738064",
          "name": "Ye Wang"
        },
        {
          "authorId": "1745727",
          "name": "Shaohui Mei"
        },
        {
          "authorId": "1723602",
          "name": "Mingyang Ma"
        },
        {
          "authorId": "2299544933",
          "name": "Yuheng Liu"
        },
        {
          "authorId": "2186393571",
          "name": "Yuru Su"
        }
      ]
    },
    {
      "paperId": "6c7e1f6ed389b1e5cf14af70c9cff6bd2b699ac9",
      "externalIds": {
        "DBLP": "conf/ichi/BaskettS25",
        "DOI": "10.1109/ICHI64645.2025.00012",
        "CorpusId": 280169949
      },
      "url": "https://www.semanticscholar.org/paper/6c7e1f6ed389b1e5cf14af70c9cff6bd2b699ac9",
      "title": "Addressing Small Sample Size and Improving Interpretability in Biomedical Applications with Adaptive Complexity Deep Neural Networks",
      "venue": "IEEE International Conference on Healthcare Informatics",
      "year": 2025,
      "referenceCount": 31,
      "citationCount": 0,
      "authors": [
        {
          "authorId": "8747778",
          "name": "William I. Baskett"
        },
        {
          "authorId": "2153191033",
          "name": "Chi-Ren Shyu"
        }
      ]
    },
    {
      "paperId": "b72b4785c58d92671903603ad9320080feaf1d15",
      "externalIds": {
        "DOI": "10.1109/YAC66630.2025.11149878",
        "CorpusId": 281263212
      },
      "url": "https://www.semanticscholar.org/paper/b72b4785c58d92671903603ad9320080feaf1d15",
      "title": "Bearing Fault Diagnosis with Small Sample Sizes Based on CNN-SE-LSTM Transfer Learning",
      "venue": "Youth Academic Annual Conference of Chinese Association of Automation",
      "year": 2025,
      "referenceCount": 19,
      "citationCount": 1,
      "authors": [
        {
          "authorId": "2381929757",
          "name": "Xiandong Zeng"
        },
        {
          "authorId": "2248994715",
          "name": "Xiaoliang Feng"
        }
      ]
    },
    {
      "paperId": "03d4e6362731e88d805d58f020ed45226d7ef98a",
      "externalIds": {
        "DBLP": "journals/tgrs/ChenCLW24",
        "DOI": "10.1109/TGRS.2024.3512869",
        "CorpusId": 274632588
      },
      "url": "https://www.semanticscholar.org/paper/03d4e6362731e88d805d58f020ed45226d7ef98a",
      "title": "A Multichannel Hybrid 2D–3D-CNN for Hyperspectral Image Classification With Small Training Sample Sizes",
      "venue": "IEEE Transactions on Geoscience and Remote Sensing",
      "year": 2024,
      "referenceCount": 58,
      "citationCount": 9,
      "authors": [
        {
          "authorId": "2299158040",
          "name": "Shih-Yu Chen"
        },
        {
          "authorId": "2334682950",
          "name": "Po-Yu Chu"
        },
        {
          "authorId": "2164018563",
          "name": "Kuan Liu"
        },
        {
          "authorId": "2334702479",
          "name": "Yu-Cheng Wu"
        }
      ]
    },
    {
      "paperId": "5e6fc16b8b1db909b2d270d5d4d63055e6551fe1",
      "externalIds": {
        "DBLP": "journals/corr/abs-2510-04440",
        "ArXiv": "2510.04440",
        "DOI": "10.48550/arXiv.2510.04440",
        "CorpusId": 281843928
      },
      "url": "https://www.semanticscholar.org/paper/5e6fc16b8b1db909b2d270d5d4d63055e6551fe1",
      "title": "Fractional Heat Kernel for Semi-Supervised Graph Learning with Small Training Sample Size",
      "venue": "arXiv.org",
      "year": 2025,
      "referenceCount": 42,
      "citationCount": 0,
      "authors": [
        {
          "authorId": "2378573717",
          "name": "Farid Bozorgnia"
        },
        {
          "authorId": "2302154820",
          "name": "Vyacheslav Kungurtsev"
        },
        {
          "authorId": "51212175",
          "name": "S. Kadyrov"
        },
        {
          "authorId": "13203255",
          "name": "Mohsen Yousefnezhad"
        }
      ]
    },
    {
      "paperId": "b1c4be81b47fd2cb3e23dace49a4785daba3245a",
      "externalIds": {
        "DBLP": "journals/tce/BiCDSG25",
        "DOI": "10.1109/TCE.2025.3602258",
        "CorpusId": 280875531
      },
      "url": "https://www.semanticscholar.org/paper/b1c4be81b47fd2cb3e23dace49a4785daba3245a",
      "title": "Double Layer Robust 2DPCA: Joint Flexible Cut Norm and Adaptive Weighted Learning for Small Sample Size Image Recognition",
      "venue": "IEEE transactions on consumer electronics",
      "year": 2025,
      "referenceCount": 39,
      "citationCount": 0,
      "authors": [
        {
          "authorId": "50416776",
          "name": "Pengfei Bi"
        },
        {
          "authorId": "2144236512",
          "name": "Mei Chen"
        },
        {
          "authorId": "2177125675",
          "name": "Xue Du"
        },
        {
          "authorId": "2413405",
          "name": "F. Sohrab"
        },
        {
          "authorId": "1715200",
          "name": "M. Gabbouj"
        }
      ]
    },
    {
      "paperId": "de20dad1b4d7a4ef6cc2a7c9792de30b69ceac4e",
      "externalIds": {
        "PubMedCentral": "12062499",
        "DOI": "10.1038/s41598-025-96750-9",
        "CorpusId": 278434042,
        "PubMed": "40341829"
      },
      "url": "https://www.semanticscholar.org/paper/de20dad1b4d7a4ef6cc2a7c9792de30b69ceac4e",
      "title": "Adaptive optimization of natural coagulants using hybrid machine learning approach for sustainable water treatment",
      "venue": "Scientific Reports",
      "year": 2025,
      "referenceCount": 39,
      "citationCount": 13,
      "authors": [
        {
          "authorId": "13526645",
          "name": "P. Randive"
        },
        {
          "authorId": "2315491972",
          "name": "Madhuri S. Bhagat"
        },
        {
          "authorId": "71542189",
          "name": "M. Bhorkar"
        },
        {
          "authorId": "2325655584",
          "name": "R. M. Bhagat"
        },
        {
          "authorId": "2225140204",
          "name": "S. Vinchurkar"
        },
        {
          "authorId": "2132816198",
          "name": "Sagar D. Shelare"
        },
        {
          "authorId": "2283509740",
          "name": "Shubham Sharma"
        },
        {
          "authorId": "2344941230",
          "name": "N. Beemkumar"
        },
        {
          "authorId": "2355590276",
          "name": "S. Hemalatha"
        },
        {
          "authorId": "2354329074",
          "name": "Parveen Kumar"
        },
        {
          "authorId": "2322901025",
          "name": "Ankit Kedia"
        },
        {
          "authorId": "2229537368",
          "name": "Ehab El"
        },
        {
          "authorId": "2230400958",
          "name": "Sayed Massoud"
        },
        {
          "authorId": "2346645407",
          "name": "Deepak Gupta"
        },
        {
          "authorId": "98556110",
          "name": "J. Lozanović"
        }
      ]
    },
    {
      "paperId": "c37bd32af0cc979033e927f528a432d203663ab2",
      "externalIds": {
        "DBLP": "journals/apin/FengFY23",
        "DOI": "10.1007/s10489-022-04305-6",
        "CorpusId": 253485139
      },
      "url": "https://www.semanticscholar.org/paper/c37bd32af0cc979033e927f528a432d203663ab2",
      "title": "Small-sample size problems solving based on incremental learning: an adaptive Bayesian quadrature approach",
      "venue": "Applied intelligence (Boston)",
      "year": 2022,
      "referenceCount": 29,
      "citationCount": 3,
      "authors": [
        {
          "authorId": null,
          "name": "Yiding Feng"
        },
        {
          "authorId": "1964666",
          "name": "Xiang Feng"
        },
        {
          "authorId": "2118682546",
          "name": "Huiqun Yu"
        }
      ]
    }
  ]
}