{
  "total": 31,
  "offset": 0,
  "next": 10,
  "data": [
    {
      "paperId": "2530cfc7764bda1330c48c0c8e2cd0e0c671d7e1",
      "externalIds": {
        "MAG": "2951688345",
        "DBLP": "journals/corr/GaninL14a",
        "ArXiv": "1409.7495",
        "CorpusId": 6755881
      },
      "url": "https://www.semanticscholar.org/paper/2530cfc7764bda1330c48c0c8e2cd0e0c671d7e1",
      "title": "Unsupervised Domain Adaptation by Backpropagation",
      "venue": "International Conference on Machine Learning",
      "year": 2014,
      "referenceCount": 44,
      "citationCount": 6820,
      "authors": [
        {
          "authorId": "2825246",
          "name": "Yaroslav Ganin"
        },
        {
          "authorId": "1740145",
          "name": "V. Lempitsky"
        }
      ]
    },
    {
      "paperId": "a4ee00188d3a903c9e270b708e09a8c0a172a4d5",
      "externalIds": {
        "DOI": "10.22260/isarc2024/0111",
        "CorpusId": 270080186
      },
      "url": "https://www.semanticscholar.org/paper/a4ee00188d3a903c9e270b708e09a8c0a172a4d5",
      "title": "Automating Construction Safety Inspections using Robots and Unsupervised Deep Domain Adaptation by Backpropagation",
      "venue": "Proceedings of the International Symposium on Automation and Robotics in Construction (IAARC)",
      "year": 2024,
      "referenceCount": 15,
      "citationCount": 3,
      "authors": [
        {
          "authorId": "2303567096",
          "name": "Vimal Velusamy Bharathi"
        },
        {
          "authorId": "7322132",
          "name": "S. Prieto"
        },
        {
          "authorId": "98018377",
          "name": "Borja García de Soto"
        },
        {
          "authorId": "2303543045",
          "name": "Jochen Teizer"
        }
      ]
    },
    {
      "paperId": "05920698a3ea8aa82067598d728363aee8519cf4",
      "externalIds": {
        "DBLP": "journals/mlc/LinBW24",
        "DOI": "10.1007/s13042-023-02035-w",
        "CorpusId": 266382478
      },
      "url": "https://www.semanticscholar.org/paper/05920698a3ea8aa82067598d728363aee8519cf4",
      "title": "Deep adversarial reconstruction classification network for unsupervised domain adaptation",
      "venue": "International Journal of Machine Learning and Cybernetics",
      "year": 2023,
      "referenceCount": 43,
      "citationCount": 6,
      "authors": [
        {
          "authorId": "2275202832",
          "name": "Jiawei Lin"
        },
        {
          "authorId": "66618291",
          "name": "Zekang Bian"
        },
        {
          "authorId": "2263549661",
          "name": "Shitong Wang"
        }
      ]
    },
    {
      "paperId": "182e7fdf10677aa8d7722d195d9d8dcbcf381b78",
      "externalIds": {
        "DBLP": "journals/corr/GhifaryKZBL16",
        "ArXiv": "1607.03516",
        "MAG": "2950790587",
        "DOI": "10.1007/978-3-319-46493-0_36",
        "CorpusId": 52459
      },
      "url": "https://www.semanticscholar.org/paper/182e7fdf10677aa8d7722d195d9d8dcbcf381b78",
      "title": "Deep Reconstruction-Classification Networks for Unsupervised Domain Adaptation",
      "venue": "European Conference on Computer Vision",
      "year": 2016,
      "referenceCount": 64,
      "citationCount": 904,
      "authors": [
        {
          "authorId": "1900979",
          "name": "Muhammad Ghifary"
        },
        {
          "authorId": "144015910",
          "name": "W. Kleijn"
        },
        {
          "authorId": "145269712",
          "name": "Mengjie Zhang"
        },
        {
          "authorId": "1722983",
          "name": "David Balduzzi"
        },
        {
          "authorId": "98280253",
          "name": "Wen Li"
        }
      ]
    },
    {
      "paperId": "608003369d2160c872da5437f393a01b4aec94da",
      "externalIds": {
        "DBLP": "journals/access/LeeKLLKC22",
        "DOI": "10.1109/ACCESS.2022.3226510",
        "CorpusId": 254211334
      },
      "url": "https://www.semanticscholar.org/paper/608003369d2160c872da5437f393a01b4aec94da",
      "title": "Unsupervised Domain Adaptation for Low-Dose Computed Tomography Denoising",
      "venue": "IEEE Access",
      "year": 2022,
      "referenceCount": 64,
      "citationCount": 7,
      "authors": [
        {
          "authorId": "1686197280",
          "name": "Jaayeon Lee"
        },
        {
          "authorId": "1965926711",
          "name": "Wonjin Kim"
        },
        {
          "authorId": "2119392731",
          "name": "Yebin Lee"
        },
        {
          "authorId": "2195052205",
          "name": "Ji-Yeon Lee"
        },
        {
          "authorId": "1951149056",
          "name": "Eunji Ko"
        },
        {
          "authorId": "5527802",
          "name": "Jang-Hwan Choi"
        }
      ]
    },
    {
      "paperId": "832e4025b5177d6dda5be2621501d44a0be243fb",
      "externalIds": {
        "DBLP": "journals/scn/ChenT21",
        "DOI": "10.1155/2021/9942754",
        "CorpusId": 235396807
      },
      "url": "https://www.semanticscholar.org/paper/832e4025b5177d6dda5be2621501d44a0be243fb",
      "title": "FeatureTransfer: Unsupervised Domain Adaptation for Cross-Domain Deepfake Detection",
      "venue": "Secur. Commun. Networks",
      "year": 2021,
      "referenceCount": 42,
      "citationCount": 24,
      "authors": [
        {
          "authorId": "2108425565",
          "name": "Baoying Chen"
        },
        {
          "authorId": "39767758",
          "name": "Shunquan Tan"
        }
      ]
    },
    {
      "paperId": "4cf79f4b036d327689a3df4c596404903ff86998",
      "externalIds": {
        "MAG": "3132755470",
        "DOI": "10.1016/J.MEASUREMENT.2021.109186",
        "CorpusId": 233541334
      },
      "url": "https://www.semanticscholar.org/paper/4cf79f4b036d327689a3df4c596404903ff86998",
      "title": "Unsupervised machine fault diagnosis for noisy domain adaptation using marginal denoising autoencoder based on acoustic signals",
      "venue": "",
      "year": 2021,
      "referenceCount": 51,
      "citationCount": 62,
      "authors": [
        {
          "authorId": "66112377",
          "name": "Dengyu Xiao"
        },
        {
          "authorId": "31302391",
          "name": "Chengjin Qin"
        },
        {
          "authorId": "1725546057",
          "name": "Honggan Yu"
        },
        {
          "authorId": "2322993177",
          "name": "Yixiang Huang"
        },
        {
          "authorId": "1699591",
          "name": "Chengliang Liu"
        },
        {
          "authorId": "2108092056",
          "name": "Jianwei Zhang"
        }
      ]
    },
    {
      "paperId": "a2600546bb32c95c25d65aa31897cba5d5878e5f",
      "externalIds": {
        "ArXiv": "2506.01247",
        "CorpusId": 279074826
      },
      "url": "https://www.semanticscholar.org/paper/a2600546bb32c95c25d65aa31897cba5d5878e5f",
      "title": "Visual Sparse Steering (VS2): Unsupervised Adaptation for Image Classification using Sparsity-Guided Steering Vectors",
      "venue": "",
      "year": 2025,
      "referenceCount": 58,
      "citationCount": 0,
      "authors": [
        {
          "authorId": "2364745059",
          "name": "Gerasimos Chatzoudis"
        },
        {
          "authorId": "2338665942",
          "name": "Zhuowei Li"
        },
        {
          "authorId": "3433248",
          "name": "Gemma E. Moran"
        },
        {
          "authorId": "2302990745",
          "name": "Hao Wang"
        },
        {
          "authorId": "2257001837",
          "name": "Dimitris N. Metaxas"
        }
      ]
    },
    {
      "paperId": "35d8974ce380b3361a028b2dc6f3fad412a2a622",
      "externalIds": {
        "DBLP": "journals/corr/abs-2210-17412",
        "ArXiv": "2210.17412",
        "DOI": "10.48550/arXiv.2210.17412",
        "CorpusId": 253237615
      },
      "url": "https://www.semanticscholar.org/paper/35d8974ce380b3361a028b2dc6f3fad412a2a622",
      "title": "Adversarial Domain Adaptation for Action Recognition Around the Clock",
      "venue": "arXiv.org",
      "year": 2022,
      "referenceCount": 31,
      "citationCount": 6,
      "authors": [
        {
          "authorId": "35035828",
          "name": "A. Ulhaq"
        }
      ]
    },
    {
      "paperId": "64ea12d9ce1e608be047735cab3d8effc978fd3b",
      "externalIds": {
        "MAG": "3110486195",
        "ArXiv": "2007.02424",
        "DBLP": "conf/eccv/HuangLGZ20",
        "DOI": "10.1007/978-3-030-58555-6_42",
        "CorpusId": 220364556
      },
      "url": "https://www.semanticscholar.org/paper/64ea12d9ce1e608be047735cab3d8effc978fd3b",
      "title": "Contextual-Relation Consistent Domain Adaptation for Semantic Segmentation",
      "venue": "European Conference on Computer Vision",
      "year": 2020,
      "referenceCount": 68,
      "citationCount": 133,
      "authors": [
        {
          "authorId": "144284509",
          "name": "Jiaxing Huang"
        },
        {
          "authorId": "1771189",
          "name": "Shijian Lu"
        },
        {
          "authorId": "36051264",
          "name": "Dayan Guan"
        },
        {
          "authorId": "2108067296",
          "name": "Xiaobing Zhang"
        }
      ]
    }
  ]
}