{
  "total": 4410,
  "offset": 0,
  "next": 10,
  "data": [
    {
      "paperId": "1a173b718801ed0fa42d2185b9a15aebbb14078b",
      "externalIds": {
        "MAG": "2963069825",
        "ArXiv": "1703.02570",
        "DBLP": "journals/corr/MollaysaSK17",
        "CorpusId": 188930
      },
      "url": "https://www.semanticscholar.org/paper/1a173b718801ed0fa42d2185b9a15aebbb14078b",
      "title": "Regularising Non-linear Models Using Feature Side-information",
      "venue": "International Conference on Machine Learning",
      "year": 2017,
      "referenceCount": 29,
      "citationCount": 14,
      "authors": [
        {
          "authorId": "9628283",
          "name": "Amina Mollaysa"
        },
        {
          "authorId": "152952322",
          "name": "Pablo Strasser"
        },
        {
          "authorId": "1784711",
          "name": "Alexandros Kalousis"
        }
      ]
    },
    {
      "paperId": "a649e90e837c4b7bcd2d14d56fdd5562cf6455e6",
      "externalIds": {
        "PubMedCentral": "12115526",
        "DOI": "10.3390/s25103207",
        "CorpusId": 278814529,
        "PubMed": "40431999"
      },
      "url": "https://www.semanticscholar.org/paper/a649e90e837c4b7bcd2d14d56fdd5562cf6455e6",
      "title": "Development of Non-Invasive Continuous Glucose Prediction Models Using Multi-Modal Wearable Sensors in Free-Living Conditions",
      "venue": "Italian National Conference on Sensors",
      "year": 2025,
      "referenceCount": 60,
      "citationCount": 10,
      "authors": [
        {
          "authorId": "2310703940",
          "name": "T. Karunarathna"
        },
        {
          "authorId": "27087001",
          "name": "Zi-Yun Liang"
        }
      ]
    },
    {
      "paperId": "653447eea11420e00032f5752f63af736adcc19d",
      "externalIds": {
        "ArXiv": "2106.05238",
        "DBLP": "journals/corr/abs-2106-05238",
        "CorpusId": 235376789
      },
      "url": "https://www.semanticscholar.org/paper/653447eea11420e00032f5752f63af736adcc19d",
      "title": "I Don't Need u: Identifiable Non-Linear ICA Without Side Information",
      "venue": "arXiv.org",
      "year": 2021,
      "referenceCount": 62,
      "citationCount": 29,
      "authors": [
        {
          "authorId": "47975945",
          "name": "M. Willetts"
        },
        {
          "authorId": "2885717",
          "name": "Brooks Paige"
        }
      ]
    },
    {
      "paperId": "1b31591e66732357f1e905a86eea1a8b98f352f6",
      "externalIds": {
        "DBLP": "journals/mta/YengikandMA23",
        "DOI": "10.1007/s11042-023-15021-9",
        "CorpusId": 257422840
      },
      "url": "https://www.semanticscholar.org/paper/1b31591e66732357f1e905a86eea1a8b98f352f6",
      "title": "DHSIRS: a novel deep hybrid side information-based recommender system",
      "venue": "Multimedia tools and applications",
      "year": 2023,
      "referenceCount": 60,
      "citationCount": 13,
      "authors": [
        {
          "authorId": "2149087233",
          "name": "Amir Khani Yengikand"
        },
        {
          "authorId": "2732723",
          "name": "M. Meghdadi"
        },
        {
          "authorId": "1901767",
          "name": "S. Ahmadian"
        }
      ]
    },
    {
      "paperId": "8e39ad2ff70581d8f98fb6dfc4c516d8e3db38f8",
      "externalIds": {
        "DOI": "10.3390/app12073328",
        "CorpusId": 247736689
      },
      "url": "https://www.semanticscholar.org/paper/8e39ad2ff70581d8f98fb6dfc4c516d8e3db38f8",
      "title": "On the Black-Box Challenge for Fraud Detection Using Machine Learning (I): Linear Models and Informative Feature Selection",
      "venue": "Applied Sciences",
      "year": 2022,
      "referenceCount": 36,
      "citationCount": 20,
      "authors": [
        {
          "authorId": "2160432840",
          "name": "Jacobo Chaquet-Ulldemolins"
        },
        {
          "authorId": "1405698305",
          "name": "F. Gimeno-Blanes"
        },
        {
          "authorId": "1403968957",
          "name": "Santiago Moral-Rubio"
        },
        {
          "authorId": "1397324845",
          "name": "Sergio Muñoz-Romero"
        },
        {
          "authorId": "1397324809",
          "name": "J. Rojo-álvarez"
        }
      ]
    },
    {
      "paperId": "8835ed4b80bebcb60d4bc5514a574d3b3bde17d3",
      "externalIds": {
        "PubMedCentral": "10928191",
        "DOI": "10.1038/s41598-024-55243-x",
        "CorpusId": 268360141,
        "PubMed": "38467662"
      },
      "url": "https://www.semanticscholar.org/paper/8835ed4b80bebcb60d4bc5514a574d3b3bde17d3",
      "title": "A comparative study of 11 non-linear regression models highlighting autoencoder, DBN, and SVR, enhanced by SHAP importance analysis in soybean branching prediction",
      "venue": "Scientific Reports",
      "year": 2024,
      "referenceCount": 49,
      "citationCount": 117,
      "authors": [
        {
          "authorId": "2153566949",
          "name": "Wei Zhou"
        },
        {
          "authorId": "2274773124",
          "name": "Zhengxiao Yan"
        },
        {
          "authorId": "2142831057",
          "name": "Liting Zhang"
        }
      ]
    },
    {
      "paperId": "3cd0f0c5d10a1acec2716ec56819c195bad7bb89",
      "externalIds": {
        "DOI": "10.3390/math10173033",
        "CorpusId": 251819851
      },
      "url": "https://www.semanticscholar.org/paper/3cd0f0c5d10a1acec2716ec56819c195bad7bb89",
      "title": "Fault Classification in a Reciprocating Compressor and a Centrifugal Pump Using Non-Linear Entropy Features",
      "venue": "Mathematics",
      "year": 2022,
      "referenceCount": 56,
      "citationCount": 8,
      "authors": [
        {
          "authorId": "2056212955",
          "name": "Rubén Medina"
        },
        {
          "authorId": "47888704",
          "name": "M. Cerrada"
        },
        {
          "authorId": "2145096806",
          "name": "Shuai Yang"
        },
        {
          "authorId": "144069762",
          "name": "Diego Cabrera"
        },
        {
          "authorId": "2645460",
          "name": "E. Estupiñan"
        },
        {
          "authorId": "143901620",
          "name": "Réne-Vinicio Sánchez"
        }
      ]
    },
    {
      "paperId": "f529aad7625278836e0c64699e9995b040327d44",
      "externalIds": {
        "DBLP": "journals/tci/GualdronHurtadoAB24",
        "DOI": "10.1109/TCI.2024.3422900",
        "CorpusId": 271032613
      },
      "url": "https://www.semanticscholar.org/paper/f529aad7625278836e0c64699e9995b040327d44",
      "title": "Deep Learned Non-Linear Propagation Model Regularizer for Compressive Spectral Imaging",
      "venue": "IEEE Transactions on Computational Imaging",
      "year": 2024,
      "referenceCount": 61,
      "citationCount": 3,
      "authors": [
        {
          "authorId": "2185902707",
          "name": "Romario Gualdrón-Hurtado"
        },
        {
          "authorId": "2271158019",
          "name": "Henry Arguello"
        },
        {
          "authorId": "144477747",
          "name": "J. Bacca"
        }
      ]
    },
    {
      "paperId": "95709461be892b30cf4c08fe58ad072ed295d188",
      "externalIds": {
        "DOI": "10.1111/2041-210X.14385",
        "CorpusId": 263803058
      },
      "url": "https://www.semanticscholar.org/paper/95709461be892b30cf4c08fe58ad072ed295d188",
      "title": "Non‐linear phylogenetic regression using regularised kernels",
      "venue": "Methods in Ecology and Evolution",
      "year": 2024,
      "referenceCount": 73,
      "citationCount": 4,
      "authors": [
        {
          "authorId": "2006535945",
          "name": "Ulises Rosas‐Puchuri"
        },
        {
          "authorId": "6369215",
          "name": "Aintzane Santaquiteria"
        },
        {
          "authorId": "2256786330",
          "name": "Sina Khanmohammadi"
        },
        {
          "authorId": "1403426817",
          "name": "Claudia R. Solís-Lemus"
        },
        {
          "authorId": "2256787281",
          "name": "Ricardo Betancur-R"
        }
      ]
    },
    {
      "paperId": "1ef14f27b6f21cbe99f03317e14482b21a909fd7",
      "externalIds": {
        "DBLP": "journals/corr/abs-2502-13688",
        "ArXiv": "2502.13688",
        "DOI": "10.1109/ISIT63088.2025.11195361",
        "CorpusId": 276450146
      },
      "url": "https://www.semanticscholar.org/paper/1ef14f27b6f21cbe99f03317e14482b21a909fd7",
      "title": "Non-Linear Function Computation Broadcast",
      "venue": "International Symposium on Information Theory",
      "year": 2025,
      "referenceCount": 57,
      "citationCount": 5,
      "authors": [
        {
          "authorId": "2268683731",
          "name": "Mohammad Reza Deylam Salehi"
        },
        {
          "authorId": "2346114076",
          "name": "Vijith Kumar Kizhakke Purakkal"
        },
        {
          "authorId": "2049673",
          "name": "Derya Malak"
        }
      ]
    }
  ]
}