{
  "total": 272,
  "offset": 0,
  "next": 10,
  "data": [
    {
      "paperId": "123b9de009865472c660192f8072493a48352dc2",
      "externalIds": {
        "DBLP": "conf/icml/LebretPC15",
        "MAG": "1828348983",
        "ArXiv": "1502.03671",
        "CorpusId": 12064358
      },
      "url": "https://www.semanticscholar.org/paper/123b9de009865472c660192f8072493a48352dc2",
      "title": "Phrase-based Image Captioning",
      "venue": "International Conference on Machine Learning",
      "year": 2015,
      "referenceCount": 31,
      "citationCount": 124,
      "authors": [
        {
          "authorId": "2875254",
          "name": "R. Lebret"
        },
        {
          "authorId": "2708655",
          "name": "Pedro H. O. Pinheiro"
        },
        {
          "authorId": "2939803",
          "name": "R. Collobert"
        }
      ]
    },
    {
      "paperId": "1615a553148758974cccb7672243534ccf35c0db",
      "externalIds": {
        "MAG": "2969067475",
        "CorpusId": 39470036
      },
      "url": "https://www.semanticscholar.org/paper/1615a553148758974cccb7672243534ccf35c0db",
      "title": "Image Captioning using Visual Attention",
      "venue": "",
      "year": 2015,
      "referenceCount": 10,
      "citationCount": 0,
      "authors": [
        {
          "authorId": "9275432",
          "name": "Anadi Chaman"
        },
        {
          "authorId": "2065764057",
          "name": "K. Raja"
        }
      ]
    },
    {
      "paperId": "12aee52ad6c2b15d4006611651400baa9d01dee9",
      "externalIds": {
        "ACL": "P15-2018",
        "MAG": "2250842428",
        "DBLP": "conf/acl/YagciogluEEC15",
        "DOI": "10.3115/v1/P15-2018",
        "CorpusId": 18207738
      },
      "url": "https://www.semanticscholar.org/paper/12aee52ad6c2b15d4006611651400baa9d01dee9",
      "title": "A Distributed Representation Based Query Expansion Approach for Image Captioning",
      "venue": "Annual Meeting of the Association for Computational Linguistics",
      "year": 2015,
      "referenceCount": 30,
      "citationCount": 38,
      "authors": [
        {
          "authorId": "40387200",
          "name": "Semih Yagcioglu"
        },
        {
          "authorId": "152330322",
          "name": "Erkut Erdem"
        },
        {
          "authorId": "14364286",
          "name": "Aykut Erdem"
        },
        {
          "authorId": "2588033",
          "name": "Ruken Cakici"
        }
      ]
    },
    {
      "paperId": "015d25f66514ce0a966300944201d45968a104ba",
      "externalIds": {
        "MAG": "1572851248",
        "CorpusId": 264967812
      },
      "url": "https://www.semanticscholar.org/paper/015d25f66514ce0a966300944201d45968a104ba",
      "title": "Simple Image Description Generator via a Linear Phrase-based Model",
      "venue": "",
      "year": 2015,
      "referenceCount": 16,
      "citationCount": 4,
      "authors": [
        {
          "authorId": "2875254",
          "name": "R. Lebret"
        },
        {
          "authorId": "2300176183",
          "name": "Pedro O. Pinheiro"
        },
        {
          "authorId": "2939803",
          "name": "R. Collobert"
        }
      ]
    },
    {
      "paperId": "11c9c31dff70de92ada9160c78ff8bb46b2912d6",
      "externalIds": {
        "ArXiv": "1505.04870",
        "DBLP": "conf/iccv/PlummerWCCHL15",
        "MAG": "2568262903",
        "DOI": "10.1007/s11263-016-0965-7",
        "CorpusId": 6941275
      },
      "url": "https://www.semanticscholar.org/paper/11c9c31dff70de92ada9160c78ff8bb46b2912d6",
      "title": "Flickr30k Entities: Collecting Region-to-Phrase Correspondences for Richer Image-to-Sentence Models",
      "venue": "International Journal of Computer Vision",
      "year": 2015,
      "referenceCount": 84,
      "citationCount": 2507,
      "authors": [
        {
          "authorId": "2856622",
          "name": "Bryan A. Plummer"
        },
        {
          "authorId": "39060743",
          "name": "Liwei Wang"
        },
        {
          "authorId": "6648406",
          "name": "Christopher M. Cervantes"
        },
        {
          "authorId": "145507543",
          "name": "Juan C. Caicedo"
        },
        {
          "authorId": "3118681",
          "name": "J. Hockenmaier"
        },
        {
          "authorId": "1749609",
          "name": "Svetlana Lazebnik"
        }
      ]
    },
    {
      "paperId": "205e895e03969c96f3c482b0bd26308b16a12bd0",
      "externalIds": {
        "MAG": "568317867",
        "DBLP": "journals/corr/WuSHLD15",
        "CorpusId": 6530643
      },
      "url": "https://www.semanticscholar.org/paper/205e895e03969c96f3c482b0bd26308b16a12bd0",
      "title": "Image Captioning with an Intermediate Attributes Layer",
      "venue": "arXiv.org",
      "year": 2015,
      "referenceCount": 46,
      "citationCount": 17,
      "authors": [
        {
          "authorId": "144663765",
          "name": "Qi Wu"
        },
        {
          "authorId": "1780381",
          "name": "Chunhua Shen"
        },
        {
          "authorId": "5546141",
          "name": "Anton van den Hengel"
        },
        {
          "authorId": "2161037",
          "name": "Lingqiao Liu"
        },
        {
          "authorId": "2699095",
          "name": "A. Dick"
        }
      ]
    },
    {
      "paperId": "40c99ebfcea63c18b2fa1615fe6811e9af09a60e",
      "externalIds": {
        "MAG": "1783830328",
        "DBLP": "journals/corr/KolarHZ15",
        "CorpusId": 2612979
      },
      "url": "https://www.semanticscholar.org/paper/40c99ebfcea63c18b2fa1615fe6811e9af09a60e",
      "title": "Technical Report: Image Captioning with Semantically Similar Images",
      "venue": "arXiv.org",
      "year": 2015,
      "referenceCount": 5,
      "citationCount": 6,
      "authors": [
        {
          "authorId": "2060245727",
          "name": "Martin Kolář"
        },
        {
          "authorId": "1700956",
          "name": "Michal Hradiš"
        },
        {
          "authorId": "1722571",
          "name": "P. Zemčík"
        }
      ]
    },
    {
      "paperId": "231b4be56ec3061d6b6837e45e6e7361239191ea",
      "externalIds": {
        "MAG": "2549813025",
        "CorpusId": 63389352
      },
      "url": "https://www.semanticscholar.org/paper/231b4be56ec3061d6b6837e45e6e7361239191ea",
      "title": "Automatic Caption Generation for News Images using Phrase Based Model",
      "venue": "",
      "year": 2015,
      "referenceCount": 14,
      "citationCount": 1,
      "authors": [
        {
          "authorId": "52611863",
          "name": "Priyanka M. Kadhav"
        },
        {
          "authorId": "2097013872",
          "name": "Pritam Nikam"
        },
        {
          "authorId": "1409218945",
          "name": "Abha Gaikwad-Patil"
        }
      ]
    },
    {
      "paperId": "2ba30381337020c0e8a2a86acbf977740d3c4a8d",
      "externalIds": {
        "ArXiv": "1506.03995",
        "CorpusId": 11410286
      },
      "url": "https://www.semanticscholar.org/paper/2ba30381337020c0e8a2a86acbf977740d3c4a8d",
      "title": "Technical Report: Image Captioning with Semantically Similar Images",
      "venue": "",
      "year": 2015,
      "referenceCount": 6,
      "citationCount": 0,
      "authors": [
        {
          "authorId": "1455054787",
          "name": "Martin Kol'avr"
        },
        {
          "authorId": "80846842",
          "name": "Michal Hradivs"
        },
        {
          "authorId": "1387889145",
          "name": "Pavel Zemvc'ik"
        }
      ]
    },
    {
      "paperId": "d7ce5665a72c0b607f484c1b448875f02ddfac3b",
      "externalIds": {
        "DBLP": "journals/corr/JohnsonKL15",
        "MAG": "2254252455",
        "ArXiv": "1511.07571",
        "DOI": "10.1109/CVPR.2016.494",
        "CorpusId": 14521054
      },
      "url": "https://www.semanticscholar.org/paper/d7ce5665a72c0b607f484c1b448875f02ddfac3b",
      "title": "DenseCap: Fully Convolutional Localization Networks for Dense Captioning",
      "venue": "Computer Vision and Pattern Recognition",
      "year": 2015,
      "referenceCount": 57,
      "citationCount": 1233,
      "authors": [
        {
          "authorId": "2115231104",
          "name": "Justin Johnson"
        },
        {
          "authorId": "2354728",
          "name": "A. Karpathy"
        },
        {
          "authorId": "48004138",
          "name": "Li Fei-Fei"
        }
      ]
    }
  ]
}