{
  "total": 102764,
  "offset": 0,
  "next": 10,
  "data": [
    {
      "paperId": "14b27e5853d4739453b4916c3e5fe1edf6edfdf5",
      "externalIds": {
        "DBLP": "conf/icml/Chaudhuri0N17",
        "MAG": "2740717009",
        "CorpusId": 5901811
      },
      "url": "https://www.semanticscholar.org/paper/14b27e5853d4739453b4916c3e5fe1edf6edfdf5",
      "title": "Active Heteroscedastic Regression",
      "venue": "International Conference on Machine Learning",
      "year": 2017,
      "referenceCount": 18,
      "citationCount": 20,
      "authors": [
        {
          "authorId": "38120884",
          "name": "Kamalika Chaudhuri"
        },
        {
          "authorId": "48964143",
          "name": "Prateek Jain"
        },
        {
          "authorId": "145328735",
          "name": "Nagarajan Natarajan"
        }
      ]
    },
    {
      "paperId": "17951c716ae087da0bc80d71030ec415f70c0c22",
      "externalIds": {
        "DBLP": "journals/corr/abs-2602-11825",
        "ArXiv": "2602.11825",
        "DOI": "10.48550/arXiv.2602.11825",
        "CorpusId": 285540458
      },
      "url": "https://www.semanticscholar.org/paper/17951c716ae087da0bc80d71030ec415f70c0c22",
      "title": "CAAL: Confidence-Aware Active Learning for Heteroscedastic Atmospheric Regression",
      "venue": "arXiv.org",
      "year": 2026,
      "referenceCount": 74,
      "citationCount": 0,
      "authors": [
        {
          "authorId": "2361477091",
          "name": "Fei Jiang"
        },
        {
          "authorId": "2410740142",
          "name": "Jiyang Xia"
        },
        {
          "authorId": "2338503467",
          "name": "Junjie Yu"
        },
        {
          "authorId": "2360823147",
          "name": "Mingfei Sun"
        },
        {
          "authorId": "2288949895",
          "name": "Hugh Coe"
        },
        {
          "authorId": "2238529319",
          "name": "David O. Topping"
        },
        {
          "authorId": "2272287544",
          "name": "Dantong Liu"
        },
        {
          "authorId": "2286559078",
          "name": "Zhenhui Li"
        },
        {
          "authorId": "2256386235",
          "name": "Zhonghua Zheng"
        }
      ]
    },
    {
      "paperId": "8337da7b0aedbf5e889b715013704479ecb4519e",
      "externalIds": {
        "MAG": "2610406656",
        "DBLP": "journals/tamd/StramandinoliTP18",
        "DOI": "10.1109/TCDS.2017.2700207",
        "CorpusId": 49187095
      },
      "url": "https://www.semanticscholar.org/paper/8337da7b0aedbf5e889b715013704479ecb4519e",
      "title": "Heteroscedastic Regression and Active Learning for Modeling Affordances in Humanoids",
      "venue": "IEEE Transactions on Cognitive and Developmental Systems",
      "year": 2018,
      "referenceCount": 40,
      "citationCount": 6,
      "authors": [
        {
          "authorId": "2562262",
          "name": "Francesca Stramandinoli"
        },
        {
          "authorId": "3324252",
          "name": "V. Tikhanoff"
        },
        {
          "authorId": "2212120",
          "name": "U. Pattacini"
        },
        {
          "authorId": "1692768",
          "name": "F. Nori"
        }
      ]
    },
    {
      "paperId": "4fb7c7c714ef7fe39f1802133432188af7564f86",
      "externalIds": {
        "MAG": "2738416099",
        "DBLP": "conf/icra/WilsonW17",
        "DOI": "10.1109/ICRA.2017.7989763",
        "CorpusId": 26865407
      },
      "url": "https://www.semanticscholar.org/paper/4fb7c7c714ef7fe39f1802133432188af7564f86",
      "title": "Active sample selection in scalar fields exhibiting non-stationary noise with parametric heteroscedastic Gaussian process regression",
      "venue": "IEEE International Conference on Robotics and Automation",
      "year": 2017,
      "referenceCount": 25,
      "citationCount": 4,
      "authors": [
        {
          "authorId": "2067872803",
          "name": "T. Wilson"
        },
        {
          "authorId": "2221004",
          "name": "Stefan B. Williams"
        }
      ]
    },
    {
      "paperId": "555de6a7c58e193cb579fe0ccf13a4af0dfd1e96",
      "externalIds": {
        "DOI": "10.1080/13632469.2023.2167890",
        "CorpusId": 256543823
      },
      "url": "https://www.semanticscholar.org/paper/555de6a7c58e193cb579fe0ccf13a4af0dfd1e96",
      "title": "Region Specific Ground-Motion Predictive Models for Shallow Active Regions",
      "venue": "Journal of earthquake engineering",
      "year": 2023,
      "referenceCount": 46,
      "citationCount": 8,
      "authors": [
        {
          "authorId": "2204254800",
          "name": "Abdullah İçen"
        },
        {
          "authorId": "70407534",
          "name": "M. Sandıkkaya"
        }
      ]
    },
    {
      "paperId": "dc43bae04a72cc87ca9ebd356dab47f4acb1c539",
      "externalIds": {
        "DBLP": "journals/corr/abs-2305-17520",
        "ArXiv": "2305.17520",
        "DOI": "10.48550/arXiv.2305.17520",
        "CorpusId": 258960583
      },
      "url": "https://www.semanticscholar.org/paper/dc43bae04a72cc87ca9ebd356dab47f4acb1c539",
      "title": "USIM-DAL: Uncertainty-aware Statistical Image Modeling-based Dense Active Learning for Super-resolution",
      "venue": "Conference on Uncertainty in Artificial Intelligence",
      "year": 2023,
      "referenceCount": 60,
      "citationCount": 5,
      "authors": [
        {
          "authorId": "2149995828",
          "name": "Vikrant Rangnekar"
        },
        {
          "authorId": "66960240",
          "name": "Uddeshya Upadhyay"
        },
        {
          "authorId": "2893664",
          "name": "Zeynep Akata"
        },
        {
          "authorId": "49124777",
          "name": "Biplab Banerjee"
        }
      ]
    },
    {
      "paperId": "30af7353d507845b8dde28f2ff16e369f336855d",
      "externalIds": {
        "MAG": "2398519551",
        "CorpusId": 35580200,
        "PubMed": "8996850"
      },
      "url": "https://www.semanticscholar.org/paper/30af7353d507845b8dde28f2ff16e369f336855d",
      "title": "Parametrization by nonlinear regression analysis of the active acid metabolite of ebastine using different weighting methods.",
      "venue": "International journal of clinical pharmacology and therapeutics",
      "year": 1996,
      "referenceCount": 0,
      "citationCount": 9,
      "authors": [
        {
          "authorId": "1838687",
          "name": "E. Mariño"
        },
        {
          "authorId": "7618338",
          "name": "J. Jansat"
        },
        {
          "authorId": "108508254",
          "name": "M. March"
        },
        {
          "authorId": "145796340",
          "name": "C. Lastra"
        }
      ]
    },
    {
      "paperId": "92675a53b9a66265a62580f17c7375d93970819b",
      "externalIds": {
        "ArXiv": "1201.0327",
        "MAG": "2951386090",
        "DOI": "10.1080/01621459.2013.827984",
        "CorpusId": 88518577
      },
      "url": "https://www.semanticscholar.org/paper/92675a53b9a66265a62580f17c7375d93970819b",
      "title": "Local Linear Regression on Manifolds and Its Geometric Interpretation",
      "venue": "",
      "year": 2012,
      "referenceCount": 72,
      "citationCount": 98,
      "authors": [
        {
          "authorId": "2809590",
          "name": "Ming-Yen Cheng"
        },
        {
          "authorId": "49498848",
          "name": "Hau‐Tieng Wu"
        }
      ]
    },
    {
      "paperId": "0cc07677d545760ec88435e41df7ccc2794fcd4a",
      "externalIds": {
        "PubMedCentral": "10801063",
        "DOI": "10.3389/fspor.2023.1282898",
        "CorpusId": 266883857,
        "PubMed": "38260816"
      },
      "url": "https://www.semanticscholar.org/paper/0cc07677d545760ec88435e41df7ccc2794fcd4a",
      "title": "Factors driving FIFA world cup 2022 viewership ratings in mainland China: marketing outlooks for FIFA world cup 2026",
      "venue": "Frontiers in Sports and Active Living",
      "year": 2024,
      "referenceCount": 31,
      "citationCount": 0,
      "authors": [
        {
          "authorId": "89210606",
          "name": "L. Misener"
        },
        {
          "authorId": "2327752658",
          "name": "Ivana M. Milovanović"
        },
        {
          "authorId": "2404020503",
          "name": "Dario Novak"
        },
        {
          "authorId": "2404016042",
          "name": "Zongqing Wang"
        },
        {
          "authorId": "2254310717",
          "name": "Lide Su"
        },
        {
          "authorId": "2250576397",
          "name": "Tao Gong"
        },
        {
          "authorId": "2128499843",
          "name": "Te Bu"
        },
        {
          "authorId": "2202392430",
          "name": "Yang Zhang"
        }
      ]
    },
    {
      "paperId": "cbd9ae407b99320259a2d0b4dffa0bece7b0dd76",
      "externalIds": {
        "DBLP": "journals/lgrs/VerrelstBC21",
        "MAG": "3073865269",
        "DOI": "10.1109/lgrs.2020.3014676",
        "CorpusId": 226260651,
        "PubMed": "36090008"
      },
      "url": "https://www.semanticscholar.org/paper/cbd9ae407b99320259a2d0b4dffa0bece7b0dd76",
      "title": "Intelligent Sampling for Vegetation Nitrogen Mapping Based on Hybrid Machine Learning Algorithms",
      "venue": "IEEE Geoscience and Remote Sensing Letters",
      "year": 2020,
      "referenceCount": 39,
      "citationCount": 68,
      "authors": [
        {
          "authorId": "2069785",
          "name": "J. Verrelst"
        },
        {
          "authorId": "7539349",
          "name": "K. Berger"
        },
        {
          "authorId": "1402140364",
          "name": "J. P. Rivera-Caicedo"
        }
      ]
    }
  ]
}