{
  "total": 901,
  "offset": 0,
  "next": 10,
  "data": [
    {
      "paperId": "907a90967f68da4311802247408e0515e363f930",
      "externalIds": {
        "MAG": "2962808524",
        "DBLP": "conf/icml/HoffmanTPZISED18",
        "ArXiv": "1711.03213",
        "CorpusId": 7646250
      },
      "url": "https://www.semanticscholar.org/paper/907a90967f68da4311802247408e0515e363f930",
      "title": "CyCADA: Cycle-Consistent Adversarial Domain Adaptation",
      "venue": "International Conference on Machine Learning",
      "year": 2017,
      "referenceCount": 53,
      "citationCount": 3231,
      "authors": [
        {
          "authorId": "50196944",
          "name": "Judy Hoffman"
        },
        {
          "authorId": "2368132",
          "name": "E. Tzeng"
        },
        {
          "authorId": "2071929129",
          "name": "Taesung Park"
        },
        {
          "authorId": "2436356",
          "name": "Jun-Yan Zhu"
        },
        {
          "authorId": "2094770",
          "name": "Phillip Isola"
        },
        {
          "authorId": "2903226",
          "name": "Kate Saenko"
        },
        {
          "authorId": "1763086",
          "name": "Alexei A. Efros"
        },
        {
          "authorId": "1753210",
          "name": "Trevor Darrell"
        }
      ]
    },
    {
      "paperId": "074b6fe0cc6848fb86a6703d1c52074494177c79",
      "externalIds": {
        "CorpusId": 260550517
      },
      "url": "https://www.semanticscholar.org/paper/074b6fe0cc6848fb86a6703d1c52074494177c79",
      "title": "CyCADA: Cycle-Consistent Adversarial Domain Adaptation",
      "venue": "",
      "year": 2018,
      "referenceCount": 0,
      "citationCount": 0,
      "authors": []
    },
    {
      "paperId": "468f7fdb5708d5aab9e089884a195c5a5eeb2f03",
      "externalIds": {
        "MAG": "3007227736",
        "DBLP": "conf/icmla/MathurIKBL19",
        "DOI": "10.1109/ICMLA.2019.00155",
        "CorpusId": 211227746
      },
      "url": "https://www.semanticscholar.org/paper/468f7fdb5708d5aab9e089884a195c5a5eeb2f03",
      "title": "FlexAdapt: Flexible Cycle-Consistent Adversarial Domain Adaptation",
      "venue": "International Conference on Machine Learning and Applications",
      "year": 2019,
      "referenceCount": 16,
      "citationCount": 10,
      "authors": [
        {
          "authorId": "2005305",
          "name": "Akhil Mathur"
        },
        {
          "authorId": "1956147",
          "name": "Anton Isopoussu"
        },
        {
          "authorId": "1776175",
          "name": "F. Kawsar"
        },
        {
          "authorId": "1398541310",
          "name": "N. Bianchi-Berthouze"
        },
        {
          "authorId": "144948031",
          "name": "N. Lane"
        }
      ]
    },
    {
      "paperId": "7666e2e0681e7892806bc058f40ffacaaaf1f7f7",
      "externalIds": {
        "DBLP": "journals/corr/abs-2005-04906",
        "MAG": "3014019598",
        "ArXiv": "2005.04906",
        "DOI": "10.1145/3375923.3375948",
        "CorpusId": 214624672
      },
      "url": "https://www.semanticscholar.org/paper/7666e2e0681e7892806bc058f40ffacaaaf1f7f7",
      "title": "An Inductive Transfer Learning Approach using Cycle-consistent Adversarial Domain Adaptation with Application to Brain Tumor Segmentation",
      "venue": "International Conferences on Biomedical and Bioinformatics Engineering",
      "year": 2019,
      "referenceCount": 19,
      "citationCount": 20,
      "authors": [
        {
          "authorId": "90509202",
          "name": "Y. Tokuoka"
        },
        {
          "authorId": "2122851914",
          "name": "Shuji Suzuki"
        },
        {
          "authorId": "1588522045",
          "name": "Yohei Sugawara"
        }
      ]
    },
    {
      "paperId": "b989e6a346be1dad8eaf15a2b7b638b5b2ea3929",
      "externalIds": {
        "ArXiv": "2601.16677",
        "DBLP": "journals/eaai/GuittaLopezGBL25",
        "DOI": "10.1016/j.engappai.2025.111510",
        "CorpusId": 279889410
      },
      "url": "https://www.semanticscholar.org/paper/b989e6a346be1dad8eaf15a2b7b638b5b2ea3929",
      "title": "Sim-to-real transfer via a Style-Identified Cycle Consistent Generative Adversarial Network: Zero-shot deployment on robotic manipulators through visual domain adaptation",
      "venue": "Engineering applications of artificial intelligence",
      "year": 2025,
      "referenceCount": 51,
      "citationCount": 2,
      "authors": [
        {
          "authorId": "2190074254",
          "name": "Lucía Güitta-López"
        },
        {
          "authorId": "2380383425",
          "name": "Lionel Güitta-López"
        },
        {
          "authorId": "2369058900",
          "name": "Jaime Boal"
        },
        {
          "authorId": "2380486310",
          "name": "Alvaro Jesús López López"
        }
      ]
    },
    {
      "paperId": "2dd2bd42d76472faff66f20aa900b93689e2dc6c",
      "externalIds": {
        "DOI": "10.1109/JSEN.2023.3291437",
        "CorpusId": 259967308
      },
      "url": "https://www.semanticscholar.org/paper/2dd2bd42d76472faff66f20aa900b93689e2dc6c",
      "title": "An Unsupervised Domain Adaptation Method for Intelligent Bearing Fault Diagnosis Based on Signal Reconstruction by Cycle-Consistent Adversarial Learning",
      "venue": "IEEE Sensors Journal",
      "year": 2023,
      "referenceCount": 38,
      "citationCount": 19,
      "authors": [
        {
          "authorId": "2111465974",
          "name": "Wenying Zhu"
        },
        {
          "authorId": "39899971",
          "name": "Boqiang Shi"
        },
        {
          "authorId": "2152084691",
          "name": "Zhipeng Feng"
        },
        {
          "authorId": "66239722",
          "name": "Jiachen Tang"
        }
      ]
    },
    {
      "paperId": "cd40d1b5ffed37d6e73bd589b95e0c9feaa7e985",
      "externalIds": {
        "DBLP": "journals/ijon/ZhouLW24",
        "DOI": "10.1016/j.neucom.2024.128604",
        "CorpusId": 272930541
      },
      "url": "https://www.semanticscholar.org/paper/cd40d1b5ffed37d6e73bd589b95e0c9feaa7e985",
      "title": "Cycle-Consistent Adversarial chest X-rays Domain Adaptation for pneumonia diagnosis",
      "venue": "Neurocomputing",
      "year": 2024,
      "referenceCount": 0,
      "citationCount": 2,
      "authors": [
        {
          "authorId": "2303085299",
          "name": "Yue Zhou"
        },
        {
          "authorId": "2303232085",
          "name": "Xiaoqiang Li"
        },
        {
          "authorId": "2115768648",
          "name": "Yuanchen Wu"
        }
      ]
    },
    {
      "paperId": "c3e570f68045333a3a983d488bbece307c347a4b",
      "externalIds": {
        "DBLP": "journals/corr/abs-2601-16677",
        "DOI": "10.48550/arXiv.2601.16677",
        "CorpusId": 285873398
      },
      "url": "https://www.semanticscholar.org/paper/c3e570f68045333a3a983d488bbece307c347a4b",
      "title": "Sim-to-Real Transfer via a Style-Identified Cycle Consistent Generative Adversarial Network: Zero-Shot Deployment on Robotic Manipulators through Visual Domain Adaptation",
      "venue": "arXiv.org",
      "year": 2026,
      "referenceCount": 0,
      "citationCount": 0,
      "authors": [
        {
          "authorId": "2190074254",
          "name": "Lucía Güitta-López"
        },
        {
          "authorId": "2380383425",
          "name": "Lionel Güitta-López"
        },
        {
          "authorId": "2369058900",
          "name": "Jaime Boal"
        },
        {
          "authorId": "2380486310",
          "name": "Alvaro Jesús López López"
        }
      ]
    },
    {
      "paperId": "71d3f1f3729ed3484e529fc7b13db3cca9eb466b",
      "externalIds": {
        "DBLP": "conf/itsc/BarreraBGIG21",
        "ArXiv": "2104.11021",
        "DOI": "10.1109/itsc48978.2021.9564553",
        "CorpusId": 233346824
      },
      "url": "https://www.semanticscholar.org/paper/71d3f1f3729ed3484e529fc7b13db3cca9eb466b",
      "title": "Cycle and Semantic Consistent Adversarial Domain Adaptation for Reducing Simulation-to-Real Domain Shift in LiDAR Bird's Eye View",
      "venue": "International Conference on Intelligent Transportation Systems",
      "year": 2021,
      "referenceCount": 23,
      "citationCount": 13,
      "authors": [
        {
          "authorId": "2054536120",
          "name": "Alejandro Barrera"
        },
        {
          "authorId": "2065256920",
          "name": "J. Beltr'an"
        },
        {
          "authorId": "12273551",
          "name": "Carlos Guindel"
        },
        {
          "authorId": "2055355126",
          "name": "J. Iglesias"
        },
        {
          "authorId": "1410371223",
          "name": "F. Garc'ia"
        }
      ]
    },
    {
      "paperId": "c43d954cf8133e6254499f3d68e45218067e4941",
      "externalIds": {
        "MAG": "2951488027",
        "DBLP": "conf/iccv/ZhuPIE17",
        "ArXiv": "1703.10593",
        "DOI": "10.1109/ICCV.2017.244",
        "CorpusId": 206770979
      },
      "url": "https://www.semanticscholar.org/paper/c43d954cf8133e6254499f3d68e45218067e4941",
      "title": "Unpaired Image-to-Image Translation Using Cycle-Consistent Adversarial Networks",
      "venue": "IEEE International Conference on Computer Vision",
      "year": 2017,
      "referenceCount": 68,
      "citationCount": 5637,
      "authors": [
        {
          "authorId": "2436356",
          "name": "Jun-Yan Zhu"
        },
        {
          "authorId": "2071929129",
          "name": "Taesung Park"
        },
        {
          "authorId": "2094770",
          "name": "Phillip Isola"
        },
        {
          "authorId": "1763086",
          "name": "Alexei A. Efros"
        }
      ]
    }
  ]
}