{
  "total": 718,
  "offset": 0,
  "next": 10,
  "data": [
    {
      "paperId": "33db5d18c40414eb99ff6e76c134ed1bf8f6541a",
      "externalIds": {
        "DBLP": "conf/icml/SharmaNK18",
        "MAG": "2953734705",
        "ArXiv": "1907.01739",
        "CorpusId": 51868390
      },
      "url": "https://www.semanticscholar.org/paper/33db5d18c40414eb99ff6e76c134ed1bf8f6541a",
      "title": "Solving Partial Assignment Problems using Random Clique Complexes",
      "venue": "International Conference on Machine Learning",
      "year": 2019,
      "referenceCount": 31,
      "citationCount": 2,
      "authors": [
        {
          "authorId": "2054073826",
          "name": "Charu Sharma"
        },
        {
          "authorId": "51130642",
          "name": "Deepak Nathani"
        },
        {
          "authorId": "38723417",
          "name": "Manohar Kaul"
        }
      ]
    },
    {
      "paperId": "169a46d2cc95aa7e52bb85ccc2972fe269dc8ec4",
      "externalIds": {
        "CorpusId": 260541058
      },
      "url": "https://www.semanticscholar.org/paper/169a46d2cc95aa7e52bb85ccc2972fe269dc8ec4",
      "title": "Solving Partial Assignment Problems Using Random Clique Complexes",
      "venue": "",
      "year": 2018,
      "referenceCount": 8,
      "citationCount": 0,
      "authors": []
    },
    {
      "paperId": "4e1928497e8aa4603b91bb1401e1f79e39e3bb1e",
      "externalIds": {
        "ArXiv": "2502.02440",
        "DOI": "10.1063/5.0289386",
        "CorpusId": 276107772
      },
      "url": "https://www.semanticscholar.org/paper/4e1928497e8aa4603b91bb1401e1f79e39e3bb1e",
      "title": "Physics-informed neural networks for solving moving interface flow problems using the level set approach",
      "venue": "The Physics of Fluids",
      "year": 2025,
      "referenceCount": 78,
      "citationCount": 8,
      "authors": [
        {
          "authorId": "2343751608",
          "name": "Mathieu Mullins"
        },
        {
          "authorId": "2309967606",
          "name": "H. Kamil"
        },
        {
          "authorId": "152205323",
          "name": "Adil Fahsi"
        },
        {
          "authorId": "2139197845",
          "name": "Azzedine Soulaïmani"
        }
      ]
    },
    {
      "paperId": "4a9ae61e3d19881642cc2cfe46609dae3c7ee5bc",
      "externalIds": {
        "ArXiv": "2510.07945",
        "CorpusId": 281951048
      },
      "url": "https://www.semanticscholar.org/paper/4a9ae61e3d19881642cc2cfe46609dae3c7ee5bc",
      "title": "Quantum Random Feature Method for Solving Partial Differential Equations",
      "venue": "",
      "year": 2025,
      "referenceCount": 68,
      "citationCount": 0,
      "authors": [
        {
          "authorId": "2117230216",
          "name": "Junpeng Hu"
        },
        {
          "authorId": "2240746038",
          "name": "Shi Jin"
        },
        {
          "authorId": "2240252433",
          "name": "Nana Liu"
        },
        {
          "authorId": "2256831211",
          "name": "Lei Zhang"
        }
      ]
    },
    {
      "paperId": "6b4ff9f8995f95091a8ac0936f8f879c48d97803",
      "externalIds": {
        "DOI": "10.30560/ijas.v8n4p16",
        "CorpusId": 282660435
      },
      "url": "https://www.semanticscholar.org/paper/6b4ff9f8995f95091a8ac0936f8f879c48d97803",
      "title": "An Enhanced Genetic Algorithm Framework for Efficiently Solving Balanced and Unbalanced Assignment Problems",
      "venue": "International Journal of Applied Science",
      "year": 2025,
      "referenceCount": 0,
      "citationCount": 0,
      "authors": [
        {
          "authorId": "2389826205",
          "name": "S. B. R. D. Dhananjalee"
        },
        {
          "authorId": "2389836350",
          "name": "E. M. U. S. B. Ekanayake"
        }
      ]
    },
    {
      "paperId": "b3959df4085c2735e948a9ba5231280983d3af52",
      "externalIds": {
        "DOI": "10.1007/s10409-025-25023-x",
        "CorpusId": 285535080
      },
      "url": "https://www.semanticscholar.org/paper/b3959df4085c2735e948a9ba5231280983d3af52",
      "title": "Residual cascade extreme learning machine for solving partial differential equations",
      "venue": "Acta Mechanica Sinica",
      "year": 2026,
      "referenceCount": 38,
      "citationCount": 0,
      "authors": [
        {
          "authorId": "2325054044",
          "name": "Daiwei Dong"
        },
        {
          "authorId": "40245141",
          "name": "J. Kou"
        },
        {
          "authorId": "145090980",
          "name": "W. Suo"
        },
        {
          "authorId": "2273905707",
          "name": "Weiwei Zhang"
        }
      ]
    },
    {
      "paperId": "50f17ca9f3d08b006f4c519be60bda53fdb8d8d3",
      "externalIds": {
        "DOI": "10.1038/s42256-025-01141-4",
        "CorpusId": 283101514
      },
      "url": "https://www.semanticscholar.org/paper/50f17ca9f3d08b006f4c519be60bda53fdb8d8d3",
      "title": "Reusability report: A distributed strategy for solving combinatorial optimization problems with hypergraph neural networks",
      "venue": "Nature Machine Intelligence",
      "year": 2025,
      "referenceCount": 32,
      "citationCount": 1,
      "authors": [
        {
          "authorId": "2316777237",
          "name": "Xiaodi Li"
        },
        {
          "authorId": "2318983250",
          "name": "Jianfeng Gui"
        },
        {
          "authorId": "2273681975",
          "name": "Wei Xue"
        },
        {
          "authorId": "2393436185",
          "name": "Baochuan Wang"
        },
        {
          "authorId": "2410072327",
          "name": "Kai Chen"
        },
        {
          "authorId": "2118223845",
          "name": "Pi Wei"
        },
        {
          "authorId": "2152106416",
          "name": "Junfeng Xia"
        },
        {
          "authorId": "2266877011",
          "name": "Z. Yue"
        }
      ]
    },
    {
      "paperId": "9e733f318fd2bed2e7a4c86c6b4a8b54836aac38",
      "externalIds": {
        "DBLP": "conf/icc/ChristouHK25",
        "DOI": "10.1109/ICC52391.2025.11161534",
        "CorpusId": 281604164
      },
      "url": "https://www.semanticscholar.org/paper/9e733f318fd2bed2e7a4c86c6b4a8b54836aac38",
      "title": "The Impact of Reinforcement Learning Formulations on Solving the Routing and Spectrum Assignment Problem",
      "venue": "ICC 2025 - IEEE International Conference on Communications",
      "year": 2025,
      "referenceCount": 25,
      "citationCount": 0,
      "authors": [
        {
          "authorId": "2127028221",
          "name": "Filippos Christou"
        },
        {
          "authorId": "2382371698",
          "name": "Nicolas Hornek"
        },
        {
          "authorId": "2290090490",
          "name": "Andreas Kirstädter"
        }
      ]
    },
    {
      "paperId": "f6f5eb1ea3e2515e0824f714054a300dbb11944e",
      "externalIds": {
        "DOI": "10.35784/acs_8031",
        "CorpusId": 287059240
      },
      "url": "https://www.semanticscholar.org/paper/f6f5eb1ea3e2515e0824f714054a300dbb11944e",
      "title": "Reinforcement learning for solving optimization problems: Opportunities and limitations on the example of the assignment problem",
      "venue": "Applied Computer Science",
      "year": 2026,
      "referenceCount": 36,
      "citationCount": 0,
      "authors": [
        {
          "authorId": "2364506067",
          "name": "Wojciech Misztal"
        },
        {
          "authorId": "1581492200",
          "name": "S. Nazarewicz"
        }
      ]
    },
    {
      "paperId": "1de7348772a19b4a8c8696ddc49460ea96027d8d",
      "externalIds": {
        "DBLP": "journals/corr/abs-2308-04330",
        "ArXiv": "2308.04330",
        "DOI": "10.48550/arXiv.2308.04330",
        "CorpusId": 260704594
      },
      "url": "https://www.semanticscholar.org/paper/1de7348772a19b4a8c8696ddc49460ea96027d8d",
      "title": "The Random Feature Method for Solving Interface Problems",
      "venue": "arXiv.org",
      "year": 2023,
      "referenceCount": 47,
      "citationCount": 16,
      "authors": [
        {
          "authorId": "2179327676",
          "name": "Xurong Chi"
        },
        {
          "authorId": "2294415902",
          "name": "Jingrun Chen"
        },
        {
          "authorId": "2016529",
          "name": "Zhouwang Yang"
        }
      ]
    }
  ]
}