{
  "total": 782,
  "offset": 0,
  "next": 10,
  "data": [
    {
      "paperId": "eb9d38ffe69fc9f425dd085e7f93171d7e63f935",
      "externalIds": {
        "MAG": "2804066879",
        "DBLP": "conf/icml/MullerMI18",
        "DOI": "10.5167/UZH-168601",
        "CorpusId": 51872632
      },
      "url": "https://www.semanticscholar.org/paper/eb9d38ffe69fc9f425dd085e7f93171d7e63f935",
      "title": "Kernelized Synaptic Weight Matrices",
      "venue": "International Conference on Machine Learning",
      "year": 2018,
      "referenceCount": 31,
      "citationCount": 24,
      "authors": [
        {
          "authorId": "3444613",
          "name": "Lorenz K. Muller"
        },
        {
          "authorId": "144247981",
          "name": "Julien N. P. Martel"
        },
        {
          "authorId": "1721210",
          "name": "G. Indiveri"
        }
      ]
    },
    {
      "paperId": "b81ec52919dc677f37c2320d518176f3c5a250aa",
      "externalIds": {
        "MAG": "2996292179",
        "CorpusId": 213381458
      },
      "url": "https://www.semanticscholar.org/paper/b81ec52919dc677f37c2320d518176f3c5a250aa",
      "title": "Coding Properties of Firing Rate Models with Low-Rank Synaptic Weight Matrices",
      "venue": "",
      "year": 2019,
      "referenceCount": 0,
      "citationCount": 0,
      "authors": [
        {
          "authorId": "22555214",
          "name": "Steven Collazos"
        }
      ]
    },
    {
      "paperId": "8f30c30f92fbe1c307ee3c7a68c80a2c0dc8d619",
      "externalIds": {
        "ArXiv": "2210.06184",
        "DBLP": "journals/corr/abs-2210-06184",
        "DOI": "10.48550/arXiv.2210.06184",
        "CorpusId": 252846193
      },
      "url": "https://www.semanticscholar.org/paper/8f30c30f92fbe1c307ee3c7a68c80a2c0dc8d619",
      "title": "Images as Weight Matrices: Sequential Image Generation Through Synaptic Learning Rules",
      "venue": "International Conference on Learning Representations",
      "year": 2022,
      "referenceCount": 53,
      "citationCount": 9,
      "authors": [
        {
          "authorId": "2350348",
          "name": "K. Irie"
        },
        {
          "authorId": "145341374",
          "name": "J. Schmidhuber"
        }
      ]
    },
    {
      "paperId": "6229aabe9d16dffaa2cb809467d050b4326cc0b3",
      "externalIds": {
        "MAG": "2752702410",
        "DOI": "10.1109/AIACT.2017.8020067",
        "CorpusId": 32895729
      },
      "url": "https://www.semanticscholar.org/paper/6229aabe9d16dffaa2cb809467d050b4326cc0b3",
      "title": "The compression of the input images in neural network that using method diagonalization the matrices of synaptic weight connections",
      "venue": "Advanced Industrial Conference on Telecommunications",
      "year": 2017,
      "referenceCount": 10,
      "citationCount": 11,
      "authors": [
        {
          "authorId": "144007792",
          "name": "V. Lytvyn"
        },
        {
          "authorId": "23747436",
          "name": "I. Peleshchak"
        },
        {
          "authorId": "23750863",
          "name": "R. Peleshchak"
        }
      ]
    },
    {
      "paperId": "b76ea3f0d71e55bb0a5cacff1f40ea8e7ad96647",
      "externalIds": {
        "DBLP": "journals/corr/abs-2510-24037",
        "ArXiv": "2510.24037",
        "DOI": "10.48550/arXiv.2510.24037",
        "CorpusId": 282401652
      },
      "url": "https://www.semanticscholar.org/paper/b76ea3f0d71e55bb0a5cacff1f40ea8e7ad96647",
      "title": "Kernelized Sparse Fine-Tuning with Bi-level Parameter Competition for Vision Models",
      "venue": "arXiv.org",
      "year": 2025,
      "referenceCount": 103,
      "citationCount": 0,
      "authors": [
        {
          "authorId": "2329525526",
          "name": "Shufan Shen"
        },
        {
          "authorId": "2313588221",
          "name": "Junshu Sun"
        },
        {
          "authorId": "2319173985",
          "name": "Shuhui Wang"
        },
        {
          "authorId": "2256640224",
          "name": "Qingming Huang"
        }
      ]
    },
    {
      "paperId": "f9cc956d04a369194991033fb6941f09ad1c1780",
      "externalIds": {
        "ArXiv": "2502.10699",
        "DBLP": "journals/corr/abs-2502-10699",
        "DOI": "10.48550/arXiv.2502.10699",
        "CorpusId": 276408686
      },
      "url": "https://www.semanticscholar.org/paper/f9cc956d04a369194991033fb6941f09ad1c1780",
      "title": "Exploring Synaptic Resonance in Large Language Models: A Novel Approach to Contextual Memory Integration",
      "venue": "arXiv.org",
      "year": 2025,
      "referenceCount": 24,
      "citationCount": 3,
      "authors": [
        {
          "authorId": "2345820997",
          "name": "George Applegarth"
        },
        {
          "authorId": "2345820540",
          "name": "Christian Weatherstone"
        },
        {
          "authorId": "2088920483",
          "name": "M. Hollingsworth"
        },
        {
          "authorId": "2345820543",
          "name": "Henry Middlebrook"
        },
        {
          "authorId": "2341335422",
          "name": "Marcus Irvin"
        }
      ]
    },
    {
      "paperId": "8b647c2e31b42322e63f0a6a090a36390f2dc5d3",
      "externalIds": {
        "ArXiv": "2507.21002",
        "CorpusId": 280323068
      },
      "url": "https://www.semanticscholar.org/paper/8b647c2e31b42322e63f0a6a090a36390f2dc5d3",
      "title": "Spectral distribution of sparse Gaussian Ensembles of Real Asymmetric Matrices",
      "venue": "",
      "year": 2025,
      "referenceCount": 19,
      "citationCount": 1,
      "authors": [
        {
          "authorId": "2386361491",
          "name": "Ratul Dutta"
        },
        {
          "authorId": "2258801406",
          "name": "Pragya Shukla"
        }
      ]
    },
    {
      "paperId": "c672c5e04a2e95af993938da5dda4f18808955e8",
      "externalIds": {
        "ArXiv": "2511.14691",
        "DBLP": "journals/corr/abs-2511-14691",
        "DOI": "10.48550/arXiv.2511.14691",
        "CorpusId": 283080540
      },
      "url": "https://www.semanticscholar.org/paper/c672c5e04a2e95af993938da5dda4f18808955e8",
      "title": "Attention via Synaptic Plasticity is All You Need: A Biologically Inspired Spiking Neuromorphic Transformer",
      "venue": "arXiv.org",
      "year": 2025,
      "referenceCount": 60,
      "citationCount": 1,
      "authors": [
        {
          "authorId": "2392962201",
          "name": "K. Mondal"
        },
        {
          "authorId": "2272582728",
          "name": "Ankush Kumar"
        }
      ]
    },
    {
      "paperId": "74ea5f560e54e87a897f70281d8575718ffca4ce",
      "externalIds": {
        "DBLP": "journals/corr/abs-2507-06380",
        "ArXiv": "2507.06380",
        "DOI": "10.48550/arXiv.2507.06380",
        "CorpusId": 280134231
      },
      "url": "https://www.semanticscholar.org/paper/74ea5f560e54e87a897f70281d8575718ffca4ce",
      "title": "Secure and Storage-Efficient Deep Learning Models for Edge AI Using Automatic Weight Generation",
      "venue": "arXiv.org",
      "year": 2025,
      "referenceCount": 28,
      "citationCount": 2,
      "authors": [
        {
          "authorId": "2280620469",
          "name": "Habibur Rahaman"
        },
        {
          "authorId": "2267767185",
          "name": "Atri Chatterjee"
        },
        {
          "authorId": "145787089",
          "name": "S. Bhunia"
        }
      ]
    },
    {
      "paperId": "55ebef2c837fc4401ab7c0840fb36aa6e0cda5d7",
      "externalIds": {
        "PubMedCentral": "12064777",
        "DOI": "10.1038/s41467-025-59815-x",
        "CorpusId": 278455291,
        "PubMed": "40346103"
      },
      "url": "https://www.semanticscholar.org/paper/55ebef2c837fc4401ab7c0840fb36aa6e0cda5d7",
      "title": "Two-dimensional materials based two-transistor-two-resistor synaptic kernel for efficient neuromorphic computing",
      "venue": "Nature Communications",
      "year": 2025,
      "referenceCount": 48,
      "citationCount": 23,
      "authors": [
        {
          "authorId": "2296267312",
          "name": "Qian He"
        },
        {
          "authorId": "2296106202",
          "name": "Hailiang Wang"
        },
        {
          "authorId": "2290640828",
          "name": "Yishu Zhang"
        },
        {
          "authorId": "2179437331",
          "name": "Anzhe Chen"
        },
        {
          "authorId": "2314164242",
          "name": "Yu Fu"
        },
        {
          "authorId": "2058288391",
          "name": "Guo-Wei Xue"
        },
        {
          "authorId": "2156230227",
          "name": "Kaihui Liu"
        },
        {
          "authorId": "2326125291",
          "name": "Shiman Huang"
        },
        {
          "authorId": "2279410067",
          "name": "Yang Xu"
        },
        {
          "authorId": "2279299577",
          "name": "Bin Yu"
        }
      ]
    }
  ]
}