{
  "total": 7144,
  "offset": 0,
  "next": 10,
  "data": [
    {
      "paperId": "24a966b6b2c63b62076bd4f548d74399fc3b1a4f",
      "externalIds": {
        "MAG": "2963881026",
        "ArXiv": "1701.08585",
        "DBLP": "conf/icml/WangWTS17",
        "CorpusId": 1060885
      },
      "url": "https://www.semanticscholar.org/paper/24a966b6b2c63b62076bd4f548d74399fc3b1a4f",
      "title": "Variational Policy for Guiding Point Processes",
      "venue": "International Conference on Machine Learning",
      "year": 2017,
      "referenceCount": 58,
      "citationCount": 23,
      "authors": [
        {
          "authorId": "2116640426",
          "name": "Yichen Wang"
        },
        {
          "authorId": "2284321",
          "name": "Grady Williams"
        },
        {
          "authorId": "1751063",
          "name": "Evangelos A. Theodorou"
        },
        {
          "authorId": "1779453",
          "name": "Le Song"
        }
      ]
    },
    {
      "paperId": "8eabb3a9bffb882030e0e72755ccbed4bc88bb81",
      "externalIds": {
        "MAG": "2583917808",
        "DBLP": "journals/corr/WangWTS17",
        "CorpusId": 1870355
      },
      "url": "https://www.semanticscholar.org/paper/8eabb3a9bffb882030e0e72755ccbed4bc88bb81",
      "title": "A Unifying Framework for Guiding Point Processes with Stochastic Intensity Functions",
      "venue": "arXiv.org",
      "year": 2017,
      "referenceCount": 35,
      "citationCount": 1,
      "authors": [
        {
          "authorId": "2116640426",
          "name": "Yichen Wang"
        },
        {
          "authorId": "2284321",
          "name": "Grady Williams"
        },
        {
          "authorId": "1751063",
          "name": "Evangelos A. Theodorou"
        },
        {
          "authorId": "1779453",
          "name": "Le Song"
        }
      ]
    },
    {
      "paperId": "2b2b9ecaf6d3b21aef5284931648937fc13facc8",
      "externalIds": {
        "DBLP": "conf/iclr/SongRL24",
        "CorpusId": 269153568
      },
      "url": "https://www.semanticscholar.org/paper/2b2b9ecaf6d3b21aef5284931648937fc13facc8",
      "title": "Amortized Network Intervention to Steer the Excitatory Point Processes",
      "venue": "International Conference on Learning Representations",
      "year": 2024,
      "referenceCount": 49,
      "citationCount": 0,
      "authors": [
        {
          "authorId": "2257123096",
          "name": "Zitao Song"
        },
        {
          "authorId": "2256982979",
          "name": "Wendi Ren"
        },
        {
          "authorId": "2257328581",
          "name": "Shuang Li"
        }
      ]
    },
    {
      "paperId": "c986096d70acfa1f899a55ce7df036938dbde0ce",
      "externalIds": {
        "ArXiv": "2511.20647",
        "DBLP": "journals/corr/abs-2511-20647",
        "DOI": "10.48550/arXiv.2511.20647",
        "CorpusId": 283251420
      },
      "url": "https://www.semanticscholar.org/paper/c986096d70acfa1f899a55ce7df036938dbde0ce",
      "title": "Diverse Video Generation with Determinantal Point Process-Guided Policy Optimization",
      "venue": "arXiv.org",
      "year": 2025,
      "referenceCount": 39,
      "citationCount": 1,
      "authors": [
        {
          "authorId": "2336952973",
          "name": "Tahira Kazimi"
        },
        {
          "authorId": "2334355144",
          "name": "Connor Dunlop"
        },
        {
          "authorId": "3137679",
          "name": "Pinar Yanardag"
        }
      ]
    },
    {
      "paperId": "7cf779d889dbf155e089289bab1495be2b186b11",
      "externalIds": {
        "DBLP": "conf/aaai/QuTXSZM23",
        "ArXiv": "2201.12569",
        "DOI": "10.1609/aaai.v37i8.26142",
        "CorpusId": 246431011
      },
      "url": "https://www.semanticscholar.org/paper/7cf779d889dbf155e089289bab1495be2b186b11",
      "title": "Bellman Meets Hawkes: Model-Based Reinforcement Learning via Temporal Point Processes",
      "venue": "AAAI Conference on Artificial Intelligence",
      "year": 2022,
      "referenceCount": 56,
      "citationCount": 23,
      "authors": [
        {
          "authorId": "2064702529",
          "name": "C. Qu"
        },
        {
          "authorId": "2153585312",
          "name": "Xiaoyu Tan"
        },
        {
          "authorId": "2149919635",
          "name": "Siqiao Xue"
        },
        {
          "authorId": "2119204984",
          "name": "X. Shi"
        },
        {
          "authorId": "2108020140",
          "name": "James Zhang"
        },
        {
          "authorId": "33344744",
          "name": "Hongyuan Mei"
        }
      ]
    },
    {
      "paperId": "5fa7914587aa8ab2b5928fa3bd3b8230aa414c3d",
      "externalIds": {
        "DBLP": "journals/corr/abs-2407-00451",
        "DOI": "10.48550/arXiv.2407.00451",
        "CorpusId": 270870415
      },
      "url": "https://www.semanticscholar.org/paper/5fa7914587aa8ab2b5928fa3bd3b8230aa414c3d",
      "title": "Language-Guided Object-Centric Diffusion Policy for Collision-Aware Robotic Manipulation",
      "venue": "arXiv.org",
      "year": 2024,
      "referenceCount": 41,
      "citationCount": 11,
      "authors": [
        {
          "authorId": "2304497178",
          "name": "Hang Li"
        },
        {
          "authorId": "2304520165",
          "name": "Qian Feng"
        },
        {
          "authorId": "2304555983",
          "name": "Zhi Zheng"
        },
        {
          "authorId": "2296219375",
          "name": "Jianxiang Feng"
        },
        {
          "authorId": "2262217323",
          "name": "Alois Knoll"
        }
      ]
    },
    {
      "paperId": "88bb52ab80b2f1866c62f67d4b5f87b258352ca3",
      "externalIds": {
        "ArXiv": "2506.19269",
        "DBLP": "journals/corr/abs-2506-19269",
        "DOI": "10.48550/arXiv.2506.19269",
        "CorpusId": 279999971
      },
      "url": "https://www.semanticscholar.org/paper/88bb52ab80b2f1866c62f67d4b5f87b258352ca3",
      "title": "AnchorDP3: 3D Affordance Guided Sparse Diffusion Policy for Robotic Manipulation",
      "venue": "arXiv.org",
      "year": 2025,
      "referenceCount": 24,
      "citationCount": 4,
      "authors": [
        {
          "authorId": "2143776034",
          "name": "Ziyan Zhao"
        },
        {
          "authorId": "2350864614",
          "name": "Ke Fan"
        },
        {
          "authorId": "2409960147",
          "name": "He-Yang Xu"
        },
        {
          "authorId": "2342405472",
          "name": "Ning Qiao"
        },
        {
          "authorId": "2262216482",
          "name": "Bo Peng"
        },
        {
          "authorId": "2379835106",
          "name": "Wenlong Gao"
        },
        {
          "authorId": "2108809564",
          "name": "Dongjiang Li"
        },
        {
          "authorId": "2342472659",
          "name": "Hui Shen"
        }
      ]
    },
    {
      "paperId": "013139839b5b7ff4cdd48e7cecf9982ae8118649",
      "externalIds": {
        "MAG": "2593560573",
        "DBLP": "conf/aistats/WangTVS18",
        "CorpusId": 1553726
      },
      "url": "https://www.semanticscholar.org/paper/013139839b5b7ff4cdd48e7cecf9982ae8118649",
      "title": "A Stochastic Differential Equation Framework for Guiding Online User Activities in Closed Loop",
      "venue": "International Conference on Artificial Intelligence and Statistics",
      "year": 2016,
      "referenceCount": 61,
      "citationCount": 20,
      "authors": [
        {
          "authorId": "2116640426",
          "name": "Yichen Wang"
        },
        {
          "authorId": "1751063",
          "name": "Evangelos A. Theodorou"
        },
        {
          "authorId": "3363380",
          "name": "Apurv Verma"
        },
        {
          "authorId": "1779453",
          "name": "Le Song"
        }
      ]
    },
    {
      "paperId": "cd3a17c68a9a59a09ed1013f234bc3b2eb8cc1a4",
      "externalIds": {
        "DBLP": "journals/tase/ChenWMFZWW24",
        "DOI": "10.1109/TASE.2023.3346049",
        "CorpusId": 266587393
      },
      "url": "https://www.semanticscholar.org/paper/cd3a17c68a9a59a09ed1013f234bc3b2eb8cc1a4",
      "title": "Toward Safe Distributed Multi-Robot Navigation Coupled With Variational Bayesian Model",
      "venue": "IEEE Transactions on Automation Science and Engineering",
      "year": 2024,
      "referenceCount": 36,
      "citationCount": 18,
      "authors": [
        {
          "authorId": "2118537539",
          "name": "Lin Chen"
        },
        {
          "authorId": "2119050236",
          "name": "Yaonan Wang"
        },
        {
          "authorId": "9140332",
          "name": "Zhiqiang Miao"
        },
        {
          "authorId": "3446916",
          "name": "Mingtao Feng"
        },
        {
          "authorId": "2233737946",
          "name": "Zhen Zhou"
        },
        {
          "authorId": "2149695144",
          "name": "Hesheng Wang"
        },
        {
          "authorId": "2237409256",
          "name": "Danwei Wang"
        }
      ]
    },
    {
      "paperId": "b6826767f2e3cfe061d7a8c38d4bb38e8fdd2e9d",
      "externalIds": {
        "DBLP": "conf/ssci/SahaMMYSW20",
        "DOI": "10.1109/SSCI47803.2020.9308513",
        "CorpusId": 230994284
      },
      "url": "https://www.semanticscholar.org/paper/b6826767f2e3cfe061d7a8c38d4bb38e8fdd2e9d",
      "title": "Quantifying The Generative Capabilities Of Variational Autoencoders For 3D Car Point Clouds",
      "venue": "IEEE Symposium Series on Computational Intelligence",
      "year": 2020,
      "referenceCount": 35,
      "citationCount": 9,
      "authors": [
        {
          "authorId": "1486050465",
          "name": "Sneha Saha"
        },
        {
          "authorId": "144892002",
          "name": "Stefan Menzel"
        },
        {
          "authorId": "1805698",
          "name": "Leandro L. Minku"
        },
        {
          "authorId": "143901532",
          "name": "X. Yao"
        },
        {
          "authorId": "1718432",
          "name": "B. Sendhoff"
        },
        {
          "authorId": "1793341",
          "name": "Patricia Wollstadt"
        }
      ]
    }
  ]
}