{
  "total": 1169,
  "offset": 0,
  "next": 10,
  "data": [
    {
      "paperId": "89b1766a77f7a34aadd67861123d5cf3cd3ece52",
      "externalIds": {
        "CorpusId": 215716912
      },
      "url": "https://www.semanticscholar.org/paper/89b1766a77f7a34aadd67861123d5cf3cd3ece52",
      "title": "UvA-DARE (Digital Academic Repository) Neural Relational Inference for Interacting Systems Neural Relational Inference for Interacting Systems",
      "venue": "",
      "year": 2018,
      "referenceCount": 42,
      "citationCount": 855,
      "authors": [
        {
          "authorId": "1643311826",
          "name": "T. Fetaya"
        },
        {
          "authorId": "50844928",
          "name": "E. Wang"
        },
        {
          "authorId": "1643758681",
          "name": "K.-C. Welling"
        },
        {
          "authorId": "47446467",
          "name": "M. Zemel"
        },
        {
          "authorId": "41016725",
          "name": "Thomas Kipf"
        },
        {
          "authorId": "2645055",
          "name": "Ethan Fetaya"
        },
        {
          "authorId": "122782486",
          "name": "Kuan-Chieh Jackson Wang"
        },
        {
          "authorId": "1678311",
          "name": "M. Welling"
        },
        {
          "authorId": "1804104",
          "name": "R. Zemel"
        }
      ]
    },
    {
      "paperId": "18ce00b9262a96990d1e4f395ab7ab282bdbf90e",
      "externalIds": {
        "DBLP": "conf/pkdd/RamosBAK21",
        "ArXiv": "2106.11083",
        "DOI": "10.1007/978-3-030-86517-7_12",
        "CorpusId": 235490557
      },
      "url": "https://www.semanticscholar.org/paper/18ce00b9262a96990d1e4f395ab7ab282bdbf90e",
      "title": "Conditional Neural Relational Inference for Interacting Systems",
      "venue": "ECML/PKDD",
      "year": 2021,
      "referenceCount": 33,
      "citationCount": 38,
      "authors": [
        {
          "authorId": "2113967936",
          "name": "J. Ramos"
        },
        {
          "authorId": "51430494",
          "name": "Lionel Blondé"
        },
        {
          "authorId": "2065933961",
          "name": "S. Armand"
        },
        {
          "authorId": "1784711",
          "name": "Alexandros Kalousis"
        }
      ]
    },
    {
      "paperId": "d9c9ea22955b3911bf93303b78b63d5a83ad2ed6",
      "externalIds": {
        "CorpusId": 287542348
      },
      "url": "https://www.semanticscholar.org/paper/d9c9ea22955b3911bf93303b78b63d5a83ad2ed6",
      "title": "UvA-DARE (Digital Academic Repository) Neural Relational Inference for Interacting Systems",
      "venue": "",
      "year": null,
      "referenceCount": 0,
      "citationCount": 0,
      "authors": []
    },
    {
      "paperId": "1276c9065b1e60143c7f0164329742aab866f694",
      "externalIds": {
        "CorpusId": 287542344
      },
      "url": "https://www.semanticscholar.org/paper/1276c9065b1e60143c7f0164329742aab866f694",
      "title": "UvA-DARE (Digital Academic Repository) Neural Relational Inference for Interacting Systems",
      "venue": "",
      "year": null,
      "referenceCount": 0,
      "citationCount": 0,
      "authors": []
    },
    {
      "paperId": "f75314b8b34a25237b6b9f4f51668c335794be2b",
      "externalIds": {
        "CorpusId": 287542342
      },
      "url": "https://www.semanticscholar.org/paper/f75314b8b34a25237b6b9f4f51668c335794be2b",
      "title": "UvA-DARE (Digital Academic Repository) Neural Relational Inference for Interacting Systems",
      "venue": "",
      "year": null,
      "referenceCount": 0,
      "citationCount": 0,
      "authors": []
    },
    {
      "paperId": "eaad1865050f8213ecae404d5e8b014441b520fd",
      "externalIds": {
        "PubMedCentral": "8964751",
        "DOI": "10.1038/s41467-022-29331-3",
        "CorpusId": 247791499,
        "PubMed": "35351887"
      },
      "url": "https://www.semanticscholar.org/paper/eaad1865050f8213ecae404d5e8b014441b520fd",
      "title": "Neural relational inference to learn long-range allosteric interactions in proteins from molecular dynamics simulations",
      "venue": "Nature Communications",
      "year": 2022,
      "referenceCount": 47,
      "citationCount": 101,
      "authors": [
        {
          "authorId": "9276708",
          "name": "Jingxuan Zhu"
        },
        {
          "authorId": "2051631891",
          "name": "Juexin Wang"
        },
        {
          "authorId": "48637297",
          "name": "Weiwei Han"
        },
        {
          "authorId": "2119022525",
          "name": "Dong Xu"
        }
      ]
    },
    {
      "paperId": "ed41df7a97042859c2606db3cdb09cb3850f2667",
      "externalIds": {
        "DOI": "10.1109/CEI66465.2025.11398760",
        "CorpusId": 286136190
      },
      "url": "https://www.semanticscholar.org/paper/ed41df7a97042859c2606db3cdb09cb3850f2667",
      "title": "Efficient Probabilistic Relational Inference for Partially Observable Interacting Dynamical Systems",
      "venue": "2025 5th International Conference on Computer Science, Electronic Information Engineering and Intelligent Control Technology (CEI)",
      "year": 2025,
      "referenceCount": 30,
      "citationCount": 0,
      "authors": [
        {
          "authorId": "2392760066",
          "name": "Yi Ding"
        },
        {
          "authorId": "2310194161",
          "name": "Weitao Song"
        },
        {
          "authorId": "2295922178",
          "name": "Qi Tao"
        },
        {
          "authorId": "2302463242",
          "name": "Xingxing Liang"
        },
        {
          "authorId": "2302468503",
          "name": "Longfei Zhang"
        },
        {
          "authorId": "2281128370",
          "name": "Guangquan Cheng"
        }
      ]
    },
    {
      "paperId": "afa8d027217e14d0b0bfbea7f1f74be53cdb4c4e",
      "externalIds": {
        "ArXiv": "2411.01442",
        "DBLP": "journals/corr/abs-2411-01442",
        "DOI": "10.48550/arXiv.2411.01442",
        "CorpusId": 273811256
      },
      "url": "https://www.semanticscholar.org/paper/afa8d027217e14d0b0bfbea7f1f74be53cdb4c4e",
      "title": "Online Relational Inference for Evolving Multi-agent Interacting Systems",
      "venue": "Neural Information Processing Systems",
      "year": 2024,
      "referenceCount": 31,
      "citationCount": 5,
      "authors": [
        {
          "authorId": "2147193296",
          "name": "Beomseok Kang"
        },
        {
          "authorId": "40862506",
          "name": "Priyabrata Saha"
        },
        {
          "authorId": "2051691267",
          "name": "Sudarshan Sharma"
        },
        {
          "authorId": "1443748128",
          "name": "Biswadeep Chakraborty"
        },
        {
          "authorId": "2238159399",
          "name": "Saibal Mukhopadhyay"
        }
      ]
    },
    {
      "paperId": "36d1934e8f6e5b16696aa22968d4a78790e6bf4d",
      "externalIds": {
        "ArXiv": "2101.09486",
        "DBLP": "journals/corr/abs-2101-09486",
        "DOI": "10.1609/aaai.v35i8.16868",
        "CorpusId": 231698751
      },
      "url": "https://www.semanticscholar.org/paper/36d1934e8f6e5b16696aa22968d4a78790e6bf4d",
      "title": "Neural Relational Inference with Efficient Message Passing Mechanisms",
      "venue": "AAAI Conference on Artificial Intelligence",
      "year": 2021,
      "referenceCount": 36,
      "citationCount": 24,
      "authors": [
        {
          "authorId": "122665402",
          "name": "Siyuan Chen"
        },
        {
          "authorId": "2815388",
          "name": "Jiahai Wang"
        },
        {
          "authorId": "2108967265",
          "name": "Guoqing Li"
        }
      ]
    },
    {
      "paperId": "4d575d6d80b50c80e4e86955d111e22ac7c3976e",
      "externalIds": {
        "DBLP": "conf/iccv/Gong0SH21",
        "DOI": "10.1109/ICCV48922.2021.01163",
        "CorpusId": 244072394
      },
      "url": "https://www.semanticscholar.org/paper/4d575d6d80b50c80e4e86955d111e22ac7c3976e",
      "title": "Memory-augmented Dynamic Neural Relational Inference",
      "venue": "IEEE International Conference on Computer Vision",
      "year": 2021,
      "referenceCount": 43,
      "citationCount": 19,
      "authors": [
        {
          "authorId": "145542268",
          "name": "Dong Gong"
        },
        {
          "authorId": "2118029641",
          "name": "Zhen Zhang"
        },
        {
          "authorId": "3177281",
          "name": "Javen Qinfeng Shi"
        },
        {
          "authorId": "5546141",
          "name": "Anton van den Hengel"
        }
      ]
    }
  ]
}