{
  "total": 189,
  "offset": 0,
  "next": 10,
  "data": [
    {
      "paperId": "7491c03c9b3e798a5243c10f47e7da88570a0297",
      "externalIds": {
        "MAG": "2791924686",
        "DBLP": "conf/icml/Nachum0TS18",
        "ArXiv": "1803.02348",
        "CorpusId": 3745480
      },
      "url": "https://www.semanticscholar.org/paper/7491c03c9b3e798a5243c10f47e7da88570a0297",
      "title": "Smoothed Action Value Functions for Learning Gaussian Policies",
      "venue": "International Conference on Machine Learning",
      "year": 2018,
      "referenceCount": 30,
      "citationCount": 32,
      "authors": [
        {
          "authorId": "7624658",
          "name": "Ofir Nachum"
        },
        {
          "authorId": "144739074",
          "name": "Mohammad Norouzi"
        },
        {
          "authorId": "145499435",
          "name": "G. Tucker"
        },
        {
          "authorId": "1714772",
          "name": "Dale Schuurmans"
        }
      ]
    },
    {
      "paperId": "6a994b79583751ad51521e26b77015776dc3a8c3",
      "externalIds": {
        "MAG": "2787516408",
        "CorpusId": 126344890
      },
      "url": "https://www.semanticscholar.org/paper/6a994b79583751ad51521e26b77015776dc3a8c3",
      "title": "Learning Gaussian Policies from Smoothed Action Value Functions",
      "venue": "",
      "year": 2018,
      "referenceCount": 0,
      "citationCount": 3,
      "authors": [
        {
          "authorId": "7624658",
          "name": "Ofir Nachum"
        },
        {
          "authorId": "144739074",
          "name": "Mohammad Norouzi"
        },
        {
          "authorId": "145499435",
          "name": "G. Tucker"
        },
        {
          "authorId": "1714772",
          "name": "Dale Schuurmans"
        }
      ]
    },
    {
      "paperId": "c3ec54775cc2c9ea78ff56b979e664ed98e343ac",
      "externalIds": {
        "CorpusId": 31438956
      },
      "url": "https://www.semanticscholar.org/paper/c3ec54775cc2c9ea78ff56b979e664ed98e343ac",
      "title": "SMOOTHED ACTION VALUE FUNCTIONS",
      "venue": "",
      "year": 2017,
      "referenceCount": 27,
      "citationCount": 0,
      "authors": []
    },
    {
      "paperId": "0e96f9199434982f12aed0c7a5ee593de0ba932a",
      "externalIds": {
        "DBLP": "conf/nldl/LendeSC25",
        "CorpusId": 280675893
      },
      "url": "https://www.semanticscholar.org/paper/0e96f9199434982f12aed0c7a5ee593de0ba932a",
      "title": "Interpretable Function Approximation with Gaussian Processes in Value-Based Model-Free Reinforcement Learning",
      "venue": "NLDL",
      "year": 2025,
      "referenceCount": 39,
      "citationCount": 2,
      "authors": [
        {
          "authorId": "2357083408",
          "name": "Matthijs van der Lende"
        },
        {
          "authorId": "34583651",
          "name": "M. Sabatelli"
        },
        {
          "authorId": "2331326464",
          "name": "Juan Cardenas-Cartagena"
        }
      ]
    },
    {
      "paperId": "721769d251510fdf6336b0f297a035824d4b4650",
      "externalIds": {
        "ArXiv": "2202.11280",
        "DBLP": "conf/icra/KumraJS22",
        "DOI": "10.1109/icra46639.2022.9812251",
        "CorpusId": 247058322
      },
      "url": "https://www.semanticscholar.org/paper/721769d251510fdf6336b0f297a035824d4b4650",
      "title": "Learning Multi-step Robotic Manipulation Policies from Visual Observation of Scene and Q-value Predictions of Previous Action",
      "venue": "IEEE International Conference on Robotics and Automation",
      "year": 2022,
      "referenceCount": 27,
      "citationCount": 5,
      "authors": [
        {
          "authorId": "3140548",
          "name": "Sulabh Kumra"
        },
        {
          "authorId": "2114034990",
          "name": "Shirin Joshi"
        },
        {
          "authorId": "2668864",
          "name": "F. Sahin"
        }
      ]
    },
    {
      "paperId": "b38af7b162f9c4bef03975f3832410b2456718fd",
      "externalIds": {
        "DBLP": "journals/corr/abs-2507-07986",
        "ArXiv": "2507.07986",
        "DOI": "10.48550/arXiv.2507.07986",
        "CorpusId": 280232658
      },
      "url": "https://www.semanticscholar.org/paper/b38af7b162f9c4bef03975f3832410b2456718fd",
      "title": "EXPO: Stable Reinforcement Learning with Expressive Policies",
      "venue": "arXiv.org",
      "year": 2025,
      "referenceCount": 49,
      "citationCount": 12,
      "authors": [
        {
          "authorId": "2259962143",
          "name": "Perry Dong"
        },
        {
          "authorId": "8194287",
          "name": "Qiyang Li"
        },
        {
          "authorId": "1779671",
          "name": "Dorsa Sadigh"
        },
        {
          "authorId": "2356856158",
          "name": "Chelsea Finn"
        }
      ]
    },
    {
      "paperId": "ec4d80937dd501a920273f48f9ff7bfbbd2208fd",
      "externalIds": {
        "MAG": "2972509658",
        "ArXiv": "1909.05004",
        "DBLP": "journals/corr/abs-1909-05004",
        "DOI": "10.1109/ICRA40945.2020.9197456",
        "CorpusId": 202558786
      },
      "url": "https://www.semanticscholar.org/paper/ec4d80937dd501a920273f48f9ff7bfbbd2208fd",
      "title": "Predicting optimal value functions by interpolating reward functions in scalarized multi-objective reinforcement learning",
      "venue": "IEEE International Conference on Robotics and Automation",
      "year": 2019,
      "referenceCount": 22,
      "citationCount": 4,
      "authors": [
        {
          "authorId": "48110162",
          "name": "A. Kusari"
        },
        {
          "authorId": "1713935",
          "name": "J. How"
        }
      ]
    },
    {
      "paperId": "35cb6b2bdd2082aed8ab9ee3f6c83d0618288b04",
      "externalIds": {
        "DOI": "10.1016/j.ifacol.2021.08.292",
        "CorpusId": 237277593
      },
      "url": "https://www.semanticscholar.org/paper/35cb6b2bdd2082aed8ab9ee3f6c83d0618288b04",
      "title": "Model-free safe reinforcement learning for chemical processes using Gaussian processes",
      "venue": "IFAC-PapersOnLine",
      "year": 2021,
      "referenceCount": 26,
      "citationCount": 18,
      "authors": [
        {
          "authorId": "145813680",
          "name": "Thomas R. Savage"
        },
        {
          "authorId": "5090322",
          "name": "Dongda Zhang"
        },
        {
          "authorId": "1644412555",
          "name": "M. Mowbray"
        },
        {
          "authorId": "2133588258",
          "name": "E. A. D. Río Chanona"
        }
      ]
    },
    {
      "paperId": "1187c2ee413774bece6989cc8caab05cd086ad11",
      "externalIds": {
        "ArXiv": "2103.01434",
        "DBLP": "journals/ral/KumraJS22",
        "DOI": "10.1109/lra.2021.3129833",
        "CorpusId": 244462884
      },
      "url": "https://www.semanticscholar.org/paper/1187c2ee413774bece6989cc8caab05cd086ad11",
      "title": "Learning Robotic Manipulation Tasks via Task Progress Based Gaussian Reward and Loss Adjusted Exploration",
      "venue": "IEEE Robotics and Automation Letters",
      "year": 2021,
      "referenceCount": 34,
      "citationCount": 17,
      "authors": [
        {
          "authorId": "3140548",
          "name": "Sulabh Kumra"
        },
        {
          "authorId": "2114034990",
          "name": "Shirin Joshi"
        },
        {
          "authorId": "2668864",
          "name": "F. Sahin"
        }
      ]
    },
    {
      "paperId": "79f923d6575bd8253e2f0b70813caa61a870ccee",
      "externalIds": {
        "DBLP": "journals/corr/abs-2402-04080",
        "ArXiv": "2402.04080",
        "DOI": "10.48550/arXiv.2402.04080",
        "CorpusId": 267500191
      },
      "url": "https://www.semanticscholar.org/paper/79f923d6575bd8253e2f0b70813caa61a870ccee",
      "title": "Entropy-regularized Diffusion Policy with Q-Ensembles for Offline Reinforcement Learning",
      "venue": "Neural Information Processing Systems",
      "year": 2024,
      "referenceCount": 52,
      "citationCount": 27,
      "authors": [
        {
          "authorId": "97937556",
          "name": "Ruoqing Zhang"
        },
        {
          "authorId": "2283122604",
          "name": "Ziwei Luo"
        },
        {
          "authorId": "4315264",
          "name": "Jens Sjölund"
        },
        {
          "authorId": "2267987957",
          "name": "Thomas B. Schön"
        },
        {
          "authorId": "2268008859",
          "name": "Per Mattsson"
        }
      ]
    }
  ]
}