{
  "total": 5697,
  "offset": 0,
  "next": 10,
  "data": [
    {
      "paperId": "55b04a7e24a72941aa4d6933d062b4e0c7370a03",
      "externalIds": {
        "MAG": "2473408367",
        "DBLP": "conf/icml/AkrourNAA16",
        "ArXiv": "1606.09197",
        "CorpusId": 46605
      },
      "url": "https://www.semanticscholar.org/paper/55b04a7e24a72941aa4d6933d062b4e0c7370a03",
      "title": "Model-Free Trajectory Optimization for Reinforcement Learning",
      "venue": "International Conference on Machine Learning",
      "year": 2016,
      "referenceCount": 26,
      "citationCount": 51,
      "authors": [
        {
          "authorId": "1688702",
          "name": "R. Akrour"
        },
        {
          "authorId": "26599977",
          "name": "G. Neumann"
        },
        {
          "authorId": "2624923",
          "name": "Hany Abdulsamad"
        },
        {
          "authorId": "2799799",
          "name": "A. Abdolmaleki"
        }
      ]
    },
    {
      "paperId": "83c22a2b5e8198249aaabc55e561c1adf5ec029b",
      "externalIds": {
        "DOI": "10.58578/amjsai.v3i1.9338",
        "CorpusId": 286718123
      },
      "url": "https://www.semanticscholar.org/paper/83c22a2b5e8198249aaabc55e561c1adf5ec029b",
      "title": "Model-Free Reinforcement Learning for Parabolic Trajectory Optimization in Robotic Arms",
      "venue": "African Multidisciplinary Journal of Sciences and Artificial Intelligence",
      "year": 2026,
      "referenceCount": 18,
      "citationCount": 0,
      "authors": [
        {
          "authorId": "2425005823",
          "name": "Aadarsh Karn"
        },
        {
          "authorId": "2425103275",
          "name": "Neha Shah"
        },
        {
          "authorId": "2321135735",
          "name": "Dilip Kumar Sah"
        },
        {
          "authorId": "2425010767",
          "name": "Suresh Kumar Sahini"
        }
      ]
    },
    {
      "paperId": "74840f753eaf6aa7ce1bbe246cd20e02e645b828",
      "externalIds": {
        "DBLP": "journals/fi/BogdanovicKR22",
        "ArXiv": "2107.06629",
        "PubMedCentral": "9484268",
        "DOI": "10.3389/frobt.2022.854212",
        "CorpusId": 246241157,
        "PubMed": "36134338"
      },
      "url": "https://www.semanticscholar.org/paper/74840f753eaf6aa7ce1bbe246cd20e02e645b828",
      "title": "Model-free reinforcement learning for robust locomotion using demonstrations from trajectory optimization",
      "venue": "Frontiers in Robotics and AI",
      "year": 2021,
      "referenceCount": 34,
      "citationCount": 43,
      "authors": [
        {
          "authorId": "39367948",
          "name": "Miroslav Bogdanovic"
        },
        {
          "authorId": "8134198",
          "name": "M. Khadiv"
        },
        {
          "authorId": "51204760",
          "name": "L. Righetti"
        }
      ]
    },
    {
      "paperId": "b99f043adb9be277350594dd7c06b64a19dfb421",
      "externalIds": {
        "DBLP": "journals/twc/LiuZZA25",
        "DOI": "10.1109/TWC.2025.3550266",
        "CorpusId": 277229179
      },
      "url": "https://www.semanticscholar.org/paper/b99f043adb9be277350594dd7c06b64a19dfb421",
      "title": "Energy-Efficient Multi-Agent Reinforcement Learning for UAV Trajectory Optimization in Cell-Free Massive MIMO Networks",
      "venue": "IEEE Transactions on Wireless Communications",
      "year": 2025,
      "referenceCount": 44,
      "citationCount": 8,
      "authors": [
        {
          "authorId": "2146361752",
          "name": "Zhilong Liu"
        },
        {
          "authorId": "2213085711",
          "name": "Jiayi Zhang"
        },
        {
          "authorId": "2238398103",
          "name": "Yong Zeng"
        },
        {
          "authorId": "2238040948",
          "name": "Bo Ai"
        }
      ]
    },
    {
      "paperId": "a2804c01da7c1d508f21d9c28ee1e276e5202c1c",
      "externalIds": {
        "DBLP": "journals/corr/abs-2107-06629",
        "CorpusId": 235829610
      },
      "url": "https://www.semanticscholar.org/paper/a2804c01da7c1d508f21d9c28ee1e276e5202c1c",
      "title": "Model-free Reinforcement Learning for Robust Locomotion Using Trajectory Optimization for Exploration",
      "venue": "arXiv.org",
      "year": 2021,
      "referenceCount": 21,
      "citationCount": 7,
      "authors": [
        {
          "authorId": "39367948",
          "name": "Miroslav Bogdanovic"
        },
        {
          "authorId": "8134198",
          "name": "M. Khadiv"
        },
        {
          "authorId": "51204760",
          "name": "L. Righetti"
        }
      ]
    },
    {
      "paperId": "b1267edeb5f4d6bddc4ab6b10affc0b07a26df44",
      "externalIds": {
        "DOI": "10.3390/pr12010156",
        "CorpusId": 266918952
      },
      "url": "https://www.semanticscholar.org/paper/b1267edeb5f4d6bddc4ab6b10affc0b07a26df44",
      "title": "Optimization of Smart Textiles Robotic Arm Path Planning: A Model-Free Deep Reinforcement Learning Approach with Inverse Kinematics",
      "venue": "Processes",
      "year": 2024,
      "referenceCount": 13,
      "citationCount": 4,
      "authors": [
        {
          "authorId": "2205550506",
          "name": "Di Zhao"
        },
        {
          "authorId": "2273081168",
          "name": "Zhenyu Ding"
        },
        {
          "authorId": "2271498979",
          "name": "Wenjie Li"
        },
        {
          "authorId": "2272907633",
          "name": "Sen Zhao"
        },
        {
          "authorId": "2107124068",
          "name": "Yuhong Du"
        }
      ]
    },
    {
      "paperId": "8dff8442d4eccbf356097024692b6f5f70a3bc9e",
      "externalIds": {
        "MAG": "2159898272",
        "DOI": "10.1109/GLOCOMW.2010.5700250",
        "CorpusId": 9501082
      },
      "url": "https://www.semanticscholar.org/paper/8dff8442d4eccbf356097024692b6f5f70a3bc9e",
      "title": "Model-free trajectory optimization for wireless data ferries among multiple sources",
      "venue": "2010 IEEE Globecom Workshops",
      "year": 2010,
      "referenceCount": 10,
      "citationCount": 41,
      "authors": [
        {
          "authorId": "2324601",
          "name": "Ben Pearre"
        },
        {
          "authorId": "1755826",
          "name": "T. Brown"
        }
      ]
    },
    {
      "paperId": "1230e2cfc50402b08ec293cd875a73a2ca589068",
      "externalIds": {
        "DOI": "10.1109/CCDC62350.2024.10587505",
        "CorpusId": 271247569
      },
      "url": "https://www.semanticscholar.org/paper/1230e2cfc50402b08ec293cd875a73a2ca589068",
      "title": "Trajectory optimization of multistage launch vehicle’s Orbital Flight Phase based on reinforcement learning Algorithm",
      "venue": "Chinese Control and Decision Conference",
      "year": 2024,
      "referenceCount": 10,
      "citationCount": 1,
      "authors": [
        {
          "authorId": "145293325",
          "name": "S. Tian"
        },
        {
          "authorId": "2312347265",
          "name": "Lifu Du"
        },
        {
          "authorId": "1935021620",
          "name": "Bo Wang"
        },
        {
          "authorId": "2266111763",
          "name": "Lei Liu"
        },
        {
          "authorId": "2238132061",
          "name": "H. Fan"
        }
      ]
    },
    {
      "paperId": "916d23f33faa1f111214eaff2fc39dcbaa38144a",
      "externalIds": {
        "DBLP": "journals/access/MamaghaniH21",
        "DOI": "10.1109/ACCESS.2020.3048021",
        "CorpusId": 231600089
      },
      "url": "https://www.semanticscholar.org/paper/916d23f33faa1f111214eaff2fc39dcbaa38144a",
      "title": "Intelligent Trajectory Design for Secure Full- Duplex MIMO-UAV Relaying Against Active Eavesdroppers: A Model-Free Reinforcement Learning Approach",
      "venue": "IEEE Access",
      "year": 2021,
      "referenceCount": 52,
      "citationCount": 38,
      "authors": [
        {
          "authorId": "24002651",
          "name": "Milad Tatar Mamaghani"
        },
        {
          "authorId": "2115351988",
          "name": "Yi Hong"
        }
      ]
    },
    {
      "paperId": "9565e91fe93cf300ba3d0a155d68fed8f11c4119",
      "externalIds": {
        "DBLP": "journals/ejwcn/HashishRE23",
        "DOI": "10.1186/s13638-023-02268-x",
        "CorpusId": 259299157
      },
      "url": "https://www.semanticscholar.org/paper/9565e91fe93cf300ba3d0a155d68fed8f11c4119",
      "title": "Trajectory optimization for UAV-assisted relay over 5G networks based on reinforcement learning framework",
      "venue": "EURASIP Journal on Wireless Communications and Networking",
      "year": 2023,
      "referenceCount": 48,
      "citationCount": 21,
      "authors": [
        {
          "authorId": "2198321578",
          "name": "Sara M. M. Abohashish"
        },
        {
          "authorId": "1726098",
          "name": "R. Rizk"
        },
        {
          "authorId": "2331434483",
          "name": "E. Elsedimy"
        }
      ]
    }
  ]
}