{
  "total": 683,
  "offset": 0,
  "next": 10,
  "data": [
    {
      "paperId": "80760ee2869959c08cf8547ad82f77bc2bf1cc2c",
      "externalIds": {
        "ArXiv": "1502.05925",
        "DBLP": "conf/icml/NanWS15",
        "MAG": "2951307592",
        "CorpusId": 7165143
      },
      "url": "https://www.semanticscholar.org/paper/80760ee2869959c08cf8547ad82f77bc2bf1cc2c",
      "title": "Feature-Budgeted Random Forest",
      "venue": "International Conference on Machine Learning",
      "year": 2015,
      "referenceCount": 30,
      "citationCount": 63,
      "authors": [
        {
          "authorId": "144647318",
          "name": "Feng Nan"
        },
        {
          "authorId": "2110240143",
          "name": "Joseph Wang"
        },
        {
          "authorId": "1699322",
          "name": "Venkatesh Saligrama"
        }
      ]
    },
    {
      "paperId": "1d838db4da727eade00907ffb1b697f1487a6f58",
      "externalIds": {
        "MAG": "2068094410",
        "DBLP": "journals/remotesensing/HaoZWNS15",
        "DOI": "10.3390/rs70505347",
        "CorpusId": 21271388
      },
      "url": "https://www.semanticscholar.org/paper/1d838db4da727eade00907ffb1b697f1487a6f58",
      "title": "Feature Selection of Time Series MODIS Data for Early Crop Classification Using Random Forest: A Case Study in Kansas, USA",
      "venue": "Remote Sensing",
      "year": 2015,
      "referenceCount": 47,
      "citationCount": 229,
      "authors": [
        {
          "authorId": "3480163",
          "name": "Pengyu Hao"
        },
        {
          "authorId": "2690716",
          "name": "Yulin Zhan"
        },
        {
          "authorId": "2152717212",
          "name": "Li Wang"
        },
        {
          "authorId": "143767457",
          "name": "Z. Niu"
        },
        {
          "authorId": "2095722160",
          "name": "Muhammad Shakir"
        }
      ]
    },
    {
      "paperId": "1b4fd1ddb283ec7e27f144a6fe660d11cd44d800",
      "externalIds": {
        "PubMedCentral": "4422660",
        "MAG": "2340589369",
        "DOI": "10.1371/journal.pone.0125811",
        "CorpusId": 13332874,
        "PubMed": "25946106"
      },
      "url": "https://www.semanticscholar.org/paper/1b4fd1ddb283ec7e27f144a6fe660d11cd44d800",
      "title": "Predicting Protein-Protein Interactions from Primary Protein Sequences Using a Novel Multi-Scale Local Feature Representation Scheme and the Random Forest",
      "venue": "PLoS ONE",
      "year": 2015,
      "referenceCount": 54,
      "citationCount": 154,
      "authors": [
        {
          "authorId": "144640870",
          "name": "Zhuhong You"
        },
        {
          "authorId": "145003399",
          "name": "Keith C. C. Chan"
        },
        {
          "authorId": "39765371",
          "name": "Pengwei Hu"
        }
      ]
    },
    {
      "paperId": "ab7108112ee0606a4722d3ca80e16207fba492e8",
      "externalIds": {
        "MAG": "2291716819",
        "DBLP": "conf/ibica/JabbarDC15",
        "DOI": "10.1007/978-3-319-28031-8_16",
        "CorpusId": 41867049
      },
      "url": "https://www.semanticscholar.org/paper/ab7108112ee0606a4722d3ca80e16207fba492e8",
      "title": "Prediction of Heart Disease Using Random Forest and Feature Subset Selection",
      "venue": "International Conference on Innovations in Bio-inspired Computing and Applications",
      "year": 2015,
      "referenceCount": 7,
      "citationCount": 50,
      "authors": [
        {
          "authorId": "144959450",
          "name": "M. Jabbar"
        },
        {
          "authorId": "143774243",
          "name": "B. Deekshatulu"
        },
        {
          "authorId": "37215551",
          "name": "Priti Chandra"
        }
      ]
    },
    {
      "paperId": "0d54b6a0a86d1f15873537bd6ca343938ebd8213",
      "externalIds": {
        "MAG": "1989919782",
        "DBLP": "journals/lgrs/XiaLCDSP15",
        "DOI": "10.1109/LGRS.2015.2409112",
        "CorpusId": 36411993
      },
      "url": "https://www.semanticscholar.org/paper/0d54b6a0a86d1f15873537bd6ca343938ebd8213",
      "title": "Improving Random Forest With Ensemble of Features and Semisupervised Feature Extraction",
      "venue": "IEEE Geoscience and Remote Sensing Letters",
      "year": 2015,
      "referenceCount": 23,
      "citationCount": 44,
      "authors": [
        {
          "authorId": "2061313",
          "name": "J. Xia"
        },
        {
          "authorId": "2809308",
          "name": "Wenzi Liao"
        },
        {
          "authorId": "1744943",
          "name": "J. Chanussot"
        },
        {
          "authorId": "1882431",
          "name": "Peijun Du"
        },
        {
          "authorId": "2072634155",
          "name": "Guanghan Song"
        },
        {
          "authorId": "143737327",
          "name": "W. Philips"
        }
      ]
    },
    {
      "paperId": "c4b850bed50242a24a9a9446ed69bdfa91d8628d",
      "externalIds": {
        "MAG": "2175803585",
        "DBLP": "conf/miccai/PaulDMST15",
        "DOI": "10.1007/978-3-319-24571-3_12",
        "CorpusId": 264242307
      },
      "url": "https://www.semanticscholar.org/paper/c4b850bed50242a24a9a9446ed69bdfa91d8628d",
      "title": "Regenerative Random Forest with Automatic Feature Selection to Detect Mitosis in Histopathological Breast Cancer Images",
      "venue": "International Conference on Medical Image Computing and Computer-Assisted Intervention",
      "year": 2015,
      "referenceCount": 10,
      "citationCount": 47,
      "authors": [
        {
          "authorId": "2346444",
          "name": "Angshuman Paul"
        },
        {
          "authorId": "2294659959",
          "name": "Anish Dey"
        },
        {
          "authorId": "145478199",
          "name": "D. Mukherjee"
        },
        {
          "authorId": "1790095",
          "name": "J. Sivaswamy"
        },
        {
          "authorId": "3278206",
          "name": "V. Tourani"
        }
      ]
    },
    {
      "paperId": "5280d31d3c41dafe960984921f07bb61af322082",
      "externalIds": {
        "PubMedCentral": "4545869",
        "MAG": "2115188287",
        "DOI": "10.1186/s13073-015-0213-8",
        "CorpusId": 18714254,
        "PubMed": "26292806"
      },
      "url": "https://www.semanticscholar.org/paper/5280d31d3c41dafe960984921f07bb61af322082",
      "title": "DNA methylation loci associated with atopy and high serum IgE: a genome-wide application of recursive Random Forest feature selection",
      "venue": "Genome Medicine",
      "year": 2015,
      "referenceCount": 64,
      "citationCount": 61,
      "authors": [
        {
          "authorId": "6079717",
          "name": "T. Everson"
        },
        {
          "authorId": "40423322",
          "name": "G. Lyons"
        },
        {
          "authorId": "46702601",
          "name": "Hongmei Zhang"
        },
        {
          "authorId": "1401970971",
          "name": "Nelís Soto-Ramírez"
        },
        {
          "authorId": "6682638",
          "name": "G. Lockett"
        },
        {
          "authorId": "122279526",
          "name": "V. Patil"
        },
        {
          "authorId": "2117432",
          "name": "S. Merid"
        },
        {
          "authorId": "4121573",
          "name": "Cilla Sӧderhӓll"
        },
        {
          "authorId": "2330284088",
          "name": "Erik Melén"
        },
        {
          "authorId": "2067701442",
          "name": "J. Holloway"
        },
        {
          "authorId": "9095128",
          "name": "S. Arshad"
        },
        {
          "authorId": "46485509",
          "name": "W. Karmaus"
        }
      ]
    },
    {
      "paperId": "a3da26933720dc35725ed942cd7446d1a7c9fb97",
      "externalIds": {
        "CorpusId": 18268656
      },
      "url": "https://www.semanticscholar.org/paper/a3da26933720dc35725ed942cd7446d1a7c9fb97",
      "title": "A guided random forest based feature selection approach for activity recognition",
      "venue": "International Conference on Electrical Engineering and Information Communication Technology",
      "year": 2015,
      "referenceCount": 21,
      "citationCount": 38,
      "authors": [
        {
          "authorId": "9239146",
          "name": "Md Taufeeq Uddin"
        },
        {
          "authorId": "9364026",
          "name": "Md Azher Uddiny"
        }
      ]
    },
    {
      "paperId": "7d7935a337a16e7194bfb09915a674507c474655",
      "externalIds": {
        "DBLP": "journals/paa/KausarM16",
        "MAG": "2123592601",
        "DOI": "10.1007/s10044-015-0448-4",
        "CorpusId": 3142145
      },
      "url": "https://www.semanticscholar.org/paper/7d7935a337a16e7194bfb09915a674507c474655",
      "title": "Random forest-based scheme using feature and decision levels information for multi-focus image fusion",
      "venue": "Pattern Analysis and Applications",
      "year": 2015,
      "referenceCount": 29,
      "citationCount": 37,
      "authors": [
        {
          "authorId": "8871804",
          "name": "Nabeela Kausar"
        },
        {
          "authorId": "145786667",
          "name": "Abdul Majid"
        }
      ]
    },
    {
      "paperId": "aad960ff95854bcadca5bb51ce4b21d6cc6f3998",
      "externalIds": {
        "DBLP": "conf/icmi/GausOJQLZMB15",
        "MAG": "2243655672",
        "DOI": "10.1145/2818346.2830599",
        "CorpusId": 11994820
      },
      "url": "https://www.semanticscholar.org/paper/aad960ff95854bcadca5bb51ce4b21d6cc6f3998",
      "title": "Social Touch Gesture Recognition using Random Forest and Boosting on Distinct Feature Sets",
      "venue": "International Conference on Multimodal Interaction",
      "year": 2015,
      "referenceCount": 49,
      "citationCount": 32,
      "authors": [
        {
          "authorId": "2747096",
          "name": "Y. F. Gaus"
        },
        {
          "authorId": "38792093",
          "name": "Temitayo A. Olugbade"
        },
        {
          "authorId": "3323241",
          "name": "Asim Jan"
        },
        {
          "authorId": "2057091718",
          "name": "R. Qin"
        },
        {
          "authorId": "2144127466",
          "name": "Jingxin Liu"
        },
        {
          "authorId": "50212920",
          "name": "Fan Zhang"
        },
        {
          "authorId": "37192632",
          "name": "Hongying Meng"
        },
        {
          "authorId": "1398541310",
          "name": "N. Bianchi-Berthouze"
        }
      ]
    }
  ]
}