{
  "total": 46154,
  "offset": 0,
  "next": 10,
  "data": [
    {
      "paperId": "f0a6ad564757643ae5d8bf4bd587bb9461446540",
      "externalIds": {
        "MAG": "2137463212",
        "DBLP": "conf/icml/CortesKMS15",
        "CorpusId": 10015524
      },
      "url": "https://www.semanticscholar.org/paper/f0a6ad564757643ae5d8bf4bd587bb9461446540",
      "title": "Structural Maxent Models",
      "venue": "International Conference on Machine Learning",
      "year": 2015,
      "referenceCount": 33,
      "citationCount": 7,
      "authors": [
        {
          "authorId": "145115014",
          "name": "Corinna Cortes"
        },
        {
          "authorId": "46967902",
          "name": "Vitaly Kuznetsov"
        },
        {
          "authorId": "81080659",
          "name": "M. Mohri"
        },
        {
          "authorId": "38473726",
          "name": "Umar Syed"
        }
      ]
    },
    {
      "paperId": "106a6cfae27e9e742fa5555b16f7f26f5d23fd0f",
      "externalIds": {
        "CorpusId": 15687292
      },
      "url": "https://www.semanticscholar.org/paper/106a6cfae27e9e742fa5555b16f7f26f5d23fd0f",
      "title": "Structural Maxent Models",
      "venue": "",
      "year": 2015,
      "referenceCount": 0,
      "citationCount": 0,
      "authors": [
        {
          "authorId": "2078569843",
          "name": "A. Duality"
        }
      ]
    },
    {
      "paperId": "0a98af2db4628a0b1ca456eebe9c5ea3a9e22b6f",
      "externalIds": {
        "ACL": "W15-5708",
        "DBLP": "conf/acl-dmtw/NealeGB15",
        "CorpusId": 5379843
      },
      "url": "https://www.semanticscholar.org/paper/0a98af2db4628a0b1ca456eebe9c5ea3a9e22b6f",
      "title": "First Steps in Using Word Senses as Contextual Features in Maxent Models for Machine Translation",
      "venue": "Deep Machine Translation Workshop",
      "year": 2015,
      "referenceCount": 18,
      "citationCount": 5,
      "authors": [
        {
          "authorId": "144008133",
          "name": "Steven Neale"
        },
        {
          "authorId": "47284870",
          "name": "Luís Manuel dos Santos Gomes"
        },
        {
          "authorId": "145354161",
          "name": "A. Branco"
        }
      ]
    },
    {
      "paperId": "2883672268337905696222a3b63805d5159a082c",
      "externalIds": {
        "MAG": "769592261",
        "DOI": "10.1016/J.ECOLMODEL.2015.05.035",
        "CorpusId": 82524921
      },
      "url": "https://www.semanticscholar.org/paper/2883672268337905696222a3b63805d5159a082c",
      "title": "Impact of model complexity on cross-temporal transferability in Maxent species distribution models: An assessment using paleobotanical data",
      "venue": "",
      "year": 2015,
      "referenceCount": 52,
      "citationCount": 177,
      "authors": [
        {
          "authorId": "2050460780",
          "name": "Elena Moreno-Amat"
        },
        {
          "authorId": "34586922",
          "name": "R. Mateo"
        },
        {
          "authorId": "34586922",
          "name": "R. Mateo"
        },
        {
          "authorId": "1403320216",
          "name": "D. Nieto‐Lugilde"
        },
        {
          "authorId": "1403320216",
          "name": "D. Nieto‐Lugilde"
        },
        {
          "authorId": "1404345120",
          "name": "N. Morueta‐Holme"
        },
        {
          "authorId": "1404345120",
          "name": "N. Morueta‐Holme"
        },
        {
          "authorId": "145115662",
          "name": "Jens‐Christian Svenning"
        },
        {
          "authorId": "1405352027",
          "name": "I. García-Amorena"
        }
      ]
    },
    {
      "paperId": "152c7e19b693dba9061885acdb29973f18d24fc0",
      "externalIds": {
        "MAG": "2140832331",
        "DOI": "10.1007/s10265-015-0738-3",
        "CorpusId": 1388538,
        "PubMed": "26045231"
      },
      "url": "https://www.semanticscholar.org/paper/152c7e19b693dba9061885acdb29973f18d24fc0",
      "title": "Predicting invasions of Wedelia trilobata (L.) Hitchc. with Maxent and GARP models",
      "venue": "Journal of plant research",
      "year": 2015,
      "referenceCount": 60,
      "citationCount": 61,
      "authors": [
        {
          "authorId": "47124895",
          "name": "Z. Qin"
        },
        {
          "authorId": "2107973971",
          "name": "Jia-En Zhang"
        },
        {
          "authorId": "2027100",
          "name": "A. DiTommaso"
        },
        {
          "authorId": "8199112",
          "name": "Rui-Long Wang"
        },
        {
          "authorId": "2106763067",
          "name": "R. Wu"
        }
      ]
    },
    {
      "paperId": "fa7ec06673c55fb1145ad39b3a0f4f76f679881d",
      "externalIds": {
        "MAG": "2154575724",
        "DOI": "10.1093/jee/tov166",
        "CorpusId": 11154493,
        "PubMed": "26470312"
      },
      "url": "https://www.semanticscholar.org/paper/fa7ec06673c55fb1145ad39b3a0f4f76f679881d",
      "title": "Assessing the Global Risk of Establishment of Cydia pomonella (Lepidoptera: Tortricidae) Using CLIMEX and MaxEnt Niche Models",
      "venue": "Journal of Economic Entomology",
      "year": 2015,
      "referenceCount": 138,
      "citationCount": 118,
      "authors": [
        {
          "authorId": "120438377",
          "name": "Sunil Kumar"
        },
        {
          "authorId": "6993135",
          "name": "L. Neven"
        },
        {
          "authorId": "2149670384",
          "name": "Hongyu Zhu"
        },
        {
          "authorId": "13451338",
          "name": "Runzhi Zhang"
        }
      ]
    },
    {
      "paperId": "43a1bcfecf96e14a95c1e66124ff1e807654d55b",
      "externalIds": {
        "DOI": "10.1007/s10265-015-0738-3",
        "CorpusId": 254157276
      },
      "url": "https://www.semanticscholar.org/paper/43a1bcfecf96e14a95c1e66124ff1e807654d55b",
      "title": "Predicting invasions of Wedelia trilobata (L.) Hitchc. with Maxent and GARP models",
      "venue": "Journal of plant research",
      "year": 2015,
      "referenceCount": 0,
      "citationCount": 4,
      "authors": [
        {
          "authorId": "47124895",
          "name": "Z. Qin"
        },
        {
          "authorId": "2107973971",
          "name": "Jia-En Zhang"
        },
        {
          "authorId": "2027100",
          "name": "A. DiTommaso"
        },
        {
          "authorId": "8199112",
          "name": "Rui-Long Wang"
        },
        {
          "authorId": "2106763067",
          "name": "R. Wu"
        }
      ]
    },
    {
      "paperId": "bc8af8d2f13018b4e516f4ddcedf067f4184383e",
      "externalIds": {
        "MAG": "3100621839",
        "ArXiv": "1506.00356",
        "DOI": "10.1214/14-AOAS788",
        "CorpusId": 2879370
      },
      "url": "https://www.semanticscholar.org/paper/bc8af8d2f13018b4e516f4ddcedf067f4184383e",
      "title": "Inferring causal impact using Bayesian structural time-series models",
      "venue": "",
      "year": 2015,
      "referenceCount": 69,
      "citationCount": 857,
      "authors": [
        {
          "authorId": "1701577",
          "name": "K. Brodersen"
        },
        {
          "authorId": "5901017",
          "name": "F. Gallusser"
        },
        {
          "authorId": "40796364",
          "name": "J. Koehler"
        },
        {
          "authorId": "2065691685",
          "name": "Nicolas Remy"
        },
        {
          "authorId": "3124107",
          "name": "S. L. Scott"
        }
      ]
    },
    {
      "paperId": "792d72b899f54f49449a9044fd8be54b8e9636d6",
      "externalIds": {
        "MAG": "2581392496",
        "CorpusId": 51782288
      },
      "url": "https://www.semanticscholar.org/paper/792d72b899f54f49449a9044fd8be54b8e9636d6",
      "title": "\"MODEL COMPLEXITY AND VARIABLE SELECTION IN MAXENT NICHE MODELS: ANALYSES FOR RODENTS IN MADAGASCAR\"",
      "venue": "",
      "year": 2015,
      "referenceCount": 63,
      "citationCount": 1,
      "authors": [
        {
          "authorId": "14798071",
          "name": "Peter J. Galante"
        }
      ]
    },
    {
      "paperId": "f67fd9dbd7e9c14a440bb5bee8a0fb71551d0f7b",
      "externalIds": {
        "ArXiv": "1509.01845",
        "MAG": "2949947919",
        "DOI": "10.1111/2041-210X.12512",
        "CorpusId": 14027788
      },
      "url": "https://www.semanticscholar.org/paper/f67fd9dbd7e9c14a440bb5bee8a0fb71551d0f7b",
      "title": "piecewiseSEM: Piecewise structural equation modelling in r for ecology, evolution, and systematics",
      "venue": "",
      "year": 2015,
      "referenceCount": 35,
      "citationCount": 3776,
      "authors": [
        {
          "authorId": "6529177",
          "name": "J. Lefcheck"
        }
      ]
    }
  ]
}