{
  "total": 56,
  "offset": 0,
  "next": 10,
  "data": [
    {
      "paperId": "01efe42318f31a4a24efd2194cf8552380e7a61b",
      "externalIds": {
        "MAG": "1944269837",
        "DBLP": "conf/icml/MiyauchiIFK15",
        "CorpusId": 17767233
      },
      "url": "https://www.semanticscholar.org/paper/01efe42318f31a4a24efd2194cf8552380e7a61b",
      "title": "Threshold Influence Model for Allocating Advertising Budgets",
      "venue": "International Conference on Machine Learning",
      "year": 2015,
      "referenceCount": 38,
      "citationCount": 17,
      "authors": [
        {
          "authorId": "2594516",
          "name": "Atsushi Miyauchi"
        },
        {
          "authorId": "2763789",
          "name": "Yuni Iwamasa"
        },
        {
          "authorId": "1710570",
          "name": "Takuro Fukunaga"
        },
        {
          "authorId": "1728991",
          "name": "Naonori Kakimura"
        }
      ]
    },
    {
      "paperId": "887e9ec9de3f0a827f73b8f2ce9453a0eeaaa522",
      "externalIds": {
        "DOI": "10.18488/11.v14i2.4279",
        "CorpusId": 280327148
      },
      "url": "https://www.semanticscholar.org/paper/887e9ec9de3f0a827f73b8f2ce9453a0eeaaa522",
      "title": "The influence of advertising strategies on corporate performance: A study in the beauty industry",
      "venue": "International Journal of Management and Sustainability",
      "year": 2025,
      "referenceCount": 0,
      "citationCount": 0,
      "authors": [
        {
          "authorId": "2373614855",
          "name": "Fang Wen Jie"
        },
        {
          "authorId": "118920948",
          "name": "S. Ramachandaran"
        },
        {
          "authorId": "2289538693",
          "name": "Revathy Sagadavan"
        },
        {
          "authorId": "2324619846",
          "name": "Puspanathan Doraisingam"
        }
      ]
    },
    {
      "paperId": "1ebba9a37f7468ea70893c9ec792a0c000e8928e",
      "externalIds": {
        "DBLP": "journals/jco/WangWT25",
        "DOI": "10.1007/s10878-024-01257-0",
        "CorpusId": 275775826
      },
      "url": "https://www.semanticscholar.org/paper/1ebba9a37f7468ea70893c9ec792a0c000e8928e",
      "title": "Advertising meets assortment planning: joint advertising and assortment optimization under multinomial logit model",
      "venue": "Journal of combinatorial optimization",
      "year": 2025,
      "referenceCount": 44,
      "citationCount": 0,
      "authors": [
        {
          "authorId": "2277807787",
          "name": "Chenhao Wang"
        },
        {
          "authorId": "2144276815",
          "name": "Yao Wang"
        },
        {
          "authorId": "2256134488",
          "name": "Shaojie Tang"
        }
      ]
    },
    {
      "paperId": "20bc399ba99a42896a44367e29a6775a67df6d14",
      "externalIds": {
        "DBLP": "journals/jco/FanDWZY26",
        "DOI": "10.1007/s10878-025-01380-6",
        "CorpusId": 284166061
      },
      "url": "https://www.semanticscholar.org/paper/20bc399ba99a42896a44367e29a6775a67df6d14",
      "title": "An integer model for optimizing dynamic allocation of medical supplies during the COVID-19",
      "venue": "Journal of combinatorial optimization",
      "year": 2025,
      "referenceCount": 40,
      "citationCount": 0,
      "authors": [
        {
          "authorId": "2283404249",
          "name": "Hongqiang Fan"
        },
        {
          "authorId": "4835197",
          "name": "Shuyao Duan"
        },
        {
          "authorId": "2135654974",
          "name": "Xun Weng"
        },
        {
          "authorId": "2108134736",
          "name": "Jingtian Zhang"
        },
        {
          "authorId": "4853204",
          "name": "L. Yun"
        }
      ]
    },
    {
      "paperId": "09211b524560dc0c444a8b234723f3623fd8c38c",
      "externalIds": {
        "DOI": "10.61838/kman.ijimob.3.5.16",
        "CorpusId": 270654537
      },
      "url": "https://www.semanticscholar.org/paper/09211b524560dc0c444a8b234723f3623fd8c38c",
      "title": "Consequences of Government Expenditure Shocks with Influence from Effectiveness and Efficiency Indices on National Economic Activities: A Smooth Transition Threshold Regression (LSTAR) Approach",
      "venue": "International Journal of Innovation Management and Organizational Behavior",
      "year": 2023,
      "referenceCount": 0,
      "citationCount": 0,
      "authors": [
        {
          "authorId": "2307690236",
          "name": "Abouzar Salari"
        },
        {
          "authorId": "119226697",
          "name": "M. Damankeshideh"
        },
        {
          "authorId": "2037182428",
          "name": "Majid Afsharirad"
        }
      ]
    },
    {
      "paperId": "449340433b04efc81ec5c3f66f4c32f1cdf96cf8",
      "externalIds": {
        "DOI": "10.1109/ICA67499.2025.00042",
        "CorpusId": 285110176
      },
      "url": "https://www.semanticscholar.org/paper/449340433b04efc81ec5c3f66f4c32f1cdf96cf8",
      "title": "Online Influence Maximization with Adaptive Explore-then-Commit: Group-wise Explore Budget Determination",
      "venue": "International Conference on Agents",
      "year": 2025,
      "referenceCount": 17,
      "citationCount": 0,
      "authors": [
        {
          "authorId": "2407283322",
          "name": "Rui Kurohara"
        },
        {
          "authorId": "2409112372",
          "name": "Wen Gu"
        },
        {
          "authorId": "2481095",
          "name": "Takuto Sakuma"
        },
        {
          "authorId": "2113463162",
          "name": "Shohei Kato"
        }
      ]
    },
    {
      "paperId": "5fba09f5adb106f337060b8afa0353af107b67d2",
      "externalIds": {
        "MAG": "2783104764",
        "CorpusId": 169771636
      },
      "url": "https://www.semanticscholar.org/paper/5fba09f5adb106f337060b8afa0353af107b67d2",
      "title": "The influence of SMS advertising on online brand equity among students in the UK",
      "venue": "",
      "year": 2017,
      "referenceCount": 0,
      "citationCount": 0,
      "authors": [
        {
          "authorId": "121092166",
          "name": "M. Darabi"
        }
      ]
    },
    {
      "paperId": "c82c59d4d26312a816535a8a0ead2f8eeed9828a",
      "externalIds": {
        "ArXiv": "2504.00451",
        "DBLP": "journals/corr/abs-2504-00451",
        "DOI": "10.48550/arXiv.2504.00451",
        "CorpusId": 277467335
      },
      "url": "https://www.semanticscholar.org/paper/c82c59d4d26312a816535a8a0ead2f8eeed9828a",
      "title": "A Regret-Aware Framework for Effective Social Media Advertising",
      "venue": "arXiv.org",
      "year": 2025,
      "referenceCount": 52,
      "citationCount": 0,
      "authors": [
        {
          "authorId": "2340557389",
          "name": "Poonam Sharma"
        },
        {
          "authorId": "2280066933",
          "name": "Dildar Ali"
        },
        {
          "authorId": "2193043793",
          "name": "Suman Banerjee"
        }
      ]
    },
    {
      "paperId": "c883a084544b6eafd3e321087d8e3f8aff96eadc",
      "externalIds": {
        "MAG": "3124574217",
        "DOI": "10.1016/J.JRETCONSER.2020.102387",
        "CorpusId": 234117314
      },
      "url": "https://www.semanticscholar.org/paper/c883a084544b6eafd3e321087d8e3f8aff96eadc",
      "title": "A two-generation new product model by considering forward-looking customers: Dynamic pricing and advertising optimization",
      "venue": "",
      "year": 2021,
      "referenceCount": 79,
      "citationCount": 17,
      "authors": [
        {
          "authorId": "118516028",
          "name": "Somayeh Najafi Ghobadi"
        },
        {
          "authorId": "9763445",
          "name": "J. Bagherinejad"
        },
        {
          "authorId": "1825605",
          "name": "A. Taleizadeh"
        }
      ]
    },
    {
      "paperId": "861ff45de8e1e98b41d602d0b936ddfc9a3c67d6",
      "externalIds": {
        "DBLP": "journals/tcs/ShiWYCZFCH21",
        "MAG": "3142226160",
        "DOI": "10.1016/J.TCS.2021.03.036",
        "CorpusId": 233529853
      },
      "url": "https://www.semanticscholar.org/paper/861ff45de8e1e98b41d602d0b936ddfc9a3c67d6",
      "title": "Profit maximization for competitive social advertising",
      "venue": "Theoretical Computer Science",
      "year": 2021,
      "referenceCount": 40,
      "citationCount": 10,
      "authors": [
        {
          "authorId": "67075028",
          "name": "Qihao Shi"
        },
        {
          "authorId": "98262982",
          "name": "Can Wang"
        },
        {
          "authorId": "40148157",
          "name": "Deshi Ye"
        },
        {
          "authorId": "2115448385",
          "name": "Jiawei Chen"
        },
        {
          "authorId": "2115867010",
          "name": "Sheng Zhou"
        },
        {
          "authorId": "1692947908",
          "name": "Yan Feng"
        },
        {
          "authorId": "2588203",
          "name": "Chun Chen"
        },
        {
          "authorId": "2045353507",
          "name": "Yanhao Huang"
        }
      ]
    }
  ]
}