{
  "total": 334,
  "offset": 0,
  "next": 10,
  "data": [
    {
      "paperId": "c592905984e418dd02199cdddb34bf224ce5ce43",
      "externalIds": {
        "DBLP": "journals/corr/abs-1803-06396",
        "MAG": "2964330624",
        "ArXiv": "1803.06396",
        "CorpusId": 4257832
      },
      "url": "https://www.semanticscholar.org/paper/c592905984e418dd02199cdddb34bf224ce5ce43",
      "title": "Reviving and Improving Recurrent Back-Propagation",
      "venue": "International Conference on Machine Learning",
      "year": 2018,
      "referenceCount": 37,
      "citationCount": 137,
      "authors": [
        {
          "authorId": "2246396",
          "name": "Renjie Liao"
        },
        {
          "authorId": "3372084",
          "name": "Yuwen Xiong"
        },
        {
          "authorId": "2645055",
          "name": "Ethan Fetaya"
        },
        {
          "authorId": "2107938983",
          "name": "Lisa Zhang"
        },
        {
          "authorId": "47639846",
          "name": "Kijung Yoon"
        },
        {
          "authorId": "46817366",
          "name": "Xaq Pitkow"
        },
        {
          "authorId": "2422559",
          "name": "R. Urtasun"
        },
        {
          "authorId": "1804104",
          "name": "R. Zemel"
        }
      ]
    },
    {
      "paperId": "6432ef51c09ec8aafaa3a8965145c53a749a8caa",
      "externalIds": {
        "ArXiv": "2601.02007",
        "DBLP": "journals/corr/abs-2601-02007",
        "DOI": "10.48550/arXiv.2601.02007",
        "CorpusId": 284487698
      },
      "url": "https://www.semanticscholar.org/paper/6432ef51c09ec8aafaa3a8965145c53a749a8caa",
      "title": "Physics-Informed Deep Recurrent Back-Projection Network for Tunnel Propagation Modeling",
      "venue": "arXiv.org",
      "year": 2026,
      "referenceCount": 32,
      "citationCount": 0,
      "authors": [
        {
          "authorId": "2337847567",
          "name": "Kunyu Wu"
        },
        {
          "authorId": "2305801655",
          "name": "Qiushi Zhao"
        },
        {
          "authorId": "2357021591",
          "name": "Jingyi Zhou"
        },
        {
          "authorId": "2337838507",
          "name": "Junqiao Wang"
        },
        {
          "authorId": "2147410562",
          "name": "Hao Qin"
        },
        {
          "authorId": "2326734458",
          "name": "Xinyue Zhang"
        },
        {
          "authorId": "2237653381",
          "name": "Xingqi Zhang"
        }
      ]
    },
    {
      "paperId": "5aad9593a3fcaa829ce2662f801b58de6a023328",
      "externalIds": {
        "PubMedCentral": "12982904",
        "DOI": "10.47895/amp.vi0.12478",
        "CorpusId": 280143098,
        "PubMed": "41835910"
      },
      "url": "https://www.semanticscholar.org/paper/5aad9593a3fcaa829ce2662f801b58de6a023328",
      "title": "Providing Universal Health Care Access to Filipinos Region-wide using Back Propagation and Recurrent Neural Networks for Finding Optimal Locations to Place Rural Health Unit Facilities in the Philippines",
      "venue": "Acta medica Philippina",
      "year": 2026,
      "referenceCount": 15,
      "citationCount": 0,
      "authors": [
        {
          "authorId": "2424022652",
          "name": "M. Reyes"
        },
        {
          "authorId": "2242845802",
          "name": "M. R. J. Estuar"
        },
        {
          "authorId": "88741020",
          "name": "J. Montalan"
        }
      ]
    },
    {
      "paperId": "48e7c78510bfaf5e3bab11915742939371ab5d25",
      "externalIds": {
        "DBLP": "journals/asc/Chandrashekarappa17",
        "MAG": "2626288471",
        "DOI": "10.1016/j.asoc.2017.06.018",
        "CorpusId": 38921851
      },
      "url": "https://www.semanticscholar.org/paper/48e7c78510bfaf5e3bab11915742939371ab5d25",
      "title": "Back propagation genetic and recurrent neural network applications in modelling and analysis of squeeze casting process",
      "venue": "Applied Soft Computing",
      "year": 2017,
      "referenceCount": 37,
      "citationCount": 49,
      "authors": [
        {
          "authorId": "2894486",
          "name": "M. Chandrashekarappa"
        },
        {
          "authorId": "22274036",
          "name": "A. Shettigar"
        },
        {
          "authorId": "144283189",
          "name": "P. Krishna"
        },
        {
          "authorId": "3264333",
          "name": "M. B. Parappagoudar"
        }
      ]
    },
    {
      "paperId": "03b543ff9d8ef137c2ee4cc40c5c285a56a01c6b",
      "externalIds": {
        "MAG": "205823816",
        "CorpusId": 60185948
      },
      "url": "https://www.semanticscholar.org/paper/03b543ff9d8ef137c2ee4cc40c5c285a56a01c6b",
      "title": "An Improved Elman Model and Recurrent Back-Propagation Control Neural Networks",
      "venue": "",
      "year": 2003,
      "referenceCount": 18,
      "citationCount": 17,
      "authors": [
        {
          "authorId": "97637936",
          "name": "S. Xiao"
        }
      ]
    },
    {
      "paperId": "8303e7b31f6729a9d9a671b72f86f0798a2c911d",
      "externalIds": {
        "MAG": "3081083779",
        "DOI": "10.1109/IDEA49133.2020.9170686",
        "CorpusId": 221280463
      },
      "url": "https://www.semanticscholar.org/paper/8303e7b31f6729a9d9a671b72f86f0798a2c911d",
      "title": "“Error back propagation based Recurrent Neural Networks for Intrusion Detection system”",
      "venue": "2nd International Conference on Data, Engineering and Applications (IDEA)",
      "year": 2020,
      "referenceCount": 12,
      "citationCount": 1,
      "authors": [
        {
          "authorId": "1897787675",
          "name": "Aswanee Sahu"
        },
        {
          "authorId": "2368270",
          "name": "Yogendra P. S. Maravi"
        },
        {
          "authorId": "2146390956",
          "name": "Sanjeev Sharma"
        },
        {
          "authorId": "2026040",
          "name": "Nishchol Mishra"
        }
      ]
    },
    {
      "paperId": "51f442d9cb8a89f314ac4e2de73b00ad596b21c6",
      "externalIds": {
        "DOI": "10.46620/URSIAPRASC25/ZUCD7082",
        "CorpusId": 281894623
      },
      "url": "https://www.semanticscholar.org/paper/51f442d9cb8a89f314ac4e2de73b00ad596b21c6",
      "title": "Advancing GNSS-RO Detection of Ionospheric Irregularities Using Refined Back Propagation and GOLD Data",
      "venue": "2025 URSI Asia-Pacific Radio Science Meeting (AP-RASC)",
      "year": 2025,
      "referenceCount": 0,
      "citationCount": 0,
      "authors": [
        {
          "authorId": "2256852067",
          "name": "Carles Quilis Alfonso"
        },
        {
          "authorId": "1429748665",
          "name": "Vinícius Ludwig-Barbosa"
        },
        {
          "authorId": "2241888879",
          "name": "Joel Rasch"
        },
        {
          "authorId": "7530228",
          "name": "A. Carlström"
        },
        {
          "authorId": "3265064",
          "name": "M. Pettersson"
        },
        {
          "authorId": "2241888217",
          "name": "Viet Thuy Vu"
        }
      ]
    },
    {
      "paperId": "c1962b3e27eb02de5f897e2d03f82658d8686a33",
      "externalIds": {
        "DOI": "10.1007/s11269-024-03975-w",
        "CorpusId": 272611978
      },
      "url": "https://www.semanticscholar.org/paper/c1962b3e27eb02de5f897e2d03f82658d8686a33",
      "title": "Coupling SWAT and LSTM for Improving Daily Streamflow Simulation in a Humid and Semi-humid River Basin",
      "venue": "Water resources management",
      "year": 2024,
      "referenceCount": 56,
      "citationCount": 23,
      "authors": [
        {
          "authorId": "2276652388",
          "name": "Ziyi Mei"
        },
        {
          "authorId": "2266624669",
          "name": "Tao Peng"
        },
        {
          "authorId": "2197983773",
          "name": "Lu Chen"
        },
        {
          "authorId": "2266709520",
          "name": "Vijay P. Singh"
        },
        {
          "authorId": "2057993071",
          "name": "Bin Yi"
        },
        {
          "authorId": "153043647",
          "name": "Zhiyuan Leng"
        },
        {
          "authorId": "2179227641",
          "name": "Xiaoxue Gan"
        },
        {
          "authorId": "2276669586",
          "name": "Tao Xie"
        }
      ]
    },
    {
      "paperId": "f8282a8bf3a75828863e003ba92d31c75df8cdd4",
      "externalIds": {
        "DBLP": "journals/evs/KumarSM24",
        "DOI": "10.1007/s12530-024-09606-4",
        "CorpusId": 271442319
      },
      "url": "https://www.semanticscholar.org/paper/f8282a8bf3a75828863e003ba92d31c75df8cdd4",
      "title": "Nonlinear dynamic engineering processes modeling using a lyapunov-stability based novel locally connected recurrent pi-sigma neural network: design, simulation, and a comparative study",
      "venue": "Evolutionary Systematics",
      "year": 2024,
      "referenceCount": 59,
      "citationCount": 3,
      "authors": [
        {
          "authorId": "2267432835",
          "name": "Rajesh Kumar"
        },
        {
          "authorId": "2237854722",
          "name": "Smriti Srivastava"
        },
        {
          "authorId": "47691563",
          "name": "Amit Mohindru"
        }
      ]
    },
    {
      "paperId": "4460584707aa2cbc38b9532c6f1e4c9df3135152",
      "externalIds": {
        "MAG": "2382331105",
        "CorpusId": 63899388
      },
      "url": "https://www.semanticscholar.org/paper/4460584707aa2cbc38b9532c6f1e4c9df3135152",
      "title": "Simulation for Improving Error Registration with Neural Network on Base of Back Propagation",
      "venue": "",
      "year": 2010,
      "referenceCount": 0,
      "citationCount": 0,
      "authors": [
        {
          "authorId": "1405621949",
          "name": "Huang Ling-fang"
        }
      ]
    }
  ]
}