{
  "total": 86,
  "offset": 0,
  "next": 10,
  "data": [
    {
      "paperId": "f1545119be52d5229166663c2bfc5f4be48767db",
      "externalIds": {
        "DBLP": "journals/corr/FazayeliB16",
        "MAG": "2949566462",
        "ArXiv": "1606.05302",
        "CorpusId": 5978187
      },
      "url": "https://www.semanticscholar.org/paper/f1545119be52d5229166663c2bfc5f4be48767db",
      "title": "Generalized Direct Change Estimation in Ising Model Structure",
      "venue": "International Conference on Machine Learning",
      "year": 2016,
      "referenceCount": 34,
      "citationCount": 26,
      "authors": [
        {
          "authorId": "2165142",
          "name": "F. Fazayeli"
        },
        {
          "authorId": "144205696",
          "name": "A. Banerjee"
        }
      ]
    },
    {
      "paperId": "5f9ff9f660743d38056207c05220b3453793024e",
      "externalIds": {
        "MAG": "2948255291",
        "CorpusId": 195547522
      },
      "url": "https://www.semanticscholar.org/paper/5f9ff9f660743d38056207c05220b3453793024e",
      "title": "Calculating the Dimensionality of the Brain, and Other Applications of an Optimized Generalized Ising Model in Predicting Brain's Spontaneous Functions",
      "venue": "",
      "year": 2019,
      "referenceCount": 121,
      "citationCount": 0,
      "authors": [
        {
          "authorId": "4374215",
          "name": "P. M. Abeyasinghe"
        }
      ]
    },
    {
      "paperId": "6d63851f6d543ab70af89c4e6fbb413f0da72213",
      "externalIds": {
        "ArXiv": "1904.04001",
        "MAG": "2950241282",
        "DOI": "10.1007/s00006-018-0923-2",
        "CorpusId": 102351779
      },
      "url": "https://www.semanticscholar.org/paper/6d63851f6d543ab70af89c4e6fbb413f0da72213",
      "title": "Clifford algebra approach of 3D Ising model",
      "venue": "Advances in Applied Clifford Algebras",
      "year": 2018,
      "referenceCount": 52,
      "citationCount": 69,
      "authors": [
        {
          "authorId": "2154762726",
          "name": "Zhidong Zhang"
        },
        {
          "authorId": "2071628741",
          "name": "O. Suzuki"
        },
        {
          "authorId": "88810454",
          "name": "N. H. March"
        }
      ]
    },
    {
      "paperId": "14f208aa4f66c39ac2c126c0686f0e53617620c4",
      "externalIds": {
        "DOI": "10.1007/s00006-018-0923-2",
        "CorpusId": 253600009
      },
      "url": "https://www.semanticscholar.org/paper/14f208aa4f66c39ac2c126c0686f0e53617620c4",
      "title": "Clifford algebra approach of 3D Ising model",
      "venue": "Advances in Applied Clifford Algebras",
      "year": 2018,
      "referenceCount": 54,
      "citationCount": 6,
      "authors": [
        {
          "authorId": "2154762726",
          "name": "Zhidong Zhang"
        },
        {
          "authorId": "2071628741",
          "name": "O. Suzuki"
        },
        {
          "authorId": "88810454",
          "name": "N. H. March"
        }
      ]
    },
    {
      "paperId": "c67a3e83d2109fb7b528c6470b160242822e08a4",
      "externalIds": {
        "DOI": "10.1115/1.4065061",
        "CorpusId": 268482502
      },
      "url": "https://www.semanticscholar.org/paper/c67a3e83d2109fb7b528c6470b160242822e08a4",
      "title": "Estimation of Piston Surface Temperature During Engine Transient Operation for Emissions Reduction",
      "venue": "Journal of Engineering For Gas Turbines and Power",
      "year": 2024,
      "referenceCount": 0,
      "citationCount": 3,
      "authors": [
        {
          "authorId": "2109458793",
          "name": "Zhijia Yang"
        },
        {
          "authorId": "2237910509",
          "name": "Byron Mason"
        },
        {
          "authorId": "2291531721",
          "name": "Brian Wooyeol Bae"
        },
        {
          "authorId": "2291806383",
          "name": "Fabrizio Bonatesta"
        },
        {
          "authorId": "1972476",
          "name": "E. Winward"
        },
        {
          "authorId": "2291725219",
          "name": "R. Burke"
        },
        {
          "authorId": "145824303",
          "name": "E. Chappell"
        }
      ]
    },
    {
      "paperId": "b8c61135f4120935e0b920fe0a682a092ebc1a23",
      "externalIds": {
        "MAG": "1982342226",
        "DOI": "10.1007/BF02759189",
        "CorpusId": 120287557
      },
      "url": "https://www.semanticscholar.org/paper/b8c61135f4120935e0b920fe0a682a092ebc1a23",
      "title": "On the solution of the two-dimensional ising model with an imaginary magnetic field βH=h=iπ/2",
      "venue": "",
      "year": 1974,
      "referenceCount": 8,
      "citationCount": 15,
      "authors": [
        {
          "authorId": "102143024",
          "name": "D. Merlini"
        }
      ]
    },
    {
      "paperId": "7e388bc03f180fe92ce25db278dde86e1921d1ba",
      "externalIds": {
        "MAG": "2998890247",
        "DOI": "10.1016/j.scitotenv.2020.136686",
        "CorpusId": 211064270,
        "PubMed": "32032984"
      },
      "url": "https://www.semanticscholar.org/paper/7e388bc03f180fe92ce25db278dde86e1921d1ba",
      "title": "Estimation of nonlinear water-quality trends in high-frequency monitoring data.",
      "venue": "Science of the Total Environment",
      "year": 2020,
      "referenceCount": 46,
      "citationCount": 47,
      "authors": [
        {
          "authorId": "2355938",
          "name": "Guoxiang Yang"
        },
        {
          "authorId": "34823659",
          "name": "D. Moyer"
        }
      ]
    },
    {
      "paperId": "131759ed215730d14d83ac7f1f41b863d2905065",
      "externalIds": {
        "ArXiv": "2302.10822",
        "DOI": "10.1103/physrevmaterials.7.064601",
        "CorpusId": 257050789
      },
      "url": "https://www.semanticscholar.org/paper/131759ed215730d14d83ac7f1f41b863d2905065",
      "title": "First-principles insight in structure-property relationships of hexagonal Si and Ge polytypes",
      "venue": "PHYSICAL REVIEW MATERIALS",
      "year": 2023,
      "referenceCount": 124,
      "citationCount": 7,
      "authors": [
        {
          "authorId": "48827176",
          "name": "M. Keller"
        },
        {
          "authorId": "144851781",
          "name": "A. Belabbes"
        },
        {
          "authorId": "1724246",
          "name": "J. Furthmüller"
        },
        {
          "authorId": "3063205",
          "name": "F. Bechstedt"
        },
        {
          "authorId": "5517714",
          "name": "S. Botti"
        }
      ]
    },
    {
      "paperId": "8d92fdd3561c6abd202ed775c2517c72f46decc3",
      "externalIds": {
        "MAG": "2127038105",
        "DOI": "10.1111/J.1365-246X.1997.TB05327.X",
        "CorpusId": 122894354
      },
      "url": "https://www.semanticscholar.org/paper/8d92fdd3561c6abd202ed775c2517c72f46decc3",
      "title": "Constrained inversion and the generalized reciprocal method: on the ambiguity in the estimation of velocity structure and depths of discontinuities, hidden layers and low‐velocity zones",
      "venue": "",
      "year": 1997,
      "referenceCount": 21,
      "citationCount": 0,
      "authors": [
        {
          "authorId": "102826156",
          "name": "J. Traslosheros"
        }
      ]
    },
    {
      "paperId": "420f46487ed9f60eb1d51bde26f27e589c801609",
      "externalIds": {
        "MAG": "2566766482",
        "DOI": "10.1306/08231616065",
        "CorpusId": 132800686
      },
      "url": "https://www.semanticscholar.org/paper/420f46487ed9f60eb1d51bde26f27e589c801609",
      "title": "Direct estimation of fault trajectory from structural relief",
      "venue": "",
      "year": 2017,
      "referenceCount": 19,
      "citationCount": 20,
      "authors": [
        {
          "authorId": "102967911",
          "name": "N. Eichelberger"
        },
        {
          "authorId": "72867285",
          "name": "A. Nunns"
        },
        {
          "authorId": "144975592",
          "name": "R. Groshong"
        },
        {
          "authorId": "100618665",
          "name": "A. Hughes"
        }
      ]
    }
  ]
}