{
  "total": 15405,
  "offset": 0,
  "next": 10,
  "data": [
    {
      "paperId": "2dcef55a07f8607a819c21fe84131ea269cc2e3c",
      "externalIds": {
        "MAG": "2129069237",
        "DBLP": "journals/corr/Sohl-DicksteinW15",
        "ArXiv": "1503.03585",
        "CorpusId": 14888175
      },
      "url": "https://www.semanticscholar.org/paper/2dcef55a07f8607a819c21fe84131ea269cc2e3c",
      "title": "Deep Unsupervised Learning using Nonequilibrium Thermodynamics",
      "venue": "International Conference on Machine Learning",
      "year": 2015,
      "referenceCount": 60,
      "citationCount": 9672,
      "authors": [
        {
          "authorId": "1407546424",
          "name": "Jascha Narain Sohl-Dickstein"
        },
        {
          "authorId": "2144479710",
          "name": "Eric A. Weiss"
        },
        {
          "authorId": "2333223",
          "name": "Niru Maheswaranathan"
        },
        {
          "authorId": "25769960",
          "name": "S. Ganguli"
        }
      ]
    },
    {
      "paperId": "c140d04e84ada88e98e226da965cf8f618452b8e",
      "externalIds": {
        "ArXiv": "2307.04054",
        "DBLP": "journals/neuromorphic/LuS24",
        "DOI": "10.1088/2634-4386/ad3a95",
        "CorpusId": 259501425
      },
      "url": "https://www.semanticscholar.org/paper/c140d04e84ada88e98e226da965cf8f618452b8e",
      "title": "Deep unsupervised learning using spike-timing-dependent plasticity",
      "venue": "Neuromorph. Comput. Eng.",
      "year": 2023,
      "referenceCount": 54,
      "citationCount": 10,
      "authors": [
        {
          "authorId": "2115203498",
          "name": "Sen Lu"
        },
        {
          "authorId": "2629795",
          "name": "Abhronil Sengupta"
        }
      ]
    },
    {
      "paperId": "e337c5e4c23999c36f64bcb33ebe6b284e1bcbf1",
      "externalIds": {
        "MAG": "2120432001",
        "DBLP": "conf/icml/RainaMN09",
        "DOI": "10.1145/1553374.1553486",
        "CorpusId": 392458
      },
      "url": "https://www.semanticscholar.org/paper/e337c5e4c23999c36f64bcb33ebe6b284e1bcbf1",
      "title": "Large-scale deep unsupervised learning using graphics processors",
      "venue": "International Conference on Machine Learning",
      "year": 2009,
      "referenceCount": 36,
      "citationCount": 774,
      "authors": [
        {
          "authorId": "2979876",
          "name": "Rajat Raina"
        },
        {
          "authorId": "2070938295",
          "name": "Anand Madhavan"
        },
        {
          "authorId": "34699434",
          "name": "A. Ng"
        }
      ]
    },
    {
      "paperId": "13ed61c5f365a0a199b378a92f6fb249775eba9e",
      "externalIds": {
        "ArXiv": "2305.03529",
        "DOI": "10.1016/j.ophoto.2023.100044",
        "CorpusId": 258546777
      },
      "url": "https://www.semanticscholar.org/paper/13ed61c5f365a0a199b378a92f6fb249775eba9e",
      "title": "Deep unsupervised learning for 3D ALS point clouds change detection",
      "venue": "ISPRS Open Journal of Photogrammetry and Remote Sensing",
      "year": 2023,
      "referenceCount": 83,
      "citationCount": 18,
      "authors": [
        {
          "authorId": "2216489076",
          "name": "Iris de G'elis"
        },
        {
          "authorId": "2959887",
          "name": "Sudipan Saha"
        },
        {
          "authorId": "1380493607",
          "name": "M. Shahzad"
        },
        {
          "authorId": "2637442",
          "name": "T. Corpetti"
        },
        {
          "authorId": "47744684",
          "name": "S. Lefèvre"
        },
        {
          "authorId": "2216497611",
          "name": "Xiao Xiang Zhu Magellium - Toulouse - France"
        },
        {
          "authorId": "2422506785",
          "name": "I. U. 6. U. B. S. -. V. -. France"
        },
        {
          "authorId": "2216493146",
          "name": "Yardi School of Artificial Intelligence Indian Institute Munich"
        },
        {
          "authorId": "2216493931",
          "name": "Chair of Data Science in Earth Observation - Munich - Germany"
        },
        {
          "authorId": "2216493929",
          "name": "C. L. U. 6. -. R. -. France"
        }
      ]
    },
    {
      "paperId": "6c41b9ce19f7c402fd7d58e694e7a5687774ce05",
      "externalIds": {
        "DBLP": "journals/wcl/AcharjeeHW23",
        "DOI": "10.1109/LWC.2023.3316114",
        "CorpusId": 261978499
      },
      "url": "https://www.semanticscholar.org/paper/6c41b9ce19f7c402fd7d58e694e7a5687774ce05",
      "title": "Deep Unsupervised Learning for Optimization With Box and Monotone Matrix Based Polytope Constraints: A Case-Study of D2D Wireless Networks",
      "venue": "IEEE Wireless Communications Letters",
      "year": 2023,
      "referenceCount": 15,
      "citationCount": 8,
      "authors": [
        {
          "authorId": "2242624372",
          "name": "Bindubritta Acharjee"
        },
        {
          "authorId": "2242610484",
          "name": "Muhammad Hanif"
        },
        {
          "authorId": "1942518",
          "name": "Omer Waqar"
        }
      ]
    },
    {
      "paperId": "3984b9e165acb71aed90d36ad262bfea2dee4572",
      "externalIds": {
        "DOI": "10.1016/j.mlwa.2025.100767",
        "CorpusId": 282454053
      },
      "url": "https://www.semanticscholar.org/paper/3984b9e165acb71aed90d36ad262bfea2dee4572",
      "title": "Unsupervised Deep Learning for Semantic Segmentation using Laparoscopic Videos: A Self-Detection and Self-Learning Approach",
      "venue": "Machine Learning with Applications",
      "year": 2025,
      "referenceCount": 51,
      "citationCount": 0,
      "authors": [
        {
          "authorId": "2198159053",
          "name": "Sina Saadati"
        },
        {
          "authorId": "2388364915",
          "name": "Maryam Hashemi"
        },
        {
          "authorId": "10060672",
          "name": "C. Nezhat"
        }
      ]
    },
    {
      "paperId": "8338358c45096efb56a8277055cc3eee008b252b",
      "externalIds": {
        "MAG": "3121722212",
        "DBLP": "journals/icl/NatalinoUWOF21",
        "DOI": "10.1109/LCOMM.2021.3055064",
        "CorpusId": 233990674
      },
      "url": "https://www.semanticscholar.org/paper/8338358c45096efb56a8277055cc3eee008b252b",
      "title": "Spectrum Anomaly Detection for Optical Network Monitoring Using Deep Unsupervised Learning",
      "venue": "IEEE Communications Letters",
      "year": 2021,
      "referenceCount": 15,
      "citationCount": 17,
      "authors": [
        {
          "authorId": "48306584",
          "name": "Carlos Natalino"
        },
        {
          "authorId": "2600645",
          "name": "A. Udalcovs"
        },
        {
          "authorId": "1781828",
          "name": "L. Wosinska"
        },
        {
          "authorId": "1877751",
          "name": "O. Ozoliņš"
        },
        {
          "authorId": "2566108",
          "name": "M. Furdek"
        }
      ]
    },
    {
      "paperId": "c1a7ad17fc84227ad67c2494a0effd4bbdc77e47",
      "externalIds": {
        "DBLP": "journals/access/LeangarunTT21",
        "DOI": "10.1109/ACCESS.2021.3100359",
        "CorpusId": 236919713
      },
      "url": "https://www.semanticscholar.org/paper/c1a7ad17fc84227ad67c2494a0effd4bbdc77e47",
      "title": "Stock Price Manipulation Detection Using Deep Unsupervised Learning: The Case of Thailand",
      "venue": "IEEE Access",
      "year": 2021,
      "referenceCount": 67,
      "citationCount": 21,
      "authors": [
        {
          "authorId": "8765772",
          "name": "Teema Leangarun"
        },
        {
          "authorId": "2104696",
          "name": "P. Tangamchit"
        },
        {
          "authorId": "1796165",
          "name": "S. Thajchayapong"
        }
      ]
    },
    {
      "paperId": "568ddaf6fcfe6dda217819030038e40dc5028aff",
      "externalIds": {
        "DOI": "10.3390/electronics10212591",
        "CorpusId": 239985767
      },
      "url": "https://www.semanticscholar.org/paper/568ddaf6fcfe6dda217819030038e40dc5028aff",
      "title": "Blind Image Super Resolution Using Deep Unsupervised Learning",
      "venue": "Electronics",
      "year": 2021,
      "referenceCount": 56,
      "citationCount": 4,
      "authors": [
        {
          "authorId": "33289993",
          "name": "K. Yamawaki"
        },
        {
          "authorId": "3073314",
          "name": "Yongqing Sun"
        },
        {
          "authorId": "145708783",
          "name": "X. Han"
        }
      ]
    },
    {
      "paperId": "49a1fe03f1c5e45b68cfcd9eb90bb63a91bd61fd",
      "externalIds": {
        "DOI": "10.1007/s11053-022-10088-x",
        "CorpusId": 249994484
      },
      "url": "https://www.semanticscholar.org/paper/49a1fe03f1c5e45b68cfcd9eb90bb63a91bd61fd",
      "title": "Recognizing Multivariate Geochemical Anomalies Related to Mineralization by Using Deep Unsupervised Graph Learning",
      "venue": "Natural Resources Research",
      "year": 2022,
      "referenceCount": 90,
      "citationCount": 47,
      "authors": [
        {
          "authorId": "35796399",
          "name": "Qingfeng Guan"
        },
        {
          "authorId": "2075291437",
          "name": "Shuliang Ren"
        },
        {
          "authorId": "2109249223",
          "name": "Lirong Chen"
        },
        {
          "authorId": "144224933",
          "name": "Yao Yao"
        },
        {
          "authorId": "2149298592",
          "name": "Ying Hu"
        },
        {
          "authorId": "2108668101",
          "name": "Ruifan Wang"
        },
        {
          "authorId": "2056751712",
          "name": "Bin Feng"
        },
        {
          "authorId": "2069591576",
          "name": "Landing Gu"
        },
        {
          "authorId": "1825705239",
          "name": "Wenhui Chen"
        }
      ]
    }
  ]
}