{
  "total": 68504,
  "offset": 0,
  "next": 10,
  "data": [
    {
      "paperId": "6db294e9309349d82df47a912ccc47eab1dc1358",
      "externalIds": {
        "DBLP": "journals/corr/WangWHMZD17",
        "MAG": "2592647456",
        "ArXiv": "1702.07463",
        "CorpusId": 5002361
      },
      "url": "https://www.semanticscholar.org/paper/6db294e9309349d82df47a912ccc47eab1dc1358",
      "title": "Sequence Modeling via Segmentations",
      "venue": "International Conference on Machine Learning",
      "year": 2017,
      "referenceCount": 28,
      "citationCount": 47,
      "authors": [
        {
          "authorId": "2146308808",
          "name": "Chong Wang"
        },
        {
          "authorId": "2389969645",
          "name": "Yining Wang"
        },
        {
          "authorId": "2421691",
          "name": "Po-Sen Huang"
        },
        {
          "authorId": "40360972",
          "name": "Abdel-rahman Mohamed"
        },
        {
          "authorId": "24982365",
          "name": "Dengyong Zhou"
        },
        {
          "authorId": "144718788",
          "name": "L. Deng"
        }
      ]
    },
    {
      "paperId": "df03e2aeeaf2e58bef3fe732cabea16513bcfe83",
      "externalIds": {
        "DBLP": "journals/corr/abs-2601-22805",
        "ArXiv": "2601.22805",
        "DOI": "10.48550/arXiv.2601.22805",
        "CorpusId": 285240744
      },
      "url": "https://www.semanticscholar.org/paper/df03e2aeeaf2e58bef3fe732cabea16513bcfe83",
      "title": "SOMBRERO: Measuring and Steering Boundary Placement in End-to-End Hierarchical Sequence Models",
      "venue": "arXiv.org",
      "year": 2026,
      "referenceCount": 0,
      "citationCount": 0,
      "authors": [
        {
          "authorId": "2193555370",
          "name": "Pit Neitemeier"
        },
        {
          "authorId": "2412695834",
          "name": "A. Serra"
        },
        {
          "authorId": "2357103638",
          "name": "Jiaze Li"
        },
        {
          "authorId": "2408223374",
          "name": "Sascha Wirges"
        },
        {
          "authorId": "8604693",
          "name": "Lukas Balles"
        },
        {
          "authorId": "2708564",
          "name": "J. Metzen"
        }
      ]
    },
    {
      "paperId": "e48ab134288a4ee9a45464223b1f0119a13bd6a3",
      "externalIds": {
        "DBLP": "journals/corr/abs-2602-04053",
        "ArXiv": "2602.04053",
        "DOI": "10.48550/arXiv.2602.04053",
        "CorpusId": 285285887
      },
      "url": "https://www.semanticscholar.org/paper/e48ab134288a4ee9a45464223b1f0119a13bd6a3",
      "title": "Seeing Through Clutter: Structured 3D Scene Reconstruction via Iterative Object Removal",
      "venue": "arXiv.org",
      "year": 2026,
      "referenceCount": 46,
      "citationCount": 0,
      "authors": [
        {
          "authorId": "2291965006",
          "name": "Rio Aguina-Kang"
        },
        {
          "authorId": "2384444017",
          "name": "Kevin Blackburn-Matzen"
        },
        {
          "authorId": "35930660",
          "name": "Thibault Groueix"
        },
        {
          "authorId": "2294722012",
          "name": "Vladimir Kim"
        },
        {
          "authorId": "2255690082",
          "name": "Matheus Gadelha"
        }
      ]
    },
    {
      "paperId": "1f456008ee29089985abf88dadad07b9d3d3f86a",
      "externalIds": {
        "MAG": "2039937371",
        "DBLP": "journals/kais/YuL12",
        "DOI": "10.1007/s10115-011-0455-8",
        "CorpusId": 17833728
      },
      "url": "https://www.semanticscholar.org/paper/1f456008ee29089985abf88dadad07b9d3d3f86a",
      "title": "Probabilistic joint models incorporating logic and learning via structured variational approximation for information extraction",
      "venue": "Knowledge and Information Systems",
      "year": 2012,
      "referenceCount": 47,
      "citationCount": 8,
      "authors": [
        {
          "authorId": "50188017",
          "name": "Xiaofeng Yu"
        },
        {
          "authorId": "144594306",
          "name": "Wai Lam"
        }
      ]
    },
    {
      "paperId": "fb2d078681b3b3f60bd5992938c0edc579c85e7b",
      "externalIds": {
        "DOI": "10.1007/s10115-011-0455-8",
        "CorpusId": 254143873
      },
      "url": "https://www.semanticscholar.org/paper/fb2d078681b3b3f60bd5992938c0edc579c85e7b",
      "title": "Probabilistic joint models incorporating logic and learning via structured variational approximation for information extraction",
      "venue": "Knowledge and Information Systems",
      "year": 2011,
      "referenceCount": 0,
      "citationCount": 0,
      "authors": [
        {
          "authorId": "50188017",
          "name": "Xiaofeng Yu"
        },
        {
          "authorId": "144594306",
          "name": "Wai Lam"
        }
      ]
    },
    {
      "paperId": "c1ad5f9b32d80f1c65d67894e5b8c2fdf0ae4500",
      "externalIds": {
        "DBLP": "journals/corr/abs-2106-01345",
        "MAG": "3169291081",
        "ArXiv": "2106.01345",
        "CorpusId": 235294299
      },
      "url": "https://www.semanticscholar.org/paper/c1ad5f9b32d80f1c65d67894e5b8c2fdf0ae4500",
      "title": "Decision Transformer: Reinforcement Learning via Sequence Modeling",
      "venue": "Neural Information Processing Systems",
      "year": 2021,
      "referenceCount": 90,
      "citationCount": 2190,
      "authors": [
        {
          "authorId": "2108435457",
          "name": "Lili Chen"
        },
        {
          "authorId": "2070275468",
          "name": "Kevin Lu"
        },
        {
          "authorId": "19275599",
          "name": "A. Rajeswaran"
        },
        {
          "authorId": "3436470",
          "name": "Kimin Lee"
        },
        {
          "authorId": "1954250",
          "name": "Aditya Grover"
        },
        {
          "authorId": "51093256",
          "name": "M. Laskin"
        },
        {
          "authorId": "1689992",
          "name": "P. Abbeel"
        },
        {
          "authorId": "41207614",
          "name": "A. Srinivas"
        },
        {
          "authorId": "2080746",
          "name": "Igor Mordatch"
        }
      ]
    },
    {
      "paperId": "eaef083b9d661f42cc0d89d9d8156218f33a91d9",
      "externalIds": {
        "DBLP": "journals/corr/abs-2206-13947",
        "ArXiv": "2206.13947",
        "DOI": "10.48550/arXiv.2206.13947",
        "CorpusId": 250089125
      },
      "url": "https://www.semanticscholar.org/paper/eaef083b9d661f42cc0d89d9d8156218f33a91d9",
      "title": "Long Range Language Modeling via Gated State Spaces",
      "venue": "International Conference on Learning Representations",
      "year": 2022,
      "referenceCount": 53,
      "citationCount": 356,
      "authors": [
        {
          "authorId": "18138802",
          "name": "Harsh Mehta"
        },
        {
          "authorId": "145520321",
          "name": "Ankit Gupta"
        },
        {
          "authorId": "2119229978",
          "name": "Ashok Cutkosky"
        },
        {
          "authorId": "3007442",
          "name": "Behnam Neyshabur"
        }
      ]
    },
    {
      "paperId": "85b1c5c999e2020601ec81ded447c67df7acf5cd",
      "externalIds": {
        "DOI": "10.1109/JSTARS.2025.3647643",
        "CorpusId": 284304343
      },
      "url": "https://www.semanticscholar.org/paper/85b1c5c999e2020601ec81ded447c67df7acf5cd",
      "title": "HyM3S: Integrating Multiscale Spatial–Spectral Features With Sequence Modeling for Hyperspectral Classification",
      "venue": "IEEE Journal of Selected Topics in Applied Earth Observations and Remote Sensing",
      "year": 2026,
      "referenceCount": 60,
      "citationCount": 1,
      "authors": [
        {
          "authorId": "2415859397",
          "name": "Yin Chen"
        },
        {
          "authorId": "83866308",
          "name": "Shaoqun Qi"
        },
        {
          "authorId": "2401307682",
          "name": "Luhe Wan"
        },
        {
          "authorId": "2250709698",
          "name": "C. Du"
        },
        {
          "authorId": "2395642380",
          "name": "Zhiwei Lin"
        },
        {
          "authorId": "2323142463",
          "name": "Lin Zhu"
        },
        {
          "authorId": "2366370308",
          "name": "Xiaona Yu"
        }
      ]
    },
    {
      "paperId": "6509077328247102b27ec400f19a75088cf51362",
      "externalIds": {
        "PubMedCentral": "12533124",
        "DOI": "10.1038/s41598-025-20189-1",
        "CorpusId": 282145481,
        "PubMed": "41102360"
      },
      "url": "https://www.semanticscholar.org/paper/6509077328247102b27ec400f19a75088cf51362",
      "title": "Enhanced short-term carbon emission forecasting via hybrid decomposition-denoising modeling",
      "venue": "Scientific Reports",
      "year": 2025,
      "referenceCount": 25,
      "citationCount": 3,
      "authors": [
        {
          "authorId": "2297547216",
          "name": "Peng Zhang"
        }
      ]
    },
    {
      "paperId": "db670d949dbd55ad4e2047804a0b525de0dde304",
      "externalIds": {
        "ArXiv": "2604.06649",
        "CorpusId": 287248340
      },
      "url": "https://www.semanticscholar.org/paper/db670d949dbd55ad4e2047804a0b525de0dde304",
      "title": "Bayesian Aneurysm Growth Detection via Surface Displacement Modeling",
      "venue": "",
      "year": 2026,
      "referenceCount": 33,
      "citationCount": 0,
      "authors": [
        {
          "authorId": "2320249811",
          "name": "J. A. R. Castro"
        },
        {
          "authorId": "2343122973",
          "name": "Abhishek Singh"
        },
        {
          "authorId": "9071261",
          "name": "Atharva Hans"
        },
        {
          "authorId": "2119490862",
          "name": "Kostiantyn Kondratiuk"
        },
        {
          "authorId": "2258736418",
          "name": "D. Saloner"
        },
        {
          "authorId": "2321081477",
          "name": "Vitaliy L. Rayz"
        },
        {
          "authorId": "49680060",
          "name": "P. Vlachos"
        },
        {
          "authorId": "2267395821",
          "name": "I. Bilionis"
        }
      ]
    }
  ]
}