{
  "total": 5290,
  "offset": 0,
  "next": 10,
  "data": [
    {
      "paperId": "bfbd10ebffc9494423770a5bd30ebd0f9cbce66d",
      "externalIds": {
        "MAG": "2617411258",
        "DBLP": "journals/corr/MirhoseiniPLSLZ17",
        "ArXiv": "1706.04972",
        "CorpusId": 3635282
      },
      "url": "https://www.semanticscholar.org/paper/bfbd10ebffc9494423770a5bd30ebd0f9cbce66d",
      "title": "Device Placement Optimization with Reinforcement Learning",
      "venue": "International Conference on Machine Learning",
      "year": 2017,
      "referenceCount": 51,
      "citationCount": 486,
      "authors": [
        {
          "authorId": "1861312",
          "name": "Azalia Mirhoseini"
        },
        {
          "authorId": "143950636",
          "name": "Hieu Pham"
        },
        {
          "authorId": "2827616",
          "name": "Quoc V. Le"
        },
        {
          "authorId": "32163737",
          "name": "Benoit Steiner"
        },
        {
          "authorId": "47223513",
          "name": "Rasmus Larsen"
        },
        {
          "authorId": "2116451595",
          "name": "Yuefeng Zhou"
        },
        {
          "authorId": "2116960562",
          "name": "Naveen Kumar"
        },
        {
          "authorId": "144739074",
          "name": "Mohammad Norouzi"
        },
        {
          "authorId": "1751569",
          "name": "Samy Bengio"
        },
        {
          "authorId": "48448318",
          "name": "J. Dean"
        }
      ]
    },
    {
      "paperId": "ce2c07859901697777bfe116db071f6c9686a1cf",
      "externalIds": {
        "CorpusId": 91178030
      },
      "url": "https://www.semanticscholar.org/paper/ce2c07859901697777bfe116db071f6c9686a1cf",
      "title": "Ju n 20 17 Device Placement Optimization with Reinforcement Learning",
      "venue": "",
      "year": 2017,
      "referenceCount": 39,
      "citationCount": 1,
      "authors": [
        {
          "authorId": "1861312",
          "name": "Azalia Mirhoseini"
        },
        {
          "authorId": "143950636",
          "name": "Hieu Pham"
        },
        {
          "authorId": "2827616",
          "name": "Quoc V. Le"
        },
        {
          "authorId": "32163737",
          "name": "Benoit Steiner"
        },
        {
          "authorId": "47223513",
          "name": "Rasmus Larsen"
        },
        {
          "authorId": "2116451595",
          "name": "Yuefeng Zhou"
        },
        {
          "authorId": "2116960562",
          "name": "Naveen Kumar"
        },
        {
          "authorId": "144739074",
          "name": "Mohammad Norouzi"
        },
        {
          "authorId": "1751569",
          "name": "Samy Bengio"
        },
        {
          "authorId": "48448318",
          "name": "J. Dean"
        }
      ]
    },
    {
      "paperId": "7d18f4de570994e8626a148d3a35730f4ca663bb",
      "externalIds": {
        "DBLP": "conf/ssci/DingCLZ20",
        "DOI": "10.1109/SSCI47803.2020.9308141",
        "CorpusId": 230994917
      },
      "url": "https://www.semanticscholar.org/paper/7d18f4de570994e8626a148d3a35730f4ca663bb",
      "title": "Device Placement Optimization for Deep Neural Networks via One-shot Model and Reinforcement Learning",
      "venue": "IEEE Symposium Series on Computational Intelligence",
      "year": 2020,
      "referenceCount": 24,
      "citationCount": 1,
      "authors": [
        {
          "authorId": "83352946",
          "name": "Zixiang Ding"
        },
        {
          "authorId": "47557528",
          "name": "Yaran Chen"
        },
        {
          "authorId": "145099446",
          "name": "Nannan Li"
        },
        {
          "authorId": "1699234",
          "name": "Dongbin Zhao"
        }
      ]
    },
    {
      "paperId": "7d47754d9946b7a862536eb88ce0a93bd209eee1",
      "externalIds": {
        "DBLP": "conf/ithings/ZhengMMLCS21",
        "DOI": "10.1109/iThings-GreenCom-CPSCom-SmartData-Cybermatics53846.2021.00041",
        "CorpusId": 246531891
      },
      "url": "https://www.semanticscholar.org/paper/7d47754d9946b7a862536eb88ce0a93bd209eee1",
      "title": "Device Placement for Autonomous Vehicles using Reinforcement Learning",
      "venue": "2021 IEEE International Conferences on Internet of Things (iThings) and IEEE Green Computing & Communications (GreenCom) and IEEE Cyber, Physical & Social Computing (CPSCom) and IEEE Smart Data (SmartData) and IEEE Congress on Cybermatics (Cybermatics)",
      "year": 2021,
      "referenceCount": 0,
      "citationCount": 3,
      "authors": [
        {
          "authorId": "12009927",
          "name": "Jinkai Zheng"
        },
        {
          "authorId": "2121380872",
          "name": "Phil K. Mu"
        },
        {
          "authorId": "2140233956",
          "name": "Ziqian Man"
        },
        {
          "authorId": "2238707699",
          "name": "Tom H. Luan"
        },
        {
          "authorId": "2112830082",
          "name": "L. Cai"
        },
        {
          "authorId": "1692900",
          "name": "Hangguan Shan"
        }
      ]
    },
    {
      "paperId": "95b226da21e400ee4ddedca3e77d9de56fc9fea1",
      "externalIds": {
        "DOI": "10.1109/ISMSIT67332.2025.11267933",
        "CorpusId": 283569893
      },
      "url": "https://www.semanticscholar.org/paper/95b226da21e400ee4ddedca3e77d9de56fc9fea1",
      "title": "Semi-Active RIS Optimization Using Reinforcement Learning Across Frequencies",
      "venue": "2025 9th International Symposium on Multidisciplinary Studies and Innovative Technologies (ISMSIT)",
      "year": 2025,
      "referenceCount": 6,
      "citationCount": 0,
      "authors": [
        {
          "authorId": "2312753118",
          "name": "Yasin Emre Tok"
        }
      ]
    },
    {
      "paperId": "9f50a36f61c5d2b60d6ca09d62e242c34844c010",
      "externalIds": {
        "DBLP": "conf/networking/Forghieri25",
        "CorpusId": 284476912
      },
      "url": "https://www.semanticscholar.org/paper/9f50a36f61c5d2b60d6ca09d62e242c34844c010",
      "title": "Faster Latency Constrained Service Placement in Edge Computing with Deep Reinforcement Learning",
      "venue": "Networking",
      "year": 2025,
      "referenceCount": 28,
      "citationCount": 0,
      "authors": [
        {
          "authorId": "2289113590",
          "name": "O. Forghieri"
        }
      ]
    },
    {
      "paperId": "97af0bc723e39c593374250aef845360f757a421",
      "externalIds": {
        "DBLP": "journals/tnsm/TengFL24",
        "DOI": "10.1109/TNSM.2024.3361796",
        "CorpusId": 267473055
      },
      "url": "https://www.semanticscholar.org/paper/97af0bc723e39c593374250aef845360f757a421",
      "title": "Combining Lyapunov Optimization and Deep Reinforcement Learning for D2D Assisted Heterogeneous Collaborative Edge Caching",
      "venue": "IEEE Transactions on Network and Service Management",
      "year": 2024,
      "referenceCount": 40,
      "citationCount": 15,
      "authors": [
        {
          "authorId": "2261861911",
          "name": "Ziyi Teng"
        },
        {
          "authorId": "2243390198",
          "name": "Juan Fang"
        },
        {
          "authorId": "2248786751",
          "name": "Yaqi Liu"
        }
      ]
    },
    {
      "paperId": "3b8ae7f0cb4ba9787e46b4e35eba1db703014141",
      "externalIds": {
        "CorpusId": 78088539
      },
      "url": "https://www.semanticscholar.org/paper/3b8ae7f0cb4ba9787e46b4e35eba1db703014141",
      "title": "Placeto: Efficient Progressive Device Placement Optimization",
      "venue": "",
      "year": 2018,
      "referenceCount": 19,
      "citationCount": 19,
      "authors": [
        {
          "authorId": "104000494",
          "name": "Ravichandra Addanki"
        },
        {
          "authorId": "2088687946",
          "name": "Shaileshh Bojja"
        },
        {
          "authorId": "2118927963",
          "name": "Shreyan Gupta"
        },
        {
          "authorId": "2512621",
          "name": "Hongzi Mao"
        },
        {
          "authorId": "79404966",
          "name": "Mohammad Alizadeh"
        }
      ]
    },
    {
      "paperId": "12e8cc680538bfd011453664099c6a74b2038e07",
      "externalIds": {
        "DOI": "10.3390/electronics14030529",
        "CorpusId": 275970552
      },
      "url": "https://www.semanticscholar.org/paper/12e8cc680538bfd011453664099c6a74b2038e07",
      "title": "Automatic Generation Strategy for Standard Cell Layout in DTCO Process Based on Reinforcement Learning",
      "venue": "Electronics",
      "year": 2025,
      "referenceCount": 16,
      "citationCount": 1,
      "authors": [
        {
          "authorId": "2343871222",
          "name": "Wenli Huang"
        },
        {
          "authorId": "2269127827",
          "name": "Bin Li"
        },
        {
          "authorId": "2342891144",
          "name": "Songting Huang"
        },
        {
          "authorId": "2342959525",
          "name": "Zonghan Lei"
        },
        {
          "authorId": "2326003184",
          "name": "Wenchao Liu"
        },
        {
          "authorId": "96012385",
          "name": "Zhaohui Wu"
        },
        {
          "authorId": "2342802796",
          "name": "Chaozheng Qin"
        }
      ]
    },
    {
      "paperId": "f9f5260ecb9148f988a115df00e95621327c9f8a",
      "externalIds": {
        "DOI": "10.1109/VLSIDCS53788.2022.9811434",
        "CorpusId": 250294982
      },
      "url": "https://www.semanticscholar.org/paper/f9f5260ecb9148f988a115df00e95621327c9f8a",
      "title": "VLSI Routing Optimization Using Hybrid PSO Based on Reinforcement Learning",
      "venue": "2022 IEEE VLSI Device Circuit and System (VLSI DCS)",
      "year": 2022,
      "referenceCount": 18,
      "citationCount": 5,
      "authors": [
        {
          "authorId": "2130606426",
          "name": "Pradyut Nath"
        },
        {
          "authorId": "2013888348",
          "name": "Sumagna Dey"
        },
        {
          "authorId": "145123912",
          "name": "Subhrapratim Nath"
        },
        {
          "authorId": "2054765233",
          "name": "A. Shankar"
        },
        {
          "authorId": "1786127",
          "name": "J. Sing"
        },
        {
          "authorId": "89072883",
          "name": "Subir Kumar Sarkar"
        }
      ]
    }
  ]
}