{
  "total": 76,
  "offset": 0,
  "next": 10,
  "data": [
    {
      "paperId": "af60e575721d3ef4bf2cf749f1a6024c2a3e4c8c",
      "externalIds": {
        "DBLP": "journals/corr/abs-1805-04591",
        "MAG": "2951677476",
        "ArXiv": "1805.04591",
        "CorpusId": 46892790
      },
      "url": "https://www.semanticscholar.org/paper/af60e575721d3ef4bf2cf749f1a6024c2a3e4c8c",
      "title": "Robust and Scalable Models of Microbiome Dynamics",
      "venue": "International Conference on Machine Learning",
      "year": 2018,
      "referenceCount": 41,
      "citationCount": 40,
      "authors": [
        {
          "authorId": "34571107",
          "name": "T. Gibson"
        },
        {
          "authorId": "40238354",
          "name": "G. Gerber"
        }
      ]
    },
    {
      "paperId": "23e4afad003b621caca9c819e34e31d29f3e40d6",
      "externalIds": {
        "DOI": "10.1038/s41564-025-01972-2",
        "CorpusId": 277736489,
        "PubMed": "40217129"
      },
      "url": "https://www.semanticscholar.org/paper/23e4afad003b621caca9c819e34e31d29f3e40d6",
      "title": "Moving from genome-scale to community-scale metabolic models for the human gut microbiome",
      "venue": "Nature Microbiology",
      "year": 2025,
      "referenceCount": 125,
      "citationCount": 19,
      "authors": [
        {
          "authorId": "2231502855",
          "name": "Nick Quinn-Bohmann"
        },
        {
          "authorId": "2048089577",
          "name": "Alex V. Carr"
        },
        {
          "authorId": "2321452777",
          "name": "Christian Diener"
        },
        {
          "authorId": "2276002723",
          "name": "Sean M. Gibbons"
        }
      ]
    },
    {
      "paperId": "888a4eb2b82d339c748f02b91bcd4913de7b3993",
      "externalIds": {
        "PubMedCentral": "12911399",
        "DOI": "10.1128/msystems.01279-25",
        "CorpusId": 282312869,
        "PubMed": "41575196"
      },
      "url": "https://www.semanticscholar.org/paper/888a4eb2b82d339c748f02b91bcd4913de7b3993",
      "title": "Longitudinal long-read microbiome profiling in a canine model reveals how age, diet, and birth mode shape gut community dynamics",
      "venue": "bioRxiv",
      "year": 2025,
      "referenceCount": 67,
      "citationCount": 0,
      "authors": [
        {
          "authorId": "2300114738",
          "name": "M. Asaduzzaman"
        },
        {
          "authorId": "2249448071",
          "name": "Peter Olah"
        },
        {
          "authorId": "80242263",
          "name": "Natheer J. Yaseen"
        },
        {
          "authorId": "2345369762",
          "name": "Ahmed Taifi"
        },
        {
          "authorId": "2268392610",
          "name": "Tamás Járay"
        },
        {
          "authorId": "34118206",
          "name": "G. Gulyás"
        },
        {
          "authorId": "3582311",
          "name": "Z. Boldogkői"
        },
        {
          "authorId": "5515128",
          "name": "Dóra Tombácz"
        }
      ]
    },
    {
      "paperId": "2b04c03575b100ed4c9205f679eca859af8f1378",
      "externalIds": {
        "PubMedCentral": "10408196",
        "DOI": "10.1186/s40168-023-01604-z",
        "CorpusId": 260698526,
        "PubMed": "37553697"
      },
      "url": "https://www.semanticscholar.org/paper/2b04c03575b100ed4c9205f679eca859af8f1378",
      "title": "Identification of robust and generalizable biomarkers for microbiome-based stratification in lifestyle interventions",
      "venue": "Microbiome",
      "year": 2023,
      "referenceCount": 69,
      "citationCount": 29,
      "authors": [
        {
          "authorId": "1391200472",
          "name": "Jiarui Chen"
        },
        {
          "authorId": "108117476",
          "name": "S. L. Siliceo"
        },
        {
          "authorId": "2222346",
          "name": "Y. Ni"
        },
        {
          "authorId": "152109048",
          "name": "H. Nielsen"
        },
        {
          "authorId": "1684089",
          "name": "A. Xu"
        },
        {
          "authorId": "2753418",
          "name": "G. Panagiotou"
        }
      ]
    },
    {
      "paperId": "eba8155170616b70c65ea795e5d38d3483ea02ec",
      "externalIds": {
        "DOI": "10.64038/eatf.02.2025.24",
        "CorpusId": 287158595
      },
      "url": "https://www.semanticscholar.org/paper/eba8155170616b70c65ea795e5d38d3483ea02ec",
      "title": "INTEGRATIVE ANALYSIS OF PLANT GENOMIC PLASTICITY, SOIL MICROBIOME DYNAMICS, AND CLIMATE-RESILIENT TRAIT EXPRESSION FOR SUSTAINABLE CROP PRODUCTIVITY UNDER ENVIRONMENTAL STRESS",
      "venue": "Eco AgriTech Frontiers",
      "year": 2025,
      "referenceCount": 18,
      "citationCount": 0,
      "authors": [
        {
          "authorId": "2336097928",
          "name": "M. Iqbal"
        },
        {
          "authorId": "2308932852",
          "name": "Rifat Hayat"
        }
      ]
    },
    {
      "paperId": "8d9cd9645c71059f98f1eee4ca65029331753c25",
      "externalIds": {
        "DOI": "10.1002/ecs2.4807",
        "CorpusId": 268602635
      },
      "url": "https://www.semanticscholar.org/paper/8d9cd9645c71059f98f1eee4ca65029331753c25",
      "title": "Tree regeneration in models of forest dynamics: A key priority for further research",
      "venue": "Ecosphere",
      "year": 2024,
      "referenceCount": 90,
      "citationCount": 28,
      "authors": [
        {
          "authorId": "1416643534",
          "name": "O. Díaz-Yáñez"
        },
        {
          "authorId": "1396358807",
          "name": "Yannek Käber"
        },
        {
          "authorId": "2292613272",
          "name": "Tim Anders"
        },
        {
          "authorId": "2244118375",
          "name": "Friedrich Bohn"
        },
        {
          "authorId": "35593938",
          "name": "Kristin H. Braziunas"
        },
        {
          "authorId": "2282685065",
          "name": "Josef Brůna"
        },
        {
          "authorId": "46900579",
          "name": "Rico Fischer"
        },
        {
          "authorId": "2218082470",
          "name": "Samuel M. Fischer"
        },
        {
          "authorId": "1396460824",
          "name": "Jessica Hetzer"
        },
        {
          "authorId": "3995829",
          "name": "T. Hickler"
        },
        {
          "authorId": "2292610038",
          "name": "Christian Hochauer"
        },
        {
          "authorId": "2823958",
          "name": "M. Lexer"
        },
        {
          "authorId": "2359150",
          "name": "H. Lischke"
        },
        {
          "authorId": "2292608376",
          "name": "Paola Mairota"
        },
        {
          "authorId": "6169892",
          "name": "J. Merganič"
        },
        {
          "authorId": "6893847",
          "name": "K. Merganičová"
        },
        {
          "authorId": "2292613216",
          "name": "Tobias Mette"
        },
        {
          "authorId": "1931044560",
          "name": "M. Mina"
        },
        {
          "authorId": "2274226997",
          "name": "Xavier Morin"
        },
        {
          "authorId": "2292620873",
          "name": "M. Nieberg"
        },
        {
          "authorId": "1821403",
          "name": "W. Rammer"
        },
        {
          "authorId": "4704443",
          "name": "C. Reyer"
        },
        {
          "authorId": "3489089",
          "name": "S. Scheiter"
        },
        {
          "authorId": "2292601021",
          "name": "Daniel Scherrer"
        },
        {
          "authorId": "2242730717",
          "name": "H. Bugmann"
        }
      ]
    },
    {
      "paperId": "4d57150fe5b94e0cb001b071ad910f6480c21df7",
      "externalIds": {
        "CorpusId": 252998440
      },
      "url": "https://www.semanticscholar.org/paper/4d57150fe5b94e0cb001b071ad910f6480c21df7",
      "title": "Biology and Biological Engineering Refining the Process of Using DNA Tags for Commercial Use Investigating Genotype-Microbiome Interactions on Immune Cells in Mouse Models of Parkinson’s Disease In Silico and In Vitro Determination of Autophagy Initiation Protein Binding Motifs",
      "venue": "",
      "year": 2022,
      "referenceCount": 0,
      "citationCount": 0,
      "authors": [
        {
          "authorId": "6450623",
          "name": "Jeff Nivala"
        },
        {
          "authorId": "2109000785",
          "name": "Jiaming Li"
        },
        {
          "authorId": "2886004",
          "name": "Yuan-Jyue Chen"
        }
      ]
    },
    {
      "paperId": "d29dca349625a7df5a8afbd159f46b8134ae9867",
      "externalIds": {
        "DOI": "10.1002/advs.202513333",
        "CorpusId": 284981402,
        "PubMed": "41580987"
      },
      "url": "https://www.semanticscholar.org/paper/d29dca349625a7df5a8afbd159f46b8134ae9867",
      "title": "MGM as a Large-Scale Pretrained Foundation Model for Microbiome Analyses in Diverse Contexts.",
      "venue": "Advancement of science",
      "year": 2026,
      "referenceCount": 31,
      "citationCount": 0,
      "authors": [
        {
          "authorId": "2200160779",
          "name": "Haohong Zhang"
        },
        {
          "authorId": "2287122001",
          "name": "Yuli Zhang"
        },
        {
          "authorId": "2338816092",
          "name": "Zixin Kang"
        },
        {
          "authorId": "2408352694",
          "name": "Jiayun Xiong"
        },
        {
          "authorId": "2338974365",
          "name": "Ronghua Yang"
        },
        {
          "authorId": "1798946",
          "name": "Kang Ning"
        }
      ]
    },
    {
      "paperId": "6ddd899346e7712fa3b0acf6284b309db330824b",
      "externalIds": {
        "ArXiv": "2603.26914",
        "CorpusId": 286961832
      },
      "url": "https://www.semanticscholar.org/paper/6ddd899346e7712fa3b0acf6284b309db330824b",
      "title": "A Bayesian Functional Concurrent Zero-Inflated Dirichlet-Multinomial Regression Model with Application to Infant Microbiome",
      "venue": "",
      "year": 2026,
      "referenceCount": 47,
      "citationCount": 0,
      "authors": [
        {
          "authorId": "2426712331",
          "name": "Brody Erlandson"
        },
        {
          "authorId": "2240052269",
          "name": "Ander Wilson"
        },
        {
          "authorId": "11435121",
          "name": "M. Koslovsky"
        }
      ]
    },
    {
      "paperId": "90ba122efbac23a0e28e5331b9bf0210bf179c7e",
      "externalIds": {
        "ArXiv": "2502.09602",
        "DOI": "10.1021/acs.jctc.5c00286",
        "CorpusId": 276317431,
        "PubMed": "40279554"
      },
      "url": "https://www.semanticscholar.org/paper/90ba122efbac23a0e28e5331b9bf0210bf179c7e",
      "title": "Shadow Molecular Dynamics for a Charge-Potential Equilibration Model.",
      "venue": "Journal of Chemical Theory and Computation",
      "year": 2025,
      "referenceCount": 86,
      "citationCount": 4,
      "authors": [
        {
          "authorId": "153216530",
          "name": "R. Stanton"
        },
        {
          "authorId": "147504935",
          "name": "Mehmet Cagri Kaymak"
        },
        {
          "authorId": "34646690",
          "name": "A. Niklasson"
        }
      ]
    }
  ]
}