{
  "total": 20,
  "offset": 0,
  "next": 10,
  "data": [
    {
      "paperId": "6ffdaa5b72cd5c5a04d852710f25d476fe20e44e",
      "externalIds": {
        "DBLP": "journals/corr/WagnerZ15",
        "MAG": "2963415165",
        "ArXiv": "1505.06292",
        "CorpusId": 14531444
      },
      "url": "https://www.semanticscholar.org/paper/6ffdaa5b72cd5c5a04d852710f25d476fe20e44e",
      "title": "Low-Rank Matrix Recovery from Row-and-Column Affine Measurements",
      "venue": "International Conference on Machine Learning",
      "year": 2015,
      "referenceCount": 30,
      "citationCount": 9,
      "authors": [
        {
          "authorId": "2901147",
          "name": "O. Zuk"
        },
        {
          "authorId": "18175464",
          "name": "A. Wagner"
        }
      ]
    },
    {
      "paperId": "99810e7a5d21cfdd3f5429a9c3a320109c9ab22c",
      "externalIds": {
        "CorpusId": 17952646
      },
      "url": "https://www.semanticscholar.org/paper/99810e7a5d21cfdd3f5429a9c3a320109c9ab22c",
      "title": "Low-Rank Matrix Recovery from Row-and-Column Affine Measurements",
      "venue": "",
      "year": 2015,
      "referenceCount": 0,
      "citationCount": 1,
      "authors": [
        {
          "authorId": "2103276416",
          "name": "P. rankV"
        }
      ]
    },
    {
      "paperId": "192907845888958f3356d8d6a992564c8012fd14",
      "externalIds": {
        "DBLP": "conf/aaai/XuZMYPXWY24",
        "DOI": "10.1609/aaai.v38i14.29557",
        "CorpusId": 268719755
      },
      "url": "https://www.semanticscholar.org/paper/192907845888958f3356d8d6a992564c8012fd14",
      "title": "LERE: Learning-Based Low-Rank Matrix Recovery with Rank Estimation",
      "venue": "AAAI Conference on Artificial Intelligence",
      "year": 2024,
      "referenceCount": 33,
      "citationCount": 2,
      "authors": [
        {
          "authorId": "66553244",
          "name": "Zhengqin Xu"
        },
        {
          "authorId": "2268335487",
          "name": "Yulun Zhang"
        },
        {
          "authorId": "2250489734",
          "name": "Chao Ma"
        },
        {
          "authorId": "3460423",
          "name": "Yichao Yan"
        },
        {
          "authorId": "2293667756",
          "name": "Zelin Peng"
        },
        {
          "authorId": "144789232",
          "name": "S. Xie"
        },
        {
          "authorId": "2240197600",
          "name": "Shiqian Wu"
        },
        {
          "authorId": "2248211611",
          "name": "Xiaokang Yang"
        }
      ]
    },
    {
      "paperId": "39e21e68c034fd265685cc660c61ab636670ff5b",
      "externalIds": {
        "MAG": "3026590303",
        "DBLP": "journals/corr/abs-2005-10878",
        "ArXiv": "2005.10878",
        "DOI": "10.1109/TSP.2022.3169896",
        "CorpusId": 218862803
      },
      "url": "https://www.semanticscholar.org/paper/39e21e68c034fd265685cc660c61ab636670ff5b",
      "title": "Multi-Weight Nuclear Norm Minimization for Low-Rank Matrix Recovery in Presence of Subspace Prior Information",
      "venue": "IEEE Transactions on Signal Processing",
      "year": 2020,
      "referenceCount": 40,
      "citationCount": 9,
      "authors": [
        {
          "authorId": "1713807844",
          "name": "H. F. Ardakani"
        },
        {
          "authorId": "2063984",
          "name": "Sajad Daei"
        },
        {
          "authorId": "1732646",
          "name": "F. Haddadi"
        }
      ]
    },
    {
      "paperId": "54c6f93ba9264f78c747d7b428c3fdbffbf42986",
      "externalIds": {
        "MAG": "2941311521",
        "CorpusId": 139104538
      },
      "url": "https://www.semanticscholar.org/paper/54c6f93ba9264f78c747d7b428c3fdbffbf42986",
      "title": "Optimal Weighted Low-rank Matrix Recovery with Subspace Prior Information",
      "venue": "",
      "year": 2018,
      "referenceCount": 27,
      "citationCount": 8,
      "authors": [
        {
          "authorId": "2063984",
          "name": "Sajad Daei"
        },
        {
          "authorId": "3443191",
          "name": "A. Amini"
        },
        {
          "authorId": "1732646",
          "name": "F. Haddadi"
        }
      ]
    },
    {
      "paperId": "214424e15bf43fb25f663226b4d4ffbb0f10f370",
      "externalIds": {
        "DBLP": "journals/tci/BiswasDMJ17",
        "MAG": "2553313178",
        "DOI": "10.1109/TCI.2016.2628352",
        "CorpusId": 9091907,
        "PubMed": "28630889"
      },
      "url": "https://www.semanticscholar.org/paper/214424e15bf43fb25f663226b4d4ffbb0f10f370",
      "title": "Subspace Aware Recovery of Low Rank and Jointly Sparse Signals",
      "venue": "IEEE Transactions on Computational Imaging",
      "year": 2017,
      "referenceCount": 46,
      "citationCount": 5,
      "authors": [
        {
          "authorId": "1868014",
          "name": "Sampurna Biswas"
        },
        {
          "authorId": "1737530",
          "name": "S. Dasgupta"
        },
        {
          "authorId": "5801919",
          "name": "R. Mudumbai"
        },
        {
          "authorId": "145004655",
          "name": "M. Jacob"
        }
      ]
    },
    {
      "paperId": "f4c2a0f277ba40ebed2c11b42d38f7fe29e61dbe",
      "externalIds": {
        "MAG": "2966293209",
        "ArXiv": "1907.11868",
        "DBLP": "journals/corr/abs-1907-11868",
        "CorpusId": 198968366
      },
      "url": "https://www.semanticscholar.org/paper/f4c2a0f277ba40ebed2c11b42d38f7fe29e61dbe",
      "title": "A Greedy Algorithm for Matrix Recovery with Subspace Prior Information",
      "venue": "arXiv.org",
      "year": 2019,
      "referenceCount": 32,
      "citationCount": 4,
      "authors": [
        {
          "authorId": "1713807844",
          "name": "H. F. Ardakani"
        },
        {
          "authorId": "2063984",
          "name": "Sajad Daei"
        },
        {
          "authorId": "1732646",
          "name": "F. Haddadi"
        }
      ]
    },
    {
      "paperId": "ad519144cf1177de6818dfad5382c096fda8b167",
      "externalIds": {
        "DBLP": "conf/acssc/FazelCRP08",
        "MAG": "2117377454",
        "DOI": "10.1109/ACSSC.2008.5074571",
        "CorpusId": 202254
      },
      "url": "https://www.semanticscholar.org/paper/ad519144cf1177de6818dfad5382c096fda8b167",
      "title": "Compressed sensing and robust recovery of low rank matrices",
      "venue": "Asilomar Conference on Signals, Systems and Computers",
      "year": 2008,
      "referenceCount": 15,
      "citationCount": 140,
      "authors": [
        {
          "authorId": "144651919",
          "name": "Maryam Fazel"
        },
        {
          "authorId": "2006869",
          "name": "E. Candès"
        },
        {
          "authorId": "9229182",
          "name": "B. Recht"
        },
        {
          "authorId": "1731770",
          "name": "P. Parrilo"
        }
      ]
    },
    {
      "paperId": "daa8393147c817e67475ff5de1c8d289939384cd",
      "externalIds": {
        "DBLP": "journals/spl/BiswasAJDM15",
        "MAG": "1541239191",
        "DOI": "10.1109/LSP.2015.2447455",
        "CorpusId": 11592173
      },
      "url": "https://www.semanticscholar.org/paper/daa8393147c817e67475ff5de1c8d289939384cd",
      "title": "Recovery of Low Rank and Jointly Sparse Matrices with Two Sampling Matrices",
      "venue": "IEEE Signal Processing Letters",
      "year": 2015,
      "referenceCount": 13,
      "citationCount": 2,
      "authors": [
        {
          "authorId": "1868014",
          "name": "Sampurna Biswas"
        },
        {
          "authorId": "2438709",
          "name": "H. Achanta"
        },
        {
          "authorId": "145004655",
          "name": "M. Jacob"
        },
        {
          "authorId": "1737530",
          "name": "S. Dasgupta"
        },
        {
          "authorId": "5801919",
          "name": "R. Mudumbai"
        }
      ]
    },
    {
      "paperId": "16674d635677525d9d160a502717d402b0db7864",
      "externalIds": {
        "DBLP": "conf/isbi/BiswasPDMJ15",
        "MAG": "1595827413",
        "ArXiv": "1412.2669",
        "DOI": "10.1109/ISBI.2015.7164019",
        "CorpusId": 10265460
      },
      "url": "https://www.semanticscholar.org/paper/16674d635677525d9d160a502717d402b0db7864",
      "title": "Two step recovery of jointly sparse and low-rank matrices: Theoretical guarantees",
      "venue": "IEEE International Symposium on Biomedical Imaging",
      "year": 2014,
      "referenceCount": 7,
      "citationCount": 2,
      "authors": [
        {
          "authorId": "1868014",
          "name": "Sampurna Biswas"
        },
        {
          "authorId": "38596520",
          "name": "Sunrita Poddar"
        },
        {
          "authorId": "1737530",
          "name": "S. Dasgupta"
        },
        {
          "authorId": "5801919",
          "name": "R. Mudumbai"
        },
        {
          "authorId": "145004655",
          "name": "M. Jacob"
        }
      ]
    }
  ]
}