{
  "total": 7299,
  "offset": 0,
  "next": 10,
  "data": [
    {
      "paperId": "19303b656cb57c8cc8ab739b3c624d00c102264e",
      "externalIds": {
        "MAG": "2741064582",
        "DBLP": "conf/icml/GaoFC17",
        "CorpusId": 31253966
      },
      "url": "https://www.semanticscholar.org/paper/19303b656cb57c8cc8ab739b3c624d00c102264e",
      "title": "Local-to-Global Bayesian Network Structure Learning",
      "venue": "International Conference on Machine Learning",
      "year": 2017,
      "referenceCount": 33,
      "citationCount": 48,
      "authors": [
        {
          "authorId": "2007655125",
          "name": "Tian Gao"
        },
        {
          "authorId": "3468202",
          "name": "Kshitij P. Fadnis"
        },
        {
          "authorId": "143903370",
          "name": "Murray Campbell"
        }
      ]
    },
    {
      "paperId": "d1cae34ec86af4700e4ab1560c6ac3738c4f638b",
      "externalIds": {
        "ArXiv": "2112.10369",
        "DBLP": "journals/corr/abs-2112-10369",
        "DOI": "10.1145/3624479",
        "CorpusId": 245335075
      },
      "url": "https://www.semanticscholar.org/paper/d1cae34ec86af4700e4ab1560c6ac3738c4f638b",
      "title": "Feature Selection for Efficient Local-to-global Bayesian Network Structure Learning",
      "venue": "ACM Transactions on Knowledge Discovery from Data",
      "year": 2021,
      "referenceCount": 50,
      "citationCount": 10,
      "authors": [
        {
          "authorId": "46330674",
          "name": "Kui Yu"
        },
        {
          "authorId": "120764840",
          "name": "Zhaolong Ling"
        },
        {
          "authorId": "2146017365",
          "name": "Lin Liu"
        },
        {
          "authorId": null,
          "name": "Hao Wang"
        },
        {
          "authorId": "1786185",
          "name": "Jiuyong Li"
        }
      ]
    },
    {
      "paperId": "848dd3959e0c66a0dd57227c691050b5f74c3639",
      "externalIds": {
        "DBLP": "journals/jifs/GaoZKWZLY24",
        "DOI": "10.3233/JIFS-236454",
        "CorpusId": 266812812
      },
      "url": "https://www.semanticscholar.org/paper/848dd3959e0c66a0dd57227c691050b5f74c3639",
      "title": "Bayesian network structure learning based on HC-PSO algorithm",
      "venue": "Journal of Intelligent & Fuzzy Systems",
      "year": 2024,
      "referenceCount": 34,
      "citationCount": 4,
      "authors": [
        {
          "authorId": "2223107428",
          "name": "Wenlong Gao"
        },
        {
          "authorId": "2165057022",
          "name": "Minqian Zhi"
        },
        {
          "authorId": "2165035587",
          "name": "Yongsong Ke"
        },
        {
          "authorId": "2145746347",
          "name": "Xiaolong Wang"
        },
        {
          "authorId": "2278099805",
          "name": "Yun Zhuo"
        },
        {
          "authorId": "2343727759",
          "name": "Anping Liu"
        },
        {
          "authorId": "2215464146",
          "name": "Yi Yang"
        }
      ]
    },
    {
      "paperId": "7af94c0ac867c6b46002d137cb251e8335c6ab5c",
      "externalIds": {
        "PubMedCentral": "11003998",
        "DOI": "10.1038/s41598-024-58806-0",
        "CorpusId": 269032529,
        "PubMed": "38594347"
      },
      "url": "https://www.semanticscholar.org/paper/7af94c0ac867c6b46002d137cb251e8335c6ab5c",
      "title": "Dynamic Bayesian network structure learning based on an improved bacterial foraging optimization algorithm",
      "venue": "Scientific Reports",
      "year": 2024,
      "referenceCount": 69,
      "citationCount": 5,
      "authors": [
        {
          "authorId": "2277680294",
          "name": "Guanglei Meng"
        },
        {
          "authorId": "2295880607",
          "name": "Zelin Cong"
        },
        {
          "authorId": "2277685190",
          "name": "Tingting Li"
        },
        {
          "authorId": "2278819050",
          "name": "Chenguang Wang"
        },
        {
          "authorId": "2277743274",
          "name": "Mingzhe Zhou"
        },
        {
          "authorId": "2277640270",
          "name": "Biao Wang"
        }
      ]
    },
    {
      "paperId": "23d5a29d9fb4ed8e0cc42f1af23a53a05d319260",
      "externalIds": {
        "ArXiv": "2407.17072",
        "DBLP": "journals/corr/abs-2407-17072",
        "DOI": "10.48550/arXiv.2407.17072",
        "CorpusId": 271404757
      },
      "url": "https://www.semanticscholar.org/paper/23d5a29d9fb4ed8e0cc42f1af23a53a05d319260",
      "title": "An Efficient Procedure for Computing Bayesian Network Structure Learning",
      "venue": "arXiv.org",
      "year": 2024,
      "referenceCount": 21,
      "citationCount": 1,
      "authors": [
        {
          "authorId": "2312879749",
          "name": "Hong-Ming Huang"
        },
        {
          "authorId": "2312758685",
          "name": "Joe Suzuki"
        }
      ]
    },
    {
      "paperId": "1ce1ba1377e2bd6cca55c1d784a64e50b2ff41a1",
      "externalIds": {
        "DBLP": "journals/access/ZhongCZQ22",
        "DOI": "10.1109/ACCESS.2022.3178842",
        "CorpusId": 249224878
      },
      "url": "https://www.semanticscholar.org/paper/1ce1ba1377e2bd6cca55c1d784a64e50b2ff41a1",
      "title": "Bayesian Network Structure Learning Approach Based on Searching Local Structure of Strongly Connected Components",
      "venue": "IEEE Access",
      "year": 2022,
      "referenceCount": 27,
      "citationCount": 0,
      "authors": [
        {
          "authorId": "9215802",
          "name": "Kunhua Zhong"
        },
        {
          "authorId": "2109305490",
          "name": "Yuwen Chen"
        },
        {
          "authorId": "2107942157",
          "name": "Ju Zhang"
        },
        {
          "authorId": "47719575",
          "name": "Xiaolin Qin"
        }
      ]
    },
    {
      "paperId": "6488e1a7582980b36533fc3a166322124b0ad620",
      "externalIds": {
        "MAG": "3004922196",
        "DBLP": "journals/kbs/DaiRD20",
        "DOI": "10.1016/j.knosys.2020.105602",
        "CorpusId": 213458958
      },
      "url": "https://www.semanticscholar.org/paper/6488e1a7582980b36533fc3a166322124b0ad620",
      "title": "Decomposition-based Bayesian network structure learning algorithm using local topology information",
      "venue": "Knowledge-Based Systems",
      "year": 2020,
      "referenceCount": 41,
      "citationCount": 28,
      "authors": [
        {
          "authorId": "3213333",
          "name": "Jingguo Dai"
        },
        {
          "authorId": "144085422",
          "name": "Jia Ren"
        },
        {
          "authorId": "98222169",
          "name": "W. Du"
        }
      ]
    },
    {
      "paperId": "b80563b63f2ecc54218ed76076b0fda22f15dfcd",
      "externalIds": {
        "DBLP": "journals/ijis/SunZ22",
        "DOI": "10.1002/int.22833",
        "CorpusId": 246571657
      },
      "url": "https://www.semanticscholar.org/paper/b80563b63f2ecc54218ed76076b0fda22f15dfcd",
      "title": "Bayesian network structure learning with improved genetic algorithm",
      "venue": "International Journal of Intelligent Systems",
      "year": 2022,
      "referenceCount": 41,
      "citationCount": 13,
      "authors": [
        {
          "authorId": "2119618398",
          "name": "Baodan Sun"
        },
        {
          "authorId": "2118117364",
          "name": "Yun Zhou"
        }
      ]
    },
    {
      "paperId": "17796fe56386792ec7dc3afb576dd0278e436703",
      "externalIds": {
        "DBLP": "journals/tkdd/LingYLLZW22",
        "DOI": "10.1145/3508071",
        "CorpusId": 247398720
      },
      "url": "https://www.semanticscholar.org/paper/17796fe56386792ec7dc3afb576dd0278e436703",
      "title": "PSL: An Algorithm for Partial Bayesian Network Structure Learning",
      "venue": "ACM Transactions on Knowledge Discovery from Data",
      "year": 2022,
      "referenceCount": 49,
      "citationCount": 5,
      "authors": [
        {
          "authorId": "120764840",
          "name": "Zhaolong Ling"
        },
        {
          "authorId": "46330674",
          "name": "Kui Yu"
        },
        {
          "authorId": "2146017365",
          "name": "Lin Liu"
        },
        {
          "authorId": "1786185",
          "name": "Jiuyong Li"
        },
        {
          "authorId": "2108139736",
          "name": "Yiwen Zhang"
        },
        {
          "authorId": "2145502663",
          "name": "Xindong Wu"
        }
      ]
    },
    {
      "paperId": "d778e15e53e76d64394b3219c2ff05bf4b75b588",
      "externalIds": {
        "DBLP": "journals/corr/abs-2103-13810",
        "ArXiv": "2103.13810",
        "CorpusId": 232352775
      },
      "url": "https://www.semanticscholar.org/paper/d778e15e53e76d64394b3219c2ff05bf4b75b588",
      "title": "Any Part of Bayesian Network Structure Learning",
      "venue": "arXiv.org",
      "year": 2021,
      "referenceCount": 35,
      "citationCount": 2,
      "authors": [
        {
          "authorId": "120764840",
          "name": "Zhaolong Ling"
        },
        {
          "authorId": "46330674",
          "name": "Kui Yu"
        },
        {
          "authorId": "2144220372",
          "name": "Hao Wang"
        },
        {
          "authorId": "1518051372",
          "name": "Lin Liu"
        },
        {
          "authorId": "2116733341",
          "name": "Jiuyong Li"
        }
      ]
    }
  ]
}