{
  "total": 16,
  "offset": 0,
  "next": 10,
  "data": [
    {
      "paperId": "3f55dd6f9c02ff01811259836d3ce494d9570ff3",
      "externalIds": {
        "DBLP": "journals/corr/abs-1802-09031",
        "MAG": "2962887459",
        "ArXiv": "1802.09031",
        "CorpusId": 3563998
      },
      "url": "https://www.semanticscholar.org/paper/3f55dd6f9c02ff01811259836d3ce494d9570ff3",
      "title": "Functional Gradient Boosting based on Residual Network Perception",
      "venue": "International Conference on Machine Learning",
      "year": 2018,
      "referenceCount": 41,
      "citationCount": 29,
      "authors": [
        {
          "authorId": "2002509",
          "name": "Atsushi Nitanda"
        },
        {
          "authorId": "2026193813",
          "name": "Taiji Suzuki"
        }
      ]
    },
    {
      "paperId": "86526fc8728a7bfb59d8360d915f4e0d1972cf15",
      "externalIds": {
        "CorpusId": 260495455
      },
      "url": "https://www.semanticscholar.org/paper/86526fc8728a7bfb59d8360d915f4e0d1972cf15",
      "title": "Appendix: Functional Gradient Boosting based on Residual Network Perception",
      "venue": "",
      "year": 2018,
      "referenceCount": 3,
      "citationCount": 0,
      "authors": []
    },
    {
      "paperId": "9638aaa7f8584ca7f824a0b97df5eb634a9a14c2",
      "externalIds": {
        "MAG": "3037736118",
        "DBLP": "conf/aistats/NitandaS20",
        "CorpusId": 220086487
      },
      "url": "https://www.semanticscholar.org/paper/9638aaa7f8584ca7f824a0b97df5eb634a9a14c2",
      "title": "Functional Gradient Boosting for Learning Residual-like Networks with Statistical Guarantees",
      "venue": "International Conference on Artificial Intelligence and Statistics",
      "year": 2020,
      "referenceCount": 45,
      "citationCount": 9,
      "authors": [
        {
          "authorId": "2002509",
          "name": "Atsushi Nitanda"
        },
        {
          "authorId": "2026193813",
          "name": "Taiji Suzuki"
        }
      ]
    },
    {
      "paperId": "2204b24d7db4c6528ff9c991b22c2fc27e79d130",
      "externalIds": {
        "PubMedCentral": "12518814",
        "DOI": "10.1038/s41598-025-19635-x",
        "CorpusId": 282061814,
        "PubMed": "41083791"
      },
      "url": "https://www.semanticscholar.org/paper/2204b24d7db4c6528ff9c991b22c2fc27e79d130",
      "title": "Study on rural landscape design strategies integrating computer vision and deep learning: an analysis based on human perception and visual aesthetics",
      "venue": "Scientific Reports",
      "year": 2025,
      "referenceCount": 63,
      "citationCount": 2,
      "authors": [
        {
          "authorId": "2385535233",
          "name": "Shanghao Mo"
        },
        {
          "authorId": "2361704924",
          "name": "Zetian Dai"
        },
        {
          "authorId": "2385533439",
          "name": "Wen Yinuo"
        }
      ]
    },
    {
      "paperId": "c377dd5d8d51e0cd8dbaf9016371a7fd3123e208",
      "externalIds": {
        "DBLP": "journals/nca/IbrahimHEEE25",
        "DOI": "10.1007/s00521-025-11682-9",
        "CorpusId": 283301491
      },
      "url": "https://www.semanticscholar.org/paper/c377dd5d8d51e0cd8dbaf9016371a7fd3123e208",
      "title": "Comprehensive survey on residual neural networks improvements in agricultural applications",
      "venue": "Neural computing & applications (Print)",
      "year": 2025,
      "referenceCount": 103,
      "citationCount": 0,
      "authors": [
        {
          "authorId": "2391060685",
          "name": "Elhossiny Ibrahim"
        },
        {
          "authorId": "2391066213",
          "name": "Medhat Hamdy"
        },
        {
          "authorId": "1398702619",
          "name": "A. El-Fishawy"
        },
        {
          "authorId": "2394692557",
          "name": "Sami A Eldolil"
        },
        {
          "authorId": "2394720781",
          "name": "Heba M. El-Hoseny"
        }
      ]
    },
    {
      "paperId": "0073a1284260305b59fd4eae899b6fc00dd7eb18",
      "externalIds": {
        "MAG": "2771061327",
        "ArXiv": "1712.05438",
        "DBLP": "journals/corr/abs-1712-05438",
        "CorpusId": 27179819
      },
      "url": "https://www.semanticscholar.org/paper/0073a1284260305b59fd4eae899b6fc00dd7eb18",
      "title": "Stochastic Particle Gradient Descent for Infinite Ensembles",
      "venue": "arXiv.org",
      "year": 2017,
      "referenceCount": 53,
      "citationCount": 81,
      "authors": [
        {
          "authorId": "2002509",
          "name": "Atsushi Nitanda"
        },
        {
          "authorId": "2026193813",
          "name": "Taiji Suzuki"
        }
      ]
    },
    {
      "paperId": "a0b70198c40fb3dab92534e7f4c5e27f934f4306",
      "externalIds": {
        "PubMedCentral": "10934802",
        "DBLP": "journals/jcisd/JungJC24a",
        "DOI": "10.1021/acs.jcim.3c01792",
        "CorpusId": 268085097,
        "PubMed": "38422386"
      },
      "url": "https://www.semanticscholar.org/paper/a0b70198c40fb3dab92534e7f4c5e27f934f4306",
      "title": "Automatic Prediction of Peak Optical Absorption Wavelengths in Molecules Using Convolutional Neural Networks",
      "venue": "Journal of Chemical Information and Modeling",
      "year": 2024,
      "referenceCount": 69,
      "citationCount": 29,
      "authors": [
        {
          "authorId": "2030009074",
          "name": "S. G. Jung"
        },
        {
          "authorId": "2089172423",
          "name": "Guwon Jung"
        },
        {
          "authorId": "2164374024",
          "name": "Jacqueline M. Cole"
        }
      ]
    },
    {
      "paperId": "e7bc5c0147e971b652a21aca7bda88f8b4757bc9",
      "externalIds": {
        "DBLP": "conf/eccv/PurohitMR18",
        "MAG": "2914615044",
        "DOI": "10.1007/978-3-030-11021-5_9",
        "CorpusId": 59221937
      },
      "url": "https://www.semanticscholar.org/paper/e7bc5c0147e971b652a21aca7bda88f8b4757bc9",
      "title": "Scale-Recurrent Multi-residual Dense Network for Image Super-Resolution",
      "venue": "ECCV Workshops",
      "year": 2018,
      "referenceCount": 46,
      "citationCount": 10,
      "authors": [
        {
          "authorId": "8107818",
          "name": "Kuldeep Purohit"
        },
        {
          "authorId": "2169103",
          "name": "Srimanta Mandal"
        },
        {
          "authorId": "143891066",
          "name": "A. Rajagopalan"
        }
      ]
    },
    {
      "paperId": "bd3076f100f8d05174b409c6ec8becce3c64a2ad",
      "externalIds": {
        "DBLP": "journals/access/MandaBM21",
        "ArXiv": "2107.06481",
        "MAG": "3127627067",
        "DOI": "10.1109/ACCESS.2021.3055826",
        "CorpusId": 231675445
      },
      "url": "https://www.semanticscholar.org/paper/bd3076f100f8d05174b409c6ec8becce3c64a2ad",
      "title": "A Convolutional Neural Network Approach to the Classification of Engineering Models",
      "venue": "IEEE Access",
      "year": 2021,
      "referenceCount": 61,
      "citationCount": 27,
      "authors": [
        {
          "authorId": "27554574",
          "name": "Bharadwaj Manda"
        },
        {
          "authorId": "2049109666",
          "name": "Pranjal Bhaskare"
        },
        {
          "authorId": "3032536",
          "name": "Ramanathan Muthuganapathy"
        }
      ]
    },
    {
      "paperId": "64c964efabf2379f5af64fe4efa3131fab9dadb8",
      "externalIds": {
        "DBLP": "journals/brain/CarriereLMBAPLH20",
        "MAG": "3036242959",
        "DOI": "10.1089/brain.2020.0744",
        "CorpusId": 219974957,
        "PubMed": "32567335"
      },
      "url": "https://www.semanticscholar.org/paper/64c964efabf2379f5af64fe4efa3131fab9dadb8",
      "title": "An Echo of Consciousness: Brain Function During Preferred Music",
      "venue": "Brain Connectivity",
      "year": 2020,
      "referenceCount": 54,
      "citationCount": 35,
      "authors": [
        {
          "authorId": "35600837",
          "name": "M. Carrière"
        },
        {
          "authorId": "35757298",
          "name": "S. Larroque"
        },
        {
          "authorId": "3628057",
          "name": "C. Martial"
        },
        {
          "authorId": "2805582",
          "name": "M. Bahri"
        },
        {
          "authorId": "10161095",
          "name": "Charlène Aubinet"
        },
        {
          "authorId": "2521699",
          "name": "F. Perrin"
        },
        {
          "authorId": "145637706",
          "name": "S. Laureys"
        },
        {
          "authorId": "4578264",
          "name": "L. Heine"
        }
      ]
    }
  ]
}