{
  "total": 6758961,
  "offset": 0,
  "next": 10,
  "data": [
    {
      "paperId": "d01ea968465e5a2b8f8a7dac15115982e478ddcf",
      "externalIds": {
        "ArXiv": "2207.04467",
        "DBLP": "journals/corr/abs-2207-04467",
        "DOI": "10.48550/arXiv.2207.04467",
        "CorpusId": 250426260
      },
      "url": "https://www.semanticscholar.org/paper/d01ea968465e5a2b8f8a7dac15115982e478ddcf",
      "title": "Noisy Heuristics NAS: A Network Morphism based Neural Architecture Search using Heuristics",
      "venue": "arXiv.org",
      "year": 2022,
      "referenceCount": 28,
      "citationCount": 3,
      "authors": [
        {
          "authorId": "2091613178",
          "name": "Suman Sapkota"
        },
        {
          "authorId": "48467774",
          "name": "Binod Bhattarai"
        }
      ]
    },
    {
      "paperId": "639f661875e4b517b74bb66429e87e1ba9b38735",
      "externalIds": {
        "MAG": "2809899846",
        "DBLP": "journals/corr/abs-1806-10282",
        "CorpusId": 108299121
      },
      "url": "https://www.semanticscholar.org/paper/639f661875e4b517b74bb66429e87e1ba9b38735",
      "title": "Efficient Neural Architecture Search with Network Morphism",
      "venue": "arXiv.org",
      "year": 2018,
      "referenceCount": 29,
      "citationCount": 81,
      "authors": [
        {
          "authorId": "49475312",
          "name": "Haifeng Jin"
        },
        {
          "authorId": "25274194",
          "name": "Qingquan Song"
        },
        {
          "authorId": "2220034212",
          "name": "Xia Hu"
        }
      ]
    },
    {
      "paperId": "2be6220b6bbe644f688a12e2d6ca1f4ee09e4a05",
      "externalIds": {
        "MAG": "2895242880",
        "CorpusId": 52922668
      },
      "url": "https://www.semanticscholar.org/paper/2be6220b6bbe644f688a12e2d6ca1f4ee09e4a05",
      "title": "Auto-Keras: Efficient Neural Architecture Search with Network Morphism",
      "venue": "",
      "year": 2018,
      "referenceCount": 33,
      "citationCount": 63,
      "authors": [
        {
          "authorId": "49475312",
          "name": "Haifeng Jin"
        },
        {
          "authorId": "25274194",
          "name": "Qingquan Song"
        },
        {
          "authorId": "2220034212",
          "name": "Xia Hu"
        }
      ]
    },
    {
      "paperId": "02f1c79f1a09d9501cd39fc7b527cd9e13dff7ad",
      "externalIds": {
        "MAG": "2612850665",
        "DBLP": "journals/corr/WeiWRC16",
        "ArXiv": "1603.01670",
        "CorpusId": 395154
      },
      "url": "https://www.semanticscholar.org/paper/02f1c79f1a09d9501cd39fc7b527cd9e13dff7ad",
      "title": "Network Morphism",
      "venue": "International Conference on Machine Learning",
      "year": 2016,
      "referenceCount": 26,
      "citationCount": 187,
      "authors": [
        {
          "authorId": "2068206635",
          "name": "Tao Wei"
        },
        {
          "authorId": "1906061249",
          "name": "Changhu Wang"
        },
        {
          "authorId": "145459057",
          "name": "Y. Rui"
        },
        {
          "authorId": "2145780208",
          "name": "C. Chen"
        }
      ]
    },
    {
      "paperId": "96519e3d49b46e71ff7f83a10d17f165b0f355a2",
      "externalIds": {
        "DBLP": "conf/intelitsis/RadiukK20",
        "MAG": "3037504501",
        "CorpusId": 220284482
      },
      "url": "https://www.semanticscholar.org/paper/96519e3d49b46e71ff7f83a10d17f165b0f355a2",
      "title": "Heuristic Architecture Search Using Network Morphism for Chest X-Ray Classification",
      "venue": "International Workshop on Intelligent Information Technologies & Systems of Information Security",
      "year": 2020,
      "referenceCount": 32,
      "citationCount": 7,
      "authors": [
        {
          "authorId": "73352833",
          "name": "Pavlo Radiuk"
        },
        {
          "authorId": "2923947",
          "name": "Hakan Kutucu"
        }
      ]
    },
    {
      "paperId": "54ce42d4b1f1572b08941a35c40a83f4a5273076",
      "externalIds": {
        "MAG": "2978687808",
        "DBLP": "conf/ijcnn/WeiWC19",
        "DOI": "10.1109/IJCNN.2019.8851955",
        "CorpusId": 203605554
      },
      "url": "https://www.semanticscholar.org/paper/54ce42d4b1f1572b08941a35c40a83f4a5273076",
      "title": "Stable Network Morphism",
      "venue": "IEEE International Joint Conference on Neural Network",
      "year": 2019,
      "referenceCount": 31,
      "citationCount": 6,
      "authors": [
        {
          "authorId": "2068206635",
          "name": "Tao Wei"
        },
        {
          "authorId": "1906061249",
          "name": "Changhu Wang"
        },
        {
          "authorId": "2145780208",
          "name": "C. Chen"
        }
      ]
    },
    {
      "paperId": "41e76a5f5a056ce46901446901ce47b8c86a191a",
      "externalIds": {
        "DBLP": "conf/bic-ta/ChenPHC19",
        "MAG": "3015045799",
        "DOI": "10.1007/978-981-15-3415-7_41",
        "CorpusId": 214807730
      },
      "url": "https://www.semanticscholar.org/paper/41e76a5f5a056ce46901446901ce47b8c86a191a",
      "title": "Efficient Evolutionary Deep Neural Architecture Search (NAS) by Noisy Network Morphism Mutation",
      "venue": "International Conference on Bio-Inspired Computing: Theories and Applications",
      "year": 2019,
      "referenceCount": 24,
      "citationCount": 2,
      "authors": [
        {
          "authorId": "2109367314",
          "name": "Yiming Chen"
        },
        {
          "authorId": "2135471811",
          "name": "Tianci Pan"
        },
        {
          "authorId": "144778510",
          "name": "Cheng He"
        },
        {
          "authorId": "39336044",
          "name": "Ran Cheng"
        }
      ]
    },
    {
      "paperId": "7b29f5c6da3a4b87bcb1b5517f08a68efbb7e0fe",
      "externalIds": {
        "MAG": "2798279435",
        "ArXiv": "1804.10316",
        "DBLP": "journals/corr/abs-1804-10316",
        "CorpusId": 21127949
      },
      "url": "https://www.semanticscholar.org/paper/7b29f5c6da3a4b87bcb1b5517f08a68efbb7e0fe",
      "title": "CompNet: Neural networks growing via the compact network morphism",
      "venue": "arXiv.org",
      "year": 2018,
      "referenceCount": 27,
      "citationCount": 4,
      "authors": [
        {
          "authorId": "2151165499",
          "name": "Jun Lu"
        },
        {
          "authorId": "2111665632",
          "name": "Wei Ma"
        },
        {
          "authorId": "1735128",
          "name": "B. Faltings"
        }
      ]
    },
    {
      "paperId": "5872294900248407c193c939c18b434c5a7596d6",
      "externalIds": {
        "DBLP": "conf/mmar/KwasigrochGM19",
        "MAG": "2979377810",
        "DOI": "10.1109/MMAR.2019.8864624",
        "CorpusId": 204700366
      },
      "url": "https://www.semanticscholar.org/paper/5872294900248407c193c939c18b434c5a7596d6",
      "title": "Deep neural network architecture search using network morphism",
      "venue": "International Conference on Methods & Models in Automation & Robotics",
      "year": 2019,
      "referenceCount": 20,
      "citationCount": 8,
      "authors": [
        {
          "authorId": "3465672",
          "name": "Arkadiusz Kwasigroch"
        },
        {
          "authorId": "31820684",
          "name": "M. Grochowski"
        },
        {
          "authorId": "2304117389",
          "name": "Mateusz Mikolajczyk"
        }
      ]
    },
    {
      "paperId": "d3adfbf3a1cfd665633f6aa542856b37c46c53db",
      "externalIds": {
        "DBLP": "journals/qe/DingWWW22",
        "DOI": "10.1155/2022/9638108",
        "CorpusId": 250967847
      },
      "url": "https://www.semanticscholar.org/paper/d3adfbf3a1cfd665633f6aa542856b37c46c53db",
      "title": "Based on Quantum Topological Stabilizer Color Code Morphism Neural Network Decoder",
      "venue": "Quantum Engineering",
      "year": 2022,
      "referenceCount": 30,
      "citationCount": 11,
      "authors": [
        {
          "authorId": "2117200216",
          "name": "Lidong Ding"
        },
        {
          "authorId": "2178499735",
          "name": "Hao-Wen Wang"
        },
        {
          "authorId": "2367744222",
          "name": "Yinuo Wang"
        },
        {
          "authorId": "2177230872",
          "name": "Shumei Wang"
        }
      ]
    }
  ]
}