{
  "total": 17,
  "offset": 0,
  "next": 10,
  "data": [
    {
      "paperId": "1cb7ea5de0f8f4d90e4369db4a161ca8594026dc",
      "externalIds": {
        "MAG": "2930878453",
        "ArXiv": "1710.10121",
        "DBLP": "conf/iclr/LuZLD18",
        "CorpusId": 6936155
      },
      "url": "https://www.semanticscholar.org/paper/1cb7ea5de0f8f4d90e4369db4a161ca8594026dc",
      "title": "Beyond Finite Layer Neural Networks: Bridging Deep Architectures and Numerical Differential Equations",
      "venue": "International Conference on Machine Learning",
      "year": 2017,
      "referenceCount": 52,
      "citationCount": 551,
      "authors": [
        {
          "authorId": "48518029",
          "name": "Yiping Lu"
        },
        {
          "authorId": "40153228",
          "name": "Aoxiao Zhong"
        },
        {
          "authorId": "1762919",
          "name": "Quanzheng Li"
        },
        {
          "authorId": "145496882",
          "name": "Bin Dong"
        }
      ]
    },
    {
      "paperId": "95e901bcee31950931a35570f29f379bbc1199bc",
      "externalIds": {
        "ArXiv": "2407.20560",
        "DBLP": "journals/jcphy/ZhangLG25",
        "DOI": "10.1016/j.jcp.2024.113680",
        "CorpusId": 271544114
      },
      "url": "https://www.semanticscholar.org/paper/95e901bcee31950931a35570f29f379bbc1199bc",
      "title": "Invariant deep neural networks under the finite group for solving partial differential equations",
      "venue": "Journal of Computational Physics",
      "year": 2024,
      "referenceCount": 46,
      "citationCount": 11,
      "authors": [
        {
          "authorId": "2157130668",
          "name": "Zhi-Yong Zhang"
        },
        {
          "authorId": "2265105695",
          "name": "Jie-Ying Li"
        },
        {
          "authorId": "8334527",
          "name": "Lei‐Lei Guo"
        }
      ]
    },
    {
      "paperId": "24a90334f3164f2757c965e2bfec9a543fb7a66b",
      "externalIds": {
        "ArXiv": "2103.08313",
        "DBLP": "journals/corr/abs-2103-08313",
        "CorpusId": 232233476
      },
      "url": "https://www.semanticscholar.org/paper/24a90334f3164f2757c965e2bfec9a543fb7a66b",
      "title": "Partial Differential Equations is All You Need for Generating Neural Architectures - A Theory for Physical Artificial Intelligence Systems",
      "venue": "arXiv.org",
      "year": 2021,
      "referenceCount": 88,
      "citationCount": 3,
      "authors": [
        {
          "authorId": "152111522",
          "name": "Ping Guo"
        },
        {
          "authorId": "5380819",
          "name": "Kaizhu Huang"
        },
        {
          "authorId": "1683510",
          "name": "Zenglin Xu"
        }
      ]
    },
    {
      "paperId": "fa044e254099dc2ad6126968a2ab1ffa3e1ed345",
      "externalIds": {
        "ArXiv": "2511.15247",
        "DOI": "10.1088/2632-2153/ae5459",
        "CorpusId": 283103622
      },
      "url": "https://www.semanticscholar.org/paper/fa044e254099dc2ad6126968a2ab1ffa3e1ed345",
      "title": "Addressing the gravitational collapse of a massless scalar field with physics-informed neural networks",
      "venue": "Machine Learning: Science and Technology",
      "year": 2025,
      "referenceCount": 53,
      "citationCount": 0,
      "authors": [
        {
          "authorId": "2217958292",
          "name": "Antonio Ferrer-Sánchez"
        },
        {
          "authorId": "2393140043",
          "name": "Nino Villanueva-Espinosa"
        },
        {
          "authorId": "2114719375",
          "name": "C. Hernani-Morales"
        },
        {
          "authorId": "2426789144",
          "name": "Roberto Ruiz de Austri-Bazan"
        },
        {
          "authorId": "2207841190",
          "name": "J. Font"
        },
        {
          "authorId": "2426788900",
          "name": "José David Martín-Guerrero"
        },
        {
          "authorId": "1920350",
          "name": "M. Choptuik"
        }
      ]
    },
    {
      "paperId": "2648f6b3f1c5670a61a33b3143f0cdda2e0e1f1d",
      "externalIds": {
        "ArXiv": "2203.11648",
        "DBLP": "journals/jscic/FrancoMZ23",
        "DOI": "10.1007/s10915-023-02331-1",
        "CorpusId": 258547333
      },
      "url": "https://www.semanticscholar.org/paper/2648f6b3f1c5670a61a33b3143f0cdda2e0e1f1d",
      "title": "Mesh-Informed Neural Networks for Operator Learning in Finite Element Spaces",
      "venue": "Journal of Scientific Computing",
      "year": 2022,
      "referenceCount": 56,
      "citationCount": 32,
      "authors": [
        {
          "authorId": "1995404008",
          "name": "N. R. Franco"
        },
        {
          "authorId": "2124095",
          "name": "A. Manzoni"
        },
        {
          "authorId": "1917292",
          "name": "P. Zunino"
        }
      ]
    },
    {
      "paperId": "ae8025c09f714d545bf34229d62ab464f85060b7",
      "externalIds": {
        "DOI": "10.1007/s40819-024-01739-z",
        "CorpusId": 269379164
      },
      "url": "https://www.semanticscholar.org/paper/ae8025c09f714d545bf34229d62ab464f85060b7",
      "title": "Approximation of One-Dimensional Darcy–Brinkman–Forchheimer Model by Physics Informed Deep Learning Feedforward Artificial Neural Network and Finite Element Methods: A Comparative Study",
      "venue": "International Journal of Applied and Computational Mathematics",
      "year": 2024,
      "referenceCount": 62,
      "citationCount": 6,
      "authors": [
        {
          "authorId": "2298826523",
          "name": "Mara Martinez"
        },
        {
          "authorId": "2298392676",
          "name": "B. V. S. N. Rao"
        },
        {
          "authorId": "2298378622",
          "name": "S. M. Mallikarjunaiah"
        }
      ]
    },
    {
      "paperId": "0ab5987d474505c0890171e3b39e9384cfa4b2f8",
      "externalIds": {
        "DOI": "10.1063/5.0294248",
        "CorpusId": 281916143
      },
      "url": "https://www.semanticscholar.org/paper/0ab5987d474505c0890171e3b39e9384cfa4b2f8",
      "title": "A deep Legendre polynomial neural network for nonlinear time–space fractional reaction–diffusion equations",
      "venue": "AIP Advances",
      "year": 2025,
      "referenceCount": 17,
      "citationCount": 0,
      "authors": [
        {
          "authorId": "2272582679",
          "name": "Anil Kumar"
        },
        {
          "authorId": "2265945850",
          "name": "Sachin Kumar"
        },
        {
          "authorId": "2384591003",
          "name": "Paras Varshney"
        }
      ]
    },
    {
      "paperId": "0733d83164bcfee04fabc7d6b91182b34c03c637",
      "externalIds": {
        "ArXiv": "2603.02231",
        "CorpusId": 286228810
      },
      "url": "https://www.semanticscholar.org/paper/0733d83164bcfee04fabc7d6b91182b34c03c637",
      "title": "Physics-Informed Neural Networks with Architectural Physics Embedding for Large-Scale Wave Field Reconstruction",
      "venue": "",
      "year": 2026,
      "referenceCount": 41,
      "citationCount": 0,
      "authors": [
        {
          "authorId": "2349747642",
          "name": "Huiwen Zhang"
        },
        {
          "authorId": "2329372354",
          "name": "Feng Ye"
        },
        {
          "authorId": "2269578568",
          "name": "Chu Ma"
        }
      ]
    },
    {
      "paperId": "00b418537e809deb232a5c265a421b2cb9c8f7ad",
      "externalIds": {
        "DOI": "10.1109/ICTBIG68706.2025.11323778",
        "CorpusId": 284720703
      },
      "url": "https://www.semanticscholar.org/paper/00b418537e809deb232a5c265a421b2cb9c8f7ad",
      "title": "A Machine Learning Framework for Predicting Solutions to Nonlinear Differential Equations",
      "venue": "2025 IEEE 5th International Conference on ICT in Business Industry & Government (ICTBIG)",
      "year": 2025,
      "referenceCount": 19,
      "citationCount": 0,
      "authors": [
        {
          "authorId": "2404544910",
          "name": "Vinayak kishan"
        },
        {
          "authorId": "2404543672",
          "name": "Nirmale Lecturer"
        },
        {
          "authorId": "2404544142",
          "name": "A.K.Bhuvaneswari"
        },
        {
          "authorId": "2404495260",
          "name": "Kalpana Devarajan"
        },
        {
          "authorId": "143820800",
          "name": "S. Taj"
        },
        {
          "authorId": "2404540313",
          "name": "C.Ruby"
        },
        {
          "authorId": "2404544071",
          "name": "G.Nandini"
        }
      ]
    },
    {
      "paperId": "bbe36556476e158107406235107fc00f08978e72",
      "externalIds": {
        "DBLP": "journals/corr/abs-2507-21437",
        "ArXiv": "2507.21437",
        "DOI": "10.48550/arXiv.2507.21437",
        "CorpusId": 280337950
      },
      "url": "https://www.semanticscholar.org/paper/bbe36556476e158107406235107fc00f08978e72",
      "title": "PVD-ONet: A Multi-scale Neural Operator Method for Singularly Perturbed Boundary Layer Problems",
      "venue": "arXiv.org",
      "year": 2025,
      "referenceCount": 51,
      "citationCount": 1,
      "authors": [
        {
          "authorId": "2395498190",
          "name": "Tiantian Sun"
        },
        {
          "authorId": "2340684586",
          "name": "Jian Zu"
        }
      ]
    }
  ]
}