{
  "total": 58,
  "offset": 0,
  "next": 10,
  "data": [
    {
      "paperId": "fefa90eb68bb3acad0b6a1c680ee88736fa7d1a0",
      "externalIds": {
        "DBLP": "conf/icml/TeyeAS18",
        "MAG": "2787825417",
        "ArXiv": "1802.06455",
        "CorpusId": 51867681
      },
      "url": "https://www.semanticscholar.org/paper/fefa90eb68bb3acad0b6a1c680ee88736fa7d1a0",
      "title": "Bayesian Uncertainty Estimation for Batch Normalized Deep Networks",
      "venue": "International Conference on Machine Learning",
      "year": 2018,
      "referenceCount": 35,
      "citationCount": 259,
      "authors": [
        {
          "authorId": "2065953257",
          "name": "Mattias Teye"
        },
        {
          "authorId": "2622491",
          "name": "Hossein Azizpour"
        },
        {
          "authorId": "145548651",
          "name": "Kevin Smith"
        }
      ]
    },
    {
      "paperId": "d28bad1865b6352e7f54c58954c4160bf0b32457",
      "externalIds": {
        "CorpusId": 260545605
      },
      "url": "https://www.semanticscholar.org/paper/d28bad1865b6352e7f54c58954c4160bf0b32457",
      "title": "Appendix : Bayesian Uncertainty Estimation for Batch Normalized Deep Networks 1",
      "venue": "",
      "year": 2018,
      "referenceCount": 10,
      "citationCount": 0,
      "authors": []
    },
    {
      "paperId": "518e72e1f8843f176197acf8b3596b6c7a9b4597",
      "externalIds": {
        "DBLP": "conf/cvpr/KarB21",
        "ArXiv": "1903.09410",
        "DOI": "10.1109/CVPR46437.2021.00492",
        "CorpusId": 234778329
      },
      "url": "https://www.semanticscholar.org/paper/518e72e1f8843f176197acf8b3596b6c7a9b4597",
      "title": "Fast Bayesian Uncertainty Estimation and Reduction of Batch Normalized Single Image Super-Resolution Network",
      "venue": "Computer Vision and Pattern Recognition",
      "year": 2019,
      "referenceCount": 27,
      "citationCount": 20,
      "authors": [
        {
          "authorId": "46243065",
          "name": "Aupendu Kar"
        },
        {
          "authorId": "1758797",
          "name": "P. Biswas"
        }
      ]
    },
    {
      "paperId": "fb58cb4c33d12df2bf80d6dcae82cdb59c990cab",
      "externalIds": {
        "DBLP": "journals/corr/abs-1903-09410",
        "MAG": "2924514860",
        "CorpusId": 85459254
      },
      "url": "https://www.semanticscholar.org/paper/fb58cb4c33d12df2bf80d6dcae82cdb59c990cab",
      "title": "Fast Bayesian Uncertainty Estimation of Batch Normalized Single Image Super-Resolution Network",
      "venue": "arXiv.org",
      "year": 2019,
      "referenceCount": 46,
      "citationCount": 1,
      "authors": [
        {
          "authorId": "46243065",
          "name": "Aupendu Kar"
        },
        {
          "authorId": "1758797",
          "name": "P. Biswas"
        }
      ]
    },
    {
      "paperId": "7faca03a1e72c3e22cad521e6045d9ff8175dc37",
      "externalIds": {
        "DOI": "10.1158/1538-7445.am2026-4189",
        "CorpusId": 287154901
      },
      "url": "https://www.semanticscholar.org/paper/7faca03a1e72c3e22cad521e6045d9ff8175dc37",
      "title": "Abstract 4189: Quantifying uncertainty in virtual spatial transcriptomics using Bayesian neural networks",
      "venue": "Cancer Research",
      "year": 2026,
      "referenceCount": 0,
      "citationCount": 0,
      "authors": [
        {
          "authorId": "2397759346",
          "name": "Thanosan Prathifkumar"
        },
        {
          "authorId": "2428006674",
          "name": "Nehan Mohamed"
        },
        {
          "authorId": "2268464912",
          "name": "Anvith Kakkera"
        },
        {
          "authorId": "2139436337",
          "name": "Z. Azher"
        },
        {
          "authorId": "2387393247",
          "name": "Xiaoying Liu"
        },
        {
          "authorId": "2248920678",
          "name": "F. Kolling"
        },
        {
          "authorId": "4537509",
          "name": "L. Perreard"
        },
        {
          "authorId": "2046757963",
          "name": "Scott M. Palisoul"
        },
        {
          "authorId": "2237679794",
          "name": "L. Vaickus"
        },
        {
          "authorId": "2331983683",
          "name": "J. Levy"
        }
      ]
    },
    {
      "paperId": "0c0383821a7888b634f904c0bbf158a5425df766",
      "externalIds": {
        "PubMedCentral": "13039319",
        "DOI": "10.1038/s41598-026-46253-y",
        "CorpusId": 286921734
      },
      "url": "https://www.semanticscholar.org/paper/0c0383821a7888b634f904c0bbf158a5425df766",
      "title": "Advanced channel estimation in OTFS and NOMA using deep bayesian gaussian processes and compressive sensing",
      "venue": "Scientific Reports",
      "year": 2026,
      "referenceCount": 15,
      "citationCount": 0,
      "authors": [
        {
          "authorId": "47393622",
          "name": "N. Anilkumar"
        },
        {
          "authorId": "3342300",
          "name": "Sudhakar Sengan"
        }
      ]
    },
    {
      "paperId": "743fee843cf1470d7d1f2b49ea9f67d35cb46db5",
      "externalIds": {
        "DBLP": "journals/lgrs/OsiboMDBMLO25",
        "DOI": "10.1109/LGRS.2025.3564415",
        "CorpusId": 278101479
      },
      "url": "https://www.semanticscholar.org/paper/743fee843cf1470d7d1f2b49ea9f67d35cb46db5",
      "title": "Enhancing Crop Yield Estimation Through Iterative Querying and Bayesian-Optimized Gated Networks",
      "venue": "IEEE Geoscience and Remote Sensing Letters",
      "year": 2025,
      "referenceCount": 22,
      "citationCount": 1,
      "authors": [
        {
          "authorId": "2037062838",
          "name": "B. K. Osibo"
        },
        {
          "authorId": "2281686913",
          "name": "Tinghuai Ma"
        },
        {
          "authorId": "2278515436",
          "name": "Kristina Darbinian"
        },
        {
          "authorId": "1404625263",
          "name": "B. Bediako-Kyeremeh"
        },
        {
          "authorId": "2306024625",
          "name": "Lorenzo Mamelona"
        },
        {
          "authorId": "2357521445",
          "name": "Jianxin Liu"
        },
        {
          "authorId": "2357567996",
          "name": "Stephen Osei-Appiah"
        }
      ]
    },
    {
      "paperId": "46a3f61d94f736db7b3138ec004ffcb448d1a6a1",
      "externalIds": {
        "MAG": "3021195541",
        "CorpusId": 232461831
      },
      "url": "https://www.semanticscholar.org/paper/46a3f61d94f736db7b3138ec004ffcb448d1a6a1",
      "title": "Predictive Uncertainty Estimates in Batch Normalized Neural Networks",
      "venue": "",
      "year": 2019,
      "referenceCount": 33,
      "citationCount": 0,
      "authors": [
        {
          "authorId": "2065953257",
          "name": "Mattias Teye"
        }
      ]
    },
    {
      "paperId": "298f67a9719e74192296fa2428776c46161a256a",
      "externalIds": {
        "DBLP": "journals/corr/abs-2006-10108",
        "ArXiv": "2006.10108",
        "MAG": "3035898727",
        "CorpusId": 219792902
      },
      "url": "https://www.semanticscholar.org/paper/298f67a9719e74192296fa2428776c46161a256a",
      "title": "Simple and Principled Uncertainty Estimation with Deterministic Deep Learning via Distance Awareness",
      "venue": "Neural Information Processing Systems",
      "year": 2020,
      "referenceCount": 93,
      "citationCount": 551,
      "authors": [
        {
          "authorId": "29833921",
          "name": "Jeremiah Zhe Liu"
        },
        {
          "authorId": "143872641",
          "name": "Zi Lin"
        },
        {
          "authorId": "151216770",
          "name": "Shreyas Padhy"
        },
        {
          "authorId": "47497262",
          "name": "Dustin Tran"
        },
        {
          "authorId": "2113816700",
          "name": "Tania Bedrax-Weiss"
        },
        {
          "authorId": "40627523",
          "name": "Balaji Lakshminarayanan"
        }
      ]
    },
    {
      "paperId": "59da4a1e266223922255d057b82e28a5598a4bd1",
      "externalIds": {
        "PubMedCentral": "12306758",
        "DOI": "10.1371/journal.pdig.0000801",
        "CorpusId": 280386736,
        "PubMed": "40729366"
      },
      "url": "https://www.semanticscholar.org/paper/59da4a1e266223922255d057b82e28a5598a4bd1",
      "title": "Implicit versus explicit Bayesian priors for epistemic uncertainty estimation in clinical decision support",
      "venue": "PLOS Digital Health",
      "year": 2025,
      "referenceCount": 106,
      "citationCount": 5,
      "authors": [
        {
          "authorId": "2122983817",
          "name": "Malte Blattmann"
        },
        {
          "authorId": "2144088676",
          "name": "Adrian Lindenmeyer"
        },
        {
          "authorId": "27153656",
          "name": "S. Franke"
        },
        {
          "authorId": "2243453539",
          "name": "T. Neumuth"
        },
        {
          "authorId": "2146854914",
          "name": "Daniel Schneider"
        }
      ]
    }
  ]
}