{
  "total": 22,
  "offset": 0,
  "next": 10,
  "data": [
    {
      "paperId": "fede32dc0c81cc79d5e0d1932610de487be6545b",
      "externalIds": {
        "ArXiv": "1802.03184",
        "DBLP": "journals/corr/abs-1802-03184",
        "MAG": "2786045450",
        "CorpusId": 3631061
      },
      "url": "https://www.semanticscholar.org/paper/fede32dc0c81cc79d5e0d1932610de487be6545b",
      "title": "Self-Bounded Prediction Suffix Tree via Approximate String Matching",
      "venue": "International Conference on Machine Learning",
      "year": 2018,
      "referenceCount": 24,
      "citationCount": 0,
      "authors": [
        {
          "authorId": "2111896065",
          "name": "Dongwoo Kim"
        },
        {
          "authorId": "3093246",
          "name": "Christian J. Walder"
        }
      ]
    },
    {
      "paperId": "7200db72db5848f15854a6f61f40735360c498fb",
      "externalIds": {
        "CorpusId": 260446791
      },
      "url": "https://www.semanticscholar.org/paper/7200db72db5848f15854a6f61f40735360c498fb",
      "title": "Self-Bounded Prediction Suffix Tree via Approximate String Matching Appendix for Self-Bounded Prediction Suffix Tree via Approximate String Matching A . Proof of Lemma 2",
      "venue": "",
      "year": 2018,
      "referenceCount": 0,
      "citationCount": 0,
      "authors": []
    },
    {
      "paperId": "78fc6cdb9f0d77397ef9e1e7cde2b49a9b517616",
      "externalIds": {
        "MAG": "2908947338",
        "CorpusId": 68109005
      },
      "url": "https://www.semanticscholar.org/paper/78fc6cdb9f0d77397ef9e1e7cde2b49a9b517616",
      "title": "Measuring occupations: respondent’s self- identification from a large database",
      "venue": "",
      "year": 2016,
      "referenceCount": 0,
      "citationCount": 1,
      "authors": []
    },
    {
      "paperId": "849af24b686bea49e4328b0e67c2eae24d0869af",
      "externalIds": {
        "DOI": "10.4324/9780429264719-2",
        "CorpusId": 219905578
      },
      "url": "https://www.semanticscholar.org/paper/849af24b686bea49e4328b0e67c2eae24d0869af",
      "title": "List of entries",
      "venue": "Working Welsh",
      "year": 2020,
      "referenceCount": 0,
      "citationCount": 0,
      "authors": []
    },
    {
      "paperId": "4f00e19c86b09cbd8cbf673d3d8ba1cd73c1f95e",
      "externalIds": {
        "MAG": "1494010933",
        "CorpusId": 264228045
      },
      "url": "https://www.semanticscholar.org/paper/4f00e19c86b09cbd8cbf673d3d8ba1cd73c1f95e",
      "title": "Combinatorial pattern matching : 19th annual symposium, CPM 2008, Pisa, Italy, June 18-20, 2008 : proceedings",
      "venue": "Annual Symposium on Combinatorial Pattern Matching",
      "year": 2008,
      "referenceCount": 0,
      "citationCount": 0,
      "authors": [
        {
          "authorId": "1681278",
          "name": "P. Ferragina"
        },
        {
          "authorId": "1808406",
          "name": "G. M. Landau"
        }
      ]
    },
    {
      "paperId": "9ae0daee22e452319450b42362a11a9380d23a5f",
      "externalIds": {
        "MAG": "1486996222",
        "DOI": "10.1201/9781420036275",
        "CorpusId": 60956629
      },
      "url": "https://www.semanticscholar.org/paper/9ae0daee22e452319450b42362a11a9380d23a5f",
      "title": "Handbook Of Computational Molecular Biology",
      "venue": "",
      "year": 2010,
      "referenceCount": 0,
      "citationCount": 178,
      "authors": [
        {
          "authorId": "143899699",
          "name": "S. Aluru"
        }
      ]
    },
    {
      "paperId": "12249dee61ea45fe65b0f31164160d211b181b32",
      "externalIds": {
        "MAG": "1565246592",
        "CorpusId": 262050499
      },
      "url": "https://www.semanticscholar.org/paper/12249dee61ea45fe65b0f31164160d211b181b32",
      "title": "String processing and information retrieval : 14th international symposium, SPIRE 2007, Santiago, Chile, October 29-31, 2007 : proceedings",
      "venue": "",
      "year": 2007,
      "referenceCount": 0,
      "citationCount": 0,
      "authors": [
        {
          "authorId": "1705422",
          "name": "N. Ziviani"
        },
        {
          "authorId": "1398035522",
          "name": "Ricardo Baeza-Yates"
        }
      ]
    },
    {
      "paperId": "f48d11365edc9ed0e236cdcf8bae96508ef9d0d9",
      "externalIds": {
        "MAG": "3032893754",
        "DOI": "10.3138/9781442674431-032",
        "CorpusId": 126223401
      },
      "url": "https://www.semanticscholar.org/paper/f48d11365edc9ed0e236cdcf8bae96508ef9d0d9",
      "title": "List of entries",
      "venue": "Working Welsh",
      "year": 2005,
      "referenceCount": 24,
      "citationCount": 14,
      "authors": [
        {
          "authorId": "46770570",
          "name": "Gareth King"
        }
      ]
    },
    {
      "paperId": "7db8018b0a2a5e79584a6014a690349430c8b2e6",
      "externalIds": {
        "MAG": "1522473896",
        "CorpusId": 60538010
      },
      "url": "https://www.semanticscholar.org/paper/7db8018b0a2a5e79584a6014a690349430c8b2e6",
      "title": "String processing and information retrieval : 17th International Symposium, SPIRE 2010, Los Cabos, Mexico, October 11-13, 2010 : proceedings",
      "venue": "SPIRE",
      "year": 2010,
      "referenceCount": 0,
      "citationCount": 2,
      "authors": [
        {
          "authorId": "2060765996",
          "name": "E. Chavez"
        },
        {
          "authorId": "2393409822",
          "name": "Stefano Lonardi"
        }
      ]
    },
    {
      "paperId": "757140dfc146b6a47a2ac7751490d6d782e947db",
      "externalIds": {
        "MAG": "1532914766",
        "DBLP": "conf/esa/2006",
        "DOI": "10.1007/11841036",
        "CorpusId": 26830352
      },
      "url": "https://www.semanticscholar.org/paper/757140dfc146b6a47a2ac7751490d6d782e947db",
      "title": "Algorithms - ESA 2006, 14th Annual European Symposium, Zurich, Switzerland, September 11-13, 2006, Proceedings",
      "venue": "Embedded Systems and Applications",
      "year": 2006,
      "referenceCount": 0,
      "citationCount": 146,
      "authors": [
        {
          "authorId": "1684176",
          "name": "Y. Azar"
        },
        {
          "authorId": "1736415",
          "name": "T. Erlebach"
        }
      ]
    }
  ]
}