{
  "total": 105,
  "offset": 0,
  "next": 10,
  "data": [
    {
      "paperId": "f8b2e2e0168109bb01b5a7401140a26c0d530ff7",
      "externalIds": {
        "ArXiv": "1703.00579",
        "MAG": "2950159433",
        "DBLP": "journals/corr/RiquelmeGL17",
        "CorpusId": 374669
      },
      "url": "https://www.semanticscholar.org/paper/f8b2e2e0168109bb01b5a7401140a26c0d530ff7",
      "title": "Active Learning for Accurate Estimation of Linear Models",
      "venue": "International Conference on Machine Learning",
      "year": 2017,
      "referenceCount": 21,
      "citationCount": 11,
      "authors": [
        {
          "authorId": "145814174",
          "name": "C. Riquelme"
        },
        {
          "authorId": "1678622",
          "name": "M. Ghavamzadeh"
        },
        {
          "authorId": "3254390",
          "name": "A. Lazaric"
        }
      ]
    },
    {
      "paperId": "a2fd361b6b937e7481dae64a509646f3aae31325",
      "externalIds": {
        "MAG": "2774027663",
        "CorpusId": 158513587
      },
      "url": "https://www.semanticscholar.org/paper/a2fd361b6b937e7481dae64a509646f3aae31325",
      "title": "Risk premium pricing methods in Non-Life Insurance for accurate estimation and uncertainty quantification",
      "venue": "",
      "year": 2017,
      "referenceCount": 0,
      "citationCount": 0,
      "authors": [
        {
          "authorId": "122989510",
          "name": "O. D. Groot"
        }
      ]
    },
    {
      "paperId": "f71bb6407b76dfeaaef276329b4d789eb6a1b752",
      "externalIds": {
        "DBLP": "journals/remotesensing/SantosMFDDSCMSC23",
        "DOI": "10.3390/rs15235464",
        "CorpusId": 265412448
      },
      "url": "https://www.semanticscholar.org/paper/f71bb6407b76dfeaaef276329b4d789eb6a1b752",
      "title": "Sentinel-1 Imagery Used for Estimation of Soil Organic Carbon by Dual-Polarization SAR Vegetation Indices",
      "venue": "Remote Sensing",
      "year": 2023,
      "referenceCount": 60,
      "citationCount": 22,
      "authors": [
        {
          "authorId": "2074283644",
          "name": "E. P. D. Santos"
        },
        {
          "authorId": "2268094935",
          "name": "Michel Castro Moreira"
        },
        {
          "authorId": "2277250215",
          "name": "Elpídio Inácio Fernandes Filho"
        },
        {
          "authorId": "144894716",
          "name": "J. Demattê"
        },
        {
          "authorId": "88970131",
          "name": "E. Dionizio"
        },
        {
          "authorId": "2268186903",
          "name": "Demetrius David da Silva"
        },
        {
          "authorId": "2268115564",
          "name": "Renata Ranielly Pedroza Cruz"
        },
        {
          "authorId": "1403851603",
          "name": "J. M. Moura-Bueno"
        },
        {
          "authorId": "51937829",
          "name": "Uemeson José dos Santos"
        },
        {
          "authorId": "2315486291",
          "name": "M. H. Costa"
        }
      ]
    },
    {
      "paperId": "e8fa1a5fe884fd377ad302bd199144ba378beb5b",
      "externalIds": {
        "DOI": "10.3390/app15010113",
        "CorpusId": 275097472
      },
      "url": "https://www.semanticscholar.org/paper/e8fa1a5fe884fd377ad302bd199144ba378beb5b",
      "title": "Prediction of GNSS Velocity Accuracies Using Machine Learning Algorithms for Active Fault Slip Rate Determination and Earthquake Hazard Assessment",
      "venue": "Applied Sciences",
      "year": 2024,
      "referenceCount": 36,
      "citationCount": 4,
      "authors": [
        {
          "authorId": "107943816",
          "name": "Halil Ibrahim Solak"
        }
      ]
    },
    {
      "paperId": "bf007b985023b7d9acc8a90563a5a5dc8978e3ec",
      "externalIds": {
        "MAG": "2039919750",
        "DOI": "10.9717/KMMS.2012.15.4.508",
        "CorpusId": 129766465
      },
      "url": "https://www.semanticscholar.org/paper/bf007b985023b7d9acc8a90563a5a5dc8978e3ec",
      "title": "Accurate Face Pose Estimation and Synthesis Using Linear Transform Among Face Models",
      "venue": "",
      "year": 2012,
      "referenceCount": 8,
      "citationCount": 1,
      "authors": [
        {
          "authorId": "97611216",
          "name": "B. Suvdaa"
        },
        {
          "authorId": "70991041",
          "name": "J. Ko"
        }
      ]
    },
    {
      "paperId": "95fd7e87c54fa359dbcd9e435b2bb6a305ffb645",
      "externalIds": {
        "MAG": "2917171524",
        "DOI": "10.1007/s40201-018-00324-z",
        "CorpusId": 104465877,
        "PubMed": "31297201"
      },
      "url": "https://www.semanticscholar.org/paper/95fd7e87c54fa359dbcd9e435b2bb6a305ffb645",
      "title": "Comparative study of predicting hospital solid waste generation using multiple linear regression and artificial intelligence",
      "venue": "Journal of Environmental Health Science and Engineering",
      "year": 2019,
      "referenceCount": 29,
      "citationCount": 85,
      "authors": [
        {
          "authorId": "78669204",
          "name": "S. Golbaz"
        },
        {
          "authorId": "2325656",
          "name": "R. Nabizadeh"
        },
        {
          "authorId": "7764807",
          "name": "Haniye Sadat Sajadi"
        }
      ]
    },
    {
      "paperId": "1a19ef8350b214d47b6a35d3c77e7668f49eb077",
      "externalIds": {
        "MAG": "2532109652",
        "DBLP": "journals/imt/RubensTS10",
        "DOI": "10.2197/IPSJTRANS.2.240",
        "CorpusId": 14839981
      },
      "url": "https://www.semanticscholar.org/paper/1a19ef8350b214d47b6a35d3c77e7668f49eb077",
      "title": "Output Divergence Criterion for Active Learning in Collaborative Settings",
      "venue": "Information and Media Technologies",
      "year": 2008,
      "referenceCount": 16,
      "citationCount": 13,
      "authors": [
        {
          "authorId": "2286834998",
          "name": "Neil Rubens"
        },
        {
          "authorId": "46670616",
          "name": "R. Tomioka"
        },
        {
          "authorId": "2298282448",
          "name": "Masashi Sugiyama"
        }
      ]
    },
    {
      "paperId": "a1f918f1a2001325f6ea31b96c3227fc9baa8671",
      "externalIds": {
        "DOI": "10.1109/JSEN.2023.3266354",
        "CorpusId": 258857330
      },
      "url": "https://www.semanticscholar.org/paper/a1f918f1a2001325f6ea31b96c3227fc9baa8671",
      "title": "DOA Estimation Based on Gridless Fuzzy Active Learning Under Unknown Mutual Coupling and Nonuniform Noise: Experimental Verification",
      "venue": "IEEE Sensors Journal",
      "year": 2023,
      "referenceCount": 27,
      "citationCount": 2,
      "authors": [
        {
          "authorId": "145633600",
          "name": "M. Nouri"
        },
        {
          "authorId": "1782974",
          "name": "H. Behroozi"
        },
        {
          "authorId": "102039020",
          "name": "A. Jafarieh"
        },
        {
          "authorId": "2593761",
          "name": "N. K. Mallat"
        }
      ]
    },
    {
      "paperId": "d39c2523eba88951794e210732d726f8e65d94e9",
      "externalIds": {
        "DOI": "10.15632/jtam-pl/174709",
        "CorpusId": 267009482
      },
      "url": "https://www.semanticscholar.org/paper/d39c2523eba88951794e210732d726f8e65d94e9",
      "title": "Estimation of stress intensity factor for surface cracks in the firtree groove structure of turbine disk using pool-based active learning with Gaussian Process Regression",
      "venue": "Journal of Theoretical and Applied Mechanics",
      "year": 2024,
      "referenceCount": 28,
      "citationCount": 2,
      "authors": [
        {
          "authorId": "2147314948",
          "name": "Kaimin Guo"
        },
        {
          "authorId": "2213919636",
          "name": "Hongzhuo Liu"
        },
        {
          "authorId": "2213700479",
          "name": "Han Yan"
        },
        {
          "authorId": "2148838734",
          "name": "Ziyuan Song"
        },
        {
          "authorId": "2279964149",
          "name": "Shengming Zhang"
        },
        {
          "authorId": "47817706",
          "name": "Dawei Huang"
        },
        {
          "authorId": "2273962116",
          "name": "Xiaojun Yan"
        }
      ]
    },
    {
      "paperId": "30c79046f9816776f7117ce0a33cb63bb5e9ceff",
      "externalIds": {
        "DOI": "10.1088/2631-8695/ad7cc3",
        "CorpusId": 272740260
      },
      "url": "https://www.semanticscholar.org/paper/30c79046f9816776f7117ce0a33cb63bb5e9ceff",
      "title": "Optimal estimation of SoC, SoH using machine learning models and design of control algorithm for active cell balancing in lithium ion batteries",
      "venue": "Engineering Research Express",
      "year": 2024,
      "referenceCount": 0,
      "citationCount": 3,
      "authors": [
        {
          "authorId": "2284104254",
          "name": "S. K"
        },
        {
          "authorId": "2217453385",
          "name": "A. S."
        },
        {
          "authorId": "2414239143",
          "name": "Mahima L"
        },
        {
          "authorId": "2416629117",
          "name": "N. G."
        },
        {
          "authorId": "2321819532",
          "name": "Parvati M"
        },
        {
          "authorId": "2321817844",
          "name": "A. P B"
        },
        {
          "authorId": "2323010786",
          "name": "Sonu s"
        }
      ]
    }
  ]
}