{
  "total": 10577,
  "offset": 0,
  "next": 10,
  "data": [
    {
      "paperId": "a85bb2f8fe74b6ab7f4c8a749997c5887503f51e",
      "externalIds": {
        "DBLP": "conf/icml/Sinha18",
        "MAG": "2804312355",
        "CorpusId": 51881804
      },
      "url": "https://www.semanticscholar.org/paper/a85bb2f8fe74b6ab7f4c8a749997c5887503f51e",
      "title": "K-means clustering using random matrix sparsification",
      "venue": "International Conference on Machine Learning",
      "year": 2018,
      "referenceCount": 21,
      "citationCount": 8,
      "authors": [
        {
          "authorId": "40523939",
          "name": "Kaushik Sinha"
        }
      ]
    },
    {
      "paperId": "c3351e6319bd41212ff41e7b698bf4a88a7804ab",
      "externalIds": {
        "CorpusId": 53369985
      },
      "url": "https://www.semanticscholar.org/paper/c3351e6319bd41212ff41e7b698bf4a88a7804ab",
      "title": "Supplementary material for k-means clustering using random matrix sparsification",
      "venue": "",
      "year": 2018,
      "referenceCount": 1,
      "citationCount": 0,
      "authors": [
        {
          "authorId": "40523939",
          "name": "Kaushik Sinha"
        }
      ]
    },
    {
      "paperId": "259147b9bb2d6ec2708e6a046863fac640ee17c3",
      "externalIds": {
        "PubMedCentral": "11805403",
        "DOI": "10.1371/journal.pone.0318519",
        "CorpusId": 276212149,
        "PubMed": "39919061"
      },
      "url": "https://www.semanticscholar.org/paper/259147b9bb2d6ec2708e6a046863fac640ee17c3",
      "title": "Customer segmentation in the digital marketing using a Q-learning based differential evolution algorithm integrated with K-means clustering",
      "venue": "PLoS ONE",
      "year": 2025,
      "referenceCount": 67,
      "citationCount": 18,
      "authors": [
        {
          "authorId": "2181678762",
          "name": "Guanqun Wang"
        }
      ]
    },
    {
      "paperId": "1e95bf2c831da9af26a41ecdc9b1c22270e69434",
      "externalIds": {
        "DOI": "10.3934/mbe.2024160",
        "CorpusId": 267539388,
        "PubMed": "38549299"
      },
      "url": "https://www.semanticscholar.org/paper/1e95bf2c831da9af26a41ecdc9b1c22270e69434",
      "title": "A robust alternating least squares K-means clustering approach for times series using dynamic time warping dissimilarities.",
      "venue": "Mathematical biosciences and engineering : MBE",
      "year": 2024,
      "referenceCount": 19,
      "citationCount": 8,
      "authors": [
        {
          "authorId": "1479582805",
          "name": "J. F. Vera-Vera"
        },
        {
          "authorId": "1403533289",
          "name": "J. A. Roldán-Nofuentes"
        }
      ]
    },
    {
      "paperId": "d494d36eb554fbb683b864a231a63a5eadfba287",
      "externalIds": {
        "DBLP": "journals/tetci/ChenCGZHM22",
        "DOI": "10.1109/tetci.2021.3122511",
        "CorpusId": 244295698
      },
      "url": "https://www.semanticscholar.org/paper/d494d36eb554fbb683b864a231a63a5eadfba287",
      "title": "A Novel Test Case Generation Approach for Adaptive Random Testing of Object-Oriented Software Using K-Means Clustering Technique",
      "venue": "IEEE Transactions on Emerging Topics in Computational Intelligence",
      "year": 2022,
      "referenceCount": 0,
      "citationCount": 13,
      "authors": [
        {
          "authorId": "2108146300",
          "name": "Jinfu Chen"
        },
        {
          "authorId": "2049039561",
          "name": "Haibo Chen"
        },
        {
          "authorId": "3380505",
          "name": "Yuchi Guo"
        },
        {
          "authorId": "47482864",
          "name": "Minmin Zhou"
        },
        {
          "authorId": "1905417",
          "name": "Rubing Huang"
        },
        {
          "authorId": "34997780",
          "name": "Chengying Mao"
        }
      ]
    },
    {
      "paperId": "61a626ce03b22121fe47028f125264a631b131ed",
      "externalIds": {
        "DOI": "10.21107/kursor.v12i01.269",
        "CorpusId": 281868633
      },
      "url": "https://www.semanticscholar.org/paper/61a626ce03b22121fe47028f125264a631b131ed",
      "title": "OPTIMIZATION OF K-MEANS CLUSTERING USING PARTICLE SWARM OPTIMIZATION ALGORITHM FOR GROUPING TRAVELER REVIEWS DATA ON TRIPADVISOR SITES",
      "venue": "Jurnal Ilmiah Kursor",
      "year": 2023,
      "referenceCount": 39,
      "citationCount": 9,
      "authors": [
        {
          "authorId": "2203829271",
          "name": "I. M. S. Bimantara"
        },
        {
          "authorId": "2085990902",
          "name": "I. M. Widiartha"
        }
      ]
    },
    {
      "paperId": "f61c8b25b120e48c1fbaafabfa700f2204c00405",
      "externalIds": {
        "PubMedCentral": "9966037",
        "DBLP": "journals/sensors/TranNHV23",
        "DOI": "10.3390/s23042345",
        "CorpusId": 257123358,
        "PubMed": "36850944"
      },
      "url": "https://www.semanticscholar.org/paper/f61c8b25b120e48c1fbaafabfa700f2204c00405",
      "title": "Sensor Clustering Using a K-Means Algorithm in Combination with Optimized Unmanned Aerial Vehicle Trajectory in Wireless Sensor Networks",
      "venue": "Italian National Conference on Sensors",
      "year": 2023,
      "referenceCount": 34,
      "citationCount": 28,
      "authors": [
        {
          "authorId": "2048066019",
          "name": "Thanh-Nam Tran"
        },
        {
          "authorId": "2431267",
          "name": "Thanh-Long Nguyen"
        },
        {
          "authorId": "1707046457",
          "name": "V. Hoang"
        },
        {
          "authorId": "144403529",
          "name": "M. Voznák"
        }
      ]
    },
    {
      "paperId": "688d57e28542fd9f3b61c35620c767c60691e2db",
      "externalIds": {
        "MAG": "3186325362",
        "DOI": "10.1016/J.IATSSR.2021.07.001",
        "CorpusId": 237767033
      },
      "url": "https://www.semanticscholar.org/paper/688d57e28542fd9f3b61c35620c767c60691e2db",
      "title": "Development of E-rickshaw driving cycle (ERDC) based on micro-trip segments using random selection and K-means clustering techniques",
      "venue": "IATSS Research",
      "year": 2021,
      "referenceCount": 35,
      "citationCount": 37,
      "authors": [
        {
          "authorId": "145693294",
          "name": "C. M. Chandrashekar"
        },
        {
          "authorId": "40482831",
          "name": "Prashansa Agrawal"
        },
        {
          "authorId": "34573801",
          "name": "Pritha Chatterjee"
        },
        {
          "authorId": "12118485",
          "name": "Digvijay S. Pawar"
        }
      ]
    },
    {
      "paperId": "477f2af35ad9ff466c47a734b4efbf4b5b3657a7",
      "externalIds": {
        "DBLP": "journals/computers/AlAbadiMF23",
        "DOI": "10.3390/computers12120262",
        "CorpusId": 266387916
      },
      "url": "https://www.semanticscholar.org/paper/477f2af35ad9ff466c47a734b4efbf4b5b3657a7",
      "title": "Enhanced Random Forest Classifier with K-Means Clustering (ERF-KMC) for Detecting and Preventing Distributed-Denial-of-Service and Man-in-the-Middle Attacks in Internet-of-Medical-Things Networks",
      "venue": "De Computis",
      "year": 2023,
      "referenceCount": 30,
      "citationCount": 26,
      "authors": [
        {
          "authorId": "2224099780",
          "name": "Abdullah Ali Jawad Al-Abadi"
        },
        {
          "authorId": "2070574532",
          "name": "M. Mohamed"
        },
        {
          "authorId": "3010706",
          "name": "A. Fakhfakh"
        }
      ]
    },
    {
      "paperId": "fb60ff1cf06fc8ce0b8da15deb4541da455e0715",
      "externalIds": {
        "MAG": "3000364324",
        "DOI": "10.3390/electronics9010188",
        "CorpusId": 210877480
      },
      "url": "https://www.semanticscholar.org/paper/fb60ff1cf06fc8ce0b8da15deb4541da455e0715",
      "title": "Leukemia Image Segmentation Using a Hybrid Histogram-Based Soft Covering Rough K-Means Clustering Algorithm",
      "venue": "",
      "year": 2020,
      "referenceCount": 47,
      "citationCount": 61,
      "authors": [
        {
          "authorId": "2128070890",
          "name": "H. Inbarani H."
        },
        {
          "authorId": "3836512",
          "name": "A. Azar"
        },
        {
          "authorId": "2127286824",
          "name": "J. G"
        }
      ]
    }
  ]
}