{
  "total": 1482159,
  "offset": 0,
  "next": 10,
  "data": [
    {
      "paperId": "f31ac36adbd24c43dcd28397081702e98e026b34",
      "externalIds": {
        "DBLP": "conf/icml/RanganathTB16",
        "MAG": "2950328408",
        "ArXiv": "1511.02386",
        "CorpusId": 849367
      },
      "url": "https://www.semanticscholar.org/paper/f31ac36adbd24c43dcd28397081702e98e026b34",
      "title": "Hierarchical Variational Models",
      "venue": "International Conference on Machine Learning",
      "year": 2015,
      "referenceCount": 62,
      "citationCount": 357,
      "authors": [
        {
          "authorId": "2615814",
          "name": "R. Ranganath"
        },
        {
          "authorId": "47497262",
          "name": "Dustin Tran"
        },
        {
          "authorId": "1796335",
          "name": "D. Blei"
        }
      ]
    },
    {
      "paperId": "334dc849e21285fa661a75bb896590b6e4f36e42",
      "externalIds": {
        "CorpusId": 209333382
      },
      "url": "https://www.semanticscholar.org/paper/334dc849e21285fa661a75bb896590b6e4f36e42",
      "title": "Hierarchical variational models for statistical physics",
      "venue": "",
      "year": 2019,
      "referenceCount": 17,
      "citationCount": 3,
      "authors": [
        {
          "authorId": "2124555",
          "name": "Jaan Altosaar"
        }
      ]
    },
    {
      "paperId": "d970019121d4727de54c494b6ea36aea4fbbb084",
      "externalIds": {
        "ArXiv": "1603.02443",
        "CorpusId": 88514358
      },
      "url": "https://www.semanticscholar.org/paper/d970019121d4727de54c494b6ea36aea4fbbb084",
      "title": "Note on the equivalence of hierarchical variational models and auxiliary deep generative models",
      "venue": "",
      "year": 2016,
      "referenceCount": 8,
      "citationCount": 1,
      "authors": [
        {
          "authorId": "152434510",
          "name": "Niko Brummer"
        }
      ]
    },
    {
      "paperId": "b385aed791efe7febdb255dde1ace941a3b9c4ba",
      "externalIds": {
        "MAG": "2337793024",
        "CorpusId": 124331252
      },
      "url": "https://www.semanticscholar.org/paper/b385aed791efe7febdb255dde1ace941a3b9c4ba",
      "title": "Note on the equivalence of hierarchical variational models and auxiliary deep generative models",
      "venue": "",
      "year": 2016,
      "referenceCount": 3,
      "citationCount": 0,
      "authors": [
        {
          "authorId": "1702117",
          "name": "N. Brümmer"
        }
      ]
    },
    {
      "paperId": "f48ef7d382312a07b0b5e6327336ae368fc19334",
      "externalIds": {
        "CorpusId": 17932147
      },
      "url": "https://www.semanticscholar.org/paper/f48ef7d382312a07b0b5e6327336ae368fc19334",
      "title": "Hierarchical Variational Models ( Appendix )",
      "venue": "",
      "year": 2016,
      "referenceCount": 13,
      "citationCount": 0,
      "authors": [
        {
          "authorId": "2615814",
          "name": "R. Ranganath"
        }
      ]
    },
    {
      "paperId": "0e33b1837c0a92f52185b371749fe23370862dc3",
      "externalIds": {
        "DOI": "10.1109/JSEN.2024.3384262",
        "CorpusId": 269020804
      },
      "url": "https://www.semanticscholar.org/paper/0e33b1837c0a92f52185b371749fe23370862dc3",
      "title": "Multirate Nonlinear Process Fault Detection Based on Multiscale Hierarchical Variational Autoencoder",
      "venue": "IEEE Sensors Journal",
      "year": 2024,
      "referenceCount": 34,
      "citationCount": 12,
      "authors": [
        {
          "authorId": "1994093",
          "name": "Bingbing Shen"
        },
        {
          "authorId": "1666579733",
          "name": "Jinchuan Qian"
        },
        {
          "authorId": "2109711027",
          "name": "Zeyu Yang"
        },
        {
          "authorId": "2186048913",
          "name": "Le Yao"
        }
      ]
    },
    {
      "paperId": "f6d32ed0eee5fb3f6ac518f3aebc8ceff2aae397",
      "externalIds": {
        "ArXiv": "2007.03898",
        "MAG": "3041956526",
        "DBLP": "conf/nips/VahdatK20",
        "CorpusId": 220403493
      },
      "url": "https://www.semanticscholar.org/paper/f6d32ed0eee5fb3f6ac518f3aebc8ceff2aae397",
      "title": "NVAE: A Deep Hierarchical Variational Autoencoder",
      "venue": "Neural Information Processing Systems",
      "year": 2020,
      "referenceCount": 82,
      "citationCount": 1087,
      "authors": [
        {
          "authorId": "3214848",
          "name": "Arash Vahdat"
        },
        {
          "authorId": "2376331464",
          "name": "Jan Kautz"
        }
      ]
    },
    {
      "paperId": "9f48ae46d6d478c68bdfadfb020a7f609fd39267",
      "externalIds": {
        "ArXiv": "2311.12454",
        "DBLP": "journals/tnn/LeeCKL25",
        "DOI": "10.1109/TNNLS.2025.3584944",
        "CorpusId": 265308903,
        "PubMed": "40644087"
      },
      "url": "https://www.semanticscholar.org/paper/9f48ae46d6d478c68bdfadfb020a7f609fd39267",
      "title": "HierSpeech++: Bridging the Gap Between Semantic and Acoustic Representation of Speech by Hierarchical Variational Inference for Zero-Shot Speech Synthesis",
      "venue": "IEEE Transactions on Neural Networks and Learning Systems",
      "year": 2023,
      "referenceCount": 109,
      "citationCount": 70,
      "authors": [
        {
          "authorId": "2144573208",
          "name": "Sang-Hoon Lee"
        },
        {
          "authorId": "2191633032",
          "name": "Ha-Yeong Choi"
        },
        {
          "authorId": "2267615141",
          "name": "Seung-Bin Kim"
        },
        {
          "authorId": "2155886654",
          "name": "Seong-Whan Lee"
        }
      ]
    },
    {
      "paperId": "bac80c4698a08bda7d417c6df367e1d2b2546ca9",
      "externalIds": {
        "DBLP": "conf/iccv/ProstHAP23",
        "ArXiv": "2303.11217",
        "DOI": "10.1109/ICCV51070.2023.02093",
        "CorpusId": 257632370
      },
      "url": "https://www.semanticscholar.org/paper/bac80c4698a08bda7d417c6df367e1d2b2546ca9",
      "title": "Inverse problem regularization with hierarchical variational autoencoders",
      "venue": "IEEE International Conference on Computer Vision",
      "year": 2023,
      "referenceCount": 62,
      "citationCount": 10,
      "authors": [
        {
          "authorId": "38110064",
          "name": "J. Prost"
        },
        {
          "authorId": "48808541",
          "name": "Antoine Houdard"
        },
        {
          "authorId": "1713633",
          "name": "Andrés Almansa"
        },
        {
          "authorId": "144517111",
          "name": "N. Papadakis"
        }
      ]
    },
    {
      "paperId": "f21783c8982227e68d1a75d7972315425646d5e6",
      "externalIds": {
        "DBLP": "journals/corr/abs-2306-03718",
        "ArXiv": "2306.03718",
        "DOI": "10.1109/SMC53992.2023.10394545",
        "CorpusId": 259088792
      },
      "url": "https://www.semanticscholar.org/paper/f21783c8982227e68d1a75d7972315425646d5e6",
      "title": "Emotion-Conditioned Melody Harmonization with Hierarchical Variational Autoencoder",
      "venue": "IEEE International Conference on Systems, Man and Cybernetics",
      "year": 2023,
      "referenceCount": 22,
      "citationCount": 8,
      "authors": [
        {
          "authorId": "1382127965",
          "name": "Shulei Ji"
        },
        {
          "authorId": "2150439354",
          "name": "Xinyu Yang"
        }
      ]
    }
  ]
}