{
  "total": 39,
  "offset": 0,
  "next": 10,
  "data": [
    {
      "paperId": "9f3dab72a882a0a231befc331fc71bedf6bef09a",
      "externalIds": {
        "MAG": "2953263857",
        "DBLP": "conf/icml/BuiHHLT16",
        "ArXiv": "1602.04133",
        "DOI": "10.17863/CAM.21348",
        "CorpusId": 9533990
      },
      "url": "https://www.semanticscholar.org/paper/9f3dab72a882a0a231befc331fc71bedf6bef09a",
      "title": "Deep Gaussian Processes for Regression using Approximate Expectation Propagation",
      "venue": "International Conference on Machine Learning",
      "year": 2016,
      "referenceCount": 35,
      "citationCount": 244,
      "authors": [
        {
          "authorId": "23519191",
          "name": "T. Bui"
        },
        {
          "authorId": "1388574404",
          "name": "D. Hernández-Lobato"
        },
        {
          "authorId": "1388574431",
          "name": "José Miguel Hernández-Lobato"
        },
        {
          "authorId": "2672661",
          "name": "Yingzhen Li"
        },
        {
          "authorId": "145369890",
          "name": "Richard E. Turner"
        }
      ]
    },
    {
      "paperId": "6e212572104dca082153e266c60b048bf8d0ab25",
      "externalIds": {
        "CorpusId": 262134619
      },
      "url": "https://www.semanticscholar.org/paper/6e212572104dca082153e266c60b048bf8d0ab25",
      "title": "Deep Gaussian Processes for Regression using Approximate Expectation Propagation : Supplementary material",
      "venue": "",
      "year": 2016,
      "referenceCount": 2,
      "citationCount": 1,
      "authors": [
        {
          "authorId": "23519191",
          "name": "T. Bui"
        },
        {
          "authorId": "1388574431",
          "name": "José Miguel Hernández-Lobato"
        },
        {
          "authorId": "1388574404",
          "name": "D. Hernández-Lobato"
        },
        {
          "authorId": "2391724655",
          "name": "Yingzhen Li"
        },
        {
          "authorId": "2243991628",
          "name": "Richard E. Turner"
        }
      ]
    },
    {
      "paperId": "ed947ac0cdf9821677202dcd620ef1d83e6d741a",
      "externalIds": {
        "MAG": "2943521141",
        "CorpusId": 155890098
      },
      "url": "https://www.semanticscholar.org/paper/ed947ac0cdf9821677202dcd620ef1d83e6d741a",
      "title": "Deep Gaussian processes using expectation propagation and Monte Carlo methods",
      "venue": "",
      "year": 2018,
      "referenceCount": 57,
      "citationCount": 8,
      "authors": [
        {
          "authorId": "2277211731",
          "name": "Gonzalo Muñoz"
        }
      ]
    },
    {
      "paperId": "964e47a392670187565e46862c5ba51f2ae0d3c8",
      "externalIds": {
        "ArXiv": "1511.03405",
        "MAG": "2247622001",
        "DOI": "10.17863/CAM.21292",
        "CorpusId": 56377953
      },
      "url": "https://www.semanticscholar.org/paper/964e47a392670187565e46862c5ba51f2ae0d3c8",
      "title": "Training Deep Gaussian Processes using Stochastic Expectation Propagation and Probabilistic Backpropagation",
      "venue": "",
      "year": 2015,
      "referenceCount": 17,
      "citationCount": 8,
      "authors": [
        {
          "authorId": "23519191",
          "name": "T. Bui"
        },
        {
          "authorId": "1388574431",
          "name": "José Miguel Hernández-Lobato"
        },
        {
          "authorId": "2672661",
          "name": "Yingzhen Li"
        },
        {
          "authorId": "2064184537",
          "name": "Daniel Hern'andez-Lobato"
        },
        {
          "authorId": "145369890",
          "name": "Richard E. Turner"
        }
      ]
    },
    {
      "paperId": "097819d3c837f9a6a39a7044b3b7ac26e2320935",
      "externalIds": {
        "DBLP": "conf/mlsp/Munoz-GonzalezL11",
        "MAG": "1997739388",
        "DOI": "10.1109/MLSP.2011.6064576",
        "CorpusId": 16222183
      },
      "url": "https://www.semanticscholar.org/paper/097819d3c837f9a6a39a7044b3b7ac26e2320935",
      "title": "Heteroscedastic Gaussian process regression using expectation propagation",
      "venue": "2011 IEEE International Workshop on Machine Learning for Signal Processing",
      "year": 2011,
      "referenceCount": 12,
      "citationCount": 20,
      "authors": [
        {
          "authorId": "1399031454",
          "name": "Luis Muñoz-González"
        },
        {
          "authorId": "1388666962",
          "name": "M. Lázaro-Gredilla"
        },
        {
          "authorId": "1398493114",
          "name": "A. Figueiras-Vidal"
        }
      ]
    },
    {
      "paperId": "9e333f1918a7363494d1142ade0d4ef47437030d",
      "externalIds": {
        "MAG": "2763914732",
        "DBLP": "journals/jmlr/BuiYT17",
        "DOI": "10.17863/CAM.20846",
        "CorpusId": 28255521
      },
      "url": "https://www.semanticscholar.org/paper/9e333f1918a7363494d1142ade0d4ef47437030d",
      "title": "A Unifying Framework for Gaussian Process Pseudo-Point Approximations using Power Expectation Propagation",
      "venue": "Journal of machine learning research",
      "year": 2016,
      "referenceCount": 53,
      "citationCount": 144,
      "authors": [
        {
          "authorId": "23519191",
          "name": "T. Bui"
        },
        {
          "authorId": "3407566",
          "name": "Josiah Yan"
        },
        {
          "authorId": "145369890",
          "name": "Richard E. Turner"
        }
      ]
    },
    {
      "paperId": "bea92ea6c2a6ecad74fba668fbed382363ae40e7",
      "externalIds": {
        "DBLP": "journals/corr/BuiYT16",
        "MAG": "2396665160",
        "ArXiv": "1605.07066",
        "CorpusId": 799437
      },
      "url": "https://www.semanticscholar.org/paper/bea92ea6c2a6ecad74fba668fbed382363ae40e7",
      "title": "A Unifying Framework for Sparse Gaussian Process Approximation using Power Expectation Propagation",
      "venue": "arXiv.org",
      "year": 2016,
      "referenceCount": 57,
      "citationCount": 25,
      "authors": [
        {
          "authorId": "23519191",
          "name": "T. Bui"
        },
        {
          "authorId": "3407566",
          "name": "Josiah Yan"
        },
        {
          "authorId": "145369890",
          "name": "Richard E. Turner"
        }
      ]
    },
    {
      "paperId": "f25f8e287864239d30a497169f7da628f296d1ab",
      "externalIds": {
        "ArXiv": "1808.09211",
        "MAG": "2952706974",
        "DBLP": "conf/eccv/LathuiliereMAH18",
        "DOI": "10.1007/978-3-030-01228-1_13",
        "CorpusId": 52115822
      },
      "url": "https://www.semanticscholar.org/paper/f25f8e287864239d30a497169f7da628f296d1ab",
      "title": "DeepGUM: Learning Deep Robust Regression with a Gaussian-Uniform Mixture Model",
      "venue": "European Conference on Computer Vision",
      "year": 2018,
      "referenceCount": 45,
      "citationCount": 29,
      "authors": [
        {
          "authorId": "2349639004",
          "name": "Stéphane Lathuilière"
        },
        {
          "authorId": "2793152",
          "name": "Pablo Mesejo"
        },
        {
          "authorId": "1382657362",
          "name": "Xavier Alameda-Pineda"
        },
        {
          "authorId": "1794229",
          "name": "R. Horaud"
        }
      ]
    },
    {
      "paperId": "7b49d2d34468c69f0b526b659c2a099e0347cee7",
      "externalIds": {
        "DBLP": "journals/corr/abs-1203-3507",
        "MAG": "1492761431",
        "ArXiv": "1203.3507",
        "CorpusId": 9560740
      },
      "url": "https://www.semanticscholar.org/paper/7b49d2d34468c69f0b526b659c2a099e0347cee7",
      "title": "Sparse-posterior Gaussian Processes for general likelihoods",
      "venue": "Conference on Uncertainty in Artificial Intelligence",
      "year": 2010,
      "referenceCount": 17,
      "citationCount": 32,
      "authors": [
        {
          "authorId": "2114756040",
          "name": "Y. Qi"
        },
        {
          "authorId": "1405373072",
          "name": "Ahmed H. Abdel-Gawad"
        },
        {
          "authorId": "52626911",
          "name": "T. Minka"
        }
      ]
    },
    {
      "paperId": "66d3f6d63c69e50833800ede2d4cf8f996f6600f",
      "externalIds": {
        "MAG": "3099393328",
        "DBLP": "conf/mlsp/TolvanenJV14",
        "ArXiv": "1404.5443",
        "DOI": "10.1109/MLSP.2014.6958906",
        "CorpusId": 1807017
      },
      "url": "https://www.semanticscholar.org/paper/66d3f6d63c69e50833800ede2d4cf8f996f6600f",
      "title": "Expectation propagation for nonstationary heteroscedastic Gaussian process regression",
      "venue": "International Workshop on Machine Learning for Signal Processing",
      "year": 2014,
      "referenceCount": 26,
      "citationCount": 65,
      "authors": [
        {
          "authorId": "2758261",
          "name": "Ville Tolvanen"
        },
        {
          "authorId": "2206678",
          "name": "Pasi Jylänki"
        },
        {
          "authorId": "3104170",
          "name": "Aki Vehtari"
        }
      ]
    }
  ]
}