{
  "total": 4167,
  "offset": 0,
  "next": 10,
  "data": [
    {
      "paperId": "5a8f99c24bce7241a23c0941ab4be7e7b8faf49d",
      "externalIds": {
        "MAG": "2963327716",
        "ArXiv": "1803.02453",
        "DBLP": "journals/corr/abs-1803-02453",
        "CorpusId": 4725675
      },
      "url": "https://www.semanticscholar.org/paper/5a8f99c24bce7241a23c0941ab4be7e7b8faf49d",
      "title": "A Reductions Approach to Fair Classification",
      "venue": "International Conference on Machine Learning",
      "year": 2018,
      "referenceCount": 40,
      "citationCount": 1247,
      "authors": [
        {
          "authorId": "40333747",
          "name": "Alekh Agarwal"
        },
        {
          "authorId": "2624289",
          "name": "A. Beygelzimer"
        },
        {
          "authorId": "144652072",
          "name": "Miroslav Dudík"
        },
        {
          "authorId": "144162125",
          "name": "J. Langford"
        },
        {
          "authorId": "1831395",
          "name": "Hanna M. Wallach"
        }
      ]
    },
    {
      "paperId": "19cb02117084b023c28da2fb356679806a299890",
      "externalIds": {
        "CorpusId": 265038209
      },
      "url": "https://www.semanticscholar.org/paper/19cb02117084b023c28da2fb356679806a299890",
      "title": "A Reductions Approach to Fair Classification A . Error and Fairness for Randomized Classifiers",
      "venue": "",
      "year": 2018,
      "referenceCount": 0,
      "citationCount": 0,
      "authors": []
    },
    {
      "paperId": "d53e7dd79bb5c1ae029b518720bf5dd06fe5d8a7",
      "externalIds": {
        "DBLP": "journals/corr/abs-1906-09613",
        "ArXiv": "1906.09613",
        "MAG": "2950268582",
        "CorpusId": 195345156
      },
      "url": "https://www.semanticscholar.org/paper/d53e7dd79bb5c1ae029b518720bf5dd06fe5d8a7",
      "title": "The Cost of a Reductions Approach to Private Fair Optimization",
      "venue": "arXiv.org",
      "year": 2019,
      "referenceCount": 111,
      "citationCount": 3,
      "authors": [
        {
          "authorId": "145453553",
          "name": "Daniel Alabi"
        }
      ]
    },
    {
      "paperId": "592fabebbb55eb5e857298c80a921d9f4e8f8678",
      "externalIds": {
        "DOI": "10.11591/ijeecs.v41.i2.pp710-719",
        "CorpusId": 287086045
      },
      "url": "https://www.semanticscholar.org/paper/592fabebbb55eb5e857298c80a921d9f4e8f8678",
      "title": "Integrating contrastive and generative AI with RAG for responsible and fair CV classification",
      "venue": "Indonesian Journal of Electrical Engineering and Computer Science",
      "year": 2026,
      "referenceCount": 22,
      "citationCount": 0,
      "authors": [
        {
          "authorId": "2329276159",
          "name": "Soumia Chafi"
        },
        {
          "authorId": "26135342",
          "name": "M. Kabil"
        },
        {
          "authorId": "104253585",
          "name": "Abdessamad Kamouss"
        }
      ]
    },
    {
      "paperId": "5767420a7f7354b99db2166c10faee7fc7453e90",
      "externalIds": {
        "DBLP": "journals/algorithms/KiselLZ25",
        "DOI": "10.3390/a18040229",
        "CorpusId": 277878615
      },
      "url": "https://www.semanticscholar.org/paper/5767420a7f7354b99db2166c10faee7fc7453e90",
      "title": "Deep-Learning-Based Optimization of the Signal/Background Ratio for Λ Particles in the CBM Experiment at FAIR",
      "venue": "Algorithms",
      "year": 2025,
      "referenceCount": 32,
      "citationCount": 0,
      "authors": [
        {
          "authorId": "2352153829",
          "name": "I. Kisel"
        },
        {
          "authorId": "2175165862",
          "name": "R. Lakos"
        },
        {
          "authorId": "2355978094",
          "name": "G. Zischka"
        }
      ]
    },
    {
      "paperId": "a02dbf0c1d2debc1a825e55f17958853eb3d40aa",
      "externalIds": {
        "DBLP": "journals/corr/abs-2402-11338",
        "ArXiv": "2402.11338",
        "DOI": "10.48550/arXiv.2402.11338",
        "CorpusId": 267751161
      },
      "url": "https://www.semanticscholar.org/paper/a02dbf0c1d2debc1a825e55f17958853eb3d40aa",
      "title": "Fair Classification with Partial Feedback: An Exploration-Based Data-Collection Approach",
      "venue": "International Conference on Machine Learning",
      "year": 2024,
      "referenceCount": 49,
      "citationCount": 3,
      "authors": [
        {
          "authorId": "35604162",
          "name": "Vijay Keswani"
        },
        {
          "authorId": "152276166",
          "name": "Anay Mehrotra"
        },
        {
          "authorId": "144776615",
          "name": "L. E. Celis"
        }
      ]
    },
    {
      "paperId": "5806f3a56243c465103b25720cf17257968edf6d",
      "externalIds": {
        "DBLP": "conf/aaai/CooperLCBSGK0Z24",
        "ArXiv": "2301.11562",
        "DOI": "10.1609/aaai.v38i20.30203",
        "CorpusId": 258987250
      },
      "url": "https://www.semanticscholar.org/paper/5806f3a56243c465103b25720cf17257968edf6d",
      "title": "Arbitrariness and Social Prediction: The Confounding Role of Variance in Fair Classification",
      "venue": "AAAI Conference on Artificial Intelligence",
      "year": 2023,
      "referenceCount": 19,
      "citationCount": 41,
      "authors": [
        {
          "authorId": "2055304889",
          "name": "A. F. Cooper"
        },
        {
          "authorId": "2219388589",
          "name": "Katherine Lee"
        },
        {
          "authorId": "1389964396",
          "name": "M. Z. Choksi"
        },
        {
          "authorId": "2881033",
          "name": "Solon Barocas"
        },
        {
          "authorId": "2081393182",
          "name": "Chris De Sa"
        },
        {
          "authorId": "1992860",
          "name": "James Grimmelmann"
        },
        {
          "authorId": "3371403",
          "name": "J. Kleinberg"
        },
        {
          "authorId": "2218576738",
          "name": "Siddhartha Sen"
        },
        {
          "authorId": "1406217399",
          "name": "Baobao Zhang"
        }
      ]
    },
    {
      "paperId": "8c2425d69b7098f58fb8344550e6f68b30450faf",
      "externalIds": {
        "DBLP": "conf/edbt/Mazilu0PF21",
        "CorpusId": 233260753
      },
      "url": "https://www.semanticscholar.org/paper/8c2425d69b7098f58fb8344550e6f68b30450faf",
      "title": "Data Wrangling for Fair Classification",
      "venue": "EDBT/ICDT Workshops",
      "year": 2021,
      "referenceCount": 20,
      "citationCount": 3,
      "authors": [
        {
          "authorId": "122306263",
          "name": "Lacramioara Mazilu"
        },
        {
          "authorId": "3270951",
          "name": "Nikolaos Konstantinou"
        },
        {
          "authorId": "1716510",
          "name": "N. Paton"
        },
        {
          "authorId": "144779687",
          "name": "A. Fernandes"
        }
      ]
    },
    {
      "paperId": "d1ee260ae6dbc16da8eca3a7889bff0d9ac73a51",
      "externalIds": {
        "DOI": "10.1109/APCIT65661.2025.11411248",
        "CorpusId": 286242918
      },
      "url": "https://www.semanticscholar.org/paper/d1ee260ae6dbc16da8eca3a7889bff0d9ac73a51",
      "title": "A DenseNet-Based Deep Learning Approach for Accurate Classification and Interpretability in the Diagnosis of Acute Lymphoblastic Leukemia",
      "venue": "2025 2nd Asia Pacific Conference on Innovation in Technology (APCIT)",
      "year": 2025,
      "referenceCount": 15,
      "citationCount": 0,
      "authors": [
        {
          "authorId": "2308297193",
          "name": "Ragini Y P"
        },
        {
          "authorId": "2405745442",
          "name": "O. Khresat"
        },
        {
          "authorId": "2347228475",
          "name": "B.Mamatha"
        },
        {
          "authorId": "2162251513",
          "name": "A. V"
        }
      ]
    },
    {
      "paperId": "5e3dbeff5191059f2fbfef2a00d0cca29ebe8123",
      "externalIds": {
        "DBLP": "journals/concurrency/LawrenceM25",
        "DOI": "10.1002/cpe.70336",
        "CorpusId": 281974339
      },
      "url": "https://www.semanticscholar.org/paper/5e3dbeff5191059f2fbfef2a00d0cca29ebe8123",
      "title": "Optimizing Genomic Cancer Classification: A Concurrency‐Aware Approach to Computational Efficiency and Data Balance",
      "venue": "Concurrency and Computation",
      "year": 2025,
      "referenceCount": 31,
      "citationCount": 0,
      "authors": [
        {
          "authorId": "2321609356",
          "name": "Jinsha Lawrence"
        },
        {
          "authorId": "47554210",
          "name": "T. Mohanraj"
        }
      ]
    }
  ]
}