{
  "total": 66,
  "offset": 0,
  "next": 10,
  "data": [
    {
      "paperId": "39eb6f355b0dc5fbd7115b93d389cc8fa3c5b1c3",
      "externalIds": {
        "DBLP": "conf/icml/AvronH15",
        "MAG": "1840556234",
        "CorpusId": 2504516
      },
      "url": "https://www.semanticscholar.org/paper/39eb6f355b0dc5fbd7115b93d389cc8fa3c5b1c3",
      "title": "Community Detection Using Time-Dependent Personalized PageRank",
      "venue": "International Conference on Machine Learning",
      "year": 2015,
      "referenceCount": 18,
      "citationCount": 25,
      "authors": [
        {
          "authorId": "1922753",
          "name": "H. Avron"
        },
        {
          "authorId": "2522639",
          "name": "L. Horesh"
        }
      ]
    },
    {
      "paperId": "cd0673f2201b59a6448dfe7b3695028c011e413f",
      "externalIds": {
        "DBLP": "journals/iam/FengTWL15",
        "MAG": "2036116799",
        "DOI": "10.1016/j.im.2015.02.004",
        "CorpusId": 27502855
      },
      "url": "https://www.semanticscholar.org/paper/cd0673f2201b59a6448dfe7b3695028c011e413f",
      "title": "Personalized recommendations based on time-weighted overlapping community detection",
      "venue": "Information Manager (The)",
      "year": 2015,
      "referenceCount": 58,
      "citationCount": 72,
      "authors": [
        {
          "authorId": "20386144",
          "name": "Haoyuan Feng"
        },
        {
          "authorId": "144580774",
          "name": "Jin Tian"
        },
        {
          "authorId": "2154554103",
          "name": "Harry J. Wang"
        },
        {
          "authorId": "2112113536",
          "name": "Minqiang Li"
        }
      ]
    },
    {
      "paperId": "06962da894185738485a293971c12e048603d33d",
      "externalIds": {
        "DBLP": "journals/corr/KlosterG15",
        "ArXiv": "1503.00322",
        "MAG": "1514538974",
        "CorpusId": 15847016
      },
      "url": "https://www.semanticscholar.org/paper/06962da894185738485a293971c12e048603d33d",
      "title": "Personalized PageRank Solution Paths",
      "venue": "arXiv.org",
      "year": 2015,
      "referenceCount": 41,
      "citationCount": 6,
      "authors": [
        {
          "authorId": "1881484",
          "name": "Kyle Kloster"
        },
        {
          "authorId": "1757913",
          "name": "D. Gleich"
        }
      ]
    },
    {
      "paperId": "57c7065ad83ffa97c1dea46de3d8f94061fc83e9",
      "externalIds": {
        "MAG": "2465886454",
        "CorpusId": 56570733
      },
      "url": "https://www.semanticscholar.org/paper/57c7065ad83ffa97c1dea46de3d8f94061fc83e9",
      "title": "Detection of Borrelia bacteria using real-time PCR",
      "venue": "",
      "year": 2015,
      "referenceCount": 17,
      "citationCount": 0,
      "authors": [
        {
          "authorId": "113191089",
          "name": "Christine Horneland"
        }
      ]
    },
    {
      "paperId": "0ad1270a078cd9065d98367d76203c10c242e041",
      "externalIds": {
        "MAG": "2028708118",
        "DOI": "10.1177/0272989X14528380",
        "CorpusId": 4584915,
        "PubMed": "24739535"
      },
      "url": "https://www.semanticscholar.org/paper/0ad1270a078cd9065d98367d76203c10c242e041",
      "title": "The Influence of Disease Risk on the Optimal Time Interval between Screens for the Early Detection of Cancer",
      "venue": "Medical decision making",
      "year": 2015,
      "referenceCount": 44,
      "citationCount": 9,
      "authors": [
        {
          "authorId": "1397992876",
          "name": "J. O’Mahony"
        },
        {
          "authorId": "2116001",
          "name": "J. van Rosmalen"
        },
        {
          "authorId": "2889253",
          "name": "N. Mushkudiani"
        },
        {
          "authorId": "115422027",
          "name": "F.–W. Goudsmit"
        },
        {
          "authorId": "144446758",
          "name": "M. Eijkemans"
        },
        {
          "authorId": "6907225",
          "name": "E. Heijnsdijk"
        },
        {
          "authorId": "144517928",
          "name": "E. Steyerberg"
        },
        {
          "authorId": "2231719524",
          "name": "J. Habbema"
        }
      ]
    },
    {
      "paperId": "2349bc0ef130dbd51a8d88b5899efa3d26a32cc8",
      "externalIds": {
        "MAG": "2200392332",
        "CorpusId": 124399401
      },
      "url": "https://www.semanticscholar.org/paper/2349bc0ef130dbd51a8d88b5899efa3d26a32cc8",
      "title": "Problems in Network Modeling: Estimating Edges and Community Detection",
      "venue": "",
      "year": 2015,
      "referenceCount": 116,
      "citationCount": 0,
      "authors": [
        {
          "authorId": "2155514764",
          "name": "Ying Wang"
        }
      ]
    },
    {
      "paperId": "eb2c4eb099754cce502120f32fd8e06bea326f5a",
      "externalIds": {
        "MAG": "1916905410",
        "DOI": "10.1073/pnas.1511921112",
        "CorpusId": 12036150,
        "PubMed": "26438840"
      },
      "url": "https://www.semanticscholar.org/paper/eb2c4eb099754cce502120f32fd8e06bea326f5a",
      "title": "Optofluidic wavelength division multiplexing for single-virus detection",
      "venue": "Proceedings of the National Academy of Sciences of the United States of America",
      "year": 2015,
      "referenceCount": 35,
      "citationCount": 88,
      "authors": [
        {
          "authorId": "4861360",
          "name": "D. Ozcelik"
        },
        {
          "authorId": "30701758",
          "name": "J. Parks"
        },
        {
          "authorId": "32508942",
          "name": "T. Wall"
        },
        {
          "authorId": "2217244",
          "name": "M. Stott"
        },
        {
          "authorId": "153420337",
          "name": "H. Cai"
        },
        {
          "authorId": "50195113",
          "name": "J. Parks"
        },
        {
          "authorId": "35068564",
          "name": "A. Hawkins"
        },
        {
          "authorId": "2107396193",
          "name": "H. Schmidt"
        }
      ]
    },
    {
      "paperId": "8b1b16ee5d1cffcb6cc75dc4cdcc304cc342e437",
      "externalIds": {
        "MAG": "2002009109",
        "PubMedCentral": "4342230",
        "DOI": "10.1371/journal.pone.0117983",
        "CorpusId": 14510567,
        "PubMed": "25719557"
      },
      "url": "https://www.semanticscholar.org/paper/8b1b16ee5d1cffcb6cc75dc4cdcc304cc342e437",
      "title": "The Use of a Two-Tiered Testing Strategy for the Simultaneous Detection of Small EGFR Mutations and EGFR Amplification in Lung Cancer",
      "venue": "PLoS ONE",
      "year": 2015,
      "referenceCount": 33,
      "citationCount": 31,
      "authors": [
        {
          "authorId": "4063399",
          "name": "M. Lewandowska"
        },
        {
          "authorId": "6323036",
          "name": "Karol Czubak"
        },
        {
          "authorId": "6111081",
          "name": "K. Klonowska"
        },
        {
          "authorId": "3516475",
          "name": "W. Jóźwicki"
        },
        {
          "authorId": "3932996",
          "name": "J. Kowalewski"
        },
        {
          "authorId": "2568197",
          "name": "P. Kozłowski"
        }
      ]
    },
    {
      "paperId": "ffddee266cca7c4f564d8d4d091c5f03ad052318",
      "externalIds": {
        "ArXiv": "1509.00755",
        "MAG": "2233681469",
        "PubMedCentral": "4713231",
        "DBLP": "journals/ploscb/GerardinBHMEW16",
        "DOI": "10.1371/journal.pcbi.1004707",
        "CorpusId": 1090774,
        "PubMed": "26764905"
      },
      "url": "https://www.semanticscholar.org/paper/ffddee266cca7c4f564d8d4d091c5f03ad052318",
      "title": "Optimal Population-Level Infection Detection Strategies for Malaria Control and Elimination in a Spatial Model of Malaria Transmission",
      "venue": "PLoS Comput. Biol.",
      "year": 2015,
      "referenceCount": 55,
      "citationCount": 41,
      "authors": [
        {
          "authorId": "3371994",
          "name": "J. Gerardin"
        },
        {
          "authorId": "3377650",
          "name": "C. Bever"
        },
        {
          "authorId": "3372503",
          "name": "B. Hamainza"
        },
        {
          "authorId": "47805513",
          "name": "John M. Miller"
        },
        {
          "authorId": "1979314",
          "name": "P. Eckhoff"
        },
        {
          "authorId": "2519028",
          "name": "E. Wenger"
        }
      ]
    },
    {
      "paperId": "5accf13631c45190aa78042cff17977cbf82ea04",
      "externalIds": {
        "MAG": "1995474806",
        "DOI": "10.1080/08897077.2014.987946",
        "CorpusId": 5080765,
        "PubMed": "25551337"
      },
      "url": "https://www.semanticscholar.org/paper/5accf13631c45190aa78042cff17977cbf82ea04",
      "title": "Development and Outcomes of A Text Messaging Tobacco Cessation Intervention with Urban Adolescents",
      "venue": "Substance Abuse",
      "year": 2015,
      "referenceCount": 32,
      "citationCount": 92,
      "authors": [
        {
          "authorId": "144837134",
          "name": "M. Mason"
        },
        {
          "authorId": "31717694",
          "name": "L. Campbell"
        },
        {
          "authorId": "2067038814",
          "name": "Thomas Way"
        },
        {
          "authorId": "1403667906",
          "name": "L. Keyser-Marcus"
        },
        {
          "authorId": "5351361",
          "name": "E. Benotsch"
        },
        {
          "authorId": "2571916",
          "name": "J. Mennis"
        },
        {
          "authorId": "2155703361",
          "name": "Jing Zhang"
        },
        {
          "authorId": "2105787998",
          "name": "Laura King"
        },
        {
          "authorId": "49897650",
          "name": "James C. May"
        },
        {
          "authorId": "1401023268",
          "name": "Daniel R Stembridge"
        }
      ]
    }
  ]
}