{
  "total": 115,
  "offset": 0,
  "next": 10,
  "data": [
    {
      "paperId": "f2b9c2099b98f12fb2b8ca486ff3af453578e09f",
      "externalIds": {
        "MAG": "2803972986",
        "DBLP": "conf/icml/Koriche18",
        "CorpusId": 51871602
      },
      "url": "https://www.semanticscholar.org/paper/f2b9c2099b98f12fb2b8ca486ff3af453578e09f",
      "title": "Compiling Combinatorial Prediction Games",
      "venue": "International Conference on Machine Learning",
      "year": 2018,
      "referenceCount": 37,
      "citationCount": 3,
      "authors": [
        {
          "authorId": "1965261",
          "name": "F. Koriche"
        }
      ]
    },
    {
      "paperId": "4369e9f555ce331265970790f9e674d7e29b0d72",
      "externalIds": {
        "ArXiv": "1105.4871",
        "DBLP": "journals/jmlr/AudibertBL11",
        "MAG": "2951667255",
        "CorpusId": 11985074
      },
      "url": "https://www.semanticscholar.org/paper/4369e9f555ce331265970790f9e674d7e29b0d72",
      "title": "Minimax Policies for Combinatorial Prediction Games",
      "venue": "Annual Conference Computational Learning Theory",
      "year": 2011,
      "referenceCount": 19,
      "citationCount": 85,
      "authors": [
        {
          "authorId": "3015507",
          "name": "Jean-Yves Audibert"
        },
        {
          "authorId": "1815542",
          "name": "Sébastien Bubeck"
        },
        {
          "authorId": "1755694",
          "name": "G. Lugosi"
        }
      ]
    },
    {
      "paperId": "40d6fd179a6f1204a1f4f235e22a664b1d55cbce",
      "externalIds": {
        "DOI": "10.1007/s12613-025-3179-6",
        "CorpusId": 283228374
      },
      "url": "https://www.semanticscholar.org/paper/40d6fd179a6f1204a1f4f235e22a664b1d55cbce",
      "title": "Comprehensive status evaluation and prediction of blast furnace based on cascade system and combined model",
      "venue": "International Journal of Minerals, Metallurgy, and Materials",
      "year": 2025,
      "referenceCount": 38,
      "citationCount": 1,
      "authors": [
        {
          "authorId": "2204446570",
          "name": "Zhen Zhang"
        },
        {
          "authorId": "2220036987",
          "name": "Jue Tang"
        },
        {
          "authorId": "2153817682",
          "name": "Quan Shi"
        },
        {
          "authorId": "2266895824",
          "name": "Mansheng Chu"
        },
        {
          "authorId": "2108555209",
          "name": "Mingyu Wang"
        },
        {
          "authorId": "2346483024",
          "name": "Zhi-feng Zhang"
        }
      ]
    },
    {
      "paperId": "a259f89a3d47a0b1554813ec265727f7c1263c54",
      "externalIds": {
        "DOI": "10.55549/epstem.1175",
        "CorpusId": 283516488
      },
      "url": "https://www.semanticscholar.org/paper/a259f89a3d47a0b1554813ec265727f7c1263c54",
      "title": "Automated Prediction of Sudoku Puzzle Difficulty Using Convolutional Neural Networks",
      "venue": "The eurasia proceedings of science, technology, engineering & mathematics",
      "year": 2025,
      "referenceCount": 5,
      "citationCount": 0,
      "authors": [
        {
          "authorId": "118901788",
          "name": "Majlinda Axhiu"
        }
      ]
    },
    {
      "paperId": "4ced48270275719f308d9d2de737a92d911b2b0b",
      "externalIds": {
        "DOI": "10.22581/muet1982.2203.13",
        "CorpusId": 251416284
      },
      "url": "https://www.semanticscholar.org/paper/4ced48270275719f308d9d2de737a92d911b2b0b",
      "title": "A regression-based rating prediction model for mobile-based puzzle games",
      "venue": "Mehran University Research Journal of Engineering and Technology",
      "year": 2022,
      "referenceCount": 0,
      "citationCount": 0,
      "authors": [
        {
          "authorId": "2143236356",
          "name": "M. Gulzar"
        },
        {
          "authorId": "3219413",
          "name": "Ali Afzal Malik"
        },
        {
          "authorId": "2148300658",
          "name": "Arshad Ali"
        }
      ]
    },
    {
      "paperId": "2b67216f1803a8e198a784e95b91f8471298abc2",
      "externalIds": {
        "DBLP": "journals/corr/abs-2505-06322",
        "ArXiv": "2505.06322",
        "DOI": "10.48550/arXiv.2505.06322",
        "CorpusId": 278501355
      },
      "url": "https://www.semanticscholar.org/paper/2b67216f1803a8e198a784e95b91f8471298abc2",
      "title": "Quantum strategies, error bounds, optimality, and duality gaps for multiplayer XOR, XOR*, compiled XOR, XOR*, and strong parallel repetiton of XOR, XOR*, and FFL games",
      "venue": "arXiv.org",
      "year": 2025,
      "referenceCount": 0,
      "citationCount": 1,
      "authors": [
        {
          "authorId": "2036756949",
          "name": "Pete Rigas"
        }
      ]
    },
    {
      "paperId": "95c5e02c47d945f97daf7f09183ee8fe38a2f445",
      "externalIds": {
        "DOI": "10.1108/intr-09-2024-1365",
        "CorpusId": 282859700
      },
      "url": "https://www.semanticscholar.org/paper/95c5e02c47d945f97daf7f09183ee8fe38a2f445",
      "title": "Unveiling viral marketing dynamics in online social networks: insights from China's otome games and explainable predictive modeling",
      "venue": "Internet Research",
      "year": 2025,
      "referenceCount": 55,
      "citationCount": 1,
      "authors": [
        {
          "authorId": "2364638206",
          "name": "Syrios Siyao Li"
        },
        {
          "authorId": "2364875153",
          "name": "Sufang Wang"
        },
        {
          "authorId": "2376668763",
          "name": "M. K. O. Lee"
        }
      ]
    },
    {
      "paperId": "ced24e117fdf6dde916cf0840094819d9d27a476",
      "externalIds": {
        "DBLP": "journals/corr/abs-2310-17651",
        "ArXiv": "2310.17651",
        "DOI": "10.48550/arXiv.2310.17651",
        "CorpusId": 264491048
      },
      "url": "https://www.semanticscholar.org/paper/ced24e117fdf6dde916cf0840094819d9d27a476",
      "title": "High-Dimensional Prediction for Sequential Decision Making",
      "venue": "arXiv.org",
      "year": 2023,
      "referenceCount": 0,
      "citationCount": 38,
      "authors": [
        {
          "authorId": "82274934",
          "name": "Georgy Noarov"
        },
        {
          "authorId": "2167579781",
          "name": "Ramya Ramalingam"
        },
        {
          "authorId": "2343745931",
          "name": "Aaron Roth"
        },
        {
          "authorId": "2261890646",
          "name": "Stephan Xie"
        }
      ]
    },
    {
      "paperId": "7d266949e625bdadf6d1dff5d4cb860c61153890",
      "externalIds": {
        "MAG": "2156739678",
        "DBLP": "journals/corr/KoolenE15",
        "ArXiv": "1502.08009",
        "CorpusId": 11434172
      },
      "url": "https://www.semanticscholar.org/paper/7d266949e625bdadf6d1dff5d4cb860c61153890",
      "title": "Second-order Quantile Methods for Experts and Combinatorial Games",
      "venue": "Annual Conference Computational Learning Theory",
      "year": 2015,
      "referenceCount": 40,
      "citationCount": 114,
      "authors": [
        {
          "authorId": "1806449",
          "name": "Wouter M. Koolen"
        },
        {
          "authorId": "1775951",
          "name": "T. Erven"
        }
      ]
    },
    {
      "paperId": "c8836ca4839ce582e6357ce2f4eb769442db64a9",
      "externalIds": {
        "PubMedCentral": "5587804",
        "MAG": "2735757115",
        "DOI": "10.1093/nar/gkx605",
        "CorpusId": 2980279,
        "PubMed": "28911111"
      },
      "url": "https://www.semanticscholar.org/paper/c8836ca4839ce582e6357ce2f4eb769442db64a9",
      "title": "Combinatorial ensemble miRNA target prediction of co-regulation networks with non-prediction data",
      "venue": "Nucleic Acids Research",
      "year": 2017,
      "referenceCount": 76,
      "citationCount": 21,
      "authors": [
        {
          "authorId": "25723060",
          "name": "J. A. Davis"
        },
        {
          "authorId": "40077935",
          "name": "Sita J. Saunders"
        },
        {
          "authorId": "2045881",
          "name": "Martin Mann"
        },
        {
          "authorId": "2959033",
          "name": "R. Backofen"
        }
      ]
    }
  ]
}