{
  "total": 23,
  "offset": 0,
  "next": 10,
  "data": [
    {
      "paperId": "b7cf49e30355633af2db19f35189410c8515e91f",
      "externalIds": {
        "DBLP": "journals/corr/GuptaAGN15",
        "MAG": "2950826343",
        "ArXiv": "1502.02551",
        "CorpusId": 2547043
      },
      "url": "https://www.semanticscholar.org/paper/b7cf49e30355633af2db19f35189410c8515e91f",
      "title": "Deep Learning with Limited Numerical Precision",
      "venue": "International Conference on Machine Learning",
      "year": 2015,
      "referenceCount": 33,
      "citationCount": 2163,
      "authors": [
        {
          "authorId": "2116011472",
          "name": "Suyog Gupta"
        },
        {
          "authorId": "31651864",
          "name": "A. Agrawal"
        },
        {
          "authorId": "33678523",
          "name": "K. Gopalakrishnan"
        },
        {
          "authorId": "32967358",
          "name": "P. Narayanan"
        }
      ]
    },
    {
      "paperId": "7ab57b8e111f67697eadd30e661c04733c1aa830",
      "externalIds": {
        "CorpusId": 197637411
      },
      "url": "https://www.semanticscholar.org/paper/7ab57b8e111f67697eadd30e661c04733c1aa830",
      "title": "Reduced-Precision Memory Value Approximation for Deep Learning",
      "venue": "",
      "year": 2015,
      "referenceCount": 49,
      "citationCount": 22,
      "authors": [
        {
          "authorId": "2196277",
          "name": "Zhaoxia Deng"
        },
        {
          "authorId": "2110086543",
          "name": "Cong Xu"
        },
        {
          "authorId": "38183424",
          "name": "Qiong Cai"
        },
        {
          "authorId": "1789618",
          "name": "P. Faraboschi"
        },
        {
          "authorId": "46240548",
          "name": "Hewlett Packard"
        }
      ]
    },
    {
      "paperId": "24f5304b80ccd0bcc7ed3603b5b131c3c9bcab88",
      "externalIds": {
        "MAG": "2470130773",
        "DBLP": "conf/amia/ErtosunR15",
        "CorpusId": 3379960,
        "PubMed": "26958289"
      },
      "url": "https://www.semanticscholar.org/paper/24f5304b80ccd0bcc7ed3603b5b131c3c9bcab88",
      "title": "Automated Grading of Gliomas using Deep Learning in Digital Pathology Images: A modular approach with ensemble of convolutional neural networks",
      "venue": "American Medical Informatics Association Annual Symposium",
      "year": 2015,
      "referenceCount": 0,
      "citationCount": 245,
      "authors": [
        {
          "authorId": "3466461",
          "name": "M. G. Ertosun"
        },
        {
          "authorId": "143648587",
          "name": "D. Rubin"
        }
      ]
    },
    {
      "paperId": "8a872b185d9c8b9550c0a40e78a5031b55e46fd0",
      "externalIds": {
        "MAG": "1596035946",
        "PubMedCentral": "4496577",
        "DOI": "10.3389/fnins.2015.00222",
        "CorpusId": 1826506,
        "PubMed": "26217169"
      },
      "url": "https://www.semanticscholar.org/paper/8a872b185d9c8b9550c0a40e78a5031b55e46fd0",
      "title": "Robustness of spiking Deep Belief Networks to noise and reduced bit precision of neuro-inspired hardware platforms",
      "venue": "Frontiers in Neuroscience",
      "year": 2015,
      "referenceCount": 71,
      "citationCount": 107,
      "authors": [
        {
          "authorId": "1760989",
          "name": "Evangelos Stromatias"
        },
        {
          "authorId": "145243593",
          "name": "Daniel Neil"
        },
        {
          "authorId": "144578436",
          "name": "Michael Pfeiffer"
        },
        {
          "authorId": "3008126",
          "name": "F. Galluppi"
        },
        {
          "authorId": "144409615",
          "name": "S. Furber"
        },
        {
          "authorId": "1704961",
          "name": "Shih-Chii Liu"
        }
      ]
    },
    {
      "paperId": "98773f086ff15e13c6046d91d1ffaf067454f367",
      "externalIds": {
        "ArXiv": "1511.04668",
        "DBLP": "journals/corr/KimC15a",
        "MAG": "2218761850",
        "CorpusId": 1574861
      },
      "url": "https://www.semanticscholar.org/paper/98773f086ff15e13c6046d91d1ffaf067454f367",
      "title": "Deep Neural Network for Real-Time Autonomous Indoor Navigation",
      "venue": "arXiv.org",
      "year": 2015,
      "referenceCount": 24,
      "citationCount": 124,
      "authors": [
        {
          "authorId": "2155183059",
          "name": "Dong Ki Kim"
        },
        {
          "authorId": "40894914",
          "name": "Tsuhan Chen"
        }
      ]
    },
    {
      "paperId": "98a747dbbf17705e926c267e34dc230e02d2b5eb",
      "externalIds": {
        "DBLP": "conf/csedu/BarrosMBT15",
        "CorpusId": 28927053
      },
      "url": "https://www.semanticscholar.org/paper/98a747dbbf17705e926c267e34dc230e02d2b5eb",
      "title": "Blended Learning in Multi-disciplinary Classrooms - Experiments in a Lecture about Numerical Analysis",
      "venue": "International Conference on Computer Supported Education",
      "year": 2015,
      "referenceCount": 22,
      "citationCount": 2,
      "authors": [
        {
          "authorId": "35237909",
          "name": "M. Barros"
        },
        {
          "authorId": "144444888",
          "name": "A. Moura"
        },
        {
          "authorId": "1844817",
          "name": "Laurent Borgman"
        },
        {
          "authorId": "3141318",
          "name": "U. Terton"
        }
      ]
    },
    {
      "paperId": "12bde7040df30fd092d65f9b41702bcc09396441",
      "externalIds": {
        "DBLP": "journals/ejivp/RochaS15",
        "MAG": "2102457677",
        "DOI": "10.1186/s13640-015-0080-7",
        "CorpusId": 256249702
      },
      "url": "https://www.semanticscholar.org/paper/12bde7040df30fd092d65f9b41702bcc09396441",
      "title": "Large-scale learning for media understanding",
      "venue": "EURASIP Journal on Image and Video Processing",
      "year": 2015,
      "referenceCount": 16,
      "citationCount": 0,
      "authors": [
        {
          "authorId": "2064483676",
          "name": "Anderson Rocha"
        },
        {
          "authorId": "2613438",
          "name": "W. Scheirer"
        }
      ]
    },
    {
      "paperId": "eb657cd8729773cd9a52ed31c68f550be1f86323",
      "externalIds": {
        "MAG": "978857790",
        "DBLP": "journals/eswa/VarolS15",
        "DOI": "10.1016/j.eswa.2015.06.013",
        "CorpusId": 27946392
      },
      "url": "https://www.semanticscholar.org/paper/eb657cd8729773cd9a52ed31c68f550be1f86323",
      "title": "Efficient large-scale action recognition in videos using extreme learning machines",
      "venue": "Expert systems with applications",
      "year": 2015,
      "referenceCount": 55,
      "citationCount": 36,
      "authors": [
        {
          "authorId": "2285565592",
          "name": "G. Varol"
        },
        {
          "authorId": "1764521",
          "name": "A. A. Salah"
        }
      ]
    },
    {
      "paperId": "b1b28c63e29400818979a6b1d39da196b7f55bc5",
      "externalIds": {
        "CorpusId": 18302579
      },
      "url": "https://www.semanticscholar.org/paper/b1b28c63e29400818979a6b1d39da196b7f55bc5",
      "title": "Learning the topology of the genome from protein-DNA interactions",
      "venue": "",
      "year": 2015,
      "referenceCount": 7,
      "citationCount": 0,
      "authors": [
        {
          "authorId": "33298776",
          "name": "Suhas S. P. Rao"
        }
      ]
    },
    {
      "paperId": "799937d569ba180aae3e6eaa4fc16ba319d6e223",
      "externalIds": {
        "MAG": "2280296062",
        "DOI": "10.5220/0005409001960204",
        "CorpusId": 61603146
      },
      "url": "https://www.semanticscholar.org/paper/799937d569ba180aae3e6eaa4fc16ba319d6e223",
      "title": "Blended Learning in Multi-disciplinary Classrooms",
      "venue": "International Conference on Computer Supported Education",
      "year": 2015,
      "referenceCount": 0,
      "citationCount": 0,
      "authors": [
        {
          "authorId": "35237909",
          "name": "M. Barros"
        },
        {
          "authorId": "144444888",
          "name": "A. Moura"
        },
        {
          "authorId": "1844817",
          "name": "Laurent Borgman"
        },
        {
          "authorId": "3141318",
          "name": "U. Terton"
        }
      ]
    }
  ]
}