{
  "total": 341649,
  "offset": 0,
  "next": 10,
  "data": [
    {
      "paperId": "37088dec26231bc5a4937054ebc862bb83a3db4d",
      "externalIds": {
        "DBLP": "journals/corr/PritzelUSBVHWB17",
        "MAG": "2594466397",
        "ArXiv": "1703.01988",
        "CorpusId": 15938338
      },
      "url": "https://www.semanticscholar.org/paper/37088dec26231bc5a4937054ebc862bb83a3db4d",
      "title": "Neural Episodic Control",
      "venue": "International Conference on Machine Learning",
      "year": 2017,
      "referenceCount": 47,
      "citationCount": 391,
      "authors": [
        {
          "authorId": "2064022681",
          "name": "Alexander Pritzel"
        },
        {
          "authorId": "2064430351",
          "name": "Benigno Uria"
        },
        {
          "authorId": "2059763631",
          "name": "Sriram Srinivasan"
        },
        {
          "authorId": "2064645067",
          "name": "A. Badia"
        },
        {
          "authorId": "2065708175",
          "name": "Oriol Vinyals"
        },
        {
          "authorId": "2064163661",
          "name": "Demis Hassabis"
        },
        {
          "authorId": "2064632007",
          "name": "Daan Wierstra"
        },
        {
          "authorId": "2065066249",
          "name": "Charles Blundell"
        }
      ]
    },
    {
      "paperId": "4875b7cdb20e23c4ada3ef58d48389b0c76052e3",
      "externalIds": {
        "ArXiv": "2301.11490",
        "DBLP": "conf/iclr/LiZHX0ZSC023",
        "DOI": "10.48550/arXiv.2301.11490",
        "CorpusId": 256358479
      },
      "url": "https://www.semanticscholar.org/paper/4875b7cdb20e23c4ada3ef58d48389b0c76052e3",
      "title": "Neural Episodic Control with State Abstraction",
      "venue": "International Conference on Learning Representations",
      "year": 2023,
      "referenceCount": 65,
      "citationCount": 21,
      "authors": [
        {
          "authorId": "2118393672",
          "name": "Zhuo Li"
        },
        {
          "authorId": "47770210",
          "name": "Derui Zhu"
        },
        {
          "authorId": "1776850",
          "name": "Yujing Hu"
        },
        {
          "authorId": "49419199",
          "name": "Xiaofei Xie"
        },
        {
          "authorId": "143828252",
          "name": "L. Ma"
        },
        {
          "authorId": "1752775197",
          "name": "Yan Zheng"
        },
        {
          "authorId": "2157996736",
          "name": "Yan Song"
        },
        {
          "authorId": "152829349",
          "name": "Yingfeng Chen"
        },
        {
          "authorId": "145777691",
          "name": "Jianjun Zhao"
        }
      ]
    },
    {
      "paperId": "c7e74f5f6285c5d7912594fc18055f0e54e19cd7",
      "externalIds": {
        "PubMedCentral": "11219751",
        "DOI": "10.1038/s41598-024-65687-w",
        "CorpusId": 270922675,
        "PubMed": "38956201"
      },
      "url": "https://www.semanticscholar.org/paper/c7e74f5f6285c5d7912594fc18055f0e54e19cd7",
      "title": "Temporally extended successor feature neural episodic control",
      "venue": "Scientific Reports",
      "year": 2024,
      "referenceCount": 60,
      "citationCount": 1,
      "authors": [
        {
          "authorId": "1762522",
          "name": "Xianchao Zhu"
        }
      ]
    },
    {
      "paperId": "3d1b7d43353c648cfdc5de4822be2627fa721601",
      "externalIds": {
        "DBLP": "journals/access/LeeSSKSKK21",
        "DOI": "10.1109/ACCESS.2021.3131714",
        "CorpusId": 244955831
      },
      "url": "https://www.semanticscholar.org/paper/3d1b7d43353c648cfdc5de4822be2627fa721601",
      "title": "Neural Episodic Control-based Adaptive Modulation and Coding Scheme for Inter-satellite Communication Link",
      "venue": "IEEE Access",
      "year": 2021,
      "referenceCount": 43,
      "citationCount": 6,
      "authors": [
        {
          "authorId": "2157097337",
          "name": "Donggu Lee"
        },
        {
          "authorId": "1663714115",
          "name": "Youngghyu Sun"
        },
        {
          "authorId": "27736444",
          "name": "Isaac Sim"
        },
        {
          "authorId": "2200087571",
          "name": "Jae-Hyun Kim"
        },
        {
          "authorId": "144081867",
          "name": "Y. Shin"
        },
        {
          "authorId": "34841193",
          "name": "Dong In Kim"
        },
        {
          "authorId": "2198488846",
          "name": "Jin Young Kim"
        }
      ]
    },
    {
      "paperId": "ca7098060da503f958394d856e5ac4fa86a2af3c",
      "externalIds": {
        "DBLP": "journals/corr/abs-2111-03110",
        "ArXiv": "2111.03110",
        "CorpusId": 243832895
      },
      "url": "https://www.semanticscholar.org/paper/ca7098060da503f958394d856e5ac4fa86a2af3c",
      "title": "Successor Feature Neural Episodic Control",
      "venue": "arXiv.org",
      "year": 2021,
      "referenceCount": 47,
      "citationCount": 3,
      "authors": [
        {
          "authorId": "2139659552",
          "name": "David Emukpere"
        },
        {
          "authorId": "1382657362",
          "name": "Xavier Alameda-Pineda"
        },
        {
          "authorId": "9252114",
          "name": "Chris Reinke"
        }
      ]
    },
    {
      "paperId": "120dc095646f3034c9f48a48f880169c266e567e",
      "externalIds": {
        "MAG": "2896007563",
        "DOI": "10.23919/CHICC.2018.8483919",
        "CorpusId": 52931380
      },
      "url": "https://www.semanticscholar.org/paper/120dc095646f3034c9f48a48f880169c266e567e",
      "title": "Deep Reinforcement Learning Combustion Optimization System Using Synchronous Neural Episodic Control",
      "venue": "Cybersecurity and Cyberforensics Conference",
      "year": 2018,
      "referenceCount": 21,
      "citationCount": 4,
      "authors": [
        {
          "authorId": "47585216",
          "name": "Yin Cheng"
        },
        {
          "authorId": "51437554",
          "name": "Luobao Zou"
        },
        {
          "authorId": "40774230",
          "name": "Zhiwei Zhuang"
        },
        {
          "authorId": "9145989",
          "name": "Zhijian Sun"
        },
        {
          "authorId": "143715293",
          "name": "W. Zhang"
        }
      ]
    },
    {
      "paperId": "fe46b8e91a30814c3813d1a1fe3ddfbaddc5ee3c",
      "externalIds": {
        "DBLP": "conf/acml/NishioY19",
        "ArXiv": "1904.01790",
        "MAG": "2991196840",
        "CorpusId": 102487640
      },
      "url": "https://www.semanticscholar.org/paper/fe46b8e91a30814c3813d1a1fe3ddfbaddc5ee3c",
      "title": "Random Projection in Neural Episodic Control",
      "venue": "Asian Conference on Machine Learning",
      "year": 2019,
      "referenceCount": 33,
      "citationCount": 2,
      "authors": [
        {
          "authorId": "35592630",
          "name": "Daichi Nishio"
        },
        {
          "authorId": "34989052",
          "name": "S. Yamane"
        }
      ]
    },
    {
      "paperId": "dee6a64e7812c76863bbfae17c971bfd24d85512",
      "externalIds": {
        "DBLP": "conf/ijcnn/WuHSZ21",
        "DOI": "10.1109/IJCNN52387.2021.9533677",
        "CorpusId": 237598513
      },
      "url": "https://www.semanticscholar.org/paper/dee6a64e7812c76863bbfae17c971bfd24d85512",
      "title": "Low-Resource Neural Machine Translation with Neural Episodic Control",
      "venue": "IEEE International Joint Conference on Neural Network",
      "year": 2021,
      "referenceCount": 16,
      "citationCount": 0,
      "authors": [
        {
          "authorId": "1992742361",
          "name": "Nier Wu"
        },
        {
          "authorId": "3257326",
          "name": "H. Hou"
        },
        {
          "authorId": "2115306932",
          "name": "Shuo Sun"
        },
        {
          "authorId": "2152973688",
          "name": "Wei Zheng"
        }
      ]
    },
    {
      "paperId": "b929de5591447e84e077a349b3aeb41a29f3182e",
      "externalIds": {
        "ArXiv": "1801.01968",
        "MAG": "2962831590",
        "DBLP": "journals/corr/abs-1801-01968",
        "DOI": "10.1109/COMPSAC.2018.00075",
        "CorpusId": 35710314
      },
      "url": "https://www.semanticscholar.org/paper/b929de5591447e84e077a349b3aeb41a29f3182e",
      "title": "Faster Deep Q-Learning Using Neural Episodic Control",
      "venue": "Annual International Computer Software and Applications Conference",
      "year": 2018,
      "referenceCount": 18,
      "citationCount": 10,
      "authors": [
        {
          "authorId": "35592630",
          "name": "Daichi Nishio"
        },
        {
          "authorId": "34989052",
          "name": "S. Yamane"
        }
      ]
    },
    {
      "paperId": "165c063b9984dea2b5b39119a90334ff31285289",
      "externalIds": {
        "CorpusId": 55919648
      },
      "url": "https://www.semanticscholar.org/paper/165c063b9984dea2b5b39119a90334ff31285289",
      "title": "Embedding Cognitive Map in Neural Episodic Control 松森 匠哉",
      "venue": "",
      "year": 2017,
      "referenceCount": 10,
      "citationCount": 1,
      "authors": [
        {
          "authorId": "52187772",
          "name": "Shoya Matsumori"
        },
        {
          "authorId": "28898476",
          "name": "Takuma Seno"
        },
        {
          "authorId": "2057821998",
          "name": "Toshiki Kikuchi"
        },
        {
          "authorId": "31653769",
          "name": "Yusuke Takimoto"
        },
        {
          "authorId": "1603907067",
          "name": "Masahiko Osawa"
        },
        {
          "authorId": "1752970",
          "name": "M. Imai"
        }
      ]
    }
  ]
}