{
  "total": 190,
  "offset": 0,
  "next": 10,
  "data": [
    {
      "paperId": "f6cbf83e1ce3b099d656d2346b261d5ef7f2b62e",
      "externalIds": {
        "DBLP": "conf/icml/OordLBSVKDLCSCG18",
        "MAG": "2950362437",
        "ArXiv": "1711.10433",
        "CorpusId": 27706557
      },
      "url": "https://www.semanticscholar.org/paper/f6cbf83e1ce3b099d656d2346b261d5ef7f2b62e",
      "title": "Parallel WaveNet: Fast High-Fidelity Speech Synthesis",
      "venue": "International Conference on Machine Learning",
      "year": 2017,
      "referenceCount": 31,
      "citationCount": 901,
      "authors": [
        {
          "authorId": "3422336",
          "name": "Aäron van den Oord"
        },
        {
          "authorId": "2144417088",
          "name": "Yazhe Li"
        },
        {
          "authorId": "2256699276",
          "name": "Igor Babuschkin"
        },
        {
          "authorId": "34838386",
          "name": "K. Simonyan"
        },
        {
          "authorId": "1689108",
          "name": "O. Vinyals"
        },
        {
          "authorId": "2645384",
          "name": "K. Kavukcuoglu"
        },
        {
          "authorId": "47568983",
          "name": "George van den Driessche"
        },
        {
          "authorId": "49860549",
          "name": "Edward Lockhart"
        },
        {
          "authorId": "38712164",
          "name": "Luis C. Cobo"
        },
        {
          "authorId": "3205302",
          "name": "Florian Stimberg"
        },
        {
          "authorId": "2670752",
          "name": "Norman Casagrande"
        },
        {
          "authorId": "2401609",
          "name": "Dominik Grewe"
        },
        {
          "authorId": "30155667",
          "name": "Seb Noury"
        },
        {
          "authorId": "48373216",
          "name": "S. Dieleman"
        },
        {
          "authorId": "152585800",
          "name": "Erich Elsen"
        },
        {
          "authorId": "2583391",
          "name": "Nal Kalchbrenner"
        },
        {
          "authorId": "1691713",
          "name": "H. Zen"
        },
        {
          "authorId": "1753223",
          "name": "Alex Graves"
        },
        {
          "authorId": "143776287",
          "name": "Helen King"
        },
        {
          "authorId": "2066221078",
          "name": "T. Walters"
        },
        {
          "authorId": "143813532",
          "name": "Dan Belov"
        },
        {
          "authorId": "48987704",
          "name": "D. Hassabis"
        }
      ]
    },
    {
      "paperId": "5ce13e0a1e551395f39a52f651260ce5067dc42d",
      "externalIds": {
        "DOI": "10.1587/transinf.2025edp7142",
        "CorpusId": 283942758
      },
      "url": "https://www.semanticscholar.org/paper/5ce13e0a1e551395f39a52f651260ce5067dc42d",
      "title": "SiFi-GAN: Combining Source-Filter Modeling and Upsampling-Based High-Fidelity Neural Vocoder for Fast and Pitch-Controllable Speech Synthesis",
      "venue": "IEICE Transactions on Information and Systems",
      "year": 2025,
      "referenceCount": 0,
      "citationCount": 0,
      "authors": [
        {
          "authorId": "2101807814",
          "name": "Reo Yoneyama"
        },
        {
          "authorId": "1726559",
          "name": "Tomoki Toda"
        }
      ]
    },
    {
      "paperId": "cf7c3ca13ea75947a33a9d981cc548f5c4c303ce",
      "externalIds": {
        "DBLP": "journals/corr/abs-2510-16718",
        "ArXiv": "2510.16718",
        "DOI": "10.48550/arXiv.2510.16718",
        "CorpusId": 282210152
      },
      "url": "https://www.semanticscholar.org/paper/cf7c3ca13ea75947a33a9d981cc548f5c4c303ce",
      "title": "U-Codec: Ultra Low Frame-rate Neural Speech Codec for Fast High-fidelity Speech Generation",
      "venue": "arXiv.org",
      "year": 2025,
      "referenceCount": 50,
      "citationCount": 2,
      "authors": [
        {
          "authorId": "2383192988",
          "name": "Xusheng Yang"
        },
        {
          "authorId": "2382829003",
          "name": "Long Zhou"
        },
        {
          "authorId": "2375394093",
          "name": "Wenfu Wang"
        },
        {
          "authorId": "2387651054",
          "name": "Kai Hu"
        },
        {
          "authorId": "2387642131",
          "name": "Shulin Feng"
        },
        {
          "authorId": "2381400108",
          "name": "Chenxing Li"
        },
        {
          "authorId": "2376399313",
          "name": "Meng Yu"
        },
        {
          "authorId": "2383104026",
          "name": "Dong Yu"
        },
        {
          "authorId": "2382931143",
          "name": "Yuexian Zou"
        }
      ]
    },
    {
      "paperId": "4e468d3da1797d791db8d514d695b183acb027ee",
      "externalIds": {
        "MAG": "3092028330",
        "ArXiv": "2010.05646",
        "DBLP": "journals/corr/abs-2010-05646",
        "CorpusId": 222291664
      },
      "url": "https://www.semanticscholar.org/paper/4e468d3da1797d791db8d514d695b183acb027ee",
      "title": "HiFi-GAN: Generative Adversarial Networks for Efficient and High Fidelity Speech Synthesis",
      "venue": "Neural Information Processing Systems",
      "year": 2020,
      "referenceCount": 28,
      "citationCount": 2610,
      "authors": [
        {
          "authorId": "1712238254",
          "name": "Jungil Kong"
        },
        {
          "authorId": "94862572",
          "name": "Jaehyeon Kim"
        },
        {
          "authorId": "1703883959",
          "name": "Jaekyoung Bae"
        }
      ]
    },
    {
      "paperId": "ce0f81cac7a002bdb514d80f1e2736e7089976d5",
      "externalIds": {
        "DBLP": "conf/acl/Huang0JCLZ23",
        "DOI": "10.18653/v1/2023.findings-acl.437",
        "CorpusId": 259858814
      },
      "url": "https://www.semanticscholar.org/paper/ce0f81cac7a002bdb514d80f1e2736e7089976d5",
      "title": "FastDiff 2: Revisiting and Incorporating GANs and Diffusion Models in High-Fidelity Speech Synthesis",
      "venue": "Annual Meeting of the Association for Computational Linguistics",
      "year": 2023,
      "referenceCount": 54,
      "citationCount": 17,
      "authors": [
        {
          "authorId": "2048021099",
          "name": "Rongjie Huang"
        },
        {
          "authorId": "1500435161",
          "name": "Yi Ren"
        },
        {
          "authorId": "2112347676",
          "name": "Ziyue Jiang"
        },
        {
          "authorId": "2113235801",
          "name": "Chenye Cui"
        },
        {
          "authorId": "48211720",
          "name": "Jinglin Liu"
        },
        {
          "authorId": "2156163667",
          "name": "Zhou Zhao"
        }
      ]
    },
    {
      "paperId": "741b94c28c7328b9b28a8a66ef91d19e661c7eb8",
      "externalIds": {
        "MAG": "3109064156",
        "ArXiv": "2011.12206",
        "CorpusId": 227151742
      },
      "url": "https://www.semanticscholar.org/paper/741b94c28c7328b9b28a8a66ef91d19e661c7eb8",
      "title": "TFGAN: Time and Frequency Domain Based Generative Adversarial Network for High-fidelity Speech Synthesis.",
      "venue": "",
      "year": 2020,
      "referenceCount": 20,
      "citationCount": 49,
      "authors": [
        {
          "authorId": "2056267702",
          "name": "Qiao Tian"
        },
        {
          "authorId": "2118050633",
          "name": "Yi Chen"
        },
        {
          "authorId": "7970122",
          "name": "Zewang Zhang"
        },
        {
          "authorId": "47896520",
          "name": "Heng Lu"
        },
        {
          "authorId": "2119323271",
          "name": "Linghui Chen"
        },
        {
          "authorId": "144206962",
          "name": "Lei Xie"
        },
        {
          "authorId": "2119052687",
          "name": "Shan Liu"
        }
      ]
    },
    {
      "paperId": "2dd00fd5769b25cda29187827111cac255a180e7",
      "externalIds": {
        "PubMedCentral": "11842752",
        "DOI": "10.1038/s41598-025-90507-0",
        "CorpusId": 276506921,
        "PubMed": "39979408"
      },
      "url": "https://www.semanticscholar.org/paper/2dd00fd5769b25cda29187827111cac255a180e7",
      "title": "High fidelity zero shot speaker adaptation in text to speech synthesis with denoising diffusion GAN",
      "venue": "Scientific Reports",
      "year": 2025,
      "referenceCount": 36,
      "citationCount": 3,
      "authors": [
        {
          "authorId": "48032696",
          "name": "Xiangchun Liu"
        },
        {
          "authorId": "2304621433",
          "name": "Xuan Ma"
        },
        {
          "authorId": "2310775199",
          "name": "Wei Song"
        },
        {
          "authorId": "2305605976",
          "name": "Yanghao Zhang"
        },
        {
          "authorId": "2323529619",
          "name": "Yi Zhang"
        }
      ]
    },
    {
      "paperId": "67b59158d4925767bb8e615d9ffa372384f8b81c",
      "externalIds": {
        "MAG": "3097895838",
        "ArXiv": "2005.07412",
        "DBLP": "conf/interspeech/HsuL20",
        "DOI": "10.21437/interspeech.2020-1736",
        "CorpusId": 218665500
      },
      "url": "https://www.semanticscholar.org/paper/67b59158d4925767bb8e615d9ffa372384f8b81c",
      "title": "WG-WaveNet: Real-Time High-Fidelity Speech Synthesis without GPU",
      "venue": "Interspeech",
      "year": 2020,
      "referenceCount": 24,
      "citationCount": 16,
      "authors": [
        {
          "authorId": "144162329",
          "name": "Po-Chun Hsu"
        },
        {
          "authorId": "1706104",
          "name": "Hung-yi Lee"
        }
      ]
    },
    {
      "paperId": "808eb389bb3df986b9f29f90b495782300cb62ca",
      "externalIds": {
        "ArXiv": "2506.03554",
        "DBLP": "conf/interspeech/YoneyamaKTYT25",
        "DOI": "10.48550/arXiv.2506.03554",
        "CorpusId": 279154745
      },
      "url": "https://www.semanticscholar.org/paper/808eb389bb3df986b9f29f90b495782300cb62ca",
      "title": "Comparative Analysis of Fast and High-Fidelity Neural Vocoders for Low-Latency Streaming Synthesis in Resource-Constrained Environments",
      "venue": "Interspeech",
      "year": 2025,
      "referenceCount": 40,
      "citationCount": 1,
      "authors": [
        {
          "authorId": "2101807814",
          "name": "Reo Yoneyama"
        },
        {
          "authorId": "2151858194",
          "name": "Masaya Kawamura"
        },
        {
          "authorId": "2098866402",
          "name": "Ryo Terashima"
        },
        {
          "authorId": "47146577",
          "name": "Ryuichi Yamamoto"
        },
        {
          "authorId": "1726559",
          "name": "Tomoki Toda"
        }
      ]
    },
    {
      "paperId": "bd1e693c8e16dda9d58ae7c74e85700cc7476c4d",
      "externalIds": {
        "DBLP": "journals/corr/abs-2602-11477",
        "ArXiv": "2602.11477",
        "DOI": "10.1609/aaai.v40i38.40464",
        "CorpusId": 285540452
      },
      "url": "https://www.semanticscholar.org/paper/bd1e693c8e16dda9d58ae7c74e85700cc7476c4d",
      "title": "SLD-L2S: Hierarchical Subspace Latent Diffusion for High-Fidelity Lip to Speech Synthesis",
      "venue": "AAAI Conference on Artificial Intelligence",
      "year": 2026,
      "referenceCount": 47,
      "citationCount": 0,
      "authors": [
        {
          "authorId": "2346700820",
          "name": "Yifan Liang"
        },
        {
          "authorId": "49779550",
          "name": "Andong Li"
        },
        {
          "authorId": "2381313599",
          "name": "Kang Yang"
        },
        {
          "authorId": "2116615187",
          "name": "Guochen Yu"
        },
        {
          "authorId": "116286816",
          "name": "Fangkun Liu"
        },
        {
          "authorId": "2316450085",
          "name": "Lingling Dai"
        },
        {
          "authorId": "2381133813",
          "name": "Xiaodong Li"
        },
        {
          "authorId": "40049534",
          "name": "C. Zheng"
        }
      ]
    }
  ]
}