{
  "total": 18,
  "offset": 0,
  "next": 10,
  "data": [
    {
      "paperId": "794e4d313a49820ec989c30dccfb826f5490d91f",
      "externalIds": {
        "MAG": "2951425793",
        "DBLP": "conf/icml/CohenDO18",
        "ArXiv": "1805.12591",
        "CorpusId": 49391749
      },
      "url": "https://www.semanticscholar.org/paper/794e4d313a49820ec989c30dccfb826f5490d91f",
      "title": "On Acceleration with Noise-Corrupted Gradients",
      "venue": "International Conference on Machine Learning",
      "year": 2018,
      "referenceCount": 44,
      "citationCount": 87,
      "authors": [
        {
          "authorId": "2143428166",
          "name": "Michael Cohen"
        },
        {
          "authorId": "2381725507",
          "name": "Jelena Diakonikolas"
        },
        {
          "authorId": "2399389153",
          "name": "Lorenzo Orecchia"
        }
      ]
    },
    {
      "paperId": "272a926baee0611150dfdb13d73b8df1b63d46f7",
      "externalIds": {
        "CorpusId": 260443946
      },
      "url": "https://www.semanticscholar.org/paper/272a926baee0611150dfdb13d73b8df1b63d46f7",
      "title": "On Acceleration with Noise-Corrupted Gradients",
      "venue": "",
      "year": 2018,
      "referenceCount": 0,
      "citationCount": 0,
      "authors": []
    },
    {
      "paperId": "9abeaf6b7834566814b16278bdebccd2c4c8860c",
      "externalIds": {
        "DBLP": "journals/jmlr/ZhouP22",
        "CorpusId": 252647152
      },
      "url": "https://www.semanticscholar.org/paper/9abeaf6b7834566814b16278bdebccd2c4c8860c",
      "title": "On Acceleration for Convex Composite Minimization with Noise-Corrupted Gradients and Approximate Proximal Mapping",
      "venue": "Journal of machine learning research",
      "year": 2022,
      "referenceCount": 65,
      "citationCount": 2,
      "authors": [
        {
          "authorId": "2118355549",
          "name": "Qiang Zhou"
        }
      ]
    },
    {
      "paperId": "ba5019e420b329e6fb2ee9b0ba981a4882e7c022",
      "externalIds": {
        "DBLP": "journals/corr/abs-2111-13263",
        "ArXiv": "2111.13263",
        "CorpusId": 244709052
      },
      "url": "https://www.semanticscholar.org/paper/ba5019e420b329e6fb2ee9b0ba981a4882e7c022",
      "title": "Negative curvature obstructs acceleration for geodesically convex optimization, even with exact first-order oracles",
      "venue": "Annual Conference Computational Learning Theory",
      "year": 2021,
      "referenceCount": 79,
      "citationCount": 25,
      "authors": [
        {
          "authorId": "146349807",
          "name": "Christopher Criscitiello"
        },
        {
          "authorId": "2418520",
          "name": "Nicolas Boumal"
        }
      ]
    },
    {
      "paperId": "a91464b9e4f91822db1de9f4327f8ad1dc943d86",
      "externalIds": {
        "CorpusId": 231601710
      },
      "url": "https://www.semanticscholar.org/paper/a91464b9e4f91822db1de9f4327f8ad1dc943d86",
      "title": "ARMAX parameter estimation using hybrid optimization techniques",
      "venue": "",
      "year": 2003,
      "referenceCount": 10,
      "citationCount": 0,
      "authors": [
        {
          "authorId": "1934076",
          "name": "D. Koulocheris"
        },
        {
          "authorId": "152720321",
          "name": "V. Dertimanis"
        },
        {
          "authorId": "2296679",
          "name": "H. Vrazopoulos"
        }
      ]
    },
    {
      "paperId": "8fdba3debf237d6ba1292176ef0361b5c73b0b50",
      "externalIds": {
        "MAG": "3083194044",
        "DBLP": "journals/jmlr/KulunchakovM20",
        "ArXiv": "1901.08788",
        "CorpusId": 59291910
      },
      "url": "https://www.semanticscholar.org/paper/8fdba3debf237d6ba1292176ef0361b5c73b0b50",
      "title": "Estimate Sequences for Stochastic Composite Optimization: Variance Reduction, Acceleration, and Robustness to Noise",
      "venue": "Journal of machine learning research",
      "year": 2019,
      "referenceCount": 57,
      "citationCount": 46,
      "authors": [
        {
          "authorId": "19227308",
          "name": "A. Kulunchakov"
        },
        {
          "authorId": "2599292",
          "name": "J. Mairal"
        }
      ]
    },
    {
      "paperId": "421bfcee4c2e586ae752eb999fce1aed18c799bc",
      "externalIds": {
        "DOI": "10.1093/gji/ggab336",
        "CorpusId": 239151441
      },
      "url": "https://www.semanticscholar.org/paper/421bfcee4c2e586ae752eb999fce1aed18c799bc",
      "title": "Modeling tilt noise caused by atmospheric processes at long periods for several horizontal seismometers at BFO - a reprise",
      "venue": "Geophysical Journal International",
      "year": 2021,
      "referenceCount": 37,
      "citationCount": 7,
      "authors": [
        {
          "authorId": "14705202",
          "name": "W. Zürn"
        },
        {
          "authorId": "69466743",
          "name": "T. Forbriger"
        },
        {
          "authorId": "2126728709",
          "name": "R. Widmer‐Schnidrig"
        },
        {
          "authorId": "153112757",
          "name": "P. Duffner"
        },
        {
          "authorId": "145891686",
          "name": "A. Ringler"
        }
      ]
    },
    {
      "paperId": "72318de8fb93dde7ffde6a9d29e3e45324fdbb9e",
      "externalIds": {
        "ArXiv": "2303.17239",
        "DBLP": "journals/corr/abs-2303-17239",
        "DOI": "10.48550/arXiv.2303.17239",
        "CorpusId": 257833860
      },
      "url": "https://www.semanticscholar.org/paper/72318de8fb93dde7ffde6a9d29e3e45324fdbb9e",
      "title": "Retrospective Motion Correction in Gradient Echo MRI by Explicit Motion Estimation Using Deep CNNs",
      "venue": "arXiv.org",
      "year": 2023,
      "referenceCount": 57,
      "citationCount": 7,
      "authors": [
        {
          "authorId": "51919757",
          "name": "Mathias S. Feinler"
        },
        {
          "authorId": "3490495",
          "name": "B. Hahn"
        }
      ]
    },
    {
      "paperId": "26f10c0dfc290451cdc5d0bb41d599a297b0a947",
      "externalIds": {
        "CorpusId": 267849654
      },
      "url": "https://www.semanticscholar.org/paper/26f10c0dfc290451cdc5d0bb41d599a297b0a947",
      "title": "CONSTRAINED MINIMIZATION ALGORITHMS",
      "venue": "",
      "year": 2021,
      "referenceCount": 9,
      "citationCount": 0,
      "authors": [
        {
          "authorId": "2285735934",
          "name": "D. Mary"
        },
        {
          "authorId": "1808199",
          "name": "C. Theys"
        },
        {
          "authorId": "2285726758",
          "name": "C. Aime"
        }
      ]
    },
    {
      "paperId": "633b5101675b84400d66eeee92f93016e6244286",
      "externalIds": {
        "MAG": "1994182982",
        "DOI": "10.1007/S10751-011-0382-9",
        "CorpusId": 119524908
      },
      "url": "https://www.semanticscholar.org/paper/633b5101675b84400d66eeee92f93016e6244286",
      "title": "The AEgIS antihydrogen gravity experiment",
      "venue": "",
      "year": 2012,
      "referenceCount": 18,
      "citationCount": 5,
      "authors": [
        {
          "authorId": "48853833",
          "name": "L. Jørgensen"
        },
        {
          "authorId": "120947920",
          "name": "On behalf of the Atlas Collaboration"
        }
      ]
    }
  ]
}