{
  "total": 10649,
  "offset": 0,
  "next": 10,
  "data": [
    {
      "paperId": "b7cf49e30355633af2db19f35189410c8515e91f",
      "externalIds": {
        "DBLP": "journals/corr/GuptaAGN15",
        "MAG": "2950826343",
        "ArXiv": "1502.02551",
        "CorpusId": 2547043
      },
      "url": "https://www.semanticscholar.org/paper/b7cf49e30355633af2db19f35189410c8515e91f",
      "title": "Deep Learning with Limited Numerical Precision",
      "venue": "International Conference on Machine Learning",
      "year": 2015,
      "referenceCount": 33,
      "citationCount": 2166,
      "authors": [
        {
          "authorId": "2116011472",
          "name": "Suyog Gupta"
        },
        {
          "authorId": "31651864",
          "name": "A. Agrawal"
        },
        {
          "authorId": "33678523",
          "name": "K. Gopalakrishnan"
        },
        {
          "authorId": "32967358",
          "name": "P. Narayanan"
        }
      ]
    },
    {
      "paperId": "863778da28d00a091bf913705f1ec5fe0065b0dc",
      "externalIds": {
        "DOI": "10.1109/jsen.2021.3100636",
        "CorpusId": 237521235
      },
      "url": "https://www.semanticscholar.org/paper/863778da28d00a091bf913705f1ec5fe0065b0dc",
      "title": "Garbage Disposal of Complex Background Based on Deep Learning With Limited Hardware Resources",
      "venue": "IEEE Sensors Journal",
      "year": 2021,
      "referenceCount": 0,
      "citationCount": 29,
      "authors": [
        {
          "authorId": "119000628",
          "name": "Jiewen Feng"
        },
        {
          "authorId": "2118487263",
          "name": "Xiaoyu Tang"
        },
        {
          "authorId": "2134053355",
          "name": "Xingjian Jiang"
        },
        {
          "authorId": "1575514411",
          "name": "Qunyuan Chen"
        }
      ]
    },
    {
      "paperId": "70ae40d12916d97b657ef350dea9ec88def193af",
      "externalIds": {
        "DBLP": "conf/asap/WijeratneJDP18",
        "ArXiv": "2109.03040",
        "MAG": "2889090406",
        "DOI": "10.1109/ASAP.2018.8445087",
        "CorpusId": 52112126
      },
      "url": "https://www.semanticscholar.org/paper/70ae40d12916d97b657ef350dea9ec88def193af",
      "title": "Reconfigurable Co-Processor Architecture with Limited Numerical Precision to Accelerate Deep Convolutiosnal Neural Networks",
      "venue": "IEEE International Conference on Application-Specific Systems, Architectures, and Processors",
      "year": 2018,
      "referenceCount": 19,
      "citationCount": 7,
      "authors": [
        {
          "authorId": "31027299",
          "name": "Sasindu Wijeratne"
        },
        {
          "authorId": "51231879",
          "name": "Sandaruwan Jayaweera"
        },
        {
          "authorId": "2324287607",
          "name": "Mahesh Dananjaya"
        },
        {
          "authorId": "144224514",
          "name": "A. Pasqual"
        }
      ]
    },
    {
      "paperId": "70a4c54b5f51d9c9ed116ea74c9aac8b7f9237ca",
      "externalIds": {
        "MAG": "2989726971",
        "DBLP": "conf/mcsoc/KiyamaAI19",
        "DOI": "10.1109/MCSoC.2019.00019",
        "CorpusId": 208207801
      },
      "url": "https://www.semanticscholar.org/paper/70a4c54b5f51d9c9ed116ea74c9aac8b7f9237ca",
      "title": "Deep Learning Framework with Arbitrary Numerical Precision",
      "venue": "International Symposium on Embedded Multicore/Many-core Systems-on-Chip",
      "year": 2019,
      "referenceCount": 18,
      "citationCount": 2,
      "authors": [
        {
          "authorId": "1423673507",
          "name": "M. Kiyama"
        },
        {
          "authorId": "1807140",
          "name": "Motoki Amagasaki"
        },
        {
          "authorId": "2059205941",
          "name": "M. Iida"
        }
      ]
    },
    {
      "paperId": "7874340679ed0d90ce33b090ab875d0094a8e709",
      "externalIds": {
        "MAG": "2512629640",
        "ArXiv": "1608.06902",
        "DBLP": "journals/corr/OttLZLB16",
        "CorpusId": 6555379
      },
      "url": "https://www.semanticscholar.org/paper/7874340679ed0d90ce33b090ab875d0094a8e709",
      "title": "Recurrent Neural Networks With Limited Numerical Precision",
      "venue": "arXiv.org",
      "year": 2016,
      "referenceCount": 32,
      "citationCount": 79,
      "authors": [
        {
          "authorId": "2061635622",
          "name": "Joachim Ott"
        },
        {
          "authorId": "3146592",
          "name": "Zhouhan Lin"
        },
        {
          "authorId": "48379623",
          "name": "Y. Zhang"
        },
        {
          "authorId": "1704961",
          "name": "Shih-Chii Liu"
        },
        {
          "authorId": "1751762",
          "name": "Yoshua Bengio"
        }
      ]
    },
    {
      "paperId": "274d23694d31fe77aae9a042cc23c7a53858fa63",
      "externalIds": {
        "ArXiv": "2503.17985",
        "DBLP": "journals/corr/abs-2503-17985",
        "DOI": "10.48550/arXiv.2503.17985",
        "CorpusId": 277272419
      },
      "url": "https://www.semanticscholar.org/paper/274d23694d31fe77aae9a042cc23c7a53858fa63",
      "title": "Optimizing Navigation And Chemical Application in Precision Agriculture With Deep Reinforcement Learning And Conditional Action Tree",
      "venue": "arXiv.org",
      "year": 2025,
      "referenceCount": 0,
      "citationCount": 6,
      "authors": []
    },
    {
      "paperId": "1e862258be59567061dd3b15b14d67d6df2a0d7f",
      "externalIds": {
        "PubMedCentral": "12134256",
        "DOI": "10.1038/s41598-025-95720-5",
        "CorpusId": 279122196,
        "PubMed": "40461585"
      },
      "url": "https://www.semanticscholar.org/paper/1e862258be59567061dd3b15b14d67d6df2a0d7f",
      "title": "Multimodal deep learning for chemical toxicity prediction and management",
      "venue": "Scientific Reports",
      "year": 2025,
      "referenceCount": 46,
      "citationCount": 12,
      "authors": [
        {
          "authorId": "2365475267",
          "name": "Jiwon Hong"
        },
        {
          "authorId": "2365362514",
          "name": "Hyun Kwon"
        }
      ]
    },
    {
      "paperId": "4281597b1643e2a09222844a07fbeaacf7c3ad8c",
      "externalIds": {
        "DBLP": "journals/corr/abs-2501-00780",
        "ArXiv": "2501.00780",
        "DOI": "10.48550/arXiv.2501.00780",
        "CorpusId": 275212108
      },
      "url": "https://www.semanticscholar.org/paper/4281597b1643e2a09222844a07fbeaacf7c3ad8c",
      "title": "Solving McKean-Vlasov Equation by deep learning particle method",
      "venue": "arXiv.org",
      "year": 2025,
      "referenceCount": 0,
      "citationCount": 1,
      "authors": [
        {
          "authorId": "2274070233",
          "name": "Jingyuan Li"
        },
        {
          "authorId": "2274193681",
          "name": "Wei Liu"
        }
      ]
    },
    {
      "paperId": "e038189d0f0f56fee96b63ca449931efb8a5ed43",
      "externalIds": {
        "DOI": "10.14419/cmf93x48",
        "CorpusId": 280769501
      },
      "url": "https://www.semanticscholar.org/paper/e038189d0f0f56fee96b63ca449931efb8a5ed43",
      "title": "Deep Learning for Vibration Signature Analysis in CNC Turning:‎ A Review of Modern Techniques and Future Directions",
      "venue": "International Journal of Basic and Applied Sciences",
      "year": 2025,
      "referenceCount": 0,
      "citationCount": 0,
      "authors": [
        {
          "authorId": "2376907530",
          "name": "Neha Vilas Nalande"
        },
        {
          "authorId": "2356016349",
          "name": "Sudhir Madhav Patil"
        },
        {
          "authorId": "2376907313",
          "name": "Rutuja Krishnat Shivdas"
        },
        {
          "authorId": "2376906686",
          "name": "Vaibhav Vilas Nalande"
        }
      ]
    },
    {
      "paperId": "9928888432a2975d1b63c673e9f764af3c23dcdc",
      "externalIds": {
        "DOI": "10.1109/IC3IT66137.2025.11340969",
        "CorpusId": 284967405
      },
      "url": "https://www.semanticscholar.org/paper/9928888432a2975d1b63c673e9f764af3c23dcdc",
      "title": "Personalized English Resource Recommendation of English Teaching using a Deep Learning Approach",
      "venue": "2025 International Conference on Communication, Computer, and Information Technology (IC3IT)",
      "year": 2025,
      "referenceCount": 18,
      "citationCount": 0,
      "authors": [
        {
          "authorId": "1978329925",
          "name": "Yingchun Zheng"
        }
      ]
    }
  ]
}